# Nsamples: 177  MAD:  0.672  mean:  0.402  variance:  1.167
gfz2010ahqi   0.07325
gfz2010bjeb   0.35781
gfz2010bowy  -0.01230
gfz2010bxxs   0.71576
gfz2010cqwl   0.15170
gfz2010dlgc   0.07348
gfz2010eaoy  -0.52756
gfz2010eapk   0.44415
gfz2010eapn   1.45110
gfz2010eaqe   0.44910
gfz2010eaqx  -0.14323
gfz2010eaqy   0.01261
gfz2010earu  -1.16140
gfz2010easf   0.27453
gfz2010eask   3.11160
gfz2010easo   0.09966
gfz2010easu   0.09182
gfz2010eati  -0.04552
gfz2010eaul   1.49360
gfz2010eavs  -0.36012
gfz2010eawb   1.64500
gfz2010eawu   1.00310
gfz2010eaxn  -1.32870
gfz2010eayx   0.41224
gfz2010ebby   0.16927
gfz2010ebfx   0.03987
gfz2010ebhc   0.06478
gfz2010ebih  -0.32619
gfz2010ebin  -0.42458
gfz2010ebjy  -0.26313
gfz2010ebkj   0.04217
gfz2010ebll  -1.69630
gfz2010ebmb  -0.83135
gfz2010ebnn  -0.39099
gfz2010ebsv  -0.11647
gfz2010ebvm   1.23510
gfz2010ebvv  -0.02065
gfz2010ebwp   0.64296
gfz2010ebxl   0.52882
gfz2010ebzk   0.42947
gfz2010ebzr   0.53984
gfz2010ecbi  -0.52909
gfz2010eccq  -1.07670
gfz2010eced   0.93358
gfz2010ecfx   3.46940
gfz2010echc   0.29749
gfz2010echt   6.13480
gfz2010echy   0.28560
gfz2010ecns   0.13326
gfz2010ecsp  -1.21660
gfz2010ecua  -0.69132
gfz2010ecyr   3.67920
gfz2010edcp  -0.31710
gfz2010edhr   0.52376
gfz2010edkp  -0.42754
gfz2010edvf   0.39672
gfz2010edyi  -0.35502
gfz2010eeqy  -0.36868
gfz2010eern  -0.14211
gfz2010eevu   0.48041
gfz2010efak   1.05260
gfz2010eisx  -1.93110
gfz2010ejjg   1.04830
gfz2010ekyc  -0.10129
gfz2010elhv   0.98490
gfz2010eltf   0.82473
gfz2010elyc  -0.21073
gfz2010epbe   1.44170
gfz2010epxj   0.32971
gfz2010eqjg   0.71072
gfz2010eryg   0.51642
gfz2010euii  -1.37140
gfz2010eujm   0.47176
gfz2010evkd  -0.49424
gfz2010ewvc   0.39905
gfz2010excp   0.71163
gfz2010exdd  -1.24830
gfz2010exdl   0.78309
gfz2010exed  -0.72639
gfz2010exel   0.82512
gfz2010exgb   2.90370
gfz2010exhd   0.63984
gfz2010exhw   0.41836
gfz2010exjw   0.40656
gfz2010exmc  -0.05014
gfz2010exno   0.24754
gfz2010exsg  -1.20660
gfz2010ezax   0.81193
gfz2010ezck   0.69388
gfz2010ezwz   0.02574
gfz2010ezxd  -0.41889
gfz2010faeu   0.95329
gfz2010falm   0.89229
gfz2010fcax   1.66060
gfz2010fedq  -1.30790
gfz2010ffhq  -0.29909
gfz2010ffjb   0.10309
gfz2010fjal   0.92149
gfz2010fuwa  -0.55261
gfz2010fync   0.70035
gfz2010gcrp  -0.45139
gfz2010gdld   0.59874
gfz2010grjd  -0.02086
gfz2010gyqp   0.51125
gfz2010hbka   0.39686
gfz2010hlmq  -0.52047
gfz2010hrpr  -0.07975
gfz2010imfv   0.50698
gfz2010iobp   0.81121
gfz2010iqnm   0.44019
gfz2010iull   0.86135
gfz2010jxbm   0.37121
gfz2010lluj   0.55233
gfz2010mipi   0.81620
gfz2010miqn  -0.04011
gfz2010moyw   0.02209
gfz2010mwdq  -0.03948
gfz2010ncrl  -0.10240
gfz2010nfsj   1.64230
gfz2010nmpc   0.62536
gfz2010nqwf  -0.15296
gfz2010nqwo  -0.61720
gfz2010nrjo  -0.14758
gfz2010nsck  -0.19849
gfz2010onma   0.15503
gfz2010rqwj   0.29180
gfz2010srdb   0.47247
gfz2010tcbr   0.69739
gfz2010upfb   0.46551
gfz2010ustq   0.76683
gfz2010utcg   0.08169
gfz2010xgzw   0.76497
gfz2011cfae   0.71741
gfz2011csju   0.49572
gfz2011cvcg  -0.11484
gfz2011cykd  -1.18560
gfz2011cyre   0.41046
gfz2011cyuk  -0.44584
gfz2011dbev  -0.80949
gfz2011dbig   0.45898
gfz2011dbon   0.71395
gfz2011dcqb   2.65140
gfz2011dpqx   1.48790
gfz2011ecaj  -0.27737
gfz2011ehzq  -0.11391
gfz2011enva   0.06968
gfz2011etje   0.51377
gfz2011fgvr   2.00230
gfz2011fhag  -0.42928
gfz2011fnsw   0.69654
gfz2011gbmx   0.29833
gfz2011gjlx   0.41720
gfz2011gkzt   0.26076
gfz2011hfkj   0.35491
gfz2011hlqw   1.52040
gfz2011hlsa   0.62267
gfz2011hpqp   5.55550
gfz2011jplh   0.94166
gfz2011kqwo   0.73912
gfz2011kxzp   0.02904
gfz2011lcxq   1.19070
gfz2011lzwj   1.11060
gfz2011mdie   0.84440
gfz2011nudm  -0.59922
gfz2011vhfi   0.26238
gfz2011vrhg   0.11539
gfz2011vxns  -1.58410
gfz2011wwjs  -0.18316
gfz2011wxfs   0.38431
gfz2011xyxj   0.72516
gfz2012ilvn   0.27269
gfz2012imay   0.72804
gfz2012jgvj   0.88136
gfz2012jlox   0.65281
gfz2012keor   3.98550
gfz2013kdeo   2.94890
gfz2013qmer   1.69580
