# Nsamples: 773  MAD:  0.914  mean:  0.914  variance:  1.202
gfz2010bfzs  -0.60645
gfz2010bifb   1.32770
gfz2010bjeb   0.47052
gfz2010bxxs   0.34906
gfz2010caft   0.53226
gfz2010cbkg   0.72956
gfz2010dlgc   0.23042
gfz2010eaoy  -2.02770
gfz2010eapk  -1.44470
gfz2010eapn  -0.57954
gfz2010eaqy  -1.18160
gfz2010earq  -0.51110
gfz2010earu  -1.39790
gfz2010easo  -0.43109
gfz2010easu  -0.90857
gfz2010eato  -0.47318
gfz2010eazu  -3.40180
gfz2010ebhc   0.06289
gfz2010ebnn  -1.46780
gfz2010ebvm   0.78917
gfz2010ebvv  -0.32335
gfz2010ecua  -0.37061
gfz2010edhv  -2.55360
gfz2010eisx  -6.36510
gfz2010ejjg  -0.44207
gfz2010ekyc   0.03175
gfz2010eltf  -1.39490
gfz2010elyc  -1.94940
gfz2010excp  -1.83690
gfz2010exdd   1.06580
gfz2010exgb   2.93460
gfz2010fedq  -3.90410
gfz2010ffhq   0.21908
gfz2010fync   0.57207
gfz2010gcrl   2.15760
gfz2010gdld   0.90887
gfz2010gyqp  -0.08356
gfz2010gzxr  -0.78317
gfz2010hcio  -0.46556
gfz2010hlco  -0.37773
gfz2010hllj   0.99140
gfz2010hlmq  -0.51782
gfz2010hmhm   0.35050
gfz2010hnnf  -0.01351
gfz2010hnpi  -0.04825
gfz2010homc   0.79878
gfz2010hptz   0.11906
gfz2010hrkr   1.87660
gfz2010hrpr   0.96854
gfz2010hxgv   0.53670
gfz2010icqq   0.03236
gfz2010ihrq   2.93700
gfz2010iibf  -0.00000
gfz2010iimu   1.09730
gfz2010imfv   0.32436
gfz2010iobp  -0.18190
gfz2010iqnm  -0.97197
gfz2010iull   1.19510
gfz2010izzj  -0.04905
gfz2010jant  -0.38818
gfz2010jatq  -0.18433
gfz2010jhie  -0.03402
gfz2010jipf   1.29840
gfz2010jpyj   0.93039
gfz2010jqxx   0.26815
gfz2010jssh  -0.38694
gfz2010jwpy   2.71210
gfz2010jxbm  -0.25350
gfz2010jygz   2.09600
gfz2010kdyc   1.17930
gfz2010kqyh   0.11125
gfz2010lcoq  -0.68906
gfz2010lgwy   0.51465
gfz2010lluj   0.98912
gfz2010lopz   2.42200
gfz2010mant  -0.03830
gfz2010mbje   1.82850
gfz2010ncrl   0.78246
gfz2010nmpc  -1.32800
gfz2010nqwf  -0.62357
gfz2010nqwo  -0.11518
gfz2010nrjo   0.20575
gfz2010nsck  -0.16488
gfz2010ntuo  -0.38634
gfz2010nwef   0.83748
gfz2010nxsy  -0.00000
gfz2010nxum   0.31437
gfz2010ocxq  -0.22788
gfz2010okdm   0.09291
gfz2010oluw   0.40210
gfz2010osjs  -0.11096
gfz2010osqo   0.72113
gfz2010otbn  -0.43171
gfz2010pets   0.58903
gfz2010pewx  -0.21395
gfz2010pexf  -0.15834
gfz2010pmqd  -0.35002
gfz2010pqck  -0.66404
gfz2010qitd  -0.30889
gfz2010qjst  -0.21157
gfz2010qpum   0.71777
gfz2010qpvi  -0.33381
gfz2010rqwj  -2.87390
gfz2010sfee   0.66297
gfz2010sysw   1.55950
gfz2010truw   0.75032
gfz2010txjs   0.80010
gfz2010upfb  -0.48514
gfz2010upiw   1.08300
gfz2010uzon   0.20085
gfz2010vbmd   0.90347
gfz2010vyxd   1.23440
gfz2010wntz   1.69390
gfz2010xden   2.63400
gfz2010xjck   1.04500
gfz2010xjsj   1.45350
gfz2010xmpr   0.74631
gfz2010xxdb   0.84729
gfz2010ymfy   2.12010
gfz2011cndo   0.95825
gfz2011csju   1.12090
gfz2011cvfg   0.32339
gfz2011cykd  -2.08630
gfz2011cyre  -1.08890
gfz2011dbev   0.34638
gfz2011dbig  -0.17704
gfz2011dbon   0.83077
gfz2011dcqb  -0.53452
gfz2011dcqf   0.39509
gfz2011dkyi   1.57630
gfz2011dlyx   1.13910
gfz2011dpqx   0.20949
gfz2011eazf   0.79538
gfz2011ecaj   0.06374
gfz2011enva  -0.66704
gfz2011eocc   1.41650
gfz2011etje   0.22151
gfz2011fhur   1.48690
gfz2011fnsw   1.79200
gfz2011gbmx   1.10120
gfz2011gcwb   1.58250
gfz2011gjlx   0.77100
gfz2011gkzt  -0.30084
gfz2011hfkj   0.76689
gfz2011hlqw   0.01513
gfz2011hlsa   0.14530
gfz2011hpgx  -0.19116
gfz2011ieie   1.14670
gfz2011iwte   0.26385
gfz2011jghb   0.26331
gfz2011jmbn   0.93532
gfz2011jplh   0.63203
gfz2011juid  -0.14545
gfz2011kqyg   0.89387
gfz2011kwni   0.48481
gfz2011kxzp   0.84484
gfz2011lcxq   0.01803
gfz2011lgsg   0.82793
gfz2011lzwj   1.31560
gfz2011mdie   1.39460
gfz2011mpme   0.08608
gfz2011nmnq   0.09287
gfz2011ntkh   1.62660
gfz2011ogqk  -0.32048
gfz2011oiqe   1.79610
gfz2011orgn   1.51250
gfz2011owvz   0.07529
gfz2011ozsl   1.04490
gfz2011pccd   0.27887
gfz2011pdpt   1.62710
gfz2011qvae   0.92504
gfz2011rabm  -0.26467
gfz2011rewa  -0.26519
gfz2011rgwp   1.11730
gfz2011rsrh   0.72300
gfz2011rznl   1.70060
gfz2011sagt   1.03670
gfz2011sawg   1.56460
gfz2011taps   0.32050
gfz2011tbas   1.10550
gfz2011tcij   0.93438
gfz2011tjrf   1.15520
gfz2011tkfp  -0.01996
gfz2011toub   0.32020
gfz2011ujze   1.58970
gfz2011ukmp   1.36740
gfz2011uphh   1.48500
gfz2011vhfi   0.74536
gfz2011vldk   0.86885
gfz2011vnza   1.57830
gfz2011vxns  -1.40550
gfz2011vxod   1.74560
gfz2011wcic   0.18609
gfz2011wjul   1.94750
gfz2011wwjs   0.41640
gfz2011wxfs   1.59450
gfz2011wxtk   1.04140
gfz2011wype  -0.58053
gfz2011xaan   0.41726
gfz2011xcpv   0.74269
gfz2011xesx   1.79830
gfz2011xyxj   0.30074
gfz2011yfdx   1.34140
gfz2011yhwz   0.67704
gfz2011yybo   2.77130
gfz2011zklv   0.84398
gfz2012aqgp   1.52880
gfz2012bpkx   0.12937
gfz2012enno   0.74554
gfz2012fzfa  -0.43446
gfz2012hnul   0.81047
gfz2012hzbe   0.72199
gfz2012ihdl   1.40810
gfz2012ilvn   0.94017
gfz2012imay   1.15510
gfz2012intn   0.33578
gfz2012jlox   0.97303
gfz2012jshk   2.02890
gfz2012jupx   0.20727
gfz2012kbjb   1.14230
gfz2012kuct   0.58761
gfz2012kudo   0.29795
gfz2012ldxg   0.63548
gfz2012mkpn   0.95296
gfz2012mvwr   1.60720
gfz2012ngic   1.99420
gfz2012njha   1.20210
gfz2012nkdf   0.18964
gfz2012nxyt  -0.32179
gfz2012oazn   1.69340
gfz2012obgw   0.20213
gfz2012oedb   0.93556
gfz2012oycg   1.57710
gfz2012peki   0.73248
gfz2012repv   0.70727
gfz2012rwko   1.75860
gfz2012rwov   0.92588
gfz2012rypu   0.52547
gfz2012sphd   0.75771
gfz2012tbbp  -0.01525
gfz2012tpzx   4.45050
gfz2012ttoa   1.14550
gfz2012tvmv  -0.61707
gfz2012tyig   0.94774
gfz2012tzcc   1.80830
gfz2012uafg  -0.48773
gfz2012uaqj   1.23290
gfz2012uciv   1.10590
gfz2012uyxb   0.85913
gfz2012uzom   0.05071
gfz2012vntz   1.57200
gfz2012vrgb   0.87150
gfz2012wklq  -0.31957
gfz2012wxlg   0.53339
gfz2012wypz   1.22750
gfz2013axoj   0.53663
gfz2013ccnr   3.27540
gfz2013drxz   1.66520
gfz2013hmbc   0.54774
gfz2013ippu   1.54080
gfz2013iunn   0.89474
gfz2013jesk   0.15730
gfz2013jgij   1.81210
gfz2013jgip   0.99635
gfz2013jkut   1.95760
gfz2013jokw   0.25381
gfz2013jusj  -1.06820
gfz2013kdeo   2.63760
gfz2013kheb   0.06128
gfz2013kvtk   1.03370
gfz2013kweg   1.64150
gfz2013lajn   0.50487
gfz2013lbiu   3.22220
gfz2013ldos   1.09540
gfz2013ldqb   1.22900
gfz2013lixa   1.37330
gfz2013lsob   3.66730
gfz2013lyko   1.44590
gfz2013mded   6.46410
gfz2013mqmv   3.23130
gfz2013mvgr   1.32780
gfz2013mwbh   0.60710
gfz2013ncjp   3.41190
gfz2013ngnt   0.42364
gfz2013nixj   0.83365
gfz2013nkgj   1.85900
gfz2013nlxz   1.05000
gfz2013nmac   0.69093
gfz2013nojf   1.63310
gfz2013nwdi   0.78617
gfz2013ornz   2.33880
gfz2013pcos   1.76390
gfz2013pfbx   2.04480
gfz2013pfeb   0.86308
gfz2013pffm   1.50060
gfz2013phef   0.93852
gfz2013puag   0.70774
gfz2013pxsj   1.28670
gfz2013qfmm   0.91574
gfz2013qmer   1.72930
gfz2013qzdq   1.06570
gfz2013rdoo   1.41810
gfz2013rrza  -0.09442
gfz2013sdus   1.44140
gfz2013sebq   1.35870
gfz2013shlq   1.47760
gfz2013shzy   1.63000
gfz2013skkm   1.39190
gfz2013sllq   0.43291
gfz2013snyf   2.73200
gfz2013sred   1.96390
gfz2013stht  -0.50408
gfz2013suln   1.32380
gfz2013suvn   1.38110
gfz2013svci   0.62367
gfz2013tbzy   0.21419
gfz2013tcxc   1.31890
gfz2013tcxq   1.22280
gfz2013toea   0.79966
gfz2013toxf   1.96420
gfz2013tusd   1.96120
gfz2013tvmw   2.16750
gfz2013txtb   1.11540
gfz2013uauo   1.03030
gfz2013uqsp   0.79680
gfz2013uuzn   1.49650
gfz2013vdic   1.03160
gfz2013vexx   2.31150
gfz2013vfyw   1.30810
gfz2013vfzp   1.43410
gfz2013vgau   3.03550
gfz2013vgrk   1.25210
gfz2013viul   1.19020
gfz2013vjfe   1.19060
gfz2013vjjc  -1.47050
gfz2013vsbl   1.15720
gfz2013vsxi  -1.15240
gfz2013vvrq   0.43369
gfz2013vzbo   1.00530
gfz2013wjmm   0.53545
gfz2013wkyk   0.98728
gfz2013wtzl   1.26310
gfz2013wuon   2.21410
gfz2013xmul   1.26770
gfz2013xsdt   0.81148
gfz2013xvqd   1.39150
gfz2013xwda   1.54680
gfz2013xwzd   1.02960
gfz2013xxwv   2.07790
gfz2013xxxq   1.91160
gfz2013yctg   1.29410
gfz2013yghj   1.51570
gfz2013yhpk   0.61968
gfz2013ylbx  -0.28888
gfz2013ypdc   1.51800
gfz2013yqkv   1.86930
gfz2013yyhc  -2.42940
gfz2013zjel   1.83700
gfz2014adoj   1.75570
gfz2014afmx   2.17800
gfz2014agyz   1.01140
gfz2014ande   2.31470
gfz2014arpf   0.83225
gfz2014bagd   1.23290
gfz2014bezu   1.01220
gfz2014bjsy   1.91190
gfz2014bmta   1.24220
gfz2014bwue   0.84992
gfz2014bzxy   2.35690
gfz2014czol   0.59432
gfz2014czqi   1.65160
gfz2014czua   2.20210
gfz2014dhxt   1.50470
gfz2014disp   0.12544
gfz2014ekcr   1.45760
gfz2014enhi  -0.54544
gfz2014fhdw   2.05810
gfz2014fhla   1.53000
gfz2014fhrq   2.31740
gfz2014fjzd   2.07240
gfz2014fkmr   4.07260
gfz2014fnyg   1.45540
gfz2014frdz   3.79270
gfz2014frez   2.92420
gfz2014ftka   1.68340
gfz2014ftoc   2.95100
gfz2014ftpw   0.67277
gfz2014furx   2.82970
gfz2014fusj   1.83760
gfz2014fuup   3.17160
gfz2014fvaa   2.13590
gfz2014fval   2.77100
gfz2014fvrg   2.94090
gfz2014fxhd   1.54280
gfz2014gbdq  -0.09422
gfz2014ghpe   1.41580
gfz2014gkgf   1.52780
gfz2014gkgs   0.40490
gfz2014gkhp  -0.02069
gfz2014gkjt   1.41470
gfz2014gkob  -2.16890
gfz2014gkpj   0.01662
gfz2014gkqf   2.80330
gfz2014gkqu   1.60360
gfz2014gktq   1.82350
gfz2014glcu   2.35600
gfz2014glcy   1.57160
gfz2014gmge   2.21230
gfz2014gmhp   1.50020
gfz2014gmhr   0.75385
gfz2014gmnb   2.36060
gfz2014gmnw   2.49100
gfz2014gndq   2.04380
gfz2014goba   3.61990
gfz2014goqw   3.10090
gfz2014gori   2.21490
gfz2014gpya   2.95350
gfz2014gqbj   3.57780
gfz2014gqer   1.54390
gfz2014gqve   2.97440
gfz2014gsqs   3.64040
gfz2014gull   2.63270
gfz2014gulp   1.49830
gfz2014gwab   4.34240
gfz2014gwgf   1.11190
gfz2014gxxo   1.98950
gfz2014hasj   2.15750
gfz2014hauo   0.97966
gfz2014hbqb   1.81180
gfz2014hfhl   3.05350
gfz2014hgqo   2.30330
gfz2014hkcf   4.75150
gfz2014hocg   1.04760
gfz2014huaj   2.91700
gfz2014hyal   1.36560
gfz2014hyvq   3.31160
gfz2014hzdy   1.93930
gfz2014hzfw   1.07700
gfz2014hzhe   0.75478
gfz2014ikun   0.17416
gfz2014imnn   2.95780
gfz2014inbj   0.87783
gfz2014iobd   1.63600
gfz2014isys   0.97372
gfz2014itkw   3.16200
gfz2014iywt  -0.40297
gfz2014jatq   1.42720
gfz2014jcmt   2.24330
gfz2014jjhc   1.59140
gfz2014jjln   2.84410
gfz2014jlwb   0.19684
gfz2014jmnk   1.17220
gfz2014jnxm   3.37700
gfz2014jnyv   1.37160
gfz2014jomw   1.27070
gfz2014jpep   2.30270
gfz2014jpxs   1.74850
gfz2014jwmh   1.00360
gfz2014kndc   1.37410
gfz2014knks   0.21009
gfz2014knxs   0.48998
gfz2014krlg   1.08100
gfz2014ksdv   1.33340
gfz2014kyan   1.15730
gfz2014kytf   1.09370
gfz2014kzzm  -0.06273
gfz2014lbxn   0.81928
gfz2014ldhu   1.20600
gfz2014lefs  -0.24564
gfz2014lkyf   0.59783
gfz2014lmge  -0.48509
gfz2014lpim   1.13390
gfz2014lrzx   0.97553
gfz2014lxnc   2.70730
gfz2014lyhk   2.48990
gfz2014lyhp   1.60640
gfz2014lzow   0.28401
gfz2014macx   2.62070
gfz2014madw   1.96730
gfz2014mawp   1.21390
gfz2014mhgg   0.76381
gfz2014mtum   1.88750
gfz2014mwor   0.36802
gfz2014ngnd   1.29830
gfz2014niqj   1.64270
gfz2014nkdx   0.75040
gfz2014nowp   1.97150
gfz2014npdk   1.03120
gfz2014npeo   0.07860
gfz2014nphm   1.52810
gfz2014nqfm   2.20950
gfz2014nrie   2.37080
gfz2014nylm   1.06410
gfz2014odgv   1.90920
gfz2014oinz   1.83000
gfz2014omyn   1.61020
gfz2014owxc   1.18740
gfz2014oxcc   0.10636
gfz2014pjer   1.02600
gfz2014pkll   0.89308
gfz2014ppyi   1.49960
gfz2014ppzf   1.38760
gfz2014pqqp   0.20286
gfz2014pvch   0.12565
gfz2014qcxs   1.36790
gfz2014qlvc   0.96357
gfz2014qlxd   2.42550
gfz2014qngj   1.15270
gfz2014qqhm   1.58420
gfz2014raau   1.07450
gfz2014rbsl   2.28050
gfz2014rdsn   0.50113
gfz2014rhju   0.03083
gfz2014riel   1.47200
gfz2014rkwl   0.91475
gfz2014romy   0.53251
gfz2014rtcu   0.74959
gfz2014rucz  -0.33165
gfz2014sadu   0.47595
gfz2014sjqw   0.32194
gfz2014sptq  -0.47869
gfz2014sryn   1.17090
gfz2014ssmv   1.48430
gfz2014ssvz  -0.06960
gfz2014szzf   0.43235
gfz2014tfgn   1.23640
gfz2014tovs   0.38080
gfz2014tqdo   1.37800
gfz2014tute   1.03060
gfz2014tzsd   1.54240
gfz2014ubwn   0.89697
gfz2014udgg   0.26944
gfz2014uohh   1.15630
gfz2014uuuf   1.08240
gfz2014uvji   1.82240
gfz2014vcev   1.13620
gfz2014vhms   1.83010
gfz2014vjoz   0.95002
gfz2014vpus   0.66591
gfz2014wmsc   0.93720
gfz2014wrkh   1.78950
gfz2014xbyr   0.25313
gfz2014xhkc  -0.41362
gfz2014xjri   1.62050
gfz2014xqqd   1.16130
gfz2014yhhm   2.45690
gfz2015alzx   0.14941
gfz2015aruz   2.00250
gfz2015berb   1.30340
gfz2015chhn   0.06125
gfz2015fkgt  -0.17646
gfz2015fsjj   0.26263
gfz2015gckd   1.78250
gfz2015ggjw   0.97796
gfz2015gkwa   0.67482
gfz2015guhd   1.07660
gfz2015hdcp   1.31230
gfz2015hgbk   2.30860
gfz2015hpmk   2.37860
gfz2015idho   1.91630
gfz2015igsy   1.63650
gfz2015ixyy   0.29021
gfz2015jpap   0.67770
gfz2015jwgl   0.67631
gfz2015jxbx   1.18420
gfz2015jxjd   1.26250
gfz2015jzcv   2.36200
gfz2015kakw   0.77513
gfz2015kkth   0.48259
gfz2015kquq   1.64120
gfz2015ksni   1.08920
gfz2015kvwz   0.98598
gfz2015kxxs   1.57960
gfz2015lcma   0.82667
gfz2015lhjq   1.52350
gfz2015lhjy   1.53570
gfz2015ltii   3.08740
gfz2015lytv  -0.65609
gfz2015lzad   1.52990
gfz2015mddr   2.28380
gfz2015mfpy   0.72977
gfz2015mljd   0.61510
gfz2015mpte   1.53920
gfz2015nqgf   1.11570
gfz2015ntpk  -0.09017
gfz2015nuxz   0.09100
gfz2015nwug   0.78218
gfz2015ocdz   0.44535
gfz2015ofsr   0.92478
gfz2015okmq   1.18080
gfz2015okpu   1.51820
gfz2015opjp   1.48980
gfz2015orkl  -0.39589
gfz2015othd   1.47350
gfz2015oyfl   1.44810
gfz2015pjgr   1.37650
gfz2015poni   0.59570
gfz2015prlr   1.56100
gfz2015qnho   0.91301
gfz2015qnto   1.49870
gfz2015rddx   0.61729
gfz2015rkbq   1.80230
gfz2015rkrg   0.82743
gfz2015rkzg   1.72740
gfz2015rpzn   0.62227
gfz2015rwsb   2.22490
gfz2015saet   0.64725
gfz2015sdeo   2.53920
gfz2015sfdd   0.49389
gfz2015sfdl  -0.09613
gfz2015sfdv   0.43959
gfz2015sfdy  -0.76931
gfz2015sfeo  -0.50527
gfz2015sffn  -0.11374
gfz2015sfga   0.46975
gfz2015sfhz  -0.51535
gfz2015sfiq  -1.27610
gfz2015sfjf   0.84726
gfz2015sfkh   0.28860
gfz2015sfko   0.71692
gfz2015sfks   0.31217
gfz2015sfkz  -0.38571
gfz2015sflf   0.28399
gfz2015sfln   1.69560
gfz2015sfmd   1.66160
gfz2015sfnb  -0.51875
gfz2015sfno  -0.50728
gfz2015sfnv  -0.37465
gfz2015sfoc   0.18916
gfz2015sfoh   1.01210
gfz2015sfoq   2.22570
gfz2015sfpj   1.87320
gfz2015sfps   0.59578
gfz2015sfqo   0.80583
gfz2015sfqr  -1.96850
gfz2015sfrc  -0.28436
gfz2015sfrv   4.31990
gfz2015sfte   0.67462
gfz2015sftu   0.04089
gfz2015sfuc  -0.18902
gfz2015sfuz   1.78460
gfz2015sfwf   1.26200
gfz2015sfxn   0.36719
gfz2015sfzm   1.97660
gfz2015sgad   0.55358
gfz2015sgdj   0.42884
gfz2015sgdn   0.71237
gfz2015sggc   0.52078
gfz2015sghq  -0.70629
gfz2015sgie   1.57330
gfz2015sglg   0.78509
gfz2015sgmm   1.50550
gfz2015sgmr   1.14370
gfz2015sgoa   0.19297
gfz2015sguf  -0.26885
gfz2015sgyd   0.24787
gfz2015shaq  -0.19542
gfz2015shel   1.13190
gfz2015shhg   0.19019
gfz2015shhu  -0.27416
gfz2015shjn   0.13034
gfz2015shjo   0.23996
gfz2015shlp   2.04010
gfz2015shov   2.98020
gfz2015shqc   1.12890
gfz2015shqe   0.22190
gfz2015shrg   0.78747
gfz2015shsz   1.72880
gfz2015sicf   1.76860
gfz2015sicu   0.83817
gfz2015siem   1.00940
gfz2015siky  -0.94280
gfz2015sing   0.51804
gfz2015sist   1.59950
gfz2015sitn   0.37911
gfz2015sixi   0.25080
gfz2015siyy   0.91051
gfz2015sjbx   1.09950
gfz2015sjeq  -1.37420
gfz2015sjfi   1.02790
gfz2015sjgk   0.48366
gfz2015sjjb   0.96051
gfz2015sjne   0.35576
gfz2015sjoj   0.16343
gfz2015sjpn  -0.23463
gfz2015sjvu   0.64627
gfz2015sjwi  -0.60846
gfz2015skab   1.04150
gfz2015skgj   1.23360
gfz2015skia  -0.09990
gfz2015sklu   1.20620
gfz2015skpv   0.54251
gfz2015sldx   0.77392
gfz2015slfn   1.45690
gfz2015sljs  -0.34859
gfz2015slun   0.35031
gfz2015smgj   1.94600
gfz2015smym   0.55918
gfz2015snhn   1.17220
gfz2015snmg   1.52280
gfz2015snmr   0.62986
gfz2015snsf   0.42246
gfz2015snwh   0.16439
gfz2015snyd   0.98493
gfz2015soat   1.07290
gfz2015soxc   0.16458
gfz2015sozw   1.18770
gfz2015sqbg   0.91169
gfz2015sqmy   1.06600
gfz2015sqoz  -1.07590
gfz2015sqvx   0.52295
gfz2015sqwv   0.91003
gfz2015srat   0.83257
gfz2015srgf   0.89272
gfz2015ssoe   1.01230
gfz2015ssrl   1.98110
gfz2015stas   0.62927
gfz2015stcv   1.35640
gfz2015stfy   0.05084
gfz2015stso   1.20350
gfz2015subg   2.11890
gfz2015subz   0.82851
gfz2015sudm   1.08070
gfz2015sunp   0.80462
gfz2015supa   1.29370
gfz2015susq   0.81274
gfz2015svjy  -0.18445
gfz2015svwm   0.51121
gfz2015swgn   0.53361
gfz2015swjx   1.38230
gfz2015swnc   0.31029
gfz2015sxgd   1.16310
gfz2015sxmh   0.46938
gfz2015sxxu   0.24343
gfz2015szcb   0.90835
gfz2015szfe   0.08598
gfz2015sztx   0.06704
gfz2015taml   1.22800
gfz2015tbdn   0.68276
gfz2015tbje   1.10910
gfz2015tbxe   1.37300
gfz2015tdbb   1.22440
gfz2015tdcu   0.62142
gfz2015teje   0.10578
gfz2015temv   0.56285
gfz2015tesj   1.23350
gfz2015teyc   1.50710
gfz2015teyn   0.67649
gfz2015tezd   1.12060
gfz2015tfaz   1.26430
gfz2015tgbp   0.63354
gfz2015thfd   1.59210
gfz2015thfm   2.25780
gfz2015thgc   1.42360
gfz2015thwg   1.09060
gfz2015thwp   0.69979
gfz2015tixi  -0.59477
gfz2015tiyc  -1.31370
gfz2015tjhv   0.38728
gfz2015tkol  -0.21431
gfz2015tlba   0.88358
gfz2015tlkf   0.57565
gfz2015tlok   0.20152
gfz2015tnjd   0.17835
gfz2015tohm   0.10255
gfz2015tojz   1.18510
gfz2015totf   0.86625
gfz2015tpra   0.89902
gfz2015tqff   1.25580
gfz2015tqie   0.62383
gfz2015tqjf   1.89710
gfz2015truf   1.21200
gfz2015tsdm   0.98741
