# Nsamples: 307  MAD:  0.685  mean:  0.108  variance:  0.715
gfz2012spbj   1.73080
gfz2012svpr  -0.92803
gfz2012uxnz   0.47510
gfz2012uzyj   0.23986
gfz2012vwvd   1.22400
gfz2013dkmz   1.35010
gfz2013inux   0.82160
gfz2013iodt   0.99875
gfz2013jgip  -0.83867
gfz2013jmcc   2.30240
gfz2013jokw  -0.39435
gfz2013jusj  -1.12170
gfz2013kvtk  -0.44560
gfz2013kweg   0.21666
gfz2013lajn  -1.46140
gfz2013lgxc   1.07340
gfz2013lljw   0.26394
gfz2013lsob   2.21570
gfz2013lwao   0.39036
gfz2013lwbk   1.35850
gfz2013lxyn   0.06851
gfz2013nmac   0.54573
gfz2013nnzf  -0.42799
gfz2013nojf   0.34179
gfz2013qmer   0.56599
gfz2013qqrr   0.27368
gfz2013rrza  -0.01800
gfz2013saez   0.45283
gfz2013scai  -0.36645
gfz2013sdus   0.23746
gfz2013shlq  -0.32995
gfz2013skkm   0.57806
gfz2013sllq   0.25802
gfz2013snbr   0.36866
gfz2013snyf   1.82140
gfz2013sred   1.84330
gfz2013svci   0.79810
gfz2013svqv  -0.17798
gfz2013tdkk  -0.56224
gfz2013thtc   0.17119
gfz2013toea  -0.27712
gfz2013ttoz   1.04690
gfz2013tusd   0.59918
gfz2013tuzv  -0.25806
gfz2013twwf  -2.69200
gfz2013txtb  -0.04154
gfz2013tyas  -0.60150
gfz2013uthl  -1.03040
gfz2013vdic  -0.44071
gfz2013vfyw   0.77754
gfz2013vfzp  -0.07310
gfz2013vgev  -0.22418
gfz2013vgpf   2.27820
gfz2013vgrk   0.47930
gfz2013vhnk   1.39510
gfz2013viul  -0.49462
gfz2013vjfe  -0.00000
gfz2013vjjc  -2.32130
gfz2013vsbl   0.72326
gfz2013vuja   0.75784
gfz2013vvjh   0.48509
gfz2013wjmm  -0.34484
gfz2013wqhq   1.13790
gfz2013wtzl   0.09995
gfz2013wuon   1.21810
gfz2013xcmp   0.54739
gfz2013xkbh  -0.79197
gfz2013xmul   0.26005
gfz2013xpfa   2.31240
gfz2013xsdt  -0.65504
gfz2013xtwj   1.08140
gfz2013xvqd   0.44881
gfz2013xwda  -0.25420
gfz2013xwxn   0.21804
gfz2013xwzd  -0.13853
gfz2013xxcc   0.00000
gfz2013xxwv   1.18200
gfz2013xxxq   1.05800
gfz2013xyzb   1.23660
gfz2013xzcg   1.45800
gfz2013yhpk   0.13327
gfz2013yixl   1.63160
gfz2013ylbx  -0.87474
gfz2013ypdc   0.30266
gfz2013yyti   0.25619
gfz2013zfhu   0.55155
gfz2013zjel   1.22220
gfz2013zmoc   0.26728
gfz2013zmtb   0.97209
gfz2014aawc  -1.16700
gfz2014cbtl   0.24308
gfz2014ccbz  -0.55454
gfz2014cgog   0.56805
gfz2014claq  -0.08645
gfz2014cqyo   0.72497
gfz2014cvkm   0.41267
gfz2014cyvm  -0.84114
gfz2014czua   0.50459
gfz2014dcdy   0.25125
gfz2014dhxt  -0.10065
gfz2014dofa   0.19725
gfz2014dpzx  -0.32594
gfz2014ebmc   0.08290
gfz2014ejmt   0.58083
gfz2014ekdn  -0.33656
gfz2014ekdt   0.19223
gfz2014enhi  -1.00030
gfz2014etqa   0.62341
gfz2014ettc   0.23584
gfz2014ezgb   0.84617
gfz2014fgvi   2.00950
gfz2014fgvr   2.99420
gfz2014fgvz   3.07400
gfz2014fhla   0.67318
gfz2014fjzd   0.79159
gfz2014ftka   0.63886
gfz2014ftpw   0.87651
gfz2014fuub  -0.29632
gfz2014fvaa   0.42811
gfz2014fvjl   0.08391
gfz2014fxhd   0.08446
gfz2014hyvq   2.21760
gfz2014hzdy   0.98333
gfz2014hzfw   0.39980
gfz2014hzhe   0.47492
gfz2014icqt   0.21371
gfz2014ieam  -0.18499
gfz2014igur   0.29001
gfz2014ilwu   0.98069
gfz2014iobd   0.59820
gfz2014issk   1.26830
gfz2014isys  -0.06598
gfz2014iwnf   0.25088
gfz2014nylm  -0.75881
gfz2014oims   0.87864
gfz2014okjw  -0.13963
gfz2014opqr   0.60873
gfz2014osvz  -0.48342
gfz2014oxcc  -0.68889
gfz2014pjum   2.09840
gfz2014ppyi   0.59051
gfz2014qcxs   0.26940
gfz2014raau  -0.75204
gfz2014rbpx  -0.04437
gfz2014rfeb   0.07616
gfz2014rghp   0.00000
gfz2014rils   0.26051
gfz2014rkwl  -0.47162
gfz2014roba   0.14745
gfz2014ryfb   0.38965
gfz2014szzf  -0.39039
gfz2014tute   0.07468
gfz2014uvji  -0.07761
gfz2014uvrk  -0.27321
gfz2014wrkh   1.61570
gfz2015alzx  -0.49768
gfz2015azzp   0.27733
gfz2015bohx   0.95632
gfz2015byfn  -0.68995
gfz2015byjd   0.02154
gfz2015chhn  -0.66217
gfz2015cxhx   0.45422
gfz2015cxrc  -0.65128
gfz2015elgy   0.03227
gfz2015eljz  -0.59993
gfz2015emin   0.75894
gfz2015enth  -0.03547
gfz2015etai   0.11372
gfz2015eyqs   0.00000
gfz2015fcua  -0.95777
gfz2015fjhk   0.39345
gfz2015fkgt   0.00000
gfz2015flis  -0.52969
gfz2015fsjj   0.08818
gfz2015fwkq   2.03800
gfz2015gkwa  -0.01553
gfz2015guhd  -0.32387
gfz2015gwao  -0.27649
gfz2015gzja  -1.01710
gfz2015hgbk   1.44230
gfz2015jmlu  -0.67934
gfz2015jwgl   0.04972
gfz2015kxxs   0.05047
gfz2015lhjy   0.79173
gfz2015ojut   0.05170
gfz2015okpu  -0.00000
gfz2015opjp  -0.39663
gfz2015pdri   0.03911
gfz2015poni  -0.40898
gfz2015qisx  -0.97155
gfz2015qnho   0.16205
gfz2015qpvd   1.97510
gfz2015sfdd  -0.22011
gfz2015sfdl  -1.63990
gfz2015sfdv  -0.28999
gfz2015sfdy  -0.57444
gfz2015sfeo  -2.05980
gfz2015sfkh  -0.77950
gfz2015sflf  -0.85701
gfz2015sfln  -0.04429
gfz2015sfmd   1.14970
gfz2015sfnb  -1.11170
gfz2015sfnv  -1.40880
gfz2015sfoh  -0.41125
gfz2015sfoq   0.65708
gfz2015sfpj   0.14667
gfz2015sfps  -0.41190
gfz2015sfrc  -0.57523
gfz2015sfrf  -0.02070
gfz2015sfrv  -0.14552
gfz2015sfte  -0.90116
gfz2015sftu  -0.96087
gfz2015sfuc  -0.70494
gfz2015sfuz  -0.08505
gfz2015sfwf   0.02108
gfz2015sfxn  -0.86832
gfz2015sfzm   0.59747
gfz2015sgad  -0.44697
gfz2015sgdj  -0.41608
gfz2015sgdn   0.41279
gfz2015sgey   0.18390
gfz2015sggc  -0.39506
gfz2015sghq  -1.91680
gfz2015sgie   0.10570
gfz2015sglg  -0.37578
gfz2015sgmm  -0.19347
gfz2015sgmr   0.05913
gfz2015sgoa  -1.04950
gfz2015sgpu  -0.30242
gfz2015sgyd  -1.10870
gfz2015shel  -0.16595
gfz2015shhg  -0.87268
gfz2015shlp   0.99318
gfz2015shov   2.21280
gfz2015shqc  -0.35363
gfz2015shrg  -0.27588
gfz2015shsz   0.42463
gfz2015shwt   0.97811
gfz2015sicu   0.09551
gfz2015siem   0.06864
gfz2015sixs  -0.39088
gfz2015siyy  -0.08319
gfz2015sjbx  -0.19366
gfz2015sjgk  -0.85739
gfz2015sjjb  -0.35549
gfz2015sjne  -0.31649
gfz2015sjoj  -0.97861
gfz2015sjtz   0.81096
gfz2015sjwi  -1.89630
gfz2015skab  -0.26930
gfz2015skhf   0.29865
gfz2015skia  -1.55440
gfz2015skpv  -0.62085
gfz2015sldx  -0.14807
gfz2015slun  -0.83516
gfz2015smym   0.00000
gfz2015snhn   0.19726
gfz2015snmg   0.68299
gfz2015snsf  -0.51692
gfz2015snwh  -0.54579
gfz2015snyd   0.15371
gfz2015soat   0.45105
gfz2015sopc   0.90719
gfz2015soxc  -0.44419
gfz2015sozw   0.40939
gfz2015spal   0.48172
gfz2015sqmy  -0.20103
gfz2015sqoz  -0.04460
gfz2015sqvx  -0.33260
gfz2015sqwv   0.00000
gfz2015srat  -0.31894
gfz2015srgf   0.00000
gfz2015srxe   0.39490
gfz2015srxm   0.32325
gfz2015ssoe   0.16228
gfz2015sspn   1.34450
gfz2015ssrl   0.56552
gfz2015stcv  -0.06661
gfz2015stso   0.14747
gfz2015svwm  -0.53716
gfz2015swgn  -0.20967
gfz2015sxgd   0.13059
gfz2015szcb  -0.09123
gfz2015tesj  -0.78777
gfz2015teyn  -0.61282
gfz2015tezd   0.17972
gfz2015tgbp  -0.10671
gfz2015tghj   2.12750
gfz2015thgc   0.31369
gfz2015thgp   0.23977
gfz2015thtd   1.35750
gfz2015thwg  -0.36566
gfz2015thwp  -0.00000
gfz2015tiyc  -2.10880
gfz2015tkol  -1.09910
gfz2015tlkf  -0.63482
gfz2015tlok  -0.51033
gfz2015tnjd  -0.60118
gfz2015tnla   0.46692
gfz2015tohm   0.90003
gfz2015tojz  -0.73780
gfz2015totf  -0.13941
gfz2015tpra  -0.57733
gfz2015tqie  -0.18744
gfz2015tqjf   0.83692
gfz2015tqsg  -0.45344
gfz2015tsdm  -0.41665
