# Nsamples: 518  MAD:  0.591  mean: -0.093  variance:  0.801
gfz2014gnoz  -0.01324
gfz2014gntd   0.49615
gfz2014gpac  -0.11545
gfz2014gpgd  -0.39559
gfz2014gphr   0.34169
gfz2014gpnf   0.34339
gfz2014gpuk   0.03235
gfz2014gpxl   0.31780
gfz2014gpxv  -0.04006
gfz2014gqco  -0.03213
gfz2014gqed  -0.14896
gfz2014gqer  -0.22255
gfz2014gqhe   0.01859
gfz2014gqup   0.19702
gfz2014gqve   0.48321
gfz2014grho  -0.65093
gfz2014gsdw   0.05700
gfz2014gsgv  -0.04358
gfz2014gsjg   0.24418
gfz2014gsqs   0.20738
gfz2014gtef   0.12401
gfz2014gtlu   0.14894
gfz2014gtrb  -0.15201
gfz2014gtwz   0.01401
gfz2014gufl  -0.12546
gfz2014gull   0.67807
gfz2014gulp   0.08469
gfz2014gumd   0.31271
gfz2014gutm  -0.00711
gfz2014gvhw  -0.08867
gfz2014gvqj   0.14721
gfz2014gvra  -0.18098
gfz2014gvrd  -0.07448
gfz2014gwab   1.20250
gfz2014gwap  -0.00334
gfz2014gwqj  -0.56631
gfz2014gxag  -0.44281
gfz2014gxkh   0.25287
gfz2014gxqf   0.58075
gfz2014gxqu   0.24707
gfz2014gxqx  -0.04116
gfz2014gxvf  -1.17820
gfz2014gxxh  -0.03308
gfz2014gxxo   0.06476
gfz2014gyxd   0.68847
gfz2014gzrm   0.44409
gfz2014gzue   0.12905
gfz2014haey   0.49027
gfz2014hagb   0.20344
gfz2014haos   0.19091
gfz2014hasj   0.52289
gfz2014hbjm   0.22499
gfz2014hbjz   0.42483
gfz2014hbqb  -0.57509
gfz2014hcns   0.14895
gfz2014hetr   0.69593
gfz2014heum   0.29734
gfz2014heyq  -0.01556
gfz2014hfad   0.83343
gfz2014hfhl   0.58868
gfz2014hfzf   0.43710
gfz2014hgqo   0.01923
gfz2014hhfs   0.16263
gfz2014hhwx   0.03165
gfz2014hifp  -0.38852
gfz2014hiih  -0.10588
gfz2014hiiz  -0.56647
gfz2014hjgh   0.44144
gfz2014hjgo   0.38220
gfz2014hjgr   0.37602
gfz2014hjhu   0.25584
gfz2014hjij   0.47886
gfz2014hjkp  -0.15085
gfz2014hjlx   0.51381
gfz2014hkcf   0.31227
gfz2014hkck   0.67998
gfz2014hlib   0.09829
gfz2014hmrs   0.15415
gfz2014hmvx   0.55777
gfz2014hmzg   0.34639
gfz2014hnfm  -0.02761
gfz2014hoap   0.10004
gfz2014hocg  -0.02269
gfz2014hodc   0.32305
gfz2014hokj   0.43043
gfz2014hphw   0.13066
gfz2014hpqz  -4.49310
gfz2014hqxs   0.66575
gfz2014hqyx   0.28682
gfz2014hriu  -0.14738
gfz2014hrtn   0.16244
gfz2014hsqo   0.25182
gfz2014hssr   0.39367
gfz2014hszs  -0.55230
gfz2014htbf   0.03642
gfz2014huaj  -0.31772
gfz2014hugz   0.42764
gfz2014hvdm  -0.36240
gfz2014hwan  -0.41324
gfz2014hwsy  -0.87514
gfz2014hwwi  -0.04749
gfz2014hxcl   0.00000
gfz2014hxev   0.87429
gfz2014hyal  -1.94180
gfz2014hymr   0.11072
gfz2014hyvq  -0.93591
gfz2014hzdy  -0.54961
gfz2014hzfr   1.25240
gfz2014hzgn   0.12416
gfz2014hzht  -0.45348
gfz2014hzig   0.22547
gfz2014hzze   0.26801
gfz2014iani   0.67450
gfz2014iazy  -0.36855
gfz2014ieam   0.08116
gfz2014ifue   0.35083
gfz2014ifzj   0.42190
gfz2014igsj  -0.01160
gfz2014igur  -1.17780
gfz2014ijvh  -0.07091
gfz2014ikbk   0.10394
gfz2014ikun   0.52956
gfz2014ikvd   0.99292
gfz2014ilwu   0.99623
gfz2014immt  -0.14533
gfz2014imnn   0.60037
gfz2014inbj   0.07312
gfz2014iobd   0.21706
gfz2014iqzj   0.67326
gfz2014irci   0.26448
gfz2014ircq   0.58190
gfz2014irrg   0.71352
gfz2014isdq   0.32245
gfz2014isff   0.64950
gfz2014issk   0.12815
gfz2014isub   0.40956
gfz2014isys  -1.23500
gfz2014itab   0.23892
gfz2014itbe   0.01754
gfz2014itbu   0.13458
gfz2014itfc  -0.04304
gfz2014itgh  -0.13300
gfz2014itkw   0.24036
gfz2014itpj  -0.77899
gfz2014iuhq   0.50289
gfz2014iwnf  -0.29278
gfz2014iwwl  -0.33248
gfz2014ixga   0.48803
gfz2014ixky  -0.71121
gfz2014iywt  -0.21740
gfz2014jagg   0.43585
gfz2014jass   0.10051
gfz2014jbyg  -0.28573
gfz2014jcmt  -0.07417
gfz2014jdxj  -0.18184
gfz2014jesb   0.10035
gfz2014jfis  -0.13932
gfz2014jggm   0.56392
gfz2014jhra  -0.31259
gfz2014jipr   0.09736
gfz2014jird  -1.08770
gfz2014jjhc  -1.08920
gfz2014jjkh   0.42382
gfz2014jjln  -0.67476
gfz2014jjqk   0.16317
gfz2014jmnk  -0.30532
gfz2014jmsy   0.36505
gfz2014jnea   0.41345
gfz2014joak   0.46924
gfz2014jomw  -1.00190
gfz2014jozl  -0.04379
gfz2014jpep   0.00231
gfz2014jpez   0.64670
gfz2014jpgu   0.31270
gfz2014jpxs  -0.70573
gfz2014jtfe  -0.97791
gfz2014jvow  -0.59345
gfz2014kara  -1.29570
gfz2014kblw   0.82914
gfz2014kbuk  -0.10980
gfz2014kbwm  -0.31120
gfz2014khan   0.29718
gfz2014kitm   0.14843
gfz2014kizt  -0.21113
gfz2014kjee  -0.23129
gfz2014kjzb  -1.82610
gfz2014kkhh  -0.50943
gfz2014kmmt   1.29910
gfz2014kndc   0.98467
gfz2014knks   0.52354
gfz2014kscf  -0.66401
gfz2014ksmz  -0.28306
gfz2014kwie   0.83928
gfz2014kwrg   0.65680
gfz2014kwwg   0.13354
gfz2014kxqf   0.70445
gfz2014kyan  -1.00120
gfz2014kyhe  -1.01630
gfz2014kytf  -0.69984
gfz2014lbcq  -0.73674
gfz2014lchy  -0.18436
gfz2014lehw   0.23759
gfz2014lgqn  -0.66084
gfz2014lhqn  -0.41175
gfz2014ljbr   0.20568
gfz2014lnmw  -0.08460
gfz2014lpim  -2.05650
gfz2014lrzx  -1.66910
gfz2014lurd  -0.40852
gfz2014lvgn   1.24540
gfz2014lwom  -0.89502
gfz2014lwsw   0.27906
gfz2014lwvb   0.39936
gfz2014lxnc  -0.36625
gfz2014lxqr   0.26769
gfz2014lyhk  -0.26841
gfz2014lyhp  -1.86630
gfz2014lzow  -0.81916
gfz2014macx  -0.36432
gfz2014madw  -0.26646
gfz2014mawp   0.22108
gfz2014mcse   0.24346
gfz2014mlqw  -0.06572
gfz2014mlrr   0.06841
gfz2014mmtb  -0.35531
gfz2014mogb  -1.66490
gfz2014mrbm  -1.08030
gfz2014muzd   0.61478
gfz2014mvza   0.52022
gfz2014mwnj  -0.14934
gfz2014mxkr  -0.21453
gfz2014nafd   0.32739
gfz2014navw   0.47833
gfz2014ncub  -0.19834
gfz2014ndue  -0.79742
gfz2014ngsk   0.10932
gfz2014ngvt   0.13282
gfz2014nhyb  -0.81058
gfz2014niqj  -0.22728
gfz2014nkdx  -1.47110
gfz2014nnih   0.03593
gfz2014nnxd  -0.26051
gfz2014nphm  -1.36360
gfz2014npnn  -0.77838
gfz2014nqbs  -1.12310
gfz2014nqfm  -0.99243
gfz2014nqpk   0.60144
gfz2014nrie  -0.46492
gfz2014ntdh  -0.15298
gfz2014nyeh   0.26566
gfz2014nyfb   0.42788
gfz2014nyko  -1.41790
gfz2014nylm   0.13102
gfz2014obbs  -0.82514
gfz2014odgv   0.30364
gfz2014ofhm   1.55820
gfz2014oghp   0.05961
gfz2014oims   0.12910
gfz2014oinz  -0.53306
gfz2014ojdg   0.22149
gfz2014okec   0.77430
gfz2014okxu   0.14499
gfz2014oned  -0.22617
gfz2014ooaa   0.17852
gfz2014opqr   0.19698
gfz2014oqhw  -0.30090
gfz2014orgz  -0.45537
gfz2014orxs  -0.36429
gfz2014oryw   0.53715
gfz2014osvx  -0.55322
gfz2014owii   0.16708
gfz2014owur  -0.11280
gfz2014owxc  -0.11683
gfz2014oyly  -0.86516
gfz2014ozmj  -0.63748
gfz2014pghi   0.28965
gfz2014pjer  -0.11629
gfz2014pjum  -0.60407
gfz2014pmxt   3.73260
gfz2014pngj   0.01192
gfz2014ppzf  -1.22280
gfz2014prdm   1.33110
gfz2014pvch  -0.40560
gfz2014pxbu  -0.01484
gfz2014pzml  -0.02044
gfz2014pzni   0.36505
gfz2014qbzi   0.31811
gfz2014qcxs  -0.93731
gfz2014qfzq   1.16730
gfz2014qifa  -0.22021
gfz2014qjfl   0.51409
gfz2014qjgp  -1.42000
gfz2014qlvc  -0.01864
gfz2014qlxd  -0.35622
gfz2014qngj  -1.18140
gfz2014qqfg  -0.68110
gfz2014qqhm  -0.22866
gfz2014qsby   0.16287
gfz2014qtwv   0.02268
gfz2014rdsn  -0.51284
gfz2014rfeb  -1.42710
gfz2014rffv  -0.89320
gfz2014rhnz  -0.25984
gfz2014rhwq   0.09551
gfz2014riel   0.09363
gfz2014rils  -1.70500
gfz2014rnrn  -1.48440
gfz2014romy  -0.45182
gfz2014royq   0.06585
gfz2014rucz   0.08359
gfz2014ryfb  -0.53117
gfz2014shid   0.06103
gfz2014sryn  -0.38216
gfz2014ssds   0.24026
gfz2014swgt   0.36644
gfz2014tabg  -0.27316
gfz2014tfgn  -0.83816
gfz2014tgcw  -0.53978
gfz2014thrw  -0.25353
gfz2014tqdo  -0.54470
gfz2014tqly  -0.70765
gfz2014tqsf   0.21514
gfz2014tqth   0.58588
gfz2014tzsd  -1.30040
gfz2014uapa  -0.51560
gfz2014ubyq  -1.15980
gfz2014uvrk   0.57035
gfz2014uyrq   0.02999
gfz2014uzaw   0.07287
gfz2014vdnh  -1.64970
gfz2014veit   0.40988
gfz2014vhld   0.13504
gfz2014vhms  -0.41736
gfz2014vhuy   0.01963
gfz2014vivo  -0.32371
gfz2014vjoh   0.83317
gfz2014vjoz   0.15536
gfz2014vnxu  -0.54957
gfz2014vpus   0.42184
gfz2014vqqa   0.18550
gfz2014waoo   0.36235
gfz2014watn   0.18429
gfz2014wjko  -0.32991
gfz2014wqcp   0.64661
gfz2014wrkh  -0.55569
gfz2014wsjh   0.64039
gfz2014wwib   0.85603
gfz2014xaxx  -0.01957
gfz2014xbyr  -0.00863
gfz2014xhkc   0.27645
gfz2014xhwk  -1.24270
gfz2014xjri   0.47356
gfz2014xkdg   0.13058
gfz2014xmnp   0.04017
gfz2014xoji   0.45893
gfz2014xqby   0.56192
gfz2014xqqd  -0.08078
gfz2014yazi   1.93620
gfz2014yhhm   0.84648
gfz2014ynhc  -0.53125
gfz2014ynzy  -0.20577
gfz2014yppv  -0.61684
gfz2014yrug   0.01838
gfz2014yyiy  -0.84249
gfz2014zcgo  -0.18696
gfz2014zdtl  -0.61141
gfz2014zkys  -0.30090
gfz2015aide  -1.16440
gfz2015ansu  -1.07210
gfz2015apnk  -0.11283
gfz2015arpd  -0.35631
gfz2015aruz   0.13970
gfz2015atxv  -0.69323
gfz2015bavu  -1.85550
gfz2015bdyd  -0.97677
gfz2015berb   0.07565
gfz2015bfjm   3.31110
gfz2015bfzt   0.83817
gfz2015bkbj  -0.51734
gfz2015bnho   0.15215
gfz2015bphe  -0.46399
gfz2015bpxl  -0.19284
gfz2015bsnl   1.16730
gfz2015bucr  -0.82371
gfz2015bvxx   2.02200
gfz2015byjd   1.13940
gfz2015cewd  -0.06145
gfz2015chhn  -1.95590
gfz2015chqn   0.63069
gfz2015clrp  -1.46590
gfz2015cyjd  -0.91733
gfz2015ddhl  -0.84860
gfz2015dizn   0.78686
gfz2015djts   1.49670
gfz2015drlk   0.75384
gfz2015dskr   0.36840
gfz2015dtqr  -0.80662
gfz2015dvbn  -0.68012
gfz2015ednc   0.42563
gfz2015eeyq  -0.89929
gfz2015eezy  -0.20392
gfz2015egxq  -1.67410
gfz2015ehou  -0.01527
gfz2015ehpz  -1.68020
gfz2015eiky   0.06351
gfz2015eljz   1.14480
gfz2015emcg  -0.56165
gfz2015enth   0.48747
gfz2015esrj  -0.16721
gfz2015fbbk  -0.78658
gfz2015fcua  -1.94850
gfz2015fdpr  -0.37379
gfz2015fjhk  -0.11070
gfz2015fkbc  -0.73477
gfz2015fkgt  -1.00400
gfz2015fkjs   0.13272
gfz2015fsjj  -4.85470
gfz2015fvoi   0.94082
gfz2015fwkq  -0.72987
gfz2015fwnf  -0.45902
gfz2015fxdi   6.65410
gfz2015gckd  -0.26161
gfz2015gkwa  -1.02520
gfz2015gmgf  -0.47508
gfz2015gwao   0.48849
gfz2015hgbk  -0.05000
gfz2015hhbd  -0.57040
gfz2015hlfq  -0.35820
gfz2015hpmk  -0.72080
gfz2015hslo  -0.58745
gfz2015hvgs   3.70050
gfz2015hwkv  -0.24259
gfz2015hwzw   0.86254
gfz2015idho   0.15535
gfz2015ijmh   1.24220
gfz2015imty  -0.85102
gfz2015isim  -1.09900
gfz2015iwqk  -0.01868
gfz2015jmlf  -0.51350
gfz2015jmlu  -2.50760
gfz2015jzcv   0.09519
gfz2015kakw  -0.47804
gfz2015kalm   0.22044
gfz2015kcaa  -0.62534
gfz2015kfsu  -0.53294
gfz2015kphk  -0.01363
gfz2015kquq   0.18182
gfz2015lcma  -1.66650
gfz2015lcuo  -0.28882
gfz2015lfma   0.29266
gfz2015lfos   0.29483
gfz2015lfud  -0.41489
gfz2015lhjq  -1.01400
gfz2015lhjy  -0.31782
gfz2015ltii  -0.20456
gfz2015ltro   0.31025
gfz2015lytv  -0.03013
gfz2015mbgr   0.54880
gfz2015mddr  -0.09275
gfz2015mfpy   4.42540
gfz2015micz   0.66622
gfz2015mpte  -0.61573
gfz2015nbdc  -0.09780
gfz2015npud   0.71600
gfz2015ocwr   0.12432
gfz2015okmq  -0.65976
gfz2015oumn   0.11349
gfz2015pdri   0.51960
gfz2015pjgr  -0.41913
gfz2015plal  -0.51785
gfz2015qbme  -0.31376
gfz2015qiit  -0.81721
gfz2015qnde   0.53139
gfz2015qnlv  -0.04199
gfz2015qols  -0.21909
gfz2015qpvd  -0.42509
gfz2015quzo   0.17663
gfz2015qvxu  -0.39337
gfz2015rddx   0.51205
gfz2015rgst  -1.77600
gfz2015rkzg  -1.45190
gfz2015rnis  -0.10113
gfz2015rtnv   0.65196
gfz2015saet  -0.69798
gfz2015sdeo   0.76932
gfz2015sdfy   0.73078
gfz2015seuf   0.57800
gfz2015sevh   0.24834
gfz2015sfdd   1.25040
gfz2015sfsi  -0.69668
gfz2015sghq  -4.12640
gfz2015sjgk  -1.83200
gfz2015sjne  -0.27647
gfz2015sjvu   0.94214
gfz2015smym  -1.76230
gfz2015snwh   0.68020
gfz2015snyd   1.80680
gfz2015soxc  -0.91574
gfz2015spxh  -0.69943
gfz2015sryk   0.38035
gfz2015ssoe  -0.20500
gfz2015subz   0.21722
gfz2015susq  -3.14360
gfz2015svwm   0.06291
gfz2015taml  -0.91269
gfz2015tbdn  -0.45089
gfz2015tchx  -0.23222
gfz2015tdhb   0.28893
gfz2015teyc  -0.92427
gfz2015tflu  -1.18440
gfz2015tghj   0.11324
gfz2015thwp   3.11850
gfz2015tiyc  -0.27254
gfz2015tlkf   0.14474
gfz2015tnjd  -1.15410
gfz2015tojz  -1.24170
gfz2015tqff  -0.41070
gfz2015truf  -1.85390
