# Nsamples: 74  MAD:  0.468  mean: -1.098  variance:  0.824
gfz2010ahqi  -0.63520
gfz2010bxxs  -0.44992
gfz2010ebhc  -1.96410
gfz2010grjd   0.12869
gfz2010iull  -0.97912
gfz2010nmpc  -2.41020
gfz2010nwef  -0.94478
gfz2010pcxi   3.03720
gfz2010usho  -1.24500
gfz2011aatr  -1.27150
gfz2011cfae  -1.33480
gfz2011dpqx  -1.04460
gfz2011enva  -1.53900
gfz2011gkzt  -0.76505
gfz2011hlqw  -1.15300
gfz2011hlsa  -1.36200
gfz2011jplh  -1.25570
gfz2011lcxq  -1.95950
gfz2011lzwj  -1.15660
gfz2011mdie  -0.82479
gfz2011rewa  -0.87642
gfz2011toub  -1.28690
gfz2011vhfi  -1.52780
gfz2011wxfs  -1.43330
gfz2011xyxj  -0.09269
gfz2012enno  -1.15180
gfz2012jlox  -1.24090
gfz2012kkup  -1.12970
gfz2012klhx  -0.87564
gfz2012kuct  -0.81272
gfz2012kudo  -1.37440
gfz2012ldxg  -2.02170
gfz2012ldzj  -1.60740
gfz2012teic  -1.57920
gfz2012ttoa  -0.75732
gfz2012vrgb  -1.15960
gfz2012wypz  -1.27650
gfz2013ccnr  -0.94326
gfz2013drxz  -1.00900
gfz2013jkut  -0.64626
gfz2013kdeo  -1.32610
gfz2013ldqb   1.27580
gfz2013mqmv  -1.43990
gfz2013pfbx  -1.29830
gfz2013tusd  -1.50080
gfz2013uauo  -1.33200
gfz2014afmx  -1.27320
gfz2014ande  -1.13340
gfz2014bwue  -1.42850
gfz2014fhla  -0.12331
gfz2014fkmr  -1.41310
gfz2014frdz   0.82757
gfz2014gkqf  -0.86169
gfz2014gltx  -2.26730
gfz2014gmge  -0.55835
gfz2014gmnb  -0.93123
gfz2014goba  -1.56320
gfz2014jjhc  -1.29370
gfz2014jpep  -2.52320
gfz2014lgqn  -1.06460
gfz2014nqfm  -1.62850
gfz2014nrie  -4.29790
gfz2014oinz  -1.92810
gfz2014qlxd  -1.44310
gfz2014qqhm  -0.75405
gfz2014ssvz  -1.37190
gfz2014ubwn  -0.73455
gfz2014vjoz  -2.07660
gfz2015berb  -1.94220
gfz2015chhn   1.22820
gfz2015gckd  -1.34170
gfz2015mpte  -0.53894
gfz2015qnho  -0.57570
gfz2015taml  -0.71742
