# Nsamples: 898  MAD:  0.862  mean:  0.156  variance:  8.844
gfz2013lznu  -1.05720
gfz2013mded   1.88960
gfz2013mghe  -0.10105
gfz2013mmlw  -2.59920
gfz2013mvgr  -0.66565
gfz2013neuc  -0.36472
gfz2013nfwx   0.10355
gfz2013ngnt  -0.36019
gfz2013njnd   0.56057
gfz2013nlxz  -0.77284
gfz2013nojf  -1.10090
gfz2013nskg   0.03319
gfz2013nuor   2.31070
gfz2013nuvi  -1.14490
gfz2013nvdj   1.57180
gfz2013nwdi   0.27129
gfz2013onjy   0.70984
gfz2013oqsc   0.14524
gfz2013orzn   0.68337
gfz2013ozqm   0.50891
gfz2013ozrf  -2.02460
gfz2013pfbx   0.26135
gfz2013pfeb   0.15417
gfz2013pffm   1.44400
gfz2013poxj  -0.22763
gfz2013puag  -1.18240
gfz2013pxsj   0.69149
gfz2013pxya   0.64802
gfz2013qidm  -0.29348
gfz2013qmer  -0.89188
gfz2013rdoo   0.62875
gfz2013reav  -1.75590
gfz2013sdus   0.46623
gfz2013shzy   0.44358
gfz2013sllq  -1.58500
gfz2013snbr  -0.77657
gfz2013sqkb   1.35670
gfz2013stht  -0.24300
gfz2013suln   0.88707
gfz2013svci   1.13330
gfz2013sxbw   0.00000
gfz2013toea  -1.12100
gfz2013tqbb   2.23730
gfz2013tusd  -1.12840
gfz2013uhlm  -0.43051
gfz2013upee   0.66941
gfz2013uqsp   0.97178
gfz2013utsh  -0.23153
gfz2013uxej  -2.74690
gfz2013uysr  -2.60990
gfz2013vfyw   0.44034
gfz2013vfzp  -0.73965
gfz2013vgev   1.27000
gfz2013vhnk   0.01604
gfz2013vhzu  -0.28862
gfz2013vijl  -0.79641
gfz2013viul  -0.07400
gfz2013vjjc   0.56159
gfz2013vlth  -0.14154
gfz2013vpnf   0.77932
gfz2013vqot  -0.17017
gfz2013vrmy   0.57626
gfz2013vvrq  -0.14025
gfz2013vzbo  -1.05390
gfz2013wjmm  -0.18193
gfz2013wmfd  -0.80365
gfz2013wnpr  -1.11470
gfz2013wpga  -1.99140
gfz2013wqhq  -0.54859
gfz2013wtzl  -1.96430
gfz2013xklb  -1.75240
gfz2013xmqg  -0.51473
gfz2013xmul  -1.56830
gfz2013xqnn   0.16313
gfz2013xsdt  -0.99694
gfz2013xvqd  -0.19586
gfz2013xwda  -1.05220
gfz2013xxcc  -0.70234
gfz2013xxwv   0.22874
gfz2013xxxq  -0.65539
gfz2013yach  -2.52270
gfz2013yaig  -1.10970
gfz2013yctg  -0.83234
gfz2013yhbu  -2.92270
gfz2013yixl  -1.03590
gfz2013ylbx  -1.52080
gfz2013ymky   0.19191
gfz2013ynmw  -1.94320
gfz2013ypdc  -0.69834
gfz2013yqkv   0.51081
gfz2013yulx   7.17590
gfz2013yyhc  -0.96742
gfz2013yyti   0.27934
gfz2013yzte  -2.42500
gfz2013zfhu   1.83780
gfz2013zjel   1.39760
gfz2013zjtw  -1.17250
gfz2013zmoc  -0.44875
gfz2013zmtb   0.08843
gfz2014aawc   0.05972
gfz2014adoj  -0.31453
gfz2014afmx   0.00000
gfz2014agde   0.37420
gfz2014ajlk   0.13753
gfz2014ajtf   0.09254
gfz2014algk  -0.67767
gfz2014alwz   0.04263
gfz2014amsb   0.99269
gfz2014ande   0.75648
gfz2014ared  -1.15950
gfz2014arpf  -0.89662
gfz2014arqr  -0.53477
gfz2014atbl   1.10200
gfz2014bagd  -0.52199
gfz2014bbro  -1.51660
gfz2014bdfd  -3.97190
gfz2014bekc  -1.20010
gfz2014bezu  -0.83535
gfz2014bfng  -1.52610
gfz2014bfqo  -1.03410
gfz2014bhvd  -0.67240
gfz2014bjgt   0.67680
gfz2014bldx  -0.36301
gfz2014bmta  -0.71541
gfz2014bwue  -0.24440
gfz2014bzxy  -1.61230
gfz2014caop  -0.78643
gfz2014cbtl  -0.19727
gfz2014cgog   0.49472
gfz2014chdv   1.14560
gfz2014citw   0.03241
gfz2014claq  -1.04600
gfz2014clnj  -0.13736
gfz2014clnq   0.41006
gfz2014cmwb   0.33568
gfz2014ctot  -0.72015
gfz2014cueu  -1.26320
gfz2014cvkm   0.11165
gfz2014cvxx  -0.84684
gfz2014cyvm  -1.13730
gfz2014czno  -1.09100
gfz2014czol   0.85659
gfz2014czqi  -0.66225
gfz2014czua   1.04210
gfz2014dddc   0.04539
gfz2014dffd  -0.68863
gfz2014dgiy   2.18570
gfz2014dhxt   0.89083
gfz2014disp   0.87209
gfz2014fedd   0.58464
gfz2014femz   1.24470
gfz2014fexu  -0.18673
gfz2014ffdc  -0.07864
gfz2014fgvi  -0.46126
gfz2014fgwt   3.18300
gfz2014fgxt   0.03669
gfz2014fgxz  -0.05432
gfz2014fgyo   0.29244
gfz2014fgza   0.33645
gfz2014fhbd   0.40158
gfz2014fhdw  -0.36575
gfz2014fhgb   0.46508
gfz2014fhhp   0.54480
gfz2014fhla  -0.98105
gfz2014fhrq  -0.01059
gfz2014fhsg   0.15320
gfz2014fhwx   0.06869
gfz2014fhxm  -2.44110
gfz2014fiwq   0.25561
gfz2014fjpb   0.29643
gfz2014fjyo  -0.50873
gfz2014fjzw   1.06790
gfz2014fkmr  -0.20857
gfz2014fkmx  -0.41560
gfz2014fles  -0.15382
gfz2014flfa   0.33619
gfz2014fnbh  -1.25540
gfz2014fnyg  -0.81993
gfz2014fqpz  -0.34580
gfz2014frdz  -0.03864
gfz2014frel  -0.35108
gfz2014frez   0.02050
gfz2014frfl   0.12214
gfz2014frjr   0.75336
gfz2014frnb   0.73756
gfz2014frwh   0.21834
gfz2014fstx   0.36374
gfz2014fsuh   0.06247
gfz2014fszc   0.10813
gfz2014ftgx   1.02780
gfz2014ftka  -0.64006
gfz2014ftpw   0.39629
gfz2014ftrk  -0.12662
gfz2014ftvc  -1.01110
gfz2014furx  -0.33054
gfz2014fusc   0.62439
gfz2014fusj   0.64693
gfz2014fuub   1.37540
gfz2014fuup   0.09480
gfz2014fuzi   0.18949
gfz2014fvaa  -0.34630
gfz2014fval   0.25772
gfz2014fvdx   2.00310
gfz2014fvgh   0.29941
gfz2014fvhp   0.80213
gfz2014fvjl   0.54821
gfz2014fvpy  -0.29181
gfz2014fvrg   0.17829
gfz2014fvve  -0.55514
gfz2014fwdr   0.36106
gfz2014fwtt   0.16908
gfz2014fxpu   0.41446
gfz2014fzgx   0.37637
gfz2014gbcz  -1.14760
gfz2014gbdq  -4.88150
gfz2014gbjf  -0.27976
gfz2014gcza   0.25340
gfz2014gdsq   0.69001
gfz2014geuy   0.36440
gfz2014gezs   0.11835
gfz2014gfdj  -0.06774
gfz2014gkgf  -1.39100
gfz2014gkgl  -0.24391
gfz2014gkjl   0.66617
gfz2014gkjw  -0.06670
gfz2014gklq  -0.68726
gfz2014gklv   0.30628
gfz2014gkmm  -0.23796
gfz2014gkmw   2.46990
gfz2014gkob   0.33710
gfz2014gkok   1.53110
gfz2014gkpd  -0.17886
gfz2014gkpj   0.45161
gfz2014gkqf  -0.30282
gfz2014gkqu  -1.42210
gfz2014gkrl  -1.29850
gfz2014gkrz  -1.22390
gfz2014gksu   0.16405
gfz2014gktn  -7.50310
gfz2014gktq  -0.28258
gfz2014gkut   0.29707
gfz2014gkvk  -0.01080
gfz2014gkxm   0.02395
gfz2014glcu   0.44918
gfz2014glcy   0.11836
gfz2014glfn  -0.67962
gfz2014glhs   0.90959
gfz2014glov  -0.02668
gfz2014glsh   0.27815
gfz2014gltx  -0.05675
gfz2014glvn  -0.55577
gfz2014glvu   0.62945
gfz2014glxd  -1.41390
gfz2014glxy   0.04309
gfz2014gmci   0.44653
gfz2014gmge  -0.52025
gfz2014gmhp  -0.36359
gfz2014gmhr  -1.27680
gfz2014gmip  -1.59590
gfz2014gmjo   0.66081
gfz2014gmjz  -0.42991
gfz2014gmku   0.57833
gfz2014gmlz   1.22370
gfz2014gmmk   1.08970
gfz2014gmmt  -0.05274
gfz2014gmnb  -0.57952
gfz2014gmnw   0.12801
gfz2014gmor   0.63788
gfz2014gmpy   0.55753
gfz2014gmqw  -1.08490
gfz2014gmrj   0.73990
gfz2014gmtb   1.01640
gfz2014gmtj  -0.31606
gfz2014gmuk   0.30095
gfz2014gmvr   0.54450
gfz2014gmzl  -0.04924
gfz2014gmzs  -0.46083
gfz2014gnfd   1.11150
gfz2014gnhk  -1.28810
gfz2014gnig   0.42117
gfz2014gnmp   0.09234
gfz2014gnms   1.43740
gfz2014gnmx  -1.33480
gfz2014gnno  -0.08496
gfz2014gnom  -0.33344
gfz2014gnoz  -1.35720
gfz2014gnqt  -2.23950
gfz2014gnre   0.28395
gfz2014gnsi   0.74909
gfz2014gnvw  -1.24190
gfz2014gnwg  -0.74948
gfz2014goba  -0.25940
gfz2014goei  -0.12729
gfz2014gogv  -1.03110
gfz2014gohm   0.07232
gfz2014golz  -0.03686
gfz2014gono   0.51204
gfz2014goqw  -0.05120
gfz2014gpam  -1.63800
gfz2014gpce  -0.02800
gfz2014gutm   0.39089
gfz2014gvhw   0.42032
gfz2014gvqj   1.27350
gfz2014gvra   0.18700
gfz2014gvrd   0.19170
gfz2014gwab   1.41030
gfz2014gwap   0.79228
gfz2014gwgf   0.64855
gfz2014gwqj  -1.60170
gfz2014gxkh   0.54666
gfz2014gxqu   0.51576
gfz2014gxxh   0.06440
gfz2014gxxo   0.63890
gfz2014gyxd   0.10097
gfz2014gzrm  -0.08914
gfz2014gzue   0.36130
gfz2014haey   0.30281
gfz2014hafk   0.91765
gfz2014hagb   0.24959
gfz2014haos   1.03180
gfz2014hasj   0.29586
gfz2014hauo   0.95941
gfz2014hbjm   1.00400
gfz2014hbjz   0.36019
gfz2014hbqb   0.25844
gfz2014hcns  -0.77326
gfz2014heum  -0.55196
gfz2014hfad   0.67611
gfz2014hfhl   0.18163
gfz2014hfzf   0.20550
gfz2014hgqo   0.43405
gfz2014hhfs   0.29988
gfz2014hhwx  -0.91566
gfz2014hifp   0.69162
gfz2014hiih   0.40974
gfz2014hiiz  -2.70930
gfz2014hjgh  -0.06580
gfz2014hjgo   0.66675
gfz2014hjgr   0.13296
gfz2014hjij   0.00000
gfz2014hjlx  -0.16304
gfz2014hkcf   0.06817
gfz2014hkck  -0.28805
gfz2014hmgf   0.27879
gfz2014hmzg   1.10980
gfz2014hnfm   0.50362
gfz2014hoap  -0.90852
gfz2014hocg  -1.05670
gfz2014hphw   0.48094
gfz2014hppw  -0.38801
gfz2014hpqz  -0.52947
gfz2014hqxs  -0.47122
gfz2014hqyx   0.82362
gfz2014hrft  -0.91176
gfz2014hriu  -0.10351
gfz2014hrtn   0.51758
gfz2014hscz  -0.95157
gfz2014huaj   0.63542
gfz2014hwwi   1.15940
gfz2014hyal  -0.51882
gfz2014hymr  -0.00000
gfz2014hyvq   0.67309
gfz2014hzdy  -1.31740
gfz2014hzfw   0.15434
gfz2014hzgn   0.53145
gfz2014hzhe   0.30100
gfz2014hzig   2.34930
gfz2014iani   0.09398
gfz2014iava  -0.46631
gfz2014icqt   1.06160
gfz2014ieam  -1.16370
gfz2014ieho   0.91663
gfz2014ifue   0.48969
gfz2014ifzj   0.62951
gfz2014ijvh   0.57247
gfz2014ikbk  -0.54902
gfz2014ikvd   0.33747
gfz2014immt  -1.31020
gfz2014imnn   0.10486
gfz2014inbj  -1.15260
gfz2014iobd  -0.97337
gfz2014iqzj   1.50120
gfz2014irci   0.31999
gfz2014ircq   0.57732
gfz2014irrg   0.45469
gfz2014isdq   0.75276
gfz2014isff   1.25480
gfz2014isub   0.63478
gfz2014isys   1.28040
gfz2014itab   0.60337
gfz2014itbe   0.09948
gfz2014itbu   1.63100
gfz2014itfc   0.34007
gfz2014itgh   0.45839
gfz2014itjx  -0.54708
gfz2014itkw   0.02988
gfz2014itpj   0.33685
gfz2014iuhq   0.11776
gfz2014iwnf  -0.25645
gfz2014ixga   0.47232
gfz2014jagg   0.43422
gfz2014jatq   0.33036
gfz2014jbyg  -0.72224
gfz2014jcjt   0.94317
gfz2014jcmt  -1.24110
gfz2014jesb  -0.55902
gfz2014jfis  -1.07590
gfz2014jggm   0.70752
gfz2014jhra  -3.98420
gfz2014jjhc  -0.38110
gfz2014jjln  -0.73452
gfz2014jjqk   0.68291
gfz2014jkxe   0.33943
gfz2014jnxm   0.36761
gfz2014jnyv  -0.61715
gfz2014jomw  -0.14885
gfz2014jpep   0.17776
gfz2014jpgu   0.46408
gfz2014jwmh   2.03240
gfz2014kara   0.43622
gfz2014kbuk   0.40440
gfz2014kbwm  -3.84930
gfz2014khan  -0.40541
gfz2014khlk   1.47120
gfz2014kkhh   0.29221
gfz2014kmmt  -0.51958
gfz2014kndc  -0.28970
gfz2014knks   0.34984
gfz2014knxs   0.86347
gfz2014kscf   0.17596
gfz2014ksdv   1.39730
gfz2014ksmz  -0.22075
gfz2014kssw  -0.48110
gfz2014kwrg   1.11100
gfz2014kwwg  -0.96768
gfz2014kxqf   0.78493
gfz2014kyan  -0.43699
gfz2014kytf   0.12140
gfz2014lchy   1.48340
gfz2014ldhu   1.73430
gfz2014lefs   0.54212
gfz2014lgqn  -0.85330
gfz2014lhqn  -0.02442
gfz2014ljbr   0.13533
gfz2014lkyf   0.99884
gfz2014lnqy   2.73560
gfz2014lpim  -0.88024
gfz2014lurd   0.40833
gfz2014lvgn  -0.20033
gfz2014lwsw   0.05857
gfz2014lwvb   0.11790
gfz2014lxnc   0.16979
gfz2014lxqr   1.06430
gfz2014lyhk  -0.18175
gfz2014lyhp   0.84909
gfz2014lynp   0.29675
gfz2014lzal  -0.03065
gfz2014macx  -0.03730
gfz2014madw  -0.00000
gfz2014mawp  -0.83211
gfz2014mcse   0.21067
gfz2014mden   0.18817
gfz2014mhgg   0.00000
gfz2014mlqw   0.99107
gfz2014mlrr   0.40593
gfz2014mmtb   0.74505
gfz2014moaw   1.30400
gfz2014mogb   0.70655
gfz2014mtum   0.52686
gfz2014mvza   2.75700
gfz2014mwor  -0.10364
gfz2014nafd   0.29329
gfz2014navw  -0.29326
gfz2014ndue  -2.27810
gfz2014ngnd   1.14720
gfz2014ngsk  -0.01419
gfz2014niqj  -0.26656
gfz2014nkdx  -0.00000
gfz2014nnih  -2.11160
gfz2014nnxd   0.75335
gfz2014nowp   0.43848
gfz2014npeo   0.92452
gfz2014nphm  -0.06087
gfz2014nqbs  -1.65120
gfz2014nrie  -0.78520
gfz2014ntdh   1.00710
gfz2014nyeh  -0.53379
gfz2014nyfb   0.48129
gfz2014nyko   2.09650
gfz2014nylm  -0.84661
gfz2014odgv   0.07904
gfz2014oims  -0.06390
gfz2014oinz  -0.29523
gfz2014ojdg   0.29666
gfz2014okec   0.02679
gfz2014okjw   0.65860
gfz2014omyn   0.57956
gfz2014oqhw   0.39159
gfz2014orxs   0.27364
gfz2014oryw  -1.28160
gfz2014osvx  -0.44636
gfz2014owxc  -1.89020
gfz2014oxcc  -0.13407
gfz2014oyly  -0.93873
gfz2014pkll   0.13339
gfz2014ppyi   0.73793
gfz2014ppzf  -0.93198
gfz2014pqrc   0.15069
gfz2014pvch   1.13550
gfz2014pzni  -0.14904
gfz2014qbzi  -0.49564
gfz2014qdog   0.23910
gfz2014qfzq  -0.27142
gfz2014qjfl   1.53020
gfz2014qjgp   0.01396
gfz2014raau  -2.02200
gfz2014rbsl  -0.30614
gfz2014rdsn   0.57828
gfz2014rghp  -0.34719
gfz2014riel  -0.23045
gfz2014rkwl   0.74785
gfz2014rnrn  -2.16420
gfz2014royq  -1.05350
gfz2014rtcu   1.61190
gfz2014rucz  -1.24780
gfz2014sadu  -0.70710
gfz2014shid  -1.17590
gfz2014sjqw   0.85222
gfz2014sryn  -1.59030
gfz2014ssds  -0.27322
gfz2014ssmv  -0.05069
gfz2014ssvz  -1.73400
gfz2014swgt  -0.15274
gfz2014tabg  -1.24060
gfz2014tovs   0.57658
gfz2014tqdo   0.07130
gfz2014tqly   0.12848
gfz2014tqsf   0.07352
gfz2014tqth  -0.19910
gfz2014tzsd  -1.19240
gfz2014uapa  -1.79970
gfz2014ubwn   1.62160
gfz2014udgg   0.10512
gfz2014uohh   0.01282
gfz2014utac  -0.08251
gfz2014uuqa   0.65588
gfz2014uuuf  -0.66069
gfz2014uvji   0.23248
gfz2014uvrk  -1.95670
gfz2014uxyg  -0.51789
gfz2014uyrq  -0.31866
gfz2014uzaw   1.35510
gfz2014vcev  -0.32427
gfz2014veit   0.75664
gfz2014vhld  -1.23160
gfz2014vhms  -0.34615
gfz2014vhuy   0.47128
gfz2014vjoz  -1.70980
gfz2014vqqa  -1.39580
gfz2014waoo  -0.58606
gfz2014watn  -0.87224
gfz2014wjko  -1.25740
gfz2014wmsc   0.22324
gfz2014wqcp  -1.58620
gfz2014wrkh  -0.13636
gfz2014wwib  -1.13760
gfz2014xaxx  -1.26090
gfz2014xhkc   2.24040
gfz2014xjri  -0.64267
gfz2014xkdg  -1.43580
gfz2014xoji   0.11183
gfz2014xqby  -0.66857
gfz2014xqqd  -0.90716
gfz2014yhhm   0.69571
gfz2014ynhc  -0.01792
gfz2014ynzy   0.23547
gfz2014yppv  -0.38852
gfz2014yrug  -0.61658
gfz2014yula   0.53563
gfz2014zkys  -0.99734
gfz2014zlgp   1.02010
gfz2014zplq  -0.14581
gfz2015abpw   1.81750
gfz2015apnk  -0.46800
gfz2015aqav   0.32935
gfz2015aqbq   0.87649
gfz2015arpd  -1.12660
gfz2015aruz  -0.84969
gfz2015atxv   1.97190
gfz2015bdyd  -1.37820
gfz2015bfjm   0.54579
gfz2015bkbj  -0.11250
gfz2015bnho  83.42800
gfz2015bphe  -0.83341
gfz2015bsnl   0.03948
gfz2015bucr  -1.95200
gfz2015bvsj   0.26409
gfz2015bvxx   0.17869
gfz2015byfn  -2.20710
gfz2015byjd  -1.04670
gfz2015bzej   1.26620
gfz2015cpuo  -2.53430
gfz2015cxhx   0.38192
gfz2015cxrc   0.90336
gfz2015czfv  -1.24460
gfz2015dizn   0.23465
gfz2015drlk   0.58976
gfz2015dskr  -1.24600
gfz2015dvbn  -1.05320
gfz2015ecgq   0.72335
gfz2015ednc   1.93120
gfz2015eeyq  -1.75310
gfz2015eezy   1.26360
gfz2015egxq   0.35211
gfz2015eiky   0.07532
gfz2015elgy   0.00000
gfz2015eljz  -0.47079
gfz2015emcg  -0.02672
gfz2015enth  -3.36490
gfz2015esrj  -0.72738
gfz2015etai   0.57064
gfz2015evpl   0.77551
gfz2015fbbk  -0.56115
gfz2015fbew  -0.80078
gfz2015fcua   0.56755
gfz2015fjhk  -1.24420
gfz2015fkgt  -0.08076
gfz2015fkic  -0.52837
gfz2015fkjs   0.02296
gfz2015fkkd   2.15290
gfz2015fkuu   0.56198
gfz2015flis  -0.76642
gfz2015fpez   0.33842
gfz2015fsjj  -0.77490
gfz2015fvoi   0.92530
gfz2015fwkq   0.47247
gfz2015fwnf  -1.79550
gfz2015fxbv   0.48268
gfz2015fxdi  -0.00000
gfz2015fyvk   1.10620
gfz2015gckd  -0.38799
gfz2015ggjw  -0.15034
gfz2015gjbr   1.39870
gfz2015gkwa   0.78761
gfz2015gmgf  -0.24943
gfz2015gwao   0.54301
gfz2015gzja  -0.94237
gfz2015hdbn   0.36086
gfz2015hdcp  -0.57211
gfz2015hepg   0.94143
gfz2015hgbk  -0.40917
gfz2015hlqo   1.63410
gfz2015hpmk  -1.09150
gfz2015hvgs   0.30417
gfz2015hwkv  -1.18390
gfz2015igsy  -1.02960
gfz2015ijmh  -0.41762
gfz2015isim   0.65109
gfz2015iwqk  -1.62040
gfz2015ixyy  -0.74503
gfz2015jkdw   1.08080
gfz2015jpap  -0.40608
gfz2015jwgl   1.35480
gfz2015jxbx   0.72227
gfz2015jxjd   0.84245
gfz2015jzcv  -0.80227
gfz2015kakw   0.02249
gfz2015kalm   0.29749
gfz2015kcaa   0.43317
gfz2015kkqb  -0.73473
gfz2015kkth   0.32094
gfz2015kphk   0.49797
gfz2015kquq   0.08000
gfz2015ksni   0.95781
gfz2015kvwz   0.70623
gfz2015kxxs  -0.39769
gfz2015lbcg   0.70033
gfz2015lcma  -1.13210
gfz2015lcuo   0.87131
gfz2015lfma  -0.07424
gfz2015lfos   0.64718
gfz2015lhjq  -1.05310
gfz2015lhjy  -0.08684
gfz2015ltii  -0.16013
gfz2015ltro  -0.17244
gfz2015lytv  -0.08376
gfz2015lzad   0.95100
gfz2015mbgr  -0.11684
gfz2015mddr  -0.61377
gfz2015mfpy   0.05725
gfz2015mhym  -1.73820
gfz2015mpte   0.62754
gfz2015nbdc   0.80869
gfz2015nerz  -0.37666
gfz2015nqgf  -0.04930
gfz2015ntpk  -0.15580
gfz2015nuxz   0.60199
gfz2015nwug   0.89844
gfz2015ocdz  -0.08394
gfz2015ocwr  -0.32419
gfz2015okmq   0.67713
gfz2015okpu   0.13059
gfz2015omab   0.49820
gfz2015orkl   0.71843
gfz2015oumn  -0.91735
gfz2015oyfl  -0.68646
gfz2015pcvt   0.35938
gfz2015pdri  -0.48028
gfz2015plal  -1.14050
gfz2015prlr   0.48269
gfz2015puah  -0.50165
gfz2015puqp   1.80040
gfz2015qafb  -0.83551
gfz2015qbme  -1.31460
gfz2015qnde   0.01621
gfz2015qnho   0.40611
gfz2015qnlv   0.33833
gfz2015qnto  -0.59635
gfz2015qprd   0.90292
gfz2015qpvd  -1.69260
gfz2015quzo  -2.81530
gfz2015qvxu  -1.64140
gfz2015rddx  -0.49768
gfz2015rgov  -1.42450
gfz2015rkbq   0.32411
gfz2015rkrg  -0.06055
gfz2015rkzg  -2.51270
gfz2015rlnh  -0.03420
gfz2015rpzn  -0.71025
gfz2015rtnv   0.06142
gfz2015rwsb  -1.16350
gfz2015rxmg   0.36513
gfz2015saet   0.20268
gfz2015sdeo   0.71528
gfz2015sdfy  -0.40295
gfz2015seuf   0.00000
gfz2015sevh  -0.10272
gfz2015sfdd   1.03400
gfz2015sfdy   1.66020
gfz2015sfeo   1.95800
gfz2015sffn   1.15340
gfz2015sfho   0.59383
gfz2015sfhz   1.64380
gfz2015sfiq   0.78805
gfz2015sfjf  -0.56167
gfz2015sfkh   1.16020
gfz2015sfko   0.19179
gfz2015sfkz   0.90690
gfz2015sflf   0.96189
gfz2015sfln   1.99730
gfz2015sfmd   1.26540
gfz2015sfnb   0.78728
gfz2015sfno   0.83977
gfz2015sfnv   1.00300
gfz2015sfoc   0.87697
gfz2015sfoh   0.96782
gfz2015sfom   0.71806
gfz2015sfoq   2.80210
gfz2015sfpj   0.71476
gfz2015sfps   1.09100
gfz2015sfqo   0.96083
gfz2015sfqr   1.30210
gfz2015sfrc  -0.49419
gfz2015sfrf   0.90448
gfz2015sfrv  -0.62625
gfz2015sfsi  -0.59876
gfz2015sfte   0.95301
gfz2015sftu   0.30568
gfz2015sfuc   0.40217
gfz2015sfuz   0.80132
gfz2015sfwf   1.35280
gfz2015sfxn   3.18040
gfz2015sfzm   1.42320
gfz2015sgad   1.09150
gfz2015sgdj   0.13080
gfz2015sgdn   0.56035
gfz2015sggc   0.71129
gfz2015sghq   0.67840
gfz2015sgie   2.06580
gfz2015sglg   0.55468
gfz2015sgmm   0.53161
gfz2015sgmr   2.10580
gfz2015sgna   1.94890
gfz2015sgoa  -1.59460
gfz2015sgpu  -0.29013
gfz2015sguf   1.27360
gfz2015sgyd   1.21000
gfz2015shaq   0.97019
gfz2015shel   0.78442
gfz2015shhg   1.15730
gfz2015shhu   0.43421
gfz2015shjn   1.11730
gfz2015shlp  -0.15127
gfz2015shqc   0.21386
gfz2015shqe  -0.70044
gfz2015shrg  -0.13124
gfz2015shsz  -0.26551
gfz2015sicf   0.77924
gfz2015sicu   0.28859
gfz2015siky   0.60902
gfz2015sing  -0.16257
gfz2015siof   1.07630
gfz2015sist   0.32955
gfz2015sitn   1.86720
gfz2015sixi   1.47500
gfz2015siyy   0.03991
gfz2015sjbx   0.64040
gfz2015sjeq  -0.41749
gfz2015sjfi   1.66480
gfz2015sjgk   0.18039
gfz2015sjjb   1.05050
gfz2015sjne   1.68620
gfz2015sjoj   1.78140
gfz2015sjpn   0.74431
gfz2015sjtz  -2.21920
gfz2015sjvu   1.68020
gfz2015sjwi   0.45000
gfz2015skab  -0.45024
gfz2015skgj   0.44549
gfz2015skia   0.22139
gfz2015skpv   1.76060
gfz2015skuk   0.85355
gfz2015sldx  -0.19100
gfz2015sljs  -0.17399
gfz2015slun   1.80650
gfz2015smgj   0.35294
gfz2015smym   1.17600
gfz2015snhn   0.69062
gfz2015snmr   0.58944
gfz2015snsf   1.31410
gfz2015snwh   0.19331
gfz2015snyd   1.53230
gfz2015soat   1.69550
gfz2015solh   0.56255
gfz2015sopc   1.16290
gfz2015soxc   0.61080
gfz2015sozw  -0.22321
gfz2015spal  -0.00000
gfz2015sqbg   1.04580
gfz2015sqmy   0.55796
gfz2015sqoz  -0.96935
gfz2015srat   0.78688
gfz2015sryk   0.44844
gfz2015ssaf   0.41717
gfz2015ssoe  -0.09929
gfz2015sspn   0.74232
gfz2015ssrl   0.78256
gfz2015stas  -0.79227
gfz2015stfy   1.39620
gfz2015stso   0.91706
gfz2015subz   0.07144
gfz2015sudm   1.70380
gfz2015svjy   1.61830
gfz2015svwm   1.00010
gfz2015swgn   2.54690
gfz2015swjx   0.73746
gfz2015swnc   0.34552
gfz2015sxgd   0.72631
gfz2015sxmh   1.51860
gfz2015sxxu   1.28670
gfz2015sydc   0.36011
gfz2015szcb   1.06850
gfz2015szfe   0.68222
gfz2015szfq   1.29530
gfz2015sztx   0.62897
gfz2015taml  -0.13906
gfz2015tbdn  -1.40090
gfz2015tbje   0.29832
gfz2015tcem   0.44321
gfz2015tdbb   0.33827
gfz2015tdcu   0.45708
gfz2015tdhb  -0.56924
gfz2015teje   0.35067
gfz2015tesj   1.01920
gfz2015teyn   1.15020
gfz2015tezd   1.90430
gfz2015tfaz   0.07816
gfz2015tfxb   1.62200
gfz2015thfd   0.63363
gfz2015thfm  -1.14130
gfz2015thgc   0.42842
gfz2015thgp  -1.63710
gfz2015thwg   1.61560
gfz2015thwp   2.35530
gfz2015tiyc   0.48731
gfz2015tjhv   0.74475
gfz2015tjys   3.20600
gfz2015tkol   0.50344
gfz2015tlba   0.91170
gfz2015tlkf  -0.94832
gfz2015tlok   1.05130
gfz2015tnjd   1.45150
gfz2015tnla  -0.51150
gfz2015tojz   0.16075
gfz2015totf   1.12170
gfz2015tpra   0.76893
gfz2015tqff  -0.42165
gfz2015tqie   0.50416
