# Nsamples: 459  MAD:  1.033  mean:  0.303  variance:  2.529
gfz2010aerk  -1.09360
gfz2010bowy   0.24569
gfz2010boxo   0.80353
gfz2010bxxs  -0.11164
gfz2010bywj  -0.42499
gfz2010caft  -0.88362
gfz2010cbkg  -0.34624
gfz2010cdbt  -0.38274
gfz2010chnv  -0.26360
gfz2010cind  -1.14590
gfz2010civi  -1.48850
gfz2010cjmx  -0.23539
gfz2010cjrf   0.91522
gfz2010ckeu  -0.36676
gfz2010ckzm   0.05047
gfz2010cnwc  -0.53336
gfz2010cptb  -0.12743
gfz2010cqwl  -0.73911
gfz2010cres  -0.35694
gfz2010czps  -1.20990
gfz2010ddzo  -0.01739
gfz2010dejx  -0.43583
gfz2010dfru  -0.10026
gfz2010dlgc  -0.38742
gfz2010dtmx   1.61980
gfz2010dumm  -0.72539
gfz2010emyz  -1.24600
gfz2010engw   1.49020
gfz2010enpa   0.32967
gfz2010ensu   5.38320
gfz2010enzl  -0.43463
gfz2010eoao  -1.43560
gfz2010eohh   1.43100
gfz2010eomb  -0.59029
gfz2010epbe   0.41283
gfz2010epud   0.12304
gfz2010epxj   1.02610
gfz2010eqcn  -1.56690
gfz2010eqjg  -0.87812
gfz2010eqmu  -4.45060
gfz2010eqse   2.49660
gfz2010eqwl  -1.94420
gfz2010erda   2.84510
gfz2010erdi  -2.99540
gfz2010erkn  -0.27159
gfz2010ermi   0.91682
gfz2010erna  -0.28048
gfz2010erom   0.21223
gfz2010erum   7.54160
gfz2010eruy  -0.37669
gfz2010erwn  -0.26595
gfz2010erxb  -1.40030
gfz2010erxk   1.20560
gfz2010esid   3.94400
gfz2010esmg   0.48910
gfz2010esou  -0.33582
gfz2010eted   0.49831
gfz2010etfw   1.55280
gfz2010euan   0.95426
gfz2010eujm   1.16760
gfz2010euvl   0.51979
gfz2010euwb   1.84420
gfz2010euxe   2.01430
gfz2010evco   1.67420
gfz2010evgf   0.78025
gfz2010evjv   2.72390
gfz2010evkd   0.38910
gfz2010ewbc   2.73690
gfz2010ewvc   1.11510
gfz2010ewyu   4.20450
gfz2010excp   2.60540
gfz2010exdd   0.90991
gfz2010exdl   0.10042
gfz2010exel   0.87337
gfz2010exfb   0.00000
gfz2010exgb   0.48388
gfz2010exhd   2.51870
gfz2010exhw   2.28180
gfz2010exmc   1.05090
gfz2010exno  -2.73650
gfz2010exqu  -0.23570
gfz2010exsg   0.06493
gfz2010exts   0.93328
gfz2010eyaz  -0.31436
gfz2010eyiv  -0.25509
gfz2010eyqe  -0.19269
gfz2010eyvq   2.58920
gfz2010eyxe   1.75560
gfz2010ezax   1.66740
gfz2010ezck   0.60705
gfz2010ezvt   1.06280
gfz2010ezwz   0.05224
gfz2010ezxd  -2.21100
gfz2010faeu  -0.35762
gfz2010falm  -0.06000
gfz2010fauz   0.63525
gfz2010fbeu   2.36970
gfz2010fbwe   0.58636
gfz2010fcax   1.79780
gfz2010fciw   3.70460
gfz2010fcnn  -0.28329
gfz2010fcnt   1.48120
gfz2010fcxy  -0.13442
gfz2010fcyj  -3.19960
gfz2010fczt   3.72150
gfz2010fdab  -0.62901
gfz2010fedq   1.81740
gfz2010fexw  -0.08861
gfz2010ffhq   0.75358
gfz2010ffjb   0.64128
gfz2010ffui   0.03360
gfz2010fhbl   1.91450
gfz2010fihj   0.65123
gfz2010fika  -0.78797
gfz2010fixr   1.53250
gfz2010fjal   1.97330
gfz2010fjmu   0.06192
gfz2010fkhd  -0.54215
gfz2010fknh   0.58053
gfz2010flha   0.51129
gfz2010flkj   0.48061
gfz2010floi   3.28260
gfz2010flrt   1.42740
gfz2010flxi  -0.21369
gfz2010fmhb   1.03290
gfz2010fmip   3.78160
gfz2010fmpy  -0.51593
gfz2010fneu   1.54750
gfz2010fnrk  -1.00810
gfz2010fobc   1.82770
gfz2010fpqy   0.25086
gfz2010fqdu  -0.94258
gfz2010fqtj  -0.39796
gfz2010fser   6.74950
gfz2010fsth   2.46720
gfz2010ftlm  -0.83160
gfz2010fupn  -0.78511
gfz2010fuuy   1.37030
gfz2010fuwa   4.86160
gfz2010fwkk   4.41830
gfz2010fwlb  -0.26362
gfz2010fyen  -1.15970
gfz2010gcdn   2.36440
gfz2010gceb   0.29192
gfz2010gcrl   2.00290
gfz2010gdch   3.07740
gfz2010gdld  -0.79764
gfz2010gdvf   0.10850
gfz2010geru   0.66115
gfz2010ghyk  -1.60970
gfz2010ginm  -0.79039
gfz2010gjia  -0.49261
gfz2010gjvo   1.73870
gfz2010glqr   0.37718
gfz2010glxl   0.96579
gfz2010grss  -0.43927
gfz2010grxb   0.44096
gfz2010gslu  -0.36401
gfz2010gwmp  -0.85283
gfz2010gymo  -0.16576
gfz2010gyqp  -0.74970
gfz2010hakh  -2.79070
gfz2010hbka  -0.24858
gfz2010hcio  -0.60562
gfz2010hevz  -0.52609
gfz2010hgld   2.95160
gfz2010hhls  -0.80502
gfz2010hjoc  -0.31187
gfz2010hllj   3.48480
gfz2010hlln  -0.25738
gfz2010hlmq  -0.10757
gfz2010hmhm   2.61790
gfz2010hncj  -0.38884
gfz2010hnnf  -0.01585
gfz2010hnpi   2.46400
gfz2010hnzr  -0.45327
gfz2010homc  -1.00020
gfz2010hptz   0.04113
gfz2010hrkr  -0.69134
gfz2010htdq   0.88617
gfz2010hufk  -0.56713
gfz2010hxgv   0.63189
gfz2010hxhe  -0.40345
gfz2010hykt  -0.03016
gfz2010hzar   1.96030
gfz2010ibiy   1.75670
gfz2010ibxj  -0.15493
gfz2010iciq  -0.74022
gfz2010icqq   0.42856
gfz2010ihrq   2.61020
gfz2010okdm   0.70196
gfz2010oluw  -1.99120
gfz2010omla   0.08292
gfz2010onma  -1.31940
gfz2010osjs   0.95456
gfz2010osqo  -1.16960
gfz2010otbn  -0.76269
gfz2010oyqy   0.31267
gfz2010pbdz   0.04975
gfz2010pcxi  -0.97597
gfz2010pdtk  -0.34023
gfz2010pets   0.30114
gfz2010pewa  -0.39688
gfz2010pewx   2.54510
gfz2010pexf  -0.45579
gfz2010pfyu  -0.43580
gfz2010phvg  -0.67559
gfz2010plbg   0.35854
gfz2010pmqd   0.82462
gfz2010pqck  -1.09100
gfz2010pxak  -0.60944
gfz2010pxgh   1.48670
gfz2010pxls  -1.41000
gfz2010qbng  -0.55851
gfz2010qitd  -1.07280
gfz2010qjst  -0.95964
gfz2010qkat  -0.95618
gfz2010qpcq   0.27148
gfz2010qwwx   2.33080
gfz2010rkfp  -0.47949
gfz2010rlbv   2.34390
gfz2010rotv  -0.38295
gfz2010rqwj   0.55553
gfz2010rywq   0.76769
gfz2010rzrr   4.17130
gfz2010sfee   0.00000
gfz2010sfla   1.30530
gfz2010sgzk   6.75120
gfz2010sjwp  -0.71676
gfz2010skqo  -1.52760
gfz2010skve   0.34081
gfz2010sniy  -3.00290
gfz2010srdb  -0.70877
gfz2010svtn   2.30540
gfz2010svve   0.99453
gfz2010swcy   0.16337
gfz2010sxwt  -0.33196
gfz2010sysw  -0.26857
gfz2010szde   6.35770
gfz2010szim  -0.10939
gfz2010tcbr  -0.73341
gfz2010tcrl   2.14100
gfz2010titk   0.32147
gfz2010truw   1.26410
gfz2010txjs   3.16280
gfz2010wofs  -0.22581
gfz2010wrxx   1.83550
gfz2010wxqa  10.35500
gfz2010xbcr  -0.82901
gfz2010xbdv   2.08340
gfz2010xbgs  -1.09110
gfz2010xcdh  -1.33940
gfz2010xche  -0.38856
gfz2010xcij  -0.81853
gfz2010xden  -0.90919
gfz2010xgfc  -0.15716
gfz2010xgzw   0.24371
gfz2010xjsj  -1.56880
gfz2010yfsv   0.61573
gfz2010ygwu  -0.07637
gfz2010yjev  -1.75740
gfz2010ymfy  -0.19711
gfz2010ymur  -0.06329
gfz2010yosr  -0.20675
gfz2010yoyx  -0.11721
gfz2010yqqb   0.07601
gfz2010yqqv  -1.09070
gfz2010ysaj  -0.79944
gfz2010yvwz  -0.36235
gfz2010yzgq   0.26556
gfz2010zdpo  -0.92727
gfz2011aatr   0.07499
gfz2011adjs   1.03670
gfz2011adlj   0.71336
gfz2011adne  -1.86860
gfz2011adqk   0.39218
gfz2011ahfw  -1.17550
gfz2011alip  -0.62647
gfz2011alsa   1.03060
gfz2011ammu   1.93560
gfz2011anur  -0.29239
gfz2011aosc   0.53119
gfz2011aqxf   1.71610
gfz2011asru   0.68591
gfz2011aupi   1.23690
gfz2011bhha   0.81608
gfz2011bnsg   0.30696
gfz2011bnzn  -1.11100
gfz2011bpkd  -0.35418
gfz2011bswz  -1.27610
gfz2011cfae  -0.10911
gfz2011cndo   1.52900
gfz2011cnho  -0.22625
gfz2011coxh   0.76257
gfz2011crdy  -0.06375
gfz2011csju  -1.36960
gfz2011ctbn  -0.55226
gfz2011cvcg  -0.26398
gfz2011cvfg  -1.43100
gfz2011cykd   0.45012
gfz2011cylz   0.82107
gfz2011cynl  -1.02690
gfz2011cyre  -0.65918
gfz2011cyuk  -0.26131
gfz2011czwj   1.54860
gfz2011dbev  -0.37538
gfz2011dbig   0.42064
gfz2011dbon   1.04590
gfz2011dbwt  -0.62099
gfz2011dcqb   0.17317
gfz2011ddao  -0.73449
gfz2011dddh  -0.06246
gfz2011deja  -0.55990
gfz2011dkyi   0.15265
gfz2011dldn  -0.60674
gfz2011dlyx   0.75096
gfz2011dmat  -0.50744
gfz2011dndz  -1.43990
gfz2011dpaa  -0.59971
gfz2011dpmx  -0.04859
gfz2011dpqx  -0.04016
gfz2011dqio  -0.41134
gfz2011duyr   1.35220
gfz2011dvxb  -0.12351
gfz2011eayc  -1.17620
gfz2011ecsc   3.04100
gfz2011ecvr   0.32618
gfz2011efgv  -0.74471
gfz2011ehzq   2.02960
gfz2011eiis   1.51600
gfz2011ejlp  -1.09950
gfz2011ekpr  -1.31770
gfz2011eocc  -0.55356
gfz2011etje  -0.20698
gfz2011fdzv  -0.42907
gfz2011fgvr   4.78070
gfz2011fhbm  -0.77803
gfz2011fhur   1.07780
gfz2011fkbn  -0.43289
gfz2011flgj  -0.17141
gfz2011fnsw  -0.87613
gfz2011gbmx  -0.09219
gfz2011gcwb   0.69247
gfz2011ggvf  -1.01200
gfz2011gjlx  -0.64624
gfz2011gzbr   4.32410
gfz2011haid   3.99070
gfz2011hbex  -0.87120
gfz2011hbqk  -0.72598
gfz2011hebt  -1.08580
gfz2011hfkj   1.86780
gfz2011hlqw  -0.04665
gfz2011hlsa   0.04009
gfz2011hlth  -0.27882
gfz2011hpgx   0.76684
gfz2011hpqp   1.05960
gfz2011hrhe  -0.63922
gfz2011hvbu   2.51750
gfz2011icxe  -2.12010
gfz2011ieie   0.20469
gfz2011ixai  -0.42572
gfz2011lvjr  -0.58094
gfz2011lzwj   0.40326
gfz2011mdie  -1.43970
gfz2011mivl   0.46072
gfz2011mjom  -0.73141
gfz2011mllx  -0.56978
gfz2011mlvw  -0.73452
gfz2011mpme   3.71820
gfz2011mprq  -0.48369
gfz2011nauw  -0.39854
gfz2011necz  -0.51918
gfz2011nkaz   0.61178
gfz2011nmqj   1.11330
gfz2011noud   4.95010
gfz2011nowp  -0.94231
gfz2011npgs  -0.21872
gfz2011nqpd  -0.63669
gfz2011nrwc  -0.53317
gfz2011nsex  -0.72859
gfz2011ntkh  -0.04537
gfz2011ntrv  -0.65136
gfz2011nudm   0.07784
gfz2011ogqk   2.52580
gfz2011ohcy  -1.78590
gfz2011oiqe   0.27640
gfz2011oiwk  -1.01310
gfz2011olkk   2.03280
gfz2011oolr  -0.27794
gfz2011ornx   1.57660
gfz2011owvz  -1.23600
gfz2011pccd  -1.09230
gfz2011pdpt  -1.25340
gfz2011pdst  -0.78926
gfz2011phms   1.62570
gfz2011psnq  -0.36514
gfz2011ptus  -1.04970
gfz2011qigx   1.02280
gfz2011qoif   0.58491
gfz2011qvae   1.69760
gfz2011qyms   6.33640
gfz2011rewa   0.17528
gfz2011rgwl  -0.02192
gfz2011rgwp   2.78970
gfz2011rnut  -0.48413
gfz2011rqui   0.00000
gfz2011rsrh   1.80670
gfz2011runa  -0.59650
gfz2011rznl   0.08942
gfz2011sagt   0.10185
gfz2011sawg  -0.36121
gfz2011shqm  -1.10060
gfz2011socv  -0.39127
gfz2011sqoy  -0.14899
gfz2011srka  -0.75795
gfz2011stal  -1.31790
gfz2011sthv  -0.85210
gfz2011svix  -0.19271
gfz2011syjd   0.26663
gfz2011tbas   2.68700
gfz2011tcij   0.11336
gfz2011tivu  -0.79649
gfz2011tjrf   2.56370
gfz2011tkfp   1.18870
gfz2011tkog  -0.32135
gfz2011tnag  -0.31690
gfz2011toub   0.72578
gfz2011tpfr  -0.72220
gfz2011tsfd  -1.54340
gfz2011tsnp  -0.85119
gfz2011twov  -0.43678
gfz2011udsq   0.07569
gfz2011ueni   0.18833
gfz2011uepx  -0.18642
gfz2011ugzz   1.45980
gfz2011uiul   0.07627
gfz2011ujze  -1.00920
gfz2011ukmp  -0.85184
gfz2011unkx  -0.84883
gfz2011uphh  -0.63870
gfz2011urxy  -0.68454
gfz2011urzu  -0.14604
gfz2011uzqv  -0.00000
gfz2011wcic   0.30881
gfz2011wfja  -0.83920
gfz2011wijj  -0.57170
gfz2011wjul  -0.55834
gfz2011wtmq  -1.13070
gfz2011wvzb  -0.16919
gfz2011wwjs   1.18290
gfz2011wxfs  -0.56602
gfz2011wxoj   0.07093
gfz2011wxtk  -0.86942
gfz2011wype   0.23444
gfz2011xaan  -2.32260
gfz2011xcpv  -2.41020
gfz2011xesx   0.05143
gfz2012pqlt   0.24376
gfz2012pqmu   0.07808
