# Nsamples: 1428  MAD:  0.403  mean: -0.057  variance:  1.506
gfz2012fqcg  -1.46380
gfz2012fwfo  -3.48620
gfz2012fwob  -0.01598
gfz2012fzfa  -0.22968
gfz2012gemm   0.88367
gfz2012gill  -0.10488
gfz2012gnvh  -0.24540
gfz2012gwqb  -0.04179
gfz2012hdbm  -0.05803
gfz2012hnul   1.36490
gfz2012hnuw   4.37860
gfz2012hogg   0.14806
gfz2012holl   0.07407
gfz2012hsex   1.19430
gfz2012htet   0.57683
gfz2012hwyo  -0.45170
gfz2012hyaa  -1.08170
gfz2012hzbe   0.06845
gfz2012iamr  -0.42603
gfz2012ibld  -0.62777
gfz2012icmv  -1.91720
gfz2012idje  -0.81245
gfz2012iffo   0.13040
gfz2012iivw  -0.20930
gfz2012ilxh  -0.29598
gfz2012imay  -0.57156
gfz2012imbd   0.19409
gfz2012intn   0.03831
gfz2012iyrb   1.21010
gfz2012jlox  -1.96990
gfz2012jmwd   0.21297
gfz2012joqe   0.23377
gfz2012jpeh  -0.89823
gfz2012jpgs  -0.27667
gfz2012jshk  -0.46369
gfz2012jted   0.11685
gfz2012jupx  -0.25725
gfz2012jxiy  -0.14534
gfz2012kanu  -0.04066
gfz2012kbjb  -0.31571
gfz2012kbzj   0.17715
gfz2012kdmb  -0.22446
gfz2012keor  -0.79994
gfz2012kiik  -0.73485
gfz2012kkcp  -0.00000
gfz2012kkup   0.49308
gfz2012klhx   0.13613
gfz2012kuct  -0.05935
gfz2012kudo  -0.36214
gfz2012kvzv  -0.06273
gfz2012kwgo  -0.07880
gfz2012lboz  -0.23508
gfz2012lczo  -0.08172
gfz2012ldgs   0.69361
gfz2012ldxg  -1.81390
gfz2012ldzj  -0.39846
gfz2012leam   0.01158
gfz2012lezd   0.20897
gfz2012lhnc   0.08655
gfz2012lltr   0.61837
gfz2012llug  -0.57076
gfz2012lpvn  -0.31844
gfz2012lqbg  -0.10228
gfz2012lrjq   0.17496
gfz2012lrol  -0.82364
gfz2012lrtb   0.02113
gfz2012lsni  -0.18829
gfz2012lsvd  -0.39603
gfz2012lszf   0.03141
gfz2012lxkv  -1.00830
gfz2012lzgv  -0.75139
gfz2012lzmr  -0.18859
gfz2012maxy  -0.22266
gfz2012megc   0.28901
gfz2012mkpn  -0.67116
gfz2012mlyf  -0.36505
gfz2012mpyl  -0.56492
gfz2012mtiu   0.22388
gfz2012mupa  -0.28768
gfz2012mvwr  -0.71796
gfz2012mwij  -0.29110
gfz2012myeg  -0.06636
gfz2012myqa   0.79926
gfz2012nben  -0.33113
gfz2012nedn  -0.21420
gfz2012nivl  -0.15349
gfz2012nkdf  -1.01280
gfz2012noei  -0.32588
gfz2012nojx  -0.94925
gfz2012nolo  -1.82190
gfz2012nroo   0.25494
gfz2012ntzv  -0.30493
gfz2012nutf  -0.40496
gfz2012nzpz  -1.39260
gfz2012oazn  -0.36579
gfz2012obgw  -0.76370
gfz2012obnq   0.09502
gfz2012oedb   0.06974
gfz2012oilt  -0.26877
gfz2012okhx  -0.09075
gfz2012omvo  -0.06291
gfz2012oqmw  -0.10276
gfz2012ostk  -0.24555
gfz2012ouyp   0.13032
gfz2012ovqs  -0.06426
gfz2012oycg   1.04290
gfz2012pazr   0.08074
gfz2012pciw   0.25274
gfz2012pcxi  -0.27103
gfz2012peex   0.01631
gfz2012pgcl   1.73660
gfz2012pkel  -2.13610
gfz2012plea   0.35455
gfz2012pofl   0.01156
gfz2012poju   0.68707
gfz2012pqlt  -0.27677
gfz2012pqmu   0.19785
gfz2012priv   0.34185
gfz2012prlt  -0.10678
gfz2012pspd  -0.63365
gfz2012pygp  -0.38438
gfz2012qjhs  -0.01559
gfz2012qqqp   0.00938
gfz2012qurq   0.63015
gfz2012quso  -0.05543
gfz2012qvxn  -0.00837
gfz2012raen  -0.38468
gfz2012raex   0.25597
gfz2012rboy   0.84535
gfz2012rcbq   0.72583
gfz2012rcds  -0.19645
gfz2012rejq   0.02332
gfz2012repv  -0.25277
gfz2012rgkl   0.16432
gfz2012rjld  -0.02641
gfz2012rkoa  -0.09425
gfz2012rmtr  -0.08613
gfz2012ronz  -0.89361
gfz2012royy   0.01736
gfz2012rpmb   0.21727
gfz2012rqlg  -0.10732
gfz2012rtqi  -0.36021
gfz2012rubi  -0.55234
gfz2012ruks  -0.09404
gfz2012rwko   0.05272
gfz2012rwov  -1.06640
gfz2012rypu  -1.04170
gfz2012sfer  -0.51067
gfz2012shtg  -0.25335
gfz2012sjea  -1.81260
gfz2012sqmv  -0.03756
gfz2012sqvi   0.05973
gfz2012svpr   0.07356
gfz2012syvl   0.07206
gfz2012szla  -0.32326
gfz2012tazz   0.66862
gfz2012tbbp  -0.26702
gfz2012tbxt   0.15698
gfz2012thfx   0.23171
gfz2012tmop   0.20650
gfz2012tphj   0.10023
gfz2012ttoa   0.12239
gfz2012tyxl  -0.17445
gfz2012uaqj  -0.05502
gfz2012uciv   0.16627
gfz2012ufew  -1.44220
gfz2012ulpd  -0.21307
gfz2012uoef  -0.05956
gfz2012uqzp  -0.17580
gfz2012usba   1.12480
gfz2012uvqf   0.33799
gfz2012uxnz   0.65958
gfz2012uyie  -0.05283
gfz2012uyxb  -3.00410
gfz2012uzom   0.08446
gfz2012uzyj  -0.45221
gfz2012vceo  -0.76573
gfz2012vjgl  -0.56882
gfz2012vmeh  -0.66306
gfz2012vnbk  -0.69979
gfz2012vntz  -0.30491
gfz2012vpza  -0.76190
gfz2012vrua  -0.41338
gfz2012vsev  -0.15819
gfz2012vtif   0.13613
gfz2012vtxe  -0.16464
gfz2012vwvd   0.15581
gfz2012vxvr   0.16880
gfz2012vyzo  -0.16817
gfz2012wajj  -0.62183
gfz2012wgbb  -0.18994
gfz2012wizz  -0.71032
gfz2012wkfw  -0.56653
gfz2012wklq  -0.51274
gfz2012wpah  -0.60102
gfz2012wqnc  -0.03130
gfz2012wtkh  -0.22123
gfz2012wtov  -0.32235
gfz2012wubh  -0.12034
gfz2012wvfl   4.19820
gfz2012wwdo  -2.15950
gfz2012wxer   4.22300
gfz2012wxnu   2.74070
gfz2012wybs  -0.20499
gfz2012wypz  -0.09164
gfz2012xbjq  -0.14487
gfz2012xcgk  -0.18184
gfz2012xgqm  -0.40844
gfz2012xhci   0.09145
gfz2012xjyv  -0.58410
gfz2012xkkv  -1.97400
gfz2012xmxy  -0.34910
gfz2012xpmm  -0.20125
gfz2012xslk  -0.75165
gfz2012xssa   2.10580
gfz2012xvwn  -0.07541
gfz2012xyqp  -0.60528
gfz2012xyua  -0.04108
gfz2012yhag   0.32953
gfz2012yldu  -0.07501
gfz2012yoie  -0.06249
gfz2012yqjj  -0.61770
gfz2012yxxu  -0.40912
gfz2012yzod  -0.93064
gfz2012zemz  -0.89088
gfz2012zfag   0.63558
gfz2012zhmb  -0.10392
gfz2012zhyf  -0.07218
gfz2012ziml   0.04688
gfz2012zitl   1.79200
gfz2012zklq   2.89430
gfz2012zmbp  -1.91870
gfz2012zsqk  -0.22774
gfz2013aayj  -0.37606
gfz2013aeee   2.87180
gfz2013akgj  -0.32642
gfz2013aknp   0.01452
gfz2013apmm   0.16938
gfz2013aspo   0.50669
gfz2013avic  -0.01566
gfz2013bbrc  -0.08009
gfz2013bdke  -3.26200
gfz2013bdpu  -0.47095
gfz2013bhgs  -0.24071
gfz2013biji  -0.13038
gfz2013bobq   0.15559
gfz2013bouj  -0.09268
gfz2013btjm  -0.45331
gfz2013bzlb   1.28150
gfz2013bzzm   1.34040
gfz2013casg  -1.12660
gfz2013cbsm  -0.20902
gfz2013ccnr  -0.47191
gfz2013ccon  -0.40898
gfz2013cdfj  -0.97305
gfz2013cefm  -0.76630
gfz2013cfyy  -0.09773
gfz2013cgou  -0.01224
gfz2013ciaf  -0.57723
gfz2013cnms  -0.05211
gfz2013cnve  -0.68381
gfz2013cnyj   0.30499
gfz2013cnyk  -2.10860
gfz2013comh  -0.36365
gfz2013cptb   0.55532
gfz2013cuoq  -0.06967
gfz2013cvqg  -0.65182
gfz2013cwpn   4.04670
gfz2013czeq  -1.34620
gfz2013ddbh  -0.39951
gfz2013dddp   0.04165
gfz2013dfhb   0.03226
gfz2013diuf  -0.24935
gfz2013dkmg  -0.10086
gfz2013dkym  -0.49513
gfz2013dnnx  -0.01999
gfz2013dofo  -0.49283
gfz2013dojq  -1.87340
gfz2013dqls  -0.17428
gfz2013drpk   0.20860
gfz2013drxz   0.32566
gfz2013dsog  -0.70473
gfz2013dujm  -0.39302
gfz2013duzp  -1.58740
gfz2013dvye  -2.07240
gfz2013dvyh  -0.06516
gfz2013enbx  -1.27870
gfz2013erse  -0.10853
gfz2013esnh  -0.22656
gfz2013esnt  -1.45780
gfz2013eswe   0.67278
gfz2013eulz  -1.95160
gfz2013evsq  -0.40930
gfz2013fcto  -0.71873
gfz2013fdoo  -0.64068
gfz2013ffko  -0.26692
gfz2013fkcl   0.04723
gfz2013flox  -0.48576
gfz2013fnzr  -1.89820
gfz2013ftso  -0.78941
gfz2013fwxa   0.01792
gfz2013fxge   0.53211
gfz2013gaie  -0.33485
gfz2013gbcn  -1.01190
gfz2013gcfx   3.64710
gfz2013gdnq   1.11820
gfz2013geia  -0.11267
gfz2013geno  -0.32190
gfz2013gihf  -0.07750
gfz2013gjdc   0.16087
gfz2013glcr   0.02333
gfz2013gngz   0.07162
gfz2013gock   0.17530
gfz2013govy   0.03811
gfz2013gras  -0.03234
gfz2013gvdb   0.38545
gfz2013gvet  -0.01099
gfz2013gwrd  -1.44690
gfz2013gxsu  -0.27175
gfz2013hbkh  -0.42300
gfz2013hbkq   0.46937
gfz2013hfmp  -1.00270
gfz2013hklr  -0.25640
gfz2013hlbe   0.07454
gfz2013hmbc   0.64531
gfz2013hpfq  -0.07092
gfz2013hudi  -0.22541
gfz2013hxcx   0.16672
gfz2013iapa  -2.27900
gfz2013iayx   0.36632
gfz2013icfh  -0.02824
gfz2013icqt   0.26533
gfz2013idbb  -0.39232
gfz2013iexo   0.13033
gfz2013ihcj   0.16786
gfz2013ijsr  -1.11260
gfz2013ijyg  -0.14303
gfz2013ikgo  -1.94430
gfz2013ilug   0.82018
gfz2013inux  -0.86075
gfz2013iodt  -0.93009
gfz2013iopd   0.03873
gfz2013ippu   0.51345
gfz2013itsu  -0.16431
gfz2013iunn  -0.46018
gfz2013iynu  -0.28519
gfz2013iyqz  -0.16372
gfz2013jarl   0.20223
gfz2013jdrx  -0.09245
gfz2013jesk  -0.04418
gfz2013jfah  -0.74210
gfz2013jgij   0.10409
gfz2013jgip   0.40185
gfz2013jjrt   0.37557
gfz2013jjsi  -0.23931
gfz2013jkut  -0.94766
gfz2013jlst   0.16410
gfz2013jmcc   0.31252
gfz2013jokw   1.47420
gfz2013jphq  -0.36845
gfz2013json  -1.20060
gfz2013jusj   0.73823
gfz2013jvhy  -0.19246
gfz2013jwcn  -0.04483
gfz2013kccc  -0.33082
gfz2013kdeo  -1.06880
gfz2013kgmj   0.19759
gfz2013kheb  -0.09073
gfz2013khli  -0.25790
gfz2013kilx  -0.41088
gfz2013kkzr   0.14638
gfz2013krei  -0.62614
gfz2013kwag  -0.16862
gfz2013kweg  -0.65810
gfz2013kwps  -0.04998
gfz2013lajn  -1.33600
gfz2013lbiu   1.18380
gfz2013lcos   1.57180
gfz2013ldos   0.37571
gfz2013ldpc  -0.04664
gfz2013ldqb   0.17762
gfz2013lfyb   0.14803
gfz2013lgbb   0.16387
gfz2013lgxc  -0.22909
gfz2013limo  -0.25465
gfz2013lixa   0.24107
gfz2013lmdy  -0.70037
gfz2013lmrs  -0.09001
gfz2013lwbk  -0.08793
gfz2013lxyn   0.39450
gfz2013lyko   2.92000
gfz2013lznu  -0.20715
gfz2013mded   0.22489
gfz2013mdiq   1.06010
gfz2013mghe   0.56604
gfz2013mhjf  -0.36789
gfz2013mmlw  -0.67925
gfz2013mnac  -0.14001
gfz2013mnei  -0.05004
gfz2013mnju  -0.27518
gfz2013mqmv  -0.92322
gfz2013mtqd   0.06716
gfz2013mvdm  -0.08223
gfz2013mvgr  -0.36722
gfz2013mxee   0.20080
gfz2013mxrz   0.28189
gfz2013mzwe  -0.54001
gfz2013nabl  -0.19216
gfz2013ncjp   0.09953
gfz2013nedo  -0.54015
gfz2013neuc  -0.12215
gfz2013nhjb  -0.45009
gfz2013njnd   0.23323
gfz2013nlxz  -0.04105
gfz2013nmac   0.17957
gfz2013nnzf  -0.03678
gfz2013nojf  -0.25026
gfz2013nppd  -0.42787
gfz2013nqgw  -0.69736
gfz2013nttq   0.39082
gfz2013nuor   0.21078
gfz2013nvdj  -0.07272
gfz2013nvia  -0.19241
gfz2013nwdi  -1.03950
gfz2013ofls  -0.15965
gfz2013ogde  -0.38176
gfz2013oifr  -0.17493
gfz2013oilg  -0.66069
gfz2013oinc  -0.94656
gfz2013ojti  -0.67833
gfz2013oksi  -0.77888
gfz2013onjy  -0.45108
gfz2013orjg  -0.26530
gfz2013ornz  -0.49204
gfz2013ouvt  -0.68517
gfz2013ovyg   0.17624
gfz2013ozku   0.04706
gfz2013oznn  -0.49441
gfz2013ozqm  -1.46830
gfz2013ozrf  -0.23993
gfz2013ozrp  -0.28190
gfz2013pakq   0.56045
gfz2013pcos  -0.11565
gfz2013pfbx  -3.40140
gfz2013pfeb  -0.48537
gfz2013pfnf  -1.00740
gfz2013phef  -1.04020
gfz2013pigb   0.22539
gfz2013piwd  -0.08632
gfz2013pkbs  -0.08243
gfz2013plhp   0.63788
gfz2013pndn   0.72715
gfz2013ptit   0.85828
gfz2013pupd  -0.98580
gfz2013pweb  -0.28563
gfz2013pwjd  -0.12262
gfz2013pwyt   0.58535
gfz2013pxsj  -2.40810
gfz2013pxtx   1.75790
gfz2013pxya   0.36270
gfz2013pzgs   0.43548
gfz2013qali  -1.05880
gfz2013qbca  33.10900
gfz2013qbys  -0.02715
gfz2013qcck   0.08979
gfz2013qckf   0.00000
gfz2013qesa  -0.96736
gfz2013qfmm   0.18501
gfz2013qfsq  -0.05524
gfz2013qhtx  -0.46945
gfz2013qhwz   0.08118
gfz2013qidm   0.24527
gfz2013qjmk   0.17023
gfz2013qmer   0.05430
gfz2013qpgd  -0.06105
gfz2013qpqb   0.50734
gfz2013qqrr  -0.09838
gfz2013qrxy   0.07276
gfz2013qvcr   0.00990
gfz2013qwbv  -0.25607
gfz2013qwgb   0.13487
gfz2013rait  -0.80257
gfz2013rdmo   0.46516
gfz2013rdoo  -0.24070
gfz2013reav  -0.46309
gfz2013rjgt  -0.31817
gfz2013rjsx  -0.11452
gfz2013rluo   0.34186
gfz2013rotn  -0.46242
gfz2013rqcy  -0.38200
gfz2013rqmp  -0.11360
gfz2013rsnr   0.49249
gfz2013rsts  -0.16892
gfz2013rvsm  -0.89753
gfz2013rwfe  -0.31025
gfz2013ryxm  -0.21195
gfz2013sart  -0.67375
gfz2013scub   0.05907
gfz2013sdus  -0.90534
gfz2013sebq  -0.04592
gfz2013sfds   0.44067
gfz2013sfto   0.14801
gfz2013shlq  -0.08975
gfz2013shzy   0.53515
gfz2013skkm  -0.01759
gfz2013sllq  -0.07478
gfz2013snbr  -0.64583
gfz2013snyf  -0.04705
gfz2013sqkb   0.00000
gfz2013stcu   0.59496
gfz2013suln  -0.06967
gfz2013svci  -1.59860
gfz2013svqv  -0.51990
gfz2013syqk   0.23543
gfz2013tamc  -0.26876
gfz2013tbzy  -0.40247
gfz2013tcxc   1.77900
gfz2013tcxq   2.73870
gfz2013tdau   0.90435
gfz2013tdkk  -0.77477
gfz2013tect  -2.31160
gfz2013thtc   0.19038
gfz2013tjlx  -0.09307
gfz2013toea   0.33040
gfz2013toxf  -1.16700
gfz2013tqbb   0.26697
gfz2013ttoz  -0.28719
gfz2013tusd  -0.37498
gfz2013tuzv  -0.00794
gfz2013tvmw  -0.15580
gfz2013uauo  -0.24459
gfz2013ufku  -0.19423
gfz2013ufxk   0.14227
gfz2013ugax  -0.03192
gfz2013uhlm   0.01419
gfz2013umya  -0.30647
gfz2013upcc  -0.31252
gfz2013upee   0.14549
gfz2013upiv  -0.01825
gfz2013uqsp   1.56460
gfz2013uqvu  -0.36662
gfz2013utsh  -0.46870
gfz2013uuzn  -0.62647
gfz2013uysr  -0.49618
gfz2013vcoa  -0.55581
gfz2013vdic  -0.96496
gfz2013vefs   1.00450
gfz2013vexx  -2.03390
gfz2013vfyw   0.40749
gfz2013vfzp   1.90860
gfz2013vgev  -0.51286
gfz2013vhsb  -0.32697
gfz2013vhzu   0.29383
gfz2013vijl   0.20478
gfz2013viul  -0.05498
gfz2013vjjc   0.09435
gfz2013vjod   4.72220
gfz2013vlth   0.06832
gfz2013vmro   0.28640
gfz2013vnfj  -0.03130
gfz2013vpnf  -0.12806
gfz2013vqot  -0.76573
gfz2013vrmy   0.00000
gfz2013vsxi  -0.21663
gfz2013vuja  -0.15706
gfz2013vxta   0.45048
gfz2013vzbo  -0.01920
gfz2013wbyr   0.25024
gfz2013wgeu  -0.12546
gfz2013whts  -0.13204
gfz2013wjmm  -0.03948
gfz2013wmfd  -1.08280
gfz2013wnql   0.21576
gfz2013woze   0.41698
gfz2013wpga  -0.05025
gfz2013wqhq  -0.30067
gfz2013wrgw   0.08603
gfz2013wtzl   0.32285
gfz2013wuml   0.57245
gfz2013wuon  -0.37602
gfz2013wwec  -0.23374
gfz2013wwii  -0.71723
gfz2013xatc   0.04096
gfz2013xcmp  -0.30316
gfz2013xgek  -1.13310
gfz2013xkbh  -0.14370
gfz2013xkwt   0.00086
gfz2013xmqg  -0.11354
gfz2013xmul  -0.21158
gfz2013xpfa   0.16095
gfz2013xpsm   0.18754
gfz2013xqnn   0.20336
gfz2013xsdt   0.39402
gfz2013xtwj  -1.29730
gfz2013xvyl   0.93266
gfz2013xwda  -2.14150
gfz2013xwxn  -0.73668
gfz2013xwzd  -2.52020
gfz2013xxcc  -0.40616
gfz2013xyzb  -0.34884
gfz2013yach  -1.26650
gfz2013ydtm  -0.33633
gfz2013yewz  -0.12665
gfz2013yghj  -0.47005
gfz2013yhbu   0.06270
gfz2013yhpk   0.04659
gfz2013yixl  -0.28071
gfz2013ylbx   0.00637
gfz2013ymxs  -0.19113
gfz2013ynmw  -0.41214
gfz2013ypdc  -0.24055
gfz2013yqkv  -0.38921
gfz2013yulx   0.33942
gfz2013yvqu   0.25604
gfz2013yyhc  -0.28511
gfz2013yzte  -0.24882
gfz2013zfhu   0.47247
gfz2013ziyr   0.28128
gfz2013zjtw  -0.01450
gfz2013zmoc  -1.88510
gfz2013zmtb   0.12973
gfz2014aawc  -0.72454
gfz2014abgd  -0.22304
gfz2014adjs  -0.02451
gfz2014afmx  -1.03470
gfz2014agde   0.56484
gfz2014agyz  -0.13549
gfz2014aidn  -0.26115
gfz2014ajlk  -0.05025
gfz2014ajtf  -0.09336
gfz2014alwz   0.62142
gfz2014amsb   0.58931
gfz2014ared   1.22520
gfz2014arnc   0.26599
gfz2014arpf  -0.12844
gfz2014arqr  -0.95068
gfz2014atbl  -0.05386
gfz2014atgw  -0.85800
gfz2014azqs  -0.29202
gfz2014bagd  -1.23470
gfz2014bazc   0.85366
gfz2014bbro  -0.70564
gfz2014bcae  -0.02168
gfz2014bdfd  -1.14730
gfz2014bekc  -0.64832
gfz2014bezu   0.26759
gfz2014bfqo  -0.21397
gfz2014bhvd   0.53853
gfz2014bjgt   0.36711
gfz2014bjsy   0.26169
gfz2014bmfa   0.64795
gfz2014bolf  -0.66405
gfz2014bqes  -0.04924
gfz2014buej  -0.19563
gfz2014bwue  -0.27233
gfz2014bzna   0.07660
gfz2014bztt  -0.53162
gfz2014caop  -0.13582
gfz2014cbtl  -1.23940
gfz2014ccbz  -0.26997
gfz2014cdwi   0.08066
gfz2014cgog   0.54323
gfz2014citw   0.61826
gfz2014clnj   0.22024
gfz2014clnq   0.31315
gfz2014crpy  -0.00000
gfz2014cueu   0.34559
gfz2014cxcj  -0.16041
gfz2014cybg  -0.07078
gfz2014czno  -0.39427
gfz2014czol  -0.60917
gfz2014czqi   0.10189
gfz2014czua   1.78530
gfz2014dbdf  -0.17490
gfz2014dffd  -0.04696
gfz2014dgiy   0.48919
gfz2014disp   0.08242
gfz2014dlri  -0.22924
gfz2014dpzx   0.32804
gfz2014duqn   0.50779
gfz2014dwls  -0.08411
gfz2014dwsy  -0.06417
gfz2014eage  -0.19840
gfz2014ebmc  -1.02050
gfz2014edfx   1.81460
gfz2014efkk  -0.10174
gfz2014efsd  -0.08495
gfz2014eght  -0.16937
gfz2014egwu  -0.09572
gfz2014ejvf  -0.50071
gfz2014emrg   0.06566
gfz2014eqpl   0.27080
gfz2014eqss   0.04396
gfz2014erbj  -0.02114
gfz2014ettc  -0.33717
gfz2014ewcz  -0.70883
gfz2014ewrw  -0.00000
gfz2014exmv   0.06935
gfz2014exxa   0.01473
gfz2014ezgb  -1.66920
gfz2014fcms  -2.82880
gfz2014fexu   0.10731
gfz2014ffdc   0.07250
gfz2014ffqx  -0.82860
gfz2014fgkb  -0.14917
gfz2014fgvi  -0.33652
gfz2014fgvr   0.71557
gfz2014fgvz   4.00480
gfz2014fgwn   0.34984
gfz2014fgwt   1.32760
gfz2014fgxt   0.08395
gfz2014fgxz  -0.04353
gfz2014fgyo  -0.12254
gfz2014fgza  -0.10052
gfz2014fhbd   0.25666
gfz2014fhdw  -0.32869
gfz2014fhgb   0.30567
gfz2014fhhp   0.59242
gfz2014fhjd  -0.22869
gfz2014fhkp  -0.12770
gfz2014fhla  -0.36882
gfz2014fhmb  -0.28318
gfz2014fhoe  -0.65846
gfz2014fhpf  -0.00870
gfz2014fhqk   0.09063
gfz2014fhrq   0.05176
gfz2014fhsg   0.40462
gfz2014fhwx   0.14008
gfz2014fhxm  -0.20780
gfz2014fhyb   1.66760
gfz2014fimn   0.22282
gfz2014fiuj  -0.39909
gfz2014fiwq   0.88357
gfz2014fjdz   0.68710
gfz2014fjpb   0.11513
gfz2014fjxd   0.01374
gfz2014fjyo   0.09477
gfz2014fjzd  -0.24724
gfz2014fjzw   0.19639
gfz2014fkmr  -0.63102
gfz2014fkmx   1.94310
gfz2014fles   0.56863
gfz2014flfa   0.86876
gfz2014fmai  -0.94164
gfz2014fnbh   0.31394
gfz2014fnyg   0.48721
gfz2014foio   2.63630
gfz2014foty   0.12776
gfz2014fqpz  -0.30074
gfz2014frdz   0.19385
gfz2014frel  -0.11688
gfz2014frez  -0.41272
gfz2014frfl   1.42130
gfz2014frfw   0.09438
gfz2014frgm   0.05610
gfz2014frjr   0.27325
gfz2014frme  -0.23689
gfz2014frnb   0.66230
gfz2014frwh  -0.08075
gfz2014fstx  -0.16226
gfz2014fsuh   0.14288
gfz2014ftgx   0.67120
gfz2014ftka  -0.35355
gfz2014ftno   0.03133
gfz2014ftoc  -0.02910
gfz2014ftpw  -0.60115
gfz2014ftvc  -1.00050
gfz2014fudl  -0.25767
gfz2014furx  -0.21912
gfz2014fusc   2.58970
gfz2014fusu   0.61511
gfz2014fuub   0.43346
gfz2014fuup   0.25626
gfz2014fuvk  -0.20173
gfz2014fuzi  -0.09942
gfz2014fvaa   0.40114
gfz2014fval   0.42834
gfz2014fvdx   0.37427
gfz2014fvgh  -0.32117
gfz2014fvhp   0.30015
gfz2014fvpy   0.35711
gfz2014fvrg  -0.05859
gfz2014fvve   0.01490
gfz2014fwdr   0.04160
gfz2014fwtt  -0.36652
gfz2014fwyr  -0.53260
gfz2014fxpu   0.39568
gfz2014fyfr   0.37400
gfz2014fzgx   0.66999
gfz2014gbcz  -0.34378
gfz2014gbdq  -1.03000
gfz2014gbjf   0.06378
gfz2014gcza   0.16417
gfz2014gdsq   0.49146
gfz2014gesb   0.58522
gfz2014geuy   0.22923
gfz2014gezs  -0.17317
gfz2014gfdj  -0.30832
gfz2014gfhf   0.25253
gfz2014ggnq   0.01188
gfz2014ggpd   0.65848
gfz2014ggsr   0.18761
gfz2014ghoq  -0.03828
gfz2014gilf   0.01280
gfz2014gkgf  -0.72535
gfz2014gkgl   2.05590
gfz2014gkhp   9.03120
gfz2014gkjl   3.57980
gfz2014gkjt   1.09940
gfz2014gkjw   0.25475
gfz2014gkjy  -0.44736
gfz2014gkln   0.12117
gfz2014gklv  -0.90545
gfz2014gkok   0.15675
gfz2014gkpd   0.06494
gfz2014gkpj   0.09357
gfz2014gkqf  -0.44485
gfz2014gkqu   2.65480
gfz2014gkrl   1.15620
gfz2014gkrz  -1.10520
gfz2014gksj   0.23438
gfz2014gksu   1.11050
gfz2014gktn  -1.39990
gfz2014gkut   0.11272
gfz2014gkvk   0.03801
gfz2014gkxi   0.02106
gfz2014gkxm   0.23706
gfz2014glcu  -0.61553
gfz2014glfn   0.28858
gfz2014glgo  -0.05824
gfz2014glhs   1.22690
gfz2014glov   0.45061
gfz2014glsh   0.31705
gfz2014gltj   0.50007
gfz2014gltx  -0.19779
gfz2014glvn  -0.12418
gfz2014glvu   0.08477
gfz2014glxd  -1.88210
gfz2014glxy  -1.48150
gfz2014gmci  -0.25771
gfz2014gmes   0.10967
gfz2014gmge   0.17341
gfz2014gmhp   0.03859
gfz2014gmhr  -0.58297
gfz2014gmic  -0.16794
gfz2014gmip  -0.07903
gfz2014gmjo  -0.31347
gfz2014gmjz  -0.03961
gfz2014gmku   0.28735
gfz2014gmlz   0.31705
gfz2014gmmt   0.06247
gfz2014gmnb  -0.19578
gfz2014gmnw  -0.29154
gfz2014gmpy   0.09163
gfz2014gmqw   0.03911
gfz2014gmrj   0.24396
gfz2014gmtb  -0.09710
gfz2014gmtj  -0.12387
gfz2014gmto   0.41501
gfz2014gmuw  -0.32049
gfz2014gmvr  -0.03341
gfz2014gmzl  -0.31076
gfz2014gmzs   0.04171
gfz2014gnhk  -0.09524
gfz2014gnig   0.13331
gfz2014gnmp  -0.01371
gfz2014gnmx   0.24675
gfz2014gnno  -0.11720
gfz2014gnom   0.39035
gfz2014gnoz   0.13657
gfz2014gnqt  -1.30550
gfz2014gnre   0.19496
gfz2014gnsi   0.27606
gfz2014gntd  -0.59856
gfz2014gnvw   0.83738
gfz2014gnwg   0.82071
gfz2014gnxb   0.04977
gfz2014goba  -0.30614
gfz2014goei  -0.00304
gfz2014gogv  -0.32703
gfz2014gohm   0.41916
gfz2014golz   0.55216
gfz2014gono   0.52543
gfz2014goqw  -0.39981
gfz2014gpac   0.09079
gfz2014gpbx  -0.28572
gfz2014gpce  -0.06374
gfz2014gpdo   0.52507
gfz2014gpgd  -0.13076
gfz2014gphr   0.39817
gfz2014gpmm  -0.18981
gfz2014gpnf  -0.20214
gfz2014gpqq   0.61843
gfz2014gpuk   0.61007
gfz2014gpvk  -0.10998
gfz2014gpxl  -0.26035
gfz2014gpxv  -0.38298
gfz2014gqbj  -0.04602
gfz2014gqco  -0.13418
gfz2014gqed   0.08974
gfz2014gqer   0.45061
gfz2014gqgf   0.01315
gfz2014gqhe   0.14409
gfz2014gqiy   0.00000
gfz2014gqqz   0.19528
gfz2014gqro  -0.01184
gfz2014gqup  -0.08137
gfz2014gqve  -0.01936
gfz2014grcv  -0.08973
gfz2014grfp  -0.07405
gfz2014grgn   0.09764
gfz2014grho   0.33569
gfz2014gsdw  -0.13664
gfz2014gsgv   0.12898
gfz2014gsjg   0.10746
gfz2014gsqs  -0.01512
gfz2014gtef   0.24969
gfz2014gtlu   0.13813
gfz2014gtwz   0.19944
gfz2014gufl   0.35238
gfz2014gull  -0.21338
gfz2014gulp  -0.39901
gfz2014gumd   0.27642
gfz2014gutm   0.65976
gfz2014gvhw   0.81134
gfz2014gvqj   0.17928
gfz2014gvra   0.51716
gfz2014gvrd   0.44854
gfz2014gwab   0.48157
gfz2014gwap  -0.00946
gfz2014gwqj  -0.50257
gfz2014gxag  -0.12880
gfz2014gxkh   0.04865
gfz2014gxqf  -0.33799
gfz2014gxqu   0.25186
gfz2014gxqx  -0.09511
gfz2014gxvf   0.02230
gfz2014gxxh   0.48516
gfz2014gxxo  -0.27447
gfz2014gyxd   0.05042
gfz2014gzue   0.02900
gfz2014haey  -0.07134
gfz2014hafk   0.30371
gfz2014hagb   0.03164
gfz2014haos   0.20573
gfz2014hasj  -0.22445
gfz2014hbjm  -2.78060
gfz2014hbjz   0.02082
gfz2014hcns   0.20907
gfz2014hetr   0.00625
gfz2014heyq  -0.02317
gfz2014hfad   0.50577
gfz2014hfzf   0.40339
gfz2014hhfs  -0.11920
gfz2014hhwx   0.04373
gfz2014hifp  -0.35945
gfz2014hiih   0.41749
gfz2014hiiz  -0.19186
gfz2014hjgh  -0.11711
gfz2014hjgo  -0.24980
gfz2014hjgr  -0.04880
gfz2014hjhu  -0.25763
gfz2014hjij  -0.18709
gfz2014hjkp   0.39102
gfz2014hjlx  -0.08306
gfz2014hkcf  -0.02618
gfz2014hkck   0.14708
gfz2014hlib  -0.25663
gfz2014hmgf  -0.06413
gfz2014hmvx   0.37633
gfz2014hmzg  -0.06374
gfz2014hnfm  -0.33165
gfz2014hoap  -0.49417
gfz2014hodc   1.21640
gfz2014hokj   0.29582
gfz2014hphw  -0.10072
gfz2014hppw  -0.26120
gfz2014hpqz   0.07451
gfz2014hqxs  -0.34937
gfz2014hqyx  -0.09066
gfz2014hrft  -0.62269
gfz2014hriu   0.00000
gfz2014hrtn   0.00000
gfz2014hscz  -1.29820
gfz2014hsqo   0.25952
gfz2014hssr   0.75322
gfz2014hszs   0.11486
gfz2014htbf  -0.07605
gfz2014huaj  -0.35079
gfz2014hugz  -0.05842
gfz2014hvdm  -0.11289
gfz2014hwan  -0.09205
gfz2014hwsy   0.65276
gfz2014hwwi   0.00000
gfz2014hxcl  -0.15436
gfz2014hxev  -0.16567
gfz2014hyal  -0.07746
gfz2014hyvq  -0.08612
gfz2014hzdy  -0.51135
gfz2014hzfr  -0.06813
gfz2014hzfw   2.36610
gfz2014hzgn  -0.00551
gfz2014hzht   0.17825
gfz2014hzig   0.74679
gfz2014hzze  -0.27131
gfz2014iani  -0.09058
gfz2014iazy   0.07947
gfz2014ieam  -0.31479
gfz2014iege  -0.10077
gfz2014ieho   0.27571
gfz2014ifue  -0.58237
gfz2014ifzj   0.33315
gfz2014igsj   0.06694
gfz2014igur   0.27021
gfz2014ijvh  -0.25700
gfz2014ikbk   0.17051
gfz2014ikun   0.10181
gfz2014ikvd   0.91907
gfz2014ilwu  -0.16355
gfz2014imap  -1.41020
gfz2014immt  -0.25613
gfz2014imnn  -0.22582
gfz2014inbj  -0.08970
gfz2014iobd  -0.04017
gfz2014iqzj   0.72761
gfz2014irci  -0.13807
gfz2014ircq   0.27798
gfz2014irrg   0.72421
gfz2014isdq   0.27693
gfz2014isff   0.31052
gfz2014issk   0.72503
gfz2014isub  -0.41076
gfz2014isys  -0.27915
gfz2014itab   0.02590
gfz2014itbe   0.20075
gfz2014itbu   0.44505
gfz2014itfc   0.10027
gfz2014itgh  -0.01787
gfz2014itjx  -1.40010
gfz2014itkw  -0.60870
gfz2014itpj   0.12637
gfz2014iuhq  -0.17614
gfz2014ivep   0.29970
gfz2014iwnf  -0.27327
gfz2014iwwl   0.32022
gfz2014ixga  -0.02117
gfz2014ixky  -0.01416
gfz2014iywt   0.30974
gfz2014jagg   0.29406
gfz2014jass   0.26928
gfz2014jatq   0.34234
gfz2014jcmt  -0.22515
gfz2014jdoy   1.10440
gfz2014jdxj   0.28305
gfz2014jesb  -0.35967
gfz2014jfis  -0.19225
gfz2014jggm  -0.03343
gfz2014jhra  -0.56270
gfz2014jipr  -0.46318
gfz2014jird  -0.72922
gfz2014jjhc   0.09651
gfz2014jjkh  -0.29918
gfz2014jjln  -0.48648
gfz2014jjqk   0.26221
gfz2014jmnk   0.37620
gfz2014jmsy   0.27530
gfz2014jnea  -0.20022
gfz2014jnfy  -0.10174
gfz2014jnxm   3.39710
gfz2014jnyv   0.85637
gfz2014joak   0.38672
gfz2014jomw   0.36315
gfz2014jozl  -0.01325
gfz2014jpep  -0.42196
gfz2014jpez   0.19689
gfz2014jpgu   0.05140
gfz2014jpxs   0.13171
gfz2014jtcz  -1.56080
gfz2014jtfe   0.12256
gfz2014jvow  -0.27808
gfz2014jwmh  -0.71547
gfz2014kara  -1.00700
gfz2014kbuk  -0.81692
gfz2014kbwm  -1.23780
gfz2014khan  -0.09920
gfz2014kizt  -0.00000
gfz2014kjee  -0.28800
gfz2014kjzb  -0.91734
gfz2014kkhh  -0.36347
gfz2014kmmt   0.70832
gfz2014knxs  -3.73360
gfz2014krlg   0.00000
gfz2014kscf  -0.20620
gfz2014ksmz   0.01687
gfz2014kssw   0.17162
gfz2014kwie   0.34967
gfz2014kwrg  -0.38679
gfz2014kwwg   0.20620
gfz2014kxqf  -0.07637
gfz2014kyan   0.31513
gfz2014kyhe  -0.43533
gfz2014kytf   0.17317
gfz2014kzzm  -1.45970
gfz2014lbcq  -1.16240
gfz2014lchy   0.22341
gfz2014lddn  -0.91025
gfz2014lehw  -0.12248
gfz2014lgqn  -0.93626
gfz2014lhqn  -0.35542
gfz2014ljbr  -0.38566
gfz2014lkyf  -1.10280
gfz2014lnmw   0.40867
gfz2014lpfc  -0.12325
gfz2014lpim   0.00000
gfz2014lrzx   0.23260
gfz2014lvgn  -0.19112
gfz2014lwom   0.05295
gfz2014lwsw  -0.51873
gfz2014lwvb  -0.13312
gfz2014lxnc  -0.89599
gfz2014lxqr  -0.11108
gfz2014lzal  -0.33312
gfz2014lzow   0.34775
gfz2014macx  -0.70860
gfz2014madw  -0.50474
gfz2014mawp   0.23811
gfz2014mcno  -0.26820
gfz2014mcse  -0.30397
gfz2014mlqw   0.39963
gfz2014mlrr   0.07122
gfz2014mmbu  -0.27216
gfz2014mmtb   0.09385
gfz2014mogb  -0.58436
gfz2014mrbm   0.55453
gfz2014mtum   4.05530
gfz2014muzd   0.12032
gfz2014mwnj  -0.43177
gfz2014mxkr  -0.75330
gfz2014myqz  -0.02043
gfz2014nafd  -0.03303
gfz2014navw  -0.10824
gfz2014ndue  -0.70403
gfz2014ngsk   0.19646
gfz2014ngvt   0.17947
gfz2014nhyb  -0.25591
gfz2014nkdx  -0.36387
gfz2014nnxd  -0.73734
gfz2014nowp   1.71550
gfz2014npdk  -0.06581
gfz2014npeo  -1.59480
gfz2014nphm   0.54710
gfz2014npnn  -0.00000
gfz2014nqbs  -0.17897
gfz2014nqfm   0.67530
gfz2014nqpk  -0.31651
gfz2014nrie  -0.36020
gfz2014nvxd  -2.33250
gfz2014nyeh  -0.33033
gfz2014nyfb  -0.26152
gfz2014nylm   0.28705
gfz2014obbs   0.01231
gfz2014odgv   0.22886
gfz2014ofhm  -0.63974
gfz2014oghp  -0.01937
gfz2014oims   0.19688
gfz2014oinz  -0.76916
gfz2014ojdg   0.02749
gfz2014okec   0.16022
gfz2014okxu  -0.09331
gfz2014oned  -0.22348
gfz2014opqr   0.12115
gfz2014oqhw   0.04839
gfz2014orgz  -0.67910
gfz2014orxs   0.68758
gfz2014oryw  -0.38775
gfz2014osvx   0.34242
gfz2014owii   0.33365
gfz2014owur   0.16353
gfz2014owxc  -0.77063
gfz2014oxcc   0.17634
gfz2014oyly   0.09820
gfz2014oypt   0.03469
gfz2014ozmj  -0.01147
gfz2014pghi   0.32270
gfz2014pjer   0.19932
gfz2014pjum  -0.36891
gfz2014pmxt  -0.08605
gfz2014pngj   0.31824
gfz2014poap  -1.53130
gfz2014ppzf   0.40247
gfz2014pqqp  -4.33310
gfz2014prdm  -0.31237
gfz2014pxbu   0.06553
gfz2014pzni  -0.46564
gfz2014qbzi   0.48897
gfz2014qcxs   0.18374
gfz2014qfzq  -0.17450
gfz2014qifa  -0.18404
gfz2014qjfl   0.09298
gfz2014qjgp   0.16172
gfz2014qlxd  -0.11286
gfz2014qngj  -1.35710
gfz2014qqfg  -0.07606
gfz2014qqhm  -0.72838
gfz2014qsby  -0.63701
gfz2014qtwv   0.39188
gfz2014raau   2.08310
gfz2014rbpx  -0.35752
gfz2014rbsl   5.82740
gfz2014rcyx  -0.30042
gfz2014rdoz  -0.12098
gfz2014rdsn  -0.56583
gfz2014rfeb   0.96400
gfz2014rffv   0.12170
gfz2014rhju  -0.30516
gfz2014rhnz   0.45381
gfz2014rhwq   0.29711
gfz2014riel   0.23679
gfz2014rils  -0.05129
gfz2014roba  -0.01383
gfz2014romy   0.06932
gfz2014royq   0.16911
gfz2014rucz  -0.05750
gfz2014rwos  -0.20641
gfz2014ryfb   0.00000
gfz2014sadu   0.97906
gfz2014sptq   0.54166
gfz2014sryn   0.12447
gfz2014ssds  -0.20546
gfz2014swgt   0.10609
gfz2014tabg   0.26499
gfz2014tgcw   0.07494
gfz2014tovs  -1.40640
gfz2014tqly  -0.07064
gfz2014tqsf  -0.12631
gfz2014tqth  -0.15142
gfz2014tzsd   0.31471
gfz2014uapa   0.10535
gfz2014ubyq   0.28388
gfz2014uohh  -0.30400
gfz2014utac  -1.18570
gfz2014uvrk   1.54150
gfz2014uxyg  -0.35164
gfz2014uyrq  -0.59910
gfz2014uzaw  -0.18683
gfz2014vdnh  -0.11075
gfz2014veit  -0.12273
gfz2014vhld  -0.33367
gfz2014vhms  -0.71181
gfz2014vivo   0.16732
gfz2014vjoh   0.44846
gfz2014vjoz  -0.28088
gfz2014vljh   0.36625
gfz2014vnxu   0.10846
gfz2014vpus   0.58119
gfz2014vqqa  -0.66959
gfz2014waoo  -0.49513
gfz2014watn   0.05456
gfz2014wjko  -0.49815
gfz2014wqcp  -0.14818
gfz2014wrkh  -0.35786
gfz2014wsjh   0.09377
gfz2014wwib  -0.09939
gfz2014xbyr   0.14591
gfz2014xhkc  -0.85045
gfz2014xhwk   0.24325
gfz2014xjri  -0.60589
gfz2014xmnp  -0.20235
gfz2014xoji  -0.04712
gfz2014xqby  -0.19097
gfz2014yazi  -0.05602
gfz2014yhhm  -0.09720
gfz2014ynhc   0.01696
gfz2014yppv   0.37059
gfz2014yrug  -0.08184
gfz2014yyiy   0.05047
gfz2014zcgo   0.14048
gfz2014zdtl   0.20834
gfz2014zkys  -0.49881
gfz2014zlgp  -0.45557
gfz2015abpw  -1.17030
gfz2015aide   0.10709
gfz2015ansu  -0.17676
gfz2015arpd   0.17913
gfz2015aruz  -0.22738
gfz2015aush   0.06140
gfz2015bavu   0.07154
gfz2015bdyd   0.19732
gfz2015berb  -0.30565
gfz2015bfjm  -1.46110
gfz2015bfzt  -0.26500
gfz2015bkbj   0.05689
gfz2015bnho  -0.34323
gfz2015bphe  -0.65661
gfz2015bpxl  -0.07284
gfz2015bucr  -0.89090
gfz2015bvxx  -0.41973
gfz2015byfn   0.36917
gfz2015byjd   0.47365
gfz2015bzej   2.39980
gfz2015chhn  -0.43627
gfz2015chqn  -0.07208
gfz2015clrp  -0.20463
gfz2015cpuo  -0.79385
gfz2015cxrc  -0.72572
gfz2015cyjd   0.01339
gfz2015czfv  -1.55260
gfz2015ddhl   0.06984
gfz2015dizn   0.65006
gfz2015djts  -0.62059
gfz2015drlk   0.41398
gfz2015dskr  -0.95228
gfz2015ednc  -0.11929
gfz2015eeyq  -1.13220
gfz2015eezy  -0.31318
gfz2015egxq  -0.59477
gfz2015fbbk  -0.40951
gfz2015fbew  -1.08900
gfz2015fcua  -0.77389
gfz2015fdpr   0.00227
gfz2015fjhk  -0.51606
gfz2015fkbc   0.41130
gfz2015fkgt  -0.27633
gfz2015fkic   0.00000
gfz2015fkjs   0.00000
gfz2015flis  -0.21773
gfz2015fvoi  -0.28964
gfz2015fxdi  -1.94740
gfz2015gckd  -0.23638
gfz2015gjbr  -0.04592
gfz2015gkwa   0.05322
gfz2015gmgf   0.11683
gfz2015gzja   1.11710
gfz2015hdbn  -0.20475
gfz2015hdcp  -2.01240
gfz2015hepg  -0.22095
gfz2015hgbk  -0.08457
gfz2015hhbd  -0.01446
gfz2015hlfq   0.14197
gfz2015hlqo   2.72600
gfz2015hpmk  -0.24761
gfz2015hslo  -0.01440
gfz2015hwkv  -0.69207
gfz2015hwzw   0.20506
gfz2015idho  -0.63730
gfz2015iele  -0.23157
gfz2015igsy  -0.07676
gfz2015ijmh  -0.06425
gfz2015imty   0.05412
gfz2015imyp  -0.07770
gfz2015isim  -1.01330
gfz2015ixyy  -3.11540
gfz2015jkdw  -0.75748
gfz2015jmlf  -0.61902
gfz2015jmlu  -0.31969
gfz2015jpap  -0.93858
gfz2015jxbx   0.17516
gfz2015jzcv  -0.28687
gfz2015kcaa  -0.12530
gfz2015kkth  -0.82677
gfz2015kphk  -0.23768
gfz2015lbcg   3.27240
gfz2015lcma  -0.19200
gfz2015lcuo   0.10172
gfz2015ltii  -0.35792
gfz2015ltro  -0.02993
gfz2015lytv  -1.37710
gfz2015mfpy  -2.74910
gfz2015mhym  -1.52230
gfz2015micz   0.05808
gfz2015mljd  -2.12460
gfz2015mpte  -0.74401
gfz2015npud  -0.14496
gfz2015nqgf   3.76690
gfz2015okpu   0.26318
gfz2015orkl   0.89132
gfz2015prlr  -0.10854
gfz2015qafb  -0.73817
gfz2015qnde   0.40541
gfz2015qnho   1.25590
gfz2015qols   0.09684
gfz2015quzo  -0.53794
gfz2015qvxu  -0.37260
gfz2015rgov  -1.32420
gfz2015rgrg   4.66710
gfz2015rgst  -0.01441
gfz2015rkbq   3.79040
gfz2015rkzg   0.26573
gfz2015rlnh  -0.41034
gfz2015rnis   0.01421
gfz2015roac  -0.73195
gfz2015rpzn  -1.14590
gfz2015rtnv   0.09980
gfz2015rwsb   0.97725
gfz2015saet   0.18457
gfz2015sdeo  -0.30705
gfz2015sdfy  -0.21184
gfz2015seuf  -0.08286
gfz2015sevh  -0.51671
gfz2015sfdd  -0.13907
gfz2015sgad  -1.39940
gfz2015sggc   0.24228
gfz2015sghq  -0.76375
gfz2015sgie   0.62916
gfz2015siof  -0.97215
gfz2015sjgk  -0.95680
gfz2015sjjb  -1.23540
gfz2015sjne  -1.06240
gfz2015skpv  -0.24589
gfz2015slfn  -1.32380
gfz2015sljs  -2.66360
gfz2015smym  -0.85981
gfz2015snsf  -0.15501
gfz2015snwh   0.38016
gfz2015snyd   0.43478
gfz2015soat  -3.31870
gfz2015soxc  -0.92422
gfz2015sozw   0.25052
gfz2015spxh   0.36506
gfz2015tlok  -3.51280
gfz2015tohm  -1.74910
gfz2015tojz   0.06817
gfz2015totf   0.73123
gfz2015tpra  -1.84600
gfz2015tqff  -0.05917
gfz2015tqjf   0.52690
gfz2015truf   0.43040
gfz2015tsdm   0.07566
