# Nsamples: 36  MAD:  0.719  mean: -0.472  variance:  0.580
gfz2012wypz  -0.63607
gfz2013ccnr   0.26407
gfz2013jkut  -0.70340
gfz2013kdeo  -0.31307
gfz2013nfwx  -0.14098
gfz2013nwdi  -1.40670
gfz2013pfbx  -0.23855
gfz2013svci  -1.41250
gfz2013xsdt  -0.44426
gfz2014afmx  -0.06675
gfz2014ande   0.13804
gfz2014bwue  -0.84582
gfz2014fgvi  -0.68512
gfz2014fhla   1.56110
gfz2014frdz   0.52559
gfz2014frfl  -0.07719
gfz2014ftka   0.20952
gfz2014gkgf   0.61687
gfz2014gkgs   0.15290
gfz2014goba  -0.49491
gfz2014gull   0.89674
gfz2014hasj  -0.05842
gfz2014hgqo  -0.64058
gfz2014nqfm  -0.40744
gfz2014nrie  -0.77778
gfz2014ssvz  -1.34010
gfz2014ubwn  -0.87055
gfz2015cyjd  -1.14550
gfz2015fjhk  -0.63567
gfz2015fsjj  -0.68625
gfz2015gckd  -1.10940
gfz2015kxxs  -0.48051
gfz2015lhjy  -0.66544
gfz2015mpte  -1.04680
gfz2015sfdd  -2.76370
gfz2015sfdy  -1.25580
