# Nsamples: 35  MAD:  0.840  mean: -0.116  variance:  0.622
gfz2011aatr  -0.88937
gfz2011enva   0.68826
gfz2011lcxq  -1.42570
gfz2011lzwj  -0.19280
gfz2011wxfs  -0.24330
gfz2012dyyh  -0.39171
gfz2012jlox  -0.62392
gfz2012kudo  -0.16833
gfz2013ccnr   1.59860
gfz2013nwdi  -0.98759
gfz2013svci  -1.05510
gfz2014bwue  -0.94738
gfz2014fgvi  -0.26459
gfz2014fhla  -0.75618
gfz2014frdz   0.56762
gfz2014frez   0.99792
gfz2014ftka  -0.21943
gfz2014fval  -0.35033
gfz2014ghpe  -0.93642
gfz2014gkgf  -0.20791
gfz2014gkqf   0.68443
gfz2014gltx   0.35861
gfz2014gmge   0.19628
gfz2014gmhr  -1.72720
gfz2014gmnb  -0.78247
gfz2014gmnw  -0.31418
gfz2014goba  -0.01200
gfz2014gsqs   1.95260
gfz2014gull   0.37077
gfz2014gxxo   0.87536
gfz2014hasj   0.69275
gfz2014hjgr  -0.16700
gfz2014itkw   0.09335
gfz2015gckd  -0.20775
gfz2015lhjy  -0.28003
