# Nsamples: 46  MAD:  0.451  mean: -0.254  variance:  0.573
gfz2010eaoy   0.53759
gfz2010grjd  -0.77662
gfz2010iull   0.24806
gfz2010nmpc  -0.88623
gfz2011aatr   0.00000
gfz2011enva  -0.31803
gfz2011hlqw  -0.44101
gfz2011hlsa  -0.38924
gfz2011jplh  -0.49933
gfz2011lcxq  -0.80312
gfz2011lzwj  -0.09391
gfz2011mjom  -1.08150
gfz2011rewa  -0.35427
gfz2011toub  -0.21004
gfz2011wxfs  -0.21898
gfz2012enno  -0.11256
gfz2012jlox  -0.66547
gfz2012kkup  -0.55101
gfz2012klhx  -0.48785
gfz2012kudo  -0.13635
gfz2012ldxg  -0.78151
gfz2012wypz  -0.31934
gfz2013ccnr  -0.02631
gfz2013drxz  -0.08509
gfz2013jkut   0.53387
gfz2013nwdi  -0.91948
gfz2013pfbx  -0.85119
gfz2013svci   0.01027
gfz2014bwue  -0.75164
gfz2014fgvi  -0.59235
gfz2014fhla   1.97610
gfz2014gkgf  -0.28071
gfz2014gmhr   2.36110
gfz2014qqhm   0.38824
gfz2014vhms  -1.92270
gfz2015chhn  -0.76257
gfz2015cyjd   0.69386
gfz2015fsjj  -2.27340
gfz2015lhjy  -0.37617
gfz2015sfdd  -0.26725
gfz2015sfdy   0.14658
gfz2015smym   0.10320
gfz2015snwh  -0.52576
gfz2015soxc  -0.17155
gfz2015svwm  -0.12234
gfz2015taml   0.35525
