# Nsamples: 54  MAD:  0.633  mean:  0.069  variance:  0.572
gfz2010bxxs   0.55949
gfz2010fync  -0.15085
gfz2010grjd   0.86283
gfz2010iull   0.44744
gfz2010mkuu  -0.32550
gfz2010nmpc  -0.83912
gfz2010nwef  -1.59230
gfz2010usho   0.07860
gfz2011aatr   0.23140
gfz2011enva  -0.02220
gfz2011gkzt  -1.83690
gfz2011hlqw   0.32855
gfz2011hlsa   0.12546
gfz2011hlth   0.32234
gfz2011jplh  -0.85453
gfz2011lcxq  -0.71779
gfz2011lzwj  -0.08450
gfz2011mdie   0.52624
gfz2011owvz   0.53949
gfz2011rewa  -0.98004
gfz2011toub   0.36653
gfz2011vhfi  -0.67515
gfz2011wxfs  -0.16441
gfz2012enno   0.28868
gfz2012jlox  -0.24720
gfz2012kkup   0.05970
gfz2012klhx   0.13065
gfz2012kuct   0.10915
gfz2012ttoa   1.88700
gfz2012wypz   0.20088
gfz2013ccnr   0.83886
gfz2013drxz   0.64514
gfz2013jkut   0.79931
gfz2013mwbh   0.81132
gfz2013nwdi  -0.40317
gfz2013xsdt  -0.57749
gfz2014fgvi   0.15729
gfz2014fhla   1.08560
gfz2014gkgf  -1.35240
gfz2014gkqf  -0.11179
gfz2014gmhr  -2.07700
gfz2014hasj   0.60606
gfz2014lgqn   0.69439
gfz2014oinz  -0.70390
gfz2014qqhm   0.99081
gfz2014ssvz   0.69654
gfz2014vjoz   0.03308
gfz2015lhjy   0.50896
gfz2015mpte   0.64867
gfz2015sfdy   0.51934
gfz2015sfno   1.05330
gfz2015smym   0.52047
gfz2015taml  -0.47454
gfz2015tiyc   0.22594
