# Nsamples: 41  MAD:  0.553  mean: -0.323  variance:  0.650
gfz2010bowy  -1.28980
gfz2010bxxs  -0.03720
gfz2010grjd  -0.66274
gfz2010iull  -0.00168
gfz2010nmpc  -1.22010
gfz2010usho  -0.15133
gfz2011aatr   0.00104
gfz2011enva  -0.50525
gfz2011gkzt  -1.58680
gfz2011hlqw  -0.98117
gfz2011hlsa  -0.90492
gfz2011hlth  -0.87239
gfz2011lcxq  -0.90170
gfz2011rewa  -0.34101
gfz2011toub  -0.59289
gfz2012enno  -0.50677
gfz2012kkup  -0.70085
gfz2012klhx  -0.80444
gfz2012ldxg   0.02135
gfz2012ldzj  -0.70861
gfz2012ttoa   0.14291
gfz2012vrgb  -0.09653
gfz2013bzlb   1.83900
gfz2013jkut   0.21395
gfz2013kdeo  -0.16255
gfz2013pfbx  -0.28492
gfz2014bwue  -0.52818
gfz2014gkhy   0.21091
gfz2014gkqf  -0.16460
gfz2014gltx  -0.03715
gfz2014gmnb   0.21002
gfz2014goba   0.75919
gfz2014gull   2.07860
gfz2014hasj   0.34530
gfz2014huaj  -1.12830
gfz2014jjhc  -0.47260
gfz2014jpep  -2.71890
gfz2014nqfm  -0.47016
gfz2014qqhm   0.03179
gfz2014ssvz  -0.72957
gfz2015mpte   0.45861
