# Nsamples: 1992  MAD:  1.050  mean:  0.148  variance:  1.859
gfz2010ahla   0.75421
gfz2010ahqi  -0.21857
gfz2010awfi  -1.19560
gfz2010bfzs  -1.77670
gfz2010bifb  -0.45387
gfz2010bjeb  -1.29950
gfz2010bjjx  -0.12796
gfz2010bjsl  -0.28627
gfz2010bkob  -0.18861
gfz2010bkos   0.20343
gfz2010bowy  -1.92730
gfz2010boxo  -1.63040
gfz2010bxxs  -1.06130
gfz2010caft  -1.04860
gfz2010cbkg  -1.56240
gfz2010cind  -1.15990
gfz2010civi  -1.25660
gfz2010cjqh  -0.23905
gfz2010ckeu   2.59380
gfz2010cnwc   2.57250
gfz2010cqwl  -0.12630
gfz2010cres   0.82781
gfz2010ctuw  -1.47050
gfz2010czps  -0.05421
gfz2010ddzo  -0.23933
gfz2010dfru  -0.26819
gfz2010dlgc  -0.98918
gfz2010dtmx  -0.42704
gfz2010eaoy  -3.43570
gfz2010eapk  -1.59200
gfz2010eaqe  -2.15450
gfz2010eaqx  -1.64410
gfz2010eaqy  -1.34030
gfz2010earq  -1.48760
gfz2010earu  -2.08450
gfz2010easf  -1.29050
gfz2010eask  -3.33290
gfz2010easo  -2.05890
gfz2010easu  -1.88620
gfz2010eati  -1.51710
gfz2010eato  -2.31010
gfz2010eatt  -7.75450
gfz2010eaty  -2.31120
gfz2010eaul  -0.54577
gfz2010eavd  -1.32620
gfz2010eavp   0.22077
gfz2010eavs  -1.76290
gfz2010eawb  -2.44780
gfz2010eawu  -3.08650
gfz2010eaxa  -2.94430
gfz2010eaxn  -2.01610
gfz2010eaya   0.43772
gfz2010eayp  -0.34101
gfz2010eayx   0.41003
gfz2010eaze  -0.60542
gfz2010eazu  -1.50540
gfz2010ebbd  -1.18580
gfz2010ebbx  -4.01800
gfz2010ebby  -0.30486
gfz2010ebdl  -0.29946
gfz2010ebeh   0.28772
gfz2010ebek  -1.52170
gfz2010ebfa  -1.29420
gfz2010ebfx  -0.27102
gfz2010ebhc  -1.69830
gfz2010ebih  -0.85461
gfz2010ebin  -0.63283
gfz2010ebiv  -0.89542
gfz2010ebjy  -1.59950
gfz2010ebkj  -2.49090
gfz2010ebkx  -0.62746
gfz2010ebla  -1.22160
gfz2010ebll  -1.55590
gfz2010ebmb  -1.29980
gfz2010ebmi  -0.45514
gfz2010ebnn  -2.28460
gfz2010ebqt   0.47893
gfz2010ebqz  -0.69897
gfz2010ebrm  -1.35180
gfz2010ebsv  -2.45860
gfz2010ebtk  -0.60520
gfz2010ebvm  -1.95150
gfz2010ebvv  -1.63810
gfz2010ebwp  -1.61610
gfz2010ebxl  -1.01700
gfz2010ebze  -0.75163
gfz2010ebzk  -0.91296
gfz2010ebzr  -1.66920
gfz2010ecam  -1.95250
gfz2010ecay  -6.86370
gfz2010ecbi  -1.48580
gfz2010eccq  -0.83982
gfz2010ecdu  -1.54080
gfz2010ecft   0.14296
gfz2010ecfx   0.31507
gfz2010ecgh   1.07420
gfz2010echc  -1.63680
gfz2010echt  -2.11450
gfz2010echy  -0.22598
gfz2010ecka   0.78925
gfz2010ecls   0.26656
gfz2010ecml   1.33610
gfz2010ecnm   0.58785
gfz2010ecns  -1.24180
gfz2010ecpg   0.08558
gfz2010ecps  -1.01330
gfz2010ecro   0.36066
gfz2010ecsp  -1.06450
gfz2010ectq  -0.21699
gfz2010ecua  -2.52490
gfz2010ecuv   0.12847
gfz2010ecvt  -0.87562
gfz2010ecyr  -1.11720
gfz2010edad   0.50889
gfz2010edat  -1.60920
gfz2010eday   1.33460
gfz2010edbz  -0.63635
gfz2010edcp  -2.79860
gfz2010edde  -0.54063
gfz2010edhr  -0.18668
gfz2010edhv   0.96737
gfz2010edim  -0.42558
gfz2010edji   0.05130
gfz2010edkp  -0.04528
gfz2010edoq   0.18697
gfz2010edpb  -0.32524
gfz2010edqd  -0.34103
gfz2010edqh  -0.04432
gfz2010edsk  -1.05120
gfz2010edsn  -0.84607
gfz2010edsy  -1.77140
gfz2010edun   0.89683
gfz2010edvf  -0.57944
gfz2010edyi  -0.97040
gfz2010edzb   1.02170
gfz2010eedu   0.99453
gfz2010eedz  -1.04810
gfz2010eefh   0.10352
gfz2010eefo   1.22180
gfz2010eeia   0.78031
gfz2010eeij  -2.29710
gfz2010eekg   1.05070
gfz2010eekq   0.02658
gfz2010eell   0.19745
gfz2010eeng   0.33169
gfz2010eeqy  -0.20949
gfz2010eerh  -0.41927
gfz2010eern  -0.47284
gfz2010eesf   0.81899
gfz2010eevu  -0.86791
gfz2010eexz  -0.23972
gfz2010eeyh  -0.02564
gfz2010efak   0.55922
gfz2010efbh   0.97114
gfz2010efkc  -0.14880
gfz2010efls  -0.30170
gfz2010efnf   0.30376
gfz2010efsq  -1.45490
gfz2010efxf  -1.87160
gfz2010egap  -3.67190
gfz2010eghq   0.96997
gfz2010egld  -0.28912
gfz2010egln   0.66684
gfz2010egmp   0.66190
gfz2010egqh  -0.63688
gfz2010egsw   1.10740
gfz2010egyy   0.53209
gfz2010ehaj   4.67530
gfz2010eher   0.96402
gfz2010ehnl  -0.18900
gfz2010ehnm  -0.88317
gfz2010ehrq   4.46050
gfz2010ehsy   0.19385
gfz2010ehwg   0.15996
gfz2010ehxz   0.67386
gfz2010eioi  -0.06396
gfz2010eiqi   0.32414
gfz2010eisx  -5.26880
gfz2010eixj  -1.40990
gfz2010ejae  -0.05862
gfz2010ejco   1.46210
gfz2010ejjg  -0.62048
gfz2010ejka   1.59300
gfz2010ejma  -0.29100
gfz2010ekaw   0.03848
gfz2010ekyc  -2.07860
gfz2010elhv  -1.37300
gfz2010elin  -0.26729
gfz2010elpu   0.65438
gfz2010elsw   0.52849
gfz2010eltf  -1.51900
gfz2010elvp  -0.28782
gfz2010elxi   1.65830
gfz2010elyc  -4.00980
gfz2010elyo  -0.65538
gfz2010elzf   1.28230
gfz2010elzl   2.67490
gfz2010emoz   0.02156
gfz2010emyz  -3.14660
gfz2010encm  -1.46560
gfz2010engw   1.64030
gfz2010enpa  -1.32510
gfz2010eoao  -3.88160
gfz2010eohh   2.41920
gfz2010eomb   1.09910
gfz2010epbe   0.76123
gfz2010epud  -0.24908
gfz2010epzk   1.26360
gfz2010eqcn  -2.60890
gfz2010eqjg  -2.54840
gfz2010eqmu  -0.48566
gfz2010eqse   0.04254
gfz2010erda   2.24260
gfz2010erdi  -2.39960
gfz2010erfy   0.46270
gfz2010erig   1.47470
gfz2010erkn   0.67307
gfz2010ermi  -0.49773
gfz2010erna  -1.07440
gfz2010erom  -3.24350
gfz2010erum  -0.03444
gfz2010eruy  -1.11850
gfz2010erwn  -2.58200
gfz2010erxb   0.05113
gfz2010erxk  -1.54470
gfz2010eryg  -1.37790
gfz2010esid   0.86198
gfz2010eted   1.59030
gfz2010etfw   2.24980
gfz2010euae   0.92911
gfz2010euan   0.61520
gfz2010eugj   0.99864
gfz2010eujm  -0.57791
gfz2010euvl   0.46839
gfz2010euwb   2.98610
gfz2010euxe  -0.02078
gfz2010evco   1.45280
gfz2010evjv   2.51990
gfz2010evkd   0.28714
gfz2010ewbc   2.28120
gfz2010ewpq   1.22960
gfz2010ewvc  -1.00870
gfz2010ewyu  -0.24511
gfz2010excp  -1.60820
gfz2010exdd  -2.45330
gfz2010exdl  -1.26760
gfz2010exed  -1.22100
gfz2010exel  -0.45369
gfz2010exfb  -0.01919
gfz2010exou  -0.06064
gfz2010exqu  -0.10713
gfz2010exsg  -0.54148
gfz2010exts   2.10290
gfz2010exyp   0.07886
gfz2010eyaz   0.64892
gfz2010eybj   0.12680
gfz2010eyhh   1.05290
gfz2010eyiv   0.49494
gfz2010eymx  -0.27126
gfz2010eyqe  -0.32193
gfz2010ezig   0.01881
gfz2010ezjk   2.49140
gfz2010ezvt   2.10640
gfz2010ezwz  -0.67410
gfz2010ezxd  -1.89840
gfz2010faeu  -0.06474
gfz2010falm  -0.78569
gfz2010fauz   0.59788
gfz2010faxg   1.72300
gfz2010fbeu   0.83361
gfz2010fcax  -1.09570
gfz2010fcdw   1.54000
gfz2010fciw  -1.32030
gfz2010fcnn   0.05247
gfz2010fcnt   0.04382
gfz2010fcyj   1.99010
gfz2010fczt  -0.12266
gfz2010fdxr   0.98484
gfz2010fedq  -1.32230
gfz2010fefr  -4.19950
gfz2010ffhq  -2.90450
gfz2010ffjb  -0.39414
gfz2010ffui  -1.00600
gfz2010fhbl   1.04280
gfz2010figq   0.34984
gfz2010fihj  -1.21730
gfz2010fika  -0.38823
gfz2010fisf   1.10010
gfz2010fixr   1.23410
gfz2010fjal  -0.07318
gfz2010fjas   0.05767
gfz2010fjmu   0.69176
gfz2010fkhd  -0.16071
gfz2010fkia   0.02143
gfz2010fknh   0.28384
gfz2010fkvg   0.32704
gfz2010flha  -1.54890
gfz2010flkj   1.13510
gfz2010floi   0.40918
gfz2010flrt  -1.64830
gfz2010flxi   0.03954
gfz2010fmhb   0.64999
gfz2010fmpy   1.18250
gfz2010fmwb   1.67400
gfz2010fnrk  -0.29785
gfz2010fobc   5.28710
gfz2010fona   2.06210
gfz2010fpqy  -0.15024
gfz2010fqdu   0.33855
gfz2010fser   0.97632
gfz2010ftlm   0.48248
gfz2010ftsx  -0.84682
gfz2010fupn  -0.54952
gfz2010fuuy  -1.06070
gfz2010fuwa   0.71465
gfz2010fwkk   0.56716
gfz2010fwpv  -0.86475
gfz2010fyed   0.38847
gfz2010fyen  -0.74241
gfz2010fync  -1.47730
gfz2010fzoi  -0.26471
gfz2010fzsg  -1.13810
gfz2010fzyt  -1.50420
gfz2010gcdn   0.99484
gfz2010gcrl  -0.81940
gfz2010gcrp  -1.84830
gfz2010geru   0.04466
gfz2010ginm  -0.53357
gfz2010gjia  -0.94627
gfz2010grss   1.14200
gfz2010grxb   2.58580
gfz2010gslu   0.11027
gfz2010gtzt   0.35134
gfz2010hrkr   0.54007
gfz2010hrpr  -0.43845
gfz2010htdq  -2.08170
gfz2010hufk   0.48123
gfz2010hxbs  -0.35021
gfz2010hxgv  -0.36377
gfz2010hzar   1.49890
gfz2010iauj  -0.72190
gfz2010ibiy   1.59100
gfz2010icqq   0.04735
gfz2010iefy   2.49500
gfz2010ihrq  -0.15103
gfz2010iibf  -0.81657
gfz2010iimu  -0.50272
gfz2010iphd   1.38970
gfz2010ipsg  -0.45902
gfz2010iqfm   1.30290
gfz2010iqnm  -0.77642
gfz2010iqus   0.10611
gfz2010irqr   0.71783
gfz2010irvf  -0.10394
gfz2010iull   0.42738
gfz2010jhie  -1.55650
gfz2010jipf  -1.47820
gfz2010jlhj  -1.82640
gfz2010jpyj  -2.00440
gfz2010jucj  -2.46820
gfz2010jygz  -1.13760
gfz2010jzku  -6.11800
gfz2010kdyc  -2.14720
gfz2010kgws  -2.86270
gfz2010kihf  -5.09790
gfz2010kjmp  -0.40476
gfz2010kqyh  -6.25790
gfz2010kyvj  -0.50130
gfz2010lcoq  -2.43330
gfz2010lczp  -4.44500
gfz2010lsft   0.89993
gfz2010lyfk   0.11524
gfz2010mant  -0.11882
gfz2010mbje  -0.43233
gfz2010mcrx  -0.14427
gfz2010mdpq  -0.89755
gfz2010mfpt   0.90777
gfz2010mgss  -2.46120
gfz2010mhjt   0.52794
gfz2010mncc  -3.88370
gfz2010mnhm   0.11925
gfz2010mpuy  -4.27600
gfz2010msjj  -1.84750
gfz2010mtab  -0.86189
gfz2010mwdq  -6.37950
gfz2010nwef  -1.00930
gfz2010ocxq  -0.90725
gfz2010odpb   0.05217
gfz2010oluw  -0.03113
gfz2010onma  -1.47980
gfz2010osjs  -0.62537
gfz2010osqo  -0.13097
gfz2010oyqy   0.90764
gfz2010pbdz   0.91199
gfz2010pcxi  -1.20840
gfz2010pdtk  -0.32131
gfz2010pets  -0.07707
gfz2010pewa  -0.88196
gfz2010pewx  -0.68905
gfz2010pexf  -0.06027
gfz2010pfyu   1.05210
gfz2010phvg  -0.84054
gfz2010pmqd  -0.81760
gfz2010pqck  -0.24160
gfz2010pxgh  -2.43390
gfz2010pxls   0.21906
gfz2010qbng   0.27224
gfz2010qitd  -1.78820
gfz2010qjst  -1.39190
gfz2010qpcq  -0.08845
gfz2010qpum  -0.52409
gfz2010qpvi  -2.06710
gfz2010qwwx  -0.02009
gfz2010rkfp  -0.13027
gfz2010rlbv  -0.88549
gfz2010rqwj  -2.34740
gfz2010rxjw   0.02018
gfz2010rywq  -0.02047
gfz2010rzrr  -1.28620
gfz2010rzsd  -1.02470
gfz2010sfee  -0.49012
gfz2010sfla  -1.34460
gfz2010sgzk   1.20900
gfz2010skqo  -0.58111
gfz2010skve  -1.53270
gfz2010srdb  -2.29650
gfz2010suww   1.03260
gfz2010svtn  -1.17500
gfz2010svve   1.10620
gfz2010swcy  -0.40249
gfz2010sxfq   0.14181
gfz2010sxwt  -2.72800
gfz2010sysw   1.04700
gfz2010szde   1.02210
gfz2010szim  -1.31500
gfz2010tcbr  -2.79990
gfz2010tcrl  -2.40050
gfz2010tlfm  -0.83341
gfz2010truw   0.09691
gfz2010txjs  -0.52320
gfz2010tzzk   0.65785
gfz2010uept  -0.19475
gfz2010uouo  -0.72641
gfz2010upfb  -1.99060
gfz2010upiw  -0.17573
gfz2010urlq   1.32490
gfz2010usho  -0.54164
gfz2010ustq  -1.49610
gfz2010utcg  -1.74360
gfz2010utmc  -0.93193
gfz2010utvp   0.54124
gfz2010uvhf   0.82161
gfz2010uyhb  -1.53470
gfz2010veri  -1.71450
gfz2010vhuj  -0.38399
gfz2010vtdg   0.24219
gfz2010vxvs  -0.18405
gfz2010vyxd  -1.10090
gfz2010vzpr  -1.22100
gfz2010wioh  -0.31863
gfz2010wnty   0.68876
gfz2010wntz   0.97389
gfz2010wofs  -0.21832
gfz2010wrxx  -0.77007
gfz2010wxqa  -5.15450
gfz2010xbdv  -1.61580
gfz2010xbgs  -0.69493
gfz2010xden   0.26453
gfz2010xgzw  -3.28060
gfz2010xjck  -1.93340
gfz2010xjsj  -1.83600
gfz2010xmpr  -0.43405
gfz2010xxdb  -1.12340
gfz2010yfsv   1.63100
gfz2010yjev  -4.07900
gfz2010ymur  -0.13437
gfz2010yosr  -1.30900
gfz2010yoyx   0.52121
gfz2010yqqv   2.82560
gfz2010yqwx  -5.13300
gfz2011adqk  -0.08596
gfz2011blsi  -1.69390
gfz2011bpkd   0.86995
gfz2011ccpw  -1.94330
gfz2011cfae  -0.11035
gfz2011cndo  -0.75433
gfz2011coxh   0.10968
gfz2011crdy   1.80430
gfz2011csju   0.00000
gfz2011cvfg  -0.44796
gfz2011cykd  -2.52040
gfz2011cylz  -0.30255
gfz2011cynl   0.04238
gfz2011cyre  -1.59490
gfz2011cyuk  -2.72380
gfz2011czwj   1.32610
gfz2011dbev  -1.17370
gfz2011dbig  -0.55265
gfz2011dbon  -0.27808
gfz2011dbwt  -0.88355
gfz2011dcqb  -1.66440
gfz2011dcqf  -1.16500
gfz2011dddh  -22.54100
gfz2011deaf   0.20832
gfz2011dkyi   0.44047
gfz2011dllz   0.19433
gfz2011dlyx   0.69716
gfz2011dpaa   0.11131
gfz2011dpmx   0.53362
gfz2011dpqx  -0.77553
gfz2011dtpy   1.21910
gfz2011duyr   0.43088
gfz2011eayc   0.30802
gfz2011eazf  -0.46807
gfz2011ecaj  -1.19870
gfz2011edmm   0.64383
gfz2011efgv   1.47440
gfz2011ehzq  -0.24228
gfz2011ekpr  -0.32981
gfz2011eltw   0.88792
gfz2011enva  -1.97140
gfz2011eocc  -0.64206
gfz2011etje  -0.41344
gfz2011fhbm   0.34013
gfz2011fhur  -0.06566
gfz2011fkbn   0.49728
gfz2011flgj   0.48374
gfz2011flhp  -0.08262
gfz2011gbmx  -0.16785
gfz2011gcwb   0.56769
gfz2011gdgh  -0.12109
gfz2011ggvf  -0.63694
gfz2011ghky  -0.02113
gfz2011gkey  -0.46797
gfz2011gkzt  -0.80211
gfz2011haid   0.73137
gfz2011hbex  -0.18368
gfz2011hbqk   0.85474
gfz2011hebt   0.53880
gfz2011hfkj   0.02024
gfz2011hlqw  -1.16510
gfz2011hlsa  -1.04560
gfz2011hlth   0.22048
gfz2011hpgx   1.11060
gfz2011hpqp  -0.22663
gfz2011hrhe   0.72487
gfz2011hryk   1.34030
gfz2011hsfj  -1.12460
gfz2011hvbu  -0.19596
gfz2011ieie   0.02036
gfz2011iwte  -0.46507
gfz2011izqa   0.38357
gfz2011izto  -1.16130
gfz2011jghb   0.92731
gfz2011jmbn   0.97333
gfz2011jnmi   0.49972
gfz2011jplh  -0.70937
gfz2011jtlg  -0.49963
gfz2011jxpl   0.67362
gfz2011knbi  -0.65280
gfz2011knoo   1.81450
gfz2011kqwo  -1.00210
gfz2011kqyg  -0.30545
gfz2011ksiu  -0.39072
gfz2011kweu  -0.51511
gfz2011kwhq  -1.58790
gfz2011kwid  -0.86650
gfz2011kwiy  -0.83366
gfz2011kwjx  -2.08310
gfz2011kwkw  -1.00220
gfz2011kwld  -0.48880
gfz2011kwlq  -0.00000
gfz2011kwni   0.02158
gfz2011kwnu   0.21336
gfz2011kwqc  -0.29882
gfz2011kwrf   0.10919
gfz2011kwsz   0.44272
gfz2011kxzp  -0.76007
gfz2011lcxq  -1.68520
gfz2011lczg   0.46475
gfz2011lgsg  -0.31195
gfz2011lhls  -0.86589
gfz2011lvjr   0.23190
gfz2011lzwj   0.16031
gfz2011mdie  -0.24787
gfz2011mepc   0.71701
gfz2011mivl   0.76066
gfz2011mjom   1.21070
gfz2011mpme  -0.95715
gfz2011mprq   0.79449
gfz2011myia  -0.32702
gfz2011nauw   0.24322
gfz2011necz   1.46740
gfz2011nmnq  -1.20960
gfz2011nmqj   0.49990
gfz2011noud  -0.69641
gfz2011npgs  -2.63940
gfz2011nqpd   0.70245
gfz2011nrwv  -1.59040
gfz2011nsex   1.07720
gfz2011ntkh   0.43942
gfz2011nudm  -1.15540
gfz2011ogqk   2.27250
gfz2011ohcy  -1.10190
gfz2011oiqe   1.25030
gfz2011oiwk   1.34600
gfz2011olkk   0.43984
gfz2011oolr   0.07055
gfz2011orgn   0.54025
gfz2011ornx  -0.08741
gfz2011owvz  -1.37160
gfz2011ozsl  -0.08127
gfz2011pccd   0.21751
gfz2011pdpt   0.28088
gfz2011phms   0.56054
gfz2011pntf   1.82670
gfz2011ptus   1.06640
gfz2011qigx  -1.01250
gfz2011qoif   0.27431
gfz2011qvae  -0.03950
gfz2011rabm  -2.05220
gfz2011rdby  -0.36293
gfz2011rewa  -1.48340
gfz2011rgwp  -0.85798
gfz2011rnut  -0.38210
gfz2011rqui   0.49913
gfz2011rsrh   0.24428
gfz2011rznl   1.07900
gfz2011sagt  -0.11259
gfz2011sawg   0.91476
gfz2011shqm   0.08090
gfz2011stal  -0.47421
gfz2011svix   1.87090
gfz2011taps  -0.38187
gfz2011tbas   0.00000
gfz2011tcij   0.45155
gfz2011tivu   0.72199
gfz2011tjrf   0.50770
gfz2011tjue   0.70419
gfz2011tkfp  -0.17041
gfz2011tkog  -0.34959
gfz2011toub  -0.44219
gfz2011tpbl  -0.40370
gfz2011tpfr   0.50873
gfz2011tsfd  -1.45950
gfz2011tsnp   0.79242
gfz2011tuea   0.58877
gfz2011twov  -0.56434
gfz2011udsq   0.43131
gfz2011ueni   0.95661
gfz2011uepx   3.22700
gfz2011ugzz   3.30080
gfz2011uiul  -0.04825
gfz2011ujze   0.68767
gfz2011ukmp   1.08890
gfz2011unkx  -0.38583
gfz2011uphh   0.72563
gfz2011urxy   1.82070
gfz2011urzu   0.77204
gfz2011uzqv  -0.56829
gfz2011vhfi  -0.87708
gfz2011vnza  -0.26265
gfz2011vqrj   0.07523
gfz2011vrhg  -0.78777
gfz2011vxns  -2.21680
gfz2011vxod   0.31449
gfz2011vxxg  -1.25640
gfz2011wcic  -0.35054
gfz2011wfja   0.30925
gfz2011wijj   1.33390
gfz2011wjkf   0.91571
gfz2011wjul  -0.11613
gfz2011wvzb  -0.18571
gfz2011wwjs  -0.67542
gfz2011wxfs   0.35101
gfz2011wxoj   0.27029
gfz2011wxtk   0.11837
gfz2011wype  -1.15690
gfz2011xaan  -0.52578
gfz2011xcpv   0.16251
gfz2011xesx   0.51642
gfz2011xqru   0.35758
gfz2011xyxj  -0.60242
gfz2011yfdx   0.39598
gfz2011yfys   0.61204
gfz2011yhwz  -1.09170
gfz2011yybo   1.57410
gfz2011yzwq  -0.46930
gfz2011zklv  -0.13739
gfz2011zlfg   1.12440
gfz2011zqhh  -0.23144
gfz2012ablh   0.06249
gfz2012ajtq   0.38297
gfz2012aqgp  -0.53197
gfz2012aqtq   0.73707
gfz2012attr  -1.10240
gfz2012bfah   0.07154
gfz2012bfyn  -2.95370
gfz2012bpkx  -0.81983
gfz2012bpwl  -0.08145
gfz2012bqeb   0.43021
gfz2012byad   1.18790
gfz2012cevz   2.17450
gfz2012cgvr   1.69620
gfz2012cnod   1.51140
gfz2012covm   1.12430
gfz2012cqnl  -0.50226
gfz2012cqtc   1.19170
gfz2012cxdn   0.02390
gfz2012czlw   1.34510
gfz2012dimn   0.99311
gfz2012dves  -0.67020
gfz2012dyyh   0.55808
gfz2012ekda  -1.10140
gfz2012ekzf   0.70157
gfz2012elce   2.75180
gfz2012emjg  -0.36052
gfz2012enno  -0.74833
gfz2012ewgo   1.26210
gfz2012ewkj   0.95085
gfz2012ezvr  -0.25974
gfz2012fbfo   0.04317
gfz2012fhnh   1.42880
gfz2012fivh  -2.85950
gfz2012foeo  -1.16870
gfz2012fzfa  -1.85060
gfz2012gcgn   0.07401
gfz2012gkvr   0.08503
gfz2012gocc  -0.61036
gfz2012gomm   0.27853
gfz2012gukw  -0.22191
gfz2012gwmu   0.46178
gfz2012gwqb   0.47068
gfz2012hnul  -0.54904
gfz2012hnuw  -0.31772
gfz2012holl   1.65220
gfz2012hwmz   0.67336
gfz2012hwyo   2.11920
gfz2012hyaa   0.09114
gfz2012hzbe   0.12657
gfz2012icmv  -3.40600
gfz2012iffo  -1.02250
gfz2012ihdl  -0.05621
gfz2012ilvn  -1.14170
gfz2012imay  -0.19468
gfz2012imbd  -0.95506
gfz2012intn  -0.70825
gfz2012iyrb   1.72580
gfz2012jjzc   0.87114
gfz2012jlox   0.10925
gfz2012joqe  -0.35620
gfz2012jpgs  -0.50326
gfz2012jqvn   0.46562
gfz2012jshk  -1.78820
gfz2012jted   0.20598
gfz2012jupx  -1.51160
gfz2012kbjb  -0.48582
gfz2012kbzj   0.62591
gfz2012kdmb   0.37668
gfz2012keor  -0.29724
gfz2012kkcp  -0.03959
gfz2012kkup  -0.53274
gfz2012klba  -0.18352
gfz2012klhx  -0.05126
gfz2012kuct  -0.38800
gfz2012kudo  -0.85829
gfz2012kvzv  -0.09611
gfz2012kwgo   0.06267
gfz2012lczo  -0.29365
gfz2012ldgs   0.28378
gfz2012ldxg  -0.33772
gfz2012ldzj  -0.80293
gfz2012ledy   0.66642
gfz2012lltr  -0.25650
gfz2012llug   0.67479
gfz2012lrsv  -0.26782
gfz2012lxkv  -0.80187
gfz2012lzmr   1.50360
gfz2012maxy   0.41183
gfz2012minr  -0.67129
gfz2012mkpn  -1.01660
gfz2012mlyf   1.64650
gfz2012mofm   0.03088
gfz2012mupa   0.28673
gfz2012mvwr   0.63605
gfz2012mwij  -1.11020
gfz2012myqa  -0.11385
gfz2012naqz  -1.10820
gfz2012nedn  -0.91838
gfz2012ngic   1.37870
gfz2012nkdf  -1.13640
gfz2012nojx   0.65147
gfz2012nolo   0.33488
gfz2012nsbz  -0.82783
gfz2012ntzv   0.80655
gfz2012nutf   2.45560
gfz2012nxog  -1.76320
gfz2012nxyt  -0.99601
gfz2012oazn   0.80688
gfz2012obgw  -1.39260
gfz2012oedb   0.21410
gfz2012omvo  -0.06829
gfz2012ostk   3.06880
gfz2012ovqs  -0.20630
gfz2012oycg   0.65661
gfz2012pazr   0.06651
gfz2012pciw  -1.17090
gfz2012peex   0.27896
gfz2012pgcl  -2.15550
gfz2012pkel  -0.26317
gfz2012qjhs   0.17664
gfz2012qouy   1.86580
gfz2012qqxg   0.45880
gfz2012qtgs  -0.49943
gfz2012rats  -0.05792
gfz2012rcnj   0.39449
gfz2012repv  -0.57144
gfz2012rjsd   1.83010
gfz2012ronz   0.14851
gfz2012royy   0.24577
gfz2012rqlg   0.49949
gfz2012ruks   1.66580
gfz2012rypu  -0.34009
gfz2012shtg   0.25385
gfz2012snhi   0.70164
gfz2012spbj   2.16540
gfz2012sphd   0.74241
gfz2012sqmv   0.97773
gfz2012sqvi   1.11370
gfz2012svpr  -0.13565
gfz2012syvl   0.51238
gfz2012teic  -0.74881
gfz2012thfx  -0.61170
gfz2012tmop   0.20272
gfz2012tpzx   3.09920
gfz2012ttoa   0.09340
gfz2012tvmv  -1.74310
gfz2012tyig  -0.78777
gfz2012tyxl   1.14790
gfz2012tzcc   0.55727
gfz2012tzgb   0.13480
gfz2012uafg  -0.87776
gfz2012uaqj  -0.39665
gfz2012uciv   0.20541
gfz2012ueqo   0.83045
gfz2012ufew   1.20750
gfz2012uhup  -0.25574
gfz2012uqzp   0.12036
gfz2012usba   2.74710
gfz2012uvqf  -0.34907
gfz2012uxnz   0.73553
gfz2012uyxb   0.11832
gfz2012uzom  -1.55670
gfz2012uzyj   0.82549
gfz2012vceo  -0.55676
gfz2012vdbt  -0.27133
gfz2012vntz   0.55635
gfz2012vpza  -1.24650
gfz2012vrgb  -0.05609
gfz2012vsev   1.49120
gfz2012vwvd   1.22790
gfz2012vxvr   0.35156
gfz2012wdyx  -3.01520
gfz2012wecd   0.89970
gfz2012whku  -1.16770
gfz2012wizz  -2.28780
gfz2012wklq  -1.28090
gfz2012wmkd   0.52709
gfz2012wmsg  -0.49319
gfz2012wrir   0.56039
gfz2012wtkr   0.70402
gfz2012wvfl   0.27304
gfz2012wxer   1.09610
gfz2012wxlg  -0.54828
gfz2012wxnu   0.53044
gfz2012wybs   0.97668
gfz2012wypz  -0.02675
gfz2012xbjq  -0.17857
gfz2012xeul   0.22737
gfz2012xjyv   0.31694
gfz2012xkkv   3.38000
gfz2012xmxy  -0.61627
gfz2012xyqp   2.43950
gfz2012xyua   2.22310
gfz2012yfrp   1.11160
gfz2012yqjj   0.28004
gfz2012zemh   0.22780
gfz2012zfag  -0.39392
gfz2012ziml  -0.11657
gfz2012zitl  -0.46888
gfz2012zjpv   0.12991
gfz2012zjre   1.52640
gfz2012zklq   5.64740
gfz2012zmbp  -0.35110
gfz2012zmln  -0.32994
gfz2013apmm  -0.79296
gfz2013aqaw   1.69920
gfz2013axoj  -0.83505
gfz2013bnxc  -0.11772
gfz2013bokp   0.72133
gfz2013bouj   1.13160
gfz2013ccnr  -1.69010
gfz2013cnhh   0.71071
gfz2013cwpn   1.19680
gfz2013dkly  -0.18697
gfz2013dkmz   1.68410
gfz2013dofo  -0.03414
gfz2013dojq   1.34990
gfz2013drpk   0.20030
gfz2013drxz  -0.82749
gfz2013dspt   3.93230
gfz2013dsrk   1.88570
gfz2013dvyh  -0.90523
gfz2013egni   0.00000
gfz2013egpu   0.32615
gfz2013ekpm  -0.02060
gfz2013esnh  -0.17794
gfz2013ewbo   0.58750
gfz2013fiud  -0.04084
gfz2013fkii   1.06010
gfz2013fnzr  -0.89576
gfz2013fwxa  -0.31514
gfz2013gdgf  -0.90704
gfz2013gdnq  -0.36716
gfz2013gngz   1.53940
gfz2013gock   0.83071
gfz2013hkja  -1.51080
gfz2013hmbc   0.22679
gfz2013hsfw   1.06840
gfz2013huwr   0.45334
gfz2013iayx   1.45530
gfz2013idbb   1.19070
gfz2013ijsr   3.91650
gfz2013ilug   1.24540
gfz2013inux   1.98590
gfz2013iodt   1.21290
gfz2013ippu  -0.03896
gfz2013iqzq  -0.00000
gfz2013iunn   0.25755
gfz2013iyqz  -0.05775
gfz2013jdrx  -0.38719
gfz2013jesk  -1.99140
gfz2013jfah   1.55130
gfz2013jgij   0.48938
gfz2013jgip   0.10420
gfz2013jjsi   0.08515
gfz2013jkut   1.37610
gfz2013jlst  -0.73521
gfz2013jmcc   2.00530
gfz2013jokw  -0.64868
gfz2013jusj  -0.45487
gfz2013jwvc  -0.62604
gfz2013kccc  -2.35440
gfz2013kdeo   1.57700
gfz2013kheb   1.93240
gfz2013khli  -0.72103
gfz2013krei   0.14004
gfz2013kvtk  -0.05681
gfz2013kweg   0.36175
gfz2013kwps  -0.03070
gfz2013lajg   0.09863
gfz2013lajn  -1.15230
gfz2013lbiu   1.57540
gfz2013ldpc   0.47640
gfz2013ldqb   0.22876
gfz2013lgnl   0.59049
gfz2013lixa   0.07905
gfz2013lljw   0.03653
gfz2013lmdy   0.62123
gfz2013lmqe   0.98311
gfz2013lmrs   2.06810
gfz2013lsob   2.61460
gfz2013lxyn   0.08058
gfz2013lyko   0.50484
gfz2013mnei   0.82859
gfz2013mnju   0.75399
gfz2013mqik   2.66510
gfz2013mqmv   2.17140
gfz2013mvgr   0.52095
gfz2013mwbh  -0.70089
gfz2013mxee   3.08730
gfz2013ncjp   0.26572
gfz2013ndin  -1.59420
gfz2013ngnt  -0.10985
gfz2013nixj  -0.51793
gfz2013nkgj   1.07050
gfz2013nknw   0.00000
gfz2013nlxz  -0.01702
gfz2013nmac  -0.82357
gfz2013nnzf   0.93990
gfz2013nojf  -0.09634
gfz2013nppd   0.51917
gfz2013nqgw  -2.60570
gfz2013nskg  -0.22946
gfz2013nuvi  -0.83866
gfz2013nwdi  -0.22318
gfz2013oejn   0.44146
gfz2013ofls  -0.84756
gfz2013ogde  -0.63976
gfz2013oifr   1.26850
gfz2013oinc   2.72010
gfz2013ojti   2.25790
gfz2013oqsc   0.81981
gfz2013orjg   1.82220
gfz2013ornz   1.13520
gfz2013orzn   0.03968
gfz2013ozqm   0.76256
gfz2013ozrp   1.37210
gfz2013pcos   0.53172
gfz2013pfbx   1.21410
gfz2013pfeb  -2.03920
gfz2013pffm   0.75897
gfz2013pfnf   1.14550
gfz2013phef  -0.77347
gfz2013poxj  -0.45539
gfz2013puag  -1.04990
gfz2013pupd   0.09500
gfz2013pxsj  -0.19591
gfz2013pxtx   0.04972
gfz2013qali  -0.21728
gfz2013qcck   1.86930
gfz2013qesa   0.92805
gfz2013qfmm  -0.23149
gfz2013qmer   0.58843
gfz2013qnxc   0.87356
gfz2013qqrr   0.18898
gfz2013qwbv   0.90509
gfz2013qzdq  -0.22595
gfz2013rdoo   0.03070
gfz2013reym   1.08280
gfz2013roki   0.85696
gfz2013rqcy   1.23670
gfz2013rrza  -0.11279
gfz2013rwfe  -0.62928
gfz2013saez   0.24658
gfz2013scai  -0.56446
gfz2013sdus   0.58096
gfz2013sfds   0.18365
gfz2013sfto   0.51628
gfz2013shlq   0.22427
gfz2013shzy  -0.00000
gfz2013sjhg   0.03395
gfz2013skkm   0.36983
gfz2013sllq   0.27655
gfz2013snbr   0.30465
gfz2013snyf   1.34270
gfz2013sred   1.27510
gfz2013suln  -0.26308
gfz2013suvn   0.11951
gfz2013svci   0.13423
gfz2013svqv  -0.36180
gfz2013sxbw   0.85817
gfz2013tbzy   0.04634
gfz2013tcbk   1.02650
gfz2013tcxc   0.33529
gfz2013tcxq   0.33016
gfz2013tdau   0.45059
gfz2013tdkk   0.64936
gfz2013thtc  -0.10041
gfz2013tlaf   1.46620
gfz2013toea   0.31959
gfz2013toxf   0.73795
gfz2013tpeb  -0.43795
gfz2013ttoz   1.23140
gfz2013tusd   0.52867
gfz2013tuzv  -0.51053
gfz2013tvmw   0.51266
gfz2013twwf  -0.76011
gfz2013txev   0.92710
gfz2013txij  -0.62551
gfz2013txtb   0.20815
gfz2013tyas  -0.78217
gfz2013uauo   0.11160
gfz2013ufku  -0.04843
gfz2013ufxk   0.34531
gfz2013ufxm  -1.56230
gfz2013ugax   2.73310
gfz2013uhlm   1.14330
gfz2013umya   0.39211
gfz2013uqsp   0.51617
gfz2013uqvu   0.23818
gfz2013uthl   3.12430
gfz2013uuzn   0.63855
gfz2013uxej   1.35980
gfz2013uysr   0.32163
gfz2013vdic   0.24538
gfz2013vefs   0.00000
gfz2013vexx   1.87380
gfz2013vfyw   0.91282
gfz2013vfzp   0.13836
gfz2013vgau  -0.50589
gfz2013vgev  -0.36765
gfz2013vgpf   2.14160
gfz2013vgrk  -0.36423
gfz2013vhnk   1.03120
gfz2013viul  -0.70393
gfz2013vjfe  -0.06425
gfz2013vjjc  -2.42240
gfz2013vnfj   2.07350
gfz2013vqot  -0.28130
gfz2013vrmy   2.02630
gfz2013vsbl   0.50803
gfz2013vsxi   0.85785
gfz2013vuja   1.51840
gfz2013vvjh   0.33470
gfz2013vvrq  -0.04108
gfz2013vzbo  -0.03536
gfz2013wbyr   0.74306
gfz2013wgeu   0.19550
gfz2013wjmm  -0.86764
gfz2013wkyk   0.16415
gfz2013wmfd   1.99760
gfz2013wnql   0.41533
gfz2013woze  -0.41686
gfz2013wqhq   2.98910
gfz2013wrgw   4.61850
gfz2013wtzl   0.01651
gfz2013xatc  -0.36152
gfz2013xcmp   0.21132
gfz2013xgek   1.34520
gfz2013xizq   0.25148
gfz2013xkbh  -0.23360
gfz2013xklb   0.86230
gfz2013xmul   0.10379
gfz2013xpfa   0.47466
gfz2013xpsm   8.04690
gfz2013xqnn   1.41600
gfz2013xsdt  -0.71375
gfz2013xtwj   0.36531
gfz2013xvqd   0.44842
gfz2013xvxf   2.10120
gfz2013xvyl  -0.13210
gfz2013xwda  -0.62829
gfz2013xwxn  -0.34365
gfz2013xwzd  -0.03701
gfz2013xxcc   1.91030
gfz2013xxwv   1.13090
gfz2013xxxq   0.86459
gfz2013xyzb   1.55210
gfz2013xzcg   1.11130
gfz2013yaig  -0.36489
gfz2013yctg  -0.48064
gfz2013yghj  -0.05328
gfz2013yhbu  -1.40420
gfz2013yhpk  -0.14210
gfz2013yixl   1.69640
gfz2013ylbx  -1.30050
gfz2013ymky   1.54280
gfz2013ymxs   0.79163
gfz2013ynmw   0.83952
gfz2013ypdc   0.26864
gfz2013yqkv   0.16415
gfz2013yrmc  -0.21704
gfz2013yyti   0.82549
gfz2013yzte  -0.04602
gfz2013zfhu   0.22450
gfz2013zjel   1.16420
gfz2013zjtw  -0.27522
gfz2013zmoc  -0.95178
gfz2013zmtb   0.60472
gfz2014aawc   0.08122
gfz2014adoj   0.85883
gfz2014afmx   0.69542
gfz2014afyp   0.77615
gfz2014agde   1.42000
gfz2014agyz  -0.01243
gfz2014ajlk   1.49270
gfz2014ajtf   1.32740
gfz2014algk   0.89524
gfz2014alwz  -0.55076
gfz2014amsb   1.33300
gfz2014ande   1.34670
gfz2014aqbk   0.34276
gfz2014ared   0.90542
gfz2014arpf  -0.45001
gfz2014arqr   0.65027
gfz2014atbl   1.82340
gfz2014atgw   0.55978
gfz2014azqs   1.56000
gfz2014bagd   0.69837
gfz2014bdfd   1.58980
gfz2014bekc   0.11179
gfz2014bezu   0.59457
gfz2014bfng   1.58690
gfz2014bfqo   0.68742
gfz2014bhhv   0.38452
gfz2014bjgt   0.46512
gfz2014bjsy   0.07920
gfz2014bldx   0.08666
gfz2014bmfv   1.44960
gfz2014bmta   0.63943
gfz2014bwue  -0.30818
gfz2014bzxy   1.16750
gfz2014caop   1.43330
gfz2014cbtl  -0.27859
gfz2014cgog   0.79750
gfz2014claq  -0.24890
gfz2014cmwb   0.36874
gfz2014cqyo   1.35930
gfz2014ctot   0.59937
gfz2014cueu   2.78390
gfz2014cvkm   0.45881
gfz2014cvxx   0.48553
gfz2014cyvm   0.03623
gfz2014czqi   0.13499
gfz2014czua   0.91073
gfz2014dcdy  -0.01798
gfz2014dddc   1.25380
gfz2014dffd   0.90396
gfz2014dhxt  -0.27307
gfz2014disp  -0.80312
gfz2014dpzx  -0.73453
gfz2014duqn   0.14342
gfz2014ebmc   0.03492
gfz2014edfx   1.67230
gfz2014eght  -0.27819
gfz2014ehsf   1.18900
gfz2014ejmt   0.40294
gfz2014ekcr   0.03007
gfz2014ekdn  -0.55726
gfz2014ekdt   0.30451
gfz2014enhi  -1.17540
gfz2014eqpl   1.05160
gfz2014etqa   0.62256
gfz2014fcms   1.23710
gfz2014fedd   0.00000
gfz2014femz  -0.02130
gfz2014ffdc   0.16723
gfz2014fgvi   2.10390
gfz2014fgwt   1.24470
gfz2014fgxt   1.66630
gfz2014fgxz   1.34690
gfz2014fgyo   1.35050
gfz2014fhbd   2.04030
gfz2014fhdw   1.36560
gfz2014fhla   0.79796
gfz2014fhrq   1.35070
gfz2014fhsg   2.35720
gfz2014fhwx   2.23600
gfz2014fimn   2.78630
gfz2014fiuj   1.31000
gfz2014fiwq   0.94994
gfz2014fjdz   1.39810
gfz2014fjzd   1.56250
gfz2014fjzw   1.81640
gfz2014fkmr   2.98170
gfz2014fkmx   1.26130
gfz2014fnyg  -0.00000
gfz2014foio   0.88365
gfz2014frdz   2.98490
gfz2014frel   0.41573
gfz2014frez   1.63640
gfz2014frgm   1.05900
gfz2014frwh   1.88230
gfz2014ftka   0.94526
gfz2014ftno   1.42810
gfz2014ftoc   1.71670
gfz2014ftpw   0.54567
gfz2014ftrk   1.75590
gfz2014furx   1.51520
gfz2014fusj   1.13130
gfz2014fuub   0.48199
gfz2014fvaa  -0.08510
gfz2014fval   1.79260
gfz2014fvgh   1.35220
gfz2014fvjl  -0.03318
gfz2014fvpy   1.28910
gfz2014fvrg   1.81520
gfz2014fwtt   0.79312
gfz2014fxhd  -0.00000
gfz2014fxpu   1.19530
gfz2014gbcz   0.31826
gfz2014gbdq  -1.04230
gfz2014ghpe   0.18692
gfz2014gilf   0.69426
gfz2014gkgf   0.87522
gfz2014gkgs  -0.18880
gfz2014gkhp   0.05429
gfz2014gkhy  -1.54990
gfz2014gkjl   1.53950
gfz2014gkjt  -0.03742
gfz2014gkjw   1.55570
gfz2014gkjy  -0.76899
gfz2014gklq   0.42876
gfz2014gklv  -0.03753
gfz2014gkmm  -0.22953
gfz2014gkob   0.13219
gfz2014gkok   0.08119
gfz2014gkpd   1.81630
gfz2014gkqf   1.94850
gfz2014gkqu  -0.11748
gfz2014gksj   1.78130
gfz2014gksu   0.52485
gfz2014gktq   1.47290
gfz2014gkut   1.17970
gfz2014gkxm   2.62500
gfz2014glcu   1.51070
gfz2014glcy   0.68230
gfz2014glgo   0.58504
gfz2014glhs   0.16229
gfz2014gltx   1.40830
gfz2014gmci   1.99200
gfz2014gmes   1.99120
gfz2014gmge   0.99142
gfz2014gmhp   0.25496
gfz2014gmhr  -0.72361
gfz2014gmic   0.40857
gfz2014gmip   3.20600
gfz2014gmjo   1.89560
gfz2014gmku   1.76450
gfz2014gmlz   1.12540
gfz2014gmnb   1.27280
gfz2014gmnw   1.43940
gfz2014gmor   0.80155
gfz2014gmpy   1.12420
gfz2014gmrj   1.89790
gfz2014gmuk   1.24660
gfz2014gmvr   2.17440
gfz2014gmzl   2.07010
gfz2014gmzs   0.27905
gfz2014gndq   1.65860
gfz2014gnfd   1.77370
gfz2014gnfs   1.33730
gfz2014gngg   1.82820
gfz2014gnig   2.00140
gfz2014gnmp   0.92449
gfz2014gnmx   0.39614
gfz2014gnno   0.98692
gfz2014gnnt   2.12500
gfz2014gnom   1.38080
gfz2014gnoz   0.29762
gfz2014gnqt  -0.54414
gfz2014gnre   2.05540
gfz2014gnsi   1.64420
gfz2014gntd  -0.60973
gfz2014gnxb   1.82940
gfz2014goba   0.69018
gfz2014goei   1.42980
gfz2014goqw   1.94410
gfz2014gori   1.71940
gfz2014gpce   2.39300
gfz2014gphr   1.74440
gfz2014gpnf   0.81526
gfz2014gpuk   0.77809
gfz2014gpya   2.13550
gfz2014gqbj   2.25960
gfz2014gqco   1.98850
gfz2014gqed   2.08180
gfz2014gqer   1.28100
gfz2014gqqz   0.63215
gfz2014gqve   1.86760
gfz2014grcv   1.76090
gfz2014grgn   0.90094
gfz2014grho  -2.25580
gfz2014gsqs   2.20050
gfz2014gtef   0.60197
gfz2014gtwz   1.37380
gfz2014gufl   1.37770
gfz2014gull   1.42120
gfz2014gulp   0.91664
gfz2014gumd   1.57840
gfz2014gutm   0.64156
gfz2014gvhw   0.86199
gfz2014gvqj   0.76089
gfz2014gvrd   2.23720
gfz2014gwab   2.71380
gfz2014gwgf   1.14570
gfz2014gwqj   0.54887
gfz2014gxag   0.67012
gfz2014gxxh   2.07030
gfz2014gxxo   1.02000
gfz2014gyxd   1.67380
gfz2014hagb   1.66000
gfz2014haos   2.51790
gfz2014hasj   1.37030
gfz2014hauo   0.95283
gfz2014hbjm   2.09060
gfz2014hbjz   1.98610
gfz2014hbqb   1.18290
gfz2014hcmj   0.90962
gfz2014heum   1.08400
gfz2014heyq   1.27000
gfz2014hfad   1.15110
gfz2014hfhl   1.37290
gfz2014hgqo   1.56590
gfz2014hhfs   1.68710
gfz2014hifp   0.99235
gfz2014hjgh   1.59690
gfz2014hjgo   1.77340
gfz2014hjgr   1.44760
gfz2014hjij   2.00970
gfz2014hjlx   2.11200
gfz2014hkcf   2.36810
gfz2014hkck   1.46590
gfz2014hlib   0.61026
gfz2014hmgf   1.29440
gfz2014hmrs   0.42737
gfz2014hmzg   2.23690
gfz2014hnfm   1.40730
gfz2014hocg  -0.18005
gfz2014hphw   2.04010
gfz2014hqxs   1.88470
gfz2014hrft   0.59612
gfz2014hriu   0.87134
gfz2014huaj   1.34300
gfz2014hwwi   1.93660
gfz2014hyvq   2.20820
gfz2014hzdy   0.74204
gfz2014hzfw   0.51859
gfz2014hzgn   2.70380
gfz2014hzhe   0.45634
gfz2014iani   2.18660
gfz2014iava   0.99596
gfz2014icqt   1.28000
gfz2014ieam  -0.04762
gfz2014ifue   1.43600
gfz2014ifzj   1.59780
gfz2014ijvh   1.06820
gfz2014ikun  -0.90387
gfz2014ikvd   2.03390
gfz2014ilwu   0.75354
gfz2014immt   1.03140
gfz2014imnn   2.31830
gfz2014inbj  -1.16190
gfz2014iobd   0.42772
gfz2014iqzj   1.72330
gfz2014irci   2.37780
gfz2014isff   1.89010
gfz2014issk   1.17610
gfz2014isub   2.01990
gfz2014isys  -0.15365
gfz2014itab   2.03920
gfz2014itbe   1.86800
gfz2014itfc   0.95673
gfz2014itgh   1.95830
gfz2014itjx   0.26581
gfz2014itkw   1.71130
gfz2014iuhq   2.10800
gfz2014iwnf   0.25049
gfz2014ixga   2.20190
gfz2014ixky   0.36703
gfz2014iywt   0.46613
gfz2014jatq   0.07837
gfz2014jcjt  -1.01150
gfz2014jcmt   1.18240
gfz2014jfis   1.03170
gfz2014jggm   2.18980
gfz2014jhra   1.03170
gfz2014jipr  -0.05151
gfz2014jird   1.42120
gfz2014jjhc   0.73666
gfz2014jjln   2.44990
gfz2014jjqk   2.66100
gfz2014jkxe  -0.96587
gfz2014jlwb   0.12630
gfz2014jmnk  -0.02650
gfz2014jnxm   0.93748
gfz2014jnyv   0.12361
gfz2014jomw   0.08131
gfz2014jpep   1.51680
gfz2014jpfn   0.41484
gfz2014jpgu  -2.62810
gfz2014jpxs   0.72389
gfz2014jtfe   0.99370
gfz2014jvow   0.96240
gfz2014jwmh  -0.19453
gfz2014kara  -0.71052
gfz2014kbuk   1.37490
gfz2014kbwm  -0.39168
gfz2014khan   1.07940
gfz2014khlk   0.35993
gfz2014kizt   1.72230
gfz2014kjee   0.43289
gfz2014kjjq   0.47162
gfz2014kjzb   1.37870
gfz2014kmmt   0.67572
gfz2014kndc  -0.16725
gfz2014knks  -1.18760
gfz2014knxs  -0.35626
gfz2014krlg  -0.41520
gfz2014kscf   0.57165
gfz2014ksdv   0.36247
gfz2014kssw   2.68850
gfz2014kwie   1.53910
gfz2014kwrg   1.66290
gfz2014kwwg   1.38620
gfz2014kxqf   1.64580
gfz2014kyan  -0.18499
gfz2014kytf   0.39473
gfz2014kzzm  -1.31090
gfz2014lbcq  -0.12711
gfz2014lbxn  -0.40878
gfz2014lchy   1.73760
gfz2014lddn  -0.34322
gfz2014ldhu   0.39508
gfz2014lefs  -1.78120
gfz2014lgqn   0.93299
gfz2014lhqn   1.27570
gfz2014lkyf  -0.65247
gfz2014lmge  -1.22590
gfz2014lnmw   1.02140
gfz2014lnqy   0.44402
gfz2014lpim  -0.49981
gfz2014lrzx   0.12331
gfz2014lurd   0.24856
gfz2014lvgn   0.90215
gfz2014lwom   1.08120
gfz2014lxnc   1.61150
gfz2014lxqr   2.49020
gfz2014lyhk   1.39130
gfz2014lyhp   0.23255
gfz2014lynp   0.10287
gfz2014lzal   1.10300
gfz2014lzow  -1.37600
gfz2014macx   1.27030
gfz2014madw   1.39620
gfz2014mawp   0.11731
gfz2014mden   0.79795
gfz2014mhgg  -0.22098
gfz2014mioi  -1.39960
gfz2014moaw  -0.59133
gfz2014mtum   1.09870
gfz2014mvza   0.40736
gfz2014mwor  -0.77614
gfz2014mxkr   1.42960
gfz2014navw   1.21910
gfz2014ndue   1.39970
gfz2014ngnd   0.56746
gfz2014ngsk   1.30950
gfz2014ngvt  -0.07462
gfz2014nhyb   0.09785
gfz2014niqj   1.01410
gfz2014nkdx  -0.50335
gfz2014nnih   0.97267
gfz2014nnxd   1.67260
gfz2014nowp   0.80849
gfz2014npdk   0.08881
gfz2014npeo  -0.92507
gfz2014nphm   0.12789
gfz2014nqfm   1.40600
gfz2014nrie   1.68340
gfz2014nyeh   1.86820
gfz2014nyfb   1.95120
gfz2014nyko   1.10190
gfz2014nylm  -0.60536
gfz2014odgv   1.13890
gfz2014ofhm  -0.71996
gfz2014oims   1.05180
gfz2014oinz   0.80447
gfz2014okec   2.73730
gfz2014okjw   0.57439
gfz2014okxu   3.14740
gfz2014omyn   0.79755
gfz2014opqr   0.45535
gfz2014orxs   2.03560
gfz2014osvx   0.77093
gfz2014osvz  -0.49214
gfz2014owur   2.15480
gfz2014owxc   0.41378
gfz2014oxcc  -0.66432
gfz2014oyly   0.82251
gfz2014pjum   2.13090
gfz2014pkll   0.46990
gfz2014ppyi   1.24590
gfz2014ppzf   0.15816
gfz2014pqqp  -3.74100
gfz2014pqrc  -0.01018
gfz2014pvch  -0.75033
gfz2014pxbu  -0.70621
gfz2014pzni   1.45780
gfz2014raau  -0.12356
gfz2014rbpx   0.42175
gfz2014rbsl   0.99477
gfz2014rdsn   0.41165
gfz2014rfeb   0.36729
gfz2014rghp  -0.01052
gfz2014rhnz  -0.51322
gfz2014riel   0.54824
gfz2014rils  -0.30779
gfz2014rkwl  -0.15028
gfz2014roba   0.05615
gfz2014romy  -0.17171
gfz2014royq   0.33034
gfz2014rtcu   0.09447
gfz2014rucz   0.52387
gfz2014ryfb   0.09531
gfz2014sadu  -1.07770
gfz2014sjqw  -0.24783
gfz2014sptq  -1.01880
gfz2014sryn  -0.05324
gfz2014ssmv   0.84825
gfz2014ssvz  -1.24170
gfz2014szzf  -0.29524
gfz2014tabg   0.34616
gfz2014tfgn  -0.05867
gfz2014thrw  -4.49680
gfz2014tovs  -0.19998
gfz2014tqdo   0.26890
gfz2014tqly  -0.04081
gfz2014tqsf   1.94780
gfz2014tute  -0.56579
gfz2014tzsd   0.60418
gfz2014ubwn   0.10287
gfz2014ubyq   1.03240
gfz2014udgg  -0.46061
gfz2014uohh   0.00000
gfz2014utac   0.71807
gfz2014uuqa  -0.28433
gfz2014uuuf   0.24150
gfz2014uvji   0.66926
gfz2014uvrk  -0.39724
gfz2014uxyg   0.59637
gfz2014uyrq   0.45851
gfz2014vcev   0.21717
gfz2014veit   1.43330
gfz2014vhms   1.20360
gfz2014vhuy   0.43761
gfz2014vjoz   0.24419
gfz2014vpus  -0.99174
gfz2014vqqa   0.73878
gfz2014waoo   1.22630
gfz2014watn   0.47979
gfz2014wjko   1.10620
gfz2014wmsc   0.14573
gfz2014wrkh   1.67770
gfz2014wsjh  -0.60822
gfz2014wwib   1.54130
gfz2014xaxx   0.03204
gfz2014xbyr   1.33770
gfz2014xhkc  -0.23655
gfz2014xjri   1.95860
gfz2014xoji   0.30422
gfz2014xqby   1.98090
gfz2014xqqd   0.25679
gfz2014yazi  -0.38950
gfz2014yhhm   1.61140
gfz2014ynzy   0.85122
gfz2014yrug   1.32970
gfz2014yula   1.04740
gfz2014zkys   1.07270
gfz2014zlgp   0.11049
gfz2015abpw  -0.53349
gfz2015aqav   0.34291
gfz2015aqbq   0.69250
gfz2015arpd   1.28830
gfz2015aruz   0.94781
gfz2015atxv   0.41568
gfz2015azzp   0.46416
gfz2015bavu   0.52786
gfz2015bdyd   0.85354
gfz2015berb   0.26464
gfz2015bfjm   0.56819
gfz2015bkbj   0.36906
gfz2015bohx   0.95742
gfz2015bphe   1.04620
gfz2015bpxl   0.25424
gfz2015bsnl   0.05485
gfz2015bucr   2.00990
gfz2015bvxx   0.41009
gfz2015byfn   0.40351
gfz2015byjd  -0.58411
gfz2015bzej   1.78010
gfz2015chhn  -0.82023
gfz2015chqn   0.45550
gfz2015cpuo  -0.62275
gfz2015cxhx   0.22276
gfz2015cxrc  -0.79382
gfz2015cxxk   0.64963
gfz2015cyjd   0.93801
gfz2015czfv   0.82042
gfz2015dadj   1.26700
gfz2015dizn   0.51947
gfz2015dvbn   1.51330
gfz2015ecgq   0.47564
gfz2015egxq  -0.15814
gfz2015ehpz   0.24218
gfz2015eiky   0.53343
gfz2015elgy   0.08307
gfz2015eljz   0.31372
gfz2015emin   0.75646
gfz2015emtg   0.49425
gfz2015enth  -1.69070
gfz2015esrj   0.08265
gfz2015etai   0.24709
gfz2015evpl   0.45285
gfz2015eyqs  -0.32156
gfz2015fbbk   2.02370
gfz2015fbew  -1.14060
gfz2015fcua  -0.49487
gfz2015fdpr   0.88692
gfz2015fjhk   0.73310
gfz2015fkgt  -0.03841
gfz2015fkic  -0.18910
gfz2015fkjs   0.62605
gfz2015fkkd   1.45820
gfz2015fkuu   0.98752
gfz2015fpez   1.23040
gfz2015fsjj  -0.13706
gfz2015fvoi   1.87930
gfz2015fwkq   2.47990
gfz2015fwnf   1.37970
gfz2015fxbv   0.93868
gfz2015fxdi  -0.19123
gfz2015gckd   0.48788
gfz2015ggjw  -0.26617
gfz2015gjbr  -0.35124
gfz2015gkwa  -0.14896
gfz2015gnmy   1.98590
gfz2015guhd  -0.17729
gfz2015gwao  -0.25758
gfz2015gzja  -1.40990
gfz2015hdcp   0.05550
gfz2015hepg   0.14030
gfz2015hgbk   1.10980
gfz2015hlfq   0.60972
gfz2015hlqo   0.27689
gfz2015hpmk   1.10950
gfz2015hvgs   1.58970
gfz2015hwkv   0.97725
gfz2015igsy   0.36595
gfz2015imty   1.23410
gfz2015isim  -0.35118
gfz2015ixyy  -0.87742
gfz2015jkdw  -1.63580
gfz2015jmlf   1.52260
gfz2015jmlu  -0.72171
gfz2015jpap  -0.41149
gfz2015jwgl  -0.23632
gfz2015jxbx   0.06092
gfz2015jxjd   0.31548
gfz2015jzcv   1.66320
gfz2015kakw  -0.32607
gfz2015kalm   1.99420
gfz2015kcaa   1.09020
gfz2015kkqb   0.20180
gfz2015kkth  -0.72651
gfz2015kphk   1.85930
gfz2015kquq   0.78949
gfz2015ksni   0.36575
gfz2015kvwz  -0.08576
gfz2015kxxs  -0.05845
gfz2015lcma  -0.11651
gfz2015lfma   1.67750
gfz2015lfud   0.24785
gfz2015lhjq   0.24064
gfz2015lhjy   0.71454
gfz2015lytv  -1.38530
gfz2015lzad   0.16268
gfz2015mddr   1.07270
gfz2015mfpy  -0.09316
gfz2015mhym  -0.31254
gfz2015micz   0.62667
gfz2015mljd   0.31305
gfz2015mpte   0.91032
gfz2015mvzk  -0.03833
gfz2015nerz  -0.94750
gfz2015nqgf   0.15109
gfz2015ntpk  -1.12540
gfz2015nuxz  -0.88462
gfz2015nwug  -0.05637
gfz2015ocdz  -0.39579
gfz2015ofsr   0.74123
gfz2015ojut  -0.12261
gfz2015okmq   0.26783
gfz2015okpu  -0.10244
gfz2015omab   0.46217
gfz2015opjp   0.16601
gfz2015orkl   0.02134
gfz2015othd   0.69396
gfz2015oyfl   0.47850
gfz2015pcvt   1.60560
gfz2015pdri  -0.00706
gfz2015pgxa  -0.53810
gfz2015pjgr  -0.10039
gfz2015plal   1.06970
gfz2015poni  -0.25271
gfz2015prlr   0.50758
gfz2015puah   2.52770
gfz2015puqp  -0.83102
gfz2015qafb   0.55276
gfz2015qnho   0.16069
gfz2015qnlv  -0.53472
gfz2015qnto   0.47837
gfz2015qprd  -0.51803
gfz2015qpvd   1.38600
gfz2015quzo   1.43340
gfz2015rddx   0.27341
gfz2015rgov   0.09225
gfz2015rgrg   1.54910
gfz2015rgst   0.46547
gfz2015rkbq   0.78607
gfz2015rkrg   0.18938
gfz2015rkzg  -1.16630
gfz2015rpzn  -0.20763
gfz2015rtnv   0.01531
gfz2015rwsb   1.05360
gfz2015rxmg   0.38861
gfz2015saet  -0.75227
gfz2015sdeo   1.82930
gfz2015sdfy   0.69052
gfz2015sevh   1.93090
gfz2015sfdd  -0.24346
gfz2015sfdh  -1.81970
gfz2015sfdl  -2.60050
gfz2015sfdv   0.11285
gfz2015sfdy  -1.08510
gfz2015sfeo  -1.30370
gfz2015sffn  -1.14010
gfz2015sfga  -0.74633
gfz2015sfho   3.41730
gfz2015sfhz  -1.59310
gfz2015sfiq  -1.79160
gfz2015sfjf  -1.25490
gfz2015sfkh  -0.98098
gfz2015sfks  -1.43570
gfz2015sfkz  -1.58110
gfz2015sflf  -0.90090
gfz2015sfln   0.46737
gfz2015sfmd   1.10290
gfz2015sfnb  -1.05980
gfz2015sfno  -1.33480
gfz2015sfnv  -1.08620
gfz2015sfoc  -1.00810
gfz2015sfoh  -0.14759
gfz2015sfom   0.79276
gfz2015sfoq   1.65980
gfz2015sfpj  -0.39608
gfz2015sfps  -0.34686
gfz2015sfqo  -0.08856
gfz2015sfqr  -2.55090
gfz2015sfrc  -0.56490
gfz2015sfrf   0.18947
gfz2015sfrv  -0.44362
gfz2015sfsi   1.39300
gfz2015sfte  -0.60927
gfz2015sftu  -0.62165
gfz2015sfuc  -0.31309
gfz2015sfuz   0.54860
gfz2015sfwf  -0.12102
gfz2015sfxn  -0.28139
gfz2015sfzm   0.82684
gfz2015sgad  -0.55974
gfz2015sgdj  -0.42454
gfz2015sgdn   0.06642
gfz2015sgey   0.11838
gfz2015sggc  -0.21792
gfz2015sghq  -1.74970
gfz2015sgie   0.39122
gfz2015sglg  -0.29469
gfz2015sgmm  -0.08734
gfz2015sgmr  -0.30364
gfz2015sgna   1.16560
gfz2015sgoa  -0.05745
gfz2015sgpu  -0.24278
gfz2015sguf  -1.07430
gfz2015sgxc   0.23189
gfz2015sgyd  -0.94534
gfz2015shaq  -1.32350
gfz2015shel  -0.20275
gfz2015shhg  -0.67705
gfz2015shhu  -1.42070
gfz2015shjn  -1.02910
gfz2015shlp   1.15370
gfz2015shov   2.45340
gfz2015shqc  -0.57008
gfz2015shqe  -1.59790
gfz2015shrg   0.10243
gfz2015shsz   1.25570
gfz2015shwt   1.11180
gfz2015sicf   0.53468
gfz2015sicu   0.45642
gfz2015siem   0.01907
gfz2015siky  -0.85948
gfz2015siof   0.03441
gfz2015sist  -2.30410
gfz2015sitn  -0.39699
gfz2015sixs  -0.23405
gfz2015siyy  -0.67895
gfz2015sjbx   0.08220
gfz2015sjeq   1.54860
gfz2015sjfi   0.29891
gfz2015sjgk  -0.99123
gfz2015sjjb  -0.24205
gfz2015sjne  -0.36769
gfz2015sjoj  -0.87040
gfz2015sjpn  -1.35060
gfz2015sjtz   0.97549
gfz2015sjvu  -0.28706
gfz2015sjwi  -1.87750
gfz2015skab   0.03915
gfz2015skgj   0.31242
gfz2015skhf   0.48322
gfz2015skia  -1.53270
gfz2015sklu   0.52923
gfz2015skpv  -0.71110
gfz2015skuk   0.95528
gfz2015skxu  -0.09181
gfz2015sldx   0.13203
gfz2015slfn   0.54141
gfz2015sljs  -0.92914
gfz2015slun  -0.96387
gfz2015smgj   0.88304
gfz2015smym  -0.12319
gfz2015snhn   0.13693
gfz2015snmg   0.78328
gfz2015snmr  -0.20375
gfz2015snsf  -0.25439
gfz2015snwh  -0.58878
gfz2015snyd   0.00525
gfz2015soat   0.21562
gfz2015sopc   0.79298
gfz2015sowu   0.75409
gfz2015soxc  -0.52891
gfz2015sozw   0.82952
gfz2015spal   0.65049
gfz2015sqbg   0.12069
gfz2015sqmy   0.11233
gfz2015sqoz  -0.02345
gfz2015sqvx  -0.17968
gfz2015sqwv   0.06698
gfz2015sqyh   0.22805
gfz2015srat  -0.13576
gfz2015srgf  -0.35889
gfz2015srxe   0.51117
gfz2015srxm   0.66653
gfz2015sryk   1.57660
gfz2015ssaf   2.56250
gfz2015ssoe   0.20678
gfz2015sspn   0.43285
gfz2015ssrl   1.10030
gfz2015stas   0.06909
gfz2015stcv   0.39259
gfz2015stfy  -1.87980
gfz2015stso   0.13033
gfz2015subg   1.33970
gfz2015subz  -0.42799
gfz2015sudm   0.52549
gfz2015sunp   2.17330
gfz2015supa   0.87410
gfz2015susq  -0.20788
gfz2015svjy  -1.27750
gfz2015svwm  -0.35978
gfz2015swgn  -0.48549
gfz2015swjx   0.56502
gfz2015swnc  -0.32114
gfz2015sxmh  -0.61879
gfz2015szcb  -0.07349
gfz2015szfe   0.21833
gfz2015szfq  -1.01600
gfz2015sztx  -0.17811
gfz2015taml  -0.16610
gfz2015tbdn  -0.76857
gfz2015tbxe  -0.61014
gfz2015tcem   0.05296
gfz2015tchx  -0.33836
gfz2015tdbb   0.56901
gfz2015tdcu  -0.56022
gfz2015tdhb   0.37129
gfz2015teje  -1.10550
gfz2015temv   0.40361
gfz2015tesj   0.14979
gfz2015teyn  -0.42567
gfz2015tezd   0.18438
gfz2015tfaz   0.29108
gfz2015tfxb   1.16710
gfz2015tgbp  -0.16129
gfz2015tghj   0.73435
gfz2015thfd   0.50491
gfz2015thfm   0.90122
gfz2015thgc   0.42749
gfz2015thgp   0.33654
gfz2015thtd   1.12710
gfz2015thwg  -0.34231
gfz2015thwp   0.05776
gfz2015tiyc  -2.15300
gfz2015tjhv  -0.13575
gfz2015tjys   0.59003
gfz2015tkol  -1.01620
gfz2015tlba  -0.30240
gfz2015tlkf  -0.05150
gfz2015tlok  -0.50719
gfz2015tnjd  -0.55905
gfz2015tnla   0.83923
gfz2015tohm   1.24500
gfz2015tojz  -0.74673
gfz2015tpra  -0.31243
gfz2015tqff  -0.17642
gfz2015tqie  -0.47001
gfz2015tqjf   0.98901
gfz2015tqsg   0.23970
gfz2015truf  -0.04345
gfz2015tsdm  -0.33866
