# Nsamples: 49  MAD:  0.454  mean: -0.202  variance:  1.656
gfz2010bowy   0.01183
gfz2010bxxs  -0.17784
gfz2010cqwl  -0.79593
gfz2010usho  -0.14423
gfz2011aatr  -0.55517
gfz2011enva  -0.55200
gfz2011gkzt  -3.45670
gfz2011hlqw  -0.71682
gfz2011hlsa  -0.53904
gfz2011mjom   1.88500
gfz2011rewa  -0.19647
gfz2011toub  -0.90418
gfz2012enno   0.00249
gfz2012kkup  -0.46506
gfz2012klhx  -0.62055
gfz2012kudo  -0.44730
gfz2012ldxg  -0.27567
gfz2012sphd  -1.60490
gfz2012ttoa  -0.07506
gfz2012vrgb   0.32510
gfz2012wypz  -0.54334
gfz2013ccnr   0.82825
gfz2013dddp   6.07000
gfz2013jkut   0.17671
gfz2013kdeo   0.20763
gfz2013pfbx  -0.19108
gfz2014afmx  -0.24780
gfz2014ande  -0.12051
gfz2014bwue  -0.40959
gfz2014fkmr   0.23122
gfz2014ftka   0.10006
gfz2014fval   0.40949
gfz2014gkqf  -0.31870
gfz2014gltx  -1.27600
gfz2014gmge  -0.14650
gfz2014gmnb  -0.12644
gfz2014goba  -0.67208
gfz2014gsqs   2.17720
gfz2014hasj  -1.39700
gfz2014huaj  -0.30573
gfz2014jpep  -0.33056
gfz2014lxnc  -0.24570
gfz2014nqfm  -0.24837
gfz2014pvch  -3.55170
gfz2014qqhm   0.15949
gfz2014ssvz  -0.78316
gfz2015gckd  -0.20003
gfz2015mpte   0.37162
gfz2015taml  -0.22675
