# Nsamples: 27  MAD:  0.782  mean:  0.771  variance:  1.339
gfz2010ebhc   0.01961
gfz2010grjd  -0.13185
gfz2010mkuu   0.32196
gfz2010nmpc  -0.45117
gfz2010wioh   3.44340
gfz2011gkzt  -1.31840
gfz2011hlsa   0.42073
gfz2012enno   0.39348
gfz2012klhx   0.70088
gfz2012teic   0.63930
gfz2012vrgb   0.79964
gfz2013kdeo   0.03986
gfz2014ande   0.27956
gfz2014frdz   4.20740
gfz2014fval   1.84260
gfz2014gkqf   1.71830
gfz2014gmnb   0.58958
gfz2014goqw   1.40570
gfz2014gull   0.75862
gfz2014jpep   1.08660
gfz2014nqfm  -0.11553
gfz2014oinz  -0.81811
gfz2014qqhm   0.46514
gfz2014rwos   0.55919
gfz2014vhld   1.81230
gfz2015emcg   1.91160
gfz2015gckd   0.24212
