# Nsamples: 28  MAD:  0.415  mean: -0.040  variance:  1.671
gfz2010bxxs   0.37692
gfz2010ebhc  -0.50021
gfz2010iull   0.13656
gfz2010nmpc  -0.68752
gfz2010wioh   5.60330
gfz2011aatr  -0.07687
gfz2011enva  -0.45156
gfz2011gkzt   0.21916
gfz2011hlqw   0.28394
gfz2011hlsa   0.32025
gfz2011toub  -0.47969
gfz2012enno   0.02697
gfz2012kudo  -0.31247
gfz2012ldxg  -0.08655
gfz2012ldzj  -0.47745
gfz2012teic   0.64249
gfz2012vrgb  -0.02259
gfz2013jkut   0.37105
gfz2013pfbx  -0.35107
gfz2014bwue  -0.13878
gfz2014gkqf  -0.25792
gfz2014gmvr  -3.42730
gfz2014jjhc   0.28134
gfz2014lxnc  -0.62876
gfz2014nqfm  -0.44783
gfz2014ssvz  -0.36288
gfz2014vjoz  -0.29752
gfz2015berb  -0.36252
