# Nsamples: 12  MAD:  0.645  mean:  0.557  variance:  0.244
gfz2012klhx   0.70504
gfz2012ldxg   0.20750
gfz2012ttoa   1.26530
gfz2013jkut   1.08680
gfz2013pfbx  -0.19104
gfz2014ande  -0.16864
gfz2014gkqf   0.92788
gfz2014gmnb   0.87095
gfz2014goba   0.17322
gfz2014hasj   1.00310
gfz2014nqfm   0.02814
gfz2014qqhm   0.77687
