# Nsamples: 11  MAD:  0.559  mean:  0.249  variance:  1.513
gfz2013kdeo   0.33219
gfz2013pfbx  -0.13481
gfz2014afmx  -0.38249
gfz2014ande  -2.25360
gfz2014frdz   3.24500
gfz2014fusj   0.29416
gfz2014fvrg   0.55145
gfz2014glcu   0.70897
gfz2014gltx   0.38305
gfz2014jjhc   0.44423
gfz2014jpep  -0.44863
