# Nsamples: 58  MAD:  0.508  mean: -0.321  variance:  0.995
gfz2010bxxs  -0.10430
gfz2010cqwl  -1.47150
gfz2010iull  -0.15011
gfz2010mkuu  -0.16304
gfz2010nmpc  -1.27970
gfz2010usho   1.66730
gfz2011aatr  -0.16033
gfz2011dpqx  -1.11650
gfz2011enva  -0.60171
gfz2011gkzt  -1.58760
gfz2011hlqw  -0.39156
gfz2011hlsa  -0.25996
gfz2011lcxq  -1.24810
gfz2011rewa  -0.24456
gfz2011toub  -0.53895
gfz2012enno   0.17965
gfz2012kkup  -0.38549
gfz2012klhx  -0.34551
gfz2012ldxg  -0.16873
gfz2012ldzj   1.30250
gfz2012teic  -0.62855
gfz2012ttoa  -0.01037
gfz2012vrgb   0.36713
gfz2013ccnr   1.40430
gfz2013ifpq  -5.75800
gfz2013jkut   0.30961
gfz2013kdeo  -0.29267
gfz2013nkgj   0.14655
gfz2013pfbx  -0.52971
gfz2014ande  -0.03132
gfz2014bwue  -0.28124
gfz2014frdz  -0.08340
gfz2014ftka  -1.38600
gfz2014fval   0.96102
gfz2014gkhy   0.19071
gfz2014gkqf  -0.13210
gfz2014gltx  -0.20115
gfz2014gmge  -1.37650
gfz2014gmnb  -0.67058
gfz2014gmnw  -0.65736
gfz2014goba   0.20182
gfz2014gull  -0.74329
gfz2014hasj  -0.95438
gfz2014hqxs   0.62985
gfz2014huaj  -0.66173
gfz2014jpep  -0.26272
gfz2014lgqn   0.44700
gfz2014lxnc  -0.17711
gfz2014lyhk  -0.45353
gfz2014nqfm  -0.46520
gfz2014oinz  -0.68487
gfz2014pvch  -0.55870
gfz2014qlxd  -0.43368
gfz2014qqhm   0.05840
gfz2014ubwn   0.08387
gfz2015gckd  -0.48370
gfz2015mpte  -0.01033
gfz2015taml   1.57760
