# Nsamples: 31  MAD:  0.575  mean: -0.067  variance:  0.374
gfz2012vrgb  -0.30249
gfz2013pfbx  -0.33815
gfz2013uauo   0.06634
gfz2014afmx  -1.00980
gfz2014ande  -1.91440
gfz2014bwue   0.02822
gfz2014frdz   1.25830
gfz2014ftoc  -0.77973
gfz2014gkqf  -0.16620
gfz2014gltx   0.29019
gfz2014gmnb   0.12923
gfz2014goba  -0.43840
gfz2014hasj   0.42023
gfz2014hocg   0.45093
gfz2014huaj  -0.78108
gfz2014jjhc   0.23259
gfz2014jpep  -0.58394
gfz2014lgqn   0.87193
gfz2014lxnc  -0.09759
gfz2014nqfm  -0.81013
gfz2014nrie   0.59824
gfz2014qlxd  -0.26994
gfz2014qqhm   0.27631
gfz2014ssvz  -0.20199
gfz2014ubwn   0.40285
gfz2015berb  -0.22398
gfz2015chhn   0.32942
gfz2015jzcv  -0.27101
gfz2015mpte   0.54041
gfz2015taml   0.47638
gfz2015tlkf  -0.25185
