# Nsamples: 408  MAD:  0.973  mean:  1.237  variance:  1.930
gfz2010aerk   1.31400
gfz2010ahqi   0.54548
gfz2010bfzs   2.12230
gfz2010bifb  -0.49205
gfz2010bjeb   2.00920
gfz2010bowy   0.22742
gfz2010bxxs   2.19900
gfz2010caft   2.36350
gfz2010cbkg   2.51140
gfz2010civi   1.24970
gfz2010cqwl   1.52020
gfz2010czps   0.83159
gfz2010dejx   2.25060
gfz2010eaoy   1.53800
gfz2010eapk   1.63070
gfz2010eapn  -2.06870
gfz2010eaqe   0.19912
gfz2010eaqx   1.25250
gfz2010eaqy   2.07020
gfz2010earq   1.64460
gfz2010earu   0.39204
gfz2010easo   2.12490
gfz2010easu   2.80660
gfz2010eati   1.43210
gfz2010eato   0.85129
gfz2010eatt  -1.37920
gfz2010eaty   1.71100
gfz2010eaul  -1.18740
gfz2010eavd   0.70535
gfz2010eavp   0.92300
gfz2010eavs   0.64769
gfz2010eawb   0.71865
gfz2010eawu   0.46897
gfz2010eaxa   0.35807
gfz2010eaxn   1.22390
gfz2010eayd  -3.13620
gfz2010eayp  -0.43188
gfz2010eayx   0.27621
gfz2010eaze   0.40550
gfz2010eazu  -1.06510
gfz2010ebbd   0.48169
gfz2010ebby   1.78320
gfz2010ebdl   0.71762
gfz2010ebfa   1.22880
gfz2010ebgj  -0.20985
gfz2010ebhc   1.27480
gfz2010ebih   1.09960
gfz2010ebin  -0.97466
gfz2010ebiv  -3.01710
gfz2010ebjy   1.63940
gfz2010ebkj   1.24460
gfz2010ebla   1.57450
gfz2010ebll   2.04760
gfz2010ebmb   2.14970
gfz2010ebmi   0.65526
gfz2010ebnn  -3.27100
gfz2010ebtk  -6.50470
gfz2010ebvm   0.89631
gfz2010ebvv   1.99590
gfz2010ebxl  -2.71730
gfz2010ebze   6.54060
gfz2010ebzk   0.63103
gfz2010ebzr   2.38780
gfz2010ecam   1.43220
gfz2010ecay   1.38560
gfz2010ecbi   0.85670
gfz2010eccq   0.44468
gfz2010eced   0.62797
gfz2010echt   1.32950
gfz2010echy   1.26610
gfz2010ecua   1.69740
gfz2010ecvt   1.26700
gfz2010edcp  -0.63650
gfz2010edvf   2.77490
gfz2010edyi   6.05030
gfz2010eeij  -2.31310
gfz2010eekq   1.36390
gfz2010eevu   1.68760
gfz2010efsq   1.16900
gfz2010eghq  -1.26120
gfz2010egld   0.77964
gfz2010egln  -0.20273
gfz2010egmp  -0.75789
gfz2010egqh   1.44730
gfz2010egyy   1.27460
gfz2010ehft  -1.85060
gfz2010ehnm   1.84100
gfz2010ehsy   6.05930
gfz2010ehxz  -2.09670
gfz2010eisx   0.72607
gfz2010eixj   1.38050
gfz2010ejjg   1.55610
gfz2010ekyc   1.72430
gfz2010elhv  -1.62190
gfz2010eltf   0.50991
gfz2010elyc  -2.16360
gfz2010elyo   0.37408
gfz2010erkn   1.77120
gfz2010erom   1.91350
gfz2010eujm   1.09510
gfz2010euvl  -1.01260
gfz2010euwb   2.05980
gfz2010euxe   1.79970
gfz2010evco  -0.78352
gfz2010evgf   1.24770
gfz2010ewvc  -0.75827
gfz2010ewyu   0.98000
gfz2010excp   0.84038
gfz2010exdd   0.91363
gfz2010exdl   0.93996
gfz2010exed  -2.98160
gfz2010exel   0.96626
gfz2010exfb   0.29223
gfz2010exgb   1.51140
gfz2010exhd   1.28270
gfz2010exhw   0.51593
gfz2010exmc   1.13540
gfz2010exsg  -2.87370
gfz2010eyiv   1.03620
gfz2010eymr   0.22086
gfz2010ezck   1.02360
gfz2010ezxd   3.84610
gfz2010falm  -0.57818
gfz2010fcax   0.97494
gfz2010fcnn   1.23570
gfz2010fcnt   1.27720
gfz2010fczt   0.74476
gfz2010fedq  -0.34515
gfz2010ffhq   0.96321
gfz2010ffjb   0.03363
gfz2010fihj   0.56673
gfz2010fika   1.33830
gfz2010fjmu   1.57910
gfz2010flha   0.19335
gfz2010flxi  -0.35837
gfz2010fpqy   1.39100
gfz2010fqdu   2.77210
gfz2010fqtj   1.29490
gfz2010fync   1.39380
gfz2010gcrl  -0.48910
gfz2010gdld  -0.18354
gfz2010glqr   1.13070
gfz2010glxl   1.07070
gfz2010gslu   0.63340
gfz2010gyqp   1.78310
gfz2010gzxr   1.62720
gfz2010hjoc   1.75230
gfz2010hlln   5.87330
gfz2010hnnf   3.24900
gfz2010hptz   0.26888
gfz2010hxgv   1.14160
gfz2010iobp   1.27630
gfz2010iqnm   0.45848
gfz2010itpb  -4.35450
gfz2010iull   2.10460
gfz2010jkxj   2.44920
gfz2010jxbm  -0.19309
gfz2010lkcf   0.88343
gfz2010lluj   1.44850
gfz2010mkuu   3.32540
gfz2010mncc   1.22840
gfz2010nmpc   1.26510
gfz2010nqwf  -0.05919
gfz2010nqwo   0.47274
gfz2010nrjo  -1.55690
gfz2010nsck   1.15960
gfz2010nsdf   0.46152
gfz2010nwef   1.27570
gfz2010onma   1.84610
gfz2010pcxi   1.64170
gfz2010pewx   1.31660
gfz2010pxgh   2.33140
gfz2010rhas   3.07720
gfz2010wioh   2.03880
gfz2010xden   1.79360
gfz2010xjsj   2.94500
gfz2010yjev   1.94300
gfz2010yzgq  -0.35587
gfz2011aatr   1.51370
gfz2011adjs   0.26607
gfz2011ahfw   1.39780
gfz2011alip   1.83610
gfz2011aqxf   1.07980
gfz2011bgrp   2.48160
gfz2011cndo   0.59158
gfz2011csju   0.83169
gfz2011cykd  -0.33095
gfz2011cynl   2.40590
gfz2011cyre   2.88670
gfz2011cyuk  -0.16329
gfz2011dbig   0.30619
gfz2011dcqb  -0.54641
gfz2011dcqf   1.15080
gfz2011dpqx   0.74804
gfz2011eayc   2.06200
gfz2011ecaj   2.03210
gfz2011enva   2.06660
gfz2011etje   1.51030
gfz2011gbmx   0.63313
gfz2011gkzt   1.67290
gfz2011hbex   1.67520
gfz2011hebt   1.93590
gfz2011hlqw   1.34160
gfz2011hlsa   1.45670
gfz2011hvbu   1.39510
gfz2011icxe   0.87471
gfz2011izqa   1.43160
gfz2011jplh   1.25690
gfz2011wxfs   2.69970
gfz2011wxtk  -0.46745
gfz2011xyxj   1.76480
gfz2011zqhh  -0.85819
gfz2012bpkx   0.68302
gfz2012bszs   2.91210
gfz2012byad   3.91830
gfz2012cqnl  -0.12126
gfz2012cxdn   0.07480
gfz2012dinb   1.94090
gfz2012dyyh   3.25120
gfz2012ekda   0.87449
gfz2012enno   1.07610
gfz2012ewgo   2.82700
gfz2012fzfa   0.77481
gfz2012hnul  -0.23137
gfz2012jgvj   1.08350
gfz2012jlox   1.91390
gfz2012jshk   1.94520
gfz2012jupx   1.47910
gfz2012kbzj   2.50930
gfz2012keor   0.29010
gfz2012kkup   0.96841
gfz2012klhx   0.80475
gfz2012kudo   2.04280
gfz2012kwgo   2.65590
gfz2012lczo   0.83715
gfz2012ldxg   1.36280
gfz2012ldzj   1.79310
gfz2012lpvn   1.26300
gfz2012lxkv   1.08300
gfz2012minr   1.99700
gfz2012rwov   1.05020
gfz2012syvl   1.49660
gfz2012teic   3.90080
gfz2012tmop   1.98810
gfz2012tvmv   0.49710
gfz2012uafg   0.95787
gfz2012uaqj   2.43070
gfz2012uciv   1.52760
gfz2012vrgb   0.55486
gfz2012wklq   1.36980
gfz2012wxlg   1.49470
gfz2012wypz   1.58330
gfz2012zitl   1.41790
gfz2012zjpv   0.82009
gfz2013axoj   3.72200
gfz2013ccnr   0.59133
gfz2013dofo   1.36420
gfz2013drxz   0.96508
gfz2013dsrk   2.84870
gfz2013dvyh   2.06450
gfz2013gock   2.48330
gfz2013hxcx   1.69630
gfz2013ikgo   1.19280
gfz2013jesk   2.12370
gfz2013jgij   1.91200
gfz2013jgip   0.61113
gfz2013jusj   0.35131
gfz2013kdeo   3.12940
gfz2013lixa   3.05260
gfz2013lyko   1.26730
gfz2013mqmv   1.48030
gfz2013mwbh   0.59973
gfz2013ncjp   2.05000
gfz2013neuc   1.74040
gfz2013nixj   2.60510
gfz2013nkgj   2.34040
gfz2013nwdi   1.91670
gfz2013qfsq   0.77279
gfz2013qzdq   1.36970
gfz2013svci   1.77930
gfz2013tpeb   1.50300
gfz2013tusd   2.01150
gfz2013vfzp  -0.26402
gfz2013vjjc   0.72953
gfz2013wjmm   0.47690
gfz2013xsdt   0.70961
gfz2013yctg   1.94140
gfz2013yqkv   1.22460
gfz2014afmx   1.54980
gfz2014algk   1.83250
gfz2014bagd   1.16620
gfz2014bwue   2.30400
gfz2014bzxy   1.91310
gfz2014cvkm   1.34490
gfz2014czqi   1.91060
gfz2014czua   2.52390
gfz2014dffd   2.00910
gfz2014eght   1.58050
gfz2014ekcr   1.16720
gfz2014enhi   1.61470
gfz2014ettc   1.61780
gfz2014fgvi   2.35490
gfz2014fhla   3.00420
gfz2014fhrq   1.83700
gfz2014fjyo   0.72572
gfz2014fkmr   3.55040
gfz2014frez   3.54640
gfz2014ftka   2.16300
gfz2014fval   2.82010
gfz2014gbcz   0.59955
gfz2014ghpe   1.03360
gfz2014gkgf   2.01370
gfz2014gkqf   3.00340
gfz2014gmge   1.18520
gfz2014gmhr   0.39167
gfz2014gmip   1.60440
gfz2014gmku   3.31140
gfz2014gmnb   1.54870
gfz2014gmnw   1.92000
gfz2014gnvw  -0.91828
gfz2014goba   2.82050
gfz2014gori   3.29030
gfz2014gpya   2.44700
gfz2014gqer   3.02240
gfz2014hzdy   0.22875
gfz2014hzfw   0.85394
gfz2014ilwu  -2.98520
gfz2014inbj   1.96790
gfz2014jjhc   2.16200
gfz2014jnyv   1.95300
gfz2014jwmh   2.47470
gfz2014kndc   1.41350
gfz2014knks   1.97530
gfz2014kyan  -2.62850
gfz2014lgqn   2.55720
gfz2014lyhk   2.87810
gfz2014nqfm   2.23030
gfz2014oinz   2.28750
gfz2014ppzf   2.02710
gfz2014qlxd   2.04700
gfz2014qngj   1.25630
gfz2014qqhm   2.69650
gfz2014raau   0.60336
gfz2014ssvz   1.41550
gfz2014tqdo   2.24140
gfz2014uvrk  -1.58490
gfz2014vhld   2.09730
gfz2014vjoz   1.85510
gfz2014watn   1.66470
gfz2015aruz   0.94881
gfz2015berb   1.98100
gfz2015bucr   2.20910
gfz2015chhn   0.74829
gfz2015cxxk   1.54580
gfz2015cyjd   2.49220
gfz2015dskr   2.03700
gfz2015dvbn   2.15760
gfz2015eiky   2.59520
gfz2015etai   0.64908
gfz2015fcua   2.28310
gfz2015fkgt   0.45778
gfz2015fsjj   2.13620
gfz2015gckd   2.27200
gfz2015jwgl   1.87730
gfz2015kfsu   1.70050
gfz2015lytv   1.23330
gfz2015mpte   2.98460
gfz2015oyfl   1.30300
gfz2015qnho   1.46350
gfz2015rddx   2.02120
gfz2015sfdd   0.97214
gfz2015sfdy   1.88250
gfz2015sfeo   1.98170
gfz2015sfhz   1.91410
gfz2015sfiq   2.65990
gfz2015sflf   2.03910
gfz2015sfnb   1.01620
gfz2015sfno   1.24850
gfz2015sfoc   1.71110
gfz2015sgad   1.27350
gfz2015sgdn  -0.12144
gfz2015sggc   2.31140
gfz2015sghq   0.55514
gfz2015sglg   1.16340
gfz2015sguf  -0.41783
gfz2015sjgk   0.91367
gfz2015sjoj   2.21150
gfz2015sjvu   0.90824
gfz2015sjwi   2.45000
gfz2015skxu   1.18980
gfz2015slun   2.12850
gfz2015smym   1.76180
gfz2015snsf   1.03930
gfz2015snwh   0.68026
gfz2015snyd   2.19470
gfz2015soat   1.42220
gfz2015soxc   1.12660
gfz2015stso   1.41720
gfz2015svwm   1.07690
gfz2015taml   3.61120
gfz2015teje  -2.35020
gfz2015thwg   2.75330
gfz2015tiyc   1.03680
gfz2015tkol   0.06395
gfz2015tlba   2.25490
gfz2015tlkf   2.98070
gfz2015tlok   0.47300
gfz2015tnjd   1.96360
