# Nsamples: 122  MAD:  0.582  mean: -0.732  variance:  0.405
gfz2010pcxi  -0.44686
gfz2010rqwj  -1.57740
gfz2010upfb  -1.35800
gfz2010usho  -0.55945
gfz2010vbmd  -1.93880
gfz2010ymfy  -0.94867
gfz2011aatr  -0.17581
gfz2011adjs  -1.24850
gfz2011bgrp  -0.09069
gfz2011cykd  -1.06280
gfz2011dbev  -0.52171
gfz2011dbig  -0.46463
gfz2011dcqb  -1.54170
gfz2011dpqx  -1.35520
gfz2011eazf   0.03940
gfz2011ecaj  -1.04060
gfz2011enva  -0.59197
gfz2011hbex  -0.59236
gfz2011hlsa   0.24647
gfz2011izqa  -1.14130
gfz2011kqwo  -0.08374
gfz2011kxzp  -1.02260
gfz2011lzwj  -0.74410
gfz2011mdie  -0.63777
gfz2011ntkh  -0.43156
gfz2011olkk  -1.33120
gfz2011owvz   0.12702
gfz2011rewa  -0.63308
gfz2011toub  -1.89920
gfz2011uphh  -1.57360
gfz2011wxfs  -0.51578
gfz2011wxtk  -0.88707
gfz2012bpkx  -1.18600
gfz2012enno  -0.85568
gfz2012ewgo  -0.51804
gfz2012fzfa  -1.31080
gfz2012hnul  -1.15720
gfz2012jlox  -1.63790
gfz2012jupx  -1.60750
gfz2012kkup  -0.13014
gfz2012kudo  -0.47372
gfz2012sphd  -0.88441
gfz2012syvl  -1.04440
gfz2012ttoa  -1.06890
gfz2012tvmv  -0.53694
gfz2012vrgb   1.24440
gfz2013axoj   0.48522
gfz2013ccnr   0.63849
gfz2013drxz  -0.55379
gfz2013jusj  -0.63234
gfz2013ldpc  -0.43736
gfz2013ldqb  -1.78910
gfz2013lixa  -0.40557
gfz2013lyko  -0.59054
gfz2013nixj  -0.46474
gfz2013nkgj  -1.05640
gfz2013nnzf  -1.30790
gfz2013nwdi  -0.21220
gfz2013qmer  -0.91360
gfz2013svci  -1.39440
gfz2013tusd  -0.99922
gfz2013vjjc  -1.80440
gfz2013wjmm  -1.25730
gfz2013xsdt  -1.42410
gfz2013xyzb  -0.35082
gfz2013yqkv  -0.36260
gfz2014bwue  -0.20021
gfz2014fgvi  -0.45172
gfz2014fhla   0.33668
gfz2014ftka  -0.44623
gfz2014gbcz  -1.07060
gfz2014ghpe  -0.91143
gfz2014gkgf  -1.08040
gfz2014gkgs  -1.18030
gfz2014gkqf   0.05939
gfz2014gltx  -1.38650
gfz2014gmge  -1.78100
gfz2014gmhr  -1.41730
gfz2014gmip  -0.35069
gfz2014gmnb  -0.10437
gfz2014gmnw  -0.54972
gfz2014gmuw  -0.99753
gfz2014goba  -0.43454
gfz2014knks  -0.50262
gfz2014lxnc  -0.75238
gfz2014nqfm  -0.59121
gfz2014oims  -1.31560
gfz2014oinz  -0.20637
gfz2014owxc   0.75222
gfz2014pvch  -1.46350
gfz2014qlxd  -0.32939
gfz2014qngj  -1.20400
gfz2015chhn  -1.33390
gfz2015cyjd  -0.83582
gfz2015dvbn  -0.43583
gfz2015eiky  -1.16620
gfz2015fkgt  -0.17824
gfz2015fsjj  -0.72756
gfz2015gckd  -0.49152
gfz2015kfsu  -0.51147
gfz2015lhjy  -0.37788
gfz2015lytv  -1.22310
gfz2015poni  -1.26990
gfz2015qnho  -1.35800
gfz2015rddx  -0.55444
gfz2015sfdd  -1.43490
gfz2015sfdy  -0.27747
gfz2015sfnb  -0.93646
gfz2015sfno   1.54250
gfz2015sjoj  -0.47929
gfz2015sjpn  -2.18940
gfz2015smym  -0.31420
gfz2015snsf  -0.80802
gfz2015snwh  -1.22300
gfz2015snyd  -0.57518
gfz2015soat  -0.10038
gfz2015soxc  -1.08860
gfz2015svwm  -1.04810
gfz2015swgn  -0.42962
gfz2015szcb   0.30720
gfz2015taml   0.61789
gfz2015tnjd  -0.78568
