# Nsamples: 942  MAD:  1.025  mean:  1.613  variance:  1.992
gfz2010aban  -0.83577
gfz2010aerk   0.77994
gfz2010ahqi   2.11960
gfz2010awfi  -1.31090
gfz2010bedu   0.31805
gfz2010bfzs   2.25610
gfz2010bgth  -0.43868
gfz2010bhhq   4.17660
gfz2010bifb  -0.37881
gfz2010bjeb   1.26400
gfz2010bkob   2.11180
gfz2010bowy   1.07350
gfz2010bpda   2.41790
gfz2010bxxs   2.32620
gfz2010caft   2.54010
gfz2010cbkg   2.19380
gfz2010civi   0.36859
gfz2010ckeu  -0.95455
gfz2010cnwc  -0.19399
gfz2010cptb  -0.31416
gfz2010cqwl   1.23920
gfz2010czps   1.94780
gfz2010dejx   2.69650
gfz2010diqn   1.94960
gfz2010dlgc   2.85480
gfz2010dlwv  -0.13335
gfz2010eaoy   2.38960
gfz2010eapk   1.15840
gfz2010eaqe   1.59920
gfz2010eaqx   3.33170
gfz2010eaqy   3.15850
gfz2010earq   2.35310
gfz2010earu   2.09310
gfz2010easf   3.04570
gfz2010eask   0.62388
gfz2010easo   2.55680
gfz2010eati   3.26530
gfz2010eato   1.67050
gfz2010eatt   1.46370
gfz2010eaty   2.74020
gfz2010eaul   1.51760
gfz2010eavd   1.84650
gfz2010eavp   1.16370
gfz2010eavs   1.25410
gfz2010eawb   0.90258
gfz2010eawu   1.74110
gfz2010eaxa   1.46030
gfz2010eaxn   2.02270
gfz2010eaya  -2.00720
gfz2010eayd   2.03390
gfz2010eayp   0.93427
gfz2010eayx   1.27150
gfz2010eaze   1.84070
gfz2010eazu   2.25860
gfz2010ebbd   1.82050
gfz2010ebbx   4.82140
gfz2010ebby   3.12000
gfz2010ebdl   3.44150
gfz2010ebeh   1.58390
gfz2010ebek   2.48590
gfz2010ebfa  -3.73250
gfz2010ebgj   1.74570
gfz2010ebhc   1.58480
gfz2010ebin   0.21007
gfz2010ebiv   2.69180
gfz2010ebjy   2.67500
gfz2010ebkj   2.10650
gfz2010ebkx   0.58462
gfz2010ebla   2.18180
gfz2010ebll   2.39270
gfz2010ebmb   1.64980
gfz2010ebmi   2.12450
gfz2010ebnn   2.87020
gfz2010ebpa   1.72100
gfz2010ebqt   2.10610
gfz2010ebqz   1.08270
gfz2010ebrm   2.26790
gfz2010ebsv   4.44120
gfz2010ebtk   2.61470
gfz2010ebvm   1.39770
gfz2010ebvv   2.51430
gfz2010ebxl   1.14490
gfz2010ebze   1.03670
gfz2010ebzk   1.84290
gfz2010ebzr   3.29190
gfz2010ecay   0.45951
gfz2010ecbi   1.89390
gfz2010eccq   2.10040
gfz2010eced   2.14160
gfz2010ecft   0.86164
gfz2010ecfx   1.35800
gfz2010ecfy   1.04520
gfz2010ecgh   2.01780
gfz2010echc   2.75760
gfz2010echt   1.59390
gfz2010echy   2.22630
gfz2010ecka   0.19250
gfz2010ecls   0.85877
gfz2010ecml   1.61700
gfz2010ecnm   1.76370
gfz2010ecns   0.59891
gfz2010ecpg   2.27760
gfz2010ecps   3.81610
gfz2010ecro   1.68840
gfz2010ecsp   4.80670
gfz2010ectq   0.52903
gfz2010ecua   2.25430
gfz2010ecuv   1.70580
gfz2010ecvt   2.39140
gfz2010ecyr   2.82700
gfz2010edad   1.68320
gfz2010edat   1.84650
gfz2010eday   2.26090
gfz2010edbz   2.16080
gfz2010edcp  -0.06179
gfz2010edde   2.41180
gfz2010edhr  -1.66200
gfz2010edim   2.39240
gfz2010edji  -1.74270
gfz2010edkp   1.56670
gfz2010edoq   1.44140
gfz2010edpb   1.95180
gfz2010edqd   1.39290
gfz2010edqh   1.88800
gfz2010edsk   0.26076
gfz2010edsn   2.46720
gfz2010edsy   0.84128
gfz2010edun   1.14630
gfz2010edvf   2.32740
gfz2010edyi   0.71279
gfz2010edzb   0.52062
gfz2010eedu   1.18410
gfz2010eedz   2.40050
gfz2010eefh   1.93530
gfz2010eefo   0.37879
gfz2010eegn  -0.34637
gfz2010eeia   0.56959
gfz2010eeij   2.07340
gfz2010eekq   1.36590
gfz2010eell   0.85984
gfz2010eeng   3.36720
gfz2010eeqy   2.09510
gfz2010eerh   1.02250
gfz2010eern   2.41860
gfz2010eesf   2.26680
gfz2010eevu   1.57120
gfz2010eeyh   0.86833
gfz2010efak   2.56620
gfz2010efbh   1.44550
gfz2010efnf   2.65160
gfz2010efsq   1.95090
gfz2010efwo   2.39070
gfz2010efxf   2.44790
gfz2010egap   3.04830
gfz2010eghq  -0.42337
gfz2010egld   1.66270
gfz2010egln   1.39810
gfz2010egmp   0.65862
gfz2010egqh   1.86250
gfz2010egsy   1.25670
gfz2010egyy   1.56450
gfz2010eher   0.88204
gfz2010ehft   1.71960
gfz2010ehnl  -5.26610
gfz2010ehnm   2.00880
gfz2010ehrq   1.05640
gfz2010ehsy   2.51810
gfz2010ehvj   1.53310
gfz2010ehwg  -0.18397
gfz2010ehxz   1.99100
gfz2010eimf   1.45880
gfz2010eioi   1.92650
gfz2010eisx   1.54210
gfz2010eixj  -0.85878
gfz2010ejae   0.83064
gfz2010ejco   1.57440
gfz2010ejjg   0.28968
gfz2010ejju   2.44880
gfz2010ejka   1.38350
gfz2010ejma   0.59519
gfz2010ejxf   1.29500
gfz2010ekoe   1.88490
gfz2010ekrv   2.04790
gfz2010ekyc   0.94055
gfz2010elhv   2.31320
gfz2010elin   1.86850
gfz2010eljf   0.89108
gfz2010elpu   1.97480
gfz2010elsw   1.84750
gfz2010eltf   1.94090
gfz2010elvp   1.56640
gfz2010elxi   1.37920
gfz2010elyo   0.81848
gfz2010elzf   2.59340
gfz2010emyz   0.56259
gfz2010encm   0.90273
gfz2010engw  -0.74957
gfz2010enpa   3.46710
gfz2010enzl   2.83300
gfz2010eoao  -1.21800
gfz2010eohh   2.74920
gfz2010eomb   1.69490
gfz2010epbe   2.32590
gfz2010epud   0.67419
gfz2010epxj   1.54970
gfz2010eqmu  -5.19910
gfz2010eqse   2.26180
gfz2010erkn   2.18800
gfz2010erom   1.75260
gfz2010eruy   5.17820
gfz2010erwn   2.51750
gfz2010eryg   2.17970
gfz2010esid   2.87760
gfz2010eted   1.93290
gfz2010euae   1.06210
gfz2010euan  -1.73110
gfz2010eugj   1.26050
gfz2010eujm   2.12320
gfz2010euvl   2.09100
gfz2010euwb   0.69567
gfz2010euxe   2.44880
gfz2010evco   2.14520
gfz2010evjv   3.21890
gfz2010evkd   1.39230
gfz2010ewbc   0.07316
gfz2010ewpq   0.61420
gfz2010ewvc   0.75565
gfz2010ewyu   2.22290
gfz2010excp   2.18080
gfz2010exdd   1.21560
gfz2010exdl   2.35210
gfz2010exed   0.91747
gfz2010exel   2.06420
gfz2010exfb   0.60149
gfz2010exgb   1.70030
gfz2010exhd   1.76340
gfz2010exhw   1.90260
gfz2010exjw   2.76560
gfz2010exlm   0.35613
gfz2010exmc   1.66760
gfz2010exno   1.53210
gfz2010exou   1.15370
gfz2010exqu   1.03440
gfz2010exsg   2.18180
gfz2010exts   0.71636
gfz2010exyp   1.06960
gfz2010eyaz  -0.64743
gfz2010eybj   0.95388
gfz2010eyhh   1.08290
gfz2010eyiv   1.88910
gfz2010eymr   0.80333
gfz2010eyvq   1.30250
gfz2010eyxe  -0.77416
gfz2010ezck   2.23250
gfz2010ezvt   0.26393
gfz2010faeu   1.98570
gfz2010falm   0.00000
gfz2010fauz   1.85060
gfz2010fbeu   1.69370
gfz2010fbpi   2.80640
gfz2010fbwe   1.33760
gfz2010fcax   1.46600
gfz2010fcdw   2.38680
gfz2010fciw   1.18880
gfz2010fcnn   0.76222
gfz2010fcnt   1.39180
gfz2010fcxy   0.65213
gfz2010fcyj   1.80820
gfz2010fczt   1.48540
gfz2010fdab  -0.25947
gfz2010fdxr  -1.05320
gfz2010fedq   0.29338
gfz2010ffhq   1.95980
gfz2010ffjb   1.52310
gfz2010ffui   1.96550
gfz2010figq   0.11283
gfz2010fihj   0.84809
gfz2010fika   2.16810
gfz2010fisf   1.87250
gfz2010fixr  -0.03697
gfz2010fjmu   1.52370
gfz2010fjni   0.85078
gfz2010fkhd   2.84590
gfz2010fkia   4.47940
gfz2010fknh   0.84046
gfz2010fkvg   0.76678
gfz2010flha   1.01210
gfz2010flkj   1.09710
gfz2010flrt   1.25310
gfz2010flxi   1.41880
gfz2010fmhb   0.15391
gfz2010fmpy   0.73054
gfz2010fmwb   1.58040
gfz2010fneu   1.91190
gfz2010fnrk   1.77070
gfz2010fobc   2.49080
gfz2010fpmv   2.68660
gfz2010fpqy   1.17100
gfz2010fqtj   1.24200
gfz2010fser   1.16490
gfz2010fsth   1.35970
gfz2010ftlm   1.37460
gfz2010fupn   0.23597
gfz2010fwkk  -1.56290
gfz2010fwpv   1.56720
gfz2010fwzd   3.42540
gfz2010fyen   1.96260
gfz2010fync   1.62220
gfz2010fzoi   1.71980
gfz2010fzsg   3.09880
gfz2010fzyt   0.76404
gfz2010gcdn   1.08430
gfz2010gcrl  -0.34667
gfz2010gcrp   1.90710
gfz2010gdch  -2.35930
gfz2010gdld   1.51700
gfz2010geru   1.35000
gfz2010ginm   4.30330
gfz2010gjia   1.12370
gfz2010glqr   0.82088
gfz2010glxl   2.10640
gfz2010grss   3.53180
gfz2010grxb   2.05310
gfz2010gslu   0.67382
gfz2010gtqs   1.59760
gfz2010gtzt   2.92730
gfz2010gymo   1.60600
gfz2010gyqp   2.16710
gfz2010gzxr   2.53040
gfz2010hakh   0.93988
gfz2010hbka   1.77000
gfz2010hgld   0.96908
gfz2010hjoc   1.31910
gfz2010hlco   1.01010
gfz2010hllj   0.74063
gfz2010hlln   1.61120
gfz2010hlmq   0.92509
gfz2010hmhm   1.60300
gfz2010hnnf   1.94470
gfz2010hnpi   0.91705
gfz2010homc   2.33260
gfz2010hptz   1.05130
gfz2010hrkr  -3.39980
gfz2010htdq  -0.25168
gfz2010hufk   0.77809
gfz2010hxbs   2.97680
gfz2010hxgv   2.20420
gfz2010hxhe  -0.33160
gfz2010hykt   1.76470
gfz2010iauj   4.24190
gfz2010ibiy   1.03010
gfz2010ibxj   0.30686
gfz2010icqq   1.75010
gfz2010iefy   2.24800
gfz2010iibf   3.08230
gfz2010iimu   2.59130
gfz2010imfv   0.67414
gfz2010iobp   1.60700
gfz2010iphd   0.12276
gfz2010iqep   0.20376
gfz2010iqfm  -0.31271
gfz2010iqnm   0.87725
gfz2010iqus  -1.67180
gfz2010irqr  -0.51656
gfz2010irvf   0.98496
gfz2010itpb   1.49630
gfz2010iull   2.39690
gfz2010ixyc   0.84335
gfz2010jatq   0.36303
gfz2010jhie   1.15360
gfz2010jkxj   2.16220
gfz2010jlhj   0.88531
gfz2010jpyj   1.97680
gfz2010jsuh   0.33798
gfz2010jxbm   1.76450
gfz2010jygz   1.99010
gfz2010kcoo   0.32411
gfz2010kdyc   1.91890
gfz2010kihf   0.49067
gfz2010kmsv   0.92460
gfz2010kown   2.96460
gfz2010kyvj   0.59895
gfz2010lczp   5.26650
gfz2010liqs   2.00090
gfz2010lkcf   0.87165
gfz2010lluj   0.24398
gfz2010lopz   0.16203
gfz2010lrlk  -1.74650
gfz2010lwuq  -1.04310
gfz2010lyfk   1.96870
gfz2010mdpq   0.81000
gfz2010mgss   3.33920
gfz2010mhjt   3.36390
gfz2010miil   0.83586
gfz2010miqn   2.76390
gfz2010mkuu   3.99820
gfz2010mncc   1.32200
gfz2010mnsz   4.05040
gfz2010moyw   1.11490
gfz2010mpuy   2.28350
gfz2010msjj   1.74750
gfz2010mtab   3.45230
gfz2010muca   2.24720
gfz2010mwdq   2.08230
gfz2010nfsj   1.05180
gfz2010nlkh   4.25250
gfz2010nmpc   0.62206
gfz2010nnny   4.79710
gfz2010nqwf   2.01820
gfz2010nqwo   1.80940
gfz2010nrew   1.82890
gfz2010nrjo   0.96963
gfz2010nsck   1.71200
gfz2010nsdf  -1.95270
gfz2010nubk   2.14310
gfz2010nwef   1.40650
gfz2010nxum   1.96340
gfz2010okdm   1.03540
gfz2010onma   1.51700
gfz2010osjs   1.78500
gfz2010oyqy   3.93310
gfz2010pcxi   1.69960
gfz2010pdtk   2.49640
gfz2010pets   0.18821
gfz2010pewx   0.90973
gfz2010pexf   1.61300
gfz2010pfyu   2.15020
gfz2010phvg   3.15960
gfz2010plbg   0.56934
gfz2010pmqd   0.71343
gfz2010pqck   1.71030
gfz2010pxak   1.20390
gfz2010pxgh   1.63810
gfz2010qjst   2.55330
gfz2010qpvi  -0.32492
gfz2010rhas   0.97224
gfz2010rkfp   0.72275
gfz2010rlbv   2.94930
gfz2010rxjw  -1.59900
gfz2010rywq   2.78080
gfz2010rzrr   0.09122
gfz2010rzsd  -1.49500
gfz2010sfee   1.90950
gfz2010sfla   0.82378
gfz2010skve   1.94640
gfz2010srdb   2.28360
gfz2010suww   1.94660
gfz2010svtn   1.22570
gfz2010swcy   1.48310
gfz2010sxfq   3.36640
gfz2010sxwt   0.64735
gfz2010sysw   2.25940
gfz2010szde   2.17110
gfz2010szim   1.53310
gfz2010tcbr   1.74880
gfz2010tcrl  -1.08150
gfz2010titk   5.35820
gfz2010tlfm   1.85650
gfz2010truw   0.93938
gfz2010uept   1.30690
gfz2010upfb   1.80060
gfz2010upiw   1.26600
gfz2010urlq   3.28270
gfz2010usho   2.49750
gfz2010ustq   1.36840
gfz2010utcg   1.42930
gfz2010utmc   1.72450
gfz2010uyhb  -1.43290
gfz2010vbmd   2.16680
gfz2010vhuj   2.53360
gfz2010vtdg   3.75670
gfz2010vxvs   1.15610
gfz2010wioh   2.02850
gfz2010wofs   9.24730
gfz2010wrxx   4.96340
gfz2010xbdv   1.60930
gfz2010xden   2.10670
gfz2010xgzw   2.08470
gfz2010xjsj  -1.56510
gfz2011bgrp   3.54950
gfz2011bhha   1.14990
gfz2011bnzn   1.62440
gfz2011bpkd   5.51380
gfz2011cndo   1.98510
gfz2011csju   0.88562
gfz2011cvcg   1.20720
gfz2011cvfg   1.33270
gfz2011cykd   0.81414
gfz2011cylz   1.87540
gfz2011cynl   0.84501
gfz2011cyre   0.36002
gfz2011cyuk   0.66564
gfz2011czwj   1.86200
gfz2011dcqb   0.89350
gfz2011dcqf  -2.64200
gfz2011dddh   4.60570
gfz2011deaf   2.98290
gfz2011dkyi   1.73040
gfz2011dlyx   1.85580
gfz2011dpqx   0.58640
gfz2011duyr   1.80060
gfz2011eayc   1.83350
gfz2011ecaj   2.51290
gfz2011edmm   0.29261
gfz2011ehzq   2.07160
gfz2011ejlp   0.91528
gfz2011ekpr   0.83408
gfz2011eltw   5.49730
gfz2011enva   2.06770
gfz2011etje   2.90020
gfz2011fgvr   1.77930
gfz2011fhbm   1.53440
gfz2011fhur   1.46680
gfz2011flgj   3.17500
gfz2011gbmx   0.99698
gfz2011gcwb   0.74817
gfz2011gdgh   0.86637
gfz2011gjlx   0.94237
gfz2011gkzt   1.12260
gfz2011haid   1.99450
gfz2011hbex   2.61310
gfz2011hebt   3.02450
gfz2011hfkj   1.82840
gfz2011hlqw   1.74250
gfz2011hlsa   1.80550
gfz2011hlth   2.99140
gfz2011hpgx   1.23160
gfz2011hpqp   2.36900
gfz2011hrhu   1.16600
gfz2011hsfj  -0.31609
gfz2011hvbu   1.24190
gfz2011icxe   1.77120
gfz2011ieie   1.77790
gfz2011iwte   2.53510
gfz2011ixai   4.68910
gfz2011izqa   1.53210
gfz2011jdsj   1.34240
gfz2011jghb   0.95848
gfz2011jmbn   2.20780
gfz2011jplh   1.07070
gfz2011jtlg   1.24550
gfz2011juid   0.28362
gfz2011jxpl   0.61519
gfz2011knoo  -0.16639
gfz2011kqwo   1.21640
gfz2011kqyg   0.83865
gfz2011ksiu  -1.60360
gfz2011kwni   0.60865
gfz2011kwqc  -0.29859
gfz2011kwrf   0.62184
gfz2011kwsz   1.36650
gfz2011kxzp   0.28248
gfz2011lcxq   1.98600
gfz2011lczg   1.08550
gfz2011lgsg   1.35930
gfz2011lvjr   2.64760
gfz2011lzwj   1.49030
gfz2011mdie   1.27410
gfz2011mepc   1.92370
gfz2011mjom   2.24750
gfz2011mpme   1.87040
gfz2011mprq  -1.58000
gfz2011myia   3.58950
gfz2011nauw   1.13600
gfz2011nrwc   4.63430
gfz2011nsex   3.71860
gfz2011ntkh   1.61920
gfz2011nudm   0.81344
gfz2011ogqk   0.04051
gfz2011ohcy   2.30420
gfz2011oiqe   3.08870
gfz2011oiwk  -1.30510
gfz2011olkk   1.92240
gfz2011orgn   1.27620
gfz2011ornx   1.15940
gfz2011owvz   2.55550
gfz2011phms   1.89000
gfz2011rqui   0.88475
gfz2011rsrh   1.70200
gfz2011rznl   0.43624
gfz2011sagt   2.82390
gfz2011stal  -0.09779
gfz2011tbas   1.06060
gfz2011tcij  -0.18454
gfz2011tjue   3.82430
gfz2011tkfp   0.91149
gfz2011tkog   1.40780
gfz2011toub  -0.05674
gfz2011tpbl   1.94070
gfz2011tpfr   2.96310
gfz2011tsnp   2.31140
gfz2011ueni  -0.70671
gfz2011ujze   1.49210
gfz2011unkx  -1.52370
gfz2011uphh   1.61810
gfz2011urxy   1.98390
gfz2011urzu   3.12750
gfz2011vhfi   1.34590
gfz2011vkun  -1.06220
gfz2011vqrj  -0.36762
gfz2011vrhg   0.47637
gfz2011vusi   0.01470
gfz2011vxns   1.72770
gfz2011wcic   1.31890
gfz2011wfja   1.76320
gfz2011wijj   2.13340
gfz2011wjul  -0.75573
gfz2011wwjs   1.89520
gfz2011wxfs   2.24860
gfz2011wxoj   0.18668
gfz2011wxtk   0.64116
gfz2011wype   0.20128
gfz2011xcpv   2.05320
gfz2011xqru   1.02950
gfz2011xyxj   1.26420
gfz2011yfdx   1.01570
gfz2011yfys   1.59700
gfz2011yzwq  10.70300
gfz2011zlrd   3.02960
gfz2011zqhh  -0.39776
gfz2012ajtq   0.51708
gfz2012aqgp   3.24680
gfz2012aqtq   0.26300
gfz2012bfah   1.40990
gfz2012bngd   0.92172
gfz2012bpkx   1.23980
gfz2012bpwl   1.86880
gfz2012brhv   0.99990
gfz2012byad   1.70330
gfz2012cmfy   1.19470
gfz2012cqnl   1.51520
gfz2012cxdn   0.69318
gfz2012czlw  -1.50530
gfz2012dimn   3.48210
gfz2012dinb   2.81740
gfz2012ekda   1.39470
gfz2012ekzf   1.29540
gfz2012elce   1.39470
gfz2012emjg   0.00819
gfz2012enno   1.39600
gfz2012ewgo   2.59110
gfz2012ewkj  -1.08170
gfz2012fhnh  -0.05149
gfz2012foeo  -2.56320
gfz2012fwfo   2.10720
gfz2012fzfa   1.27470
gfz2012gcgn   5.93220
gfz2012glss   2.37410
gfz2012gocc   3.86670
gfz2012gomm   2.56920
gfz2012gwmu   2.03050
gfz2012hnul   0.47218
gfz2012htet  -0.80212
gfz2012hwmz   1.66680
gfz2012hwyo   1.96700
gfz2012ilvn   1.33080
gfz2012intn   1.69860
gfz2012jlox   1.55560
gfz2012jshk   0.36495
gfz2012jupx   0.98025
gfz2012jxiy   1.48060
gfz2012kbjb   1.10200
gfz2012keor   0.63842
gfz2012kkup   1.29150
gfz2012klhx   1.22770
gfz2012kudo   1.85510
gfz2012kvzv   2.25110
gfz2012kwgo   1.93790
gfz2012lboz  -0.30062
gfz2012lczo   1.07420
gfz2012ldxg   1.01440
gfz2012ldzj   2.87170
gfz2012lltr   0.11373
gfz2012lpvn   2.04530
gfz2012lrsv   1.18830
gfz2012lxkv   1.45830
gfz2012minr   2.50590
gfz2012mvwr   2.06760
gfz2012mwij   1.25280
gfz2012naqz   2.86430
gfz2012nbtn   2.98860
gfz2012nedn   0.55919
gfz2012nsbz   5.53950
gfz2012ntzv   0.40270
gfz2012peex   6.83780
gfz2012pgcl  -0.31148
gfz2012pqlt   0.75368
gfz2012pqmu   1.46080
gfz2012pspd  -0.06612
gfz2012qjhs   0.53927
gfz2012rats  -0.08027
gfz2012rcnj  -0.26607
gfz2012rgkl   0.69859
gfz2012royy   3.92910
gfz2012rwov   1.66830
gfz2012rwql   2.00920
gfz2012spbj   1.75680
gfz2012sphd   2.89710
gfz2012sqmv   2.67240
gfz2012syvl   1.41990
gfz2012uhup   1.27140
gfz2012usba   1.42370
gfz2012uvqf   1.80940
gfz2012vpza   7.92490
gfz2012vsev   1.08240
gfz2012vwvd   2.46470
gfz2012vxvr   2.18560
gfz2012whku   3.88720
gfz2012wizz  -0.52067
gfz2012wklq   1.62240
gfz2012wpeq   4.29600
gfz2012wrir   2.35700
gfz2012wvfl   3.01010
gfz2012wxlg   2.15420
gfz2012wxnu   2.17330
gfz2012wybs   1.82440
gfz2012wypz   1.13340
gfz2012xcgk   2.48510
gfz2012xevt   3.44020
gfz2012xmxy   3.50360
gfz2012zemh   3.26550
gfz2012zitl   1.87480
gfz2012zjpv   1.16180
gfz2013aayj   2.41180
gfz2013axoj   4.76380
gfz2013bokp   2.86980
gfz2013bouj   0.30109
gfz2013ccnr   1.68160
gfz2013cwpn   2.83410
gfz2013dofo   1.88250
gfz2013drpk   2.38410
gfz2013drxz   1.25720
gfz2013dspt   2.70220
gfz2013dsrk   2.13860
gfz2013dvyh   2.90460
gfz2013esnh   1.07870
gfz2013ewbo   3.92050
gfz2013fcto  -3.18810
gfz2013fkcl  -0.03992
gfz2013gdnq   1.04270
gfz2013hmbc   1.14040
gfz2013huwr  -1.41780
gfz2013itsu  -0.54443
gfz2013jokw  -1.24780
gfz2013lcos   0.56834
gfz2013mghe   0.30450
gfz2013vvrq   1.63860
gfz2013wjmm   1.23090
gfz2013xizq   1.24040
gfz2013xkbh   0.92890
gfz2013xqnn   0.49248
gfz2013xsdt   0.52159
gfz2013xxxq   2.08810
gfz2013ylbx   0.29092
gfz2013yqkv   2.24690
gfz2014afmx   2.36510
gfz2014ajlk   4.56790
gfz2014algk   1.33940
gfz2014alwz   2.17240
gfz2014bagd   1.98770
gfz2014bmta  -0.01895
gfz2014bwue   1.63650
gfz2014bzxy   0.98666
gfz2014cqyo   1.03430
gfz2014cvkm   2.40040
gfz2014czno   1.21520
gfz2014czqi   1.94540
gfz2014czua   2.02590
gfz2014dddc   1.94050
gfz2014dffd   1.74980
gfz2014eght  -0.58979
gfz2014ehfp   0.72822
gfz2014ehsf  -0.60982
gfz2014ekcr   0.85118
gfz2014ekdn   2.24190
gfz2014ekdt   1.70850
gfz2014fcsy   3.16900
gfz2014femz   2.62580
gfz2014fgvi   1.23180
gfz2014fgwt   1.52300
gfz2014fgxt   1.74430
gfz2014fgxz   3.37070
gfz2014fgyo   2.66650
gfz2014fgza   4.52560
gfz2014fhdw   1.62810
gfz2014pkll   0.59340
gfz2014ppzf   2.01480
gfz2014pqqp   0.16924
gfz2014pvch   3.50890
gfz2014pzni   4.61620
gfz2014qlxd   1.24740
gfz2014qngj   2.36840
gfz2014qqhm   2.28170
gfz2014raau   0.30451
gfz2014rdsn   2.33190
gfz2014riel   3.22620
gfz2014rnrn   1.55490
gfz2014royq   3.19770
gfz2014shid   4.26420
gfz2014sptq   0.44177
gfz2014ssmv   0.93952
gfz2014ssvz   1.19410
gfz2014swgt   1.08020
gfz2014szzf   2.52730
gfz2014tabg   1.41280
gfz2014tfgn   1.53200
gfz2014tovs   2.25010
gfz2014tqdo   1.73520
gfz2014tqsf   3.52180
gfz2014tzsd   2.26560
gfz2014ubwn   0.79258
gfz2014udgg   1.08910
gfz2014uohh   1.59670
gfz2014uuuf   1.31620
gfz2014uvji   2.26440
gfz2014wqcp   2.52850
gfz2014wwib   4.39570
gfz2014xjri   4.55140
gfz2014xkdg  -0.61018
gfz2014xqqd   1.64190
gfz2014zkys   3.86310
gfz2014zplq   3.77670
gfz2015abpw   3.69100
gfz2015apnk   0.35489
gfz2015aruz   1.69300
gfz2015berb   0.88987
gfz2015bfjm  -1.46750
gfz2015bkbj   2.05460
gfz2015bsnl   0.77962
gfz2015bucr   3.02220
gfz2015bvxx   2.58600
gfz2015byjd  -1.00440
gfz2015chhn   1.16510
gfz2015chqn   1.70330
gfz2015cxhx   2.07340
gfz2015cxxk   0.72436
gfz2015cyjd   2.10280
gfz2015czfv   3.10610
gfz2015dadj  -0.89043
gfz2015dskr   1.98640
gfz2015dvbn   2.12150
gfz2015ecgq   0.51550
gfz2015eeyq   1.93640
gfz2015egxq   2.91130
gfz2015elgy   1.60000
gfz2015esrj   3.10060
gfz2015etai   1.58290
gfz2015evpl   2.55980
gfz2015fbbk   2.17680
gfz2015fbew   1.00720
gfz2015fjhk   3.27240
gfz2015fkgt   1.38430
gfz2015fkkd   1.99610
gfz2015flis   1.79380
gfz2015fpez   1.65130
gfz2015fsjj   1.49680
gfz2015gmgf   2.11870
gfz2015gzja   0.42225
gfz2015hgbk   1.08910
gfz2015hpmk   1.63790
gfz2015imty   2.45130
gfz2015kkth   3.07660
gfz2015kphk   4.63220
gfz2015ksni   2.09560
gfz2015lytv   0.74209
gfz2015lzad   1.46350
gfz2015mddr   2.59660
gfz2015mpte   4.83360
gfz2015nbdc   4.36490
gfz2015nerz   1.29320
gfz2015nqgf   2.37700
gfz2015nuxz   1.94250
gfz2015nwug   2.52210
gfz2015oyfl   1.10280
gfz2015poni   1.94420
gfz2015qnde   4.49560
gfz2015qnho   1.92450
gfz2015quzo   4.98990
gfz2015qvxu   2.41160
gfz2015rddx   2.48870
gfz2015rkbq   2.59940
gfz2015rkrg   1.55870
gfz2015rkzg   1.12560
gfz2015rxmg   2.55300
gfz2015sdeo  -0.15207
gfz2015sevh   3.03080
gfz2015sfdd   1.24360
gfz2015sfdy   3.75810
gfz2015sfho   3.06040
gfz2015sfhz   3.15720
gfz2015sfiq   4.57640
gfz2015sfjf   2.72010
gfz2015sfkh   2.72180
gfz2015sfmd   1.47200
gfz2015sfnb   2.19050
gfz2015sfno   3.46100
gfz2015sfoc   2.13670
gfz2015sfoq   3.42260
gfz2015sfqo   3.77910
gfz2015sfrv  -0.51926
gfz2015sftu   2.06500
gfz2015sfuz  -1.08210
gfz2015sfzm   1.65810
gfz2015sgdj   1.21930
gfz2015sghq   1.29250
gfz2015sgyd   1.95540
gfz2015shrg   1.97370
gfz2015shsz   1.20840
gfz2015sing   2.01060
gfz2015sist   1.84390
gfz2015sjbx   2.33220
gfz2015sjgk   1.69710
gfz2015sjne   2.27690
gfz2015sjoj   2.78790
gfz2015sjvu   2.01010
gfz2015sjwi   0.64197
gfz2015skhf   1.65370
gfz2015skuk   2.90730
gfz2015skxu   2.57120
gfz2015sldx   1.75080
gfz2015sljs   1.84790
gfz2015slun   2.36540
gfz2015smym   2.66000
gfz2015snmr   2.09020
gfz2015snsf   2.44020
gfz2015snwh   1.66880
gfz2015snyd   3.30480
gfz2015soat   2.99120
gfz2015soxc   2.17720
gfz2015ssoe  -0.74688
gfz2015svwm   1.70910
gfz2015swnc  -3.56520
gfz2015szcb   2.76810
gfz2015sztx   1.29350
gfz2015taml   2.35030
gfz2015teyc   3.88350
gfz2015thfm   1.68130
gfz2015tiyc   1.84080
gfz2015tjys   2.79630
gfz2015tlba   2.87480
gfz2015tlok  -0.96323
gfz2015tnjd   2.45500
