# Nsamples: 1258  MAD:  0.726  mean: -0.409  variance:  0.814
gfz2010aerk  -0.62316
gfz2010ahqi  -0.26926
gfz2010aykj  -1.06840
gfz2010bfzs  -0.67294
gfz2010bgth  -0.31162
gfz2010bhhq  -0.34111
gfz2010bifb  -2.96360
gfz2010bjeb  -0.64218
gfz2010bjjx  -0.21159
gfz2010bjsl  -0.11382
gfz2010bkob  -0.93658
gfz2010bkos  -0.81856
gfz2010bowy  -0.77835
gfz2010boxo  -0.83767
gfz2010bxxs  -0.10221
gfz2010caft  -0.59181
gfz2010cbkg  -0.13833
gfz2010cdbt   0.49798
gfz2010civi  -1.00430
gfz2010ckzm  -0.08946
gfz2010cqwl  -0.21912
gfz2010czps  -1.66190
gfz2010dejx   0.55294
gfz2010diqn   0.33548
gfz2010dlgc   0.45583
gfz2010dumm  -0.12695
gfz2010eaoy  -0.99984
gfz2010eapk  -1.20760
gfz2010eapn  -0.57113
gfz2010eaqe  -1.23760
gfz2010eaqx  -0.45499
gfz2010eaqy  -0.88170
gfz2010earq  -0.61463
gfz2010earu  -2.00190
gfz2010easf  -1.02010
gfz2010easo  -1.12720
gfz2010eati  -1.18860
gfz2010eato  -0.06927
gfz2010eatt  -2.01410
gfz2010eaty  -0.58342
gfz2010eaul  -0.54235
gfz2010eavp  -0.88774
gfz2010eavs  -1.70330
gfz2010eawb  -1.41030
gfz2010eawu  -7.78970
gfz2010eaxa  -0.61480
gfz2010eaya  -1.01250
gfz2010eayd  -0.46428
gfz2010eayp  -1.54040
gfz2010eayx  -2.16490
gfz2010eaze  -0.62707
gfz2010eazu  -3.57960
gfz2010ebbd  -0.77514
gfz2010ebbx  -1.52110
gfz2010ebdl  -0.94157
gfz2010ebeh  -0.79432
gfz2010ebek  -0.55128
gfz2010ebfa   0.15722
gfz2010ebfx  -0.07852
gfz2010ebgj  -0.75717
gfz2010ebhc  -0.21670
gfz2010ebih  -2.78780
gfz2010ebiv  -0.41410
gfz2010ebjy  -0.87429
gfz2010ebkj  -1.65080
gfz2010ebkx  -0.47333
gfz2010ebla  -0.71387
gfz2010ebll  -0.19987
gfz2010ebnn  -0.89483
gfz2010ebpa  -0.88767
gfz2010ebsv  -0.78199
gfz2010ebvm  -1.68370
gfz2010ebvv  -0.73502
gfz2010ebwp  -0.44016
gfz2010ebxl  -0.88625
gfz2010ebze  -0.22919
gfz2010ebzk  -1.20510
gfz2010ebzr  -0.61429
gfz2010ecam  -1.12110
gfz2010ecbi  -0.74079
gfz2010eccq  -0.73583
gfz2010eced  -0.39567
gfz2010ecft  -1.11480
gfz2010ecfx  -0.40666
gfz2010ecfy  -0.44800
gfz2010ecgh  -0.69093
gfz2010echc  -0.52760
gfz2010echt  -1.31470
gfz2010echy  -0.15628
gfz2010ecka  -1.07710
gfz2010ecls  -1.17860
gfz2010ecml  -1.03770
gfz2010ecnm  -0.79931
gfz2010ecns  -0.99910
gfz2010ecps  -0.16261
gfz2010ecsp  -0.86371
gfz2010ectq  -1.16760
gfz2010ecua  -1.37520
gfz2010ecuv  -0.18490
gfz2010ecvt  -0.95077
gfz2010ecyr  -0.60315
gfz2010edad  -5.46340
gfz2010edat  -0.70216
gfz2010eday  -0.35639
gfz2010edbz  -1.46170
gfz2010edcp  -1.17410
gfz2010edde  -2.63670
gfz2010edhr   0.11457
gfz2010edim  -1.29890
gfz2010edji   0.13673
gfz2010edkp  -1.54660
gfz2010edpb  -0.47666
gfz2010edqh  -0.94987
gfz2010edsk  -0.37582
gfz2010edsn  -0.42199
gfz2010edvf  -0.53460
gfz2010edyi  -2.38300
gfz2010edzb  -0.96212
gfz2010eedu  -1.66270
gfz2010eedz   0.07580
gfz2010eefh  -0.60368
gfz2010eefo   0.78197
gfz2010eegn  -1.01080
gfz2010eeia  -0.99010
gfz2010eeij  -0.36823
gfz2010eekq  -1.23780
gfz2010eeng  -0.74793
gfz2010eerh  -1.57030
gfz2010eern  -0.49819
gfz2010eevu  -0.76077
gfz2010eexz  -1.04980
gfz2010eeyh  -0.89595
gfz2010efbh  -0.85931
gfz2010efbi   1.13050
gfz2010efkc  -0.20092
gfz2010efls  -0.72631
gfz2010efsq  -1.03210
gfz2010efxf  -1.24710
gfz2010egap  -0.41561
gfz2010eghq  -0.67425
gfz2010egld  -0.53915
gfz2010egln  -0.74575
gfz2010egmp  -0.57696
gfz2010egsw  -0.15965
gfz2010egyy  -1.19150
gfz2010ehft  -1.12450
gfz2010ehsy  -0.43948
gfz2010ehvj  -0.73406
gfz2010ehwg  -1.95600
gfz2010ehxz   0.67659
gfz2010eimf  -1.18910
gfz2010eioi  -0.75898
gfz2010eisx  -2.89450
gfz2010ejjg  -1.20160
gfz2010ejxf  -0.58833
gfz2010ekaw  -0.85623
gfz2010ekoe  -0.99672
gfz2010ekrv  -1.01520
gfz2010ekyc  -0.77971
gfz2010elhv  -0.71698
gfz2010elin  -1.33630
gfz2010eljf  -2.19600
gfz2010elsw   0.21149
gfz2010eltf  -1.02630
gfz2010elvp  -0.60207
gfz2010elxi  -1.22870
gfz2010elyc  -2.92110
gfz2010elyo  -0.24542
gfz2010elzf  -0.98412
gfz2010elzl  -0.34533
gfz2010emyz  -1.05980
gfz2010ensu  -1.33550
gfz2010enzl   0.02800
gfz2010eoao  -0.35534
gfz2010epbe  -0.42772
gfz2010epxj  -1.05850
gfz2010eqcn  -0.40358
gfz2010eqjg  -0.85451
gfz2010eqmu  -6.11080
gfz2010erdi  -2.10200
gfz2010erfy  -0.39307
gfz2010erig   0.32395
gfz2010erkn  -0.19196
gfz2010erna  -1.30400
gfz2010erom  -1.49720
gfz2010erum  -0.26681
gfz2010eruy  -0.02105
gfz2010erwn  -0.44113
gfz2010erxk   0.23212
gfz2010eryg  -0.83734
gfz2010esid   0.17490
gfz2010euii  -0.28736
gfz2010eujm  -1.68320
gfz2010eutw  -1.93250
gfz2010euvl  -1.21140
gfz2010euwb   0.26533
gfz2010euxe  -0.71803
gfz2010evco  -1.28600
gfz2010evgf  -0.85614
gfz2010evjv  -0.73812
gfz2010evkd  -1.00640
gfz2010ewbc   0.08446
gfz2010ewvc  -1.09860
gfz2010ewyu  -1.36750
gfz2010excp  -1.25610
gfz2010exdd  -1.10620
gfz2010exgb  -0.62408
gfz2010exhd  -0.74040
gfz2010exhw  -1.07110
gfz2010exjw  -1.11690
gfz2010exmc  -1.15240
gfz2010exno  -1.29850
gfz2010exyp  -0.55117
gfz2010eyhh  -0.62450
gfz2010eyiv  -0.17025
gfz2010eyvq  -0.29794
gfz2010ezck  -0.38712
gfz2010ezvg  -1.23040
gfz2010ezwz  -0.63362
gfz2010ezxd  -0.85807
gfz2010faeu  -1.46210
gfz2010falm  -1.35670
gfz2010fauz  -0.88580
gfz2010fbpi   1.50000
gfz2010fcax  -1.05430
gfz2010fcdw  -1.19490
gfz2010fciw  -1.26350
gfz2010fcnn  -0.93888
gfz2010fcnt  -1.21410
gfz2010fcxy   0.18768
gfz2010fcyj  -0.77468
gfz2010fczt  -1.42560
gfz2010fedq  -1.07310
gfz2010fefr  -0.65449
gfz2010ffhq  -1.30970
gfz2010ffjb  -0.94101
gfz2010ffui  -0.67701
gfz2010figq  -0.99393
gfz2010fika  -0.38190
gfz2010fixr  -1.06660
gfz2010fjal  -1.14820
gfz2010fjas   0.12117
gfz2010fkia  -1.00240
gfz2010fkvg  -1.00800
gfz2010flha  -2.14010
gfz2010flrt  -1.17780
gfz2010flxi  -1.17070
gfz2010fmwb   0.20528
gfz2010fneu  -0.95372
gfz2010fnrk   0.22518
gfz2010fpmv  -0.67591
gfz2010fpqy  -1.14620
gfz2010fqdu  -0.55519
gfz2010fser  -1.05070
gfz2010ftlm  -1.18190
gfz2010fupn  -1.26720
gfz2010fuuy  -0.73675
gfz2010fwkk  -0.81045
gfz2010fwlb  -0.27698
gfz2010fwny  -1.88320
gfz2010fwpv  -0.32517
gfz2010fyed  -1.68480
gfz2010fyen  -0.45240
gfz2010fync  -0.53337
gfz2010gcrl  -1.88650
gfz2010gcrp  -1.09730
gfz2010gjvo   0.57042
gfz2010glqr  -1.53480
gfz2010glxl  -1.26450
gfz2010grjd   0.48719
gfz2010gslu  -1.13720
gfz2010gtqs  -0.83363
gfz2010gtzt   0.53999
gfz2010gymo  -0.18606
gfz2010gyqp  -0.81710
gfz2010gzxr  -0.37792
gfz2010hbka   0.49829
gfz2010hcio  -0.38248
gfz2010hgld  -0.88658
gfz2010hjoc  -0.52672
gfz2010hlln  -1.35440
gfz2010hlmq  -0.07785
gfz2010hnnf   0.71878
gfz2010hnpi  -1.61330
gfz2010homc  -0.13274
gfz2010hptz  -1.52320
gfz2010hrkr  -0.14296
gfz2010hufk  -0.18517
gfz2010hxbs  -0.48923
gfz2010hxgv  -0.87762
gfz2010ibiy  -1.20540
gfz2010iciq  -0.69553
gfz2010icqq  -0.87018
gfz2010iibf  -1.02420
gfz2010iimu  -0.58032
gfz2010iobp  -0.89561
gfz2010iphd  -1.06850
gfz2010ipsg  -0.36911
gfz2010iqep  -1.47140
gfz2010iqfm  -0.37041
gfz2010irqr  -0.43471
gfz2010irvf  -1.12520
gfz2010itpb   0.77663
gfz2010izzj   0.01944
gfz2010jatq  -1.05850
gfz2010jipf  -1.42800
gfz2010jitt  -0.27414
gfz2010jpss   0.81353
gfz2010jpyj  -0.46379
gfz2010jqxx  -0.27184
gfz2010jssh   0.20358
gfz2010jtal  -0.51882
gfz2010jxbm  -1.58580
gfz2010jygz  -0.17176
gfz2010kihf  -1.91140
gfz2010kmgg   0.18245
gfz2010kyvj  -0.30502
gfz2010lcoq  -0.85807
gfz2010lepw   1.04690
gfz2010lgwy   0.04798
gfz2010liqs  -1.35800
gfz2010lkcf  -1.56580
gfz2010lopz  -0.21632
gfz2010lrlk   0.10225
gfz2010mdpq  -0.31921
gfz2010mgss  -0.62042
gfz2010mhjt   0.53855
gfz2010miil  -0.96890
gfz2010mkuu  -0.13253
gfz2010mlkz  -2.66250
gfz2010mlta  -2.29960
gfz2010mncc  -1.45360
gfz2010mnhm   0.08787
gfz2010mnsz   0.20572
gfz2010moyw  -1.88240
gfz2010mpuy  -1.06510
gfz2010mtab  -1.07350
gfz2010mwdq  -0.66449
gfz2010ncrl  -1.00090
gfz2010nfsj  -1.40500
gfz2010nlkh   0.06058
gfz2010nmpc  -2.30120
gfz2010nnny   0.48477
gfz2010nqwf  -0.66707
gfz2010nqwo  -1.74330
gfz2010nrew  -1.25870
gfz2010nrjo  -1.18700
gfz2010nsck  -0.54383
gfz2010nsjs  -0.40523
gfz2010ntuo  -1.05500
gfz2010nubk  -0.59677
gfz2010nwef  -0.64231
gfz2010nxsy  -0.81936
gfz2010nzha   0.41736
gfz2010nzla  -0.78348
gfz2010ocxq  -0.81843
gfz2010odpb  -0.15490
gfz2010oedn  -1.09380
gfz2010onma  -0.61012
gfz2010osjs  -2.01850
gfz2010otbn   0.15265
gfz2010pbdz  -0.12748
gfz2010pcxi  -0.81956
gfz2010pdtk  -0.92628
gfz2010pewa  -1.75760
gfz2010pewx  -0.43474
gfz2010pfyu  -0.65624
gfz2010phvg  -0.14329
gfz2010pmqd  -1.43470
gfz2010pqck  -4.61710
gfz2010pxak   0.07294
gfz2010pxgh  -0.21134
gfz2010qjst  -0.66845
gfz2010qpcq  -0.10114
gfz2010qpvi   0.39807
gfz2010qwwx  -2.19750
gfz2010rhas  -3.04260
gfz2010rlbv  -1.67510
gfz2010rqwj  -1.68650
gfz2010rzrr   4.20610
gfz2010rzsd   0.74598
gfz2010sfee  -0.39437
gfz2010sfla   6.04350
gfz2010skve  -1.42700
gfz2010srdb  -0.96918
gfz2010svtn  -0.87431
gfz2010swcy  -0.59333
gfz2010sxwt  -0.03982
gfz2010szde   0.61646
gfz2010tcrl  -0.18308
gfz2010txjs  -0.70198
gfz2010upfb  -1.07890
gfz2010usho   0.23116
gfz2010ustq  -1.98690
gfz2010utcg  -1.18380
gfz2010utmc  -0.85791
gfz2010utvp  -0.50946
gfz2010uvhf  -0.37668
gfz2010uyhb  -0.60042
gfz2010veri   1.80650
gfz2010vhuj  -0.06470
gfz2010vtdg  -0.24706
gfz2010vzpr  -0.89543
gfz2010wnty  -0.74959
gfz2010wofs  -0.19682
gfz2010wxqa  -0.16034
gfz2010xbdv  -0.49270
gfz2010xbgs   0.16157
gfz2010xden  -0.17599
gfz2010xgzw  -0.38735
gfz2010xjsj  -0.11428
gfz2010xmpr  -0.39681
gfz2010xnxk   0.01598
gfz2010ymfy   0.20222
gfz2010ymur   0.23757
gfz2010yosr  -0.16937
gfz2010yqwx  -1.35250
gfz2011aatr  -0.49143
gfz2011adjs  -2.19100
gfz2011ahfw  -0.26236
gfz2011alip  -0.26851
gfz2011alwf  -0.13855
gfz2011anur  -0.33257
gfz2011aqxf  -0.63462
gfz2011asru   0.36680
gfz2011aupi  -1.02470
gfz2011bgrp  -0.69709
gfz2011bhha   0.44937
gfz2011bnzn   0.76070
gfz2011bpkd  -0.33005
gfz2011ccpw   0.62240
gfz2011cfae   0.25588
gfz2011cndo  -1.22220
gfz2011coxh  -0.94710
gfz2011csju  -1.28300
gfz2011cvfg  -1.72010
gfz2011cykd  -2.38320
gfz2011cynl  -0.98089
gfz2011cyre  -1.88180
gfz2011cyuk  -2.16070
gfz2011czwj  -1.69780
gfz2011dbev  -1.23490
gfz2011dbig  -1.51530
gfz2011dbon  -0.79391
gfz2011dbwt  -1.47340
gfz2011dcqb   0.46066
gfz2011dddh   0.34989
gfz2011deaf  -0.71076
gfz2011dkyi  -0.36328
gfz2011dlyx  -0.52454
gfz2011dndz  -0.46854
gfz2011dpqx  -1.16730
gfz2011duyr  -0.73274
gfz2011eayc  -0.21867
gfz2011eazf   0.40456
gfz2011ecaj  -0.73797
gfz2011edmm  -0.52167
gfz2011eebc  -0.44270
gfz2011ehzq  -1.05630
gfz2011eltw  -0.35637
gfz2011enva  -0.64107
gfz2011etje   0.13713
gfz2011fgvr  -1.21230
gfz2011fhag  -0.10905
gfz2011fhbm   0.01944
gfz2011fhur  -0.68066
gfz2011fkbn   0.00969
gfz2011flgj  -0.00000
gfz2011fnsw   0.71162
gfz2011gbmx  -0.45575
gfz2011gcwb  -0.46290
gfz2011ggvf  -0.17651
gfz2011gkzt  -1.08220
gfz2011gzbr   0.12500
gfz2011haid   0.25244
gfz2011hbex  -0.65160
gfz2011hebt  -0.45318
gfz2011hfkj  -0.90025
gfz2011hlqw  -0.86483
gfz2011hlsa  -0.92637
gfz2011hlth  -0.65927
gfz2011hpgx  -0.46052
gfz2011hpqp  -0.89033
gfz2011hryk  -1.37950
gfz2011hsfj   2.02860
gfz2011hvbu  -1.67060
gfz2011icxe  -1.38670
gfz2011ieie  -1.00290
gfz2011iwte  -1.70590
gfz2011ixai  -0.08755
gfz2011izqa  -0.94049
gfz2011izto  -0.28259
gfz2011jdsj  -0.49086
gfz2011jghb  -3.02530
gfz2011jmbn   0.24805
gfz2011jplh  -0.74272
gfz2011jtlg  -1.56190
gfz2011juid  -1.29880
gfz2011jxpl  -0.56469
gfz2011knoo   0.14992
gfz2011kqwo  -0.88748
gfz2011kqyg  -1.45120
gfz2011kwjx  -2.11870
gfz2011kxzp  -0.65057
gfz2011lcxq   0.15148
gfz2011lgsg   0.16189
gfz2011lhls   0.14402
gfz2011lvjr   1.52720
gfz2011lzwj  -0.22652
gfz2011mdie  -0.04138
gfz2011mepc  -1.15320
gfz2011mjom   0.27192
gfz2011mllx  -0.43020
gfz2011mpme  -1.31330
gfz2011mprq   0.33215
gfz2011myia  -0.38180
gfz2011noud  -0.98069
gfz2011nrwc   0.24229
gfz2011ntkh  -0.50136
gfz2011nudm  -1.17830
gfz2011ogqk   0.24318
gfz2011ohcy   0.35209
gfz2011oiqe  -0.46705
gfz2011oiwk   0.02764
gfz2011olkk  -0.45711
gfz2011orgn  -0.74322
gfz2011phms  -0.89241
gfz2011pntf  -0.44337
gfz2011ptus  -0.07939
gfz2011qvae  -1.23600
gfz2011qyms   0.00000
gfz2011rabm  -0.03730
gfz2011rdby   1.05890
gfz2011rewa  -1.29020
gfz2011rgwp  -1.19120
gfz2011rqui  -0.01823
gfz2011rsrh  -1.17120
gfz2011sagt  -0.25841
gfz2011shqm   0.04825
gfz2011svix  -0.41482
gfz2011tcij  -0.58354
gfz2011tjue  -0.02587
gfz2011tkfp  -0.64177
gfz2011tkog   0.12776
gfz2011toub  -1.13360
gfz2011tpbl  -0.53724
gfz2011tpfr   0.21551
gfz2011tsfd   4.76640
gfz2011tsnp  -0.96027
gfz2011tuea   1.38110
gfz2011ugzz   0.07867
gfz2011ujze  -0.35715
gfz2011uphh  -0.16268
gfz2011urxy  -0.36217
gfz2011urzu  -0.09120
gfz2011uzqv   0.48819
gfz2011vhfi   0.19369
gfz2011vnza   0.03655
gfz2011vxns  -1.10010
gfz2011wcic  -1.35110
gfz2011wfja  -0.08924
gfz2011wjul  -0.47904
gfz2011wvzb   1.00750
gfz2011wwjs  -0.55113
gfz2011wxfs  -0.30852
gfz2011wxtk  -0.19315
gfz2011wype  -1.20310
gfz2011xcpv  -0.83171
gfz2011xesx   0.05230
gfz2011xqru   3.07980
gfz2011xyxj  -0.05233
gfz2011yfdx  -3.06830
gfz2011yhwz  -0.32230
gfz2011yzwq   0.74843
gfz2011zklv  -0.18063
gfz2011zqhh  -1.41730
gfz2012ajtq  -1.34700
gfz2012aqgp  -0.64512
gfz2012aqtq   0.24007
gfz2012bfah  -0.48091
gfz2012bfyn   0.10018
gfz2012bpkx  -1.12670
gfz2012bpnl  -0.27078
gfz2012bpwl  -0.33457
gfz2012bqeb   0.18193
gfz2012brhv   0.16327
gfz2012bszs   0.14616
gfz2012byad  -0.04101
gfz2012cgvr  -0.77954
gfz2012cmfy  -0.94866
gfz2012cnod  -0.13664
gfz2012covm  -0.01736
gfz2012cqnl  -1.99290
gfz2012cxdn  -0.97131
gfz2012czlw   0.06494
gfz2012dimn  -0.27939
gfz2012dinb   0.64024
gfz2012dyyh  -0.11422
gfz2012ekda  -0.47225
gfz2012ekzf  -1.04950
gfz2012elce  -0.40161
gfz2012emjg   0.08094
gfz2012enno  -0.90792
gfz2012ewgo  -0.04309
gfz2012fbfo  -0.72162
gfz2012fhnh   0.03784
gfz2012foeo  -0.08575
gfz2012fwfo  -1.00870
gfz2012fwtr  -0.46298
gfz2012fzfa  -1.39910
gfz2012fzsq   0.16363
gfz2012gkvr  -0.00000
gfz2012gocc   0.21971
gfz2012gomm   0.28521
gfz2012gukw   1.21740
gfz2012hnul  -1.19880
gfz2012holl  -1.10750
gfz2012icmv  -1.33670
gfz2012iivw   0.12674
gfz2012ilvn  -0.12486
gfz2012imay  -0.43077
gfz2012intn   0.11493
gfz2012jgvj   0.32513
gfz2012jjzc  -0.17849
gfz2012jlox  -0.69388
gfz2012jpeh  -1.16700
gfz2012jshk   0.34527
gfz2012jupx  -0.44116
gfz2012kbjb  -2.23080
gfz2012kbzj   0.13465
gfz2012keor  -2.26920
gfz2012kkup  -1.05240
gfz2012klhx  -0.24905
gfz2012kuct   0.09970
gfz2012kudo  -0.66138
gfz2012kwgo  -0.21080
gfz2012lczo  -1.43100
gfz2012ldgs   0.16960
gfz2012ldxg  -1.04160
gfz2012ldzj  -0.35164
gfz2012llug   2.30020
gfz2012lrol  -0.69523
gfz2012lxkv  -1.04900
gfz2012minr  -0.55776
gfz2012mupa   0.71770
gfz2012mvwr   0.01941
gfz2012mwij  -0.14813
gfz2012naqz  -1.39740
gfz2012nedn  -1.81210
gfz2012ngic  -0.81546
gfz2012nkdf  -0.98431
gfz2012nolo  -1.79240
gfz2012nqnk   0.06596
gfz2012nsbz   1.97180
gfz2012ntzv  -0.93308
gfz2012nutf  -0.42109
gfz2012nxog  -0.44201
gfz2012nxyt   0.14378
gfz2012oazn   0.15264
gfz2012omvo  -0.86902
gfz2012pgcl  -0.01908
gfz2012pkel   0.89158
gfz2012pqmu  -1.39900
gfz2012qxcy  -0.60823
gfz2012rats  -1.60990
gfz2012rcnj  -0.57017
gfz2012rjsd  -0.53774
gfz2012royy  -0.51538
gfz2012rwov  -0.69526
gfz2012rypu  -1.53460
gfz2012sfer  -0.95635
gfz2012spbj   0.40570
gfz2012sphd  -0.10159
gfz2012sqmv  -0.57861
gfz2012syvl  -0.22366
gfz2012tazz  -0.09175
gfz2012teic  -0.14036
gfz2012tmop  -0.48815
gfz2012ttoa  -0.66319
gfz2012tvmv   0.04885
gfz2012uafg  -1.32290
gfz2012uhup  -0.64236
gfz2012uvqf   0.62597
gfz2012uyxb  -0.68294
gfz2012uzom   0.57293
gfz2012vrgb  -0.07062
gfz2012vxvr   0.49834
gfz2012whku  -0.16521
gfz2012wklq  -3.57230
gfz2012wmsg   0.07312
gfz2012wvfl  -0.22115
gfz2012wxer   0.28541
gfz2012wxlg  -1.07810
gfz2012wybs  -0.10890
gfz2012wypz  -0.25725
gfz2012xbjq  -0.49382
gfz2012xcgk  -1.18240
gfz2012xjyv  -0.17268
gfz2012xslk   0.55776
gfz2012zemh  -0.51368
gfz2012zfag   0.39495
gfz2012zitl  -1.27130
gfz2012zjpv  -1.05910
gfz2012zklq   0.12735
gfz2013aayj   0.04513
gfz2013aqaw   2.15530
gfz2013axoj  -0.14728
gfz2013bokp  -1.51660
gfz2013cbsm  -0.71237
gfz2013ccnr  -1.57720
gfz2013dkly  -0.38455
gfz2013dofo  -0.80330
gfz2013dojq   0.95994
gfz2013drxz  -1.14630
gfz2013dsrk  -0.67412
gfz2013egni  -0.58621
gfz2013egpu  -0.61030
gfz2013ewbo  -0.33785
gfz2013fiud   0.50000
gfz2013fwxa  -0.34011
gfz2013fygc  -0.19337
gfz2013gdgf  -0.10690
gfz2013gdnq   4.11350
gfz2013gmor   0.61520
gfz2013gngz  -0.14490
gfz2013gock  -0.29268
gfz2013hmbc  -0.86873
gfz2013huwr  -0.10801
gfz2013hxcx   0.24858
gfz2013iayx   0.22755
gfz2013ifpq   0.84225
gfz2013ijsr   0.36867
gfz2013ikgo  -0.28297
gfz2013ilug  -0.53932
gfz2013inux   1.81560
gfz2013ippu   0.52081
gfz2013iunn   0.01790
gfz2013jesk   0.00000
gfz2013jgij  -0.77268
gfz2013jgip  -0.08111
gfz2013jkut  -0.02386
gfz2013jokw  -0.22660
gfz2013jusj  -1.11910
gfz2013jwvc  -0.38865
gfz2013kccc  -0.19158
gfz2013kdeo  -0.07674
gfz2013kheb  -0.16788
gfz2013khli   0.58657
gfz2013krei   0.37385
gfz2013kvtk  -0.21528
gfz2013lajg   0.57963
gfz2013ldpc  -0.09316
gfz2013ldqb  -0.78649
gfz2013lixa  -0.31298
gfz2013lmqe   0.01962
gfz2013lwbk  -0.05842
gfz2013mmwq   0.36286
gfz2013mqmv   0.26476
gfz2013mwbh  -0.38344
gfz2013mxee   0.24569
gfz2013ncjp  -0.74788
gfz2013ndin  -0.48015
gfz2013neuc  -1.12180
gfz2013nixj  -0.52643
gfz2013nkgj  -0.49470
gfz2013nmac  -0.69256
gfz2013nnzf  -0.39218
gfz2013nqgw  -0.10679
gfz2013nuvi   0.73130
gfz2013nwdi  -0.64777
gfz2013ogde   0.12713
gfz2013ozrf   0.72255
gfz2013ozrp   0.00000
gfz2013pfbx   0.14066
gfz2013pfeb  -0.69220
gfz2013phef  -0.15421
gfz2013pxsj  -1.07550
gfz2013qali   0.66194
gfz2013qmer  -0.40735
gfz2013qnxc   0.02135
gfz2013qzdq  -0.56368
gfz2013rait  -0.68466
gfz2013roki   0.74142
gfz2013rsnr  -0.16180
gfz2013sart   0.71381
gfz2013sdus   0.29448
gfz2013sfto  -0.25253
gfz2013shzy   0.45062
gfz2013skkm  -0.37751
gfz2013snbr  -0.28903
gfz2013suvn   0.35769
gfz2013svci  -0.94212
gfz2013tcbk  -0.46531
gfz2013tcxc  -1.21830
gfz2013tcxq  -1.06970
gfz2013tdau  -1.28490
gfz2013tlaf  -0.77777
gfz2013toxf   0.86385
gfz2013tusd   0.03862
gfz2013tvmw  -0.43257
gfz2013txij  -0.61749
gfz2013ufxk   1.10600
gfz2013vexx  -0.33717
gfz2013vfyw   0.03869
gfz2013vfzp  -2.66710
gfz2013viul   1.26910
gfz2013vjjc  -0.37804
gfz2013vqot   0.05477
gfz2013vsbl  -0.56625
gfz2013vvrq  -1.54270
gfz2013vzbo  -0.58598
gfz2013wjmm  -1.11620
gfz2013wkyk   0.17272
gfz2013xkwt   0.45537
gfz2013xsdt  -0.59079
gfz2013xxwv  -0.26796
gfz2013xxxq  -0.32217
gfz2013xyzb   0.40265
gfz2013yctg  -0.99921
gfz2013yhbu   0.35765
gfz2013yhpk  -0.14858
gfz2013ylbx  -3.06480
gfz2013ypdc   1.27390
gfz2013yqkv   0.76074
gfz2013yyhc   0.02662
gfz2014adoj  -0.31889
gfz2014afmx  -0.44426
gfz2014ajlk   0.25341
gfz2014algk  -0.47414
gfz2014ande   0.44934
gfz2014arpf  -0.83465
gfz2014atgw  -0.22975
gfz2014bagd  -0.54865
gfz2014bldx  -0.42687
gfz2014bmta  -0.62834
gfz2014bwue  -0.42055
gfz2014bzxy  -0.48601
gfz2014caop   0.87539
gfz2014chdv  -0.70282
gfz2014cmwb  -0.05472
gfz2014cvxx  -0.10196
gfz2014czol  -0.18911
gfz2014czqi  -0.28949
gfz2014czua   0.28763
gfz2014dffd  -0.10178
gfz2014dhxt   0.26551
gfz2014disp  -0.08704
gfz2014duqn   0.40247
gfz2014eght  -1.88020
gfz2014egwu  -4.24470
gfz2014ehsf   0.44875
gfz2014ekcr  -0.37440
gfz2014ekdn  -0.72709
gfz2014enhi  -0.81945
gfz2014ettc  -0.01756
gfz2014fcms  -0.12081
gfz2014femz  -0.05546
gfz2014fgvi   0.19229
gfz2014fgvr   1.40740
gfz2014fgvz   1.47000
gfz2014fgxt   0.47245
gfz2014fgxz   0.28472
gfz2014fgyo   0.46137
gfz2014fgza  -0.05799
gfz2014fhbd   0.74520
gfz2014fhdw  -0.06780
gfz2014fhla  -1.33060
gfz2014fhrq   0.25875
gfz2014fhsg  -0.23208
gfz2014fhwx   0.68728
gfz2014fjzd   0.72505
gfz2014fkmr  -0.28999
gfz2014fkmx  -0.08349
gfz2014flfa   1.16250
gfz2014fnyg  -0.01256
gfz2014foio   0.76503
gfz2014frdz   0.47269
gfz2014frez   0.40618
gfz2014frgm  -0.06744
gfz2014frwh   0.76932
gfz2014ftka   0.16481
gfz2014ftpw   0.15959
gfz2014ftrk   0.08420
gfz2014furx   0.16429
gfz2014fusc   0.40333
gfz2014fusj   0.39341
gfz2014fuub   0.96896
gfz2014fval   0.38452
gfz2014fvgh   0.43241
gfz2014fvrg   0.38228
gfz2014gbcz  -1.20970
gfz2014gbdq   0.29139
gfz2014ghpe  -0.28491
gfz2014gkgf  -0.74907
gfz2014gkhp  -0.03385
gfz2014gkhy  -0.62065
gfz2014gkjl   0.71126
gfz2014gkjt  -0.36215
gfz2014gklq  -0.05900
gfz2014gklv   0.00000
gfz2014gkmm  -0.49513
gfz2014gkob  -0.24878
gfz2014gkpj  -1.34990
gfz2014gkqf   0.59284
gfz2014gkqu   0.82344
gfz2014gksj   0.56164
gfz2014gksu  -0.26130
gfz2014gktq   0.24565
gfz2014gkut  -1.75280
gfz2014gkxm   0.62606
gfz2014glcu   0.35577
gfz2014glcy   0.32630
gfz2014glgo   0.29316
gfz2014gmci   0.92561
gfz2014gmge  -0.74847
gfz2014gmhp   1.09780
gfz2014gmhr  -1.90380
gfz2014gmip   0.00000
gfz2014gmku   0.62382
gfz2014gmlz  -1.72230
gfz2014gmmt  -0.36514
gfz2014gmnb  -0.29616
gfz2014gmnw   0.05885
gfz2014gmor   0.44768
gfz2014gmuk   0.05814
gfz2014gmzl   0.43196
gfz2014gndq   0.80765
gfz2014gngg   1.10420
gfz2014gnnt   0.70076
gfz2014gnre   0.76755
gfz2014goba  -0.35686
gfz2014goqw   0.56861
gfz2014gori   0.84945
gfz2014gpce   0.50530
gfz2014gphr  -0.37137
gfz2014gpuk  -0.94492
gfz2014gpya   0.33154
gfz2014gqer   0.72453
gfz2014gqiy   0.55551
gfz2014gqve   0.08840
gfz2014gsqs   0.49445
gfz2014gull   0.00000
gfz2014gulp  -0.18174
gfz2014gumd   1.44210
gfz2014gvqj  -0.36472
gfz2014gvrd  -0.18543
gfz2014gwab   1.80770
gfz2014gxkh   0.22489
gfz2014gxxo   0.43772
gfz2014hagb   0.46512
gfz2014hasj  -0.29775
gfz2014hauo   0.56273
gfz2014hbjz   0.45799
gfz2014hbqb  -0.14186
gfz2014hcmj   0.12031
gfz2014hfhl   0.76510
gfz2014hgqo  -0.33188
gfz2014hjgr   0.00379
gfz2014hjij   0.58878
gfz2014hjlx   0.14991
gfz2014hkcf   0.12942
gfz2014hocg  -0.50961
gfz2014hphw   0.25245
gfz2014hqxs   0.38376
gfz2014hrft  -0.40588
gfz2014hriu  -0.48297
gfz2014hrtn   0.95571
gfz2014hscz  -0.44040
gfz2014hzfw  -1.31330
gfz2014hzgn   2.93480
gfz2014icqt   0.11734
gfz2014ifue   0.46779
gfz2014ilwu   0.31001
gfz2014imnn   0.16544
gfz2014irci  -0.52688
gfz2014itbe   0.44107
gfz2014itgh   0.60372
gfz2014itjx   0.20097
gfz2014itkw  -0.02032
gfz2014itpj   1.00840
gfz2014iwwl   0.96978
gfz2014ixga   0.74516
gfz2014ixky  -0.11634
gfz2014iywt   0.21134
gfz2014jcjt  -0.99970
gfz2014jjhc  -0.16743
gfz2014jjln   0.20787
gfz2014jnyv  -0.17312
gfz2014jomw   0.61898
gfz2014jpep   0.19993
gfz2014jwmh   0.44945
gfz2014kara  -0.22985
gfz2014khan  -0.54155
gfz2014khlk  -2.10240
gfz2014kitm   0.52037
gfz2014kkhh   0.10406
gfz2014kndc   0.09436
gfz2014knks  -0.33235
gfz2014knxs  -0.32384
gfz2014kwrg   0.13978
gfz2014kyan   0.17488
gfz2014kytf  -0.21833
gfz2014lddn  -2.17330
gfz2014lefs  -0.54016
gfz2014lgqn  -0.63004
gfz2014lkyf   0.29702
gfz2014lmge   0.10641
gfz2014lrzx  -0.09128
gfz2014lxnc   0.06640
gfz2014lyhp  -0.03390
gfz2014macx   0.30558
gfz2014madw   0.24050
gfz2014mtum  -2.39740
gfz2014nnih   0.50855
gfz2014nnxd  -0.37544
gfz2014nowp  -0.49275
gfz2014npdk  -0.57640
gfz2014npeo  -0.45322
gfz2014nphm   0.09191
gfz2014nqfm  -0.09180
gfz2014nrie  -0.39405
gfz2014nyeh   0.76677
gfz2014nylm   0.63453
gfz2014oinz  -0.10395
gfz2014owxc  -1.84020
gfz2014oxcc  -0.16660
gfz2014oyly  -0.12527
gfz2014pkll  -1.18690
gfz2014ppzf  -0.24226
gfz2014pqqp   2.99150
gfz2014pvch  -0.02318
gfz2014pzml  -0.77901
gfz2014qlxd  -0.12542
gfz2014qngj  -0.92913
gfz2014qqhm  -0.62402
gfz2014raau  -1.22480
gfz2014rbsl  -0.17222
gfz2014rdsn  -1.23790
gfz2014riel   0.00000
gfz2014rkwl  -0.16545
gfz2014sadu   0.42936
gfz2014sjqw  -0.45812
gfz2014sryn  -1.19320
gfz2014ssmv  -0.90668
gfz2014ssvz  -0.98226
gfz2014szzf  -0.71683
gfz2014tovs  -0.16031
gfz2014tqdo  -0.37263
gfz2014tqsf   0.60573
gfz2014tzsd  -0.04359
gfz2014ubwn   0.10462
gfz2014udgg  -1.04440
gfz2014uohh  -0.22263
gfz2014utac  -0.59307
gfz2014vcev  -1.07480
gfz2014vhld  -0.26728
gfz2014waoo  -0.07433
gfz2014watn  -0.58233
gfz2014wjko  -0.05953
gfz2014wmsc  -0.40938
gfz2014wwib  -1.38980
gfz2014xbyr   0.05808
gfz2014xjri  -0.33802
gfz2014xqby  -0.10462
gfz2014xqqd  -0.31937
gfz2014yhhm   0.82391
gfz2014yppv   0.52065
gfz2014yula  -1.16110
gfz2014zlgp  -0.21905
gfz2014zplq   0.12579
gfz2015apnk   0.22819
gfz2015arpd   0.00776
gfz2015aruz  -0.59439
gfz2015berb  -0.39960
gfz2015bfjm  -0.31156
gfz2015bkbj  -0.16172
gfz2015bphe   2.00540
gfz2015bucr   0.55860
gfz2015bvsj  -0.07310
gfz2015byfn  -0.68114
gfz2015byjd  -0.33979
gfz2015chhn  -1.07190
gfz2015chqn  -0.07637
gfz2015cxhx  -0.24430
gfz2015cxxk  -0.33573
gfz2015cyjd   0.20226
gfz2015czfv  -0.70972
gfz2015dizn  -1.11420
gfz2015dskr   0.12864
gfz2015dvbn  -0.20339
gfz2015ecgq  -2.67340
gfz2015eeyq  -0.40597
gfz2015eezy   0.71671
gfz2015egxq   0.34877
gfz2015ehpz   0.25947
gfz2015eiky   0.00000
gfz2015elgy  -0.97981
gfz2015eljz  -1.08120
gfz2015emtg   0.37572
gfz2015etai  -1.23840
gfz2015eyqs  -0.04684
gfz2015fbbk   0.11100
gfz2015fcua   0.00000
gfz2015fdpr  -0.10939
gfz2015fjhk   0.12560
gfz2015fkgt  -0.85298
gfz2015fkkd   0.72811
gfz2015fkuu   0.00000
gfz2015flis  -0.56663
gfz2015fsjj  -0.01750
gfz2015fvoi   0.11966
gfz2015fxdi  -0.22099
gfz2015fyvk   0.37098
gfz2015gckd   0.13647
gfz2015ggjw   0.06187
gfz2015gjbr   0.47191
gfz2015gkwa   0.88602
gfz2015gmgf   0.29272
gfz2015gzja  -0.20883
gfz2015hdcp  -0.27599
gfz2015hgbk  -0.05240
gfz2015hlqo  -0.98703
gfz2015iele   0.95714
gfz2015imty   0.27516
gfz2015iwqk   2.00170
gfz2015ixyy  -0.31223
gfz2015jkdw   0.05420
gfz2015jmlf  -1.75160
gfz2015jmlu   0.58516
gfz2015jpap   2.81340
gfz2015jwgl  -0.59373
gfz2015jxbx   0.17803
gfz2015jzcv   0.04727
gfz2015kakw   0.03499
gfz2015kcaa   0.28245
gfz2015kkqb  -0.18227
gfz2015kkth  -0.07240
gfz2015kphk   0.19523
gfz2015kquq   0.64629
gfz2015ksni  -0.41069
gfz2015lfma   0.44287
gfz2015lfud  -0.08984
gfz2015lhjq  -0.21076
gfz2015lhjy   0.27761
gfz2015ltii   0.20825
gfz2015lytv  -1.20190
gfz2015lzad  -1.08550
gfz2015mddr  -0.27454
gfz2015mfpy  -0.89418
gfz2015mpte  -1.46860
gfz2015nerz  -0.91022
gfz2015nqgf  -0.02113
gfz2015ntpk   0.04677
gfz2015nuxz  -0.44285
gfz2015nwug  -0.44991
gfz2015ocdz  -1.57270
gfz2015okmq  -0.10904
gfz2015orkl  -0.47258
gfz2015oyfl  -0.39214
gfz2015pjgr  -0.91155
gfz2015plal  -0.00000
gfz2015poni  -0.24729
gfz2015qnho  -0.33902
gfz2015qnto  -0.18130
gfz2015quzo   0.62916
gfz2015rgov   0.50766
gfz2015rgrg  -0.58955
gfz2015rkbq  -1.55440
gfz2015rkrg  -1.65160
gfz2015rkzg  -0.04747
gfz2015rwsb  -0.60315
gfz2015saet   0.21417
gfz2015sevh   0.03789
gfz2015sfdd  -1.08140
gfz2015sfdy  -0.05637
gfz2015sfeo  -0.26799
gfz2015sfga  -1.11010
gfz2015sfhz  -0.69049
gfz2015sfiq   0.21597
gfz2015sfkh  -0.68068
gfz2015sfko  -0.79319
gfz2015sfkz  -0.86391
gfz2015sflf  -0.07488
gfz2015sfln  -0.30880
gfz2015sfmd   0.98819
gfz2015sfnb  -1.52920
gfz2015sfno  -1.10620
gfz2015sfnv  -0.03250
gfz2015sfoc  -0.56400
gfz2015sfoq   1.22570
gfz2015sfqo  -0.23960
gfz2015sfqr  -0.43401
gfz2015sfrf  -0.21011
gfz2015sfsi   0.92448
gfz2015sftu  -0.67506
gfz2015sfuc  -0.88416
gfz2015sfwf   0.30564
gfz2015sfzm   0.77428
gfz2015sgad  -0.06388
gfz2015sgmm   0.02656
gfz2015sgmr   0.66602
gfz2015sgyd  -0.16985
gfz2015shhg   0.08291
gfz2015shhu  -0.69039
gfz2015shjn  -0.44776
gfz2015shjo  -0.20737
gfz2015shrg  -1.90040
gfz2015sist  -1.02110
gfz2015sitn   0.23557
gfz2015sjfi   0.52160
gfz2015sjgk  -0.03869
gfz2015sjjb   0.74926
gfz2015sjne  -0.07280
gfz2015sjoj  -0.47444
gfz2015sjvu  -0.33353
gfz2015sjwi  -0.74422
gfz2015skab  -1.01830
gfz2015sklu  -0.68800
gfz2015skpv  -0.45685
gfz2015skuk  -0.04267
gfz2015skxu  -0.22334
gfz2015sldx  -1.17140
gfz2015sljs   1.48920
gfz2015slun  -0.07422
gfz2015smym  -0.73410
gfz2015snhn   0.05383
gfz2015snmg   0.06744
gfz2015snmr  -0.65914
gfz2015snsf  -0.58385
gfz2015snwh  -1.20320
gfz2015snyd  -0.02488
gfz2015soat  -0.04230
gfz2015soxc  -0.90407
gfz2015sqbg  -0.45983
gfz2015sqmy  -0.80496
gfz2015srat  -0.45725
gfz2015stfy   0.08548
gfz2015stso  -0.06150
gfz2015susq  -0.38573
gfz2015svjy   0.21899
gfz2015svwm  -0.88292
gfz2015sxmh  -0.17321
gfz2015szcb  -0.57157
gfz2015sztx  -0.53374
gfz2015taml   0.66189
gfz2015tezd   0.79126
gfz2015tghj   0.18231
gfz2015thgc  -0.82602
gfz2015thwp   0.25530
gfz2015tixi  -0.91612
gfz2015tiyc  -1.15570
gfz2015tjhv  -0.18579
gfz2015tkol  -0.55041
gfz2015tlba  -0.71588
gfz2015tlkf  -0.10950
gfz2015tlok  -0.77794
gfz2015tnjd  -0.37948
gfz2015tpra  -0.40868
