# Nsamples: 151  MAD:  1.212  mean:  0.472  variance:  2.613
gfz2010bfzs  -2.05460
gfz2010bxxs  -0.45548
gfz2010czps   0.33564
gfz2010eaoy  -2.64830
gfz2010eapk  -1.00480
gfz2010eapn  -1.58290
gfz2010eaqe  -1.38960
gfz2010eaqx  -0.66984
gfz2010eaqy  -1.26270
gfz2010earq   1.53360
gfz2010earu  -0.60224
gfz2010easf  -2.36490
gfz2010easo  -0.78361
gfz2010easu  -0.39449
gfz2010eati  -1.21480
gfz2010eato  -0.83013
gfz2010eatt  -0.32295
gfz2010eaty  -1.73840
gfz2010eavs  -2.09810
gfz2010eawb   1.52050
gfz2010eaxa  -0.13834
gfz2010eayd   0.22647
gfz2010eazu  -0.79657
gfz2010ebbd   0.39546
gfz2010ebek  -0.02098
gfz2010ebfa   2.11990
gfz2010ebgj  -1.06850
gfz2010ebih   0.58288
gfz2010ebjy  -0.07111
gfz2010ebkj  -0.40679
gfz2010ebla  -0.51389
gfz2010ebll   3.97600
gfz2010ebmb   0.03447
gfz2010ebmi   2.93230
gfz2010ebnn  -1.28810
gfz2010ebvm  -4.45580
gfz2010ebvv  -0.52622
gfz2010ebzk   1.25540
gfz2010ebzr  -0.40742
gfz2010ecay  -1.77000
gfz2010ecbi  -0.10274
gfz2010ecdu   0.59474
gfz2010echt   1.29090
gfz2010ecsp   0.18027
gfz2010ecua   0.01697
gfz2010ecvt   0.00000
gfz2010edim   0.83117
gfz2010edyi   0.74859
gfz2010eeij  -0.32644
gfz2010eerh   0.93233
gfz2010eevu   0.31533
gfz2010egap  -0.12761
gfz2010ehft   2.65330
gfz2010eisx  -0.69463
gfz2010elhv  -0.12956
gfz2010eltf  -0.37350
gfz2010elyc   0.88645
gfz2010epxj   8.46070
gfz2010epzk   1.23440
gfz2010erna   1.06600
gfz2010euae   2.26850
gfz2010euii  -0.86980
gfz2010eujm   1.14840
gfz2010excp  -0.27794
gfz2010exdd  -1.07500
gfz2010exdl   0.12750
gfz2010ezck  -0.62770
gfz2010fcax   1.00900
gfz2010fedq   2.43760
gfz2010ffhq   0.73804
gfz2010fihj   0.33213
gfz2010flha   0.83524
gfz2010fync  -1.12010
gfz2010glxl  -0.65271
gfz2010gyqp  -0.21997
gfz2010gzxr  -0.07359
gfz2010hxgv   3.04900
gfz2010iobp  -0.56762
gfz2010iull   0.46683
gfz2010jxbm  -1.15930
gfz2010lruw  -1.05280
gfz2010moyw   0.53873
gfz2010nmpc   0.57172
gfz2010nqwo  -0.03616
gfz2010pewa   0.54716
gfz2010rqwj  -1.56060
gfz2010upfb  -0.13808
gfz2011aatr  -0.89502
gfz2011adjs  -1.02650
gfz2011cvfg  -0.19590
gfz2011cykd   0.17829
gfz2011cyre   4.88780
gfz2011cyuk   1.67270
gfz2011dbev   0.27416
gfz2011dbig  -0.40375
gfz2011dbon   1.79720
gfz2011dcqb  -0.76529
gfz2011dpqx   0.99395
gfz2011ecaj   0.13237
gfz2011hfkj   1.12430
gfz2011kqwo   0.14021
gfz2011nudm   1.83200
gfz2011rewa  -0.50622
gfz2011vhfi   2.46970
gfz2011wcic   1.68200
gfz2011xyxj   1.89900
gfz2012ajtq   1.09540
gfz2012bfah   2.78100
gfz2012bpkx   0.67416
gfz2012bpwl   4.51450
gfz2012cxdn   1.82320
gfz2012fbfo   0.98667
gfz2012hnul   1.38040
gfz2012nkdf   0.17997
gfz2012uhup   1.38450
gfz2012wklq   0.74806
gfz2013ccnr   1.07260
gfz2013drxz   1.08980
gfz2013jusj  -1.52310
gfz2013vfzp   3.86190
gfz2013vjjc   3.17620
gfz2013wjmm   0.46867
gfz2013xsdt   1.39490
gfz2014enhi  -0.33289
gfz2014gbcz   1.41490
gfz2014gmge   6.42010
gfz2014goba   2.94620
gfz2014gpya   3.47310
gfz2014hzfw   1.55190
gfz2014osvz   0.21525
gfz2014qngj   0.06636
gfz2015chhn  -0.05058
gfz2015elgy   0.77780
gfz2015etai   0.66461
gfz2015fkgt   0.48495
gfz2015gckd   2.71030
gfz2015lytv   0.03771
gfz2015qnho   0.99588
gfz2015sfdd  -0.25402
gfz2015sfdl   0.00767
gfz2015sfdy   1.27740
gfz2015sfno  -0.22638
gfz2015sfnv   0.51702
gfz2015sjgk  -0.85158
gfz2015smym   0.31134
gfz2015snwh   0.71870
gfz2015soxc   0.62225
gfz2015svwm  -0.01954
gfz2015szcb   1.73170
gfz2015taml   1.89590
gfz2015tnjd  -0.34038
