# Nsamples: 93  MAD:  1.269  mean:  1.244  variance:  2.823
gfz2010bxxs   1.39890
gfz2010czps   1.40050
gfz2010eaoy   0.54855
gfz2010eaqe  -0.04580
gfz2010eaqx  -7.47630
gfz2010eaqy   2.88660
gfz2010earu   0.71890
gfz2010easo   0.74464
gfz2010easu   0.71018
gfz2010eati   0.77243
gfz2010eato  -0.52184
gfz2010eatt  -1.08010
gfz2010eaty   0.70479
gfz2010eavs  -0.18080
gfz2010eaxa  -0.27031
gfz2010eazu  -0.02005
gfz2010ebvm   0.39764
gfz2010ebvv   0.10019
gfz2010ebzr   0.65843
gfz2010ecam   1.35100
gfz2010ecay   0.06390
gfz2010ecsp   0.68483
gfz2010ecua   1.48140
gfz2010edde   1.45440
gfz2010edyi   1.77250
gfz2010eeij   0.34637
gfz2010eevu   0.93520
gfz2010egap   0.09230
gfz2010egld   3.21570
gfz2010eisx   6.61510
gfz2010ekyc   1.93710
gfz2010eltf  -0.21833
gfz2010elyc   1.88130
gfz2010eujm  -0.12073
gfz2010eutw   1.50970
gfz2010excp   0.50962
gfz2010exdd  -0.28464
gfz2010exdl  -0.75969
gfz2010ezck  -0.09100
gfz2010fedq   2.07660
gfz2010ffhq   0.66273
gfz2010fpqy   1.58300
gfz2010fync   0.34587
gfz2010gyqp   1.67190
gfz2010iobp   0.25342
gfz2010iqnm   2.08910
gfz2010iull   2.19140
gfz2010jxbm   2.22570
gfz2010moyw   0.30013
gfz2010nmpc   2.03880
gfz2010nqwo  -0.85137
gfz2010rqwj  -0.48334
gfz2010upfb   1.08100
gfz2011aatr   0.56434
gfz2011adjs   1.40010
gfz2011cvfg   1.22970
gfz2011cykd   4.00200
gfz2011cyuk   3.04660
gfz2011dbig   3.93460
gfz2011dcqb   3.08560
gfz2011ecaj   2.03390
gfz2011kqwo   2.59670
gfz2011rewa   1.33780
gfz2011vhfi  -0.32073
gfz2011vrhg   3.38520
gfz2012bfah   3.08910
gfz2012bpkx   0.31423
gfz2012fzfa   1.43280
gfz2012hnul   2.33080
gfz2012wklq   2.32890
gfz2013ccnr   4.17740
gfz2013drxz   5.45030
gfz2013jusj   0.01665
gfz2013vjjc   2.20240
gfz2014enhi   0.77201
gfz2014gbcz   2.74890
gfz2014gkgf   4.48440
gfz2014gmhr   4.43670
gfz2014qngj   0.66205
gfz2015chhn   1.19550
gfz2015jwgl   0.44614
gfz2015lytv   1.13460
gfz2015qnho   2.34460
gfz2015sfdd   1.34950
gfz2015sfdy   1.89440
gfz2015sfhz   1.02770
gfz2015sfno   0.26772
gfz2015sghq   0.60050
gfz2015sjgk   0.86981
gfz2015snwh   2.52240
gfz2015soxc   0.94350
gfz2015svwm   1.53440
gfz2015tnjd  -0.22999
