# Nsamples: 80  MAD:  0.797  mean:  1.413  variance:  2.109
gfz2010bfzs   0.23819
gfz2010bxxs   1.65030
gfz2010czps   0.70467
gfz2010eaoy  -0.68960
gfz2010eapk   1.29610
gfz2010eapn   0.40662
gfz2010eaqe   0.36399
gfz2010eaqx  -0.20548
gfz2010eaqy   0.62731
gfz2010earu   1.13700
gfz2010easo   1.60070
gfz2010easu   0.87058
gfz2010eati   0.44726
gfz2010eato   0.62047
gfz2010eatt  -1.23500
gfz2010eaty   1.11530
gfz2010eavs   1.03340
gfz2010eawb   2.10590
gfz2010eaxa   0.92221
gfz2010eaxn   1.24690
gfz2010eayd   1.04920
gfz2010eaze  -0.97375
gfz2010eazu   0.63664
gfz2010ebjy   1.87570
gfz2010ebkj   1.19840
gfz2010ebla   1.26870
gfz2010ebmb   0.75301
gfz2010ebmi   4.70350
gfz2010ebnn   1.04190
gfz2010ebvm   3.34150
gfz2010ebvv   0.86589
gfz2010ebzr   1.02800
gfz2010ecay   0.68586
gfz2010ecbi   0.82441
gfz2010ecdu   3.01510
gfz2010ecsp  -0.95572
gfz2010ecua   1.62750
gfz2010ecvt   1.17340
gfz2010edde   2.10240
gfz2010edyi   2.62680
gfz2010eeij  -0.18323
gfz2010eerh  -0.95755
gfz2010eevu   1.10600
gfz2010egap   0.22401
gfz2010ejjg   1.15640
gfz2010elhv   0.34514
gfz2010eltf   1.26430
gfz2010elyc   3.81520
gfz2010eqjg   3.08910
gfz2010erna   0.87332
gfz2010euae  -2.25180
gfz2010eujm   3.26130
gfz2010euvl   3.10490
gfz2010euxe   4.69380
gfz2010evco   2.14260
gfz2010excp   0.84318
gfz2010exdd   0.41419
gfz2010exdl   1.17710
gfz2010exed   2.00800
gfz2010exno   1.36150
gfz2010ezck   0.67304
gfz2010fcax   2.01960
gfz2010fedq   1.59130
gfz2010ffhq   0.61208
gfz2010flha   0.58520
gfz2010fpqy   2.69200
gfz2010fync   0.60624
gfz2010glxl   1.27990
gfz2010gslu   3.22240
gfz2010gyqp   1.66510
gfz2010gzxr   2.11840
gfz2010hxgv   6.20410
gfz2010iobp   0.94635
gfz2010iull   2.27320
gfz2010jxbm   1.04140
gfz2010moyw   3.25720
gfz2010nmpc   1.53100
gfz2010pewa   3.99340
gfz2010tcrl   5.72380
gfz2010upfb   1.37120
