# Nsamples: 871  MAD:  0.707  mean: -0.106  variance:  1.020
gfz2010czps  -1.52930
gfz2010ddzo   0.74576
gfz2010dejx   1.10890
gfz2010dfru   0.00887
gfz2010eaoy  -1.15790
gfz2010eapk  -2.52030
gfz2010eapn   0.38859
gfz2010eaqe   2.98710
gfz2010eaqy  -0.48639
gfz2010earu  -0.46624
gfz2010easo  -1.74120
gfz2010easu   0.96359
gfz2010eati  -1.11050
gfz2010eato  -0.93673
gfz2010eatt   2.39030
gfz2010eaul  -0.76254
gfz2010eavd  -1.04540
gfz2010eavs  -0.17675
gfz2010eawb   1.07160
gfz2010eawu  -1.45810
gfz2010eaxa  -0.07404
gfz2010eazu  -3.93840
gfz2010ebbd  -0.30136
gfz2010ebby  -2.35260
gfz2010ebek  -1.66100
gfz2010ebfa   0.74990
gfz2010ebhc  -0.12434
gfz2010ebin   2.41590
gfz2010ebkj  -1.33510
gfz2010ebla   0.28815
gfz2010ebll  -0.50375
gfz2010ebnn  -0.94995
gfz2010ebpa  -1.23030
gfz2010ebsv  -1.10650
gfz2010ebvm  -0.79687
gfz2010ebvv  -0.51936
gfz2010ebxl  -0.13648
gfz2010ebzr  -1.13800
gfz2010echc  -0.30472
gfz2010echt  -0.44727
gfz2010echy   0.05450
gfz2010ecps  -0.16024
gfz2010ecsp  -0.32775
gfz2010ecua  -1.18840
gfz2010ecuv  -0.57751
gfz2010ecvt  -0.13724
gfz2010edat  -0.81983
gfz2010eday  -0.65954
gfz2010edbz  -0.82650
gfz2010edcp   2.67550
gfz2010edhr   1.33680
gfz2010edhv   0.55048
gfz2010edim  -1.09200
gfz2010edji  -0.96713
gfz2010edkp   0.02077
gfz2010edvf  -0.04413
gfz2010edyi  -2.04360
gfz2010eedu  -1.05710
gfz2010eefh   0.28992
gfz2010eegn  -1.08030
gfz2010eeij  -1.10540
gfz2010eekq  -0.41214
gfz2010eerh  -0.95153
gfz2010eern  -0.32426
gfz2010eevu  -0.58337
gfz2010efsq  -1.09780
gfz2010egap  -0.21531
gfz2010eghq  -0.38528
gfz2010egld  -0.50616
gfz2010egln  -0.63889
gfz2010egmp  -0.16655
gfz2010egyy  -0.25713
gfz2010eisx  -1.55490
gfz2010eixj  -1.24820
gfz2010ejjg  -1.86260
gfz2010ejxf  -0.96112
gfz2010ekaw  -0.92105
gfz2010ekoe  -1.17530
gfz2010ekrv  -0.91077
gfz2010ekyc  -0.72954
gfz2010elhv  -1.13700
gfz2010eltf  -0.30729
gfz2010elyc  -0.66292
gfz2010elyo   0.07405
gfz2010enzl   0.15884
gfz2010eohh  -0.79049
gfz2010epxj   1.05440
gfz2010eqjg  -0.52368
gfz2010eqmu   1.14480
gfz2010erkn   0.13715
gfz2010erom  -1.00220
gfz2010eruy  -0.26412
gfz2010erwn   0.10856
gfz2010eryg  -0.32569
gfz2010esid   1.85330
gfz2010esmg   1.28340
gfz2010eujm  -0.89133
gfz2010euxe  -0.30838
gfz2010evco   0.27268
gfz2010excp  -1.19140
gfz2010exdd  -1.47650
gfz2010exdl  -0.80187
gfz2010exmc  -0.72240
gfz2010exno  -1.42450
gfz2010ezck  -1.14050
gfz2010faeu   1.48570
gfz2010falm  -2.05840
gfz2010fauz   1.48550
gfz2010fczt  -1.11640
gfz2010fedq  -1.46250
gfz2010fefr   0.65951
gfz2010fexw  -0.34438
gfz2010ffhq  -1.69530
gfz2010ffui  -0.78393
gfz2010fika   0.37478
gfz2010flha  -1.36760
gfz2010flrt   1.37090
gfz2010flxi  -1.23640
gfz2010fmwb  -1.60130
gfz2010fpqy  -0.29924
gfz2010fqdu  -0.10237
gfz2010fser  -0.25239
gfz2010ftlm  -0.70668
gfz2010fupn  -1.07240
gfz2010fwlb   0.73713
gfz2010fwpv  -0.26546
gfz2010fync  -0.48632
gfz2010gcdn  -1.56200
gfz2010gcrl  -1.71910
gfz2010gdld  -0.92800
gfz2010gjia  -2.00250
gfz2010glqr  -1.20530
gfz2010grjd   0.53534
gfz2010gslu  -1.46500
gfz2010gwmp   0.37282
gfz2010gyqp  -0.85266
gfz2010gzxr  -0.16074
gfz2010hcio   0.88719
gfz2010hjoc  -0.43308
gfz2010hlmq  -0.49160
gfz2010hlvr   0.25068
gfz2010homc   0.49223
gfz2010hrkr  -0.22929
gfz2010hxbs  -1.74000
gfz2010hxgv  -0.53550
gfz2010ibiy   0.02100
gfz2010iimu  -0.42128
gfz2010imsh  -0.88186
gfz2010iobp  -0.88820
gfz2010irvf  -0.78729
gfz2010itpb  -0.27917
gfz2010iull  -0.23444
gfz2010jwpy   0.46874
gfz2010jxbm  -1.72250
gfz2010jygz   0.39795
gfz2010lepw   1.10600
gfz2010lgwy  -0.07516
gfz2010liqs  -1.67490
gfz2010lkcf  -1.63930
gfz2010mdpq  -0.20172
gfz2010mkuu   0.11463
gfz2010mncc  -0.27644
gfz2010moyw  -1.11720
gfz2010msjj   1.20230
gfz2010mwdq   2.24260
gfz2010mzjr  -0.09377
gfz2010nfsj  -0.69291
gfz2010nlkh  -0.65742
gfz2010nmpc  -2.23340
gfz2010nqwf  -0.67816
gfz2010nqwo  -1.50380
gfz2010nubk   0.03926
gfz2010nwef  -0.39786
gfz2010odpb   0.18610
gfz2010oedn  -0.65141
gfz2010onma  -0.17075
gfz2010oyqy  -0.45187
gfz2010pbdz   0.16136
gfz2010pcxi  -0.38248
gfz2010pfyu  -0.03739
gfz2010pmqd  -1.78020
gfz2010qpvi   0.41249
gfz2010rqwj  -0.07408
gfz2010sfee   0.04279
gfz2010skqo  -0.37056
gfz2010skve   6.19190
gfz2010svtn  -0.54282
gfz2010swcy  -0.15038
gfz2010tcrl   1.00110
gfz2010txjs  -0.30257
gfz2010upfb  -0.52430
gfz2010usho   0.31790
gfz2010ustq   1.01910
gfz2010utcg  -0.80024
gfz2010utmc  -0.00000
gfz2010uyhb   2.61810
gfz2010veri  -1.66930
gfz2010vhuj  -0.33656
gfz2010vtdg  -0.06017
gfz2010vyxd   0.47620
gfz2010vzpr   0.00000
gfz2010wioh  -0.43929
gfz2010wnty  -0.49222
gfz2010wofs  -0.10260
gfz2010xgzw  -0.44762
gfz2010xjck  -0.32856
gfz2010xjsj   0.12222
gfz2010xnxk   0.28495
gfz2010yjev   2.68470
gfz2010ymfy   0.49316
gfz2010ymur  -0.34838
gfz2010yosr   0.12054
gfz2011aatr  -0.27952
gfz2011adjs  -1.17290
gfz2011alip   0.16709
gfz2011alsa  -0.02175
gfz2011anur  -0.55372
gfz2011aqxf  -0.13791
gfz2011blsi   1.17250
gfz2011bpkd  -0.20436
gfz2011bswz   1.32560
gfz2011ccpw   0.05280
gfz2011cfae   0.70217
gfz2011cndo  -0.64547
gfz2011csju  -1.28740
gfz2011cvfg  -0.29740
gfz2011cykd  -2.19950
gfz2011cylz  -0.63783
gfz2011cynl  -0.66790
gfz2011cyre   0.53192
gfz2011cyuk  -0.03955
gfz2011dbev  -1.41500
gfz2011dbig  -1.68000
gfz2011dbon  -0.57565
gfz2011dcqb  -1.24090
gfz2011dcqf  -0.00000
gfz2011deaf  -0.38249
gfz2011dmat  -0.36769
gfz2011dpqx  -0.81191
gfz2011eayc   0.22661
gfz2011eazf   0.70387
gfz2011ecaj  -0.24614
gfz2011edmm  -0.02041
gfz2011eebc  -0.67263
gfz2011ehzq  -1.13460
gfz2011eltw  -0.58733
gfz2011enva  -0.79946
gfz2011etje   0.28029
gfz2011fdzv  -0.28263
gfz2011fgvr   1.03160
gfz2011fhbm   0.45166
gfz2011fhur   1.62270
gfz2011flgj  -0.23407
gfz2011fnsw   0.37415
gfz2011gbmx  -0.38527
gfz2011gkzt  -0.80646
gfz2011haid   8.03710
gfz2011hbex  -0.32085
gfz2011hebt  -0.11249
gfz2011hfkj  -1.52340
gfz2011hlqw  -0.48229
gfz2011hlsa  -0.60161
gfz2011hlth  -0.11852
gfz2011hpqp  -0.81255
gfz2011iwte  -2.10450
gfz2011ixai   0.07740
gfz2011izqa  -1.03520
gfz2011jdsj  -0.04646
gfz2011jmbn  -0.46055
gfz2011jnmi   1.09330
gfz2011jplh  -0.29518
gfz2011knoo   0.53250
gfz2011kqwo  -1.11280
gfz2011kwjx  -0.38448
gfz2011kxzp  -0.85414
gfz2011lcxq  -0.42419
gfz2011lgsg  -0.55534
gfz2011lhls   0.32157
gfz2011lvjr  -0.40288
gfz2011lzwj   0.14437
gfz2011mdie  -0.02336
gfz2011mpme  -0.40095
gfz2011nrwc   0.48809
gfz2011ntkh   0.76488
gfz2011nudm  -1.14990
gfz2011ogqk  -2.27280
gfz2011ohcy   0.29307
gfz2011oiqe   0.45377
gfz2011oiwk  -0.11583
gfz2011olkk   0.16912
gfz2011orgn  -0.76668
gfz2011ornx  -0.03295
gfz2011owvz   0.48235
gfz2011ozsl  -2.29920
gfz2011phms   6.78880
gfz2011qyms   1.13220
gfz2011rewa  -0.91494
gfz2011xyxj   0.18753
gfz2011yybo  -0.67986
gfz2011yzwq  -0.11068
gfz2011zklv  -0.39092
gfz2011zqhh  -0.58195
gfz2012aqtq   0.04689
gfz2012attr  -0.07449
gfz2012bfah  -0.17129
gfz2012bpkx  -1.02110
gfz2012bpnl  -0.67403
gfz2012bpwl  -0.31764
gfz2012bszs   0.22626
gfz2012byad  -0.45398
gfz2012cgvr  -0.55096
gfz2012covm   1.47190
gfz2012cxdn  -1.17710
gfz2012czlw   0.09982
gfz2012dyyh   0.25694
gfz2012ekda   0.08784
gfz2012ekzf  -0.22049
gfz2012emjg   0.60997
gfz2012enno  -0.45919
gfz2012ewgo   0.26755
gfz2012foeo   0.13672
gfz2012fzfa  -0.58907
gfz2012gkvr   0.70370
gfz2012gwmu  -1.84460
gfz2012hnul  -1.66630
gfz2012hogg   0.59810
gfz2012iivw   0.81630
gfz2012ilvn  -1.07470
gfz2012jlox  -0.39454
gfz2012jupx  -0.29313
gfz2012kbjb  -1.29370
gfz2012kkup  -0.61247
gfz2012klhx   0.16049
gfz2012kuct   0.53811
gfz2012kudo   0.19910
gfz2012kwgo   0.16764
gfz2012lczo  -0.87942
gfz2012ldxg  -0.97026
gfz2012ldzj   0.04873
gfz2012lxkv  -1.17990
gfz2012minr  -0.24538
gfz2012mupa  -0.05871
gfz2012mvwr   0.04741
gfz2012mwij  -0.22445
gfz2012myqa   0.91777
gfz2012nsbz  -0.18692
gfz2012nutf  -0.28684
gfz2012nxog  -0.31618
gfz2012oazn   0.44396
gfz2012oedb  -0.36733
gfz2012omvo  -1.08470
gfz2012oqmw  -0.27575
gfz2012pgcl  -0.32329
gfz2012pkel  -0.09843
gfz2012pqmu  -0.79868
gfz2012qjhs  -0.71848
gfz2012rjsd   0.99696
gfz2012royy  -0.43857
gfz2012rwov  -0.43313
gfz2012rypu  -1.73410
gfz2012sphd   0.09793
gfz2012syvl  -0.09456
gfz2012taou   0.55552
gfz2012tazz   0.15308
gfz2012teic  -0.18250
gfz2012tmop  -0.33576
gfz2012ttoa  -0.24380
gfz2012uafg  -1.39590
gfz2012uaqj   0.50729
gfz2012uciv  -0.36073
gfz2012uvqf   1.05750
gfz2012uyxb   0.08813
gfz2012uzom  -0.00000
gfz2012vdbt   1.94750
gfz2012vrgb  -0.06968
gfz2012vsev  -0.57813
gfz2012whku  -0.13756
gfz2012wklq  -1.75540
gfz2012wmkd   1.19910
gfz2012wmsg  -0.03907
gfz2012wpeq  -0.04639
gfz2012wxlg  -0.68436
gfz2012wybs   0.04659
gfz2012wypz  -0.10592
gfz2012xbjq  -0.57757
gfz2012xcgk  -0.98445
gfz2012xslk   1.01350
gfz2012xvwn  -0.60714
gfz2012zfag  -0.08767
gfz2012ziml  -0.39960
gfz2012zitl   0.09557
gfz2012zjpv  -1.14770
gfz2013aahq  -1.09590
gfz2013aayj   0.18206
gfz2013adey  -9.58810
gfz2013aqaw   3.42940
gfz2013axoj   0.00000
gfz2013ccnr  -1.54350
gfz2013cdan   0.20357
gfz2013cptb   0.01892
gfz2013cvqg  -0.46674
gfz2013dofo  -0.42235
gfz2013drxz  -0.51286
gfz2013dvyh   0.25790
gfz2013fiud   0.55017
gfz2013fwxa  -0.48607
gfz2013gock   0.13836
gfz2013hxcx   0.61306
gfz2013iayx   0.23192
gfz2013ikgo   0.00738
gfz2013ippu   0.55521
gfz2013iunn  -0.41236
gfz2013jesk   0.56845
gfz2013jgij  -0.12336
gfz2013jgip  -0.27684
gfz2013jkut   0.00820
gfz2013jokw  -0.12548
gfz2013jusj   0.45400
gfz2013jwvc  -0.56038
gfz2013kccc   1.01180
gfz2013kdeo   0.02894
gfz2013khli   0.79160
gfz2013kilx   0.00508
gfz2013ldpc   0.07634
gfz2013ldqb  -0.35691
gfz2013lixa  -0.12687
gfz2013lmrs   0.01504
gfz2013lwbk   0.45674
gfz2013lyko  -0.19416
gfz2013mmwq   0.94819
gfz2013mqmv   0.53683
gfz2013mwbh   0.64907
gfz2013mxee   0.09139
gfz2013ncjp  -0.29153
gfz2013ndin   0.00229
gfz2013nixj  -0.53569
gfz2013nkgj   0.20184
gfz2013nknw  -0.69785
gfz2013nmac  -0.28743
gfz2013nqgw   0.61254
gfz2013nwdi  -0.95152
gfz2013orjg  -0.39486
gfz2013pcos   0.50437
gfz2013pfbx   0.24417
gfz2013pkbs   0.82356
gfz2013pxsj  -0.51706
gfz2013qali   0.80996
gfz2013qcck   0.49339
gfz2013qmer  -0.38265
gfz2013qwbv  -0.42749
gfz2013qzdq  -0.40098
gfz2013reym  -0.40054
gfz2013sdus   0.66185
gfz2013sfto   1.33390
gfz2013skkm  -0.33494
gfz2013suvn   0.46653
gfz2013svci  -0.96405
gfz2013tusd   0.55979
gfz2013tvmw  -0.10446
gfz2013ufxk  -0.46335
gfz2013ufxm   0.73992
gfz2013uqsp  -0.24891
gfz2013vexx   0.05864
gfz2013vfyw  -1.17450
gfz2013vfzp  -0.44842
gfz2013vgrk  -0.71174
gfz2013viul   0.37225
gfz2013vjjc   0.15270
gfz2013vrmy   1.08900
gfz2013vthd   0.60650
gfz2013vvrq  -1.27280
gfz2013vzbo  -0.73924
gfz2013wjmm  -1.13580
gfz2013wkyk   0.66259
gfz2013wmfd   0.27608
gfz2013wqhq  -0.01443
gfz2013xkbh   1.02490
gfz2013xkwt   0.70105
gfz2013xmul   0.05031
gfz2013xsdt  -0.41959
gfz2013yctg  -0.79725
gfz2013yhbu   1.55700
gfz2013yhpk   0.19159
gfz2013yqkv   0.43793
gfz2014abgd   0.79227
gfz2014afmx  -0.24582
gfz2014algk  -0.18572
gfz2014ande   0.69427
gfz2014atgw   0.10587
gfz2014bagd  -0.62500
gfz2014bezu   0.38700
gfz2014bfng   0.05564
gfz2014bfqo   1.11720
gfz2014bmta  -0.27311
gfz2014bwue   0.27323
gfz2014bzxy  -0.28774
gfz2014capn   0.90295
gfz2014chdv  -0.25251
gfz2014cmwb  -0.00000
gfz2014crpy  -0.22153
gfz2014cvxx   0.04129
gfz2014czno  -0.04251
gfz2014czqi  -0.13244
gfz2014czua   0.38330
gfz2014dffd   0.02720
gfz2014disp  -0.68128
gfz2014duqn   0.21272
gfz2014eght   0.90667
gfz2014femz  -0.06460
gfz2014fexu   1.26490
gfz2014ffdc   1.57460
gfz2014fgvi   0.40536
gfz2014fgvr   1.49320
gfz2014fgxt   0.73926
gfz2014fgxz   0.43716
gfz2014fgyo   0.68759
gfz2014fgza   0.66441
gfz2014fhbd   1.00750
gfz2014fhdw   0.20531
gfz2014fhla  -0.52595
gfz2014fhlh  -0.59510
gfz2014fhrq   0.07599
gfz2014fhwx   1.50190
gfz2014fimn   0.91818
gfz2014fjzd   1.03070
gfz2014fkmr  -0.00000
gfz2014fkmx  -0.29140
gfz2014fles   1.84320
gfz2014fnyg  -0.10768
gfz2014frdz   0.96753
gfz2014frel  -0.42331
gfz2014frez   0.61894
gfz2014frgm   0.61895
gfz2014frwh   1.44500
gfz2014fszc  -1.01340
gfz2014ftka  -0.31063
gfz2014ftoc   0.17184
gfz2014ftpw   0.69878
gfz2014ftrk   0.31917
gfz2014furx   1.45210
gfz2014fusc   0.62458
gfz2014fusj  -0.15925
gfz2014fuub   1.32170
gfz2014fval   0.92926
gfz2014fvgh   0.79957
gfz2014fvrg   0.74537
gfz2014gbcz  -1.08680
gfz2014gbdq   0.86517
gfz2014geuy   1.08400
gfz2014gezs   3.89330
gfz2014ghpe  -0.07405
gfz2014gkgf  -0.18953
gfz2014gkgs   0.19332
gfz2014gkhp  -0.51933
gfz2014gkhy   0.28702
gfz2014gkjl   0.92512
gfz2014gkjt   0.19266
gfz2014gklq  -0.39950
gfz2014gklv   0.42415
gfz2014gkmm   0.14808
gfz2014gkob   0.25691
gfz2014gkok   0.28356
gfz2014gkpd   0.29695
gfz2014gkpj   0.58255
gfz2014gkqf   0.87782
gfz2014gkqu   1.02450
gfz2014gksj   0.81493
gfz2014gksu   0.02486
gfz2014gktq   0.17231
gfz2014gkxm  -0.56826
gfz2014glcu   0.72875
gfz2014glcy   0.04141
gfz2014glgo   1.55710
gfz2014gltx   0.45958
gfz2014gmge   0.10928
gfz2014gmhr  -0.75493
gfz2014gmnb   0.25042
gfz2014gmnw   0.49922
gfz2014gmuk   0.47569
gfz2014gmzl   0.66037
gfz2014gmzs  -0.45960
gfz2014gnfd   0.94333
gfz2014gnfs  -0.40439
gfz2014gngg   0.90043
gfz2014gnnt   0.74231
gfz2014gnre   1.22030
gfz2014gnxb   0.42446
gfz2014goba  -0.21607
gfz2014gogv   0.03583
gfz2014goqw  -1.84620
gfz2014gphr   0.12196
gfz2014gpuk   0.53875
gfz2014gpya   0.08456
gfz2014gqbj   0.72690
gfz2014gqer   0.10382
gfz2014gqqz   0.08322
gfz2014gqve   0.80807
gfz2014grcv   0.66976
gfz2014gsqs   1.10890
gfz2014gull   0.13434
gfz2014gulp  -0.29952
gfz2014gumd   1.67470
gfz2014gutm  -0.69932
gfz2014gvhw   0.14208
gfz2014gvqj   0.99817
gfz2014gvra   0.60547
gfz2014gvrd   0.35682
gfz2014gwab   1.68300
gfz2014gxag   0.17253
gfz2014gxxh  -0.69140
gfz2014gxxo   0.52947
gfz2014gyxd   0.60541
gfz2014haos  -0.82402
gfz2014hasj   0.13214
gfz2014hbjm  -0.12840
gfz2014hbjz   0.80702
gfz2014hbqb   0.16673
gfz2014hcmj   0.34189
gfz2014hetr  -0.17336
gfz2014heum   0.58680
gfz2014hfhl   0.95814
gfz2014hgqo   0.13462
gfz2014hjgh   0.39209
gfz2014hjgr   0.32685
gfz2014hjij   0.41569
gfz2014hjlx   1.30000
gfz2014hkcf   0.40922
gfz2014hkck  -0.47776
gfz2014hmrs   0.00000
gfz2014hocg  -0.09718
gfz2014hqxs   1.08000
gfz2014hscz  -0.20635
gfz2014huaj   1.20120
gfz2014ifue   0.73743
gfz2014ilwu   0.29122
gfz2014imnn   0.47091
gfz2014iobd   0.33813
gfz2014irci   1.03050
gfz2014itab   0.77640
gfz2014itbe   0.03995
gfz2014itfc   0.25995
gfz2014itgh   0.47019
gfz2014itjx   0.25387
gfz2014itkw   0.28535
gfz2014itpj   0.96203
gfz2014iuhq   0.89351
gfz2014iwnf  -0.05251
gfz2014iwwl   0.35318
gfz2014ixky  -0.13241
gfz2014iywt   0.70535
gfz2014jggm   0.98837
gfz2014jjhc  -0.11073
gfz2014jjln   0.72925
gfz2014jmnk  -0.55585
gfz2014jnyv   0.02086
gfz2014jomw   0.90770
gfz2014jpep   0.99441
gfz2014jwmh   0.38229
gfz2014khan   0.16087
gfz2014khlk  -0.88748
gfz2014kndc   0.05484
gfz2014knks  -0.08105
gfz2014kscf  -3.00120
gfz2014kyan   0.48247
gfz2014lgqn  -0.46065
gfz2014lpim  -6.18170
gfz2014lrzx   0.11567
gfz2014lxnc   0.11013
gfz2014lxqr  -2.69410
gfz2014lyhk  -0.18309
gfz2014lyhp   0.35087
gfz2014macx   0.24474
gfz2014madw   0.50595
gfz2014mcno   0.64176
gfz2014mcse   1.45960
gfz2014navw   0.06062
gfz2014nowp  -0.20857
gfz2014npeo  -0.72872
gfz2014nphm   0.34313
gfz2014nqfm   0.12384
gfz2014nrie  -0.39173
gfz2014ntdh  -0.35479
gfz2014nyeh   0.18899
gfz2014nyfb   0.97478
gfz2014nylm   0.33287
gfz2014odgv   0.21938
gfz2014oinz   0.02464
gfz2014orxs   0.10849
gfz2014oryw  -0.15569
gfz2014owxc   0.34147
gfz2014oyly   0.33502
gfz2014pkll  -0.79399
gfz2014ppzf  -0.00853
gfz2014pvch   0.20807
gfz2014qlvc  -0.14180
gfz2014qlxd  -0.08485
gfz2014qngj  -0.75817
gfz2014qqhm  -0.70243
gfz2014raau  -0.94588
gfz2014rdsn  -0.97624
gfz2014rhwq   0.11226
gfz2014riel   0.02705
gfz2014romy  -0.40686
gfz2014rwos   0.04692
gfz2014sadu   0.63801
gfz2014sryn  -0.12524
gfz2014ssmv  -1.44880
gfz2014ssvz  -0.67993
gfz2014szzf  -0.29473
gfz2014tabg  -0.16184
gfz2014tqdo  -0.19835
gfz2014tqsf   0.46249
gfz2014tqth   4.47730
gfz2014tzsd   0.20186
gfz2014ubwn  -0.00000
gfz2014uohh  -0.12449
gfz2014uvrk  -0.97353
gfz2014vhld   0.35423
gfz2014vhms  -1.13730
gfz2014waoo  -0.53986
gfz2014watn  -0.24981
gfz2014wjko  -0.01975
gfz2014wmsc  -0.71460
gfz2014wrkh  -1.58720
gfz2014xbyr   0.71755
gfz2014xoji  -0.58318
gfz2014xqqd  -0.29680
gfz2014yhhm   0.61483
gfz2014ynhc   1.44340
gfz2014yrug  -0.67546
gfz2014zdtl  -0.10025
gfz2014zkys   0.28828
gfz2014zlgp   0.11857
gfz2015apnk   0.05041
gfz2015arpd   0.00496
gfz2015aruz  -0.33075
gfz2015atxv  -0.30689
gfz2015bdyd  -0.17402
gfz2015berb   0.24276
gfz2015bkbj   0.62057
gfz2015byjd  -0.17800
gfz2015chhn  -1.24030
gfz2015chqn   0.27994
gfz2015cxhx  -0.53873
gfz2015cxxk   0.14770
gfz2015cyjd   0.89177
gfz2015czfv  -0.82387
gfz2015dizn  -1.38110
gfz2015dskr   0.51763
gfz2015dvbn   0.19007
gfz2015egxq   0.32157
gfz2015ehpz   0.48598
gfz2015eiky   0.27130
gfz2015emtg   0.22748
gfz2015etai  -1.71800
gfz2015fbbk   0.37037
gfz2015fcua   0.31370
gfz2015fdpr   0.22991
gfz2015fkbc   1.11100
gfz2015fkgt  -1.10910
gfz2015fkic  -0.47651
gfz2015flis  -0.81135
gfz2015fsjj   0.00162
gfz2015fwnf   0.06596
gfz2015fxdi  -0.13641
gfz2015gckd   0.44057
gfz2015gjbr   1.02640
gfz2015gkwa  -0.65445
gfz2015gzja  -0.68281
gfz2015hgbk   0.30713
gfz2015hhbd   0.46172
gfz2015imty   0.39230
gfz2015ixyy  -0.63494
gfz2015jxbx  -0.05777
gfz2015jzcv   0.65736
gfz2015kakw  -0.16701
gfz2015kcaa   0.29521
gfz2015kkth   0.10956
gfz2015ksni  -0.35402
gfz2015lcma  -0.08076
gfz2015lfud   0.19917
gfz2015lhjq  -0.38387
gfz2015lhjy   0.40086
gfz2015lytv  -0.35659
gfz2015lzad  -0.62480
gfz2015mddr   0.23722
gfz2015mpte  -1.60150
gfz2015nuxz  -0.20597
gfz2015nwug  -0.53480
gfz2015ocdz  -2.30000
gfz2015okmq   0.09878
gfz2015oyfl  -0.31977
gfz2015pdri   0.53039
gfz2015plal   0.17052
gfz2015poni  -0.52181
gfz2015qnho  -0.42687
gfz2015qpvd   0.63152
gfz2015quzo  -0.58013
gfz2015rddx  -0.73505
gfz2015rkrg  -0.73623
gfz2015rkzg   0.22609
gfz2015roac  -0.20743
gfz2015saet   0.75384
gfz2015sevh   0.27663
gfz2015sfdd  -1.31180
gfz2015sfdy  -0.90603
gfz2015sfeo   0.39840
gfz2015sfga  -0.44564
gfz2015sfhz  -0.84676
gfz2015sfiq  -0.37063
gfz2015sflf  -0.60525
gfz2015sfnb  -1.09050
gfz2015sfno  -1.37410
gfz2015sfnv  -0.31071
gfz2015sfoc  -0.64028
gfz2015sfqo  -0.70161
gfz2015sfqr   0.84910
gfz2015sfrf  -0.62292
gfz2015sfwf   0.17140
gfz2015sfzm   0.46136
gfz2015sgad  -0.86193
gfz2015sghq  -1.72730
gfz2015sgyd  -0.50208
gfz2015shhg  -0.43994
gfz2015shhu  -0.23629
gfz2015shjn  -1.03640
gfz2015shjo  -0.13861
gfz2015shrg  -1.46670
gfz2015shsz  -1.08250
gfz2015sist  -0.89410
gfz2015sitn  -0.10449
gfz2015sjbx  -0.41967
gfz2015sjfi   0.21623
gfz2015sjgk  -0.70194
gfz2015sjjb   0.03854
gfz2015sjne  -0.21813
gfz2015sjoj  -0.61418
gfz2015sjvu  -0.51681
gfz2015sjwi  -0.20961
gfz2015sklu  -0.51086
gfz2015skpv  -0.37881
gfz2015skxu  -0.24042
gfz2015sldx  -1.24840
gfz2015sljs   0.85600
gfz2015slun   0.27316
gfz2015smym  -0.71162
gfz2015snmr  -0.81711
gfz2015snsf  -0.49525
gfz2015snwh  -1.25090
gfz2015snyd  -0.47845
gfz2015soat  -0.20867
gfz2015soxc  -1.13990
gfz2015srat  -0.65219
gfz2015subg  -1.74010
gfz2015subz  -0.10437
gfz2015svwm  -1.23710
gfz2015szcb  -0.50469
gfz2015sztx  -0.93016
gfz2015taml   0.71542
gfz2015teyc  -0.74524
gfz2015tezd   0.41393
gfz2015thwp  -0.05802
gfz2015tixi  -0.73655
gfz2015tiyc  -1.43150
gfz2015tjhv  -0.29108
gfz2015tkol  -0.65576
gfz2015tlba  -0.05573
gfz2015tlkf  -0.08630
gfz2015tnjd  -0.47278
gfz2015tpra  -0.51548
gfz2015tqff   0.44567
