# Nsamples: 1529  MAD:  0.731  mean:  0.400  variance:  4.423
gfz2010aban   2.78410
gfz2010aerk   0.36253
gfz2010ahqi   0.76730
gfz2010aykj  -0.96645
gfz2010bfzs  -0.32600
gfz2010bgth   0.07874
gfz2010bhhq   0.50319
gfz2010bifb  -2.19910
gfz2010bjeb   0.11498
gfz2010bjjx   1.01830
gfz2010bjsl  -0.35641
gfz2010bkob   0.21454
gfz2010bowy  -0.02502
gfz2010boxo   0.45100
gfz2010bpda   0.01955
gfz2010bxxs   0.67825
gfz2010caft   0.67614
gfz2010cbkg   0.15091
gfz2010cdbt   1.81390
gfz2010chnv   1.53970
gfz2010cind   1.19530
gfz2010civi  -0.30420
gfz2010ckeu  -0.12896
gfz2010ckzm   0.70727
gfz2010cnwc  -0.80420
gfz2010cqwl   0.97286
gfz2010cres   0.38070
gfz2010ctuw   0.24426
gfz2010czps  -1.15060
gfz2010ddzo   1.25270
gfz2010dejx   1.49620
gfz2010dfru   1.58740
gfz2010diqn   1.36500
gfz2010dlgc   0.87548
gfz2010dtmx   1.01280
gfz2010dumm   0.38078
gfz2010eaoy  -0.37651
gfz2010eapn   0.04002
gfz2010eaqe   0.00051
gfz2010eaqx   0.73260
gfz2010eaqy  -0.51926
gfz2010earu  -0.70769
gfz2010easf   1.44100
gfz2010eask  -7.73350
gfz2010easo  -0.44895
gfz2010easu  -0.12994
gfz2010eati   0.34175
gfz2010eato   0.23865
gfz2010eatt  -1.17990
gfz2010eaty   0.66065
gfz2010eaul   0.70941
gfz2010eavs  -0.53149
gfz2010eawb  -0.14402
gfz2010eawu  -8.87840
gfz2010eaxa   0.69077
gfz2010eaya  -1.33600
gfz2010eayd  -0.29623
gfz2010eayp  -0.80460
gfz2010eayx   0.38429
gfz2010eaze   0.53884
gfz2010eazu  -3.36410
gfz2010ebbd  -0.31871
gfz2010ebbx  -1.99480
gfz2010ebby   1.77790
gfz2010ebdl   0.34813
gfz2010ebeh  -0.31813
gfz2010ebek   0.36401
gfz2010ebfa   0.06615
gfz2010ebfx   0.23307
gfz2010ebgj   0.34759
gfz2010ebhc   0.90985
gfz2010ebih  -0.75678
gfz2010ebin  -2.14030
gfz2010ebiv   1.17940
gfz2010ebjy  -0.51568
gfz2010ebkj  -0.61820
gfz2010ebla   0.69445
gfz2010ebll  -0.15986
gfz2010ebmb  -0.04070
gfz2010ebmi  -0.28226
gfz2010ebnn  -0.11000
gfz2010ebqt   0.38198
gfz2010ebrm   0.01446
gfz2010ebsv   1.00960
gfz2010ebvm   0.50539
gfz2010ebvv  -0.32119
gfz2010ebwp   0.13424
gfz2010ebxl   0.29393
gfz2010ebze   0.15175
gfz2010ebzk   0.27239
gfz2010ebzr  -0.17604
gfz2010ecam  -0.17341
gfz2010ecay   0.00904
gfz2010ecbi  -0.19198
gfz2010eccq   1.04680
gfz2010ecdu  -0.55610
gfz2010eced   1.25090
gfz2010ecft  -0.45106
gfz2010ecfx   0.38253
gfz2010ecgh   1.11780
gfz2010echc   0.26643
gfz2010echt   0.21263
gfz2010echy   1.40340
gfz2010ecka  -0.27872
gfz2010ecls  -0.34767
gfz2010ecml  -0.67611
gfz2010ecns  -0.68094
gfz2010ecps   0.21729
gfz2010ecro  -0.48662
gfz2010ecsp   0.45732
gfz2010ectq  -0.11617
gfz2010ecua  -0.75674
gfz2010ecuv   0.75015
gfz2010ecvt   0.52034
gfz2010ecyr   0.31535
gfz2010edad   0.78150
gfz2010edat  -0.00000
gfz2010edbz   0.73022
gfz2010edcp   0.48737
gfz2010edde  -0.45187
gfz2010edhr   0.44842
gfz2010edhv   0.64694
gfz2010edim  -0.32646
gfz2010edkp  -0.11041
gfz2010edoq   0.06128
gfz2010edpb   0.08634
gfz2010edqd  -0.10694
gfz2010edsk   0.49152
gfz2010edsn   1.37080
gfz2010edun  -0.35205
gfz2010edvf   0.37268
gfz2010edyi  -1.50380
gfz2010edzb   0.33075
gfz2010eedu  -0.63973
gfz2010eefh   0.30142
gfz2010eefo  -0.26625
gfz2010eegn  -0.68731
gfz2010eeia   0.52099
gfz2010eeij   0.22081
gfz2010eekg   1.64820
gfz2010eekq  -0.28136
gfz2010eeng   0.56796
gfz2010eerh  -0.14953
gfz2010eern   0.34289
gfz2010eesf   0.37574
gfz2010eevu  -0.22735
gfz2010eexz  -0.11962
gfz2010eeyh   0.80628
gfz2010efak   0.66406
gfz2010efbh   0.00000
gfz2010efbi   0.31305
gfz2010efls   0.68053
gfz2010efnf   0.00000
gfz2010efsq  -0.24186
gfz2010efwo  -0.10267
gfz2010egap  -0.14732
gfz2010eghq   0.26088
gfz2010egld   0.44471
gfz2010egln  -0.14167
gfz2010egmp   0.95203
gfz2010egqh  -0.64226
gfz2010egsw   0.72532
gfz2010egsy   0.26726
gfz2010egyy   0.09047
gfz2010ehaj   0.04383
gfz2010ehft  -0.45692
gfz2010ehnl   0.45301
gfz2010ehsy   0.81856
gfz2010ehvj   0.47622
gfz2010ehwg  -1.26430
gfz2010ehxz   0.84955
gfz2010eioi  -0.12984
gfz2010eisx  -1.57400
gfz2010eixj  -0.72964
gfz2010ejco   0.39200
gfz2010ejjg  -0.56200
gfz2010ejju   0.58441
gfz2010ejka  -0.01988
gfz2010ejma   0.11268
gfz2010ejxf   0.54784
gfz2010ekaw   0.26645
gfz2010ekoe  -0.26768
gfz2010ekrv  -0.31000
gfz2010ekyc  -0.38517
gfz2010elhv  -0.22990
gfz2010elin  -0.60782
gfz2010eljf  -1.58360
gfz2010elsw  -1.00780
gfz2010eltf  -0.25410
gfz2010elvp   0.45790
gfz2010elyc  -1.91790
gfz2010elyo  -0.51405
gfz2010elzf   0.20762
gfz2010elzl   1.32290
gfz2010emoz  -0.02204
gfz2010emyz   0.43906
gfz2010encm   5.19850
gfz2010ensu  -0.45445
gfz2010enzl   0.56565
gfz2010eoao  -6.05220
gfz2010eohh   3.60820
gfz2010epbe   0.54991
gfz2010epxj  -0.34741
gfz2010epzk   0.12076
gfz2010eqcn  -0.09292
gfz2010eqjg  -0.03568
gfz2010eqmu  -4.58900
gfz2010eqse   0.90192
gfz2010eqwl   2.44250
gfz2010erdi   0.88168
gfz2010erig   0.43592
gfz2010erkn   0.68786
gfz2010erna  -0.36658
gfz2010erom  -0.29338
gfz2010erum   0.31022
gfz2010eruy   0.12019
gfz2010erwn  -0.14818
gfz2010erxk   1.21140
gfz2010esid  -0.28022
gfz2010esmg   0.52444
gfz2010euae   0.10967
gfz2010euan   0.15115
gfz2010euii   0.48249
gfz2010eujm  -0.57188
gfz2010euvl   0.39677
gfz2010euwb  -2.79800
gfz2010euxe   0.69384
gfz2010evco  -0.64000
gfz2010evgf   0.06089
gfz2010evjv   1.18900
gfz2010ewbc   1.15990
gfz2010ewvc  -0.60744
gfz2010ewyu   0.13933
gfz2010excp  -0.81137
gfz2010exdd  -0.59060
gfz2010exdl  -1.15820
gfz2010exed   0.36413
gfz2010exel   0.46126
gfz2010exgb   0.11623
gfz2010exhd  -0.05022
gfz2010exhw  -0.53058
gfz2010exjw   0.07859
gfz2010exlm   0.13177
gfz2010exmc  -0.29664
gfz2010exno  -0.63129
gfz2010exou   0.47501
gfz2010exqu  -0.38672
gfz2010exts   2.05120
gfz2010exyp   0.33751
gfz2010eyaz   2.18710
gfz2010eybj   1.87050
gfz2010eyhh   0.15310
gfz2010eyiv  -0.06356
gfz2010eymr   0.56956
gfz2010eymx   0.64433
gfz2010eyqe   0.07001
gfz2010eyvq  -0.15067
gfz2010ezax   0.24920
gfz2010ezck   0.04656
gfz2010ezig  -0.83359
gfz2010ezvg  -0.79334
gfz2010ezvt   0.61248
gfz2010ezwz   0.26088
gfz2010ezxd   0.46847
gfz2010faeu  -0.91406
gfz2010falm   0.05763
gfz2010fauz  -0.30023
gfz2010faxg  -1.22570
gfz2010fbeu   0.37456
gfz2010fbpi  -0.92131
gfz2010fcax  -0.34178
gfz2010fcdw   0.16130
gfz2010fciw  -0.18671
gfz2010fcnn   0.15851
gfz2010fcnt  -0.29335
gfz2010fcxy   0.29440
gfz2010fcyj  -0.14395
gfz2010fczt   0.10669
gfz2010fdab   0.95736
gfz2010fdxr   1.56510
gfz2010fedq  -1.25410
gfz2010fefr  -0.67656
gfz2010fexw   0.52328
gfz2010ffhq  -0.47346
gfz2010ffjb   0.82240
gfz2010ffui   0.04743
gfz2010figq  -0.02002
gfz2010fihj  -0.62858
gfz2010fika   0.30275
gfz2010fixr   0.35753
gfz2010fjal  -0.06751
gfz2010fjas  -0.15478
gfz2010fjmu   0.56509
gfz2010fjni   0.60038
gfz2010fkia   1.84280
gfz2010fknh   0.23100
gfz2010fkvg  -0.56293
gfz2010flha  -1.02970
gfz2010flrt  -0.26639
gfz2010flxi  -0.27824
gfz2010fmhb  -0.77855
gfz2010fmwb  -1.23990
gfz2010fneu  -0.31428
gfz2010fnrk   1.62140
gfz2010fpmv  -0.20562
gfz2010fpqy  -0.04526
gfz2010fqdu   0.48694
gfz2010fser  -0.13116
gfz2010ftlm  -0.17039
gfz2010fupn   0.02556
gfz2010fuuy   0.99817
gfz2010fwlb   0.97242
gfz2010fwny   0.63913
gfz2010fwpv   0.06205
gfz2010fwzd   1.09070
gfz2010fyed  -1.08380
gfz2010fyen   0.12846
gfz2010fync  -0.19074
gfz2010fzoi  -0.19872
gfz2010fzsg   0.28683
gfz2010gcdn  -0.48659
gfz2010gcrl  -0.70358
gfz2010gcrp   0.65038
gfz2010gdch   2.06290
gfz2010gdld   0.02006
gfz2010ghyk  -1.00940
gfz2010gjia  -0.60217
gfz2010gjvo   0.20822
gfz2010glxl  -0.76374
gfz2010gmib   0.55884
gfz2010govu   0.85821
gfz2010grjd   0.98208
gfz2010grss   0.58869
gfz2010gslu  -0.36753
gfz2010gtqs   0.36242
gfz2010gtzt   1.50840
gfz2010gymo  -0.05582
gfz2010gyqp  -0.55572
gfz2010gzxr   0.13622
gfz2010hbka   1.27820
gfz2010hcio  -0.02104
gfz2010hevz   0.21950
gfz2010hgld   0.08533
gfz2010hhls   0.66595
gfz2010hjoc   0.96848
gfz2010hllj  -0.94464
gfz2010hlln  -0.30988
gfz2010hlmq  -0.24978
gfz2010hlvr   1.11220
gfz2010hmhm  -0.14108
gfz2010hndk   1.18920
gfz2010hnnf  -0.04250
gfz2010hnpi   0.29486
gfz2010homc   1.17490
gfz2010hptz   0.56325
gfz2010hrkr   1.28920
gfz2010hrpr   0.32957
gfz2010htdq   0.75191
gfz2010hxbs   1.27010
gfz2010hxgv   0.06956
gfz2010hxhe   1.09920
gfz2010hzar   0.38746
gfz2010ibiy   0.75338
gfz2010iciq   1.18800
gfz2010icqq   1.26940
gfz2010iimu   0.56040
gfz2010ijtk   0.18349
gfz2010imfv   1.18370
gfz2010imsh   0.17792
gfz2010iobp  -0.30082
gfz2010iphd  -0.62509
gfz2010ipsg  -0.32453
gfz2010iqep  -1.04190
gfz2010iqfm   0.60874
gfz2010iqus   1.42270
gfz2010irqr   0.28728
gfz2010irvf  -0.24644
gfz2010ited  -0.22734
gfz2010itpb  -0.53928
gfz2010iull   0.63603
gfz2010izzj   0.33627
gfz2010jagd   0.05211
gfz2010jatq   0.06652
gfz2010jhie  -0.34301
gfz2010jipf   0.15169
gfz2010jkxj   0.82836
gfz2010jpss   0.25718
gfz2010jqxx  -0.28208
gfz2010jssh   0.68439
gfz2010jsuh  -3.13570
gfz2010jsuo   0.33000
gfz2010jucj  -1.25270
gfz2010jwpy  -1.00980
gfz2010jxbm  -0.83311
gfz2010jygz   0.94660
gfz2010jzku   0.42754
gfz2010kcoo   0.45327
gfz2010kdyc  -0.66738
gfz2010kgws   0.36417
gfz2010kihf  -1.23900
gfz2010kjmp   0.89485
gfz2010kmgg   0.28283
gfz2010lczp   0.68885
gfz2010lepw   1.62470
gfz2010lfju   1.35090
gfz2010lgwy   0.65024
gfz2010liqs  -0.60892
gfz2010lkcf  -0.11730
gfz2010lopz   0.52694
gfz2010lrlk   0.79876
gfz2010lyfk   0.06178
gfz2010mdpq   0.38425
gfz2010mgss   0.91909
gfz2010miil   0.19982
gfz2010mipi  -0.74131
gfz2010miqn  -0.30328
gfz2010mkuu   0.82699
gfz2010mlkz  -0.30422
gfz2010mlta  -0.52333
gfz2010mncc  -0.15636
gfz2010mnhm   1.26790
gfz2010mnsz   1.67560
gfz2010moyw  -0.91539
gfz2010mpuy  -0.57512
gfz2010msjj   0.62616
gfz2010mtab  -0.21480
gfz2010muca   0.57849
gfz2010mwdq   0.02205
gfz2010mzjr   0.60846
gfz2010ncrl  -0.19607
gfz2010ndxl   0.56163
gfz2010nfsj   0.05932
gfz2010nlkh   0.23578
gfz2010nmpc  -1.81760
gfz2010nnny   1.32300
gfz2010nqwf   0.39520
gfz2010nqwo   0.18617
gfz2010nrjo   0.70889
gfz2010nsck  -1.07640
gfz2010nsdf   1.68330
gfz2010nsjs   0.70299
gfz2010ntuo   0.19394
gfz2010nubk  -0.02336
gfz2010nwef   0.11477
gfz2010nxsy   0.14613
gfz2010nxum   0.04900
gfz2010nzla   0.42407
gfz2010ocxq   0.31949
gfz2010odpb   0.87866
gfz2010oedn   0.44577
gfz2010okdm   0.12537
gfz2010oluw   0.69479
gfz2010omla   0.98380
gfz2010onma   0.55503
gfz2010otbn   1.38120
gfz2010oyqy  -0.40627
gfz2010pbdz   0.79225
gfz2010pcxi  -0.07616
gfz2010pdtk   0.42172
gfz2010pets   1.15060
gfz2010pewa  -0.07439
gfz2010pewx   1.07480
gfz2010pexf   0.54149
gfz2010pfyu   0.78841
gfz2010phvg  -0.31941
gfz2010plbg  -1.09060
gfz2010pmqd   0.05424
gfz2010pqck  -0.47788
gfz2010pxak   0.54970
gfz2010pxgh   0.79494
gfz2010pxls   0.83419
gfz2010qbng  -0.15177
gfz2010qitd   0.51801
gfz2010qjst   0.48597
gfz2010qpcq   0.63665
gfz2010qpum   0.50534
gfz2010qpvi   0.97576
gfz2010qwwx  -0.17842
gfz2010rhas  -0.90677
gfz2010rkfp   0.36786
gfz2010rlbv   5.36410
gfz2010rqwj  -0.93863
gfz2010rzrr   0.81265
gfz2010rzsd   1.35840
gfz2010sfee   0.59646
gfz2010sfla  -0.11160
gfz2010sgzk  -0.44407
gfz2010skqo  -0.47237
gfz2010skve  -0.50316
gfz2010srdb  -0.17093
gfz2010suww   0.48230
gfz2010svtn  -0.23678
gfz2010svve   1.48210
gfz2010swcy   0.28049
gfz2010sxfq   0.10849
gfz2010sxwt   0.13804
gfz2010szde   0.20963
gfz2010szim   0.08587
gfz2010tcbr   0.02178
gfz2010tcrl  -0.29398
gfz2010titk   0.83105
gfz2010tlfm   0.33684
gfz2010truw   0.10138
gfz2010txjs   0.54080
gfz2010uept   1.18150
gfz2010upfb  -0.46128
gfz2010upiw   3.30120
gfz2010urlq   1.61670
gfz2010usho   1.14900
gfz2010ustq   0.21967
gfz2010utcg   0.07544
gfz2010utmc   0.56119
gfz2010uvhf   0.51119
gfz2010uyhb  -1.34460
gfz2010uzon   1.21700
gfz2010veri   0.38382
gfz2010vhuj   0.21542
gfz2010vppc   0.94463
gfz2010vtdg   0.65895
gfz2010vyxd   1.18220
gfz2010vzpr   0.40713
gfz2010wioh   0.01939
gfz2010wnty   1.03870
gfz2010wntz  -0.14925
gfz2010wofs   0.42383
gfz2010wrxx   0.87464
gfz2010wxqa   0.26763
gfz2010xbcr   0.47848
gfz2010xbdv  -0.00000
gfz2010xbgs   0.75801
gfz2010xcdh   0.97391
gfz2010xche   1.77270
gfz2010xcij   0.34902
gfz2010xden   0.59168
gfz2010xgfc   1.86770
gfz2010xgzw   0.09519
gfz2010xjck   0.50958
gfz2010xjsj   0.82203
gfz2010xmpr   0.58480
gfz2010xnxk   1.18370
gfz2010xxdb  -0.91505
gfz2010yjev  -0.90799
gfz2010ymfy   1.63140
gfz2010ymur  -0.10288
gfz2010yosr   0.67522
gfz2010yqqv   0.08714
gfz2010yqwx   0.15925
gfz2011aatr   0.59753
gfz2011adjs  -0.98508
gfz2011adlj   0.17009
gfz2011adpw  -1.59310
gfz2011adqk   1.44300
gfz2011aeay   1.22640
gfz2011aldv   0.93261
gfz2011alip   0.80024
gfz2011alsa   0.14960
gfz2011anur  -0.01509
gfz2011aosc   0.11024
gfz2011aqxf   0.21250
gfz2011blsi  -3.17730
gfz2011bnzn   1.92230
gfz2011bpkd   0.84749
gfz2011bswz   2.03090
gfz2011ccpw   1.14160
gfz2011cfae   1.01340
gfz2011cndo   1.39810
gfz2011coxh  -0.26564
gfz2011csju  -0.71621
gfz2011cvfg   0.09193
gfz2011cykd  -1.35860
gfz2011cylz  -0.74549
gfz2011cynl   0.65649
gfz2011cyre   1.37370
gfz2011cyuk  -0.26481
gfz2011czwj   0.16478
gfz2011dbev  -0.18880
gfz2011dbig  -0.55870
gfz2011dbon   0.31361
gfz2011dbwt   0.33443
gfz2011dcqb  -1.80690
gfz2011dcqf  -0.14009
gfz2011dddh  -0.48050
gfz2011deaf   0.08159
gfz2011dkyi   0.21785
gfz2011dlyx   0.30321
gfz2011dmat   0.44104
gfz2011dndz   1.27420
gfz2011dpaa   0.24923
gfz2011dpmx   0.04701
gfz2011dpqx   0.00000
gfz2011duyr   0.73342
gfz2011eayc   0.87623
gfz2011eazf   1.46470
gfz2011ecaj   0.09036
gfz2011edmm   1.12690
gfz2011eebc   0.09859
gfz2011ehzq  -0.08352
gfz2011ejlp   0.37572
gfz2011eltw   0.34911
gfz2011enva   0.09523
gfz2011eocc   1.70360
gfz2011etje   0.79991
gfz2011fdzv   1.62490
gfz2011fgvr  -0.41383
gfz2011fhag   0.43239
gfz2011fhbm   0.73498
gfz2011fhur   0.11334
gfz2011fkbn   0.19164
gfz2011flgj   0.52727
gfz2011fnsw   1.47280
gfz2011gbmx   0.11569
gfz2011gcwb  -0.08654
gfz2011gdgh  -0.48606
gfz2011ggvf   0.14187
gfz2011ghky  -0.11479
gfz2011gkey  -0.51494
gfz2011gkzt  -0.57304
gfz2011gzbr   0.26048
gfz2011haid   0.20558
gfz2011hbex   0.24730
gfz2011hbqk   0.89332
gfz2011hebt   0.03915
gfz2011hfkj  -0.39869
gfz2011hlqw   0.07598
gfz2011hlsa  -0.17713
gfz2011hlth   0.29167
gfz2011hpgx  -0.50993
gfz2011hpqp  -0.24157
gfz2011hrhe   1.26700
gfz2011hryk   0.40293
gfz2011hsfj   1.71780
gfz2011hvbu  -0.26277
gfz2011icxe   0.81587
gfz2011ieie  -0.57094
gfz2011knoo   1.27870
gfz2011kqwo  -0.97126
gfz2011kqyg  -0.85582
gfz2011kwid   0.19091
gfz2011kwjx  -0.32453
gfz2011kwkw   0.21199
gfz2011kwlq  -0.46111
gfz2011kwqc  -0.39030
gfz2011kxzp   0.23673
gfz2011lcxq   0.39828
gfz2011lczg   0.95953
gfz2011lgsg   0.52662
gfz2011lhls   0.85800
gfz2011lvjr   0.58729
gfz2011lzwj   1.00250
gfz2011mdie   0.64960
gfz2011mepc   0.20526
gfz2011mjom   1.19100
gfz2011mllx   0.39609
gfz2011mlvw   1.33490
gfz2011mpme  -0.67670
gfz2011mprq   0.58572
gfz2011myia   0.51551
gfz2011nauw  -0.00000
gfz2011nmnq   0.60563
gfz2011noud   0.36336
gfz2011nqpd   0.63229
gfz2011nrwc   1.07620
gfz2011nrwv   1.95160
gfz2011nsex   0.99527
gfz2011ntkh   0.70602
gfz2011ntrv   1.43410
gfz2011nudm  -0.39790
gfz2011ogqk   0.16990
gfz2011ohcy   0.55933
gfz2011oiqe   1.07900
gfz2011oiwk   1.16610
gfz2011olkk   1.16250
gfz2011oolr   0.36083
gfz2011orgn   0.59594
gfz2011ornx   0.60461
gfz2011pccd   0.38471
gfz2011pdpt   1.53680
gfz2011pdst   1.56140
gfz2011phms   0.18224
gfz2011pntf   0.13995
gfz2011ptus   0.02692
gfz2011qigx   0.52151
gfz2011qvae   0.37778
gfz2011qyms   0.34655
gfz2011rabm   0.58832
gfz2011rdby  -4.57040
gfz2011rewa  -0.42528
gfz2011rgwp   0.06220
gfz2011rqui   0.66023
gfz2011rsrh  -0.30606
gfz2011sagt   0.03757
gfz2011shqm   0.34167
gfz2011stal   0.55474
gfz2011svix   1.03900
gfz2011tbas   0.10490
gfz2011tcij  -0.74619
gfz2011tivu   0.60304
gfz2011tjue   0.75092
gfz2011tkfp   1.44670
gfz2011tkog  -0.02306
gfz2011toub   0.05392
gfz2011tpbl   0.20306
gfz2011tpfr  -0.12323
gfz2011tsfd   0.35544
gfz2011tsnp   1.63220
gfz2011tuea   2.28920
gfz2011twov   1.44880
gfz2011udsq   0.97148
gfz2011uepx   1.14090
gfz2011ugzz   0.88318
gfz2011ujze   0.85593
gfz2011ukmp   1.04470
gfz2011uphh   1.01360
gfz2011urxy   0.50824
gfz2011urzu   0.85030
gfz2011uzqv   1.13740
gfz2011vclt   0.91072
gfz2011vhfi   0.73465
gfz2011vldk  -0.55360
gfz2011vnza   1.14340
gfz2011vrhg   0.03894
gfz2011vxns  -0.80240
gfz2011vxod   0.54785
gfz2011vxxg   0.30275
gfz2011wcic   0.18046
gfz2011wfja   0.64607
gfz2011wjul   0.34912
gfz2011wtmq   0.66220
gfz2011wvzb   2.10200
gfz2011wwjs   0.15818
gfz2011wxfs   1.24850
gfz2011wxoj   0.39021
gfz2011wxtk   0.43175
gfz2011wype   0.33599
gfz2011xaan  -0.87195
gfz2011xcpv   0.53615
gfz2011xesx   1.39880
gfz2011xqru  -0.94894
gfz2011xyxj   0.57571
gfz2011yfdx  -0.10323
gfz2011yfys   1.32460
gfz2011ytnu   1.06550
gfz2011yybo   0.95247
gfz2011yzwq  -0.37114
gfz2011zjap   1.20850
gfz2011zklv   0.01995
gfz2011zlrd   1.69540
gfz2011zqhh  -0.57314
gfz2012ajtq   0.04177
gfz2012aqgp  -0.19775
gfz2012aqtq   0.67192
gfz2012attr   0.85872
gfz2012bfah  -0.02347
gfz2012bfyn   0.62694
gfz2012bpkx  -0.14392
gfz2012bpnl   0.13208
gfz2012bpwl   0.56936
gfz2012bqeb   0.66391
gfz2012brhv   0.89377
gfz2012bszs   0.91146
gfz2012byad   0.12601
gfz2012cgvr   0.47462
gfz2012cmfy   0.05704
gfz2012cnod   0.58689
gfz2012covm   1.89860
gfz2012cqnl  -0.69805
gfz2012cxdn   0.08370
gfz2012czlw   0.76939
gfz2012ddma   2.53610
gfz2012deri   0.85187
gfz2012dimn   0.61175
gfz2012dinb   1.79030
gfz2012dyyh   0.88122
gfz2012ekda  -0.15757
gfz2012ekzf  -0.31904
gfz2012elce   0.43360
gfz2012emjg   1.25750
gfz2012enno   0.49822
gfz2012eskt   0.59479
gfz2012ewgo   1.08320
gfz2012fbfo   0.16067
gfz2012fhnh   0.72860
gfz2012fivh   2.61280
gfz2012foeo   0.58148
gfz2012fqcg   1.44180
gfz2012fwfo   0.02035
gfz2012fwob   0.05745
gfz2012fwtr   1.55520
gfz2012fzfa  -0.44268
gfz2012fzsq   0.32094
gfz2012gcgn  -0.05056
gfz2012gill   0.42371
gfz2012gkvr   0.52640
gfz2012gnvh   1.81830
gfz2012gocc  -0.42989
gfz2012gomm   2.19130
gfz2012gwqb   1.87810
gfz2012hdbm   0.78227
gfz2012hnul  -0.59117
gfz2012hogg   1.06060
gfz2012holl  -0.13360
gfz2012hwmz   0.61445
gfz2012hyaa   0.62148
gfz2012hzbe  -1.95520
gfz2012ibld   0.05199
gfz2012icmv   3.11710
gfz2012iffo  -0.48632
gfz2012ihdl   0.30611
gfz2012iivw   0.28230
gfz2012ilvn   0.13526
gfz2012imay   0.52645
gfz2012jgvj   0.75740
gfz2012jjzc   0.37415
gfz2012jlox   0.16101
gfz2012jqvn  -0.40309
gfz2012jshk   0.40947
gfz2012jupx   0.14377
gfz2012kbzj   1.27760
gfz2012kdmb   1.05040
gfz2012keor  -0.68937
gfz2012kkcp   0.94293
gfz2012kkup  -0.07638
gfz2012klba   1.16310
gfz2012klhx   0.31469
gfz2012kuct   1.08340
gfz2012kudo   0.27729
gfz2012kvzv   0.49778
gfz2012kwgo   0.60784
gfz2012lczo  -0.45981
gfz2012ldgs   0.35614
gfz2012ldxg  -0.66815
gfz2012ldzj   0.39814
gfz2012lltr  -0.99429
gfz2012llug   2.89370
gfz2012lpvn   0.01834
gfz2012lrol   0.27114
gfz2012lrsv   1.43700
gfz2012lsni  -0.81712
gfz2012lxkv  -0.41680
gfz2012mdmy  -0.38624
gfz2012minr   0.26840
gfz2012mkpn   0.03726
gfz2012mofm  -1.66990
gfz2012mpvy  -0.71488
gfz2012mpyl   0.12128
gfz2012mupa   0.09397
gfz2012mvwr   0.80487
gfz2012mwij   0.27370
gfz2012myeg   0.94901
gfz2012myqa   0.25944
gfz2012naqz  -0.13020
gfz2012nedn  -0.66061
gfz2012ngic  -0.23620
gfz2012njha  -0.39921
gfz2012nkdf  -0.50288
gfz2012nojx  -0.54804
gfz2012nolo  -0.40239
gfz2012nsbz   0.33341
gfz2012nutf   0.07878
gfz2012nxog   0.10777
gfz2012nxyt   1.23430
gfz2012oazn   1.34730
gfz2012obgw   0.99178
gfz2012oedb   0.22947
gfz2012omvo  -0.74135
gfz2012oqmw   0.23451
gfz2012ovqs   0.24773
gfz2012oycg   0.45577
gfz2012pazr  -0.77986
gfz2012peki  -1.01980
gfz2012pgcl   0.22313
gfz2012pkel   0.36833
gfz2012plbw   0.24252
gfz2012plea   1.00150
gfz2012pqlt  -0.55069
gfz2012pqmu  -0.21482
gfz2012priv   1.03630
gfz2012prlt   0.02573
gfz2012qjhs   0.64436
gfz2012qqxg   0.40166
gfz2012qxcy  -0.03358
gfz2012raex   0.56622
gfz2012rats  -0.18232
gfz2012rcnj   0.47947
gfz2012repv   0.87675
gfz2012rjsd   0.19876
gfz2012ronz  -0.13146
gfz2012royy  -0.05863
gfz2012rqlg  -0.04741
gfz2012ruks   2.10190
gfz2012rwko   0.90761
gfz2012rwov  -0.13118
gfz2012rwql   0.48473
gfz2012rypu  -1.00020
gfz2012sfer  -0.21181
gfz2012snhi  -0.61044
gfz2012spbj   0.55636
gfz2012sphd   0.92069
gfz2012sqmv   0.09229
gfz2012ssyn   0.14654
gfz2012svpr   1.40940
gfz2012syvl   0.59914
gfz2012taou  -0.50301
gfz2012tazz   0.64719
gfz2012teic   0.85371
gfz2012tmop   0.09827
gfz2012tpzx   2.27840
gfz2012ttoa   0.43039
gfz2012tvmv   0.23213
gfz2012tzgb   1.83770
gfz2012uaqj   1.73100
gfz2012uciv   0.50093
gfz2012uhup   0.00000
gfz2012ulpd   0.17687
gfz2012usba   0.40691
gfz2012uvqf   1.18660
gfz2012uyxb  -0.32949
gfz2012uzom  -0.84812
gfz2012vceo  -2.04340
gfz2012vjgl  -0.12451
gfz2012vmeh   0.15219
gfz2012vntz   0.40791
gfz2012vpza   2.08230
gfz2012vrgb   0.37844
gfz2012vrua   0.77125
gfz2012vxvr   0.01692
gfz2012wdyx  -0.06337
gfz2012whku   0.57336
gfz2012wklq  -1.22240
gfz2012wmsg   0.79388
gfz2012wpeq   0.49160
gfz2012wtkr   0.20184
gfz2012wubh   0.02764
gfz2012wvfl   0.17057
gfz2012wxer   0.74398
gfz2012wxlg  -0.20710
gfz2012wxnu   0.40270
gfz2012wybs   0.85354
gfz2012wypz   0.38159
gfz2012xbjq   0.16825
gfz2012xcgk  -0.66798
gfz2012xevt  -0.72255
gfz2012xjyv   0.28230
gfz2012xkkv   0.80134
gfz2012xpmm   0.47664
gfz2012xslk   0.25847
gfz2012xvwn   0.04499
gfz2012xyqp   1.43840
gfz2012xyua  -0.33800
gfz2012yfrp  -0.13089
gfz2012yqjj   1.06420
gfz2012zemh  -0.10103
gfz2012zfag   0.45501
gfz2012ziml   0.50046
gfz2012zitl   0.19880
gfz2012zjpv  -0.60539
gfz2012zklq  -0.18789
gfz2012zmbp   0.49752
gfz2012zmln   0.38515
gfz2013aayj   0.60058
gfz2013apmm   1.64400
gfz2013aqaw   0.51508
gfz2013axoj   0.81329
gfz2013bdpu   0.01855
gfz2013bnxc   1.00090
gfz2013bokp  -0.75790
gfz2013btjm   0.92037
gfz2013casg  -0.33362
gfz2013ccnr  -1.29310
gfz2013cdan   0.44710
gfz2013cnve  -0.06896
gfz2013cvqg   0.06684
gfz2013cwpn   0.48452
gfz2013dofo  -0.18509
gfz2013dojq   0.75878
gfz2013drpk   0.71823
gfz2013drxz  -0.27532
gfz2013dspt   0.75054
gfz2013dsrk   0.04163
gfz2013dvye  -0.09161
gfz2013dvyh   0.52273
gfz2013egni   0.37028
gfz2013egpu   0.37515
gfz2013ekpm   1.45960
gfz2013enbx  -6.90350
gfz2013esnh  -0.31214
gfz2013ewbo   0.37862
gfz2013feep   1.17940
gfz2013ffko   0.18092
gfz2013fiud   0.49589
gfz2013flox  -0.89609
gfz2013fwxa  -0.04758
gfz2013fygc   0.51833
gfz2013gbst   0.58512
gfz2013gcfx   1.55390
gfz2013gdgf   0.09882
gfz2013gdnq  -0.65691
gfz2013ggtf  -0.11927
gfz2013gihf   0.45119
gfz2013gjdc  -0.43953
gfz2013gmor   1.07290
gfz2013gngz   0.64791
gfz2013gock   0.35157
gfz2013gwrd   1.39100
gfz2013hbkq   2.05540
gfz2013hdnc   0.58260
gfz2013hfmp  -0.49325
gfz2013hkja   1.20160
gfz2013hlbe  -0.22021
gfz2013hmbc  -0.53130
gfz2013hpfq   1.48770
gfz2013huwr   0.59011
gfz2013hxcx   1.14030
gfz2013iayx   0.89446
gfz2013icfh   1.58150
gfz2013idbb   1.13160
gfz2013ifpq   1.87520
gfz2013ijsr   0.90520
gfz2013ikgo   0.55154
gfz2013ilug   0.13338
gfz2013ippu   0.84830
gfz2013iqzq  -0.41217
gfz2013iunn   0.37834
gfz2013iyqz  -0.01358
gfz2013jesk  -0.10441
gfz2013jgij   0.32417
gfz2013jgip   0.41875
gfz2013jjsi  -2.05360
gfz2013jkut   0.80851
gfz2013jokw   0.94884
gfz2013jphq  -0.24963
gfz2013jwvc   0.04717
gfz2013jxoi   0.70520
gfz2013kccc  -0.09798
gfz2013kdeo   0.69669
gfz2013kheb   0.85090
gfz2013khli   0.94474
gfz2013kilx   0.75746
gfz2013krei   0.20032
gfz2013kvtk   0.70823
gfz2013kwps   0.84531
gfz2013lajg   1.52740
gfz2013lbiu   0.30688
gfz2013ldpc   0.80670
gfz2013ldqb   0.10255
gfz2013lgnl   0.20031
gfz2013lixa   0.69868
gfz2013lljw   1.25020
gfz2013lmrs   1.00100
gfz2013lwbk   1.28290
gfz2013lyko  -0.85861
gfz2013lznu   0.69744
gfz2013malg   0.70348
gfz2013mmwq   1.25630
gfz2013mnei  -0.12400
gfz2013mnju   1.78970
gfz2013mqik   0.52894
gfz2013mqmv   1.01530
gfz2013mwbh  -0.31841
gfz2013mxee   0.94215
gfz2013ncjp   0.18587
gfz2013ndin   0.19343
gfz2013neuc   0.95952
gfz2013ngnt  -0.27725
gfz2013nixj   0.37938
gfz2013nkgj   0.34792
gfz2013nknw   0.44201
gfz2013nmac   0.50042
gfz2013nnzf   1.15020
gfz2013nppd  -0.34016
gfz2013nqgw  -0.73538
gfz2013nuor   2.15130
gfz2013nuvi   1.69610
gfz2013nwdi   0.16114
gfz2013oejn   0.20668
gfz2013ogde   0.53673
gfz2013oifr   0.67105
gfz2013oilg   0.13625
gfz2013oinc   0.17033
gfz2013ojti   1.59330
gfz2013oqsc  -0.28199
gfz2013orjg   0.43625
gfz2013orzn   0.26077
gfz2013ozrf   1.66240
gfz2013ozrp   0.63609
gfz2013pcos  -2.18980
gfz2013pfbx   1.41050
gfz2013pfeb   0.53785
gfz2013pffm   1.37320
gfz2013pfnf   1.18120
gfz2013phef   0.31992
gfz2013piwd  -0.55745
gfz2013pkbs   1.42680
gfz2013pndn  -0.14994
gfz2013poxj   0.74806
gfz2013puag   0.56939
gfz2014lrzx   0.90290
gfz2014lurd   0.48504
gfz2014lvgn   1.04990
gfz2014lwom   1.04580
gfz2014lxnc   1.32240
gfz2014lxqr   2.58210
gfz2014lyhp   1.35920
gfz2014lynp   1.16250
gfz2014lzal   0.30456
gfz2014lzow   1.22280
gfz2014macx   1.17460
gfz2014madw   1.33500
gfz2014mcno   1.45460
gfz2014mcse   2.38680
gfz2014mioi   1.63360
gfz2014mlrr   2.23860
gfz2014moaw   1.33580
gfz2014mogb   0.52869
gfz2014mtum   0.53332
gfz2014mwnj   0.50708
gfz2014mwor  -0.27205
gfz2014ncub   1.25600
gfz2014nhyb   0.97164
gfz2014niqj  -2.59000
gfz2014nkdx   0.57858
gfz2014nnih   1.26720
gfz2014nnxd   0.68871
gfz2014nowp   0.34064
gfz2014npdk   0.56307
gfz2014npeo  -0.07177
gfz2014nphm   1.11900
gfz2014nqbs  -0.40779
gfz2014nqfm   1.06380
gfz2014nrie   0.71227
gfz2014ntdh   1.05250
gfz2014nvdi   0.53683
gfz2014nyeh   0.78847
gfz2014nyfb   1.92840
gfz2014nyko   1.68790
gfz2014nylm   1.38230
gfz2014odgv   1.28860
gfz2014ofhm  -0.12903
gfz2014oinz   1.09130
gfz2014omyn  -0.05465
gfz2014ooaa   2.76450
gfz2014oqhw   0.09754
gfz2014orxs   1.10570
gfz2014oryw   0.32445
gfz2014osvx   0.55804
gfz2014owxc   0.93412
gfz2014oxcc   0.24426
gfz2014oyly   1.13830
gfz2014pjer   1.50260
gfz2014pkll  -0.30382
gfz2014ppzf   0.81356
gfz2014pqqp   3.31090
gfz2014pvch   1.12380
gfz2014pzml   1.18970
gfz2014pzni   1.35000
gfz2014qbzi   0.57956
gfz2014qfzq   1.31860
gfz2014qlvc   0.80622
gfz2014qlxd   0.79346
gfz2014qngj  -1.36150
gfz2014qqhm  -0.19329
gfz2014raau  -2.48530
gfz2014rdsn  -0.35087
gfz2014rfeb   0.97814
gfz2014rghp   0.09292
gfz2014rhnz   1.29220
gfz2014rhwq   0.94777
gfz2014riel   0.88409
gfz2014rils   1.05820
gfz2014roba   0.66811
gfz2014romy   0.55881
gfz2014rtcu   0.92303
gfz2014rwos   0.42675
gfz2014ryfb   0.82984
gfz2014sadu  -0.59745
gfz2014shid   1.29560
gfz2014sjqw   0.26515
gfz2014sptq   1.70040
gfz2014sryn   0.34327
gfz2014ssds   1.16050
gfz2014ssmv  -0.16419
gfz2014ssvz  -0.02515
gfz2014swgt  -1.31330
gfz2014szzf   0.67025
gfz2014tabg   0.80346
gfz2014tfgn   0.33981
gfz2014tovs   0.64863
gfz2014tqdo   0.68760
gfz2014tqly   1.01340
gfz2014tqsf   1.87640
gfz2014tqth   1.86960
gfz2014tzsd   1.02950
gfz2014uapa   0.07642
gfz2014ubwn   0.96074
gfz2014ubyq  -0.72526
gfz2014udgg  -0.22522
gfz2014uohh   0.47653
gfz2014utac   0.32870
gfz2014uuuf  -0.58163
gfz2014uvji   0.32240
gfz2014uvrk  -2.96560
gfz2014uyrq   1.42190
gfz2014vcev  -0.24644
gfz2014vdnh   0.07295
gfz2014veit   1.73140
gfz2014vhld   1.05530
gfz2014vhms   0.51198
gfz2014vjoz   0.81213
gfz2014vnxu   0.35696
gfz2014vpus  -0.21405
gfz2014vqqa   0.47773
gfz2014waoo   0.49637
gfz2014watn   0.61140
gfz2014wjko   0.92726
gfz2014wmsc   0.10384
gfz2014wqcp   0.97156
gfz2014wrkh   0.29447
gfz2014wsjh  -0.24057
gfz2014wwib   0.79748
gfz2014xaxx  -0.26969
gfz2014xbyr   1.21850
gfz2014xhkc   0.41704
gfz2014xhwk   1.41540
gfz2014xjri   1.05240
gfz2014xkdg   0.38374
gfz2014xmnp   1.01610
gfz2014xoji   1.52560
gfz2014xqby   1.10190
gfz2014xqqd   0.21693
gfz2014yhhm   1.54560
gfz2014ynhc  -0.24321
gfz2014ynzy   1.78170
gfz2014yppv   1.31520
gfz2014yrug   1.30370
gfz2014yula  -0.13167
gfz2014yyiy   0.72439
gfz2014zcgo   2.04560
gfz2014zdtl   2.57670
gfz2014zkys   1.24340
gfz2014zlgp   0.59355
gfz2015abpw   0.29182
gfz2015aide  -0.06234
gfz2015ansu  -0.65025
gfz2015apnk   0.99401
gfz2015aqbq   0.02101
gfz2015arpd   0.71056
gfz2015aruz   0.52806
gfz2015atxv   1.00340
gfz2015aush   0.60865
gfz2015azzp   0.35024
gfz2015bavu  -2.48400
gfz2015bdyd   0.59255
gfz2015berb   0.94002
gfz2015bfjm   0.45336
gfz2015bkbj   1.00710
gfz2015bnho  73.92300
gfz2015bphe   2.38880
gfz2015bsnl   0.00000
gfz2015bucr   1.35270
gfz2015cewd  -1.65110
gfz2015chhn  -0.28292
gfz2015chqn   1.01010
gfz2015clrp   0.79470
gfz2015cxhx   0.30110
gfz2015cxrc   1.18700
gfz2015cxxk   0.85006
gfz2015cyjd   1.56260
gfz2015czfv  -0.20965
gfz2015dadj  -2.62990
gfz2015ddhl   3.09280
gfz2015dizn  -1.20620
gfz2015djts   0.51240
gfz2015drlk   1.44680
gfz2015dskr   1.26130
gfz2015dvbn   0.92449
gfz2015ednc   2.42840
gfz2015eeyq   1.43260
gfz2015eezy   1.43660
gfz2015egbk  -0.63178
gfz2015egxq   0.83057
gfz2015ehpz   1.08150
gfz2015eiky   1.20500
gfz2015elgy  -0.30372
gfz2015eljz  -0.30674
gfz2015emtg   0.85880
gfz2015fkbc   2.46590
gfz2015fkgt   0.13600
gfz2015fkjs   0.25361
gfz2015flis   0.54345
gfz2015fsjj   1.05230
gfz2015fvoi   2.17930
gfz2015fwkq   1.12330
gfz2015fwnf   1.16820
gfz2015fxbv   1.09290
gfz2015fxdi   0.44291
gfz2015fyvk   0.01964
gfz2015gckd   0.71240
gfz2015ggjw   0.83857
gfz2015gjbr   1.01200
gfz2015gkwa   1.04710
gfz2015gmgf   1.30180
gfz2015gnmy   0.82362
gfz2015gwao   1.04770
gfz2015gzja  -0.14036
gfz2015hdbn   1.76400
gfz2015hdcp   0.18273
gfz2015hgbk   1.10910
gfz2015hhbd   1.50860
gfz2015hlfq  -0.26998
gfz2015hlqo   0.51074
gfz2015hpmk   1.36330
gfz2015hslo   1.41330
gfz2015hwkv   1.49830
gfz2015idho   0.38384
gfz2015iele   1.05320
gfz2015igsy   1.64660
gfz2015ijmh  -1.78840
gfz2015imty   0.70198
gfz2015imyp   2.41080
gfz2015isim   1.49860
gfz2015ixyy  -0.06176
gfz2015jkdw   0.58363
gfz2015jmlf   0.68664
gfz2015jmlu   1.27530
gfz2015jpap  -1.97280
gfz2015jwgl  -0.20008
gfz2015jxbx   0.51612
gfz2015jxjd   0.94784
gfz2015jzcv   1.18620
gfz2015kakw   0.70988
gfz2015kalm   1.57720
gfz2015kcaa   1.26050
gfz2015kkqb   0.90075
gfz2015kkth   0.52717
gfz2015kphk   1.77110
gfz2015kquq   1.94080
gfz2015ksni   0.06700
gfz2015kvwz   0.44174
gfz2015lcma   0.09044
gfz2015lcuo   3.12180
gfz2015lfma   1.39220
gfz2015lfos   0.76962
gfz2015lfud   0.98688
gfz2015lhjq   0.83686
gfz2015lhjy   1.31370
gfz2015ltii   1.66790
gfz2015ltro   1.65490
gfz2015lytv  -0.40736
gfz2015lzad   1.19600
gfz2015mddr   1.05270
gfz2015mfpy   0.60076
gfz2015mhym   0.41106
gfz2015micz   1.58980
gfz2015nuxz   0.00213
gfz2015okmq   1.04200
gfz2015okpu   1.04930
gfz2015omab   0.26732
gfz2015orkl   0.66026
gfz2015oyfl   0.32834
gfz2015pcvt   0.40165
gfz2015pdri   0.66805
gfz2015pjgr   0.10396
gfz2015plal   0.86138
gfz2015poni   0.16843
gfz2015puah  -0.33842
gfz2015puqp  -0.37351
gfz2015qafb   0.23725
gfz2015qbme  -1.00950
gfz2015qiit   0.79380
gfz2015qnde   1.39580
gfz2015qnho   0.11893
gfz2015qnlv   0.46131
gfz2015qnto   0.18203
gfz2015qols   2.10730
gfz2015qprd   0.71987
gfz2015qpvd   1.61910
gfz2015quzo   1.16990
gfz2015rddx   0.13079
gfz2015rgov   1.09970
gfz2015rgrg   0.49599
gfz2015rkbq   1.13740
gfz2015rkrg  -0.29653
gfz2015rkzg   0.87165
gfz2015rpzn  -0.84023
gfz2015rtnv   2.08220
gfz2015rwsb  -0.38690
gfz2015rxmg  -0.23690
gfz2015saet   1.59250
gfz2015sdeo   1.23170
gfz2015sdfy   0.72754
gfz2015seuf   1.66450
gfz2015sevh   1.22740
gfz2015sfdd  -0.65513
gfz2015sfdy  -0.84468
gfz2015sfeo  -1.00730
gfz2015sffn  -0.65861
gfz2015sfga   0.07321
gfz2015sfho   1.05060
gfz2015sfhz  -0.24700
gfz2015sfiq   0.34712
gfz2015sfjf  -1.30720
gfz2015sfkh   0.05885
gfz2015sfko  -0.26616
gfz2015sfks   0.61126
gfz2015sfkz  -0.02161
gfz2015sflf   0.16452
gfz2015sfln  -0.38300
gfz2015sfmd   1.80920
gfz2015sfnb  -0.36889
gfz2015sfno  -0.58963
gfz2015sfnv  -0.13777
gfz2015sfoc  -0.35996
gfz2015sfoh   0.34734
gfz2015sfoq   1.37980
gfz2015sfps  -0.07787
gfz2015sfqo  -0.00000
gfz2015sfqr  -0.17053
gfz2015sfrc  -0.86844
gfz2015sfrf   0.88030
gfz2015sfsi   2.53800
gfz2015sfte   0.42848
gfz2015sftu   0.10438
gfz2015sfuz   0.33747
gfz2015sfwf   0.86288
gfz2015sfxn   0.14957
gfz2015sfzm   0.92062
gfz2015sgad  -0.20125
gfz2015sgdj  -0.22676
gfz2015sgdn  -0.11921
gfz2015sgmm   0.50865
gfz2015sgmr   0.95701
gfz2015sgna   0.78273
gfz2015sgxc  -0.93785
gfz2015sgyd   0.26700
gfz2015shaq   0.12782
gfz2015shhg   0.69569
gfz2015shhu   0.55864
gfz2015shjn  -0.29469
gfz2015shjo   0.07863
gfz2015shqc  -1.84540
gfz2015shqe  -1.71000
gfz2015shrg   0.02212
gfz2015shsz   0.54236
gfz2015siky  -0.19468
gfz2015sing   0.30028
gfz2015siof   1.02650
gfz2015sist   1.39410
gfz2015sitn   0.56342
gfz2015sixi   0.33235
gfz2015sixs   0.87662
gfz2015siyy   0.31898
gfz2015sjbx   0.76677
gfz2015sjeq   1.35630
gfz2015sjfi   1.56960
gfz2015sjgk  -0.07675
gfz2015sjjb   1.28300
gfz2015sjne  -0.10681
gfz2015sjoj  -0.10450
gfz2015sjpn   0.25086
gfz2015sjtz   0.54272
gfz2015sjvu   0.18168
gfz2015sjwi  -0.43887
gfz2015skab  -0.37776
gfz2015skgj   0.16143
gfz2015sklu   0.49904
gfz2015skpv   0.47905
gfz2015skuk   0.17319
gfz2015skxu   0.25793
gfz2015sldx  -0.72970
gfz2015slfn   0.74152
gfz2015sljs   0.70564
gfz2015slun   0.49606
gfz2015smgj  -0.36873
gfz2015smym   0.02255
gfz2015snhn   0.44526
gfz2015snmg   1.09110
gfz2015snmr  -0.39197
gfz2015snsf   0.23800
gfz2015snwh  -1.07730
gfz2015snyd   0.42272
gfz2015soat   0.44402
gfz2015sopc   1.33520
gfz2015sowu   0.99993
gfz2015soxc  -0.58077
gfz2015sozw  -0.30343
gfz2015sqbg   0.60489
gfz2015sqmy   0.26515
gfz2015sqvx   0.44495
gfz2015srat   0.55745
gfz2015sspn   0.01986
gfz2015ssrl   0.86671
gfz2015stfy   0.42026
gfz2015stso   0.58507
gfz2015subz   0.69388
gfz2015susq  -0.82082
gfz2015svjy  -0.08724
gfz2015svwm  -0.45593
gfz2015swgn   1.03140
gfz2015swjx   1.07840
gfz2015sxmh   0.55652
gfz2015sydc  -1.52540
gfz2015szcb   0.15413
gfz2015szfe   0.34681
gfz2015sztx  -0.13768
gfz2015taml   1.30260
gfz2015tbdn   1.05360
gfz2015tchx   0.74916
gfz2015tdcu  -0.31851
gfz2015teje  -0.51600
gfz2015teyc   0.11311
gfz2015teyn   0.26975
gfz2015tezd   1.07210
gfz2015tghj   1.28770
gfz2015thfm   0.46114
gfz2015thgc  -0.10271
gfz2015thwg   0.86339
gfz2015thwp   0.62315
gfz2015tixi   0.32172
gfz2015tiyc  -0.85948
gfz2015tjhv   0.46481
gfz2015tkol  -1.18580
gfz2015tlba   0.26537
gfz2015tlkf   0.84005
gfz2015tlok  -0.65795
gfz2015tnjd   0.17721
gfz2015tpra  -0.05131
gfz2015tqff   1.00530
gfz2015truf   0.29301
gfz2015tsdm   0.37991
