# Nsamples: 1605  MAD:  0.724  mean: -0.847  variance:  0.972
gfz2010czps  -2.27490
gfz2010ddzo  -0.35390
gfz2010dejx  -0.16692
gfz2010dfru  -0.18189
gfz2010diqn  -0.98183
gfz2010dlgc  -1.14910
gfz2010dumm  -1.01040
gfz2010eaoy  -1.71020
gfz2010eapk  -2.31800
gfz2010eapn  -0.63123
gfz2010eaqe  -0.58280
gfz2010eaqx  -1.11290
gfz2010eaqy  -0.79334
gfz2010earq  -1.28200
gfz2010earu  -2.68800
gfz2010easf  -1.76810
gfz2010eask  -2.36490
gfz2010easo  -1.65040
gfz2010easu  -1.40370
gfz2010eati  -1.12040
gfz2010eato  -0.90237
gfz2010eatt  -2.19840
gfz2010eaty  -1.68180
gfz2010eaul  -1.06610
gfz2010eavd  -0.10620
gfz2010eavp  -0.65036
gfz2010eavs  -1.83220
gfz2010eawb  -1.04030
gfz2010eawu  -7.00310
gfz2010eaxa  -0.78632
gfz2010eaxn  -2.69570
gfz2010eayd  -0.70829
gfz2010eayp  -1.26820
gfz2010eayx  -1.59140
gfz2010eaze  -0.67567
gfz2010eazu  -2.63600
gfz2010ebbd  -1.32020
gfz2010ebby  -1.26500
gfz2010ebdl  -0.61099
gfz2010ebeh  -2.03700
gfz2010ebek  -1.00470
gfz2010ebfa   0.33117
gfz2010ebfx  -1.37380
gfz2010ebgj  -0.78588
gfz2010ebhc  -2.00880
gfz2010ebih  -1.51800
gfz2010ebin  -3.08080
gfz2010ebiv  -0.36306
gfz2010ebjy  -1.98790
gfz2010ebkj  -1.64050
gfz2010ebla  -0.89750
gfz2010ebll  -0.74531
gfz2010ebmb  -1.39210
gfz2010ebnn  -1.52630
gfz2010ebpa  -1.79080
gfz2010ebqt  -1.36060
gfz2010ebqz  -1.67900
gfz2010ebrm  -1.39700
gfz2010ebsv  -1.79240
gfz2010ebtk  -0.40059
gfz2010ebvm  -0.95383
gfz2010ebvv  -1.99490
gfz2010ebwp  -1.00050
gfz2010ebxl  -0.83225
gfz2010ebze  -1.88040
gfz2010ebzk  -1.46170
gfz2010ebzr  -1.34970
gfz2010ecam  -1.57630
gfz2010ecay  -1.73670
gfz2010ecbi  -1.51700
gfz2010eccq  -1.37300
gfz2010ecdu   1.91040
gfz2010eced  -0.75363
gfz2010ecft  -1.15930
gfz2010ecfx  -1.14410
gfz2010ecfy  -1.19890
gfz2010ecgh  -0.26661
gfz2010echc  -0.91426
gfz2010echt  -1.58060
gfz2010echy  -0.21345
gfz2010ecka  -1.00160
gfz2010ecls  -0.85927
gfz2010ecml  -0.31141
gfz2010ecnm  -1.37740
gfz2010ecns  -2.28070
gfz2010ecps  -0.87055
gfz2010ecro  -2.28520
gfz2010ecsp  -4.85170
gfz2010ectq  -0.04151
gfz2010ecua  -1.95010
gfz2010ecuv  -0.66301
gfz2010ecvt  -1.10090
gfz2010ecyr  -0.83057
gfz2010edad  -2.83670
gfz2010edat  -1.72200
gfz2010eday  -1.68500
gfz2010edbz  -0.58332
gfz2010edcp  -1.43120
gfz2010edde  -1.49660
gfz2010edhr  -0.92466
gfz2010edim  -1.23820
gfz2010edji   0.78519
gfz2010edkp  -0.83656
gfz2010edpb  -0.75768
gfz2010edqh  -0.25659
gfz2010edsk  -1.11290
gfz2010edsn  -0.25689
gfz2010edun  -1.91490
gfz2010edvf  -0.85893
gfz2010edyi  -3.77890
gfz2010edzb  -1.28600
gfz2010eedu  -2.17290
gfz2010eedz   0.09124
gfz2010eefh  -1.02220
gfz2010eefo  -1.66240
gfz2010eegn  -2.60480
gfz2010eeia  -0.76794
gfz2010eeij  -1.09440
gfz2010eekg  -1.50380
gfz2010eekq  -1.68220
gfz2010eell  -1.22950
gfz2010eeng  -0.92683
gfz2010eeqy   0.35378
gfz2010eerh  -1.66120
gfz2010eern  -0.91968
gfz2010eesf  -0.93177
gfz2010eevu  -1.61590
gfz2010eeyh  -1.20200
gfz2010efak  -0.09620
gfz2010efbh  -1.63200
gfz2010efkc  -0.91428
gfz2010efls  -0.95065
gfz2010efnf  -1.58030
gfz2010efsq  -1.54140
gfz2010efwo  -1.68220
gfz2010efxf  -2.00580
gfz2010egap  -1.48450
gfz2010eghq  -1.26770
gfz2010egld  -1.06940
gfz2010egln  -1.54490
gfz2010egmp  -0.69078
gfz2010egqh  -1.08160
gfz2010egsw  -0.62393
gfz2010egsy  -1.27960
gfz2010egyy  -1.53520
gfz2010ehaj  -1.15730
gfz2010eher  -0.74519
gfz2010ehft  -1.33890
gfz2010ehnm  -1.38810
gfz2010ehrq  -1.99240
gfz2010ehsy  -1.01890
gfz2010ehvj  -0.84381
gfz2010ehxz   0.42171
gfz2010eimf  -0.83993
gfz2010eioi  -1.51590
gfz2010eiqi  -2.74570
gfz2010eisx  -2.42400
gfz2010eixj  -2.37310
gfz2010ejae  -0.39097
gfz2010ejco  -1.62220
gfz2010ejjg  -2.22600
gfz2010ejju  -1.93420
gfz2010ejka  -0.28253
gfz2010ejma  -2.38030
gfz2010ekaw  -1.24430
gfz2010ekrv  -1.96710
gfz2010ekyc  -2.15970
gfz2010elhv  -1.68310
gfz2010elin  -2.04550
gfz2010eljf  -2.91090
gfz2010elpu  -1.78650
gfz2010eltf  -1.81490
gfz2010elvp   0.35080
gfz2010elxi  -1.85310
gfz2010elyc  -3.28020
gfz2010elyo  -1.17900
gfz2010elzf  -1.23610
gfz2010elzl  -0.81864
gfz2010emoz  -0.44891
gfz2010emyz  -1.91330
gfz2010encm  -2.93580
gfz2010engw  -1.99120
gfz2010enpa   1.24960
gfz2010ensu  -0.44825
gfz2010enzl  -1.03910
gfz2010eoao  -9.01140
gfz2010eohh  -2.22870
gfz2010eomb  -0.34015
gfz2010epbe  -1.32070
gfz2010epxj  -1.54550
gfz2010epzk  -1.26290
gfz2010eqcn  -2.00660
gfz2010eqjg  -1.53270
gfz2010eqmu  -7.86740
gfz2010eqse  -1.14550
gfz2010eqwl  -3.66690
gfz2010erda  -1.08840
gfz2010erdi  -1.13380
gfz2010erfy  -1.87870
gfz2010erig  -1.08100
gfz2010erkn  -1.26270
gfz2010erna  -1.85810
gfz2010erom  -0.99947
gfz2010erum  -1.00950
gfz2010eruy  -0.73995
gfz2010erwn  -0.96129
gfz2010erxb  -0.11610
gfz2010eryg  -0.65250
gfz2010eted  -1.26800
gfz2010euae  -1.50390
gfz2010euan  -0.30846
gfz2010eugj  -1.24770
gfz2010euii  -0.12593
gfz2010eutw  -2.30780
gfz2010euvl  -1.46560
gfz2010euwb  -1.90780
gfz2010euxe  -0.75811
gfz2010evco  -1.81820
gfz2010evgf  -0.92923
gfz2010ewbc  -0.42305
gfz2010ewpq  -0.41507
gfz2010ewvc  -1.71780
gfz2010ewyu  -1.54240
gfz2010excp  -1.34930
gfz2010exdd  -1.84960
gfz2010exdl  -1.21360
gfz2010exed  -1.12290
gfz2010exel  -1.05920
gfz2010exfb  -1.03010
gfz2010exgb  -1.25920
gfz2010rywq  -2.10620
gfz2010rzrr  -0.93398
gfz2010rzsd  -3.98880
gfz2010sfee  -1.33820
gfz2010sgzk  -1.30940
gfz2010skqo  -1.54550
gfz2010skve  -2.28720
gfz2010srdb  -1.56230
gfz2010suww   0.73068
gfz2010svtn  -1.48750
gfz2010svve   0.01748
gfz2010swcy  -1.58500
gfz2010sxfq  -1.97080
gfz2010sxwt  -1.56330
gfz2010sysw   0.34149
gfz2010szde  -2.23140
gfz2010szim  -1.04640
gfz2010tcbr  -1.34290
gfz2010tcrl  -2.47040
gfz2010tlfm  -0.78603
gfz2010truw  -1.23250
gfz2010txjs  -0.92842
gfz2010tzzk  -0.51134
gfz2010uept  -0.47004
gfz2010upfb  -1.36330
gfz2010upiw  -1.49050
gfz2010urlq   0.52249
gfz2010usho  -0.67970
gfz2010ustq  -1.13460
gfz2010utcg  -1.28190
gfz2010utmc  -1.27050
gfz2010utvp  -0.20612
gfz2010uyhb  -1.32550
gfz2010uzon   0.17555
gfz2010veri  -1.51360
gfz2010vhuj  -1.63660
gfz2010vppc   0.06971
gfz2010vtdg  -1.29460
gfz2010vyxd  -0.61509
gfz2010vzpr  -0.14385
gfz2010wioh  -1.53960
gfz2010wnty  -1.43560
gfz2010wntz  -1.08440
gfz2010wofs  -0.30199
gfz2010wrxx  -1.68780
gfz2010wxqa  -1.17650
gfz2010xbcr  -1.31410
gfz2010xbdv  -1.77160
gfz2010xbgs  -0.54811
gfz2010xcdh  -0.12238
gfz2010xche  -0.62244
gfz2010xden  -1.18430
gfz2010xgfc  -0.33521
gfz2010xgzw  -1.08200
gfz2010xjck  -0.56156
gfz2010xjsj  -0.30530
gfz2010xmpr  -0.03990
gfz2010xnxk  -0.48234
gfz2010xxzn  -0.15699
gfz2010yfsv  -0.07432
gfz2010yjev  -2.47220
gfz2010ymfy  -0.68508
gfz2010ymur   0.46960
gfz2010yosr  -1.05860
gfz2010yqqb  -0.85820
gfz2010yqqv  -1.25500
gfz2010yqwx  -1.39180
gfz2011aatr  -1.09910
gfz2011adjs  -2.44260
gfz2011aeay  -0.15276
gfz2011aldv  -1.89190
gfz2011alip  -1.17460
gfz2011alsa  -1.58600
gfz2011alwf   1.51220
gfz2011anur  -0.77114
gfz2011aosc  -0.35080
gfz2011aqxf  -1.34380
gfz2011blsi  -1.84110
gfz2011bnzn  -0.50220
gfz2011bpkd  -0.40035
gfz2011ccpw  -0.31698
gfz2011cfae   0.81499
gfz2011cndo  -0.96472
gfz2011coxh  -1.29870
gfz2011csju  -1.51930
gfz2011cvcg  -0.49189
gfz2011cvfg  -0.49699
gfz2011cwgn  -0.98407
gfz2011cykd  -3.32910
gfz2011cylz  -1.90220
gfz2011cynl  -0.83377
gfz2011cyre  -2.03600
gfz2011cyuk  -3.40650
gfz2011czwj  -1.88590
gfz2011dbev  -1.51700
gfz2011dbig  -1.55040
gfz2011dbon  -1.17550
gfz2011dbwt  -0.24413
gfz2011dcqb  -0.94118
gfz2011dddh  -0.82086
gfz2011deaf  -1.85870
gfz2011dkyi  -1.12130
gfz2011dllz  -2.89440
gfz2011dlyx  -0.90805
gfz2011dmat  -1.29740
gfz2011dndz  -1.01800
gfz2011dpqx  -1.80530
gfz2011dtpy  -0.90940
gfz2011duyr  -1.43310
gfz2011eayc  -0.60584
gfz2011eazf  -0.95297
gfz2011ecaj  -0.46548
gfz2011ecsc  -1.33240
gfz2011edmm  -0.58026
gfz2011eebc  -0.82767
gfz2011ehzq  -1.32020
gfz2011ejlp  -1.64430
gfz2011eltw  -0.78351
gfz2011enva  -1.82010
gfz2011eocc  -0.23657
gfz2011etje  -0.63725
gfz2011fdzv  -0.10014
gfz2011fgvr  -1.98540
gfz2011fhag  -1.53310
gfz2011fhbm  -0.89582
gfz2011fhur  -1.21390
gfz2011fkbn  -1.53140
gfz2011flgj  -1.29110
gfz2011fnsw   0.09869
gfz2011gbmx  -1.01720
gfz2011gcwb  -1.49010
gfz2011gdgh  -1.68960
gfz2011ggvf  -1.13870
gfz2011ghky  -1.51320
gfz2011gkey  -0.30054
gfz2011gkzt  -1.73290
gfz2011gzbr  -0.97657
gfz2011haid  -1.82720
gfz2011hbex  -1.48670
gfz2011hebt  -1.71340
gfz2011hfkj  -1.80860
gfz2011hlqw  -1.50220
gfz2011hlsa  -1.51440
gfz2011hlth  -1.37630
gfz2011hpgx  -2.00380
gfz2011hpqp  -1.60080
gfz2011hrhe  -0.56162
gfz2011hryk  -1.24710
gfz2011hsfj   1.49090
gfz2011hvbu  -1.98790
gfz2011icxe  -1.27600
gfz2011ieie  -1.89360
gfz2011knoo  -0.73093
gfz2011kqwo  -3.19850
gfz2011kqyg  -1.42200
gfz2011kwid  -1.62990
gfz2011kwjx  -1.99210
gfz2011kwkw  -2.04100
gfz2011kwld   1.15300
gfz2011kwnu   1.29070
gfz2011kwqc   0.59208
gfz2011kxzp  -1.10180
gfz2011lcxq  -1.33050
gfz2011lczg  -0.50730
gfz2011lgsg  -0.71386
gfz2011lhls  -0.65663
gfz2011lvjr  -1.60070
gfz2011lzwj  -0.99676
gfz2011mdie  -0.69017
gfz2011mjom  -0.48192
gfz2011mllx  -1.25700
gfz2011mpme  -2.81120
gfz2011mprq  -0.35221
gfz2011myia  -0.94448
gfz2011nauw  -1.62140
gfz2011necz  -0.58958
gfz2011nkaz   0.39065
gfz2011nmnq  -0.99340
gfz2011noud  -1.95480
gfz2011npgs   0.70303
gfz2011nqpd  -0.38624
gfz2011nrwc  -0.43907
gfz2011nsex  -0.67519
gfz2011ntkh  -0.34623
gfz2011ntrv  -0.01503
gfz2011nudm  -1.65380
gfz2011ogqk  -2.15560
gfz2011ohcy  -0.31866
gfz2011oiqe  -0.45361
gfz2011oiwk  -0.79611
gfz2011olkk  -0.10968
gfz2011oolr  -1.51370
gfz2011orgn  -1.35940
gfz2011ornx  -0.95712
gfz2011owvz  -0.24876
gfz2011pccd  -1.31010
gfz2011pdpt   0.18095
gfz2011pdst  -0.67556
gfz2011phms  -2.10200
gfz2011pntf  -1.28820
gfz2011ptus  -1.32030
gfz2011qigx   6.88280
gfz2011qvae  -1.86250
gfz2011qyms  -0.63044
gfz2011rabm  -0.93780
gfz2011rewa  -1.98890
gfz2011rgwp  -1.00550
gfz2011rqui  -0.94797
gfz2011rsrh  -1.43170
gfz2011rznl  -1.04390
gfz2011sagt  -0.99037
gfz2011shqm  -1.21890
gfz2011taps  -0.28645
gfz2011tbas  -1.37210
gfz2011tcij  -0.45936
gfz2011tivu   0.62240
gfz2011tjrf  -1.13670
gfz2011tjue  -1.22260
gfz2011tkfp  -1.10360
gfz2011tkog  -1.72120
gfz2011tnag   0.03809
gfz2011toub  -1.90810
gfz2011tpbl  -1.49700
gfz2011tpfr  -1.50890
gfz2011tsfd  -1.52680
gfz2011tsnp  -1.18160
gfz2011tuea   0.17839
gfz2011twov   0.26221
gfz2011udsq   1.12360
gfz2011uepx  -0.36627
gfz2011ugzz  -0.86818
gfz2011ujze  -1.02600
gfz2011uphh  -0.93684
gfz2011urxy  -1.35800
gfz2011urzu  -1.14440
gfz2011uzqv  -0.10348
gfz2011vclt   0.34027
gfz2011vhfi  -0.35472
gfz2011vnza  -0.73319
gfz2011vxns  -1.80870
gfz2011wcic  -1.71690
gfz2011wfja  -0.91503
gfz2011wijj  -0.79114
gfz2011wjkf  -1.29310
gfz2011wjul  -1.84200
gfz2011wtmq  -0.80718
gfz2011wwjs  -1.09480
gfz2011wxfs  -0.69525
gfz2011wxtk  -1.31810
gfz2011wype  -0.96322
gfz2011xaan  -1.30770
gfz2011xcpv  -0.84998
gfz2011xesx  -0.57468
gfz2011xqru  -2.63490
gfz2011xyxj  -0.74735
gfz2011yfdx  -1.18500
gfz2011yfys  -1.06390
gfz2011yhwz  -0.48229
gfz2011ytnu  -0.75377
gfz2011yybo  -1.12160
gfz2011yzwq  -2.53160
gfz2011zjap  -0.90635
gfz2011zklv  -1.34790
gfz2011zlrd  -0.65359
gfz2011zqhh  -2.78870
gfz2012ajtq  -2.21830
gfz2012aqtq  -1.70720
gfz2012attr  -0.74462
gfz2012bfah  -1.17410
gfz2012bfyn  -0.52960
gfz2012bngd  -1.10950
gfz2012bpkx  -1.92640
gfz2012bpnl  -0.99471
gfz2012bpwl  -0.65283
gfz2012bqeb  -1.03880
gfz2012bszs  -0.69490
gfz2012byad  -0.87132
gfz2012cevz  -0.24023
gfz2012cgvr  -0.58059
gfz2012cmfy  -0.95184
gfz2012cnod  -0.00000
gfz2012covm  -0.75756
gfz2012cqnl  -2.60110
gfz2012cxdn  -1.41800
gfz2012czlw   0.34712
gfz2012deri  -0.96605
gfz2012dfhq  -1.09380
gfz2012dimn   0.57269
gfz2012dinb  -0.69296
gfz2012djwi  -0.29916
gfz2012dyyh  -0.91092
gfz2012ekda  -1.10570
gfz2012ekzf  -1.61120
gfz2012elce  -0.84670
gfz2012emjg  -0.43344
gfz2012enno  -1.29120
gfz2012eskt   0.79756
gfz2012ewgo  -0.84196
gfz2012fbfo  -1.38840
gfz2012fhnh  -0.86114
gfz2012fivh   0.05527
gfz2012foeo  -0.81929
gfz2012fwfo  -1.76740
gfz2012fwob  -1.89970
gfz2012fwtr  -2.10630
gfz2012fzfa  -1.75330
gfz2012fzsq  -0.95015
gfz2012gill  -0.97901
gfz2012gkvr  -0.80541
gfz2012glss   0.90036
gfz2012gocc  -3.15640
gfz2012gomm   1.57110
gfz2012gukw  -1.65030
gfz2012gwqb  -0.49824
gfz2012hdbm  -0.89709
gfz2012hnul  -1.85730
gfz2012hnuw   0.17433
gfz2012hogg  -0.98992
gfz2012hyaa  -0.71474
gfz2012icmv   3.30820
gfz2012ihdl  -0.85030
gfz2012iivw  -1.13510
gfz2012ilvn  -1.37330
gfz2012imay  -1.34860
gfz2012jgvj  -0.74904
gfz2012jlox  -1.86190
gfz2012jqvn  -1.49100
gfz2012jshk  -0.34163
gfz2012jupx  -0.99811
gfz2012kbjb   1.36010
gfz2012kbzj  -0.47733
gfz2012keor  -2.37000
gfz2012kkup  -1.73920
gfz2012klba  -0.20908
gfz2012klhx  -1.51040
gfz2012kuct   0.12612
gfz2012kudo  -1.13580
gfz2012kvzv  -0.77681
gfz2012kwgo  -1.20450
gfz2012lczo  -2.20400
gfz2012ldgs  -0.65113
gfz2012ldxg  -2.23550
gfz2012ldzj  -1.64410
gfz2012ledy   0.28237
gfz2012llug   0.75840
gfz2012lpvn  -1.55310
gfz2012lrol  -1.45420
gfz2012lrsv  -0.29503
gfz2012lxkv  -1.63630
gfz2012maxy  -0.90469
gfz2012minr  -1.58090
gfz2012mkpn  -0.78565
gfz2012mlyf  -1.29480
gfz2012mofm  -2.70080
gfz2012mpvy  -1.92700
gfz2012mpyl  -1.37480
gfz2012mupa  -1.07950
gfz2012mvwr  -0.72279
gfz2012mwij  -0.83406
gfz2012myqa  -0.63854
gfz2012naqz  -1.57280
gfz2012nedn  -1.10810
gfz2012ngic  -0.71187
gfz2012njha  -0.99387
gfz2012nkdf  -1.49070
gfz2012nojx  -0.17078
gfz2012nolo  -2.63930
gfz2012nsbz  -0.44519
gfz2012ntzv  -1.48640
gfz2012nutf  -1.67090
gfz2012nxog  -1.07820
gfz2012nxyt  -0.02155
gfz2012oazn  -0.58694
gfz2012obgw  -0.24940
gfz2012oedb  -1.40710
gfz2012omvo  -1.84390
gfz2012oqmw  -1.19240
gfz2012ovqs  -1.21550
gfz2012peex   1.40630
gfz2012pgcl  -0.76641
gfz2012pkel  -0.88373
gfz2012plea  -0.98455
gfz2012pqmu  -1.59210
gfz2012priv  -0.71045
gfz2012qjhs  -1.92820
gfz2012qurq  -0.24331
gfz2012qxcy  -1.64790
gfz2012rats  -1.60520
gfz2012rcnj  -1.40610
gfz2012repv  -0.67108
gfz2012rjsd  -1.27850
gfz2012ronz  -1.91890
gfz2012royy  -1.89180
gfz2012rwko  -1.08600
gfz2012rwov  -1.32320
gfz2012rypu  -2.49930
gfz2012sfer  -1.59240
gfz2012snhi   0.46990
gfz2012spbj  -1.04530
gfz2012sphd  -1.10130
gfz2012sqmv  -1.59890
gfz2012sqvi   1.45640
gfz2012ssyn  -1.22920
gfz2012syvl  -1.07800
gfz2012tazz  -0.86550
gfz2012teic  -0.79752
gfz2012thfx  -0.54523
gfz2012tmop  -1.52540
gfz2012ttoa  -1.42950
gfz2012tvmv  -0.67877
gfz2012tzcc  -0.84986
gfz2012tzgb  -0.35285
gfz2012uafg  -1.91380
gfz2012uciv  -1.20540
gfz2012ueqo  -0.66390
gfz2012ufew  -0.00000
gfz2012uhup  -1.21970
gfz2012ulpd  -1.19490
gfz2012uvqf  -0.03856
gfz2012uyxb  -0.53853
gfz2012uzyj   0.69096
gfz2012vdbt  -0.52534
gfz2012vntz  -1.25730
gfz2012vpza   0.36547
gfz2012vrgb  -1.27130
gfz2012vxvr  -1.61990
gfz2012whku  -1.06190
gfz2012wklq  -2.31960
gfz2012wmkd  -1.72480
gfz2012wmsg  -0.72036
gfz2012wpah   0.24798
gfz2012wtkr  -1.82880
gfz2012wubh  -0.72500
gfz2012wvfl  -2.05080
gfz2012wxer  -0.99904
gfz2012wxlg  -1.42150
gfz2012wxnu  -1.47100
gfz2012wybs  -1.24640
gfz2012wypz  -1.39360
gfz2012xbjq  -1.56420
gfz2012xcgk  -2.04430
gfz2012xjyv  -0.80814
gfz2012xkkv  -1.65240
gfz2012xslk   0.54837
gfz2012xvwn  -1.24170
gfz2012yxxu  -0.55912
gfz2012zemh  -0.99833
gfz2012zfag  -0.74246
gfz2012zitl  -1.69140
gfz2012zjpv  -2.10420
gfz2012zklq  -1.10380
gfz2013aayj  -0.65785
gfz2013axoj  -0.77504
gfz2013bdke  -2.43130
gfz2013bdpu  -1.30090
gfz2013bokp  -2.26940
gfz2013btjm  -0.90393
gfz2013cbsm  -1.06260
gfz2013ccnr  -2.33590
gfz2013cdan  -0.66270
gfz2013ciaf   0.05366
gfz2013cvqg  -1.08830
gfz2013cwpn  -0.63697
gfz2013dkly  -0.85842
gfz2013dkmz   0.16515
gfz2013dofo  -1.37020
gfz2013dojq  -1.02680
gfz2013drxz  -1.85780
gfz2013dsog  -0.58395
gfz2013dspt  -1.90030
gfz2013dsrk  -2.22230
gfz2013dvyh  -1.06310
gfz2013egni  -1.32370
gfz2013egpu  -1.20710
gfz2013ekpm   0.25261
gfz2013enbx   0.25137
gfz2013ewbo  -1.33510
gfz2013fiud  -0.22472
gfz2013fkii   0.96408
gfz2013fwxa  -1.20020
gfz2013fygc  -1.29390
gfz2013gcfx   0.01662
gfz2013gdgf  -0.87382
gfz2013gdnq  -1.35090
gfz2013gihf  -1.22810
gfz2013gjdc  -1.56880
gfz2013gngz  -1.07410
gfz2013gock  -1.14520
gfz2013hbkq   0.35357
gfz2013hdnc  -1.58240
gfz2013hmbc   0.54462
gfz2013hsfw  -1.70170
gfz2013huwr  -0.90795
gfz2013hxcx  -0.94487
gfz2013iayx  -0.92270
gfz2013ifpq  -0.37990
gfz2013ijsr  -0.70284
gfz2013ikgo  -0.91639
gfz2013ilug  -1.47960
gfz2013inux   0.91534
gfz2013ippu  -0.48174
gfz2013jesk  -1.20740
gfz2013jfah  -0.96253
gfz2013jgij  -1.51710
gfz2013jgip  -1.50370
gfz2013jkut  -0.57165
gfz2013jokw  -1.79000
gfz2013jusj  -1.26860
gfz2013jwvc  -1.32620
gfz2013kccc  -0.98944
gfz2013kdeo  -0.95541
gfz2013kheb  -0.74041
gfz2013khli  -0.22501
gfz2013kilx  -0.97276
gfz2013krei  -1.25880
gfz2013kvtk  -0.41137
gfz2013kweg   0.08581
gfz2013kwps  -0.83763
gfz2013lbiu  -0.06956
gfz2013ldos  -1.47280
gfz2013ldpc  -1.08660
gfz2013ldqb  -1.77240
gfz2013lgnl  -0.68379
gfz2013lixa  -1.42240
gfz2013lmqe  -0.71853
gfz2013lmrs  -1.06410
gfz2013lwbk  -0.84451
gfz2013lxyn   0.01165
gfz2013lyko  -1.21560
gfz2013mmwq  -0.18191
gfz2013mnei  -0.95516
gfz2013mqmv  -0.68673
gfz2013mvgr  -0.52767
gfz2013mwbh  -1.56800
gfz2013mxee  -0.86755
gfz2013ncjp  -1.50670
gfz2013ndin  -1.76620
gfz2013neuc  -0.36690
gfz2013ngnt  -1.35830
gfz2013nixj  -1.58310
gfz2013nkgj  -1.81260
gfz2013nknw  -1.25480
gfz2013nmac  -1.13300
gfz2013nqgw  -0.54415
gfz2013nuvi  -0.46978
gfz2013nvdj  -0.22018
gfz2013nwdi  -1.36730
gfz2013oejn  -0.73848
gfz2013ogde  -0.98595
gfz2013oifr  -1.04540
gfz2013oinc  -1.11950
gfz2013ojti  -0.36523
gfz2013pkbs  -0.38765
gfz2013plhp   0.67316
gfz2013pndn   0.50716
gfz2013poxj  -0.47919
gfz2013puag  -0.70692
gfz2013pxsj  -0.95931
gfz2013qali  -0.05351
gfz2013qcck  -0.88300
gfz2013qfmm  -0.72390
gfz2013qmer  -1.37770
gfz2013qzdq  -0.77155
gfz2013rait  -1.43470
gfz2013rdoo  -0.90613
gfz2013roki   0.31629
gfz2013rsnr  -1.38810
gfz2013rwfe  -2.85090
gfz2013ryxm   0.51223
gfz2013sart  -0.03592
gfz2013sdus  -0.11761
gfz2013sebq  -0.61241
gfz2013sfto  -1.01450
gfz2013shzy   0.53235
gfz2013skkm  -1.06050
gfz2013snbr  -0.87133
gfz2013snyf  -0.36562
gfz2013stht  -0.92402
gfz2013svci  -1.25160
gfz2013tcbk  -1.55480
gfz2013tcxc  -0.45127
gfz2013tcxq  -0.86481
gfz2013tdau  -2.25340
gfz2013tlaf  -1.48330
gfz2013toea  -1.63240
gfz2013toxf   0.37556
gfz2013tpeb  -2.24300
gfz2013tqbb   0.39944
gfz2013tusd  -0.97999
gfz2013tvmw  -1.63530
gfz2013txev  -1.11440
gfz2013txij  -1.44070
gfz2013txtb  -0.57453
gfz2013tyas  -0.35730
gfz2013uauo  -1.47680
gfz2013ufxk   1.23520
gfz2013ufxm  -0.33186
gfz2013uqsp  -0.88672
gfz2013uthl   0.03187
gfz2013vexx  -1.62650
gfz2013vfyw  -0.61995
gfz2013vfzp  -2.40610
gfz2013vgrk  -1.57030
gfz2013vhzu   0.17579
gfz2013viul  -0.10728
gfz2013vjfe  -0.00209
gfz2013vjjc  -2.02760
gfz2013vnfj   0.56919
gfz2013vrmy   0.05173
gfz2013vsbl  -0.54524
gfz2013vvrq  -2.64430
gfz2013vzbo  -1.40330
gfz2013waam  -1.06280
gfz2013wjmm  -1.89000
gfz2013wkyk   0.19651
gfz2013wmfd  -0.89310
gfz2013wnpr  -0.55435
gfz2013wpga   0.60492
gfz2013xgmp   0.56137
gfz2013xizq  -2.93200
gfz2013xklb  -1.46030
gfz2013xkwt  -0.31737
gfz2013xmul  -0.96552
gfz2013xpfa   0.06118
gfz2013xsdt  -1.32280
gfz2013xvqd  -1.13330
gfz2013xvxf  -0.53390
gfz2013xwda  -1.97190
gfz2013xxwv  -0.64876
gfz2013xxxq  -0.42998
gfz2013xyzb   0.46682
gfz2013xzcg  -0.11345
gfz2013yaig  -0.87706
gfz2013yctg  -1.62540
gfz2013yghj   0.18475
gfz2013yhpk  -1.02100
gfz2013ylbx  -0.91841
gfz2013ymky  -0.42799
gfz2013ypdc   1.58030
gfz2013yqkv   0.27708
gfz2013yyhc  -0.17056
gfz2013ziyr   0.74891
gfz2013zjel  -0.07662
gfz2013zmoc  -0.70967
gfz2014abgd   0.88336
gfz2014adoj  -1.17550
gfz2014afmx  -1.19610
gfz2014afyp   0.69113
gfz2014ajlk  -0.80486
gfz2014algk  -1.18920
gfz2014amsb   0.92122
gfz2014ande  -0.18966
gfz2014arqr  -1.11390
gfz2014atbl   0.66497
gfz2014atgw  -0.88565
gfz2014azqs  -0.03623
gfz2014bagd  -1.71920
gfz2014bezu  -0.87213
gfz2014bfng  -0.37201
gfz2014bfqo  -0.38931
gfz2014bhhv  -0.96443
gfz2014bldx  -1.66780
gfz2014bmdh  -1.07960
gfz2014bmta  -1.34180
gfz2014bwue  -0.69507
gfz2014bzna  -0.63267
gfz2014bzxy  -1.16310
gfz2014capn  -0.12315
gfz2014cbtl  -0.52181
gfz2014cgog  -0.59438
gfz2014chdv  -1.23480
gfz2014claq  -1.90770
gfz2014cmwb  -0.49494
gfz2014cqyo  -0.89622
gfz2014ctot   0.01844
gfz2014cvkm  -0.12781
gfz2014cvxx  -0.86424
gfz2014czno  -1.60100
gfz2014czol  -0.68193
gfz2014czqi  -1.23770
gfz2014czua  -0.08421
gfz2014dhxt  -0.51034
gfz2014disp  -0.86189
gfz2014dlri   0.29935
gfz2014duqn  -0.87103
gfz2014ebmc   0.26376
gfz2014edfx  -0.86917
gfz2014egwu  -1.48880
gfz2014ehsf  -0.65551
gfz2014fcms  -0.46264
gfz2014fcsy  -1.20250
gfz2014femz  -0.45577
gfz2014fexu   0.78204
gfz2014ffdc  -0.33448
gfz2014fgvi  -0.52690
gfz2014fgvr   0.35779
gfz2014fgvz   0.82398
gfz2014fgxt  -0.11357
gfz2014fgxz  -0.84168
gfz2014fgyo  -0.72559
gfz2014fhbd  -0.15202
gfz2014fhdw  -0.79530
gfz2014fhhp  -0.20217
gfz2014fhjd  -0.79501
gfz2014fhla  -1.33890
gfz2014fhlh  -1.19360
gfz2014fhrq  -0.83600
gfz2014fhsg  -0.76645
gfz2014fhwx   0.16354
gfz2014fhyb   0.74306
gfz2014fimn   0.06324
gfz2014fiwq   0.91470
gfz2014fjpb   0.22134
gfz2014fjzd   0.02335
gfz2014fjzw  -0.40775
gfz2014fkmr  -0.93253
gfz2014fkmx  -0.91497
gfz2014flfa   0.29633
gfz2014fnyg  -1.07700
gfz2014foio  -1.19940
gfz2014frdz   0.16161
gfz2014frel  -1.37570
gfz2014frez   0.59759
gfz2014frfl   0.98719
gfz2014frgm   0.29565
gfz2014frwh   0.63187
gfz2014fsuh   0.38603
gfz2014ftka  -1.20790
gfz2014ftoc  -0.71562
gfz2014ftpw  -0.11469
gfz2014ftrk  -0.62278
gfz2014furx   0.70288
gfz2014fusc  -0.86684
gfz2014fusj  -0.63357
gfz2014fuub   0.35497
gfz2014fuup   0.23115
gfz2014fuvk  -0.35415
gfz2014fval  -0.51124
gfz2014fvgh  -0.01912
gfz2014fvjl  -0.32765
gfz2014fvpy  -0.05440
gfz2014fvrg  -0.15807
gfz2014fwdr   0.23364
gfz2014fwyr  -1.96020
gfz2014gbcz  -1.74860
gfz2014gbdq   0.03244
gfz2014gcza   0.18146
gfz2014geuy   0.26938
gfz2014gezs   1.58780
gfz2014ghpe  -1.24520
gfz2014gkgf  -1.21640
gfz2014gkgs  -2.45020
gfz2014gkhp  -1.60560
gfz2014gkhy  -0.16452
gfz2014gkjl  -0.53604
gfz2014gkjt  -1.08370
gfz2014gkjw  -0.53274
gfz2014gklq  -0.48176
gfz2014gklv  -1.37480
gfz2014gkmm  -0.74234
gfz2014gkmw  -0.00000
gfz2014gkob  -0.76378
gfz2014gkok  -1.14900
gfz2014gkpd   0.25976
gfz2014gkpj   0.15030
gfz2014gkqf  -0.00224
gfz2014gkqu   0.01925
gfz2014gksj  -0.66009
gfz2014gksu  -1.34070
gfz2014gktq  -0.07314
gfz2014gkut   0.37269
gfz2014gkxm   0.45196
gfz2014glcu   0.20581
gfz2014glcy  -0.95119
gfz2014glfn  -0.59375
gfz2014glgo  -0.23582
gfz2014gltx  -0.17605
gfz2014glvu  -2.77350
gfz2014gmci   2.15040
gfz2014gmge  -1.30110
gfz2014gmhp   0.45676
gfz2014gmhr  -2.53770
gfz2014gmip  -0.46754
gfz2014gmjo   0.25783
gfz2014gmku  -0.16828
gfz2014gmlz   0.52351
gfz2014gmmk   1.19300
gfz2014gmmt   0.41606
gfz2014gmnb  -1.17370
gfz2014gmnw  -0.72598
gfz2014gmor  -0.50113
gfz2014gmpy  -0.22502
gfz2014gmrj   0.68303
gfz2014gmtb   0.48433
gfz2014gmuk  -0.34916
gfz2014gmvr   0.03632
gfz2014gmzl  -0.25049
gfz2014gndq   0.29032
gfz2014gnfd   0.14603
gfz2014gnfs  -0.36771
gfz2014gngg  -0.49462
gfz2014gnnt   0.17691
gfz2014gnre   0.46856
gfz2014gnxb  -0.30856
gfz2014goba  -1.56530
gfz2014goei  -1.20310
gfz2014gogv  -0.91311
gfz2014gohm  -0.18632
gfz2014golz   0.31708
gfz2014goqw  -0.07179
gfz2014gori   0.10242
gfz2014gpce  -0.01833
gfz2014gphr  -0.52736
gfz2014gpuk   0.43419
gfz2014gpya   0.45412
gfz2014gqbj   0.20803
gfz2014gqed   0.14387
gfz2014gqer  -0.04192
gfz2014gqiy  -0.04206
gfz2014gqqz  -0.86322
gfz2014gqve  -0.57404
gfz2014grcv   0.08160
gfz2014gsqs   0.01064
gfz2014gtwz  -0.23932
gfz2014gufl  -0.79029
gfz2014gull  -0.56919
gfz2014gulp  -1.10310
gfz2014gumd   0.93791
gfz2014gutm  -0.21296
gfz2014gvhw  -0.04096
gfz2014gvqj   0.11811
gfz2014gvra   0.32114
gfz2014gvrd  -0.22652
gfz2014gwab   0.35944
gfz2014gwgf  -0.81085
gfz2014gxkh   1.20430
gfz2014gxxh   0.03097
gfz2014gxxo   0.03921
gfz2014gyxd  -0.23920
gfz2014gzrm   0.86545
gfz2014gzue  -1.77160
gfz2014hafk   1.82180
gfz2014hagb   0.66330
gfz2014haos   0.30618
gfz2014hasj  -1.01050
gfz2014hauo  -1.41620
gfz2014hbjz  -0.17486
gfz2014hbqb  -0.93455
gfz2014hcmj  -0.85526
gfz2014hetr  -0.93344
gfz2014heum  -0.22545
gfz2014hfhl  -0.33649
gfz2014hfzf  -0.07635
gfz2014hgqo  -0.65073
gfz2014hhfs  -0.23440
gfz2014hhwx   0.63988
gfz2014hjgh  -0.13785
gfz2014hjgo  -0.33301
gfz2014hjgr  -0.60035
gfz2014hjij  -0.11370
gfz2014hjlx  -0.34117
gfz2014hkcf  -0.55746
gfz2014hkck  -1.27950
gfz2014hmzg   0.35660
gfz2014hoap  -0.55490
gfz2014hocg  -1.03630
gfz2014hphw  -0.05002
gfz2014hppw  -0.64802
gfz2014hpqz  -0.96071
gfz2014hqxs  -1.42390
gfz2014hrft  -0.84266
gfz2014hriu  -1.35810
gfz2014hrtn   0.75092
gfz2014hscz  -1.29660
gfz2014huaj   0.41119
gfz2014hwwi   0.24368
gfz2014hyal   0.87074
gfz2014hyvq   0.66396
gfz2014hzdy   0.32744
gfz2014hzfw  -1.43130
gfz2014hzgn   1.51040
gfz2014hzhe  -2.06350
gfz2014hzig   1.68920
gfz2014iani  -0.07235
gfz2014icqt  -1.05260
gfz2014ifzj   0.12339
gfz2014imnn  -0.49674
gfz2014inbj  -0.13870
gfz2014iobd  -0.82670
gfz2014iqzj   0.63378
gfz2014irci  -0.33975
gfz2014isff   0.40907
gfz2014issk  -0.43439
gfz2014isub   0.26337
gfz2014isys   0.57599
gfz2014itab   0.32258
gfz2014itbe  -0.38350
gfz2014itfc  -0.82707
gfz2014itgh  -0.41980
gfz2014itjx  -0.73389
gfz2014itkw  -0.16838
gfz2014itpj  -0.60975
gfz2014iuhq   0.10782
gfz2014iwwl  -0.27426
gfz2014ixga  -0.17905
gfz2014iywt  -0.14127
gfz2014jagg   0.11502
gfz2014jatq  -0.14630
gfz2014jcjt  -1.24780
gfz2014jcmt  -0.81476
gfz2014jggm  -0.07799
gfz2014jipr   1.07850
gfz2014jjhc  -1.32910
gfz2014jjln   0.47174
gfz2014jkxe  -0.79335
gfz2014jnxm  -1.01840
gfz2014jnyv  -1.00920
gfz2014jomw  -0.52165
gfz2014jpep  -0.27319
gfz2014jpez  -0.05382
gfz2014jpxs  -0.61468
gfz2014jwmh  -0.11463
gfz2014kara  -0.86161
gfz2014kbuk  -1.18850
gfz2014khan  -0.76046
gfz2014khlk  -1.74900
gfz2014kizt   0.49688
gfz2014kjzb  -0.23071
gfz2014kkhh   0.95546
gfz2014kmmt  -1.71260
gfz2014kndc  -0.70417
gfz2014knks  -1.17590
gfz2014knxs  -0.93910
gfz2014ksdv  -1.04800
gfz2014ksmz  -0.25386
gfz2014kwrg   0.59357
gfz2014kyan  -0.52583
gfz2014kytf  -0.67745
gfz2014kzzm  -4.25970
gfz2014lchy   1.49010
gfz2014lddn  -3.24090
gfz2014lefs  -1.31910
gfz2014lgqn  -1.16680
gfz2014lhqn  -0.14508
gfz2014lkyf  -0.55868
gfz2014lmge  -0.20357
gfz2014lnmw  -0.13524
gfz2014lnqy  -0.80111
gfz2014lpfc  -0.76727
gfz2014lpim  -1.01270
gfz2014lrzx  -0.68179
gfz2014lvgn  -0.95282
gfz2014lwom  -1.33050
gfz2014lxnc  -0.56203
gfz2014lxqr  -1.77910
gfz2014lyhk  -1.06670
gfz2014lynp  -0.05365
gfz2014lzal  -0.95746
gfz2014lzow  -0.32071
gfz2014macx  -0.77796
gfz2014madw  -0.43135
gfz2014mhgg  -0.88623
gfz2014mlrr   1.14040
gfz2014moaw  -1.07740
gfz2014mtum  -0.81865
gfz2014mwor  -1.32520
gfz2014mxkr   0.07971
gfz2014ncub  -0.77723
gfz2014ngnd  -1.20110
gfz2014ngsk  -0.73303
gfz2014nhyb  -0.90408
gfz2014niqj   0.28452
gfz2014nkdx  -0.27528
gfz2014nnxd  -0.54723
gfz2014nowp  -0.84694
gfz2014npdk  -0.84654
gfz2014npeo  -1.19940
gfz2014nphm  -0.55582
gfz2014nqfm  -0.82276
gfz2014nrie  -1.22680
gfz2014ntdh  -0.80566
gfz2014nvdi  -1.19130
gfz2014nyeh   0.04468
gfz2014nyfb  -0.14520
gfz2014nyko  -0.59179
gfz2014odgv  -0.11919
gfz2014oinz  -1.09390
gfz2014omyn  -0.28297
gfz2014oqhw   0.42273
gfz2014orxs  -0.74728
gfz2014oryw  -0.69908
gfz2014osvx  -1.14570
gfz2014osvz  -2.75160
gfz2014owxc  -0.47105
gfz2014oxcc  -0.66112
gfz2014oyly  -1.02160
gfz2014pjer  -0.02938
gfz2014pkll  -1.55720
gfz2014ppzf  -1.06490
gfz2014pvch  -0.71006
gfz2014pzml  -0.57052
gfz2014pzni  -0.70839
gfz2014qbzi  -1.18850
gfz2014qfzq  -1.16170
gfz2014qlvc  -0.90699
gfz2014qlxd  -1.27430
gfz2014qngj  -1.08240
gfz2014qqhm  -1.36530
gfz2014raau  -0.92151
gfz2014rbpx  -0.34439
gfz2014rbsl  -1.22010
gfz2014rdsn  -1.73140
gfz2014rfeb  -0.99127
gfz2014riel  -0.89216
gfz2014rils  -0.74689
gfz2014rkwl  -0.26455
gfz2014rnrn   1.48780
gfz2014roba  -0.70660
gfz2014romy  -0.90972
gfz2014rwos  -0.96143
gfz2014sadu  -0.11409
gfz2014shid  -0.41325
gfz2014sjqw  -0.84052
gfz2014sptq  -1.04900
gfz2014sryn  -1.07680
gfz2014ssds  -0.65468
gfz2014ssmv  -1.76310
gfz2014ssvz  -1.85110
gfz2014szzf  -0.50240
gfz2014tabg  -1.17350
gfz2014tovs  -0.39535
gfz2014tqdo  -1.24940
gfz2014tqly  -0.40748
gfz2014tqsf  -0.05079
gfz2014tqth   1.13140
gfz2014tzsd  -0.94595
gfz2014ubwn  -0.58330
gfz2014udgg  -1.82620
gfz2014uohh  -0.89678
gfz2014utac  -0.85254
gfz2014uuuf  -2.36990
gfz2014uvji  -2.17370
gfz2014uyrq  -1.87600
gfz2014vcev  -3.91560
gfz2014veit   0.34434
gfz2014vhld  -0.64082
gfz2014vhms  -1.48000
gfz2014vjoz  -0.89771
gfz2014vqqa   1.18370
gfz2014waoo  -0.99453
gfz2014watn  -1.34970
gfz2014wjko  -0.78685
gfz2014wmsc  -1.03000
gfz2014wrkh  -1.14650
gfz2014wwib  -0.52773
gfz2014xaxx  -1.88910
gfz2014xbyr  -0.83061
gfz2014xhkc   0.50499
gfz2014xhwk   0.07078
gfz2014xjri  -0.54270
gfz2014xoji  -0.29779
gfz2014xqby   1.12310
gfz2014xqqd  -1.22000
gfz2014yhhm  -0.04438
gfz2014ynhc  -2.04570
gfz2014ynzy  -0.73805
gfz2014yppv  -0.54205
gfz2014yrug  -1.44450
gfz2014yula  -1.20780
gfz2014yyiy  -0.94961
gfz2014zcgo   0.65445
gfz2014zkys  -0.88153
gfz2014zlgp  -0.43271
gfz2014zplq  -0.45423
gfz2015abpw  -0.41923
gfz2015apnk  -1.11290
gfz2015aqbq  -0.39678
gfz2015arpd  -1.22760
gfz2015aruz  -1.39880
gfz2015atxv  -0.45516
gfz2015azzp  -0.16475
gfz2015bdyd  -1.33650
gfz2015berb  -0.85208
gfz2015bfjm  -0.67951
gfz2015bkbj  -0.12680
gfz2015bphe  -1.80950
gfz2015bpxl   0.62569
gfz2015bsnl  -1.23160
gfz2015bucr  -0.30062
gfz2015bvsj  -0.91469
gfz2015byfn  -0.91551
gfz2015byjd  -1.09290
gfz2015cewd   0.13547
gfz2015chhn  -1.83440
gfz2015chqn  -0.53265
gfz2015cxhx  -0.86274
gfz2015cxrc   0.01656
gfz2015cxxk  -1.12810
gfz2015cyjd  -0.41897
gfz2015czfv  -1.44740
gfz2015ddhl  -0.42521
gfz2015dizn  -1.61430
gfz2015djts  -0.69377
gfz2015drlk   0.85968
gfz2015dskr  -0.54171
gfz2015dvbn  -1.12090
gfz2015ecgq  -0.97564
gfz2015ednc   0.74084
gfz2015eeyq  -0.20479
gfz2015egxq  -0.26687
gfz2015ehpz  -0.56785
gfz2015eiky  -0.81150
gfz2015elgy  -1.54260
gfz2015eljz  -1.68200
gfz2015emtg  -0.34011
gfz2015etai  -1.51070
gfz2015evpl  -0.52075
gfz2015eyqs  -1.24980
gfz2015fbbk  -0.27504
gfz2015fbew  -1.38680
gfz2015fcua  -0.22854
gfz2015fdpr  -0.74862
gfz2015fjhk  -0.35386
gfz2015fkbc  -0.20819
gfz2015fkgt  -1.71910
gfz2015fkjs  -1.05990
gfz2015fkkd  -0.93136
gfz2015fkuu  -0.55931
gfz2015flis  -1.13570
gfz2015fpez  -1.07390
gfz2015fsjj  -1.00890
gfz2015fvoi   0.48006
gfz2015fwkq   0.18948
gfz2015fxdi  -0.56479
gfz2015fyvk  -0.97322
gfz2015gckd  -1.21950
gfz2015ggjw  -1.10460
gfz2015gjbr  -0.47556
gfz2015gkwa   0.38016
gfz2015gmgf  -0.59457
gfz2015gnmy  -0.97599
gfz2015guhd  -0.14073
gfz2015gzja  -1.27130
gfz2015hdcp  -0.89612
gfz2015hgbk  -0.86211
gfz2015hhbd   0.11942
gfz2015hlqo  -0.47655
gfz2015hpmk  -0.57480
gfz2015hslo  -0.44732
gfz2015hwkv  -0.18208
gfz2015iele  -2.77510
gfz2015imty  -0.72943
gfz2015imyp   0.04593
gfz2015isim  -0.83403
gfz2015iwqk   0.70631
gfz2015ixyy  -1.20370
gfz2015jkdw  -0.61093
gfz2015jpap   1.91430
gfz2015kkqb  -0.90771
gfz2015kkth  -0.48364
gfz2015kphk   0.03111
gfz2015kquq   0.69142
gfz2015ksni  -1.12130
gfz2015kvwz  -0.80730
gfz2015lbcg  -1.27320
gfz2015lcma  -0.96644
gfz2015lcuo   0.75563
gfz2015lfma  -0.10250
gfz2015lfos   0.44869
gfz2015lfud  -0.88623
gfz2015lhjq  -0.94048
gfz2015lhjy  -0.46892
gfz2015ltii  -0.45271
gfz2015ltro   0.11342
gfz2015lytv  -2.41950
gfz2015lzad  -1.38560
gfz2015mbgr  -0.32529
gfz2015mddr  -0.85844
gfz2015mfpy  -0.46397
gfz2015micz  -0.01511
gfz2015mpte  -1.47660
gfz2015nbdc  -0.42336
gfz2015nerz  -1.30450
gfz2015nqgf  -0.39767
gfz2015ntpk  -0.32079
gfz2015nuxz  -1.31280
gfz2015nwug  -0.93028
gfz2015ocdz  -1.51670
gfz2015ocwr  -0.54398
gfz2015ofpd  -1.66090
gfz2015ofsr  -0.55786
gfz2015okmq  -0.70925
gfz2015okpu  -0.20135
gfz2015omab  -0.96221
gfz2015orkl  -0.83534
gfz2015oyfl  -1.04890
gfz2015pcvt  -0.88938
gfz2015pdri  -0.86915
gfz2015pjgr  -1.55780
gfz2015plal  -0.95691
gfz2015poni  -0.99082
gfz2015puah  -1.14170
gfz2015qnde  -0.49401
gfz2015qnho  -0.96736
gfz2015qnto  -1.13860
gfz2015qprd  -0.12360
gfz2015qpvd  -0.45574
gfz2015quzo  -0.13015
gfz2015rddx  -1.37690
gfz2015rgov  -0.63871
gfz2015rgrg  -0.96401
gfz2015rkbq  -1.55960
gfz2015rkrg  -1.67280
gfz2015rkzg  -1.08670
gfz2015roac  -0.46994
gfz2015rpzn  -2.76220
gfz2015rtnv  -0.15865
gfz2015rwsb  -1.82700
gfz2015rxmg  -1.52050
gfz2015saet   0.34064
gfz2015sdeo   0.03652
gfz2015sdfy  -1.73400
gfz2015seuf  -0.16695
gfz2015sevh  -0.82052
gfz2015sfdd  -1.88030
gfz2015sfdy  -2.14160
gfz2015sfeo  -1.28110
gfz2015sfga  -1.71050
gfz2015sfho  -0.67771
gfz2015sfhz  -1.25060
gfz2015sfiq  -1.71490
gfz2015sfjf  -0.61944
gfz2015sfkh  -1.52730
gfz2015sfko  -1.29060
gfz2015sfks  -1.16570
gfz2015sflf  -0.76348
gfz2015sfln  -2.21930
gfz2015sfmd  -0.17101
gfz2015sfnb  -0.08172
gfz2015sfno  -2.32030
gfz2015sfnv  -0.85402
gfz2015sfoc  -1.38100
gfz2015sfoh  -0.77836
gfz2015sfom   0.08649
gfz2015sfoq   0.40125
gfz2015sfpj   0.48950
gfz2015sfps  -1.21850
gfz2015sfqo  -1.00230
gfz2015sfqr  -1.25050
gfz2015sfrc  -1.38910
gfz2015sfrf  -0.53321
gfz2015sfrv   0.19152
gfz2015sfsi   0.49041
gfz2015sfte  -0.72734
gfz2015sftu  -1.00980
gfz2015sfuc  -0.70557
gfz2015sfuz  -0.64362
gfz2015sfwf  -0.24053
gfz2015sfxn  -1.00820
gfz2015sfzm   0.10768
gfz2015sgad  -0.82625
gfz2015sgdn  -1.26310
gfz2015sggc  -1.34550
gfz2015sgmr  -0.03845
gfz2015sgna  -0.94648
gfz2015sgxc  -1.36040
gfz2015sgyd  -0.90158
gfz2015shaq  -1.09410
gfz2015shel  -0.97497
gfz2015shhg  -0.04219
gfz2015shhu  -1.09960
gfz2015shjn  -1.53630
gfz2015shjo  -1.41090
gfz2015shqc  -1.14110
gfz2015shqe  -0.81530
gfz2015shrg  -2.02430
gfz2015shwt  -1.03380
gfz2015sicf  -1.02110
gfz2015sicu  -0.92789
gfz2015siem  -0.27330
gfz2015siky  -1.21400
gfz2015sing  -1.34820
gfz2015siof  -0.38928
gfz2015sist  -1.99170
gfz2015sitn  -0.55880
gfz2015sixi  -0.94134
gfz2015sixs  -0.03234
gfz2015siyy  -0.89096
gfz2015sjbx  -0.45213
gfz2015sjfi  -0.00000
gfz2015sjgk  -1.94020
gfz2015sjjb   0.15170
gfz2015sjne  -0.48404
gfz2015sjoj  -0.99600
gfz2015sjpn  -0.69681
gfz2015sjtz  -0.87594
gfz2015sjvu  -1.09430
gfz2015sjwi  -0.61936
gfz2015skab  -1.76170
gfz2015skgj  -0.90718
gfz2015skhf  -0.12319
gfz2015sklu  -0.83392
gfz2015skpv  -0.26744
gfz2015skuk  -0.73559
gfz2015skxu  -0.60730
gfz2015sldx  -1.60980
gfz2015sljs  -2.66800
gfz2015slun  -0.56598
gfz2015smym  -0.74255
gfz2015snhn  -0.65882
gfz2015snmg  -0.37795
gfz2015snmr  -1.64700
gfz2015snsf  -0.66273
gfz2015snwh  -2.27650
gfz2015snyd  -0.74000
gfz2015soat  -0.65888
gfz2015sopc  -0.22477
gfz2015sowu   0.49539
gfz2015soxc  14.53000
gfz2015sozw  -1.02490
gfz2015sqbg  -0.35099
gfz2015sqmy  -0.97847
gfz2015sqvx  -1.08470
gfz2015srat  -1.08300
gfz2015srgf  -1.58290
gfz2015ssaf  -2.02660
gfz2015sspn  -0.97762
gfz2015ssrl  -0.61198
gfz2015stfy  -0.35476
gfz2015subz  -1.16440
gfz2015sudm  -0.93992
gfz2015susq  -0.35931
gfz2015svjy  -1.10840
gfz2015svwm  -1.77050
gfz2015swgn   0.30561
gfz2015swjx   0.11395
gfz2015swnc  -1.08950
gfz2015sxgd  -0.66398
gfz2015sxmh  -0.96464
gfz2015sxxu  -0.50487
gfz2015sydc  -0.68013
gfz2015szcb  -1.00390
gfz2015szfe  -1.60030
gfz2015sztx  -1.06330
gfz2015taml  -0.66132
gfz2015tbje  -0.96064
gfz2015tbxe  -1.36110
gfz2015tcem  -1.14830
gfz2015tdbb  -0.79033
gfz2015tdcu  -0.26077
gfz2015tesj   0.19982
gfz2015teyn  -0.21003
gfz2015tezd  -0.22719
gfz2015tfaz  -0.26721
gfz2015tfxb   0.67760
gfz2015tgbp   0.17690
gfz2015thfm  -1.02880
gfz2015thgc  -1.63190
gfz2015thtd  -0.49506
gfz2015thwg  -0.18670
gfz2015thwp  -0.64313
gfz2015tixi  -1.35630
gfz2015tiyc  -1.93110
gfz2015tjhv  -0.56879
gfz2015tkol  -1.62070
gfz2015tlba  -0.88988
gfz2015tlkf  -0.58559
gfz2015tlok  -1.72740
gfz2015tnjd  -1.12420
gfz2015tnla   1.21690
gfz2015tpra  -0.49694
gfz2015tqff  -1.98510
gfz2015tqie  -1.13360
gfz2015tqjf   0.01657
gfz2015tsdm  -0.41497
