# Nsamples: 246  MAD:  0.585  mean:  0.252  variance:  0.721
gfz2010ahqi   0.01097
gfz2010bjeb  -0.18027
gfz2010bowy   0.48505
gfz2010boxo   0.84820
gfz2010bxxs   0.86524
gfz2010caft   0.04515
gfz2010cbkg   0.43661
gfz2010cdbt   0.67679
gfz2010cjqh   0.49744
gfz2010cqwl  -0.01878
gfz2010czps   0.76070
gfz2010dlgc   0.15744
gfz2010irvf   0.33579
gfz2010iull   1.45360
gfz2010jkxj   0.06908
gfz2010jucj  -0.24535
gfz2010jxbm  -0.91765
gfz2010kdyc  -1.40910
gfz2010lczp   1.00300
gfz2010lluj  -0.31092
gfz2010mipi  -0.66900
gfz2010mkuu   0.45018
gfz2010mncc  -0.22480
gfz2010moyw  -0.05300
gfz2011cykd   0.04204
gfz2011cyuk  -0.25548
gfz2011dpqx   0.30309
gfz2011ecaj   0.40149
gfz2011enva   0.92030
gfz2011flgj   2.92710
gfz2012aqgp  -0.62089
gfz2012cxdn  -0.77042
gfz2012czlw   1.18980
gfz2012deri  -0.64002
gfz2012dyyh  -0.12609
gfz2012emjg   0.72162
gfz2012enno   0.26328
gfz2012ewgo   3.12110
gfz2012fzfa   0.38659
gfz2012gill  -0.59768
gfz2012gomm  -0.19051
gfz2012gwqb   0.61792
gfz2012hnul   0.01389
gfz2012ilvn  -0.80481
gfz2012jgvj   0.07703
gfz2012jlox   0.97053
gfz2012jupx   0.17033
gfz2012keor  -0.19217
gfz2012kkup  -0.11620
gfz2012klhx  -0.17124
gfz2012minr  -0.13518
gfz2012rqlg  -0.93877
gfz2012teic   0.00946
gfz2012ttoa  -1.28740
gfz2012tvmv   0.13330
gfz2012uafg   0.11039
gfz2012uaqj   0.18599
gfz2012uciv   2.31940
gfz2012uvqf  -0.24760
gfz2012vrgb   0.74381
gfz2012wklq   0.05970
gfz2012wxlg  -0.09925
gfz2012wybs   0.74856
gfz2012wypz   0.26174
gfz2012xbjq   1.07950
gfz2012xyqp   1.12920
gfz2013axoj   3.03860
gfz2013ccnr  -0.83817
gfz2013cwpn   1.61410
gfz2013dvyh   3.10470
gfz2013ifpq   1.06040
gfz2013iodt   0.03104
gfz2013iunn   0.25465
gfz2013jesk  -0.31233
gfz2013jgip  -0.91204
gfz2013kdeo   0.19223
gfz2013ldqb  -0.67908
gfz2013lixa   2.60510
gfz2013mwbh   0.58418
gfz2013ncjp   0.06144
gfz2013ndin   0.30796
gfz2013nkgj   0.45117
gfz2013nknw   0.05780
gfz2013pfbx   0.11212
gfz2013qcck   0.41610
gfz2013roki   0.82075
gfz2013sdus   0.14709
gfz2013svci   1.31730
gfz2013tcxc  -0.14037
gfz2013tusd   0.17484
gfz2013tvmw   0.61881
gfz2013uauo  -0.75293
gfz2013vfzp   0.51298
gfz2013viul   0.62430
gfz2013vjjc  -0.32082
gfz2013wjmm   1.46280
gfz2013wtzl   0.30008
gfz2013xsdt  -0.07160
gfz2013yhbu   0.17846
gfz2013ypdc   0.06435
gfz2013yqkv   1.38410
gfz2014afmx  -0.59625
gfz2014ande   0.51591
gfz2014arpf  -0.37746
gfz2014bwue   0.74364
gfz2014bzxy  -2.08530
gfz2014czqi   0.20337
gfz2014czua  -0.01921
gfz2014femz   0.60282
gfz2014fgvi   1.00320
gfz2014fhdw  -2.44630
gfz2014fhla  -0.60574
gfz2014fhrq   1.16470
gfz2014fimn   1.02540
gfz2014fnyg   0.59142
gfz2014frdz   0.77709
gfz2014frez   0.20655
gfz2014ftka  -0.93127
gfz2014furx  -0.52843
gfz2014fusj   0.33503
gfz2014fval   1.50020
gfz2014fvrg   0.09066
gfz2014gbcz   0.39695
gfz2014ghpe  -0.17337
gfz2014gkgf   0.02312
gfz2014gkhy   0.88500
gfz2014gkqf   0.90093
gfz2014glcu  -1.27070
gfz2014gmge   0.50426
gfz2014gmhr   1.16930
gfz2014gmnb   1.32440
gfz2014gmnw   1.04650
gfz2014goba   1.18610
gfz2014gqer   1.93260
gfz2014gsqs   1.54910
gfz2014gull   0.45498
gfz2014gvqj  -1.39830
gfz2014gwab   1.71740
gfz2014gxkh  -0.01931
gfz2014gxxo   0.04705
gfz2014hasj   0.14129
gfz2014hcmj  -0.22924
gfz2014hjgh   0.53678
gfz2014hjgr   0.25232
gfz2014hjij   0.18881
gfz2014hocg   0.28788
gfz2014hqxs   0.12431
gfz2014hyal   0.37821
gfz2014ijvh   0.36651
gfz2014inbj  -0.14211
gfz2014jjhc   0.46513
gfz2014jjln   1.14990
gfz2014jnyv   0.40502
gfz2014jpep   0.69209
gfz2014kndc  -0.32472
gfz2014knks   1.07070
gfz2014kyan  -1.87290
gfz2014kytf  -0.37363
gfz2014lgqn   1.09560
gfz2014lwom  -0.10909
gfz2014lxnc   0.00000
gfz2014lyhk   0.19774
gfz2014lyhp   0.46194
gfz2014macx   0.56363
gfz2014madw  -0.04472
gfz2014npeo   0.52627
gfz2014nqfm   0.48170
gfz2014nrie   1.86820
gfz2014oinz   0.37771
gfz2014owxc   0.15008
gfz2014pvch   0.42730
gfz2014qlxd   0.62572
gfz2014qngj  -0.39751
gfz2014qqhm   1.09290
gfz2014rdsn   1.06570
gfz2014riel  -0.38938
gfz2014ssvz   0.26835
gfz2014tqdo   0.82706
gfz2014tqsf  -1.74200
gfz2014ubwn   0.80829
gfz2014vhuy   0.13287
gfz2014vjoz   0.02280
gfz2014watn  -0.47664
gfz2014yhhm   0.21430
gfz2015ansu  -0.56897
gfz2015aruz   0.48212
gfz2015atxv  -0.68203
gfz2015berb   0.40216
gfz2015bphe   0.80067
gfz2015chhn   0.48949
gfz2015cxxk   0.68384
gfz2015cyjd   0.63216
gfz2015czfv   0.38765
gfz2015dvbn   0.80037
gfz2015egxq   0.54954
gfz2015eiky   0.52954
gfz2015fsjj   1.07510
gfz2015gckd   0.71156
gfz2015ggjw   0.09106
gfz2015hgbk  -0.02539
gfz2015igsy   0.32857
gfz2015jmlu  -0.00000
gfz2015jzcv   0.20144
gfz2015kquq  -3.64490
gfz2015kxxs   0.98783
gfz2015lfud   0.31326
gfz2015lhjq  -0.58151
gfz2015lhjy   0.47918
gfz2015lytv   0.38160
gfz2015mddr   0.51116
gfz2015mpte   1.12500
gfz2015nwug   1.17520
gfz2015okmq   0.28787
gfz2015oyfl   1.29420
gfz2015qnho  -0.04525
gfz2015rddx   0.00000
gfz2015rkzg   0.57211
gfz2015saet  -0.18754
gfz2015sfdd   0.19287
gfz2015sfdy  -0.18643
gfz2015sfeo   1.42890
gfz2015sfnb  -0.04496
gfz2015sfno   0.46326
gfz2015sgdj  -0.48697
gfz2015sgdn  -2.17840
gfz2015sguf  -1.73010
gfz2015sjgk  -0.00397
gfz2015sjoj   0.72603
gfz2015sjvu  -0.23016
gfz2015skxu  -0.94048
gfz2015smym   0.60420
gfz2015snsf   0.09104
gfz2015snwh   0.15209
gfz2015snyd  -0.50547
gfz2015soat   0.55772
gfz2015soxc   0.50477
gfz2015svwm   0.42356
gfz2015szcb  -0.18358
gfz2015taml   0.43264
gfz2015tbdn  -0.35216
gfz2015tixi  -0.18329
gfz2015tiyc  -0.32738
gfz2015tkol  -1.03900
gfz2015tlkf   0.08428
gfz2015tnjd   0.36245
gfz2015totf  -1.00320
