%!PS-Adobe-3.0
%%BoundingBox: 0 0 595 842
%%HiResBoundingBox: 0 0 595 842
%%Title: GMT v5.1.1 (r12968) [64-bit] Document from psbasemap
%%Creator: GMT5
%%For: nooshiri
%%DocumentNeededResources: font Helvetica
%%CreationDate: Wed Aug 26 14:28:21 2015
%%LanguageLevel: 2
%%DocumentData: Clean7Bit
%%Orientation: Portrait
%%Pages: 1
%%EndComments

%%BeginProlog
250 dict begin
/! {bind def} bind def
/# {load def}!
/A /setgray #
/B /setdash #
/C /setrgbcolor #
/D /rlineto #
/E {dup stringwidth pop}!
/F /fill #
/G /rmoveto #
/H /sethsbcolor #
/I /setpattern #
/K /setcmykcolor #
/L /lineto #
/M /moveto #
/N /newpath #
/P /closepath #
/R /rotate #
/S /stroke #
/T /translate #
/U /grestore #
/V /gsave #
/W /setlinewidth #
/Y {findfont exch scalefont setfont}!
/Z /show #
/FP {true charpath flattenpath}!
/MU {matrix setmatrix}!
/MS {/SMat matrix currentmatrix def}!
/MR {SMat setmatrix}!
/edef {exch def}!
/FS {/fc edef /fs {V fc F U} def}!
/FQ {/fs {} def}!
/O0 {/os {N} def}!
/O1 {/os {P S} def}!
/FO {fs os}!
/Sa {M MS dup 0 exch G 0.726542528 mul -72 R dup 0 D 4 {72 R dup 0 D -144 R dup 0 D} repeat pop MR FO}!
/Sb {M dup 0 D exch 0 exch D neg 0 D FO}!
/SB {MS T /BoxR edef /BoxW edef /BoxH edef BoxR 0 M
  BoxW 0 BoxW BoxH BoxR arct BoxW BoxH 0 BoxH BoxR arct 0 BoxH 0 0 BoxR arct 0 0 BoxW 0 BoxR arct MR FO}!
/Sc {N 3 -1 roll 0 360 arc FO}!
/Sd {M 4 {dup} repeat 0 G neg dup dup D exch D D FO}!
/Se {N MS T R scale 0 0 1 0 360 arc MR FO}!
/Sg {M MS 22.5 R dup 0 exch G -22.5 R 0.765366865 mul dup 0 D 6 {-45 R dup 0 D} repeat pop MR FO}!
/Sh {M MS dup 0 G -120 R dup 0 D 4 {-60 R dup 0 D} repeat pop MR FO}!
/Si {M MS dup neg 0 exch G 60 R 1.732050808 mul dup 0 D 120 R 0 D MR FO}!
/Sj {M MS R dup -2 div 2 index -2 div G dup 0 D exch 0 exch D neg 0 D MR FO}!
/Sn {M MS dup 0 exch G -36 R 1.175570505 mul dup 0 D 3 {-72 R dup 0 D} repeat pop MR FO}!
/Sp {N 3 -1 roll 0 360 arc fs N}!
/SP {M {D} repeat FO}!
/Sr {M dup -2 div 2 index -2 div G dup 0 D exch 0 exch D neg 0 D FO}!
/SR {MS T /BoxR edef /BoxW edef /BoxH edef BoxR BoxW -2 div BoxH -2 div T BoxR 0 M
  BoxW 0 BoxW BoxH BoxR arct BoxW BoxH 0 BoxH BoxR arct 0 BoxH 0 0 BoxR arct 0 0 BoxW 0 BoxR arct MR FO}!
/Ss {M 1.414213562 mul dup dup dup -2 div dup G 0 D 0 exch D neg 0 D FO}!
/St {M MS dup 0 exch G -60 R 1.732050808 mul dup 0 D -120 R 0 D MR FO}!
/SV {0 exch M 0 D D D D D 0 D FO}!
/Sv {0 0 M D D 0 D D D D D 0 D D FO}!
/Sw {2 copy M 5 2 roll arc FO}!
/Sx {M 1.414213562 mul 5 {dup} repeat -2 div dup G D neg 0 G neg D S}!
/Sy {M dup 0 exch G dup -2 mul dup 0 exch D S}!
/S+ {M dup 0 G dup -2 mul dup 0 D exch dup G 0 exch D S}!
/S- {M dup 0 G dup -2 mul dup 0 D S}!
/sw {stringwidth pop}!
/sh {V MU 0 0 M FP pathbbox N 4 1 roll pop pop pop U}!
/sd {V MU 0 0 M FP pathbbox N pop pop exch pop U}!
/sH {V MU 0 0 M FP pathbbox N exch pop exch sub exch pop U}!
/sb {E exch sh}!
/bl {}!
/bc {E -2 div 0 G}!
/br {E neg 0 G}!
/ml {dup 0 exch sh -2 div G}!
/mc {dup E -2 div exch sh -2 div G}!
/mr {dup E neg exch sh -2 div G}!
/tl {dup 0 exch sh neg G}!
/tc {dup E -2 div exch sh neg G}!
/tr {dup E neg exch sh neg G}!
/mx {2 copy lt {exch} if pop}!
/PSL_xorig 0 def /PSL_yorig 0 def
/TM {2 copy T PSL_yorig add /PSL_yorig edef PSL_xorig add /PSL_xorig edef}!
/PSL_reencode {findfont dup length dict begin
  {1 index /FID ne {def}{pop pop} ifelse} forall
  exch /Encoding edef currentdict end definefont pop
}!
/PSL_eps_begin {
  /PSL_eps_state save def
  /PSL_dict_count countdictstack def
  /PSL_op_count count 1 sub def
  userdict begin
  /showpage {} def
  0 setgray 0 setlinecap 1 setlinewidth
  0 setlinejoin 10 setmiterlimit [] 0 setdash newpath
  /languagelevel where
  {pop languagelevel 1 ne {false setstrokeadjust false setoverprint} if} if
}!
/PSL_eps_end {
  count PSL_op_count sub {pop} repeat
  countdictstack PSL_dict_count sub {end} repeat
  PSL_eps_state restore
}!
/PSL_transp {
  /.setopacityalpha where {pop .setblendmode .setopacityalpha}{
  /pdfmark where {pop [ /BM exch /CA exch dup /ca exch /SetTransparency pdfmark}
  {pop pop} ifelse} ifelse
}!
/ISOLatin1+_Encoding [
/.notdef	/.notdef	/.notdef	/.notdef	/.notdef	/.notdef	/.notdef	/.notdef
/.notdef	/.notdef	/.notdef	/.notdef	/.notdef	/.notdef	/.notdef	/.notdef
/.notdef	/.notdef	/.notdef	/.notdef	/.notdef	/.notdef	/.notdef	/.notdef
/.notdef	/bullet		/ellipsis	/trademark	/emdash		/endash		/fi		/zcaron
/space		/exclam		/quotedbl	/numbersign	/dollar		/percent	/ampersand	/quoteright
/parenleft	/parenright	/asterisk	/plus		/comma		/minus		/period		/slash
/zero		/one		/two		/three		/four		/five		/six		/seven
/eight		/nine		/colon		/semicolon	/less		/equal		/greater	/question
/at		/A		/B		/C		/D		/E		/F		/G
/H		/I		/J		/K		/L		/M		/N		/O
/P		/Q		/R		/S		/T		/U		/V		/W
/X		/Y		/Z		/bracketleft	/backslash	/bracketright	/asciicircum	/underscore
/quoteleft	/a		/b		/c 		/d		/e		/f		/g
/h		/i		/j		/k		/l		/m		/n		/o
/p		/q		/r		/s		/t		/u		/v		/w
/x		/y		/z		/braceleft	/bar		/braceright	/asciitilde	/scaron
/OE		/dagger		/daggerdbl	/Lslash		/fraction	/guilsinglleft	/Scaron		/guilsinglright
/oe		/Ydieresis	/Zcaron		/lslash		/perthousand	/quotedblbase	/quotedblleft	/quotedblright
/dotlessi	/grave		/acute		/circumflex	/tilde		/macron		/breve		/dotaccent
/dieresis	/quotesinglbase	/ring		/cedilla	/quotesingle	/hungarumlaut	/ogonek		/caron
/space		/exclamdown	/cent		/sterling	/currency	/yen		/brokenbar	/section
/dieresis	/copyright	/ordfeminine	/guillemotleft	/logicalnot	/hyphen		/registered	/macron
/degree		/plusminus	/twosuperior	/threesuperior	/acute		/mu		/paragraph	/periodcentered
/cedilla	/onesuperior	/ordmasculine	/guillemotright	/onequarter	/onehalf	/threequarters	/questiondown
/Agrave		/Aacute		/Acircumflex	/Atilde		/Adieresis	/Aring		/AE		/Ccedilla
/Egrave		/Eacute		/Ecircumflex	/Edieresis	/Igrave		/Iacute		/Icircumflex	/Idieresis
/Eth		/Ntilde		/Ograve		/Oacute		/Ocircumflex	/Otilde		/Odieresis	/multiply
/Oslash		/Ugrave		/Uacute		/Ucircumflex	/Udieresis	/Yacute		/Thorn		/germandbls
/agrave		/aacute		/acircumflex	/atilde		/adieresis	/aring		/ae		/ccedilla
/egrave		/eacute		/ecircumflex	/edieresis	/igrave		/iacute		/icircumflex	/idieresis
/eth		/ntilde		/ograve		/oacute		/ocircumflex	/otilde		/odieresis	/divide
/oslash		/ugrave		/uacute		/ucircumflex	/udieresis	/yacute		/thorn		/ydieresis
] def
/PSL_font_encode 0 0 0 0 0 0 0 0 0 0 0 0 0 0 0 0 0 0 0 0 0 0 0 0 0 0 0 0 0 0 0 0 0 0 0 0 0 0 0 39 array astore def
/F0 {/Helvetica Y}!
/F1 {/Helvetica-Bold Y}!
/F2 {/Helvetica-Oblique Y}!
/F3 {/Helvetica-BoldOblique Y}!
/F4 {/Times-Roman Y}!
/F5 {/Times-Bold Y}!
/F6 {/Times-Italic Y}!
/F7 {/Times-BoldItalic Y}!
/F8 {/Courier Y}!
/F9 {/Courier-Bold Y}!
/F10 {/Courier-Oblique Y}!
/F11 {/Courier-BoldOblique Y}!
/F12 {/Symbol Y}!
/F13 {/AvantGarde-Book Y}!
/F14 {/AvantGarde-BookOblique Y}!
/F15 {/AvantGarde-Demi Y}!
/F16 {/AvantGarde-DemiOblique Y}!
/F17 {/Bookman-Demi Y}!
/F18 {/Bookman-DemiItalic Y}!
/F19 {/Bookman-Light Y}!
/F20 {/Bookman-LightItalic Y}!
/F21 {/Helvetica-Narrow Y}!
/F22 {/Helvetica-Narrow-Bold Y}!
/F23 {/Helvetica-Narrow-Oblique Y}!
/F24 {/Helvetica-Narrow-BoldOblique Y}!
/F25 {/NewCenturySchlbk-Roman Y}!
/F26 {/NewCenturySchlbk-Italic Y}!
/F27 {/NewCenturySchlbk-Bold Y}!
/F28 {/NewCenturySchlbk-BoldItalic Y}!
/F29 {/Palatino-Roman Y}!
/F30 {/Palatino-Italic Y}!
/F31 {/Palatino-Bold Y}!
/F32 {/Palatino-BoldItalic Y}!
/F33 {/ZapfChancery-MediumItalic Y}!
/F34 {/ZapfDingbats Y}!
/F35 {/Ryumin-Light-EUC-H Y}!
/F36 {/Ryumin-Light-EUC-V Y}!
/F37 {/GothicBBB-Medium-EUC-H Y}!
/F38 {/GothicBBB-Medium-EUC-V Y}!
/PSL_pathtextdict 26 dict def
/PSL_pathtext
  {PSL_pathtextdict begin
    /textheight exch def
    /just exch def
    /offset exch def
    /str exch def
    /pathdist 0 def
    /setdist offset def
    /charcount 0 def
    /justy just 4 idiv textheight mul 2 div neg def
    V flattenpath
	{movetoproc} {linetoproc}
	{curvetoproc} {closepathproc}
	pathforall
    U N
    end
  } def
PSL_pathtextdict begin
/movetoproc
  { /newy exch def /newx exch def
    /firstx newx def /firsty newy def
    /ovr 0 def
    newx newy transform
    /cpy exch def /cpx exch def
  } def
/linetoproc
  { /oldx newx def /oldy newy def
    /newy exch def /newx exch def
    /dx newx oldx sub def
    /dy newy oldy sub def
    /dist dx dup mul dy dup mul add sqrt def
    dist 0 ne
    { /dsx dx dist div ovr mul def
      /dsy dy dist div ovr mul def
      oldx dsx add oldy dsy add transform
      /cpy exch def /cpx exch def
      /pathdist pathdist dist add def
      {setdist pathdist le
	  {charcount str length lt
	      {setchar} {exit} ifelse}
	  { /ovr setdist pathdist sub def
	    exit}
	  ifelse
      } loop
    } if
  } def
/curvetoproc
  { (ERROR: No curveto's after flattenpath!)
    print
  } def
/closepathproc
  {firstx firsty linetoproc
    firstx firsty movetoproc
  } def
/setchar
  { /char str charcount 1 getinterval def
    /charcount charcount 1 add def
    /charwidth char stringwidth pop def
    V cpx cpy itransform T
      dy dx atan R
      0 justy M
      char show
      0 justy neg G
      currentpoint transform
      /cpy exch def /cpx exch def
    U /setdist setdist charwidth add def
  } def
end
/PSL_curved_text_labels
{ /bits exch def
  /PSL_clippath bits 1 and 1 eq def
  /PSL_placetext bits 2 and 0 eq def
  /PSL_strokeline bits 4 and 4 eq def
  /PSL_firstcall bits 32 and 32 eq def
  /PSL_lastcall bits 64 and 64 eq def
  /PSL_fillbox bits 128 and 128 eq def
  /PSL_drawbox bits 256 and 256 eq def
  /PSL_n1 PSL_n 1 sub def
  /PSL_m1 PSL_m 1 sub def
  /PSL_usebox PSL_fillbox PSL_drawbox or def
  PSL_CT_calcstringwidth
  PSL_CT_calclinedist
  PSL_CT_addcutpoints
  PSL_clippath PSL_firstcall and
  {clipsave N clippath} if
  PSL_setlinepen
  /PSL_nn1 PSL_nn 1 sub def
  /n 0 def
  /k 0 def
  /j 0 def
  /PSL_seg 0 def
  /PSL_xp PSL_nn array def
  /PSL_yp PSL_nn array def
  PSL_xp 0 PSL_xx 0 get put
  PSL_yp 0 PSL_yy 0 get put
  1 1 PSL_nn1
  { /i exch def
    /node_type PSL_kind i get def
    /j j 1 add def
    PSL_xp j PSL_xx i get put
    PSL_yp j PSL_yy i get put
    node_type 1 eq
    {n 0 eq
      {PSL_CT_drawline}
      {	PSL_CT_reversepath
	PSL_CT_textline} ifelse
      /j 0 def
      PSL_xp j PSL_xx i get put
      PSL_yp j PSL_yy i get put
    } if
  } for
  n 0 eq {PSL_CT_drawline} if
  PSL_lastcall
  {PSL_clippath
    {PSL_clip} if N
  } if
} def
/PSL_CT_textline
{PSL_placetext
  {PSL_clippath
    {PSL_CT_clippath} {PSL_CT_placelabel} ifelse
  } if
  /n 0 def /k k 1 add def PSL_setlinepen
} def
/PSL_CT_calcstringwidth
{ /PSL_width PSL_m array def
  0 1 PSL_m1
  { /i exch def
    PSL_width i PSL_str i get stringwidth pop put
  } for
} def
/PSL_CT_calclinedist
{ /PSL_newx PSL_x 0 get def
  /PSL_newy PSL_y 0 get def
  /dist 0.0 def
  /PSL_dist PSL_n array def
  PSL_dist 0 0.0 put
  1 1 PSL_n1
  { /i exch def
    /PSL_oldx PSL_newx def
    /PSL_oldy PSL_newy def
    /PSL_newx PSL_x i get def
    /PSL_newy PSL_y i get def
    /dx PSL_newx PSL_oldx sub def
    /dy PSL_newy PSL_oldy sub def
    /dist dist dx dx mul dy dy mul add sqrt add def
    PSL_dist i dist put
  } for
} def
/PSL_CT_addcutpoints
{ /k 0 def
  /PSL_nc PSL_m 2 mul 1 add def
  /PSL_cuts PSL_nc array def
  /PSL_nc1 PSL_nc 1 sub def
  0 1 PSL_m1
  { /i exch def
    /dist PSL_dist PSL_node i get get def
    /halfwidth PSL_width i get 2 div PSL_gap_x add def
    PSL_cuts k dist halfwidth sub put
    /k k 1 add def
    PSL_cuts k dist halfwidth add put
    /k k 1 add def
  } for
  PSL_cuts k 100000.0 put
  /PSL_nn PSL_n PSL_m 2 mul add def
  /PSL_xx PSL_nn array def
  /PSL_yy PSL_nn array def
  /PSL_kind PSL_nn array def
  /j 0 def
  /k 0 def
  /dist 0.0 def
  0 1 PSL_n1
  { /i exch def
    /last_dist dist def
    /dist PSL_dist i get def
    k 1 PSL_nc1
    { /kk exch def
      /this_cut PSL_cuts kk get def
      dist this_cut gt
      { /ds dist last_dist sub def
	/f ds 0.0 eq {0.0} {dist this_cut sub ds div} ifelse def
	/i1 i 0 eq {0} {i 1 sub} ifelse def
	PSL_xx j PSL_x i get dup PSL_x i1 get sub f mul sub put
	PSL_yy j PSL_y i get dup PSL_y i1 get sub f mul sub put
	PSL_kind j 1 put
	/j j 1 add def
	/k k 1 add def
      } if
    } for
    dist PSL_cuts k get le
    {PSL_xx j PSL_x i get put PSL_yy j PSL_y i get put
      PSL_kind j 0 put
      /j j 1 add def
    } if
  } for
} def
/PSL_CT_reversepath
{PSL_xp j get PSL_xp 0 get lt
  {0 1 j 2 idiv
    { /left exch def
      /right j left sub def
      /tmp PSL_xp left get def
      PSL_xp left PSL_xp right get put
      PSL_xp right tmp put
      /tmp PSL_yp left get def
      PSL_yp left PSL_yp right get put
      PSL_yp right tmp put
    } for
  } if
} def
/PSL_CT_placelabel
{
  PSL_usebox
  {PSL_CT_clippath
    PSL_fillbox
    {V PSL_setboxrgb fill U} if
    PSL_drawbox
    {PSL_setboxpen S} if N
  } if
  PSL_settxtrgb PSL_CT_placeline PSL_str k get PSL_gap_x PSL_just PSL_height PSL_pathtext
} def
/PSL_CT_clippath
{
  /H PSL_height 2 div PSL_gap_y add def
  /xoff j 1 add array def
  /yoff j 1 add array def
  /angle 0 def
  0 1 j {
    /ii exch def
    /x PSL_xp ii get def
    /y PSL_yp ii get def
    ii 0 eq {
      /x1 PSL_xp 1 get def
      /y1 PSL_yp 1 get def
      /dx x1 x sub def
      /dy y1 y sub def
    }
    { /i1 ii 1 sub def
      /x1 PSL_xp i1 get def
      /y1 PSL_yp i1 get def
      /dx x x1 sub def
      /dy y y1 sub def
    } ifelse
    dx 0.0 ne dy 0.0 ne and
    { /angle dy dx atan 90 add def} if
    /sina angle sin def
    /cosa angle cos def
    xoff ii H cosa mul put
    yoff ii H sina mul put
  } for
  PSL_xp 0 get xoff 0 get add PSL_yp 0 get yoff 0 get add M
  1 1 j {
    /ii exch def
    PSL_xp ii get xoff ii get add PSL_yp ii get yoff ii get add L
  } for
  j -1 0 {
    /ii exch def
    PSL_xp ii get xoff ii get sub PSL_yp ii get yoff ii get sub L
  } for P
} def
/PSL_CT_drawline
{
  /str 20 string def
  PSL_strokeline
  {PSL_CT_placeline PSL_setlinepen S} if
  /PSL_seg PSL_seg 1 add def
  /n 1 def
} def
/PSL_CT_placeline
{PSL_xp 0 get PSL_yp 0 get M
  1 1 j { /ii exch def PSL_xp ii get PSL_yp ii get L} for
} def
/PSL_straight_text_labels
{
  /bits exch def
  /PSL_clippath bits 1 and 0 eq def
  /PSL_rounded bits 16 and 16 eq def
  /PSL_fillbox bits 128 and 128 eq def
  /PSL_drawbox bits 256 and 256 eq def
  /PSL_m1 PSL_m 1 sub def
  /PSL_justx PSL_just 4 mod 1 sub 2 div neg def
  /PSL_justy PSL_just 4 idiv PSL_height mul 2 div neg def
  /PSL_usebox PSL_fillbox PSL_drawbox or def
  PSL_clippath
  {PSL_ST_clippath}
  {PSL_usebox {PSL_ST_clippath} if
    PSL_ST_placelabel
  } ifelse
} def
/PSL_ST_placelabel
{PSL_settxtrgb
  0 1 PSL_m1
  { /k exch def
    /xp PSL_txt_x k get def
    /yp PSL_txt_y k get def
    V PSL_txt_x k get PSL_txt_y k get T
    PSL_angle k get R
    /BoxW PSL_str k get stringwidth pop def
    BoxW PSL_justx mul PSL_justy M
    PSL_str k get show
    U
  } for
} def
/PSL_ST_clippath
{N
  PSL_usebox not {clipsave clippath} if
  PSL_rounded {PSL_ST_clippath_round} {PSL_ST_clippath_rect} ifelse
  PSL_usebox
  {PSL_fillbox
    {V PSL_setboxrgb fill U} if
    PSL_drawbox
    {PSL_setboxpen S} if N
  }
  {PSL_clip
  } ifelse
  N
} def
/PSL_ST_clippath_rect
{
  /BoxH PSL_height PSL_gap_y 2 mul add def
  /DelY BoxH BoxH 0 3 array astore def
  0 1 PSL_m1
  { /k exch def
    /xp PSL_txt_x k get def
    /yp PSL_txt_y k get def
    /MAT PSL_angle k get matrix R def
    /BoxW PSL_str k get stringwidth pop PSL_gap_x 2 mul add def
    /x0 0 BoxW PSL_justx mul add def
    /y0 0 PSL_justy add PSL_gap_y sub def
    /DelX 0 BoxW BoxW 3 array astore def
    x0 y0 MAT transform
    /dy exch def /dx exch def
    xp dx add yp dy add M
    0 1 2
    {
      /ii exch def
      x0 DelX ii get add y0 DelY ii get add MAT transform
      /dy exch def /dx exch def
      xp dx add yp dy add L
    } for P
  } for
} def
/PSL_ST_clippath_round
{
  /PSL_justy2 PSL_just 4 idiv 2 div neg def
  /BoxR PSL_gap_x PSL_gap_y lt {PSL_gap_x} {PSL_gap_y} ifelse def
  /BoxH PSL_height PSL_gap_y 2 mul add def
  /y0 PSL_height PSL_gap_y 2 mul add PSL_justy2 mul def
  0 1 PSL_m1
  { /k exch def
    /xp PSL_txt_x k get def
    /yp PSL_txt_y k get def
    /BoxW PSL_str k get stringwidth pop PSL_gap_x 2 mul add def
    /x0 BoxW PSL_justx mul def
    xp yp T PSL_angle k get R x0 y0 T
    BoxR 0 M
    BoxW 0 BoxW BoxH BoxR arct BoxW BoxH 0 BoxH BoxR arct 0 BoxH 0 0 BoxR arct 0 0 BoxW 0 BoxR arct P
    x0 neg y0 neg T PSL_angle k get neg R xp neg yp neg T
  } for
} def
/PSL_nclip 0 def
/PSL_clip {clip /PSL_nclip PSL_nclip 1 add def} def
/PSL_eoclip {eoclip /PSL_nclip PSL_nclip 1 add def} def
/PSL_cliprestore {cliprestore /PSL_nclip PSL_nclip 1 sub def} def
%%EndProlog

%%BeginSetup
/PSLevel /languagelevel where {pop languagelevel} {1} ifelse def
PSLevel 1 gt { << /PageSize [595 842] /ImagingBBox null >> setpagedevice } if
%%EndSetup

%%Page: 1 1

%%BeginPageSetup
V 0.06 0.06 scale
%%EndPageSetup

/PSL_page_xsize 9917 def
/PSL_page_ysize 14033 def
0 A
FQ
O0
3000 11400 TM

% PostScript produced by:
%%GMT: psbasemap -R-90.5/-62/0/650 -JX4i/-1.25i -Bxa5 -Bya100f50+lDepth [km] -BWeSn -X2.5i -Y9.5i -P -K
%%PROJ: xy -90.50000000 -62.00000000 0.00000000 650.00000000 -90.500 -62.000 650.000 -0.000 +xy +a=6378137.000 +b=6356752.314245
%%BeginObject PSL_Layer_1
0 setlinecap
0 setlinejoin
3.32551 setmiterlimit
2 setlinecap
/MM {neg exch M} def
/PSL_A0_y 83 def
/PSL_A1_y 0 def
25 W
0 1500 M 0 -1500 D S
8 W
0 1500 M -83 0 D S
0 1269 M -83 0 D S
0 1038 M -83 0 D S
0 808 M -83 0 D S
0 577 M -83 0 D S
0 346 M -83 0 D S
0 115 M -83 0 D S
/PSL_AH0 0
PSL_font_encode 0 get 0 eq {ISOLatin1+_Encoding /Helvetica /Helvetica PSL_reencode PSL_font_encode 0 1 put} if
200 F0
(0) sw mx
(100) sw mx
(200) sw mx
(300) sw mx
(400) sw mx
(500) sw mx
(600) sw mx
def
/PSL_A0_y PSL_A0_y 83 add def
1500 PSL_A0_y MM
(0) mr Z
1269 PSL_A0_y MM
(100) mr Z
1038 PSL_A0_y MM
(200) mr Z
808 PSL_A0_y MM
(300) mr Z
577 PSL_A0_y MM
(400) mr Z
346 PSL_A0_y MM
(500) mr Z
115 PSL_A0_y MM
(600) mr Z
/PSL_A0_y PSL_A0_y PSL_AH0 add def
0 1385 M -42 0 D S
0 1154 M -42 0 D S
0 923 M -42 0 D S
0 692 M -42 0 D S
0 462 M -42 0 D S
0 231 M -42 0 D S
0 0 M -42 0 D S
/PSL_LH 267 F0
(M) sh def
/PSL_L_y PSL_A0_y PSL_A1_y mx 133 add def
750 PSL_L_y MM
V 90 R (Depth \[km\]) bc Z U
4800 0 T
/MM {exch M} def
/PSL_A0_y 83 def
/PSL_A1_y 0 def
25 W
0 1500 M 0 -1500 D S
8 W
0 1500 M 83 0 D S
0 1269 M 83 0 D S
0 1038 M 83 0 D S
0 808 M 83 0 D S
0 577 M 83 0 D S
0 346 M 83 0 D S
0 115 M 83 0 D S
0 1385 M 42 0 D S
0 1154 M 42 0 D S
0 923 M 42 0 D S
0 692 M 42 0 D S
0 462 M 42 0 D S
0 231 M 42 0 D S
0 0 M 42 0 D S
/PSL_LH 0 def /PSL_L_y PSL_A0_y PSL_A1_y mx def
-4800 0 T
/MM {neg M} def
/PSL_A0_y 83 def
/PSL_A1_y 0 def
25 W
0 0 M 4800 0 D S
8 W
84 0 M 0 -83 D S
926 0 M 0 -83 D S
1768 0 M 0 -83 D S
2611 0 M 0 -83 D S
3453 0 M 0 -83 D S
4295 0 M 0 -83 D S
/PSL_AH0 0
200 F0
(-90) sh mx
(-85) sh mx
(-80) sh mx
(-75) sh mx
(-70) sh mx
(-65) sh mx
def
/PSL_A0_y PSL_A0_y 83 add PSL_AH0 add def
84 PSL_A0_y MM
(-90) bc Z
926 PSL_A0_y MM
(-85) bc Z
1768 PSL_A0_y MM
(-80) bc Z
2611 PSL_A0_y MM
(-75) bc Z
3453 PSL_A0_y MM
(-70) bc Z
4295 PSL_A0_y MM
(-65) bc Z
/PSL_LH 0 def /PSL_L_y PSL_A0_y PSL_A1_y mx def
0 1500 T
/MM {M} def
/PSL_A0_y 83 def
/PSL_A1_y 0 def
25 W
0 0 M 4800 0 D S
8 W
84 0 M 0 83 D S
926 0 M 0 83 D S
1768 0 M 0 83 D S
2611 0 M 0 83 D S
3453 0 M 0 83 D S
4295 0 M 0 83 D S
/PSL_LH 0 def /PSL_L_y PSL_A0_y PSL_A1_y mx def
0 -1500 T
0 setlinecap
%%EndObject
0 A
FQ
O0
0 0 TM

% PostScript produced by:
%%GMT: psxy -R-90.5/-62/0/650 -JX4i/-1.25i -Sc0.12 -GGOLD -Wthinnest -N -O -K
%%PROJ: xy -90.50000000 -62.00000000 0.00000000 650.00000000 -90.500 -62.000 650.000 -0.000 +xy +a=6378137.000 +b=6356752.314245
%%BeginObject PSL_Layer_2
0 setlinecap
0 setlinejoin
3.32551 setmiterlimit
4 W
V
{1 0.843 0 C} FS
O1
28 3547 1190 Sc
28 3412 1319 Sc
28 4474 1467 Sc
28 4480 1471 Sc
28 3473 1129 Sc
28 4249 523 Sc
28 3494 1211 Sc
28 3439 1198 Sc
28 3337 1426 Sc
28 3940 882 Sc
28 3599 1216 Sc
28 3519 1263 Sc
28 3307 1307 Sc
28 3831 1039 Sc
28 3816 1069 Sc
28 3564 1167 Sc
28 3510 1229 Sc
28 3201 1447 Sc
28 3500 1312 Sc
28 3517 1247 Sc
28 3575 1171 Sc
28 3253 1227 Sc
28 3251 1416 Sc
28 3529 1227 Sc
28 3504 1251 Sc
28 3443 1266 Sc
28 3509 1258 Sc
28 3491 1093 Sc
28 3515 1219 Sc
28 3493 1209 Sc
28 3532 1192 Sc
28 3515 1261 Sc
28 3556 1155 Sc
28 3423 1471 Sc
28 3489 1284 Sc
28 3436 1256 Sc
28 3490 1233 Sc
28 3512 1185 Sc
28 3537 1191 Sc
28 3532 1129 Sc
28 3381 1196 Sc
28 3605 1237 Sc
28 3325 1370 Sc
28 3841 1031 Sc
28 3451 1186 Sc
28 3527 1214 Sc
28 3410 1270 Sc
28 3442 1217 Sc
28 3051 1422 Sc
28 3522 1281 Sc
28 3787 985 Sc
28 3307 1500 Sc
28 4143 712 Sc
28 3614 1241 Sc
28 3499 1239 Sc
28 3535 1236 Sc
28 3193 1437 Sc
28 3468 1157 Sc
28 3472 1152 Sc
28 3521 1196 Sc
28 3458 1500 Sc
28 4124 833 Sc
28 3307 1500 Sc
28 3552 1265 Sc
28 3608 1249 Sc
28 3548 1248 Sc
28 3525 1176 Sc
28 3568 1241 Sc
28 3472 1152 Sc
28 3253 1448 Sc
28 3436 1354 Sc
28 3375 1498 Sc
28 3451 1110 Sc
28 3341 1175 Sc
28 3510 1065 Sc
28 3645 1200 Sc
28 3537 1180 Sc
28 4592 1406 Sc
28 4579 1458 Sc
28 4642 1452 Sc
28 3336 1400 Sc
28 4563 1364 Sc
28 3602 1127 Sc
28 3465 1314 Sc
28 3474 1133 Sc
28 3535 1168 Sc
28 3562 1183 Sc
28 2805 1403 Sc
28 3402 1371 Sc
28 3842 894 Sc
28 3486 1260 Sc
28 4465 125 Sc
28 3509 1221 Sc
28 3510 1184 Sc
28 3251 1500 Sc
28 3245 1500 Sc
28 3244 1500 Sc
28 3428 1166 Sc
28 3520 1187 Sc
28 3245 1500 Sc
28 3976 919 Sc
28 3566 1247 Sc
28 3246 1500 Sc
28 3201 1419 Sc
28 3249 1500 Sc
28 3342 1292 Sc
28 3248 1500 Sc
28 3504 1205 Sc
28 3299 1409 Sc
28 3293 1472 Sc
28 3335 1419 Sc
28 3353 1431 Sc
28 3563 1247 Sc
28 3283 1499 Sc
28 3534 1461 Sc
28 3292 1484 Sc
28 2974 1419 Sc
28 3282 1493 Sc
28 3134 1500 Sc
28 3259 1447 Sc
28 4483 1252 Sc
28 4539 1300 Sc
28 3475 1113 Sc
28 3546 1192 Sc
28 3416 1175 Sc
28 3258 1481 Sc
28 3248 1489 Sc
28 3253 1493 Sc
28 3258 1480 Sc
28 3179 1500 Sc
28 3932 875 Sc
28 3557 1153 Sc
28 3538 1177 Sc
28 3225 1494 Sc
28 3981 897 Sc
28 4523 1479 Sc
28 4511 1391 Sc
28 3171 1499 Sc
28 3504 1185 Sc
28 2862 1500 Sc
28 4530 1336 Sc
28 3182 1500 Sc
28 3537 1145 Sc
28 3541 1053 Sc
28 3035 1403 Sc
28 3414 1264 Sc
28 3578 1230 Sc
28 3596 1207 Sc
28 3534 1231 Sc
28 3570 1226 Sc
28 3465 1135 Sc
28 3221 1500 Sc
28 3573 1202 Sc
28 3552 1236 Sc
28 3527 1090 Sc
28 3538 1153 Sc
28 3597 1244 Sc
28 3214 1500 Sc
U
%%EndObject
0 A
FQ
O0
0 0 TM

% PostScript produced by:
%%GMT: pstext -R-90.5/-62/0/650 -JX4i/-1.25i -F+f14,31,+j -N -O -K
%%PROJ: xy -90.50000000 -62.00000000 0.00000000 650.00000000 -90.500 -62.000 650.000 -0.000 +xy +a=6378137.000 +b=6356752.314245
%%BeginObject PSL_Layer_3
0 setlinecap
0 setlinejoin
3.32551 setmiterlimit
0 1615 M PSL_font_encode 31 get 0 eq {ISOLatin1+_Encoding /Palatino-Bold /Palatino-Bold PSL_reencode PSL_font_encode 31 1 put} if
233 F31
(1) Z
4800 1615 M V MU 0 0 M (1) FP 0 82 G 163 F31 (') FP 0 -82 G pathbbox N pop exch pop add U neg 0 G
(1) Z
0 82 G 163 F31 (') Z
0 -82 G %%EndObject
0 A
FQ
O0
0 -2400 TM

% PostScript produced by:
%%GMT: psbasemap -R-90.5/-62/0/650 -JX4i/-1.25i -Bxa5 -Bya100f50+lDepth [km] -BWeSn -Y-2i -O -K
%%PROJ: xy -90.50000000 -62.00000000 0.00000000 650.00000000 -90.500 -62.000 650.000 -0.000 +xy +a=6378137.000 +b=6356752.314245
%%BeginObject PSL_Layer_4
0 setlinecap
0 setlinejoin
3.32551 setmiterlimit
2 setlinecap
/MM {neg exch M} def
/PSL_A0_y 83 def
/PSL_A1_y 0 def
25 W
0 1500 M 0 -1500 D S
8 W
0 1500 M -83 0 D S
0 1269 M -83 0 D S
0 1038 M -83 0 D S
0 808 M -83 0 D S
0 577 M -83 0 D S
0 346 M -83 0 D S
0 115 M -83 0 D S
/PSL_AH0 0
PSL_font_encode 0 get 0 eq {ISOLatin1+_Encoding /Helvetica /Helvetica PSL_reencode PSL_font_encode 0 1 put} if
200 F0
(0) sw mx
(100) sw mx
(200) sw mx
(300) sw mx
(400) sw mx
(500) sw mx
(600) sw mx
def
/PSL_A0_y PSL_A0_y 83 add def
1500 PSL_A0_y MM
(0) mr Z
1269 PSL_A0_y MM
(100) mr Z
1038 PSL_A0_y MM
(200) mr Z
808 PSL_A0_y MM
(300) mr Z
577 PSL_A0_y MM
(400) mr Z
346 PSL_A0_y MM
(500) mr Z
115 PSL_A0_y MM
(600) mr Z
/PSL_A0_y PSL_A0_y PSL_AH0 add def
0 1385 M -42 0 D S
0 1154 M -42 0 D S
0 923 M -42 0 D S
0 692 M -42 0 D S
0 462 M -42 0 D S
0 231 M -42 0 D S
0 0 M -42 0 D S
/PSL_LH 267 F0
(M) sh def
/PSL_L_y PSL_A0_y PSL_A1_y mx 133 add def
750 PSL_L_y MM
V 90 R (Depth \[km\]) bc Z U
4800 0 T
/MM {exch M} def
/PSL_A0_y 83 def
/PSL_A1_y 0 def
25 W
0 1500 M 0 -1500 D S
8 W
0 1500 M 83 0 D S
0 1269 M 83 0 D S
0 1038 M 83 0 D S
0 808 M 83 0 D S
0 577 M 83 0 D S
0 346 M 83 0 D S
0 115 M 83 0 D S
0 1385 M 42 0 D S
0 1154 M 42 0 D S
0 923 M 42 0 D S
0 692 M 42 0 D S
0 462 M 42 0 D S
0 231 M 42 0 D S
0 0 M 42 0 D S
/PSL_LH 0 def /PSL_L_y PSL_A0_y PSL_A1_y mx def
-4800 0 T
/MM {neg M} def
/PSL_A0_y 83 def
/PSL_A1_y 0 def
25 W
0 0 M 4800 0 D S
8 W
84 0 M 0 -83 D S
926 0 M 0 -83 D S
1768 0 M 0 -83 D S
2611 0 M 0 -83 D S
3453 0 M 0 -83 D S
4295 0 M 0 -83 D S
/PSL_AH0 0
200 F0
(-90) sh mx
(-85) sh mx
(-80) sh mx
(-75) sh mx
(-70) sh mx
(-65) sh mx
def
/PSL_A0_y PSL_A0_y 83 add PSL_AH0 add def
84 PSL_A0_y MM
(-90) bc Z
926 PSL_A0_y MM
(-85) bc Z
1768 PSL_A0_y MM
(-80) bc Z
2611 PSL_A0_y MM
(-75) bc Z
3453 PSL_A0_y MM
(-70) bc Z
4295 PSL_A0_y MM
(-65) bc Z
/PSL_LH 0 def /PSL_L_y PSL_A0_y PSL_A1_y mx def
0 1500 T
/MM {M} def
/PSL_A0_y 83 def
/PSL_A1_y 0 def
25 W
0 0 M 4800 0 D S
8 W
84 0 M 0 83 D S
926 0 M 0 83 D S
1768 0 M 0 83 D S
2611 0 M 0 83 D S
3453 0 M 0 83 D S
4295 0 M 0 83 D S
/PSL_LH 0 def /PSL_L_y PSL_A0_y PSL_A1_y mx def
0 -1500 T
0 setlinecap
%%EndObject
0 A
FQ
O0
0 0 TM

% PostScript produced by:
%%GMT: psxy -R-90.5/-62/0/650 -JX4i/-1.25i -Sc0.12 -GGOLD -Wthinnest -N -O -K
%%PROJ: xy -90.50000000 -62.00000000 0.00000000 650.00000000 -90.500 -62.000 650.000 -0.000 +xy +a=6378137.000 +b=6356752.314245
%%BeginObject PSL_Layer_5
0 setlinecap
0 setlinejoin
3.32551 setmiterlimit
4 W
V
{1 0.843 0 C} FS
O1
28 3655 1253 Sc
28 4502 227 Sc
28 4025 927 Sc
28 3985 1001 Sc
28 3996 1073 Sc
28 3969 1042 Sc
28 4085 900 Sc
28 3929 1043 Sc
28 3914 1004 Sc
28 3885 986 Sc
28 4519 356 Sc
28 4038 999 Sc
28 3979 1028 Sc
28 4109 934 Sc
28 3718 1229 Sc
28 3930 1053 Sc
28 3559 1291 Sc
28 3979 1017 Sc
28 4482 242 Sc
28 4017 1119 Sc
28 3680 1273 Sc
28 3596 1261 Sc
28 3945 1071 Sc
28 3956 1157 Sc
28 3645 1273 Sc
28 3939 917 Sc
28 3985 1060 Sc
28 4045 935 Sc
28 3958 1029 Sc
28 3550 1303 Sc
28 3922 1059 Sc
28 4122 848 Sc
28 3937 1070 Sc
28 3944 1001 Sc
28 3974 1045 Sc
28 3976 1063 Sc
28 4018 945 Sc
28 3598 1326 Sc
28 3327 1437 Sc
28 3932 1031 Sc
28 3932 1068 Sc
28 3968 994 Sc
28 3971 1034 Sc
28 3932 1072 Sc
28 4001 1020 Sc
28 3959 1029 Sc
28 3990 1013 Sc
28 4054 972 Sc
28 3935 997 Sc
28 3568 1274 Sc
28 3970 961 Sc
28 3866 1080 Sc
28 4025 1006 Sc
28 3977 1202 Sc
28 3640 1261 Sc
28 3685 1256 Sc
28 3856 970 Sc
28 3991 1023 Sc
28 4097 899 Sc
28 4025 1007 Sc
28 3904 1031 Sc
28 3926 1085 Sc
28 3976 1042 Sc
28 3975 1048 Sc
28 4134 880 Sc
28 3980 1039 Sc
28 4015 963 Sc
28 4030 1008 Sc
28 4059 999 Sc
28 3974 1033 Sc
28 4526 247 Sc
28 3897 1086 Sc
28 3518 1288 Sc
28 3315 1221 Sc
28 3895 901 Sc
28 4038 1001 Sc
28 4086 913 Sc
28 3955 1044 Sc
28 3966 1052 Sc
28 3968 1015 Sc
28 3956 994 Sc
28 3979 1055 Sc
28 3876 939 Sc
28 3935 907 Sc
28 4437 1467 Sc
28 4043 999 Sc
28 4378 1331 Sc
28 3347 1396 Sc
28 3994 1016 Sc
28 3951 1067 Sc
28 4045 945 Sc
28 3584 1324 Sc
28 3942 1104 Sc
28 3584 1282 Sc
28 4102 934 Sc
28 3385 1414 Sc
28 3887 1085 Sc
28 3980 1009 Sc
28 4428 1399 Sc
28 3976 1028 Sc
28 3757 1178 Sc
28 3666 1228 Sc
28 3964 1035 Sc
28 4011 1036 Sc
28 3932 1059 Sc
28 4435 1452 Sc
28 3932 1026 Sc
28 4080 956 Sc
28 3946 1049 Sc
28 4097 906 Sc
28 3924 1080 Sc
28 3979 1079 Sc
28 3965 950 Sc
28 3977 1032 Sc
28 3571 1285 Sc
28 4048 889 Sc
28 3966 1013 Sc
28 4022 991 Sc
28 4056 1122 Sc
28 3988 1045 Sc
28 3348 1451 Sc
28 3340 1456 Sc
28 4506 219 Sc
28 3965 985 Sc
28 3939 1194 Sc
28 3925 948 Sc
28 3996 996 Sc
28 3546 1452 Sc
28 4484 253 Sc
28 4468 930 Sc
28 3929 852 Sc
28 3931 998 Sc
28 3967 1040 Sc
28 3875 962 Sc
28 3871 920 Sc
28 3621 1265 Sc
28 3931 1078 Sc
28 3879 1054 Sc
28 3613 1328 Sc
28 4045 1035 Sc
28 4049 883 Sc
28 3682 1221 Sc
28 4004 1013 Sc
28 3606 1244 Sc
28 3589 1328 Sc
28 3932 1112 Sc
28 3415 1392 Sc
28 3644 1239 Sc
28 3946 925 Sc
28 3955 947 Sc
28 4041 1005 Sc
28 3981 1163 Sc
28 4053 1113 Sc
28 3649 1254 Sc
28 3971 918 Sc
28 3927 1070 Sc
28 3776 1183 Sc
28 3924 1067 Sc
28 3402 1402 Sc
28 3703 1207 Sc
28 4511 287 Sc
28 3497 1344 Sc
28 4323 1368 Sc
28 4088 912 Sc
28 3912 954 Sc
28 3950 997 Sc
28 3665 1230 Sc
28 3958 996 Sc
28 3388 1453 Sc
28 3985 941 Sc
28 3954 938 Sc
28 4504 260 Sc
28 3752 1206 Sc
28 4016 1048 Sc
28 3950 1048 Sc
28 3977 1004 Sc
28 4484 248 Sc
28 4102 847 Sc
28 3942 925 Sc
28 4034 862 Sc
28 3546 1291 Sc
28 3958 989 Sc
28 3575 1298 Sc
28 3742 1222 Sc
28 4263 1392 Sc
28 3964 1098 Sc
28 3982 991 Sc
28 3610 1288 Sc
28 3935 1012 Sc
28 3932 974 Sc
28 3583 1263 Sc
28 3702 1228 Sc
28 3985 1021 Sc
28 3906 1059 Sc
28 3375 1400 Sc
28 3917 996 Sc
28 3955 1026 Sc
28 3887 1040 Sc
28 3956 1027 Sc
28 3615 1283 Sc
28 3847 1064 Sc
28 3944 1067 Sc
28 3687 1245 Sc
28 3980 1040 Sc
28 3683 1260 Sc
28 4412 1469 Sc
28 3939 1096 Sc
28 4265 1242 Sc
28 3916 1086 Sc
28 3797 1234 Sc
28 3993 1014 Sc
28 3773 1192 Sc
28 3972 1084 Sc
28 3909 1077 Sc
28 3946 898 Sc
28 3993 1029 Sc
28 3917 1068 Sc
28 3982 1035 Sc
28 3750 1198 Sc
28 4000 948 Sc
28 3979 1017 Sc
28 3971 998 Sc
28 3901 1107 Sc
28 3956 937 Sc
28 4015 1002 Sc
28 3704 1241 Sc
28 4028 1011 Sc
28 3519 1300 Sc
28 3954 1017 Sc
28 3764 1217 Sc
28 3692 1275 Sc
28 3663 1236 Sc
28 3853 914 Sc
28 4029 1048 Sc
28 3623 1239 Sc
28 3626 1375 Sc
28 4083 950 Sc
28 3925 941 Sc
28 3934 1022 Sc
28 3940 1062 Sc
28 4048 791 Sc
28 3328 1351 Sc
28 4043 906 Sc
28 4049 809 Sc
28 3812 1136 Sc
28 3964 991 Sc
28 3495 1310 Sc
28 4112 852 Sc
28 3959 1041 Sc
28 3732 1184 Sc
28 3895 1175 Sc
28 4046 859 Sc
28 3637 1296 Sc
28 3980 1001 Sc
28 3645 1264 Sc
28 3939 1104 Sc
28 4081 890 Sc
28 4028 950 Sc
28 3332 1440 Sc
28 3625 1276 Sc
28 3949 1057 Sc
28 3797 1187 Sc
28 3946 1002 Sc
28 4062 878 Sc
28 4023 1113 Sc
28 3776 1003 Sc
28 3686 1266 Sc
28 3903 987 Sc
28 3984 1003 Sc
28 4031 855 Sc
28 3912 1085 Sc
28 4008 1026 Sc
28 4034 894 Sc
28 3592 1294 Sc
28 3987 994 Sc
28 3920 1055 Sc
28 3974 1008 Sc
28 4054 867 Sc
28 4097 878 Sc
28 3417 1386 Sc
28 3993 973 Sc
28 3956 1087 Sc
28 3658 1257 Sc
28 3793 1138 Sc
28 4079 906 Sc
28 3954 832 Sc
28 3673 1274 Sc
28 3664 1282 Sc
28 3975 982 Sc
28 3974 1024 Sc
28 3935 1036 Sc
28 3776 1176 Sc
28 3918 1022 Sc
28 4004 972 Sc
28 3847 1060 Sc
28 4065 913 Sc
28 3670 1251 Sc
28 3967 1133 Sc
28 4001 1047 Sc
28 3657 1250 Sc
28 3776 1118 Sc
28 3847 1102 Sc
28 4069 826 Sc
28 3917 1095 Sc
28 3937 1094 Sc
28 3988 954 Sc
28 3697 1208 Sc
28 3396 1358 Sc
28 3995 918 Sc
28 3576 1268 Sc
28 4041 890 Sc
28 3990 929 Sc
28 3813 1045 Sc
28 3925 1006 Sc
28 3639 1310 Sc
28 4020 983 Sc
28 3744 1146 Sc
28 3618 1277 Sc
28 3907 1075 Sc
28 4039 871 Sc
28 3914 985 Sc
28 3977 1036 Sc
28 3909 1016 Sc
28 3925 934 Sc
28 3901 1031 Sc
28 3753 1193 Sc
28 3988 1001 Sc
28 3994 1007 Sc
28 4037 982 Sc
28 3891 1042 Sc
28 4004 927 Sc
28 3666 1249 Sc
28 3961 1053 Sc
28 3979 1005 Sc
28 3282 1474 Sc
28 3928 1087 Sc
28 3298 1469 Sc
28 3946 1046 Sc
28 3346 1458 Sc
28 3729 1171 Sc
28 3946 1012 Sc
28 3512 1293 Sc
28 4055 949 Sc
28 3988 1062 Sc
28 3350 1429 Sc
28 3588 1261 Sc
28 3320 1460 Sc
28 3995 916 Sc
28 4344 1364 Sc
28 3918 964 Sc
28 3774 1189 Sc
28 3670 1205 Sc
28 3634 1285 Sc
28 4039 939 Sc
28 3460 1362 Sc
28 3965 1031 Sc
28 4487 217 Sc
28 3993 1011 Sc
28 3997 892 Sc
28 3967 949 Sc
28 3961 981 Sc
28 3332 1454 Sc
28 3985 1023 Sc
28 3651 1281 Sc
28 3717 1174 Sc
28 3951 973 Sc
28 3563 1305 Sc
28 3525 1191 Sc
28 3961 1023 Sc
28 3964 981 Sc
28 3951 1036 Sc
28 3626 1257 Sc
28 3964 1034 Sc
28 3969 1046 Sc
28 4025 1010 Sc
28 3602 1307 Sc
28 3762 1199 Sc
28 3707 1218 Sc
28 3934 1090 Sc
28 4491 251 Sc
28 4486 266 Sc
28 4046 1065 Sc
28 3961 1025 Sc
28 3394 1352 Sc
28 3739 1182 Sc
28 3944 1092 Sc
28 3981 1036 Sc
28 3942 1034 Sc
28 3971 976 Sc
28 3998 1069 Sc
28 3974 1012 Sc
28 3980 1078 Sc
28 3942 1087 Sc
28 4597 205 Sc
28 3946 1145 Sc
28 3314 1433 Sc
28 3943 1063 Sc
28 4006 1000 Sc
28 3999 1014 Sc
28 3970 995 Sc
28 3921 1122 Sc
28 3954 1027 Sc
28 3991 1027 Sc
28 3499 1304 Sc
28 4093 939 Sc
28 3384 1345 Sc
28 3996 1097 Sc
28 3849 1133 Sc
28 3754 1152 Sc
28 3993 1008 Sc
28 3988 995 Sc
28 3931 1079 Sc
28 3966 1064 Sc
28 3995 1013 Sc
28 3964 1007 Sc
28 3843 1184 Sc
28 3964 1027 Sc
28 4078 968 Sc
U
%%EndObject
0 A
FQ
O0
0 0 TM

% PostScript produced by:
%%GMT: pstext -R-90.5/-62/0/650 -JX4i/-1.25i -F+f14,31,+j -N -O -K
%%PROJ: xy -90.50000000 -62.00000000 0.00000000 650.00000000 -90.500 -62.000 650.000 -0.000 +xy +a=6378137.000 +b=6356752.314245
%%BeginObject PSL_Layer_6
0 setlinecap
0 setlinejoin
3.32551 setmiterlimit
0 1615 M PSL_font_encode 31 get 0 eq {ISOLatin1+_Encoding /Palatino-Bold /Palatino-Bold PSL_reencode PSL_font_encode 31 1 put} if
233 F31
(2) Z
4716 1615 M V MU 0 0 M (2) FP 0 82 G 163 F31 (') FP 0 -82 G pathbbox N pop exch pop add U neg 0 G
(2) Z
0 82 G 163 F31 (') Z
0 -82 G %%EndObject
0 A
FQ
O0
0 -2400 TM

% PostScript produced by:
%%GMT: psbasemap -R-90.5/-62/0/650 -JX4i/-1.25i -Bxa5 -Bya100f50+lDepth [km] -BWeSn -Y-2i -O -K
%%PROJ: xy -90.50000000 -62.00000000 0.00000000 650.00000000 -90.500 -62.000 650.000 -0.000 +xy +a=6378137.000 +b=6356752.314245
%%BeginObject PSL_Layer_7
0 setlinecap
0 setlinejoin
3.32551 setmiterlimit
2 setlinecap
/MM {neg exch M} def
/PSL_A0_y 83 def
/PSL_A1_y 0 def
25 W
0 1500 M 0 -1500 D S
8 W
0 1500 M -83 0 D S
0 1269 M -83 0 D S
0 1038 M -83 0 D S
0 808 M -83 0 D S
0 577 M -83 0 D S
0 346 M -83 0 D S
0 115 M -83 0 D S
/PSL_AH0 0
PSL_font_encode 0 get 0 eq {ISOLatin1+_Encoding /Helvetica /Helvetica PSL_reencode PSL_font_encode 0 1 put} if
200 F0
(0) sw mx
(100) sw mx
(200) sw mx
(300) sw mx
(400) sw mx
(500) sw mx
(600) sw mx
def
/PSL_A0_y PSL_A0_y 83 add def
1500 PSL_A0_y MM
(0) mr Z
1269 PSL_A0_y MM
(100) mr Z
1038 PSL_A0_y MM
(200) mr Z
808 PSL_A0_y MM
(300) mr Z
577 PSL_A0_y MM
(400) mr Z
346 PSL_A0_y MM
(500) mr Z
115 PSL_A0_y MM
(600) mr Z
/PSL_A0_y PSL_A0_y PSL_AH0 add def
0 1385 M -42 0 D S
0 1154 M -42 0 D S
0 923 M -42 0 D S
0 692 M -42 0 D S
0 462 M -42 0 D S
0 231 M -42 0 D S
0 0 M -42 0 D S
/PSL_LH 267 F0
(M) sh def
/PSL_L_y PSL_A0_y PSL_A1_y mx 133 add def
750 PSL_L_y MM
V 90 R (Depth \[km\]) bc Z U
4800 0 T
/MM {exch M} def
/PSL_A0_y 83 def
/PSL_A1_y 0 def
25 W
0 1500 M 0 -1500 D S
8 W
0 1500 M 83 0 D S
0 1269 M 83 0 D S
0 1038 M 83 0 D S
0 808 M 83 0 D S
0 577 M 83 0 D S
0 346 M 83 0 D S
0 115 M 83 0 D S
0 1385 M 42 0 D S
0 1154 M 42 0 D S
0 923 M 42 0 D S
0 692 M 42 0 D S
0 462 M 42 0 D S
0 231 M 42 0 D S
0 0 M 42 0 D S
/PSL_LH 0 def /PSL_L_y PSL_A0_y PSL_A1_y mx def
-4800 0 T
/MM {neg M} def
/PSL_A0_y 83 def
/PSL_A1_y 0 def
25 W
0 0 M 4800 0 D S
8 W
84 0 M 0 -83 D S
926 0 M 0 -83 D S
1768 0 M 0 -83 D S
2611 0 M 0 -83 D S
3453 0 M 0 -83 D S
4295 0 M 0 -83 D S
/PSL_AH0 0
200 F0
(-90) sh mx
(-85) sh mx
(-80) sh mx
(-75) sh mx
(-70) sh mx
(-65) sh mx
def
/PSL_A0_y PSL_A0_y 83 add PSL_AH0 add def
84 PSL_A0_y MM
(-90) bc Z
926 PSL_A0_y MM
(-85) bc Z
1768 PSL_A0_y MM
(-80) bc Z
2611 PSL_A0_y MM
(-75) bc Z
3453 PSL_A0_y MM
(-70) bc Z
4295 PSL_A0_y MM
(-65) bc Z
/PSL_LH 0 def /PSL_L_y PSL_A0_y PSL_A1_y mx def
0 1500 T
/MM {M} def
/PSL_A0_y 83 def
/PSL_A1_y 0 def
25 W
0 0 M 4800 0 D S
8 W
84 0 M 0 83 D S
926 0 M 0 83 D S
1768 0 M 0 83 D S
2611 0 M 0 83 D S
3453 0 M 0 83 D S
4295 0 M 0 83 D S
/PSL_LH 0 def /PSL_L_y PSL_A0_y PSL_A1_y mx def
0 -1500 T
0 setlinecap
%%EndObject
0 A
FQ
O0
0 0 TM

% PostScript produced by:
%%GMT: psxy -R-90.5/-62/0/650 -JX4i/-1.25i -Sc0.12 -GGOLD -Wthinnest -N -O -K
%%PROJ: xy -90.50000000 -62.00000000 0.00000000 650.00000000 -90.500 -62.000 650.000 -0.000 +xy +a=6378137.000 +b=6356752.314245
%%BeginObject PSL_Layer_8
0 setlinecap
0 setlinejoin
3.32551 setmiterlimit
4 W
V
{1 0.843 0 C} FS
O1
28 4181 1459 Sc
28 3290 1403 Sc
28 3307 1401 Sc
28 3444 1282 Sc
28 3753 1237 Sc
28 4566 163 Sc
28 3711 1325 Sc
28 3249 1420 Sc
28 3892 1191 Sc
28 4030 1124 Sc
28 3474 989 Sc
28 3486 1217 Sc
28 3222 1387 Sc
28 3179 1419 Sc
28 3493 1233 Sc
28 3159 1379 Sc
28 4016 1121 Sc
28 4558 181 Sc
28 4571 191 Sc
28 4556 189 Sc
28 3316 1399 Sc
28 3993 1122 Sc
28 3224 1419 Sc
28 3431 1229 Sc
28 3984 1112 Sc
28 3838 1218 Sc
28 3823 1149 Sc
28 4603 135 Sc
28 3190 1436 Sc
28 4576 123 Sc
28 3852 1208 Sc
28 3237 1500 Sc
28 3336 1344 Sc
28 3216 1500 Sc
28 3541 1093 Sc
28 4566 213 Sc
28 3950 1031 Sc
28 3547 1253 Sc
28 3057 1409 Sc
28 3236 1413 Sc
28 4601 131 Sc
28 3206 1499 Sc
28 4581 103 Sc
28 4571 113 Sc
28 3406 1323 Sc
28 3243 1415 Sc
28 3337 1356 Sc
28 3562 1108 Sc
28 3164 1500 Sc
28 4000 1132 Sc
28 3348 1363 Sc
28 3170 1500 Sc
28 3879 1065 Sc
28 3437 1342 Sc
28 3542 1217 Sc
28 3234 1333 Sc
28 4011 1160 Sc
28 3212 1368 Sc
28 4005 1084 Sc
28 3407 1306 Sc
28 3398 1306 Sc
28 3169 1429 Sc
28 3222 1401 Sc
28 3495 1277 Sc
28 3318 1401 Sc
28 3246 1419 Sc
28 3863 1168 Sc
28 3312 1399 Sc
28 4014 1095 Sc
28 4607 161 Sc
28 3520 1405 Sc
28 3995 1192 Sc
28 3502 1250 Sc
28 3796 1236 Sc
28 3536 1243 Sc
28 3596 1245 Sc
28 4514 71 Sc
28 4407 1435 Sc
28 3363 1275 Sc
28 3045 1500 Sc
28 3961 1143 Sc
28 4035 1157 Sc
28 3987 1087 Sc
28 3990 1096 Sc
28 3849 1188 Sc
28 3468 1230 Sc
28 3091 1500 Sc
28 3633 1224 Sc
28 3571 1222 Sc
28 3232 1411 Sc
28 3423 1314 Sc
28 3837 1111 Sc
28 3885 1157 Sc
28 4203 1454 Sc
28 4270 1460 Sc
28 3231 1378 Sc
28 3880 1194 Sc
28 3906 1219 Sc
28 3182 1419 Sc
28 3821 1174 Sc
28 1534 1419 Sc
28 3983 1120 Sc
28 3951 1186 Sc
28 3927 1158 Sc
28 3993 1092 Sc
28 3823 1212 Sc
28 3954 1092 Sc
28 3971 1127 Sc
28 3944 1345 Sc
28 3986 1030 Sc
28 3785 991 Sc
28 3467 1268 Sc
28 3833 1309 Sc
28 3974 1082 Sc
28 3187 1500 Sc
28 4055 1058 Sc
28 3196 1394 Sc
28 3937 1172 Sc
28 3233 1416 Sc
28 3648 1411 Sc
28 3672 1490 Sc
28 4655 69 Sc
28 3592 1238 Sc
28 3853 1199 Sc
28 4048 1026 Sc
28 3170 1419 Sc
28 3214 1422 Sc
28 3648 1271 Sc
28 4034 1250 Sc
28 3446 1289 Sc
28 3254 1365 Sc
28 3254 1434 Sc
28 3886 972 Sc
28 3497 1222 Sc
28 3576 1266 Sc
28 3631 1268 Sc
28 4548 161 Sc
28 4024 1158 Sc
28 4016 1126 Sc
28 4057 1125 Sc
28 3254 1443 Sc
28 3203 1416 Sc
28 3278 1411 Sc
28 3517 1233 Sc
28 3150 1447 Sc
28 3254 1396 Sc
28 3877 1172 Sc
28 3002 1500 Sc
28 4592 48 Sc
28 3184 1471 Sc
28 4013 1037 Sc
28 3793 1429 Sc
28 3295 1392 Sc
28 3167 1454 Sc
28 3192 1500 Sc
28 3879 1354 Sc
28 3643 1217 Sc
28 3663 1311 Sc
28 3145 1494 Sc
28 3235 1299 Sc
U
%%EndObject
0 A
FQ
O0
0 0 TM

% PostScript produced by:
%%GMT: pstext -R-90.5/-62/0/650 -JX4i/-1.25i -F+f14,31,+j -N -O -K
%%PROJ: xy -90.50000000 -62.00000000 0.00000000 650.00000000 -90.500 -62.000 650.000 -0.000 +xy +a=6378137.000 +b=6356752.314245
%%BeginObject PSL_Layer_9
0 setlinecap
0 setlinejoin
3.32551 setmiterlimit
0 1615 M PSL_font_encode 31 get 0 eq {ISOLatin1+_Encoding /Palatino-Bold /Palatino-Bold PSL_reencode PSL_font_encode 31 1 put} if
233 F31
(3) Z
4716 1615 M V MU 0 0 M (3) FP 0 82 G 163 F31 (') FP 0 -82 G pathbbox N pop exch pop add U neg 0 G
(3) Z
0 82 G 163 F31 (') Z
0 -82 G %%EndObject
0 A
FQ
O0
0 -2400 TM

% PostScript produced by:
%%GMT: psbasemap -R-90.5/-62/0/650 -JX4i/-1.25i -Bxa5 -Bya100f50+lDepth [km] -BWeSn -Y-2i -O -K
%%PROJ: xy -90.50000000 -62.00000000 0.00000000 650.00000000 -90.500 -62.000 650.000 -0.000 +xy +a=6378137.000 +b=6356752.314245
%%BeginObject PSL_Layer_10
0 setlinecap
0 setlinejoin
3.32551 setmiterlimit
2 setlinecap
/MM {neg exch M} def
/PSL_A0_y 83 def
/PSL_A1_y 0 def
25 W
0 1500 M 0 -1500 D S
8 W
0 1500 M -83 0 D S
0 1269 M -83 0 D S
0 1038 M -83 0 D S
0 808 M -83 0 D S
0 577 M -83 0 D S
0 346 M -83 0 D S
0 115 M -83 0 D S
/PSL_AH0 0
PSL_font_encode 0 get 0 eq {ISOLatin1+_Encoding /Helvetica /Helvetica PSL_reencode PSL_font_encode 0 1 put} if
200 F0
(0) sw mx
(100) sw mx
(200) sw mx
(300) sw mx
(400) sw mx
(500) sw mx
(600) sw mx
def
/PSL_A0_y PSL_A0_y 83 add def
1500 PSL_A0_y MM
(0) mr Z
1269 PSL_A0_y MM
(100) mr Z
1038 PSL_A0_y MM
(200) mr Z
808 PSL_A0_y MM
(300) mr Z
577 PSL_A0_y MM
(400) mr Z
346 PSL_A0_y MM
(500) mr Z
115 PSL_A0_y MM
(600) mr Z
/PSL_A0_y PSL_A0_y PSL_AH0 add def
0 1385 M -42 0 D S
0 1154 M -42 0 D S
0 923 M -42 0 D S
0 692 M -42 0 D S
0 462 M -42 0 D S
0 231 M -42 0 D S
0 0 M -42 0 D S
/PSL_LH 267 F0
(M) sh def
/PSL_L_y PSL_A0_y PSL_A1_y mx 133 add def
750 PSL_L_y MM
V 90 R (Depth \[km\]) bc Z U
4800 0 T
/MM {exch M} def
/PSL_A0_y 83 def
/PSL_A1_y 0 def
25 W
0 1500 M 0 -1500 D S
8 W
0 1500 M 83 0 D S
0 1269 M 83 0 D S
0 1038 M 83 0 D S
0 808 M 83 0 D S
0 577 M 83 0 D S
0 346 M 83 0 D S
0 115 M 83 0 D S
0 1385 M 42 0 D S
0 1154 M 42 0 D S
0 923 M 42 0 D S
0 692 M 42 0 D S
0 462 M 42 0 D S
0 231 M 42 0 D S
0 0 M 42 0 D S
/PSL_LH 0 def /PSL_L_y PSL_A0_y PSL_A1_y mx def
-4800 0 T
/MM {neg M} def
/PSL_A0_y 83 def
/PSL_A1_y 0 def
25 W
0 0 M 4800 0 D S
8 W
84 0 M 0 -83 D S
926 0 M 0 -83 D S
1768 0 M 0 -83 D S
2611 0 M 0 -83 D S
3453 0 M 0 -83 D S
4295 0 M 0 -83 D S
/PSL_AH0 0
200 F0
(-90) sh mx
(-85) sh mx
(-80) sh mx
(-75) sh mx
(-70) sh mx
(-65) sh mx
def
/PSL_A0_y PSL_A0_y 83 add PSL_AH0 add def
84 PSL_A0_y MM
(-90) bc Z
926 PSL_A0_y MM
(-85) bc Z
1768 PSL_A0_y MM
(-80) bc Z
2611 PSL_A0_y MM
(-75) bc Z
3453 PSL_A0_y MM
(-70) bc Z
4295 PSL_A0_y MM
(-65) bc Z
/PSL_LH 0 def /PSL_L_y PSL_A0_y PSL_A1_y mx def
0 1500 T
/MM {M} def
/PSL_A0_y 83 def
/PSL_A1_y 0 def
25 W
0 0 M 4800 0 D S
8 W
84 0 M 0 83 D S
926 0 M 0 83 D S
1768 0 M 0 83 D S
2611 0 M 0 83 D S
3453 0 M 0 83 D S
4295 0 M 0 83 D S
/PSL_LH 0 def /PSL_L_y PSL_A0_y PSL_A1_y mx def
0 -1500 T
0 setlinecap
%%EndObject
0 A
FQ
O0
0 0 TM

% PostScript produced by:
%%GMT: psxy -R-90.5/-62/0/650 -JX4i/-1.25i -Sc0.12 -GGOLD -Wthinnest -N -O -K
%%PROJ: xy -90.50000000 -62.00000000 0.00000000 650.00000000 -90.500 -62.000 650.000 -0.000 +xy +a=6378137.000 +b=6356752.314245
%%BeginObject PSL_Layer_11
0 setlinecap
0 setlinejoin
3.32551 setmiterlimit
4 W
V
{1 0.843 0 C} FS
O1
28 3653 1161 Sc
28 3015 1437 Sc
28 3098 1431 Sc
28 3130 1435 Sc
28 3089 1448 Sc
28 3042 1461 Sc
28 3026 1449 Sc
28 2875 1225 Sc
28 3185 887 Sc
28 3050 1448 Sc
28 3076 1424 Sc
28 3081 1424 Sc
28 3026 1431 Sc
28 2770 1479 Sc
28 3075 1435 Sc
28 2929 1447 Sc
28 3192 1373 Sc
28 3016 1464 Sc
28 3095 1500 Sc
28 3056 1450 Sc
28 3164 1390 Sc
28 3115 1461 Sc
28 2898 1426 Sc
28 3122 1475 Sc
28 3056 1440 Sc
28 3098 1442 Sc
28 2791 1048 Sc
28 2997 1444 Sc
28 2937 1463 Sc
28 3065 1478 Sc
28 3075 1476 Sc
28 3019 1468 Sc
28 3063 1463 Sc
28 3700 1462 Sc
28 3107 1452 Sc
28 3030 1462 Sc
28 3161 1395 Sc
28 2862 1307 Sc
28 2854 1456 Sc
28 3016 1479 Sc
28 3031 1458 Sc
28 3050 1451 Sc
28 2937 1472 Sc
28 2771 1432 Sc
28 2836 1454 Sc
28 2884 1286 Sc
28 2791 1488 Sc
28 3068 1439 Sc
28 2834 1462 Sc
28 2759 1366 Sc
28 3161 1401 Sc
28 2712 1499 Sc
28 3016 1445 Sc
28 2817 1442 Sc
28 2770 1455 Sc
28 3069 1440 Sc
28 3081 1434 Sc
28 3057 1499 Sc
28 3083 1429 Sc
28 2881 1442 Sc
28 3156 1391 Sc
28 2984 1430 Sc
28 3106 1425 Sc
28 3053 1446 Sc
28 3073 1459 Sc
28 2955 1426 Sc
28 3023 1429 Sc
28 3071 1448 Sc
28 2935 1465 Sc
28 3161 1340 Sc
28 3077 1367 Sc
28 3060 1498 Sc
28 2971 1473 Sc
28 3092 1403 Sc
28 3106 1127 Sc
28 3077 1367 Sc
28 3141 1282 Sc
28 3118 1268 Sc
28 3109 863 Sc
28 3093 1453 Sc
28 3040 1390 Sc
28 3032 1418 Sc
28 3097 1356 Sc
28 2815 1402 Sc
28 3162 1500 Sc
28 2744 1437 Sc
28 3002 1440 Sc
28 3016 1424 Sc
28 3018 1440 Sc
28 3140 1437 Sc
28 3142 1427 Sc
28 3132 1415 Sc
28 3120 1351 Sc
28 3092 1449 Sc
28 3118 1405 Sc
28 3042 1434 Sc
28 3132 1375 Sc
28 3100 1455 Sc
28 3145 1473 Sc
28 3116 1438 Sc
28 3081 1478 Sc
28 3101 1444 Sc
28 3118 1433 Sc
28 3076 1460 Sc
28 3081 1435 Sc
28 3068 1473 Sc
28 3039 1500 Sc
28 3076 1475 Sc
28 3048 1455 Sc
28 3093 1457 Sc
28 3090 1477 Sc
28 3071 1449 Sc
28 3098 1453 Sc
28 3086 1445 Sc
28 3140 1415 Sc
28 3293 1452 Sc
28 3102 1447 Sc
28 3130 1409 Sc
28 3120 1419 Sc
28 3522 1443 Sc
28 3119 1419 Sc
28 3164 1339 Sc
28 3105 1490 Sc
28 3073 1415 Sc
28 3071 1482 Sc
28 3029 1454 Sc
28 3012 1460 Sc
28 3087 1435 Sc
28 3092 1447 Sc
28 3119 1412 Sc
28 3040 1426 Sc
28 3082 1420 Sc
28 3563 751 Sc
28 3062 1485 Sc
28 3110 1432 Sc
28 3155 1354 Sc
28 3100 1430 Sc
28 3088 1356 Sc
28 3095 1395 Sc
28 3145 1395 Sc
28 3066 1500 Sc
28 3059 1444 Sc
28 3139 1459 Sc
28 3093 1461 Sc
28 2856 1500 Sc
28 3021 1434 Sc
28 3092 1499 Sc
28 3085 1454 Sc
28 2878 1435 Sc
28 3182 1426 Sc
28 2944 1499 Sc
28 3026 1419 Sc
28 3137 1423 Sc
28 3003 1382 Sc
28 3115 1394 Sc
28 3161 1163 Sc
28 3101 1440 Sc
28 2846 1433 Sc
28 3004 1444 Sc
28 3081 1411 Sc
28 2730 1440 Sc
28 3161 1297 Sc
28 3084 1442 Sc
28 3063 1422 Sc
28 3019 1455 Sc
28 3083 1368 Sc
28 3140 1316 Sc
28 3081 1426 Sc
28 3157 1263 Sc
28 3066 1451 Sc
28 3096 1438 Sc
28 2815 1463 Sc
28 2770 1500 Sc
28 3060 1412 Sc
28 3093 1352 Sc
28 3085 1419 Sc
28 2895 1277 Sc
28 3216 1500 Sc
28 2981 1047 Sc
28 3088 1449 Sc
28 3127 1445 Sc
28 3129 783 Sc
28 3075 1419 Sc
28 3027 1448 Sc
28 3088 1417 Sc
28 3147 1359 Sc
28 3069 1401 Sc
28 3098 1443 Sc
28 3040 1432 Sc
28 3052 1391 Sc
28 2878 1490 Sc
28 3071 1361 Sc
28 3031 1441 Sc
28 3174 1354 Sc
28 3061 1400 Sc
28 3085 1432 Sc
28 3620 1160 Sc
28 3071 1466 Sc
28 3063 1454 Sc
28 3053 1439 Sc
28 3056 1446 Sc
28 3108 1393 Sc
28 3067 1409 Sc
28 3085 1403 Sc
28 3052 1403 Sc
28 3053 1494 Sc
28 3289 1353 Sc
28 3053 1390 Sc
28 3684 1445 Sc
28 3715 1145 Sc
28 3850 1020 Sc
28 3061 1495 Sc
28 3383 1234 Sc
28 3028 1449 Sc
28 3451 1234 Sc
28 3032 1459 Sc
28 3042 1468 Sc
28 3003 1468 Sc
28 3436 1271 Sc
28 3093 1416 Sc
28 3851 1003 Sc
28 3075 1445 Sc
28 3077 1468 Sc
28 3041 1445 Sc
28 3054 1453 Sc
28 3048 1442 Sc
28 3081 1450 Sc
28 3073 1419 Sc
28 3031 1438 Sc
28 3615 1470 Sc
28 3066 1500 Sc
28 3474 1271 Sc
28 3089 1440 Sc
28 3084 1436 Sc
28 3039 1449 Sc
28 3021 1428 Sc
28 3061 1398 Sc
28 3088 1395 Sc
28 3293 1297 Sc
28 3090 1401 Sc
28 3142 1408 Sc
28 3041 1500 Sc
28 3325 1246 Sc
28 3004 1343 Sc
28 3554 1305 Sc
28 3090 1443 Sc
28 3367 1238 Sc
28 3100 1437 Sc
28 3875 1448 Sc
28 3055 1430 Sc
28 3024 1454 Sc
28 3023 1456 Sc
28 3032 1450 Sc
28 3310 1306 Sc
28 3354 1226 Sc
28 3195 1365 Sc
28 3029 1500 Sc
28 3100 1407 Sc
28 3068 1443 Sc
28 3107 1392 Sc
28 3073 1435 Sc
28 3100 1446 Sc
28 3105 1434 Sc
28 3074 1449 Sc
28 3251 1362 Sc
28 3150 1393 Sc
28 2973 1499 Sc
28 3061 1438 Sc
28 2987 1448 Sc
28 2977 1489 Sc
28 3051 1415 Sc
28 3792 995 Sc
28 3108 1382 Sc
28 3416 1246 Sc
28 3071 1447 Sc
28 3081 1436 Sc
28 3037 1432 Sc
28 3105 1398 Sc
28 3036 1443 Sc
28 3187 1392 Sc
28 3068 1419 Sc
28 3088 1432 Sc
28 3073 1430 Sc
28 2846 1431 Sc
28 3093 1458 Sc
28 3056 1500 Sc
28 3055 1455 Sc
28 3081 1402 Sc
28 3337 1278 Sc
28 2910 1419 Sc
28 3044 1468 Sc
28 3039 1435 Sc
28 3205 1331 Sc
28 3098 1394 Sc
28 3109 1400 Sc
28 3013 1412 Sc
28 3766 1051 Sc
28 2850 1478 Sc
28 2843 1449 Sc
28 3837 1060 Sc
28 3039 1442 Sc
28 3362 1245 Sc
28 3343 1239 Sc
28 3057 1499 Sc
U
%%EndObject
0 A
FQ
O0
0 0 TM

% PostScript produced by:
%%GMT: pstext -R-90.5/-62/0/650 -JX4i/-1.25i -F+f14,31,+j -N -O -K
%%PROJ: xy -90.50000000 -62.00000000 0.00000000 650.00000000 -90.500 -62.000 650.000 -0.000 +xy +a=6378137.000 +b=6356752.314245
%%BeginObject PSL_Layer_12
0 setlinecap
0 setlinejoin
3.32551 setmiterlimit
0 1615 M PSL_font_encode 31 get 0 eq {ISOLatin1+_Encoding /Palatino-Bold /Palatino-Bold PSL_reencode PSL_font_encode 31 1 put} if
233 F31
(4) Z
4716 1615 M V MU 0 0 M (4) FP 0 82 G 163 F31 (') FP 0 -82 G pathbbox N pop exch pop add U neg 0 G
(4) Z
0 82 G 163 F31 (') Z
0 -82 G %%EndObject
0 A
FQ
O0
0 -2400 TM

% PostScript produced by:
%%GMT: psbasemap -R-90.5/-62/0/650 -JX4i/-1.25i -Bxa5+lLongitude [deg] -Bya100f50+lDepth [km] -BWeSn -Y-2i -O -K
%%PROJ: xy -90.50000000 -62.00000000 0.00000000 650.00000000 -90.500 -62.000 650.000 -0.000 +xy +a=6378137.000 +b=6356752.314245
%%BeginObject PSL_Layer_13
0 setlinecap
0 setlinejoin
3.32551 setmiterlimit
2 setlinecap
/MM {neg exch M} def
/PSL_A0_y 83 def
/PSL_A1_y 0 def
25 W
0 1500 M 0 -1500 D S
8 W
0 1500 M -83 0 D S
0 1269 M -83 0 D S
0 1038 M -83 0 D S
0 808 M -83 0 D S
0 577 M -83 0 D S
0 346 M -83 0 D S
0 115 M -83 0 D S
/PSL_AH0 0
PSL_font_encode 0 get 0 eq {ISOLatin1+_Encoding /Helvetica /Helvetica PSL_reencode PSL_font_encode 0 1 put} if
200 F0
(0) sw mx
(100) sw mx
(200) sw mx
(300) sw mx
(400) sw mx
(500) sw mx
(600) sw mx
def
/PSL_A0_y PSL_A0_y 83 add def
1500 PSL_A0_y MM
(0) mr Z
1269 PSL_A0_y MM
(100) mr Z
1038 PSL_A0_y MM
(200) mr Z
808 PSL_A0_y MM
(300) mr Z
577 PSL_A0_y MM
(400) mr Z
346 PSL_A0_y MM
(500) mr Z
115 PSL_A0_y MM
(600) mr Z
/PSL_A0_y PSL_A0_y PSL_AH0 add def
0 1385 M -42 0 D S
0 1154 M -42 0 D S
0 923 M -42 0 D S
0 692 M -42 0 D S
0 462 M -42 0 D S
0 231 M -42 0 D S
0 0 M -42 0 D S
/PSL_LH 267 F0
(M) sh def
/PSL_L_y PSL_A0_y PSL_A1_y mx 133 add def
750 PSL_L_y MM
V 90 R (Depth \[km\]) bc Z U
4800 0 T
/MM {exch M} def
/PSL_A0_y 83 def
/PSL_A1_y 0 def
25 W
0 1500 M 0 -1500 D S
8 W
0 1500 M 83 0 D S
0 1269 M 83 0 D S
0 1038 M 83 0 D S
0 808 M 83 0 D S
0 577 M 83 0 D S
0 346 M 83 0 D S
0 115 M 83 0 D S
0 1385 M 42 0 D S
0 1154 M 42 0 D S
0 923 M 42 0 D S
0 692 M 42 0 D S
0 462 M 42 0 D S
0 231 M 42 0 D S
0 0 M 42 0 D S
/PSL_LH 0 def /PSL_L_y PSL_A0_y PSL_A1_y mx def
-4800 0 T
/MM {neg M} def
/PSL_A0_y 83 def
/PSL_A1_y 0 def
25 W
0 0 M 4800 0 D S
8 W
84 0 M 0 -83 D S
926 0 M 0 -83 D S
1768 0 M 0 -83 D S
2611 0 M 0 -83 D S
3453 0 M 0 -83 D S
4295 0 M 0 -83 D S
/PSL_AH0 0
200 F0
(-90) sh mx
(-85) sh mx
(-80) sh mx
(-75) sh mx
(-70) sh mx
(-65) sh mx
def
/PSL_A0_y PSL_A0_y 83 add PSL_AH0 add def
84 PSL_A0_y MM
(-90) bc Z
926 PSL_A0_y MM
(-85) bc Z
1768 PSL_A0_y MM
(-80) bc Z
2611 PSL_A0_y MM
(-75) bc Z
3453 PSL_A0_y MM
(-70) bc Z
4295 PSL_A0_y MM
(-65) bc Z
/PSL_LH 267 F0
(M) sh def
/PSL_L_y PSL_A0_y PSL_A1_y mx 133 add PSL_LH add def
2400 PSL_L_y MM
(Longitude \[deg\]) bc Z
0 1500 T
/MM {M} def
/PSL_A0_y 83 def
/PSL_A1_y 0 def
25 W
0 0 M 4800 0 D S
8 W
84 0 M 0 83 D S
926 0 M 0 83 D S
1768 0 M 0 83 D S
2611 0 M 0 83 D S
3453 0 M 0 83 D S
4295 0 M 0 83 D S
/PSL_LH 0 def /PSL_L_y PSL_A0_y PSL_A1_y mx def
0 -1500 T
0 setlinecap
%%EndObject
0 A
FQ
O0
0 0 TM

% PostScript produced by:
%%GMT: psxy -R-90.5/-62/0/650 -JX4i/-1.25i -Sc0.12 -GGOLD -Wthinnest -N -O -K
%%PROJ: xy -90.50000000 -62.00000000 0.00000000 650.00000000 -90.500 -62.000 650.000 -0.000 +xy +a=6378137.000 +b=6356752.314245
%%BeginObject PSL_Layer_14
0 setlinecap
0 setlinejoin
3.32551 setmiterlimit
4 W
V
{1 0.843 0 C} FS
O1
28 2545 1441 Sc
28 2792 1454 Sc
28 2817 1405 Sc
28 2804 1426 Sc
28 2766 1445 Sc
28 2792 1457 Sc
28 2722 1436 Sc
28 2809 1454 Sc
28 2738 1450 Sc
28 2820 1340 Sc
28 2745 1459 Sc
28 2797 1456 Sc
28 2762 1467 Sc
28 2814 1437 Sc
28 2817 1457 Sc
28 2540 1470 Sc
28 2857 1459 Sc
28 2781 1443 Sc
28 2761 1396 Sc
28 2714 1426 Sc
28 2780 1468 Sc
28 3235 1400 Sc
28 2751 1446 Sc
28 3346 1390 Sc
28 2766 1499 Sc
28 2882 1350 Sc
28 2868 1388 Sc
28 2830 1420 Sc
28 2902 1267 Sc
28 2791 1443 Sc
28 2569 1477 Sc
28 2862 1426 Sc
28 2735 1462 Sc
28 2794 1479 Sc
28 2736 1420 Sc
28 2809 1398 Sc
28 3264 799 Sc
28 2781 1447 Sc
28 2781 1418 Sc
28 2904 1400 Sc
28 2574 1456 Sc
28 2944 1411 Sc
28 2823 1386 Sc
28 2549 1445 Sc
28 2643 1436 Sc
28 2849 1448 Sc
28 2794 1417 Sc
28 2777 1450 Sc
28 2882 1347 Sc
28 2829 1454 Sc
28 2829 1454 Sc
28 3078 1181 Sc
28 2874 1439 Sc
28 2682 1449 Sc
28 2815 1440 Sc
28 2812 1442 Sc
28 2834 1430 Sc
28 2735 1448 Sc
28 2881 1457 Sc
28 2829 1461 Sc
28 2883 1417 Sc
28 2761 1107 Sc
28 2743 1500 Sc
28 2771 1470 Sc
28 2898 1350 Sc
28 2760 1455 Sc
28 2770 1458 Sc
28 2757 1454 Sc
28 2851 1443 Sc
28 2812 1459 Sc
28 2847 1428 Sc
28 2757 1483 Sc
28 2762 1481 Sc
28 3058 1297 Sc
28 2773 1500 Sc
28 2723 1453 Sc
28 2807 1500 Sc
28 2916 1429 Sc
28 2530 1500 Sc
28 2528 1500 Sc
28 2878 1500 Sc
28 2548 1500 Sc
28 2746 1420 Sc
28 2565 1471 Sc
28 2590 1500 Sc
28 2937 1398 Sc
28 2821 1481 Sc
28 2799 1455 Sc
28 2947 1419 Sc
28 2587 1419 Sc
28 2809 1461 Sc
28 2606 1455 Sc
28 2559 1499 Sc
28 2547 1483 Sc
28 2851 1417 Sc
28 2550 1500 Sc
28 2891 1428 Sc
28 2838 1450 Sc
28 2841 1500 Sc
28 2618 1420 Sc
U
%%EndObject
0 A
FQ
O0
0 0 TM

% PostScript produced by:
%%GMT: pstext -R-90.5/-62/0/650 -JX4i/-1.25i -F+f14,31,+j -N -O -K
%%PROJ: xy -90.50000000 -62.00000000 0.00000000 650.00000000 -90.500 -62.000 650.000 -0.000 +xy +a=6378137.000 +b=6356752.314245
%%BeginObject PSL_Layer_15
0 setlinecap
0 setlinejoin
3.32551 setmiterlimit
0 1615 M PSL_font_encode 31 get 0 eq {ISOLatin1+_Encoding /Palatino-Bold /Palatino-Bold PSL_reencode PSL_font_encode 31 1 put} if
233 F31
(5) Z
4716 1615 M V MU 0 0 M (5) FP 0 82 G 163 F31 (') FP 0 -82 G pathbbox N pop exch pop add U neg 0 G
(5) Z
0 82 G 163 F31 (') Z
0 -82 G %%EndObject
