%!PS-Adobe-3.0
%%BoundingBox: 0 0 595 842
%%HiResBoundingBox: 0 0 595 842
%%Title: GMT v5.1.1 (r12968) [64-bit] Document from psbasemap
%%Creator: GMT5
%%For: nooshiri
%%DocumentNeededResources: font Helvetica
%%CreationDate: Wed Aug 26 14:27:13 2015
%%LanguageLevel: 2
%%DocumentData: Clean7Bit
%%Orientation: Portrait
%%Pages: 1
%%EndComments

%%BeginProlog
250 dict begin
/! {bind def} bind def
/# {load def}!
/A /setgray #
/B /setdash #
/C /setrgbcolor #
/D /rlineto #
/E {dup stringwidth pop}!
/F /fill #
/G /rmoveto #
/H /sethsbcolor #
/I /setpattern #
/K /setcmykcolor #
/L /lineto #
/M /moveto #
/N /newpath #
/P /closepath #
/R /rotate #
/S /stroke #
/T /translate #
/U /grestore #
/V /gsave #
/W /setlinewidth #
/Y {findfont exch scalefont setfont}!
/Z /show #
/FP {true charpath flattenpath}!
/MU {matrix setmatrix}!
/MS {/SMat matrix currentmatrix def}!
/MR {SMat setmatrix}!
/edef {exch def}!
/FS {/fc edef /fs {V fc F U} def}!
/FQ {/fs {} def}!
/O0 {/os {N} def}!
/O1 {/os {P S} def}!
/FO {fs os}!
/Sa {M MS dup 0 exch G 0.726542528 mul -72 R dup 0 D 4 {72 R dup 0 D -144 R dup 0 D} repeat pop MR FO}!
/Sb {M dup 0 D exch 0 exch D neg 0 D FO}!
/SB {MS T /BoxR edef /BoxW edef /BoxH edef BoxR 0 M
  BoxW 0 BoxW BoxH BoxR arct BoxW BoxH 0 BoxH BoxR arct 0 BoxH 0 0 BoxR arct 0 0 BoxW 0 BoxR arct MR FO}!
/Sc {N 3 -1 roll 0 360 arc FO}!
/Sd {M 4 {dup} repeat 0 G neg dup dup D exch D D FO}!
/Se {N MS T R scale 0 0 1 0 360 arc MR FO}!
/Sg {M MS 22.5 R dup 0 exch G -22.5 R 0.765366865 mul dup 0 D 6 {-45 R dup 0 D} repeat pop MR FO}!
/Sh {M MS dup 0 G -120 R dup 0 D 4 {-60 R dup 0 D} repeat pop MR FO}!
/Si {M MS dup neg 0 exch G 60 R 1.732050808 mul dup 0 D 120 R 0 D MR FO}!
/Sj {M MS R dup -2 div 2 index -2 div G dup 0 D exch 0 exch D neg 0 D MR FO}!
/Sn {M MS dup 0 exch G -36 R 1.175570505 mul dup 0 D 3 {-72 R dup 0 D} repeat pop MR FO}!
/Sp {N 3 -1 roll 0 360 arc fs N}!
/SP {M {D} repeat FO}!
/Sr {M dup -2 div 2 index -2 div G dup 0 D exch 0 exch D neg 0 D FO}!
/SR {MS T /BoxR edef /BoxW edef /BoxH edef BoxR BoxW -2 div BoxH -2 div T BoxR 0 M
  BoxW 0 BoxW BoxH BoxR arct BoxW BoxH 0 BoxH BoxR arct 0 BoxH 0 0 BoxR arct 0 0 BoxW 0 BoxR arct MR FO}!
/Ss {M 1.414213562 mul dup dup dup -2 div dup G 0 D 0 exch D neg 0 D FO}!
/St {M MS dup 0 exch G -60 R 1.732050808 mul dup 0 D -120 R 0 D MR FO}!
/SV {0 exch M 0 D D D D D 0 D FO}!
/Sv {0 0 M D D 0 D D D D D 0 D D FO}!
/Sw {2 copy M 5 2 roll arc FO}!
/Sx {M 1.414213562 mul 5 {dup} repeat -2 div dup G D neg 0 G neg D S}!
/Sy {M dup 0 exch G dup -2 mul dup 0 exch D S}!
/S+ {M dup 0 G dup -2 mul dup 0 D exch dup G 0 exch D S}!
/S- {M dup 0 G dup -2 mul dup 0 D S}!
/sw {stringwidth pop}!
/sh {V MU 0 0 M FP pathbbox N 4 1 roll pop pop pop U}!
/sd {V MU 0 0 M FP pathbbox N pop pop exch pop U}!
/sH {V MU 0 0 M FP pathbbox N exch pop exch sub exch pop U}!
/sb {E exch sh}!
/bl {}!
/bc {E -2 div 0 G}!
/br {E neg 0 G}!
/ml {dup 0 exch sh -2 div G}!
/mc {dup E -2 div exch sh -2 div G}!
/mr {dup E neg exch sh -2 div G}!
/tl {dup 0 exch sh neg G}!
/tc {dup E -2 div exch sh neg G}!
/tr {dup E neg exch sh neg G}!
/mx {2 copy lt {exch} if pop}!
/PSL_xorig 0 def /PSL_yorig 0 def
/TM {2 copy T PSL_yorig add /PSL_yorig edef PSL_xorig add /PSL_xorig edef}!
/PSL_reencode {findfont dup length dict begin
  {1 index /FID ne {def}{pop pop} ifelse} forall
  exch /Encoding edef currentdict end definefont pop
}!
/PSL_eps_begin {
  /PSL_eps_state save def
  /PSL_dict_count countdictstack def
  /PSL_op_count count 1 sub def
  userdict begin
  /showpage {} def
  0 setgray 0 setlinecap 1 setlinewidth
  0 setlinejoin 10 setmiterlimit [] 0 setdash newpath
  /languagelevel where
  {pop languagelevel 1 ne {false setstrokeadjust false setoverprint} if} if
}!
/PSL_eps_end {
  count PSL_op_count sub {pop} repeat
  countdictstack PSL_dict_count sub {end} repeat
  PSL_eps_state restore
}!
/PSL_transp {
  /.setopacityalpha where {pop .setblendmode .setopacityalpha}{
  /pdfmark where {pop [ /BM exch /CA exch dup /ca exch /SetTransparency pdfmark}
  {pop pop} ifelse} ifelse
}!
/ISOLatin1+_Encoding [
/.notdef	/.notdef	/.notdef	/.notdef	/.notdef	/.notdef	/.notdef	/.notdef
/.notdef	/.notdef	/.notdef	/.notdef	/.notdef	/.notdef	/.notdef	/.notdef
/.notdef	/.notdef	/.notdef	/.notdef	/.notdef	/.notdef	/.notdef	/.notdef
/.notdef	/bullet		/ellipsis	/trademark	/emdash		/endash		/fi		/zcaron
/space		/exclam		/quotedbl	/numbersign	/dollar		/percent	/ampersand	/quoteright
/parenleft	/parenright	/asterisk	/plus		/comma		/minus		/period		/slash
/zero		/one		/two		/three		/four		/five		/six		/seven
/eight		/nine		/colon		/semicolon	/less		/equal		/greater	/question
/at		/A		/B		/C		/D		/E		/F		/G
/H		/I		/J		/K		/L		/M		/N		/O
/P		/Q		/R		/S		/T		/U		/V		/W
/X		/Y		/Z		/bracketleft	/backslash	/bracketright	/asciicircum	/underscore
/quoteleft	/a		/b		/c 		/d		/e		/f		/g
/h		/i		/j		/k		/l		/m		/n		/o
/p		/q		/r		/s		/t		/u		/v		/w
/x		/y		/z		/braceleft	/bar		/braceright	/asciitilde	/scaron
/OE		/dagger		/daggerdbl	/Lslash		/fraction	/guilsinglleft	/Scaron		/guilsinglright
/oe		/Ydieresis	/Zcaron		/lslash		/perthousand	/quotedblbase	/quotedblleft	/quotedblright
/dotlessi	/grave		/acute		/circumflex	/tilde		/macron		/breve		/dotaccent
/dieresis	/quotesinglbase	/ring		/cedilla	/quotesingle	/hungarumlaut	/ogonek		/caron
/space		/exclamdown	/cent		/sterling	/currency	/yen		/brokenbar	/section
/dieresis	/copyright	/ordfeminine	/guillemotleft	/logicalnot	/hyphen		/registered	/macron
/degree		/plusminus	/twosuperior	/threesuperior	/acute		/mu		/paragraph	/periodcentered
/cedilla	/onesuperior	/ordmasculine	/guillemotright	/onequarter	/onehalf	/threequarters	/questiondown
/Agrave		/Aacute		/Acircumflex	/Atilde		/Adieresis	/Aring		/AE		/Ccedilla
/Egrave		/Eacute		/Ecircumflex	/Edieresis	/Igrave		/Iacute		/Icircumflex	/Idieresis
/Eth		/Ntilde		/Ograve		/Oacute		/Ocircumflex	/Otilde		/Odieresis	/multiply
/Oslash		/Ugrave		/Uacute		/Ucircumflex	/Udieresis	/Yacute		/Thorn		/germandbls
/agrave		/aacute		/acircumflex	/atilde		/adieresis	/aring		/ae		/ccedilla
/egrave		/eacute		/ecircumflex	/edieresis	/igrave		/iacute		/icircumflex	/idieresis
/eth		/ntilde		/ograve		/oacute		/ocircumflex	/otilde		/odieresis	/divide
/oslash		/ugrave		/uacute		/ucircumflex	/udieresis	/yacute		/thorn		/ydieresis
] def
/PSL_font_encode 0 0 0 0 0 0 0 0 0 0 0 0 0 0 0 0 0 0 0 0 0 0 0 0 0 0 0 0 0 0 0 0 0 0 0 0 0 0 0 39 array astore def
/F0 {/Helvetica Y}!
/F1 {/Helvetica-Bold Y}!
/F2 {/Helvetica-Oblique Y}!
/F3 {/Helvetica-BoldOblique Y}!
/F4 {/Times-Roman Y}!
/F5 {/Times-Bold Y}!
/F6 {/Times-Italic Y}!
/F7 {/Times-BoldItalic Y}!
/F8 {/Courier Y}!
/F9 {/Courier-Bold Y}!
/F10 {/Courier-Oblique Y}!
/F11 {/Courier-BoldOblique Y}!
/F12 {/Symbol Y}!
/F13 {/AvantGarde-Book Y}!
/F14 {/AvantGarde-BookOblique Y}!
/F15 {/AvantGarde-Demi Y}!
/F16 {/AvantGarde-DemiOblique Y}!
/F17 {/Bookman-Demi Y}!
/F18 {/Bookman-DemiItalic Y}!
/F19 {/Bookman-Light Y}!
/F20 {/Bookman-LightItalic Y}!
/F21 {/Helvetica-Narrow Y}!
/F22 {/Helvetica-Narrow-Bold Y}!
/F23 {/Helvetica-Narrow-Oblique Y}!
/F24 {/Helvetica-Narrow-BoldOblique Y}!
/F25 {/NewCenturySchlbk-Roman Y}!
/F26 {/NewCenturySchlbk-Italic Y}!
/F27 {/NewCenturySchlbk-Bold Y}!
/F28 {/NewCenturySchlbk-BoldItalic Y}!
/F29 {/Palatino-Roman Y}!
/F30 {/Palatino-Italic Y}!
/F31 {/Palatino-Bold Y}!
/F32 {/Palatino-BoldItalic Y}!
/F33 {/ZapfChancery-MediumItalic Y}!
/F34 {/ZapfDingbats Y}!
/F35 {/Ryumin-Light-EUC-H Y}!
/F36 {/Ryumin-Light-EUC-V Y}!
/F37 {/GothicBBB-Medium-EUC-H Y}!
/F38 {/GothicBBB-Medium-EUC-V Y}!
/PSL_pathtextdict 26 dict def
/PSL_pathtext
  {PSL_pathtextdict begin
    /textheight exch def
    /just exch def
    /offset exch def
    /str exch def
    /pathdist 0 def
    /setdist offset def
    /charcount 0 def
    /justy just 4 idiv textheight mul 2 div neg def
    V flattenpath
	{movetoproc} {linetoproc}
	{curvetoproc} {closepathproc}
	pathforall
    U N
    end
  } def
PSL_pathtextdict begin
/movetoproc
  { /newy exch def /newx exch def
    /firstx newx def /firsty newy def
    /ovr 0 def
    newx newy transform
    /cpy exch def /cpx exch def
  } def
/linetoproc
  { /oldx newx def /oldy newy def
    /newy exch def /newx exch def
    /dx newx oldx sub def
    /dy newy oldy sub def
    /dist dx dup mul dy dup mul add sqrt def
    dist 0 ne
    { /dsx dx dist div ovr mul def
      /dsy dy dist div ovr mul def
      oldx dsx add oldy dsy add transform
      /cpy exch def /cpx exch def
      /pathdist pathdist dist add def
      {setdist pathdist le
	  {charcount str length lt
	      {setchar} {exit} ifelse}
	  { /ovr setdist pathdist sub def
	    exit}
	  ifelse
      } loop
    } if
  } def
/curvetoproc
  { (ERROR: No curveto's after flattenpath!)
    print
  } def
/closepathproc
  {firstx firsty linetoproc
    firstx firsty movetoproc
  } def
/setchar
  { /char str charcount 1 getinterval def
    /charcount charcount 1 add def
    /charwidth char stringwidth pop def
    V cpx cpy itransform T
      dy dx atan R
      0 justy M
      char show
      0 justy neg G
      currentpoint transform
      /cpy exch def /cpx exch def
    U /setdist setdist charwidth add def
  } def
end
/PSL_curved_text_labels
{ /bits exch def
  /PSL_clippath bits 1 and 1 eq def
  /PSL_placetext bits 2 and 0 eq def
  /PSL_strokeline bits 4 and 4 eq def
  /PSL_firstcall bits 32 and 32 eq def
  /PSL_lastcall bits 64 and 64 eq def
  /PSL_fillbox bits 128 and 128 eq def
  /PSL_drawbox bits 256 and 256 eq def
  /PSL_n1 PSL_n 1 sub def
  /PSL_m1 PSL_m 1 sub def
  /PSL_usebox PSL_fillbox PSL_drawbox or def
  PSL_CT_calcstringwidth
  PSL_CT_calclinedist
  PSL_CT_addcutpoints
  PSL_clippath PSL_firstcall and
  {clipsave N clippath} if
  PSL_setlinepen
  /PSL_nn1 PSL_nn 1 sub def
  /n 0 def
  /k 0 def
  /j 0 def
  /PSL_seg 0 def
  /PSL_xp PSL_nn array def
  /PSL_yp PSL_nn array def
  PSL_xp 0 PSL_xx 0 get put
  PSL_yp 0 PSL_yy 0 get put
  1 1 PSL_nn1
  { /i exch def
    /node_type PSL_kind i get def
    /j j 1 add def
    PSL_xp j PSL_xx i get put
    PSL_yp j PSL_yy i get put
    node_type 1 eq
    {n 0 eq
      {PSL_CT_drawline}
      {	PSL_CT_reversepath
	PSL_CT_textline} ifelse
      /j 0 def
      PSL_xp j PSL_xx i get put
      PSL_yp j PSL_yy i get put
    } if
  } for
  n 0 eq {PSL_CT_drawline} if
  PSL_lastcall
  {PSL_clippath
    {PSL_clip} if N
  } if
} def
/PSL_CT_textline
{PSL_placetext
  {PSL_clippath
    {PSL_CT_clippath} {PSL_CT_placelabel} ifelse
  } if
  /n 0 def /k k 1 add def PSL_setlinepen
} def
/PSL_CT_calcstringwidth
{ /PSL_width PSL_m array def
  0 1 PSL_m1
  { /i exch def
    PSL_width i PSL_str i get stringwidth pop put
  } for
} def
/PSL_CT_calclinedist
{ /PSL_newx PSL_x 0 get def
  /PSL_newy PSL_y 0 get def
  /dist 0.0 def
  /PSL_dist PSL_n array def
  PSL_dist 0 0.0 put
  1 1 PSL_n1
  { /i exch def
    /PSL_oldx PSL_newx def
    /PSL_oldy PSL_newy def
    /PSL_newx PSL_x i get def
    /PSL_newy PSL_y i get def
    /dx PSL_newx PSL_oldx sub def
    /dy PSL_newy PSL_oldy sub def
    /dist dist dx dx mul dy dy mul add sqrt add def
    PSL_dist i dist put
  } for
} def
/PSL_CT_addcutpoints
{ /k 0 def
  /PSL_nc PSL_m 2 mul 1 add def
  /PSL_cuts PSL_nc array def
  /PSL_nc1 PSL_nc 1 sub def
  0 1 PSL_m1
  { /i exch def
    /dist PSL_dist PSL_node i get get def
    /halfwidth PSL_width i get 2 div PSL_gap_x add def
    PSL_cuts k dist halfwidth sub put
    /k k 1 add def
    PSL_cuts k dist halfwidth add put
    /k k 1 add def
  } for
  PSL_cuts k 100000.0 put
  /PSL_nn PSL_n PSL_m 2 mul add def
  /PSL_xx PSL_nn array def
  /PSL_yy PSL_nn array def
  /PSL_kind PSL_nn array def
  /j 0 def
  /k 0 def
  /dist 0.0 def
  0 1 PSL_n1
  { /i exch def
    /last_dist dist def
    /dist PSL_dist i get def
    k 1 PSL_nc1
    { /kk exch def
      /this_cut PSL_cuts kk get def
      dist this_cut gt
      { /ds dist last_dist sub def
	/f ds 0.0 eq {0.0} {dist this_cut sub ds div} ifelse def
	/i1 i 0 eq {0} {i 1 sub} ifelse def
	PSL_xx j PSL_x i get dup PSL_x i1 get sub f mul sub put
	PSL_yy j PSL_y i get dup PSL_y i1 get sub f mul sub put
	PSL_kind j 1 put
	/j j 1 add def
	/k k 1 add def
      } if
    } for
    dist PSL_cuts k get le
    {PSL_xx j PSL_x i get put PSL_yy j PSL_y i get put
      PSL_kind j 0 put
      /j j 1 add def
    } if
  } for
} def
/PSL_CT_reversepath
{PSL_xp j get PSL_xp 0 get lt
  {0 1 j 2 idiv
    { /left exch def
      /right j left sub def
      /tmp PSL_xp left get def
      PSL_xp left PSL_xp right get put
      PSL_xp right tmp put
      /tmp PSL_yp left get def
      PSL_yp left PSL_yp right get put
      PSL_yp right tmp put
    } for
  } if
} def
/PSL_CT_placelabel
{
  PSL_usebox
  {PSL_CT_clippath
    PSL_fillbox
    {V PSL_setboxrgb fill U} if
    PSL_drawbox
    {PSL_setboxpen S} if N
  } if
  PSL_settxtrgb PSL_CT_placeline PSL_str k get PSL_gap_x PSL_just PSL_height PSL_pathtext
} def
/PSL_CT_clippath
{
  /H PSL_height 2 div PSL_gap_y add def
  /xoff j 1 add array def
  /yoff j 1 add array def
  /angle 0 def
  0 1 j {
    /ii exch def
    /x PSL_xp ii get def
    /y PSL_yp ii get def
    ii 0 eq {
      /x1 PSL_xp 1 get def
      /y1 PSL_yp 1 get def
      /dx x1 x sub def
      /dy y1 y sub def
    }
    { /i1 ii 1 sub def
      /x1 PSL_xp i1 get def
      /y1 PSL_yp i1 get def
      /dx x x1 sub def
      /dy y y1 sub def
    } ifelse
    dx 0.0 ne dy 0.0 ne and
    { /angle dy dx atan 90 add def} if
    /sina angle sin def
    /cosa angle cos def
    xoff ii H cosa mul put
    yoff ii H sina mul put
  } for
  PSL_xp 0 get xoff 0 get add PSL_yp 0 get yoff 0 get add M
  1 1 j {
    /ii exch def
    PSL_xp ii get xoff ii get add PSL_yp ii get yoff ii get add L
  } for
  j -1 0 {
    /ii exch def
    PSL_xp ii get xoff ii get sub PSL_yp ii get yoff ii get sub L
  } for P
} def
/PSL_CT_drawline
{
  /str 20 string def
  PSL_strokeline
  {PSL_CT_placeline PSL_setlinepen S} if
  /PSL_seg PSL_seg 1 add def
  /n 1 def
} def
/PSL_CT_placeline
{PSL_xp 0 get PSL_yp 0 get M
  1 1 j { /ii exch def PSL_xp ii get PSL_yp ii get L} for
} def
/PSL_straight_text_labels
{
  /bits exch def
  /PSL_clippath bits 1 and 0 eq def
  /PSL_rounded bits 16 and 16 eq def
  /PSL_fillbox bits 128 and 128 eq def
  /PSL_drawbox bits 256 and 256 eq def
  /PSL_m1 PSL_m 1 sub def
  /PSL_justx PSL_just 4 mod 1 sub 2 div neg def
  /PSL_justy PSL_just 4 idiv PSL_height mul 2 div neg def
  /PSL_usebox PSL_fillbox PSL_drawbox or def
  PSL_clippath
  {PSL_ST_clippath}
  {PSL_usebox {PSL_ST_clippath} if
    PSL_ST_placelabel
  } ifelse
} def
/PSL_ST_placelabel
{PSL_settxtrgb
  0 1 PSL_m1
  { /k exch def
    /xp PSL_txt_x k get def
    /yp PSL_txt_y k get def
    V PSL_txt_x k get PSL_txt_y k get T
    PSL_angle k get R
    /BoxW PSL_str k get stringwidth pop def
    BoxW PSL_justx mul PSL_justy M
    PSL_str k get show
    U
  } for
} def
/PSL_ST_clippath
{N
  PSL_usebox not {clipsave clippath} if
  PSL_rounded {PSL_ST_clippath_round} {PSL_ST_clippath_rect} ifelse
  PSL_usebox
  {PSL_fillbox
    {V PSL_setboxrgb fill U} if
    PSL_drawbox
    {PSL_setboxpen S} if N
  }
  {PSL_clip
  } ifelse
  N
} def
/PSL_ST_clippath_rect
{
  /BoxH PSL_height PSL_gap_y 2 mul add def
  /DelY BoxH BoxH 0 3 array astore def
  0 1 PSL_m1
  { /k exch def
    /xp PSL_txt_x k get def
    /yp PSL_txt_y k get def
    /MAT PSL_angle k get matrix R def
    /BoxW PSL_str k get stringwidth pop PSL_gap_x 2 mul add def
    /x0 0 BoxW PSL_justx mul add def
    /y0 0 PSL_justy add PSL_gap_y sub def
    /DelX 0 BoxW BoxW 3 array astore def
    x0 y0 MAT transform
    /dy exch def /dx exch def
    xp dx add yp dy add M
    0 1 2
    {
      /ii exch def
      x0 DelX ii get add y0 DelY ii get add MAT transform
      /dy exch def /dx exch def
      xp dx add yp dy add L
    } for P
  } for
} def
/PSL_ST_clippath_round
{
  /PSL_justy2 PSL_just 4 idiv 2 div neg def
  /BoxR PSL_gap_x PSL_gap_y lt {PSL_gap_x} {PSL_gap_y} ifelse def
  /BoxH PSL_height PSL_gap_y 2 mul add def
  /y0 PSL_height PSL_gap_y 2 mul add PSL_justy2 mul def
  0 1 PSL_m1
  { /k exch def
    /xp PSL_txt_x k get def
    /yp PSL_txt_y k get def
    /BoxW PSL_str k get stringwidth pop PSL_gap_x 2 mul add def
    /x0 BoxW PSL_justx mul def
    xp yp T PSL_angle k get R x0 y0 T
    BoxR 0 M
    BoxW 0 BoxW BoxH BoxR arct BoxW BoxH 0 BoxH BoxR arct 0 BoxH 0 0 BoxR arct 0 0 BoxW 0 BoxR arct P
    x0 neg y0 neg T PSL_angle k get neg R xp neg yp neg T
  } for
} def
/PSL_nclip 0 def
/PSL_clip {clip /PSL_nclip PSL_nclip 1 add def} def
/PSL_eoclip {eoclip /PSL_nclip PSL_nclip 1 add def} def
/PSL_cliprestore {cliprestore /PSL_nclip PSL_nclip 1 sub def} def
%%EndProlog

%%BeginSetup
/PSLevel /languagelevel where {pop languagelevel} {1} ifelse def
PSLevel 1 gt { << /PageSize [595 842] /ImagingBBox null >> setpagedevice } if
%%EndSetup

%%Page: 1 1

%%BeginPageSetup
V 0.06 0.06 scale
%%EndPageSetup

/PSL_page_xsize 9917 def
/PSL_page_ysize 14033 def
0 A
FQ
O0
3000 11400 TM

% PostScript produced by:
%%GMT: psbasemap -R-90.5/-62/0/650 -JX4i/-1.25i -Bxa5 -Bya100f50+lDepth [km] -BWeSn -X2.5i -Y9.5i -P -K
%%PROJ: xy -90.50000000 -62.00000000 0.00000000 650.00000000 -90.500 -62.000 650.000 -0.000 +xy +a=6378137.000 +b=6356752.314245
%%BeginObject PSL_Layer_1
0 setlinecap
0 setlinejoin
3.32551 setmiterlimit
2 setlinecap
/MM {neg exch M} def
/PSL_A0_y 83 def
/PSL_A1_y 0 def
25 W
0 1500 M 0 -1500 D S
8 W
0 1500 M -83 0 D S
0 1269 M -83 0 D S
0 1038 M -83 0 D S
0 808 M -83 0 D S
0 577 M -83 0 D S
0 346 M -83 0 D S
0 115 M -83 0 D S
/PSL_AH0 0
PSL_font_encode 0 get 0 eq {ISOLatin1+_Encoding /Helvetica /Helvetica PSL_reencode PSL_font_encode 0 1 put} if
200 F0
(0) sw mx
(100) sw mx
(200) sw mx
(300) sw mx
(400) sw mx
(500) sw mx
(600) sw mx
def
/PSL_A0_y PSL_A0_y 83 add def
1500 PSL_A0_y MM
(0) mr Z
1269 PSL_A0_y MM
(100) mr Z
1038 PSL_A0_y MM
(200) mr Z
808 PSL_A0_y MM
(300) mr Z
577 PSL_A0_y MM
(400) mr Z
346 PSL_A0_y MM
(500) mr Z
115 PSL_A0_y MM
(600) mr Z
/PSL_A0_y PSL_A0_y PSL_AH0 add def
0 1385 M -42 0 D S
0 1154 M -42 0 D S
0 923 M -42 0 D S
0 692 M -42 0 D S
0 462 M -42 0 D S
0 231 M -42 0 D S
0 0 M -42 0 D S
/PSL_LH 267 F0
(M) sh def
/PSL_L_y PSL_A0_y PSL_A1_y mx 133 add def
750 PSL_L_y MM
V 90 R (Depth \[km\]) bc Z U
4800 0 T
/MM {exch M} def
/PSL_A0_y 83 def
/PSL_A1_y 0 def
25 W
0 1500 M 0 -1500 D S
8 W
0 1500 M 83 0 D S
0 1269 M 83 0 D S
0 1038 M 83 0 D S
0 808 M 83 0 D S
0 577 M 83 0 D S
0 346 M 83 0 D S
0 115 M 83 0 D S
0 1385 M 42 0 D S
0 1154 M 42 0 D S
0 923 M 42 0 D S
0 692 M 42 0 D S
0 462 M 42 0 D S
0 231 M 42 0 D S
0 0 M 42 0 D S
/PSL_LH 0 def /PSL_L_y PSL_A0_y PSL_A1_y mx def
-4800 0 T
/MM {neg M} def
/PSL_A0_y 83 def
/PSL_A1_y 0 def
25 W
0 0 M 4800 0 D S
8 W
84 0 M 0 -83 D S
926 0 M 0 -83 D S
1768 0 M 0 -83 D S
2611 0 M 0 -83 D S
3453 0 M 0 -83 D S
4295 0 M 0 -83 D S
/PSL_AH0 0
200 F0
(-90) sh mx
(-85) sh mx
(-80) sh mx
(-75) sh mx
(-70) sh mx
(-65) sh mx
def
/PSL_A0_y PSL_A0_y 83 add PSL_AH0 add def
84 PSL_A0_y MM
(-90) bc Z
926 PSL_A0_y MM
(-85) bc Z
1768 PSL_A0_y MM
(-80) bc Z
2611 PSL_A0_y MM
(-75) bc Z
3453 PSL_A0_y MM
(-70) bc Z
4295 PSL_A0_y MM
(-65) bc Z
/PSL_LH 0 def /PSL_L_y PSL_A0_y PSL_A1_y mx def
0 1500 T
/MM {M} def
/PSL_A0_y 83 def
/PSL_A1_y 0 def
25 W
0 0 M 4800 0 D S
8 W
84 0 M 0 83 D S
926 0 M 0 83 D S
1768 0 M 0 83 D S
2611 0 M 0 83 D S
3453 0 M 0 83 D S
4295 0 M 0 83 D S
/PSL_LH 0 def /PSL_L_y PSL_A0_y PSL_A1_y mx def
0 -1500 T
0 setlinecap
%%EndObject
0 A
FQ
O0
0 0 TM

% PostScript produced by:
%%GMT: psxy -R-90.5/-62/0/650 -JX4i/-1.25i -Sc0.12 -GSEAGREEN -Wthinnest -N -O -K
%%PROJ: xy -90.50000000 -62.00000000 0.00000000 650.00000000 -90.500 -62.000 650.000 -0.000 +xy +a=6378137.000 +b=6356752.314245
%%BeginObject PSL_Layer_2
0 setlinecap
0 setlinejoin
3.32551 setmiterlimit
4 W
V
{0.18 0.545 0.341 C} FS
O1
28 3574 1232 Sc
28 3452 1299 Sc
28 4469 1470 Sc
28 4482 1477 Sc
28 3493 1141 Sc
28 4257 504 Sc
28 3518 1229 Sc
28 3456 1237 Sc
28 3338 1425 Sc
28 3939 879 Sc
28 3631 1219 Sc
28 3538 1268 Sc
28 3813 1068 Sc
28 3832 1091 Sc
28 3586 1188 Sc
28 3549 1238 Sc
28 3212 1448 Sc
28 3505 1309 Sc
28 3537 1266 Sc
28 3267 1498 Sc
28 3586 1198 Sc
28 3280 1249 Sc
28 3547 1250 Sc
28 3521 1243 Sc
28 3476 1273 Sc
28 3544 1270 Sc
28 3542 1233 Sc
28 3513 1238 Sc
28 3859 1126 Sc
28 3546 1205 Sc
28 3530 1270 Sc
28 3585 1158 Sc
28 3407 1434 Sc
28 3488 1268 Sc
28 3504 1235 Sc
28 3510 1281 Sc
28 3552 1245 Sc
28 3557 1215 Sc
28 3606 1227 Sc
28 3701 1401 Sc
28 3350 1376 Sc
28 3850 1054 Sc
28 3763 1353 Sc
28 3507 1213 Sc
28 3559 1249 Sc
28 3444 1277 Sc
28 3465 1243 Sc
28 3110 1378 Sc
28 3546 1185 Sc
28 3612 1227 Sc
28 3525 1255 Sc
28 3560 1258 Sc
28 3226 1432 Sc
28 3490 1175 Sc
28 3537 1208 Sc
28 4118 853 Sc
28 3327 1500 Sc
28 3561 1269 Sc
28 3597 1244 Sc
28 3555 1249 Sc
28 3586 1233 Sc
28 3576 1251 Sc
28 3515 1191 Sc
28 3622 1177 Sc
28 3266 1463 Sc
28 3438 1390 Sc
28 3641 1200 Sc
28 4587 1420 Sc
28 4573 1499 Sc
28 4627 1488 Sc
28 3364 1408 Sc
28 4561 1375 Sc
28 3605 1146 Sc
28 3267 1094 Sc
28 3496 1320 Sc
28 3563 1199 Sc
28 3576 1176 Sc
28 3433 1370 Sc
28 3514 1272 Sc
28 3528 1228 Sc
28 3527 1219 Sc
28 3296 1426 Sc
28 3314 1364 Sc
28 3288 1438 Sc
28 3539 1212 Sc
28 3288 1443 Sc
28 3988 960 Sc
28 3570 1243 Sc
28 2993 1432 Sc
28 3562 1287 Sc
28 3280 1489 Sc
28 3300 1419 Sc
28 3364 1280 Sc
28 3285 1444 Sc
28 3544 1220 Sc
28 3341 1465 Sc
28 3327 1487 Sc
28 3340 1476 Sc
28 3320 1467 Sc
28 3325 1490 Sc
28 3344 1324 Sc
28 3336 1490 Sc
28 3288 1500 Sc
28 3320 1472 Sc
28 3322 1473 Sc
28 3562 1258 Sc
28 3335 1420 Sc
28 3495 1414 Sc
28 3328 1474 Sc
28 3101 1228 Sc
28 3312 1463 Sc
28 3162 1448 Sc
28 3298 1416 Sc
28 4569 1347 Sc
28 4536 1319 Sc
28 3532 1182 Sc
28 3564 1210 Sc
28 3442 1205 Sc
28 3303 1416 Sc
28 3316 1375 Sc
28 3290 1435 Sc
28 3295 1453 Sc
28 3187 1498 Sc
28 3949 910 Sc
28 3579 1185 Sc
28 3567 1214 Sc
28 3284 1402 Sc
28 3981 919 Sc
28 4523 1487 Sc
28 4490 1401 Sc
28 3526 1210 Sc
28 2859 1500 Sc
28 4514 1361 Sc
28 3215 1411 Sc
28 3553 1177 Sc
28 3595 1161 Sc
28 3462 1241 Sc
28 3605 1248 Sc
28 3613 1237 Sc
28 3547 1241 Sc
28 3589 1264 Sc
28 3526 1174 Sc
28 3237 1433 Sc
28 3580 1200 Sc
28 3586 1255 Sc
28 3555 1107 Sc
28 3537 1126 Sc
28 3584 1228 Sc
28 3251 1431 Sc
28 3533 1260 Sc
U
%%EndObject
0 A
FQ
O0
0 0 TM

% PostScript produced by:
%%GMT: pstext -R-90.5/-62/0/650 -JX4i/-1.25i -F+f14,31,+j -N -O -K
%%PROJ: xy -90.50000000 -62.00000000 0.00000000 650.00000000 -90.500 -62.000 650.000 -0.000 +xy +a=6378137.000 +b=6356752.314245
%%BeginObject PSL_Layer_3
0 setlinecap
0 setlinejoin
3.32551 setmiterlimit
0 1615 M PSL_font_encode 31 get 0 eq {ISOLatin1+_Encoding /Palatino-Bold /Palatino-Bold PSL_reencode PSL_font_encode 31 1 put} if
233 F31
(1) Z
4800 1615 M V MU 0 0 M (1) FP 0 82 G 163 F31 (') FP 0 -82 G pathbbox N pop exch pop add U neg 0 G
(1) Z
0 82 G 163 F31 (') Z
0 -82 G %%EndObject
0 A
FQ
O0
0 -2400 TM

% PostScript produced by:
%%GMT: psbasemap -R-90.5/-62/0/650 -JX4i/-1.25i -Bxa5 -Bya100f50+lDepth [km] -BWeSn -Y-2i -O -K
%%PROJ: xy -90.50000000 -62.00000000 0.00000000 650.00000000 -90.500 -62.000 650.000 -0.000 +xy +a=6378137.000 +b=6356752.314245
%%BeginObject PSL_Layer_4
0 setlinecap
0 setlinejoin
3.32551 setmiterlimit
2 setlinecap
/MM {neg exch M} def
/PSL_A0_y 83 def
/PSL_A1_y 0 def
25 W
0 1500 M 0 -1500 D S
8 W
0 1500 M -83 0 D S
0 1269 M -83 0 D S
0 1038 M -83 0 D S
0 808 M -83 0 D S
0 577 M -83 0 D S
0 346 M -83 0 D S
0 115 M -83 0 D S
/PSL_AH0 0
PSL_font_encode 0 get 0 eq {ISOLatin1+_Encoding /Helvetica /Helvetica PSL_reencode PSL_font_encode 0 1 put} if
200 F0
(0) sw mx
(100) sw mx
(200) sw mx
(300) sw mx
(400) sw mx
(500) sw mx
(600) sw mx
def
/PSL_A0_y PSL_A0_y 83 add def
1500 PSL_A0_y MM
(0) mr Z
1269 PSL_A0_y MM
(100) mr Z
1038 PSL_A0_y MM
(200) mr Z
808 PSL_A0_y MM
(300) mr Z
577 PSL_A0_y MM
(400) mr Z
346 PSL_A0_y MM
(500) mr Z
115 PSL_A0_y MM
(600) mr Z
/PSL_A0_y PSL_A0_y PSL_AH0 add def
0 1385 M -42 0 D S
0 1154 M -42 0 D S
0 923 M -42 0 D S
0 692 M -42 0 D S
0 462 M -42 0 D S
0 231 M -42 0 D S
0 0 M -42 0 D S
/PSL_LH 267 F0
(M) sh def
/PSL_L_y PSL_A0_y PSL_A1_y mx 133 add def
750 PSL_L_y MM
V 90 R (Depth \[km\]) bc Z U
4800 0 T
/MM {exch M} def
/PSL_A0_y 83 def
/PSL_A1_y 0 def
25 W
0 1500 M 0 -1500 D S
8 W
0 1500 M 83 0 D S
0 1269 M 83 0 D S
0 1038 M 83 0 D S
0 808 M 83 0 D S
0 577 M 83 0 D S
0 346 M 83 0 D S
0 115 M 83 0 D S
0 1385 M 42 0 D S
0 1154 M 42 0 D S
0 923 M 42 0 D S
0 692 M 42 0 D S
0 462 M 42 0 D S
0 231 M 42 0 D S
0 0 M 42 0 D S
/PSL_LH 0 def /PSL_L_y PSL_A0_y PSL_A1_y mx def
-4800 0 T
/MM {neg M} def
/PSL_A0_y 83 def
/PSL_A1_y 0 def
25 W
0 0 M 4800 0 D S
8 W
84 0 M 0 -83 D S
926 0 M 0 -83 D S
1768 0 M 0 -83 D S
2611 0 M 0 -83 D S
3453 0 M 0 -83 D S
4295 0 M 0 -83 D S
/PSL_AH0 0
200 F0
(-90) sh mx
(-85) sh mx
(-80) sh mx
(-75) sh mx
(-70) sh mx
(-65) sh mx
def
/PSL_A0_y PSL_A0_y 83 add PSL_AH0 add def
84 PSL_A0_y MM
(-90) bc Z
926 PSL_A0_y MM
(-85) bc Z
1768 PSL_A0_y MM
(-80) bc Z
2611 PSL_A0_y MM
(-75) bc Z
3453 PSL_A0_y MM
(-70) bc Z
4295 PSL_A0_y MM
(-65) bc Z
/PSL_LH 0 def /PSL_L_y PSL_A0_y PSL_A1_y mx def
0 1500 T
/MM {M} def
/PSL_A0_y 83 def
/PSL_A1_y 0 def
25 W
0 0 M 4800 0 D S
8 W
84 0 M 0 83 D S
926 0 M 0 83 D S
1768 0 M 0 83 D S
2611 0 M 0 83 D S
3453 0 M 0 83 D S
4295 0 M 0 83 D S
/PSL_LH 0 def /PSL_L_y PSL_A0_y PSL_A1_y mx def
0 -1500 T
0 setlinecap
%%EndObject
0 A
FQ
O0
0 0 TM

% PostScript produced by:
%%GMT: psxy -R-90.5/-62/0/650 -JX4i/-1.25i -Sc0.12 -GSEAGREEN -Wthinnest -N -O -K
%%PROJ: xy -90.50000000 -62.00000000 0.00000000 650.00000000 -90.500 -62.000 650.000 -0.000 +xy +a=6378137.000 +b=6356752.314245
%%BeginObject PSL_Layer_5
0 setlinecap
0 setlinejoin
3.32551 setmiterlimit
4 W
V
{0.18 0.545 0.341 C} FS
O1
28 3667 1258 Sc
28 4521 251 Sc
28 4057 984 Sc
28 3976 1017 Sc
28 3996 1094 Sc
28 3974 1063 Sc
28 4088 920 Sc
28 3944 1073 Sc
28 4074 1356 Sc
28 3892 1041 Sc
28 4523 387 Sc
28 4038 1014 Sc
28 3976 1031 Sc
28 4113 961 Sc
28 3726 1240 Sc
28 3939 1071 Sc
28 3546 1315 Sc
28 3993 1040 Sc
28 4511 286 Sc
28 3678 1264 Sc
28 3639 1259 Sc
28 3960 1084 Sc
28 3929 1112 Sc
28 3645 1278 Sc
28 3924 1101 Sc
28 3916 925 Sc
28 4013 906 Sc
28 3964 1036 Sc
28 3559 1309 Sc
28 3917 1069 Sc
28 4149 869 Sc
28 3935 1079 Sc
28 3981 1040 Sc
28 3976 1046 Sc
28 3960 1064 Sc
28 4012 944 Sc
28 3607 1335 Sc
28 3328 1441 Sc
28 3959 1073 Sc
28 3958 1195 Sc
28 3985 1010 Sc
28 3972 1031 Sc
28 3891 1078 Sc
28 4009 1033 Sc
28 3974 1051 Sc
28 4070 1002 Sc
28 3560 1293 Sc
28 3879 1108 Sc
28 3948 1123 Sc
28 3633 1265 Sc
28 3670 1268 Sc
28 4001 1041 Sc
28 4118 948 Sc
28 4018 1003 Sc
28 3909 1044 Sc
28 3930 1093 Sc
28 3974 1053 Sc
28 3973 1052 Sc
28 3998 1054 Sc
28 4028 978 Sc
28 4046 1029 Sc
28 4064 1003 Sc
28 3964 1025 Sc
28 4519 254 Sc
28 3907 1095 Sc
28 3541 1290 Sc
28 3896 925 Sc
28 4034 999 Sc
28 4107 930 Sc
28 3979 1055 Sc
28 3976 1039 Sc
28 3946 1015 Sc
28 3990 1051 Sc
28 3903 940 Sc
28 4417 1468 Sc
28 4045 1008 Sc
28 3386 1388 Sc
28 4000 1030 Sc
28 3963 1085 Sc
28 4056 960 Sc
28 3551 1335 Sc
28 3949 1110 Sc
28 3588 1292 Sc
28 4109 959 Sc
28 3382 1410 Sc
28 3919 1103 Sc
28 3988 1018 Sc
28 4432 1461 Sc
28 3988 1041 Sc
28 3766 1188 Sc
28 3679 1243 Sc
28 3985 1024 Sc
28 4078 1057 Sc
28 3921 1098 Sc
28 4399 1464 Sc
28 3945 1064 Sc
28 4090 970 Sc
28 3970 1078 Sc
28 4102 900 Sc
28 3902 1073 Sc
28 3965 1041 Sc
28 3991 1035 Sc
28 3576 1302 Sc
28 4088 905 Sc
28 3993 1033 Sc
28 4033 1001 Sc
28 3958 1126 Sc
28 4024 1115 Sc
28 3987 1050 Sc
28 3353 1453 Sc
28 3340 1451 Sc
28 4529 253 Sc
28 3907 1129 Sc
28 4009 1026 Sc
28 4492 271 Sc
28 3946 1052 Sc
28 3964 1043 Sc
28 3623 1280 Sc
28 3938 1080 Sc
28 3928 1101 Sc
28 3560 1263 Sc
28 4039 1015 Sc
28 4009 1030 Sc
28 3654 1306 Sc
28 3562 1310 Sc
28 3898 1058 Sc
28 4050 1010 Sc
28 3946 1101 Sc
28 3985 1039 Sc
28 3652 1261 Sc
28 3935 1084 Sc
28 3793 1208 Sc
28 3937 1101 Sc
28 3699 1216 Sc
28 4523 300 Sc
28 3476 1369 Sc
28 3388 1398 Sc
28 4312 1393 Sc
28 4102 935 Sc
28 4513 264 Sc
28 3761 1222 Sc
28 3970 1031 Sc
28 3988 1027 Sc
28 4504 273 Sc
28 4132 897 Sc
28 3780 949 Sc
28 4059 909 Sc
28 3559 1300 Sc
28 3671 1256 Sc
28 3744 1226 Sc
28 4265 1414 Sc
28 3958 1072 Sc
28 3605 1295 Sc
28 3713 1217 Sc
28 3919 990 Sc
28 3703 1234 Sc
28 3991 1022 Sc
28 3912 1069 Sc
28 3380 1401 Sc
28 3990 1060 Sc
28 3927 1088 Sc
28 3928 1022 Sc
28 3606 1289 Sc
28 3837 1053 Sc
28 3951 1082 Sc
28 3688 1258 Sc
28 3984 1050 Sc
28 3689 1266 Sc
28 4397 1473 Sc
28 3945 1082 Sc
28 4310 1331 Sc
28 3917 1086 Sc
28 3793 1237 Sc
28 3991 1027 Sc
28 3789 1194 Sc
28 3969 1089 Sc
28 3918 1079 Sc
28 3768 887 Sc
28 3415 1392 Sc
28 3995 1044 Sc
28 3929 1097 Sc
28 3987 1049 Sc
28 3743 1208 Sc
28 3979 1177 Sc
28 3967 1022 Sc
28 3979 1020 Sc
28 4016 1002 Sc
28 3723 1256 Sc
28 4031 1016 Sc
28 3511 1306 Sc
28 3991 1051 Sc
28 3744 1225 Sc
28 3687 1259 Sc
28 3707 1304 Sc
28 3930 1120 Sc
28 4001 1053 Sc
28 3621 1266 Sc
28 4086 960 Sc
28 3961 1044 Sc
28 4086 910 Sc
28 3380 1247 Sc
28 4046 910 Sc
28 4093 912 Sc
28 3983 1042 Sc
28 3494 1315 Sc
28 3973 1062 Sc
28 3744 1189 Sc
28 3927 1195 Sc
28 3649 1295 Sc
28 4001 1061 Sc
28 3641 1270 Sc
28 3935 1098 Sc
28 4278 1417 Sc
28 4148 1080 Sc
28 3374 1363 Sc
28 3631 1277 Sc
28 3948 1079 Sc
28 3826 1239 Sc
28 3960 1035 Sc
28 4039 907 Sc
28 4028 1105 Sc
28 3743 1015 Sc
28 3792 1356 Sc
28 3905 1017 Sc
28 3984 1035 Sc
28 4053 900 Sc
28 3919 1106 Sc
28 4020 1045 Sc
28 3644 1306 Sc
28 3990 1016 Sc
28 3930 1089 Sc
28 3998 1044 Sc
28 4108 911 Sc
28 3422 1385 Sc
28 4008 987 Sc
28 3954 1074 Sc
28 3652 1282 Sc
28 3806 1186 Sc
28 3955 838 Sc
28 3754 1309 Sc
28 3991 1015 Sc
28 3676 532 Sc
28 3976 1038 Sc
28 3950 1062 Sc
28 3797 1214 Sc
28 3853 1085 Sc
28 3888 798 Sc
28 3676 1255 Sc
28 3837 1024 Sc
28 4069 1122 Sc
28 3675 1274 Sc
28 3975 1420 Sc
28 3985 1167 Sc
28 3937 1106 Sc
28 3743 952 Sc
28 3407 1382 Sc
28 3582 1287 Sc
28 3760 1130 Sc
28 3685 1323 Sc
28 4027 1001 Sc
28 3758 1163 Sc
28 3909 1091 Sc
28 4064 1107 Sc
28 3945 1145 Sc
28 3905 1049 Sc
28 3768 1216 Sc
28 3996 1026 Sc
28 4004 1026 Sc
28 4048 998 Sc
28 3667 1265 Sc
28 3974 1083 Sc
28 3996 1027 Sc
28 3305 1417 Sc
28 3932 1089 Sc
28 3312 1429 Sc
28 3958 1073 Sc
28 3728 1189 Sc
28 3987 1047 Sc
28 3515 1309 Sc
28 4075 967 Sc
28 3979 1056 Sc
28 3364 1408 Sc
28 3597 1275 Sc
28 3325 1460 Sc
28 4321 1377 Sc
28 3798 1228 Sc
28 3665 1225 Sc
28 3653 1285 Sc
28 4159 1126 Sc
28 3458 1378 Sc
28 3956 1055 Sc
28 4534 255 Sc
28 4009 1027 Sc
28 3991 1015 Sc
28 3990 1032 Sc
28 3743 1208 Sc
28 4049 1161 Sc
28 3569 1313 Sc
28 3543 1242 Sc
28 3971 1036 Sc
28 3969 994 Sc
28 3959 1048 Sc
28 3654 1268 Sc
28 3980 1050 Sc
28 3945 1057 Sc
28 4021 1009 Sc
28 3707 1308 Sc
28 3767 1206 Sc
28 3649 1208 Sc
28 3935 1091 Sc
28 4506 269 Sc
28 4506 298 Sc
28 4046 1076 Sc
28 3986 1058 Sc
28 3398 1358 Sc
28 3724 1175 Sc
28 3934 1099 Sc
28 3988 1049 Sc
28 3960 1069 Sc
28 3602 957 Sc
28 4000 1064 Sc
28 3983 1020 Sc
28 3974 1081 Sc
28 3942 1089 Sc
28 4603 209 Sc
28 3958 1159 Sc
28 3327 1413 Sc
28 3938 1054 Sc
28 3991 1008 Sc
28 3999 1012 Sc
28 3950 1013 Sc
28 3922 1144 Sc
28 3974 1064 Sc
28 3987 1030 Sc
28 3503 1318 Sc
28 4094 933 Sc
28 3416 1305 Sc
28 3983 1077 Sc
28 3810 1119 Sc
28 3768 1172 Sc
28 3998 1024 Sc
28 4004 1031 Sc
28 3937 1086 Sc
28 3924 1073 Sc
28 4003 1027 Sc
28 3967 1029 Sc
28 3980 1057 Sc
28 4155 1043 Sc
U
%%EndObject
0 A
FQ
O0
0 0 TM

% PostScript produced by:
%%GMT: pstext -R-90.5/-62/0/650 -JX4i/-1.25i -F+f14,31,+j -N -O -K
%%PROJ: xy -90.50000000 -62.00000000 0.00000000 650.00000000 -90.500 -62.000 650.000 -0.000 +xy +a=6378137.000 +b=6356752.314245
%%BeginObject PSL_Layer_6
0 setlinecap
0 setlinejoin
3.32551 setmiterlimit
0 1615 M PSL_font_encode 31 get 0 eq {ISOLatin1+_Encoding /Palatino-Bold /Palatino-Bold PSL_reencode PSL_font_encode 31 1 put} if
233 F31
(2) Z
4716 1615 M V MU 0 0 M (2) FP 0 82 G 163 F31 (') FP 0 -82 G pathbbox N pop exch pop add U neg 0 G
(2) Z
0 82 G 163 F31 (') Z
0 -82 G %%EndObject
0 A
FQ
O0
0 -2400 TM

% PostScript produced by:
%%GMT: psbasemap -R-90.5/-62/0/650 -JX4i/-1.25i -Bxa5 -Bya100f50+lDepth [km] -BWeSn -Y-2i -O -K
%%PROJ: xy -90.50000000 -62.00000000 0.00000000 650.00000000 -90.500 -62.000 650.000 -0.000 +xy +a=6378137.000 +b=6356752.314245
%%BeginObject PSL_Layer_7
0 setlinecap
0 setlinejoin
3.32551 setmiterlimit
2 setlinecap
/MM {neg exch M} def
/PSL_A0_y 83 def
/PSL_A1_y 0 def
25 W
0 1500 M 0 -1500 D S
8 W
0 1500 M -83 0 D S
0 1269 M -83 0 D S
0 1038 M -83 0 D S
0 808 M -83 0 D S
0 577 M -83 0 D S
0 346 M -83 0 D S
0 115 M -83 0 D S
/PSL_AH0 0
PSL_font_encode 0 get 0 eq {ISOLatin1+_Encoding /Helvetica /Helvetica PSL_reencode PSL_font_encode 0 1 put} if
200 F0
(0) sw mx
(100) sw mx
(200) sw mx
(300) sw mx
(400) sw mx
(500) sw mx
(600) sw mx
def
/PSL_A0_y PSL_A0_y 83 add def
1500 PSL_A0_y MM
(0) mr Z
1269 PSL_A0_y MM
(100) mr Z
1038 PSL_A0_y MM
(200) mr Z
808 PSL_A0_y MM
(300) mr Z
577 PSL_A0_y MM
(400) mr Z
346 PSL_A0_y MM
(500) mr Z
115 PSL_A0_y MM
(600) mr Z
/PSL_A0_y PSL_A0_y PSL_AH0 add def
0 1385 M -42 0 D S
0 1154 M -42 0 D S
0 923 M -42 0 D S
0 692 M -42 0 D S
0 462 M -42 0 D S
0 231 M -42 0 D S
0 0 M -42 0 D S
/PSL_LH 267 F0
(M) sh def
/PSL_L_y PSL_A0_y PSL_A1_y mx 133 add def
750 PSL_L_y MM
V 90 R (Depth \[km\]) bc Z U
4800 0 T
/MM {exch M} def
/PSL_A0_y 83 def
/PSL_A1_y 0 def
25 W
0 1500 M 0 -1500 D S
8 W
0 1500 M 83 0 D S
0 1269 M 83 0 D S
0 1038 M 83 0 D S
0 808 M 83 0 D S
0 577 M 83 0 D S
0 346 M 83 0 D S
0 115 M 83 0 D S
0 1385 M 42 0 D S
0 1154 M 42 0 D S
0 923 M 42 0 D S
0 692 M 42 0 D S
0 462 M 42 0 D S
0 231 M 42 0 D S
0 0 M 42 0 D S
/PSL_LH 0 def /PSL_L_y PSL_A0_y PSL_A1_y mx def
-4800 0 T
/MM {neg M} def
/PSL_A0_y 83 def
/PSL_A1_y 0 def
25 W
0 0 M 4800 0 D S
8 W
84 0 M 0 -83 D S
926 0 M 0 -83 D S
1768 0 M 0 -83 D S
2611 0 M 0 -83 D S
3453 0 M 0 -83 D S
4295 0 M 0 -83 D S
/PSL_AH0 0
200 F0
(-90) sh mx
(-85) sh mx
(-80) sh mx
(-75) sh mx
(-70) sh mx
(-65) sh mx
def
/PSL_A0_y PSL_A0_y 83 add PSL_AH0 add def
84 PSL_A0_y MM
(-90) bc Z
926 PSL_A0_y MM
(-85) bc Z
1768 PSL_A0_y MM
(-80) bc Z
2611 PSL_A0_y MM
(-75) bc Z
3453 PSL_A0_y MM
(-70) bc Z
4295 PSL_A0_y MM
(-65) bc Z
/PSL_LH 0 def /PSL_L_y PSL_A0_y PSL_A1_y mx def
0 1500 T
/MM {M} def
/PSL_A0_y 83 def
/PSL_A1_y 0 def
25 W
0 0 M 4800 0 D S
8 W
84 0 M 0 83 D S
926 0 M 0 83 D S
1768 0 M 0 83 D S
2611 0 M 0 83 D S
3453 0 M 0 83 D S
4295 0 M 0 83 D S
/PSL_LH 0 def /PSL_L_y PSL_A0_y PSL_A1_y mx def
0 -1500 T
0 setlinecap
%%EndObject
0 A
FQ
O0
0 0 TM

% PostScript produced by:
%%GMT: psxy -R-90.5/-62/0/650 -JX4i/-1.25i -Sc0.12 -GSEAGREEN -Wthinnest -N -O -K
%%PROJ: xy -90.50000000 -62.00000000 0.00000000 650.00000000 -90.500 -62.000 650.000 -0.000 +xy +a=6378137.000 +b=6356752.314245
%%BeginObject PSL_Layer_8
0 setlinecap
0 setlinejoin
3.32551 setmiterlimit
4 W
V
{0.18 0.545 0.341 C} FS
O1
28 4173 1456 Sc
28 3299 1405 Sc
28 3895 1203 Sc
28 3295 1400 Sc
28 3259 1411 Sc
28 3748 1242 Sc
28 4601 205 Sc
28 3722 1346 Sc
28 3239 1413 Sc
28 4208 1437 Sc
28 3872 1183 Sc
28 3909 1212 Sc
28 4055 1163 Sc
28 3208 1383 Sc
28 3543 1260 Sc
28 3236 1389 Sc
28 3168 1419 Sc
28 3517 1238 Sc
28 4023 1147 Sc
28 4564 223 Sc
28 4581 220 Sc
28 4571 218 Sc
28 3297 1392 Sc
28 4004 1130 Sc
28 3234 1401 Sc
28 3439 1218 Sc
28 3994 1122 Sc
28 3848 1220 Sc
28 3855 1184 Sc
28 4603 155 Sc
28 3236 1410 Sc
28 4585 143 Sc
28 3885 1228 Sc
28 3244 1464 Sc
28 3348 1345 Sc
28 3226 1426 Sc
28 3402 1237 Sc
28 4568 231 Sc
28 4009 1118 Sc
28 3547 1254 Sc
28 3062 1499 Sc
28 3261 1395 Sc
28 4593 145 Sc
28 3233 1434 Sc
28 4603 158 Sc
28 4577 118 Sc
28 3374 1325 Sc
28 3259 1423 Sc
28 3342 1354 Sc
28 3247 964 Sc
28 3249 1391 Sc
28 4017 1157 Sc
28 3341 1359 Sc
28 3169 1496 Sc
28 3960 1400 Sc
28 3432 1304 Sc
28 3555 1219 Sc
28 3237 1337 Sc
28 4006 1156 Sc
28 3203 1368 Sc
28 4024 1114 Sc
28 3412 1313 Sc
28 3401 1295 Sc
28 3180 1436 Sc
28 3237 1406 Sc
28 3532 1259 Sc
28 3309 1384 Sc
28 3268 1419 Sc
28 3876 1186 Sc
28 3240 1499 Sc
28 4027 1122 Sc
28 4605 166 Sc
28 3547 1390 Sc
28 3937 1109 Sc
28 3531 1259 Sc
28 3823 1268 Sc
28 3531 1250 Sc
28 3623 1250 Sc
28 4539 78 Sc
28 4400 1449 Sc
28 3387 1279 Sc
28 3047 1500 Sc
28 3961 1149 Sc
28 4023 1123 Sc
28 3996 1117 Sc
28 3982 1129 Sc
28 3851 1199 Sc
28 3485 1249 Sc
28 3115 1500 Sc
28 3673 1255 Sc
28 3618 1249 Sc
28 3238 1411 Sc
28 3414 1289 Sc
28 3837 1160 Sc
28 3863 1181 Sc
28 4214 1461 Sc
28 4311 1457 Sc
28 3279 1360 Sc
28 3880 1193 Sc
28 3204 1399 Sc
28 3845 1198 Sc
28 1569 1379 Sc
28 3995 1147 Sc
28 3939 1175 Sc
28 3954 1203 Sc
28 4011 1128 Sc
28 3851 1241 Sc
28 3974 1131 Sc
28 3975 1147 Sc
28 3970 1371 Sc
28 4009 1095 Sc
28 3886 1189 Sc
28 3489 1270 Sc
28 3803 1249 Sc
28 3983 1106 Sc
28 3266 1395 Sc
28 4053 1108 Sc
28 3216 1392 Sc
28 3951 1200 Sc
28 3258 1407 Sc
28 3646 1400 Sc
28 3680 1500 Sc
28 4659 74 Sc
28 3618 1257 Sc
28 3871 1222 Sc
28 4040 1101 Sc
28 3184 1411 Sc
28 3217 1423 Sc
28 3636 1263 Sc
28 4083 1322 Sc
28 3485 1263 Sc
28 3299 1369 Sc
28 3273 1408 Sc
28 4075 1250 Sc
28 3573 1242 Sc
28 3582 1256 Sc
28 3615 1266 Sc
28 4567 174 Sc
28 4013 1140 Sc
28 3995 1100 Sc
28 3237 1404 Sc
28 4030 1117 Sc
28 3277 1406 Sc
28 3214 1420 Sc
28 3280 1410 Sc
28 3542 1247 Sc
28 3154 1454 Sc
28 3271 1399 Sc
28 3861 1190 Sc
28 3007 1500 Sc
28 4620 70 Sc
28 3219 1419 Sc
28 4057 1096 Sc
28 3797 1416 Sc
28 3315 1372 Sc
28 3182 1459 Sc
28 3200 1495 Sc
28 3881 1353 Sc
28 3675 1246 Sc
28 3628 1268 Sc
28 3156 1468 Sc
28 3458 1358 Sc
U
%%EndObject
0 A
FQ
O0
0 0 TM

% PostScript produced by:
%%GMT: pstext -R-90.5/-62/0/650 -JX4i/-1.25i -F+f14,31,+j -N -O -K
%%PROJ: xy -90.50000000 -62.00000000 0.00000000 650.00000000 -90.500 -62.000 650.000 -0.000 +xy +a=6378137.000 +b=6356752.314245
%%BeginObject PSL_Layer_9
0 setlinecap
0 setlinejoin
3.32551 setmiterlimit
0 1615 M PSL_font_encode 31 get 0 eq {ISOLatin1+_Encoding /Palatino-Bold /Palatino-Bold PSL_reencode PSL_font_encode 31 1 put} if
233 F31
(3) Z
4716 1615 M V MU 0 0 M (3) FP 0 82 G 163 F31 (') FP 0 -82 G pathbbox N pop exch pop add U neg 0 G
(3) Z
0 82 G 163 F31 (') Z
0 -82 G %%EndObject
0 A
FQ
O0
0 -2400 TM

% PostScript produced by:
%%GMT: psbasemap -R-90.5/-62/0/650 -JX4i/-1.25i -Bxa5 -Bya100f50+lDepth [km] -BWeSn -Y-2i -O -K
%%PROJ: xy -90.50000000 -62.00000000 0.00000000 650.00000000 -90.500 -62.000 650.000 -0.000 +xy +a=6378137.000 +b=6356752.314245
%%BeginObject PSL_Layer_10
0 setlinecap
0 setlinejoin
3.32551 setmiterlimit
2 setlinecap
/MM {neg exch M} def
/PSL_A0_y 83 def
/PSL_A1_y 0 def
25 W
0 1500 M 0 -1500 D S
8 W
0 1500 M -83 0 D S
0 1269 M -83 0 D S
0 1038 M -83 0 D S
0 808 M -83 0 D S
0 577 M -83 0 D S
0 346 M -83 0 D S
0 115 M -83 0 D S
/PSL_AH0 0
PSL_font_encode 0 get 0 eq {ISOLatin1+_Encoding /Helvetica /Helvetica PSL_reencode PSL_font_encode 0 1 put} if
200 F0
(0) sw mx
(100) sw mx
(200) sw mx
(300) sw mx
(400) sw mx
(500) sw mx
(600) sw mx
def
/PSL_A0_y PSL_A0_y 83 add def
1500 PSL_A0_y MM
(0) mr Z
1269 PSL_A0_y MM
(100) mr Z
1038 PSL_A0_y MM
(200) mr Z
808 PSL_A0_y MM
(300) mr Z
577 PSL_A0_y MM
(400) mr Z
346 PSL_A0_y MM
(500) mr Z
115 PSL_A0_y MM
(600) mr Z
/PSL_A0_y PSL_A0_y PSL_AH0 add def
0 1385 M -42 0 D S
0 1154 M -42 0 D S
0 923 M -42 0 D S
0 692 M -42 0 D S
0 462 M -42 0 D S
0 231 M -42 0 D S
0 0 M -42 0 D S
/PSL_LH 267 F0
(M) sh def
/PSL_L_y PSL_A0_y PSL_A1_y mx 133 add def
750 PSL_L_y MM
V 90 R (Depth \[km\]) bc Z U
4800 0 T
/MM {exch M} def
/PSL_A0_y 83 def
/PSL_A1_y 0 def
25 W
0 1500 M 0 -1500 D S
8 W
0 1500 M 83 0 D S
0 1269 M 83 0 D S
0 1038 M 83 0 D S
0 808 M 83 0 D S
0 577 M 83 0 D S
0 346 M 83 0 D S
0 115 M 83 0 D S
0 1385 M 42 0 D S
0 1154 M 42 0 D S
0 923 M 42 0 D S
0 692 M 42 0 D S
0 462 M 42 0 D S
0 231 M 42 0 D S
0 0 M 42 0 D S
/PSL_LH 0 def /PSL_L_y PSL_A0_y PSL_A1_y mx def
-4800 0 T
/MM {neg M} def
/PSL_A0_y 83 def
/PSL_A1_y 0 def
25 W
0 0 M 4800 0 D S
8 W
84 0 M 0 -83 D S
926 0 M 0 -83 D S
1768 0 M 0 -83 D S
2611 0 M 0 -83 D S
3453 0 M 0 -83 D S
4295 0 M 0 -83 D S
/PSL_AH0 0
200 F0
(-90) sh mx
(-85) sh mx
(-80) sh mx
(-75) sh mx
(-70) sh mx
(-65) sh mx
def
/PSL_A0_y PSL_A0_y 83 add PSL_AH0 add def
84 PSL_A0_y MM
(-90) bc Z
926 PSL_A0_y MM
(-85) bc Z
1768 PSL_A0_y MM
(-80) bc Z
2611 PSL_A0_y MM
(-75) bc Z
3453 PSL_A0_y MM
(-70) bc Z
4295 PSL_A0_y MM
(-65) bc Z
/PSL_LH 0 def /PSL_L_y PSL_A0_y PSL_A1_y mx def
0 1500 T
/MM {M} def
/PSL_A0_y 83 def
/PSL_A1_y 0 def
25 W
0 0 M 4800 0 D S
8 W
84 0 M 0 83 D S
926 0 M 0 83 D S
1768 0 M 0 83 D S
2611 0 M 0 83 D S
3453 0 M 0 83 D S
4295 0 M 0 83 D S
/PSL_LH 0 def /PSL_L_y PSL_A0_y PSL_A1_y mx def
0 -1500 T
0 setlinecap
%%EndObject
0 A
FQ
O0
0 0 TM

% PostScript produced by:
%%GMT: psxy -R-90.5/-62/0/650 -JX4i/-1.25i -Sc0.12 -GSEAGREEN -Wthinnest -N -O -K
%%PROJ: xy -90.50000000 -62.00000000 0.00000000 650.00000000 -90.500 -62.000 650.000 -0.000 +xy +a=6378137.000 +b=6356752.314245
%%BeginObject PSL_Layer_11
0 setlinecap
0 setlinejoin
3.32551 setmiterlimit
4 W
V
{0.18 0.545 0.341 C} FS
O1
28 3641 1143 Sc
28 2995 1436 Sc
28 3079 1432 Sc
28 3133 1433 Sc
28 3097 1443 Sc
28 3011 1449 Sc
28 2999 1450 Sc
28 2834 1492 Sc
28 3164 1449 Sc
28 3023 1450 Sc
28 3056 1421 Sc
28 3077 1428 Sc
28 3048 1440 Sc
28 2763 1485 Sc
28 3090 1441 Sc
28 2939 1448 Sc
28 3216 1381 Sc
28 3042 1411 Sc
28 3093 1445 Sc
28 3071 1451 Sc
28 3159 1398 Sc
28 3115 1467 Sc
28 2915 1424 Sc
28 3103 1431 Sc
28 3054 1441 Sc
28 3083 1448 Sc
28 2771 1356 Sc
28 2985 1446 Sc
28 2947 1466 Sc
28 3069 1479 Sc
28 3098 1480 Sc
28 3081 1464 Sc
28 3700 1464 Sc
28 3117 1456 Sc
28 3040 1437 Sc
28 2861 1406 Sc
28 2874 1461 Sc
28 3036 1479 Sc
28 3039 1461 Sc
28 3058 1455 Sc
28 2941 1473 Sc
28 2804 1418 Sc
28 2865 1458 Sc
28 2866 1467 Sc
28 2781 1487 Sc
28 3090 1443 Sc
28 2815 1463 Sc
28 2719 1424 Sc
28 3180 1407 Sc
28 2731 1447 Sc
28 3002 1449 Sc
28 2842 1448 Sc
28 2769 1457 Sc
28 3101 1447 Sc
28 3088 1439 Sc
28 3087 1463 Sc
28 3159 1433 Sc
28 2887 1449 Sc
28 3175 1443 Sc
28 3009 1429 Sc
28 3116 1428 Sc
28 3095 1450 Sc
28 3069 1461 Sc
28 2999 1426 Sc
28 3061 1433 Sc
28 3089 1450 Sc
28 2937 1468 Sc
28 3136 1409 Sc
28 3057 1355 Sc
28 3101 1499 Sc
28 2971 1444 Sc
28 3057 1479 Sc
28 2993 1291 Sc
28 3126 1391 Sc
28 3116 1329 Sc
28 3109 1224 Sc
28 3188 1390 Sc
28 3093 1459 Sc
28 3060 1372 Sc
28 3061 1484 Sc
28 3087 1393 Sc
28 2784 1453 Sc
28 3157 1481 Sc
28 2747 1440 Sc
28 3019 1441 Sc
28 3029 1428 Sc
28 3014 1447 Sc
28 3129 1438 Sc
28 3127 1459 Sc
28 3115 1460 Sc
28 3085 1438 Sc
28 3093 1450 Sc
28 3121 1411 Sc
28 3044 1438 Sc
28 3109 1473 Sc
28 3108 1458 Sc
28 3113 1474 Sc
28 3112 1441 Sc
28 3103 1441 Sc
28 3114 1449 Sc
28 3109 1437 Sc
28 3118 1463 Sc
28 3103 1446 Sc
28 3086 1474 Sc
28 3073 1500 Sc
28 3108 1480 Sc
28 3079 1456 Sc
28 3125 1459 Sc
28 3105 1479 Sc
28 3081 1451 Sc
28 3097 1455 Sc
28 3118 1451 Sc
28 3126 1452 Sc
28 3273 1454 Sc
28 3132 1451 Sc
28 3138 1451 Sc
28 3138 1448 Sc
28 3522 1418 Sc
28 3111 1476 Sc
28 3125 1419 Sc
28 3133 1492 Sc
28 3113 1435 Sc
28 3126 1499 Sc
28 3105 1468 Sc
28 3058 1472 Sc
28 3050 1463 Sc
28 3098 1442 Sc
28 3118 1456 Sc
28 3127 1492 Sc
28 3083 1435 Sc
28 3097 1441 Sc
28 2754 1484 Sc
28 3078 1486 Sc
28 3118 1433 Sc
28 3122 1379 Sc
28 3092 1432 Sc
28 3110 1368 Sc
28 3116 1407 Sc
28 3219 1407 Sc
28 3099 1480 Sc
28 3081 1445 Sc
28 3110 1455 Sc
28 3102 1463 Sc
28 2863 1500 Sc
28 3056 1442 Sc
28 3082 1468 Sc
28 3083 1454 Sc
28 2868 1438 Sc
28 3127 1426 Sc
28 2944 1479 Sc
28 3053 1415 Sc
28 3128 1428 Sc
28 3020 1408 Sc
28 3137 1403 Sc
28 3230 1098 Sc
28 3145 1407 Sc
28 3083 1443 Sc
28 2858 1435 Sc
28 3021 1451 Sc
28 3118 1423 Sc
28 2802 1443 Sc
28 3156 1396 Sc
28 3098 1445 Sc
28 3074 1422 Sc
28 3027 1457 Sc
28 3073 1481 Sc
28 3105 1428 Sc
28 3137 1382 Sc
28 3089 1454 Sc
28 3106 1442 Sc
28 2792 1483 Sc
28 2771 1441 Sc
28 3083 1436 Sc
28 3082 1476 Sc
28 3110 1406 Sc
28 2897 1453 Sc
28 3238 1500 Sc
28 3076 1444 Sc
28 3130 1446 Sc
28 3089 1420 Sc
28 3059 1451 Sc
28 3090 1464 Sc
28 3140 1383 Sc
28 3083 1416 Sc
28 3098 1444 Sc
28 3063 1435 Sc
28 3051 1438 Sc
28 2886 1499 Sc
28 3076 1373 Sc
28 3033 1439 Sc
28 3155 1379 Sc
28 3063 1423 Sc
28 3086 1433 Sc
28 3653 1201 Sc
28 3073 1480 Sc
28 3058 1457 Sc
28 3068 1443 Sc
28 3063 1445 Sc
28 3117 1408 Sc
28 3095 1414 Sc
28 3108 1405 Sc
28 3111 1407 Sc
28 3083 1463 Sc
28 3280 1346 Sc
28 3048 1462 Sc
28 3691 1444 Sc
28 3720 1142 Sc
28 3880 1056 Sc
28 3073 1481 Sc
28 3399 1242 Sc
28 3040 1454 Sc
28 3473 1251 Sc
28 3041 1458 Sc
28 3057 1472 Sc
28 3372 1289 Sc
28 3032 1456 Sc
28 3438 1266 Sc
28 3100 1453 Sc
28 3861 1012 Sc
28 3085 1447 Sc
28 3076 1470 Sc
28 3054 1449 Sc
28 3054 1453 Sc
28 3059 1447 Sc
28 3081 1447 Sc
28 3087 1420 Sc
28 3040 1440 Sc
28 3636 1472 Sc
28 3098 1430 Sc
28 3121 1393 Sc
28 3465 1259 Sc
28 3103 1446 Sc
28 3105 1440 Sc
28 3055 1451 Sc
28 3037 1436 Sc
28 3100 1411 Sc
28 3110 1403 Sc
28 3324 1301 Sc
28 3105 1409 Sc
28 3066 1438 Sc
28 3346 1251 Sc
28 2977 1419 Sc
28 3534 1281 Sc
28 3118 1420 Sc
28 3399 1247 Sc
28 3112 1443 Sc
28 3064 1434 Sc
28 3037 1461 Sc
28 3035 1458 Sc
28 3049 1456 Sc
28 3346 1289 Sc
28 3394 1231 Sc
28 3204 1384 Sc
28 3067 1458 Sc
28 3112 1408 Sc
28 3063 1447 Sc
28 3118 1400 Sc
28 3113 1434 Sc
28 3122 1454 Sc
28 3108 1438 Sc
28 3089 1456 Sc
28 3235 1363 Sc
28 3137 1401 Sc
28 2994 1448 Sc
28 3084 1443 Sc
28 2992 1452 Sc
28 2993 1443 Sc
28 3079 1412 Sc
28 3813 1008 Sc
28 3153 1388 Sc
28 3441 1254 Sc
28 3085 1451 Sc
28 3093 1419 Sc
28 3046 1436 Sc
28 3122 1393 Sc
28 3047 1443 Sc
28 3208 1402 Sc
28 3083 1420 Sc
28 3110 1418 Sc
28 2850 1456 Sc
28 3110 1419 Sc
28 3068 1477 Sc
28 3068 1459 Sc
28 3071 1422 Sc
28 3364 1285 Sc
28 2925 1419 Sc
28 3058 1443 Sc
28 3061 1419 Sc
28 3224 1338 Sc
28 3108 1403 Sc
28 3925 1088 Sc
28 3119 1408 Sc
28 3009 1438 Sc
28 3771 1059 Sc
28 2854 1481 Sc
28 2863 1456 Sc
28 3855 1080 Sc
28 3044 1447 Sc
28 3383 1250 Sc
28 3411 1246 Sc
28 3089 1415 Sc
U
%%EndObject
0 A
FQ
O0
0 0 TM

% PostScript produced by:
%%GMT: pstext -R-90.5/-62/0/650 -JX4i/-1.25i -F+f14,31,+j -N -O -K
%%PROJ: xy -90.50000000 -62.00000000 0.00000000 650.00000000 -90.500 -62.000 650.000 -0.000 +xy +a=6378137.000 +b=6356752.314245
%%BeginObject PSL_Layer_12
0 setlinecap
0 setlinejoin
3.32551 setmiterlimit
0 1615 M PSL_font_encode 31 get 0 eq {ISOLatin1+_Encoding /Palatino-Bold /Palatino-Bold PSL_reencode PSL_font_encode 31 1 put} if
233 F31
(4) Z
4716 1615 M V MU 0 0 M (4) FP 0 82 G 163 F31 (') FP 0 -82 G pathbbox N pop exch pop add U neg 0 G
(4) Z
0 82 G 163 F31 (') Z
0 -82 G %%EndObject
0 A
FQ
O0
0 -2400 TM

% PostScript produced by:
%%GMT: psbasemap -R-90.5/-62/0/650 -JX4i/-1.25i -Bxa5+lLongitude [deg] -Bya100f50+lDepth [km] -BWeSn -Y-2i -O -K
%%PROJ: xy -90.50000000 -62.00000000 0.00000000 650.00000000 -90.500 -62.000 650.000 -0.000 +xy +a=6378137.000 +b=6356752.314245
%%BeginObject PSL_Layer_13
0 setlinecap
0 setlinejoin
3.32551 setmiterlimit
2 setlinecap
/MM {neg exch M} def
/PSL_A0_y 83 def
/PSL_A1_y 0 def
25 W
0 1500 M 0 -1500 D S
8 W
0 1500 M -83 0 D S
0 1269 M -83 0 D S
0 1038 M -83 0 D S
0 808 M -83 0 D S
0 577 M -83 0 D S
0 346 M -83 0 D S
0 115 M -83 0 D S
/PSL_AH0 0
PSL_font_encode 0 get 0 eq {ISOLatin1+_Encoding /Helvetica /Helvetica PSL_reencode PSL_font_encode 0 1 put} if
200 F0
(0) sw mx
(100) sw mx
(200) sw mx
(300) sw mx
(400) sw mx
(500) sw mx
(600) sw mx
def
/PSL_A0_y PSL_A0_y 83 add def
1500 PSL_A0_y MM
(0) mr Z
1269 PSL_A0_y MM
(100) mr Z
1038 PSL_A0_y MM
(200) mr Z
808 PSL_A0_y MM
(300) mr Z
577 PSL_A0_y MM
(400) mr Z
346 PSL_A0_y MM
(500) mr Z
115 PSL_A0_y MM
(600) mr Z
/PSL_A0_y PSL_A0_y PSL_AH0 add def
0 1385 M -42 0 D S
0 1154 M -42 0 D S
0 923 M -42 0 D S
0 692 M -42 0 D S
0 462 M -42 0 D S
0 231 M -42 0 D S
0 0 M -42 0 D S
/PSL_LH 267 F0
(M) sh def
/PSL_L_y PSL_A0_y PSL_A1_y mx 133 add def
750 PSL_L_y MM
V 90 R (Depth \[km\]) bc Z U
4800 0 T
/MM {exch M} def
/PSL_A0_y 83 def
/PSL_A1_y 0 def
25 W
0 1500 M 0 -1500 D S
8 W
0 1500 M 83 0 D S
0 1269 M 83 0 D S
0 1038 M 83 0 D S
0 808 M 83 0 D S
0 577 M 83 0 D S
0 346 M 83 0 D S
0 115 M 83 0 D S
0 1385 M 42 0 D S
0 1154 M 42 0 D S
0 923 M 42 0 D S
0 692 M 42 0 D S
0 462 M 42 0 D S
0 231 M 42 0 D S
0 0 M 42 0 D S
/PSL_LH 0 def /PSL_L_y PSL_A0_y PSL_A1_y mx def
-4800 0 T
/MM {neg M} def
/PSL_A0_y 83 def
/PSL_A1_y 0 def
25 W
0 0 M 4800 0 D S
8 W
84 0 M 0 -83 D S
926 0 M 0 -83 D S
1768 0 M 0 -83 D S
2611 0 M 0 -83 D S
3453 0 M 0 -83 D S
4295 0 M 0 -83 D S
/PSL_AH0 0
200 F0
(-90) sh mx
(-85) sh mx
(-80) sh mx
(-75) sh mx
(-70) sh mx
(-65) sh mx
def
/PSL_A0_y PSL_A0_y 83 add PSL_AH0 add def
84 PSL_A0_y MM
(-90) bc Z
926 PSL_A0_y MM
(-85) bc Z
1768 PSL_A0_y MM
(-80) bc Z
2611 PSL_A0_y MM
(-75) bc Z
3453 PSL_A0_y MM
(-70) bc Z
4295 PSL_A0_y MM
(-65) bc Z
/PSL_LH 267 F0
(M) sh def
/PSL_L_y PSL_A0_y PSL_A1_y mx 133 add PSL_LH add def
2400 PSL_L_y MM
(Longitude \[deg\]) bc Z
0 1500 T
/MM {M} def
/PSL_A0_y 83 def
/PSL_A1_y 0 def
25 W
0 0 M 4800 0 D S
8 W
84 0 M 0 83 D S
926 0 M 0 83 D S
1768 0 M 0 83 D S
2611 0 M 0 83 D S
3453 0 M 0 83 D S
4295 0 M 0 83 D S
/PSL_LH 0 def /PSL_L_y PSL_A0_y PSL_A1_y mx def
0 -1500 T
0 setlinecap
%%EndObject
0 A
FQ
O0
0 0 TM

% PostScript produced by:
%%GMT: psxy -R-90.5/-62/0/650 -JX4i/-1.25i -Sc0.12 -GSEAGREEN -Wthinnest -N -O -K
%%PROJ: xy -90.50000000 -62.00000000 0.00000000 650.00000000 -90.500 -62.000 650.000 -0.000 +xy +a=6378137.000 +b=6356752.314245
%%BeginObject PSL_Layer_14
0 setlinecap
0 setlinejoin
3.32551 setmiterlimit
4 W
V
{0.18 0.545 0.341 C} FS
O1
28 2535 1438 Sc
28 2807 1454 Sc
28 2800 1401 Sc
28 2780 1431 Sc
28 2777 1444 Sc
28 2805 1459 Sc
28 2740 1438 Sc
28 2807 1461 Sc
28 2855 1324 Sc
28 2765 1460 Sc
28 2812 1456 Sc
28 2784 1468 Sc
28 2826 1440 Sc
28 2841 1457 Sc
28 2526 1471 Sc
28 2857 1458 Sc
28 2792 1444 Sc
28 2771 1389 Sc
28 2736 1400 Sc
28 2789 1467 Sc
28 3211 1500 Sc
28 2752 1447 Sc
28 3353 1387 Sc
28 2777 1497 Sc
28 2914 1358 Sc
28 2871 1412 Sc
28 2830 1499 Sc
28 2914 1286 Sc
28 2787 1481 Sc
28 2565 1480 Sc
28 2767 1462 Sc
28 2823 1419 Sc
28 2792 1458 Sc
28 2762 1419 Sc
28 2814 1408 Sc
28 3067 1299 Sc
28 2792 1446 Sc
28 2797 1460 Sc
28 2892 1401 Sc
28 2566 1498 Sc
28 2950 1369 Sc
28 2820 1499 Sc
28 2556 1473 Sc
28 2775 1500 Sc
28 2866 1444 Sc
28 2797 1424 Sc
28 2782 1455 Sc
28 2902 1343 Sc
28 2820 1450 Sc
28 2841 1454 Sc
28 3092 1178 Sc
28 2893 1443 Sc
28 2766 1414 Sc
28 2817 1440 Sc
28 2862 1441 Sc
28 2817 1443 Sc
28 2842 1430 Sc
28 2763 1451 Sc
28 2890 1457 Sc
28 2834 1461 Sc
28 2894 1418 Sc
28 2603 1358 Sc
28 2772 1458 Sc
28 2805 1443 Sc
28 2886 1436 Sc
28 2789 1460 Sc
28 2782 1453 Sc
28 2775 1456 Sc
28 2860 1447 Sc
28 2802 1458 Sc
28 2859 1432 Sc
28 2770 1454 Sc
28 3071 1293 Sc
28 2787 1487 Sc
28 2740 1455 Sc
28 2814 1484 Sc
28 2911 1427 Sc
28 2540 1500 Sc
28 2540 1500 Sc
28 2893 1500 Sc
28 2553 1500 Sc
28 2752 1500 Sc
28 2562 1500 Sc
28 2587 1500 Sc
28 2953 1384 Sc
28 2795 1456 Sc
28 2935 1410 Sc
28 2567 1442 Sc
28 2792 1460 Sc
28 36874 -60 Sc
28 2619 1443 Sc
28 2533 1500 Sc
28 2536 1488 Sc
28 2821 1415 Sc
28 2540 1500 Sc
28 2896 1431 Sc
28 2837 1454 Sc
28 2807 1500 Sc
28 2590 1450 Sc
U
%%EndObject
0 A
FQ
O0
0 0 TM

% PostScript produced by:
%%GMT: pstext -R-90.5/-62/0/650 -JX4i/-1.25i -F+f14,31,+j -N -O -K
%%PROJ: xy -90.50000000 -62.00000000 0.00000000 650.00000000 -90.500 -62.000 650.000 -0.000 +xy +a=6378137.000 +b=6356752.314245
%%BeginObject PSL_Layer_15
0 setlinecap
0 setlinejoin
3.32551 setmiterlimit
0 1615 M PSL_font_encode 31 get 0 eq {ISOLatin1+_Encoding /Palatino-Bold /Palatino-Bold PSL_reencode PSL_font_encode 31 1 put} if
233 F31
(5) Z
4716 1615 M V MU 0 0 M (5) FP 0 82 G 163 F31 (') FP 0 -82 G pathbbox N pop exch pop add U neg 0 G
(5) Z
0 82 G 163 F31 (') Z
0 -82 G %%EndObject
