%!PS-Adobe-3.0
%%BoundingBox: 0 0 595 842
%%HiResBoundingBox: 0 0 595 842
%%Title: GMT v5.1.1 (r12968) [64-bit] Document from psbasemap
%%Creator: GMT5
%%For: nooshiri
%%DocumentNeededResources: font Helvetica
%%CreationDate: Tue Nov  3 22:06:22 2015
%%LanguageLevel: 2
%%DocumentData: Clean7Bit
%%Orientation: Portrait
%%Pages: 1
%%EndComments

%%BeginProlog
250 dict begin
/! {bind def} bind def
/# {load def}!
/A /setgray #
/B /setdash #
/C /setrgbcolor #
/D /rlineto #
/E {dup stringwidth pop}!
/F /fill #
/G /rmoveto #
/H /sethsbcolor #
/I /setpattern #
/K /setcmykcolor #
/L /lineto #
/M /moveto #
/N /newpath #
/P /closepath #
/R /rotate #
/S /stroke #
/T /translate #
/U /grestore #
/V /gsave #
/W /setlinewidth #
/Y {findfont exch scalefont setfont}!
/Z /show #
/FP {true charpath flattenpath}!
/MU {matrix setmatrix}!
/MS {/SMat matrix currentmatrix def}!
/MR {SMat setmatrix}!
/edef {exch def}!
/FS {/fc edef /fs {V fc F U} def}!
/FQ {/fs {} def}!
/O0 {/os {N} def}!
/O1 {/os {P S} def}!
/FO {fs os}!
/Sa {M MS dup 0 exch G 0.726542528 mul -72 R dup 0 D 4 {72 R dup 0 D -144 R dup 0 D} repeat pop MR FO}!
/Sb {M dup 0 D exch 0 exch D neg 0 D FO}!
/SB {MS T /BoxR edef /BoxW edef /BoxH edef BoxR 0 M
  BoxW 0 BoxW BoxH BoxR arct BoxW BoxH 0 BoxH BoxR arct 0 BoxH 0 0 BoxR arct 0 0 BoxW 0 BoxR arct MR FO}!
/Sc {N 3 -1 roll 0 360 arc FO}!
/Sd {M 4 {dup} repeat 0 G neg dup dup D exch D D FO}!
/Se {N MS T R scale 0 0 1 0 360 arc MR FO}!
/Sg {M MS 22.5 R dup 0 exch G -22.5 R 0.765366865 mul dup 0 D 6 {-45 R dup 0 D} repeat pop MR FO}!
/Sh {M MS dup 0 G -120 R dup 0 D 4 {-60 R dup 0 D} repeat pop MR FO}!
/Si {M MS dup neg 0 exch G 60 R 1.732050808 mul dup 0 D 120 R 0 D MR FO}!
/Sj {M MS R dup -2 div 2 index -2 div G dup 0 D exch 0 exch D neg 0 D MR FO}!
/Sn {M MS dup 0 exch G -36 R 1.175570505 mul dup 0 D 3 {-72 R dup 0 D} repeat pop MR FO}!
/Sp {N 3 -1 roll 0 360 arc fs N}!
/SP {M {D} repeat FO}!
/Sr {M dup -2 div 2 index -2 div G dup 0 D exch 0 exch D neg 0 D FO}!
/SR {MS T /BoxR edef /BoxW edef /BoxH edef BoxR BoxW -2 div BoxH -2 div T BoxR 0 M
  BoxW 0 BoxW BoxH BoxR arct BoxW BoxH 0 BoxH BoxR arct 0 BoxH 0 0 BoxR arct 0 0 BoxW 0 BoxR arct MR FO}!
/Ss {M 1.414213562 mul dup dup dup -2 div dup G 0 D 0 exch D neg 0 D FO}!
/St {M MS dup 0 exch G -60 R 1.732050808 mul dup 0 D -120 R 0 D MR FO}!
/SV {0 exch M 0 D D D D D 0 D FO}!
/Sv {0 0 M D D 0 D D D D D 0 D D FO}!
/Sw {2 copy M 5 2 roll arc FO}!
/Sx {M 1.414213562 mul 5 {dup} repeat -2 div dup G D neg 0 G neg D S}!
/Sy {M dup 0 exch G dup -2 mul dup 0 exch D S}!
/S+ {M dup 0 G dup -2 mul dup 0 D exch dup G 0 exch D S}!
/S- {M dup 0 G dup -2 mul dup 0 D S}!
/sw {stringwidth pop}!
/sh {V MU 0 0 M FP pathbbox N 4 1 roll pop pop pop U}!
/sd {V MU 0 0 M FP pathbbox N pop pop exch pop U}!
/sH {V MU 0 0 M FP pathbbox N exch pop exch sub exch pop U}!
/sb {E exch sh}!
/bl {}!
/bc {E -2 div 0 G}!
/br {E neg 0 G}!
/ml {dup 0 exch sh -2 div G}!
/mc {dup E -2 div exch sh -2 div G}!
/mr {dup E neg exch sh -2 div G}!
/tl {dup 0 exch sh neg G}!
/tc {dup E -2 div exch sh neg G}!
/tr {dup E neg exch sh neg G}!
/mx {2 copy lt {exch} if pop}!
/PSL_xorig 0 def /PSL_yorig 0 def
/TM {2 copy T PSL_yorig add /PSL_yorig edef PSL_xorig add /PSL_xorig edef}!
/PSL_reencode {findfont dup length dict begin
  {1 index /FID ne {def}{pop pop} ifelse} forall
  exch /Encoding edef currentdict end definefont pop
}!
/PSL_eps_begin {
  /PSL_eps_state save def
  /PSL_dict_count countdictstack def
  /PSL_op_count count 1 sub def
  userdict begin
  /showpage {} def
  0 setgray 0 setlinecap 1 setlinewidth
  0 setlinejoin 10 setmiterlimit [] 0 setdash newpath
  /languagelevel where
  {pop languagelevel 1 ne {false setstrokeadjust false setoverprint} if} if
}!
/PSL_eps_end {
  count PSL_op_count sub {pop} repeat
  countdictstack PSL_dict_count sub {end} repeat
  PSL_eps_state restore
}!
/PSL_transp {
  /.setopacityalpha where {pop .setblendmode .setopacityalpha}{
  /pdfmark where {pop [ /BM exch /CA exch dup /ca exch /SetTransparency pdfmark}
  {pop pop} ifelse} ifelse
}!
/ISOLatin1+_Encoding [
/.notdef	/.notdef	/.notdef	/.notdef	/.notdef	/.notdef	/.notdef	/.notdef
/.notdef	/.notdef	/.notdef	/.notdef	/.notdef	/.notdef	/.notdef	/.notdef
/.notdef	/.notdef	/.notdef	/.notdef	/.notdef	/.notdef	/.notdef	/.notdef
/.notdef	/bullet		/ellipsis	/trademark	/emdash		/endash		/fi		/zcaron
/space		/exclam		/quotedbl	/numbersign	/dollar		/percent	/ampersand	/quoteright
/parenleft	/parenright	/asterisk	/plus		/comma		/minus		/period		/slash
/zero		/one		/two		/three		/four		/five		/six		/seven
/eight		/nine		/colon		/semicolon	/less		/equal		/greater	/question
/at		/A		/B		/C		/D		/E		/F		/G
/H		/I		/J		/K		/L		/M		/N		/O
/P		/Q		/R		/S		/T		/U		/V		/W
/X		/Y		/Z		/bracketleft	/backslash	/bracketright	/asciicircum	/underscore
/quoteleft	/a		/b		/c 		/d		/e		/f		/g
/h		/i		/j		/k		/l		/m		/n		/o
/p		/q		/r		/s		/t		/u		/v		/w
/x		/y		/z		/braceleft	/bar		/braceright	/asciitilde	/scaron
/OE		/dagger		/daggerdbl	/Lslash		/fraction	/guilsinglleft	/Scaron		/guilsinglright
/oe		/Ydieresis	/Zcaron		/lslash		/perthousand	/quotedblbase	/quotedblleft	/quotedblright
/dotlessi	/grave		/acute		/circumflex	/tilde		/macron		/breve		/dotaccent
/dieresis	/quotesinglbase	/ring		/cedilla	/quotesingle	/hungarumlaut	/ogonek		/caron
/space		/exclamdown	/cent		/sterling	/currency	/yen		/brokenbar	/section
/dieresis	/copyright	/ordfeminine	/guillemotleft	/logicalnot	/hyphen		/registered	/macron
/degree		/plusminus	/twosuperior	/threesuperior	/acute		/mu		/paragraph	/periodcentered
/cedilla	/onesuperior	/ordmasculine	/guillemotright	/onequarter	/onehalf	/threequarters	/questiondown
/Agrave		/Aacute		/Acircumflex	/Atilde		/Adieresis	/Aring		/AE		/Ccedilla
/Egrave		/Eacute		/Ecircumflex	/Edieresis	/Igrave		/Iacute		/Icircumflex	/Idieresis
/Eth		/Ntilde		/Ograve		/Oacute		/Ocircumflex	/Otilde		/Odieresis	/multiply
/Oslash		/Ugrave		/Uacute		/Ucircumflex	/Udieresis	/Yacute		/Thorn		/germandbls
/agrave		/aacute		/acircumflex	/atilde		/adieresis	/aring		/ae		/ccedilla
/egrave		/eacute		/ecircumflex	/edieresis	/igrave		/iacute		/icircumflex	/idieresis
/eth		/ntilde		/ograve		/oacute		/ocircumflex	/otilde		/odieresis	/divide
/oslash		/ugrave		/uacute		/ucircumflex	/udieresis	/yacute		/thorn		/ydieresis
] def
/PSL_font_encode 0 0 0 0 0 0 0 0 0 0 0 0 0 0 0 0 0 0 0 0 0 0 0 0 0 0 0 0 0 0 0 0 0 0 0 0 0 0 0 39 array astore def
/F0 {/Helvetica Y}!
/F1 {/Helvetica-Bold Y}!
/F2 {/Helvetica-Oblique Y}!
/F3 {/Helvetica-BoldOblique Y}!
/F4 {/Times-Roman Y}!
/F5 {/Times-Bold Y}!
/F6 {/Times-Italic Y}!
/F7 {/Times-BoldItalic Y}!
/F8 {/Courier Y}!
/F9 {/Courier-Bold Y}!
/F10 {/Courier-Oblique Y}!
/F11 {/Courier-BoldOblique Y}!
/F12 {/Symbol Y}!
/F13 {/AvantGarde-Book Y}!
/F14 {/AvantGarde-BookOblique Y}!
/F15 {/AvantGarde-Demi Y}!
/F16 {/AvantGarde-DemiOblique Y}!
/F17 {/Bookman-Demi Y}!
/F18 {/Bookman-DemiItalic Y}!
/F19 {/Bookman-Light Y}!
/F20 {/Bookman-LightItalic Y}!
/F21 {/Helvetica-Narrow Y}!
/F22 {/Helvetica-Narrow-Bold Y}!
/F23 {/Helvetica-Narrow-Oblique Y}!
/F24 {/Helvetica-Narrow-BoldOblique Y}!
/F25 {/NewCenturySchlbk-Roman Y}!
/F26 {/NewCenturySchlbk-Italic Y}!
/F27 {/NewCenturySchlbk-Bold Y}!
/F28 {/NewCenturySchlbk-BoldItalic Y}!
/F29 {/Palatino-Roman Y}!
/F30 {/Palatino-Italic Y}!
/F31 {/Palatino-Bold Y}!
/F32 {/Palatino-BoldItalic Y}!
/F33 {/ZapfChancery-MediumItalic Y}!
/F34 {/ZapfDingbats Y}!
/F35 {/Ryumin-Light-EUC-H Y}!
/F36 {/Ryumin-Light-EUC-V Y}!
/F37 {/GothicBBB-Medium-EUC-H Y}!
/F38 {/GothicBBB-Medium-EUC-V Y}!
/PSL_pathtextdict 26 dict def
/PSL_pathtext
  {PSL_pathtextdict begin
    /textheight exch def
    /just exch def
    /offset exch def
    /str exch def
    /pathdist 0 def
    /setdist offset def
    /charcount 0 def
    /justy just 4 idiv textheight mul 2 div neg def
    V flattenpath
	{movetoproc} {linetoproc}
	{curvetoproc} {closepathproc}
	pathforall
    U N
    end
  } def
PSL_pathtextdict begin
/movetoproc
  { /newy exch def /newx exch def
    /firstx newx def /firsty newy def
    /ovr 0 def
    newx newy transform
    /cpy exch def /cpx exch def
  } def
/linetoproc
  { /oldx newx def /oldy newy def
    /newy exch def /newx exch def
    /dx newx oldx sub def
    /dy newy oldy sub def
    /dist dx dup mul dy dup mul add sqrt def
    dist 0 ne
    { /dsx dx dist div ovr mul def
      /dsy dy dist div ovr mul def
      oldx dsx add oldy dsy add transform
      /cpy exch def /cpx exch def
      /pathdist pathdist dist add def
      {setdist pathdist le
	  {charcount str length lt
	      {setchar} {exit} ifelse}
	  { /ovr setdist pathdist sub def
	    exit}
	  ifelse
      } loop
    } if
  } def
/curvetoproc
  { (ERROR: No curveto's after flattenpath!)
    print
  } def
/closepathproc
  {firstx firsty linetoproc
    firstx firsty movetoproc
  } def
/setchar
  { /char str charcount 1 getinterval def
    /charcount charcount 1 add def
    /charwidth char stringwidth pop def
    V cpx cpy itransform T
      dy dx atan R
      0 justy M
      char show
      0 justy neg G
      currentpoint transform
      /cpy exch def /cpx exch def
    U /setdist setdist charwidth add def
  } def
end
/PSL_curved_text_labels
{ /bits exch def
  /PSL_clippath bits 1 and 1 eq def
  /PSL_placetext bits 2 and 0 eq def
  /PSL_strokeline bits 4 and 4 eq def
  /PSL_firstcall bits 32 and 32 eq def
  /PSL_lastcall bits 64 and 64 eq def
  /PSL_fillbox bits 128 and 128 eq def
  /PSL_drawbox bits 256 and 256 eq def
  /PSL_n1 PSL_n 1 sub def
  /PSL_m1 PSL_m 1 sub def
  /PSL_usebox PSL_fillbox PSL_drawbox or def
  PSL_CT_calcstringwidth
  PSL_CT_calclinedist
  PSL_CT_addcutpoints
  PSL_clippath PSL_firstcall and
  {clipsave N clippath} if
  PSL_setlinepen
  /PSL_nn1 PSL_nn 1 sub def
  /n 0 def
  /k 0 def
  /j 0 def
  /PSL_seg 0 def
  /PSL_xp PSL_nn array def
  /PSL_yp PSL_nn array def
  PSL_xp 0 PSL_xx 0 get put
  PSL_yp 0 PSL_yy 0 get put
  1 1 PSL_nn1
  { /i exch def
    /node_type PSL_kind i get def
    /j j 1 add def
    PSL_xp j PSL_xx i get put
    PSL_yp j PSL_yy i get put
    node_type 1 eq
    {n 0 eq
      {PSL_CT_drawline}
      {	PSL_CT_reversepath
	PSL_CT_textline} ifelse
      /j 0 def
      PSL_xp j PSL_xx i get put
      PSL_yp j PSL_yy i get put
    } if
  } for
  n 0 eq {PSL_CT_drawline} if
  PSL_lastcall
  {PSL_clippath
    {PSL_clip} if N
  } if
} def
/PSL_CT_textline
{PSL_placetext
  {PSL_clippath
    {PSL_CT_clippath} {PSL_CT_placelabel} ifelse
  } if
  /n 0 def /k k 1 add def PSL_setlinepen
} def
/PSL_CT_calcstringwidth
{ /PSL_width PSL_m array def
  0 1 PSL_m1
  { /i exch def
    PSL_width i PSL_str i get stringwidth pop put
  } for
} def
/PSL_CT_calclinedist
{ /PSL_newx PSL_x 0 get def
  /PSL_newy PSL_y 0 get def
  /dist 0.0 def
  /PSL_dist PSL_n array def
  PSL_dist 0 0.0 put
  1 1 PSL_n1
  { /i exch def
    /PSL_oldx PSL_newx def
    /PSL_oldy PSL_newy def
    /PSL_newx PSL_x i get def
    /PSL_newy PSL_y i get def
    /dx PSL_newx PSL_oldx sub def
    /dy PSL_newy PSL_oldy sub def
    /dist dist dx dx mul dy dy mul add sqrt add def
    PSL_dist i dist put
  } for
} def
/PSL_CT_addcutpoints
{ /k 0 def
  /PSL_nc PSL_m 2 mul 1 add def
  /PSL_cuts PSL_nc array def
  /PSL_nc1 PSL_nc 1 sub def
  0 1 PSL_m1
  { /i exch def
    /dist PSL_dist PSL_node i get get def
    /halfwidth PSL_width i get 2 div PSL_gap_x add def
    PSL_cuts k dist halfwidth sub put
    /k k 1 add def
    PSL_cuts k dist halfwidth add put
    /k k 1 add def
  } for
  PSL_cuts k 100000.0 put
  /PSL_nn PSL_n PSL_m 2 mul add def
  /PSL_xx PSL_nn array def
  /PSL_yy PSL_nn array def
  /PSL_kind PSL_nn array def
  /j 0 def
  /k 0 def
  /dist 0.0 def
  0 1 PSL_n1
  { /i exch def
    /last_dist dist def
    /dist PSL_dist i get def
    k 1 PSL_nc1
    { /kk exch def
      /this_cut PSL_cuts kk get def
      dist this_cut gt
      { /ds dist last_dist sub def
	/f ds 0.0 eq {0.0} {dist this_cut sub ds div} ifelse def
	/i1 i 0 eq {0} {i 1 sub} ifelse def
	PSL_xx j PSL_x i get dup PSL_x i1 get sub f mul sub put
	PSL_yy j PSL_y i get dup PSL_y i1 get sub f mul sub put
	PSL_kind j 1 put
	/j j 1 add def
	/k k 1 add def
      } if
    } for
    dist PSL_cuts k get le
    {PSL_xx j PSL_x i get put PSL_yy j PSL_y i get put
      PSL_kind j 0 put
      /j j 1 add def
    } if
  } for
} def
/PSL_CT_reversepath
{PSL_xp j get PSL_xp 0 get lt
  {0 1 j 2 idiv
    { /left exch def
      /right j left sub def
      /tmp PSL_xp left get def
      PSL_xp left PSL_xp right get put
      PSL_xp right tmp put
      /tmp PSL_yp left get def
      PSL_yp left PSL_yp right get put
      PSL_yp right tmp put
    } for
  } if
} def
/PSL_CT_placelabel
{
  PSL_usebox
  {PSL_CT_clippath
    PSL_fillbox
    {V PSL_setboxrgb fill U} if
    PSL_drawbox
    {PSL_setboxpen S} if N
  } if
  PSL_settxtrgb PSL_CT_placeline PSL_str k get PSL_gap_x PSL_just PSL_height PSL_pathtext
} def
/PSL_CT_clippath
{
  /H PSL_height 2 div PSL_gap_y add def
  /xoff j 1 add array def
  /yoff j 1 add array def
  /angle 0 def
  0 1 j {
    /ii exch def
    /x PSL_xp ii get def
    /y PSL_yp ii get def
    ii 0 eq {
      /x1 PSL_xp 1 get def
      /y1 PSL_yp 1 get def
      /dx x1 x sub def
      /dy y1 y sub def
    }
    { /i1 ii 1 sub def
      /x1 PSL_xp i1 get def
      /y1 PSL_yp i1 get def
      /dx x x1 sub def
      /dy y y1 sub def
    } ifelse
    dx 0.0 ne dy 0.0 ne and
    { /angle dy dx atan 90 add def} if
    /sina angle sin def
    /cosa angle cos def
    xoff ii H cosa mul put
    yoff ii H sina mul put
  } for
  PSL_xp 0 get xoff 0 get add PSL_yp 0 get yoff 0 get add M
  1 1 j {
    /ii exch def
    PSL_xp ii get xoff ii get add PSL_yp ii get yoff ii get add L
  } for
  j -1 0 {
    /ii exch def
    PSL_xp ii get xoff ii get sub PSL_yp ii get yoff ii get sub L
  } for P
} def
/PSL_CT_drawline
{
  /str 20 string def
  PSL_strokeline
  {PSL_CT_placeline PSL_setlinepen S} if
  /PSL_seg PSL_seg 1 add def
  /n 1 def
} def
/PSL_CT_placeline
{PSL_xp 0 get PSL_yp 0 get M
  1 1 j { /ii exch def PSL_xp ii get PSL_yp ii get L} for
} def
/PSL_straight_text_labels
{
  /bits exch def
  /PSL_clippath bits 1 and 0 eq def
  /PSL_rounded bits 16 and 16 eq def
  /PSL_fillbox bits 128 and 128 eq def
  /PSL_drawbox bits 256 and 256 eq def
  /PSL_m1 PSL_m 1 sub def
  /PSL_justx PSL_just 4 mod 1 sub 2 div neg def
  /PSL_justy PSL_just 4 idiv PSL_height mul 2 div neg def
  /PSL_usebox PSL_fillbox PSL_drawbox or def
  PSL_clippath
  {PSL_ST_clippath}
  {PSL_usebox {PSL_ST_clippath} if
    PSL_ST_placelabel
  } ifelse
} def
/PSL_ST_placelabel
{PSL_settxtrgb
  0 1 PSL_m1
  { /k exch def
    /xp PSL_txt_x k get def
    /yp PSL_txt_y k get def
    V PSL_txt_x k get PSL_txt_y k get T
    PSL_angle k get R
    /BoxW PSL_str k get stringwidth pop def
    BoxW PSL_justx mul PSL_justy M
    PSL_str k get show
    U
  } for
} def
/PSL_ST_clippath
{N
  PSL_usebox not {clipsave clippath} if
  PSL_rounded {PSL_ST_clippath_round} {PSL_ST_clippath_rect} ifelse
  PSL_usebox
  {PSL_fillbox
    {V PSL_setboxrgb fill U} if
    PSL_drawbox
    {PSL_setboxpen S} if N
  }
  {PSL_clip
  } ifelse
  N
} def
/PSL_ST_clippath_rect
{
  /BoxH PSL_height PSL_gap_y 2 mul add def
  /DelY BoxH BoxH 0 3 array astore def
  0 1 PSL_m1
  { /k exch def
    /xp PSL_txt_x k get def
    /yp PSL_txt_y k get def
    /MAT PSL_angle k get matrix R def
    /BoxW PSL_str k get stringwidth pop PSL_gap_x 2 mul add def
    /x0 0 BoxW PSL_justx mul add def
    /y0 0 PSL_justy add PSL_gap_y sub def
    /DelX 0 BoxW BoxW 3 array astore def
    x0 y0 MAT transform
    /dy exch def /dx exch def
    xp dx add yp dy add M
    0 1 2
    {
      /ii exch def
      x0 DelX ii get add y0 DelY ii get add MAT transform
      /dy exch def /dx exch def
      xp dx add yp dy add L
    } for P
  } for
} def
/PSL_ST_clippath_round
{
  /PSL_justy2 PSL_just 4 idiv 2 div neg def
  /BoxR PSL_gap_x PSL_gap_y lt {PSL_gap_x} {PSL_gap_y} ifelse def
  /BoxH PSL_height PSL_gap_y 2 mul add def
  /y0 PSL_height PSL_gap_y 2 mul add PSL_justy2 mul def
  0 1 PSL_m1
  { /k exch def
    /xp PSL_txt_x k get def
    /yp PSL_txt_y k get def
    /BoxW PSL_str k get stringwidth pop PSL_gap_x 2 mul add def
    /x0 BoxW PSL_justx mul def
    xp yp T PSL_angle k get R x0 y0 T
    BoxR 0 M
    BoxW 0 BoxW BoxH BoxR arct BoxW BoxH 0 BoxH BoxR arct 0 BoxH 0 0 BoxR arct 0 0 BoxW 0 BoxR arct P
    x0 neg y0 neg T PSL_angle k get neg R xp neg yp neg T
  } for
} def
/PSL_nclip 0 def
/PSL_clip {clip /PSL_nclip PSL_nclip 1 add def} def
/PSL_eoclip {eoclip /PSL_nclip PSL_nclip 1 add def} def
/PSL_cliprestore {cliprestore /PSL_nclip PSL_nclip 1 sub def} def
%%EndProlog

%%BeginSetup
/PSLevel /languagelevel where {pop languagelevel} {1} ifelse def
PSLevel 1 gt { << /PageSize [595 842] /ImagingBBox null >> setpagedevice } if
%%EndSetup

%%Page: 1 1

%%BeginPageSetup
V 0.06 0.06 scale
%%EndPageSetup

/PSL_page_xsize 9917 def
/PSL_page_ysize 14033 def
0 A
FQ
O0
3000 11400 TM

% PostScript produced by:
%%GMT: psbasemap -R-90.5/-62/0/650 -JX4i/-1.25i -Bxa5 -Bya100f50+lDepth [km] -BWeSn -X2.5i -Y9.5i -P -K
%%PROJ: xy -90.50000000 -62.00000000 0.00000000 650.00000000 -90.500 -62.000 650.000 -0.000 +xy +a=6378137.000 +b=6356752.314245
%%BeginObject PSL_Layer_1
0 setlinecap
0 setlinejoin
3.32551 setmiterlimit
2 setlinecap
/MM {neg exch M} def
/PSL_A0_y 83 def
/PSL_A1_y 0 def
25 W
0 1500 M 0 -1500 D S
8 W
0 1500 M -83 0 D S
0 1269 M -83 0 D S
0 1038 M -83 0 D S
0 808 M -83 0 D S
0 577 M -83 0 D S
0 346 M -83 0 D S
0 115 M -83 0 D S
/PSL_AH0 0
PSL_font_encode 0 get 0 eq {ISOLatin1+_Encoding /Helvetica /Helvetica PSL_reencode PSL_font_encode 0 1 put} if
200 F0
(0) sw mx
(100) sw mx
(200) sw mx
(300) sw mx
(400) sw mx
(500) sw mx
(600) sw mx
def
/PSL_A0_y PSL_A0_y 83 add def
1500 PSL_A0_y MM
(0) mr Z
1269 PSL_A0_y MM
(100) mr Z
1038 PSL_A0_y MM
(200) mr Z
808 PSL_A0_y MM
(300) mr Z
577 PSL_A0_y MM
(400) mr Z
346 PSL_A0_y MM
(500) mr Z
115 PSL_A0_y MM
(600) mr Z
/PSL_A0_y PSL_A0_y PSL_AH0 add def
0 1385 M -42 0 D S
0 1154 M -42 0 D S
0 923 M -42 0 D S
0 692 M -42 0 D S
0 462 M -42 0 D S
0 231 M -42 0 D S
0 0 M -42 0 D S
/PSL_LH 267 F0
(M) sh def
/PSL_L_y PSL_A0_y PSL_A1_y mx 133 add def
750 PSL_L_y MM
V 90 R (Depth \[km\]) bc Z U
4800 0 T
/MM {exch M} def
/PSL_A0_y 83 def
/PSL_A1_y 0 def
25 W
0 1500 M 0 -1500 D S
8 W
0 1500 M 83 0 D S
0 1269 M 83 0 D S
0 1038 M 83 0 D S
0 808 M 83 0 D S
0 577 M 83 0 D S
0 346 M 83 0 D S
0 115 M 83 0 D S
0 1385 M 42 0 D S
0 1154 M 42 0 D S
0 923 M 42 0 D S
0 692 M 42 0 D S
0 462 M 42 0 D S
0 231 M 42 0 D S
0 0 M 42 0 D S
/PSL_LH 0 def /PSL_L_y PSL_A0_y PSL_A1_y mx def
-4800 0 T
/MM {neg M} def
/PSL_A0_y 83 def
/PSL_A1_y 0 def
25 W
0 0 M 4800 0 D S
8 W
84 0 M 0 -83 D S
926 0 M 0 -83 D S
1768 0 M 0 -83 D S
2611 0 M 0 -83 D S
3453 0 M 0 -83 D S
4295 0 M 0 -83 D S
/PSL_AH0 0
200 F0
(-90) sh mx
(-85) sh mx
(-80) sh mx
(-75) sh mx
(-70) sh mx
(-65) sh mx
def
/PSL_A0_y PSL_A0_y 83 add PSL_AH0 add def
84 PSL_A0_y MM
(-90) bc Z
926 PSL_A0_y MM
(-85) bc Z
1768 PSL_A0_y MM
(-80) bc Z
2611 PSL_A0_y MM
(-75) bc Z
3453 PSL_A0_y MM
(-70) bc Z
4295 PSL_A0_y MM
(-65) bc Z
/PSL_LH 0 def /PSL_L_y PSL_A0_y PSL_A1_y mx def
0 1500 T
/MM {M} def
/PSL_A0_y 83 def
/PSL_A1_y 0 def
25 W
0 0 M 4800 0 D S
8 W
84 0 M 0 83 D S
926 0 M 0 83 D S
1768 0 M 0 83 D S
2611 0 M 0 83 D S
3453 0 M 0 83 D S
4295 0 M 0 83 D S
/PSL_LH 0 def /PSL_L_y PSL_A0_y PSL_A1_y mx def
0 -1500 T
0 setlinecap
%%EndObject
0 A
FQ
O0
0 0 TM

% PostScript produced by:
%%GMT: psxy -R-90.5/-62/0/650 -JX4i/-1.25i -Sc0.07 -GVIOLETRED1 -Wthinnest -N -O -K
%%PROJ: xy -90.50000000 -62.00000000 0.00000000 650.00000000 -90.500 -62.000 650.000 -0.000 +xy +a=6378137.000 +b=6356752.314245
%%BeginObject PSL_Layer_2
0 setlinecap
0 setlinejoin
3.32551 setmiterlimit
4 W
V
{1 0.243 0.588 C} FS
O1
17 3552 1190 Sc
17 3415 1318 Sc
17 4462 1468 Sc
17 4422 1465 Sc
17 3475 1131 Sc
17 4260 495 Sc
17 3510 1215 Sc
17 3441 1198 Sc
17 3346 1424 Sc
17 3944 878 Sc
17 3659 1212 Sc
17 3539 1262 Sc
17 3309 1306 Sc
17 3861 1039 Sc
17 3828 1098 Sc
17 3600 1145 Sc
17 3525 1212 Sc
17 3204 1444 Sc
17 3511 1319 Sc
17 3526 1232 Sc
17 3585 1176 Sc
17 3263 1209 Sc
17 3554 1276 Sc
17 3530 1239 Sc
17 3474 1289 Sc
17 3517 1301 Sc
17 3510 1209 Sc
17 3500 1226 Sc
17 3908 1112 Sc
17 3541 1187 Sc
17 3520 1262 Sc
17 3586 1132 Sc
17 3649 1405 Sc
17 3457 1499 Sc
17 3494 1271 Sc
17 3488 1205 Sc
17 3512 1298 Sc
17 3555 1248 Sc
17 3569 1240 Sc
17 3628 1235 Sc
17 3691 1498 Sc
17 3322 1370 Sc
17 3851 1060 Sc
17 3552 1260 Sc
17 3435 1274 Sc
17 3441 1222 Sc
17 3083 1375 Sc
17 3546 1169 Sc
17 3631 1232 Sc
17 3507 1260 Sc
17 3549 1285 Sc
17 3201 1431 Sc
17 3484 1188 Sc
17 3534 1212 Sc
17 4128 849 Sc
17 3317 1500 Sc
17 3566 1266 Sc
17 3606 1253 Sc
17 3557 1249 Sc
17 3511 1152 Sc
17 3574 1254 Sc
17 3500 1178 Sc
17 3602 971 Sc
17 3235 1447 Sc
17 3423 1382 Sc
17 3484 1079 Sc
17 3649 1215 Sc
17 4588 1415 Sc
17 4576 1500 Sc
17 4577 1358 Sc
17 3332 1398 Sc
17 4566 1379 Sc
17 3608 1147 Sc
17 3348 1454 Sc
17 3473 1329 Sc
17 3539 1171 Sc
17 3567 1189 Sc
17 3386 1402 Sc
17 3518 1276 Sc
17 4466 129 Sc
17 3514 1226 Sc
17 3517 1194 Sc
17 3258 1500 Sc
17 3238 1500 Sc
17 3534 1206 Sc
17 3253 1500 Sc
17 3986 933 Sc
17 3571 1241 Sc
17 2958 1420 Sc
17 3253 1500 Sc
17 3258 1500 Sc
17 3338 1288 Sc
17 3246 1500 Sc
17 3521 1223 Sc
17 3332 1479 Sc
17 3314 1488 Sc
17 3310 1500 Sc
17 3307 1463 Sc
17 3589 1233 Sc
17 3339 1500 Sc
17 3275 1500 Sc
17 3295 1500 Sc
17 3315 1464 Sc
17 3333 1476 Sc
17 3576 1248 Sc
17 3347 1401 Sc
17 3295 1500 Sc
17 3474 1451 Sc
17 3284 1497 Sc
17 2968 1420 Sc
17 3288 1500 Sc
17 3150 1500 Sc
17 3284 1481 Sc
17 4539 1304 Sc
17 3531 1082 Sc
17 3570 1219 Sc
17 3319 1207 Sc
17 3269 1499 Sc
17 3269 1398 Sc
17 3261 1500 Sc
17 3275 1500 Sc
17 3182 1500 Sc
17 3945 900 Sc
17 3563 1155 Sc
17 3532 1186 Sc
17 3275 1407 Sc
17 3988 899 Sc
17 4536 1481 Sc
17 4519 1392 Sc
17 3521 1176 Sc
17 2860 1500 Sc
17 4516 1348 Sc
17 3235 1245 Sc
17 3554 1169 Sc
17 3605 1053 Sc
17 3343 1355 Sc
17 3546 1243 Sc
17 3618 1217 Sc
17 3546 1272 Sc
17 3591 1262 Sc
17 3472 1187 Sc
17 3244 1500 Sc
17 3590 1198 Sc
17 3585 1340 Sc
17 3516 966 Sc
17 3486 1059 Sc
17 3606 1268 Sc
17 3243 1500 Sc
17 3602 1325 Sc
17 3671 1498 Sc
U
%%EndObject
0 A
FQ
O0
0 0 TM

% PostScript produced by:
%%GMT: pstext -R-90.5/-62/0/650 -JX4i/-1.25i -F+f14,31,+j -N -O -K
%%PROJ: xy -90.50000000 -62.00000000 0.00000000 650.00000000 -90.500 -62.000 650.000 -0.000 +xy +a=6378137.000 +b=6356752.314245
%%BeginObject PSL_Layer_3
0 setlinecap
0 setlinejoin
3.32551 setmiterlimit
0 1615 M PSL_font_encode 31 get 0 eq {ISOLatin1+_Encoding /Palatino-Bold /Palatino-Bold PSL_reencode PSL_font_encode 31 1 put} if
233 F31
(1) Z
4800 1615 M V MU 0 0 M (1) FP 0 82 G 163 F31 (') FP 0 -82 G pathbbox N pop exch pop add U neg 0 G
(1) Z
0 82 G 163 F31 (') Z
0 -82 G %%EndObject
0 A
FQ
O0
0 -2400 TM

% PostScript produced by:
%%GMT: psbasemap -R-90.5/-62/0/650 -JX4i/-1.25i -Bxa5 -Bya100f50+lDepth [km] -BWeSn -Y-2i -O -K
%%PROJ: xy -90.50000000 -62.00000000 0.00000000 650.00000000 -90.500 -62.000 650.000 -0.000 +xy +a=6378137.000 +b=6356752.314245
%%BeginObject PSL_Layer_4
0 setlinecap
0 setlinejoin
3.32551 setmiterlimit
2 setlinecap
/MM {neg exch M} def
/PSL_A0_y 83 def
/PSL_A1_y 0 def
25 W
0 1500 M 0 -1500 D S
8 W
0 1500 M -83 0 D S
0 1269 M -83 0 D S
0 1038 M -83 0 D S
0 808 M -83 0 D S
0 577 M -83 0 D S
0 346 M -83 0 D S
0 115 M -83 0 D S
/PSL_AH0 0
PSL_font_encode 0 get 0 eq {ISOLatin1+_Encoding /Helvetica /Helvetica PSL_reencode PSL_font_encode 0 1 put} if
200 F0
(0) sw mx
(100) sw mx
(200) sw mx
(300) sw mx
(400) sw mx
(500) sw mx
(600) sw mx
def
/PSL_A0_y PSL_A0_y 83 add def
1500 PSL_A0_y MM
(0) mr Z
1269 PSL_A0_y MM
(100) mr Z
1038 PSL_A0_y MM
(200) mr Z
808 PSL_A0_y MM
(300) mr Z
577 PSL_A0_y MM
(400) mr Z
346 PSL_A0_y MM
(500) mr Z
115 PSL_A0_y MM
(600) mr Z
/PSL_A0_y PSL_A0_y PSL_AH0 add def
0 1385 M -42 0 D S
0 1154 M -42 0 D S
0 923 M -42 0 D S
0 692 M -42 0 D S
0 462 M -42 0 D S
0 231 M -42 0 D S
0 0 M -42 0 D S
/PSL_LH 267 F0
(M) sh def
/PSL_L_y PSL_A0_y PSL_A1_y mx 133 add def
750 PSL_L_y MM
V 90 R (Depth \[km\]) bc Z U
4800 0 T
/MM {exch M} def
/PSL_A0_y 83 def
/PSL_A1_y 0 def
25 W
0 1500 M 0 -1500 D S
8 W
0 1500 M 83 0 D S
0 1269 M 83 0 D S
0 1038 M 83 0 D S
0 808 M 83 0 D S
0 577 M 83 0 D S
0 346 M 83 0 D S
0 115 M 83 0 D S
0 1385 M 42 0 D S
0 1154 M 42 0 D S
0 923 M 42 0 D S
0 692 M 42 0 D S
0 462 M 42 0 D S
0 231 M 42 0 D S
0 0 M 42 0 D S
/PSL_LH 0 def /PSL_L_y PSL_A0_y PSL_A1_y mx def
-4800 0 T
/MM {neg M} def
/PSL_A0_y 83 def
/PSL_A1_y 0 def
25 W
0 0 M 4800 0 D S
8 W
84 0 M 0 -83 D S
926 0 M 0 -83 D S
1768 0 M 0 -83 D S
2611 0 M 0 -83 D S
3453 0 M 0 -83 D S
4295 0 M 0 -83 D S
/PSL_AH0 0
200 F0
(-90) sh mx
(-85) sh mx
(-80) sh mx
(-75) sh mx
(-70) sh mx
(-65) sh mx
def
/PSL_A0_y PSL_A0_y 83 add PSL_AH0 add def
84 PSL_A0_y MM
(-90) bc Z
926 PSL_A0_y MM
(-85) bc Z
1768 PSL_A0_y MM
(-80) bc Z
2611 PSL_A0_y MM
(-75) bc Z
3453 PSL_A0_y MM
(-70) bc Z
4295 PSL_A0_y MM
(-65) bc Z
/PSL_LH 0 def /PSL_L_y PSL_A0_y PSL_A1_y mx def
0 1500 T
/MM {M} def
/PSL_A0_y 83 def
/PSL_A1_y 0 def
25 W
0 0 M 4800 0 D S
8 W
84 0 M 0 83 D S
926 0 M 0 83 D S
1768 0 M 0 83 D S
2611 0 M 0 83 D S
3453 0 M 0 83 D S
4295 0 M 0 83 D S
/PSL_LH 0 def /PSL_L_y PSL_A0_y PSL_A1_y mx def
0 -1500 T
0 setlinecap
%%EndObject
0 A
FQ
O0
0 0 TM

% PostScript produced by:
%%GMT: psxy -R-90.5/-62/0/650 -JX4i/-1.25i -Sc0.07 -GVIOLETRED1 -Wthinnest -N -O -K
%%PROJ: xy -90.50000000 -62.00000000 0.00000000 650.00000000 -90.500 -62.000 650.000 -0.000 +xy +a=6378137.000 +b=6356752.314245
%%BeginObject PSL_Layer_5
0 setlinecap
0 setlinejoin
3.32551 setmiterlimit
4 W
V
{1 0.243 0.588 C} FS
O1
17 3647 1258 Sc
17 4506 240 Sc
17 3945 831 Sc
17 3975 1021 Sc
17 4001 1069 Sc
17 3974 1145 Sc
17 4087 902 Sc
17 3907 1063 Sc
17 4118 1418 Sc
17 3782 961 Sc
17 4529 370 Sc
17 4048 1001 Sc
17 3986 1037 Sc
17 4122 940 Sc
17 3732 1238 Sc
17 3969 1072 Sc
17 3539 1304 Sc
17 3986 1016 Sc
17 4482 249 Sc
17 3648 1270 Sc
17 3618 1253 Sc
17 3945 1066 Sc
17 3969 1172 Sc
17 3633 1279 Sc
17 3948 920 Sc
17 4067 941 Sc
17 3955 1037 Sc
17 3542 1312 Sc
17 3950 1066 Sc
17 4122 854 Sc
17 3950 1066 Sc
17 4029 1050 Sc
17 3986 1031 Sc
17 3958 1068 Sc
17 4054 966 Sc
17 3311 1434 Sc
17 3965 1064 Sc
17 3940 1499 Sc
17 3964 1001 Sc
17 3958 1043 Sc
17 3876 1082 Sc
17 3995 1071 Sc
17 3959 1045 Sc
17 4064 981 Sc
17 3549 1303 Sc
17 3870 1075 Sc
17 3977 1217 Sc
17 3629 1272 Sc
17 3713 1219 Sc
17 3986 1066 Sc
17 4128 959 Sc
17 4018 1022 Sc
17 3861 1046 Sc
17 3921 1115 Sc
17 3974 1055 Sc
17 3970 1068 Sc
17 4134 878 Sc
17 3977 1061 Sc
17 4018 965 Sc
17 4037 1025 Sc
17 4065 1018 Sc
17 3965 1033 Sc
17 3644 1212 Sc
17 4527 266 Sc
17 3516 1295 Sc
17 3880 908 Sc
17 4045 1033 Sc
17 4088 921 Sc
17 3960 1059 Sc
17 3971 1021 Sc
17 3987 1011 Sc
17 3983 1056 Sc
17 3876 880 Sc
17 4411 1467 Sc
17 4044 1010 Sc
17 3349 1398 Sc
17 3996 1036 Sc
17 3949 1085 Sc
17 4053 967 Sc
17 3563 1336 Sc
17 3937 1124 Sc
17 3563 1285 Sc
17 4117 953 Sc
17 3391 1414 Sc
17 3888 1173 Sc
17 3974 1029 Sc
17 4425 1468 Sc
17 3986 1035 Sc
17 3759 1192 Sc
17 3692 1231 Sc
17 4017 1007 Sc
17 4093 1046 Sc
17 3900 1113 Sc
17 4381 1466 Sc
17 3928 985 Sc
17 4092 1015 Sc
17 4094 880 Sc
17 3879 1076 Sc
17 3974 1103 Sc
17 3975 1051 Sc
17 3575 1445 Sc
17 4086 1036 Sc
17 3966 1041 Sc
17 4016 1001 Sc
17 4014 1120 Sc
17 3992 1052 Sc
17 3353 1445 Sc
17 3319 1454 Sc
17 4508 250 Sc
17 3912 1200 Sc
17 3996 1035 Sc
17 4482 264 Sc
17 3922 1092 Sc
17 3965 1064 Sc
17 3613 1383 Sc
17 3924 1107 Sc
17 4172 1375 Sc
17 3560 1329 Sc
17 4029 1051 Sc
17 3634 1230 Sc
17 4009 1030 Sc
17 3585 1286 Sc
17 3552 1393 Sc
17 3908 1126 Sc
17 4048 1013 Sc
17 4000 1181 Sc
17 4088 1151 Sc
17 3641 1259 Sc
17 3940 1080 Sc
17 3798 1361 Sc
17 3932 1222 Sc
17 3699 1241 Sc
17 4516 297 Sc
17 3476 1369 Sc
17 4313 1375 Sc
17 4504 263 Sc
17 3737 1218 Sc
17 4130 1117 Sc
17 3974 1007 Sc
17 4487 259 Sc
17 4062 838 Sc
17 3977 964 Sc
17 4023 856 Sc
17 3527 1292 Sc
17 3625 1304 Sc
17 3691 1217 Sc
17 4254 1410 Sc
17 3997 1155 Sc
17 3652 1328 Sc
17 3928 989 Sc
17 3692 1235 Sc
17 3990 1033 Sc
17 3892 1049 Sc
17 3380 1401 Sc
17 3879 996 Sc
17 3866 1044 Sc
17 3588 1289 Sc
17 3942 1073 Sc
17 3653 1266 Sc
17 3974 1047 Sc
17 3589 1266 Sc
17 4407 1469 Sc
17 3995 1133 Sc
17 4291 1268 Sc
17 3912 1094 Sc
17 3810 1238 Sc
17 3983 1010 Sc
17 3781 1199 Sc
17 3961 1090 Sc
17 3917 1095 Sc
17 3706 883 Sc
17 3399 1385 Sc
17 4020 1046 Sc
17 3890 1061 Sc
17 3991 1067 Sc
17 3668 1163 Sc
17 3966 1020 Sc
17 3969 1009 Sc
17 4016 1002 Sc
17 3700 1249 Sc
17 4033 1027 Sc
17 3430 1316 Sc
17 3959 1059 Sc
17 3750 1224 Sc
17 3707 1284 Sc
17 3685 1254 Sc
17 3935 1044 Sc
17 4030 1045 Sc
17 3610 1245 Sc
17 4088 965 Sc
17 3917 1020 Sc
17 4046 816 Sc
17 3326 1278 Sc
17 4050 928 Sc
17 4050 818 Sc
17 3971 997 Sc
17 3482 1313 Sc
17 3955 1050 Sc
17 3736 1186 Sc
17 4039 1356 Sc
17 3601 1287 Sc
17 3976 999 Sc
17 3613 1272 Sc
17 3950 1127 Sc
17 4328 1189 Sc
17 4039 966 Sc
17 3352 1385 Sc
17 3620 1281 Sc
17 3907 1042 Sc
17 3827 1234 Sc
17 3944 1012 Sc
17 4086 895 Sc
17 4041 1135 Sc
17 3629 1273 Sc
17 3781 1341 Sc
17 3900 999 Sc
17 3974 996 Sc
17 4033 865 Sc
17 3918 1115 Sc
17 4013 1036 Sc
17 3659 1310 Sc
17 3983 998 Sc
17 3917 1059 Sc
17 3966 1013 Sc
17 4098 887 Sc
17 3402 1389 Sc
17 3998 980 Sc
17 3961 1096 Sc
17 3666 1338 Sc
17 3771 1148 Sc
17 3955 844 Sc
17 3737 1278 Sc
17 3980 995 Sc
17 3597 561 Sc
17 3971 1032 Sc
17 3934 1043 Sc
17 3781 1194 Sc
17 3839 1058 Sc
17 3731 769 Sc
17 3858 1095 Sc
17 3667 1243 Sc
17 3824 933 Sc
17 3634 1259 Sc
17 4034 1418 Sc
17 3937 1104 Sc
17 3970 959 Sc
17 3394 1356 Sc
17 3562 1287 Sc
17 3750 1061 Sc
17 3768 1407 Sc
17 4025 992 Sc
17 3717 1147 Sc
17 3679 1246 Sc
17 3921 1107 Sc
17 4204 1285 Sc
17 3861 1024 Sc
17 3769 1207 Sc
17 3988 1007 Sc
17 4003 1010 Sc
17 4045 996 Sc
17 3663 1261 Sc
17 3969 1062 Sc
17 3976 1010 Sc
17 3263 1479 Sc
17 4082 1277 Sc
17 3288 1463 Sc
17 3942 1060 Sc
17 3719 1181 Sc
17 3906 997 Sc
17 3478 1315 Sc
17 4070 962 Sc
17 3971 1034 Sc
17 3338 1432 Sc
17 3581 1272 Sc
17 3322 1500 Sc
17 4246 1243 Sc
17 3818 1190 Sc
17 3670 1215 Sc
17 3660 1284 Sc
17 4182 1129 Sc
17 3446 1346 Sc
17 4000 1046 Sc
17 4497 236 Sc
17 3998 1018 Sc
17 3946 986 Sc
17 3983 1030 Sc
17 3747 1165 Sc
17 4019 1051 Sc
17 3539 1318 Sc
17 3531 1201 Sc
17 4000 1084 Sc
17 3901 966 Sc
17 3939 1044 Sc
17 3669 1254 Sc
17 3969 1045 Sc
17 4088 1106 Sc
17 4036 1007 Sc
17 3800 1393 Sc
17 3771 1205 Sc
17 3622 1209 Sc
17 3939 1092 Sc
17 4497 273 Sc
17 4497 299 Sc
17 4086 1097 Sc
17 3911 1008 Sc
17 3394 1365 Sc
17 3729 1177 Sc
17 3988 1040 Sc
17 4115 1050 Sc
17 4177 1284 Sc
17 4024 1059 Sc
17 3971 1080 Sc
17 3944 1096 Sc
17 4598 209 Sc
17 3312 1464 Sc
17 3940 1055 Sc
17 4005 1001 Sc
17 4011 1008 Sc
17 4024 1017 Sc
17 3927 1138 Sc
17 4167 1279 Sc
17 4001 1047 Sc
17 3472 1310 Sc
17 4092 937 Sc
17 3385 1325 Sc
17 4009 1125 Sc
17 4135 1307 Sc
17 3761 1174 Sc
17 3993 1019 Sc
17 3986 990 Sc
17 3929 1127 Sc
17 3996 1019 Sc
17 3934 1004 Sc
17 3964 1031 Sc
17 4310 1122 Sc
17 3925 1095 Sc
17 4040 978 Sc
17 3797 1259 Sc
17 4000 992 Sc
U
%%EndObject
0 A
FQ
O0
0 0 TM

% PostScript produced by:
%%GMT: pstext -R-90.5/-62/0/650 -JX4i/-1.25i -F+f14,31,+j -N -O -K
%%PROJ: xy -90.50000000 -62.00000000 0.00000000 650.00000000 -90.500 -62.000 650.000 -0.000 +xy +a=6378137.000 +b=6356752.314245
%%BeginObject PSL_Layer_6
0 setlinecap
0 setlinejoin
3.32551 setmiterlimit
0 1615 M PSL_font_encode 31 get 0 eq {ISOLatin1+_Encoding /Palatino-Bold /Palatino-Bold PSL_reencode PSL_font_encode 31 1 put} if
233 F31
(2) Z
4716 1615 M V MU 0 0 M (2) FP 0 82 G 163 F31 (') FP 0 -82 G pathbbox N pop exch pop add U neg 0 G
(2) Z
0 82 G 163 F31 (') Z
0 -82 G %%EndObject
0 A
FQ
O0
0 -2400 TM

% PostScript produced by:
%%GMT: psbasemap -R-90.5/-62/0/650 -JX4i/-1.25i -Bxa5 -Bya100f50+lDepth [km] -BWeSn -Y-2i -O -K
%%PROJ: xy -90.50000000 -62.00000000 0.00000000 650.00000000 -90.500 -62.000 650.000 -0.000 +xy +a=6378137.000 +b=6356752.314245
%%BeginObject PSL_Layer_7
0 setlinecap
0 setlinejoin
3.32551 setmiterlimit
2 setlinecap
/MM {neg exch M} def
/PSL_A0_y 83 def
/PSL_A1_y 0 def
25 W
0 1500 M 0 -1500 D S
8 W
0 1500 M -83 0 D S
0 1269 M -83 0 D S
0 1038 M -83 0 D S
0 808 M -83 0 D S
0 577 M -83 0 D S
0 346 M -83 0 D S
0 115 M -83 0 D S
/PSL_AH0 0
PSL_font_encode 0 get 0 eq {ISOLatin1+_Encoding /Helvetica /Helvetica PSL_reencode PSL_font_encode 0 1 put} if
200 F0
(0) sw mx
(100) sw mx
(200) sw mx
(300) sw mx
(400) sw mx
(500) sw mx
(600) sw mx
def
/PSL_A0_y PSL_A0_y 83 add def
1500 PSL_A0_y MM
(0) mr Z
1269 PSL_A0_y MM
(100) mr Z
1038 PSL_A0_y MM
(200) mr Z
808 PSL_A0_y MM
(300) mr Z
577 PSL_A0_y MM
(400) mr Z
346 PSL_A0_y MM
(500) mr Z
115 PSL_A0_y MM
(600) mr Z
/PSL_A0_y PSL_A0_y PSL_AH0 add def
0 1385 M -42 0 D S
0 1154 M -42 0 D S
0 923 M -42 0 D S
0 692 M -42 0 D S
0 462 M -42 0 D S
0 231 M -42 0 D S
0 0 M -42 0 D S
/PSL_LH 267 F0
(M) sh def
/PSL_L_y PSL_A0_y PSL_A1_y mx 133 add def
750 PSL_L_y MM
V 90 R (Depth \[km\]) bc Z U
4800 0 T
/MM {exch M} def
/PSL_A0_y 83 def
/PSL_A1_y 0 def
25 W
0 1500 M 0 -1500 D S
8 W
0 1500 M 83 0 D S
0 1269 M 83 0 D S
0 1038 M 83 0 D S
0 808 M 83 0 D S
0 577 M 83 0 D S
0 346 M 83 0 D S
0 115 M 83 0 D S
0 1385 M 42 0 D S
0 1154 M 42 0 D S
0 923 M 42 0 D S
0 692 M 42 0 D S
0 462 M 42 0 D S
0 231 M 42 0 D S
0 0 M 42 0 D S
/PSL_LH 0 def /PSL_L_y PSL_A0_y PSL_A1_y mx def
-4800 0 T
/MM {neg M} def
/PSL_A0_y 83 def
/PSL_A1_y 0 def
25 W
0 0 M 4800 0 D S
8 W
84 0 M 0 -83 D S
926 0 M 0 -83 D S
1768 0 M 0 -83 D S
2611 0 M 0 -83 D S
3453 0 M 0 -83 D S
4295 0 M 0 -83 D S
/PSL_AH0 0
200 F0
(-90) sh mx
(-85) sh mx
(-80) sh mx
(-75) sh mx
(-70) sh mx
(-65) sh mx
def
/PSL_A0_y PSL_A0_y 83 add PSL_AH0 add def
84 PSL_A0_y MM
(-90) bc Z
926 PSL_A0_y MM
(-85) bc Z
1768 PSL_A0_y MM
(-80) bc Z
2611 PSL_A0_y MM
(-75) bc Z
3453 PSL_A0_y MM
(-70) bc Z
4295 PSL_A0_y MM
(-65) bc Z
/PSL_LH 0 def /PSL_L_y PSL_A0_y PSL_A1_y mx def
0 1500 T
/MM {M} def
/PSL_A0_y 83 def
/PSL_A1_y 0 def
25 W
0 0 M 4800 0 D S
8 W
84 0 M 0 83 D S
926 0 M 0 83 D S
1768 0 M 0 83 D S
2611 0 M 0 83 D S
3453 0 M 0 83 D S
4295 0 M 0 83 D S
/PSL_LH 0 def /PSL_L_y PSL_A0_y PSL_A1_y mx def
0 -1500 T
0 setlinecap
%%EndObject
0 A
FQ
O0
0 0 TM

% PostScript produced by:
%%GMT: psxy -R-90.5/-62/0/650 -JX4i/-1.25i -Sc0.07 -GVIOLETRED1 -Wthinnest -N -O -K
%%PROJ: xy -90.50000000 -62.00000000 0.00000000 650.00000000 -90.500 -62.000 650.000 -0.000 +xy +a=6378137.000 +b=6356752.314245
%%BeginObject PSL_Layer_8
0 setlinecap
0 setlinejoin
3.32551 setmiterlimit
4 W
V
{1 0.243 0.588 C} FS
O1
17 4158 1451 Sc
17 3285 1403 Sc
17 3309 1401 Sc
17 3235 1470 Sc
17 3750 1240 Sc
17 4573 191 Sc
17 3697 1318 Sc
17 3246 1419 Sc
17 3897 1198 Sc
17 4033 1138 Sc
17 3245 1347 Sc
17 3501 1232 Sc
17 3222 1390 Sc
17 3167 1419 Sc
17 3515 1232 Sc
17 4014 1131 Sc
17 4558 222 Sc
17 4574 222 Sc
17 4553 207 Sc
17 3311 1393 Sc
17 3990 1124 Sc
17 3221 1419 Sc
17 3422 1217 Sc
17 3983 1112 Sc
17 3838 1228 Sc
17 3816 1153 Sc
17 4605 171 Sc
17 3199 1431 Sc
17 4576 136 Sc
17 3855 1210 Sc
17 3238 1500 Sc
17 3336 1345 Sc
17 3221 1500 Sc
17 3395 1238 Sc
17 4563 232 Sc
17 3960 1071 Sc
17 3539 1243 Sc
17 3079 1498 Sc
17 3254 1398 Sc
17 4586 148 Sc
17 3236 1500 Sc
17 4591 161 Sc
17 4577 113 Sc
17 3406 1329 Sc
17 3259 1419 Sc
17 3337 1370 Sc
17 3326 978 Sc
17 3172 1500 Sc
17 4003 1144 Sc
17 3335 1361 Sc
17 3172 1500 Sc
17 3955 1447 Sc
17 3441 1348 Sc
17 3544 1218 Sc
17 3227 1335 Sc
17 4003 1167 Sc
17 3211 1368 Sc
17 4007 1097 Sc
17 3398 1304 Sc
17 3396 1292 Sc
17 3167 1430 Sc
17 3223 1401 Sc
17 3489 1294 Sc
17 3316 1392 Sc
17 3257 1484 Sc
17 3858 1165 Sc
17 3245 1499 Sc
17 4023 1131 Sc
17 4603 178 Sc
17 3522 1396 Sc
17 3979 1176 Sc
17 3496 1246 Sc
17 3787 1219 Sc
17 3516 1226 Sc
17 3591 1240 Sc
17 4509 69 Sc
17 4393 1442 Sc
17 3362 1274 Sc
17 3044 1500 Sc
17 3959 1145 Sc
17 4090 1230 Sc
17 3983 1093 Sc
17 3983 1100 Sc
17 3853 1198 Sc
17 3456 1233 Sc
17 3098 1500 Sc
17 3644 1234 Sc
17 3574 1225 Sc
17 3224 1406 Sc
17 3426 1315 Sc
17 3787 1089 Sc
17 3885 1157 Sc
17 4201 1454 Sc
17 4272 1460 Sc
17 3268 1374 Sc
17 3901 1214 Sc
17 3188 1419 Sc
17 3823 1167 Sc
17 1541 1418 Sc
17 3982 1134 Sc
17 3949 1186 Sc
17 3930 1226 Sc
17 3991 1109 Sc
17 3821 1209 Sc
17 3956 1101 Sc
17 3974 1136 Sc
17 3929 1325 Sc
17 4004 1078 Sc
17 3847 1093 Sc
17 3474 1285 Sc
17 3813 1291 Sc
17 3983 1080 Sc
17 3187 1500 Sc
17 4053 1078 Sc
17 3201 1400 Sc
17 3937 1172 Sc
17 3236 1416 Sc
17 3648 1422 Sc
17 3671 1500 Sc
17 4654 72 Sc
17 3600 1246 Sc
17 3858 1189 Sc
17 4030 1066 Sc
17 3174 1416 Sc
17 3214 1422 Sc
17 3642 1260 Sc
17 4030 1248 Sc
17 3452 1272 Sc
17 3272 1366 Sc
17 3273 1415 Sc
17 4108 1300 Sc
17 3537 1234 Sc
17 3569 1250 Sc
17 3610 1263 Sc
17 4553 173 Sc
17 4040 1184 Sc
17 3995 1106 Sc
17 4029 1113 Sc
17 3261 1415 Sc
17 3200 1415 Sc
17 3277 1407 Sc
17 3513 1235 Sc
17 3145 1448 Sc
17 3251 1393 Sc
17 3847 1145 Sc
17 2997 1500 Sc
17 4593 59 Sc
17 3200 1412 Sc
17 3996 1024 Sc
17 3789 1415 Sc
17 3299 1382 Sc
17 3167 1454 Sc
17 3185 1499 Sc
17 3860 1331 Sc
17 3636 1216 Sc
17 3643 1296 Sc
17 3137 1465 Sc
17 3204 1423 Sc
17 3880 1190 Sc
17 3229 1423 Sc
17 3602 1267 Sc
17 3128 1448 Sc
17 3108 1500 Sc
17 3157 1489 Sc
U
%%EndObject
0 A
FQ
O0
0 0 TM

% PostScript produced by:
%%GMT: pstext -R-90.5/-62/0/650 -JX4i/-1.25i -F+f14,31,+j -N -O -K
%%PROJ: xy -90.50000000 -62.00000000 0.00000000 650.00000000 -90.500 -62.000 650.000 -0.000 +xy +a=6378137.000 +b=6356752.314245
%%BeginObject PSL_Layer_9
0 setlinecap
0 setlinejoin
3.32551 setmiterlimit
0 1615 M PSL_font_encode 31 get 0 eq {ISOLatin1+_Encoding /Palatino-Bold /Palatino-Bold PSL_reencode PSL_font_encode 31 1 put} if
233 F31
(3) Z
4716 1615 M V MU 0 0 M (3) FP 0 82 G 163 F31 (') FP 0 -82 G pathbbox N pop exch pop add U neg 0 G
(3) Z
0 82 G 163 F31 (') Z
0 -82 G %%EndObject
0 A
FQ
O0
0 -2400 TM

% PostScript produced by:
%%GMT: psbasemap -R-90.5/-62/0/650 -JX4i/-1.25i -Bxa5 -Bya100f50+lDepth [km] -BWeSn -Y-2i -O -K
%%PROJ: xy -90.50000000 -62.00000000 0.00000000 650.00000000 -90.500 -62.000 650.000 -0.000 +xy +a=6378137.000 +b=6356752.314245
%%BeginObject PSL_Layer_10
0 setlinecap
0 setlinejoin
3.32551 setmiterlimit
2 setlinecap
/MM {neg exch M} def
/PSL_A0_y 83 def
/PSL_A1_y 0 def
25 W
0 1500 M 0 -1500 D S
8 W
0 1500 M -83 0 D S
0 1269 M -83 0 D S
0 1038 M -83 0 D S
0 808 M -83 0 D S
0 577 M -83 0 D S
0 346 M -83 0 D S
0 115 M -83 0 D S
/PSL_AH0 0
PSL_font_encode 0 get 0 eq {ISOLatin1+_Encoding /Helvetica /Helvetica PSL_reencode PSL_font_encode 0 1 put} if
200 F0
(0) sw mx
(100) sw mx
(200) sw mx
(300) sw mx
(400) sw mx
(500) sw mx
(600) sw mx
def
/PSL_A0_y PSL_A0_y 83 add def
1500 PSL_A0_y MM
(0) mr Z
1269 PSL_A0_y MM
(100) mr Z
1038 PSL_A0_y MM
(200) mr Z
808 PSL_A0_y MM
(300) mr Z
577 PSL_A0_y MM
(400) mr Z
346 PSL_A0_y MM
(500) mr Z
115 PSL_A0_y MM
(600) mr Z
/PSL_A0_y PSL_A0_y PSL_AH0 add def
0 1385 M -42 0 D S
0 1154 M -42 0 D S
0 923 M -42 0 D S
0 692 M -42 0 D S
0 462 M -42 0 D S
0 231 M -42 0 D S
0 0 M -42 0 D S
/PSL_LH 267 F0
(M) sh def
/PSL_L_y PSL_A0_y PSL_A1_y mx 133 add def
750 PSL_L_y MM
V 90 R (Depth \[km\]) bc Z U
4800 0 T
/MM {exch M} def
/PSL_A0_y 83 def
/PSL_A1_y 0 def
25 W
0 1500 M 0 -1500 D S
8 W
0 1500 M 83 0 D S
0 1269 M 83 0 D S
0 1038 M 83 0 D S
0 808 M 83 0 D S
0 577 M 83 0 D S
0 346 M 83 0 D S
0 115 M 83 0 D S
0 1385 M 42 0 D S
0 1154 M 42 0 D S
0 923 M 42 0 D S
0 692 M 42 0 D S
0 462 M 42 0 D S
0 231 M 42 0 D S
0 0 M 42 0 D S
/PSL_LH 0 def /PSL_L_y PSL_A0_y PSL_A1_y mx def
-4800 0 T
/MM {neg M} def
/PSL_A0_y 83 def
/PSL_A1_y 0 def
25 W
0 0 M 4800 0 D S
8 W
84 0 M 0 -83 D S
926 0 M 0 -83 D S
1768 0 M 0 -83 D S
2611 0 M 0 -83 D S
3453 0 M 0 -83 D S
4295 0 M 0 -83 D S
/PSL_AH0 0
200 F0
(-90) sh mx
(-85) sh mx
(-80) sh mx
(-75) sh mx
(-70) sh mx
(-65) sh mx
def
/PSL_A0_y PSL_A0_y 83 add PSL_AH0 add def
84 PSL_A0_y MM
(-90) bc Z
926 PSL_A0_y MM
(-85) bc Z
1768 PSL_A0_y MM
(-80) bc Z
2611 PSL_A0_y MM
(-75) bc Z
3453 PSL_A0_y MM
(-70) bc Z
4295 PSL_A0_y MM
(-65) bc Z
/PSL_LH 0 def /PSL_L_y PSL_A0_y PSL_A1_y mx def
0 1500 T
/MM {M} def
/PSL_A0_y 83 def
/PSL_A1_y 0 def
25 W
0 0 M 4800 0 D S
8 W
84 0 M 0 83 D S
926 0 M 0 83 D S
1768 0 M 0 83 D S
2611 0 M 0 83 D S
3453 0 M 0 83 D S
4295 0 M 0 83 D S
/PSL_LH 0 def /PSL_L_y PSL_A0_y PSL_A1_y mx def
0 -1500 T
0 setlinecap
%%EndObject
0 A
FQ
O0
0 0 TM

% PostScript produced by:
%%GMT: psxy -R-90.5/-62/0/650 -JX4i/-1.25i -Sc0.07 -GVIOLETRED1 -Wthinnest -N -O -K
%%PROJ: xy -90.50000000 -62.00000000 0.00000000 650.00000000 -90.500 -62.000 650.000 -0.000 +xy +a=6378137.000 +b=6356752.314245
%%BeginObject PSL_Layer_11
0 setlinecap
0 setlinejoin
3.32551 setmiterlimit
4 W
V
{1 0.243 0.588 C} FS
O1
17 3654 1156 Sc
17 3015 1437 Sc
17 3098 1431 Sc
17 3130 1435 Sc
17 3089 1448 Sc
17 3042 1461 Sc
17 3026 1449 Sc
17 2875 1225 Sc
17 3185 887 Sc
17 3050 1448 Sc
17 3076 1424 Sc
17 3081 1424 Sc
17 3026 1431 Sc
17 2770 1479 Sc
17 3075 1435 Sc
17 2929 1447 Sc
17 3199 1379 Sc
17 3016 1464 Sc
17 3095 1500 Sc
17 3056 1450 Sc
17 3167 1392 Sc
17 3115 1461 Sc
17 2898 1426 Sc
17 3122 1475 Sc
17 3056 1440 Sc
17 3098 1442 Sc
17 2791 1048 Sc
17 2997 1444 Sc
17 2937 1463 Sc
17 3065 1478 Sc
17 3075 1476 Sc
17 3019 1468 Sc
17 3063 1463 Sc
17 3700 1462 Sc
17 3107 1452 Sc
17 3030 1462 Sc
17 3161 1395 Sc
17 2862 1307 Sc
17 2854 1456 Sc
17 3016 1479 Sc
17 3031 1458 Sc
17 3050 1451 Sc
17 2937 1472 Sc
17 2771 1432 Sc
17 2836 1454 Sc
17 2884 1286 Sc
17 2791 1488 Sc
17 3068 1439 Sc
17 2834 1462 Sc
17 2759 1366 Sc
17 3161 1401 Sc
17 2712 1499 Sc
17 3016 1445 Sc
17 2817 1442 Sc
17 2770 1455 Sc
17 3069 1440 Sc
17 3081 1434 Sc
17 3057 1499 Sc
17 3083 1429 Sc
17 2881 1442 Sc
17 3156 1391 Sc
17 2989 1429 Sc
17 3110 1426 Sc
17 3076 1446 Sc
17 3083 1462 Sc
17 2955 1426 Sc
17 3026 1429 Sc
17 3083 1447 Sc
17 2940 1464 Sc
17 3162 1382 Sc
17 3077 1308 Sc
17 3346 585 Sc
17 2971 1473 Sc
17 3089 1415 Sc
17 3138 1112 Sc
17 3072 1409 Sc
17 2973 1463 Sc
17 3141 1264 Sc
17 3114 1251 Sc
17 3087 1452 Sc
17 3042 1391 Sc
17 3027 1499 Sc
17 3087 1393 Sc
17 2800 1499 Sc
17 3162 1480 Sc
17 2749 1436 Sc
17 3012 1440 Sc
17 3019 1424 Sc
17 3039 1447 Sc
17 3137 1437 Sc
17 3145 1413 Sc
17 3130 1490 Sc
17 3108 1438 Sc
17 3098 1450 Sc
17 3118 1414 Sc
17 3053 1436 Sc
17 3127 1395 Sc
17 3105 1455 Sc
17 3127 1473 Sc
17 3106 1438 Sc
17 3083 1474 Sc
17 3107 1447 Sc
17 3127 1441 Sc
17 3083 1461 Sc
17 3097 1443 Sc
17 3068 1473 Sc
17 3053 1500 Sc
17 3095 1476 Sc
17 3070 1456 Sc
17 3098 1457 Sc
17 3066 1478 Sc
17 3076 1447 Sc
17 3105 1453 Sc
17 3095 1444 Sc
17 3137 1350 Sc
17 3300 1453 Sc
17 3102 1447 Sc
17 3127 1466 Sc
17 3120 1452 Sc
17 3526 1450 Sc
17 3121 1421 Sc
17 3155 1374 Sc
17 3119 1489 Sc
17 3074 1468 Sc
17 3092 1499 Sc
17 3069 1498 Sc
17 3031 1500 Sc
17 3031 1461 Sc
17 3093 1437 Sc
17 3095 1466 Sc
17 3111 1441 Sc
17 3047 1427 Sc
17 3077 1445 Sc
17 2735 1500 Sc
17 3068 1485 Sc
17 3115 1434 Sc
17 3132 1395 Sc
17 3164 1364 Sc
17 3088 1429 Sc
17 3087 1373 Sc
17 3113 1399 Sc
17 3161 1396 Sc
17 3061 1500 Sc
17 3057 1445 Sc
17 3133 1458 Sc
17 3103 1462 Sc
17 2856 1500 Sc
17 3046 1439 Sc
17 3092 1499 Sc
17 3071 1454 Sc
17 2871 1435 Sc
17 3142 1426 Sc
17 2993 1499 Sc
17 3021 1418 Sc
17 3161 1196 Sc
17 3152 1436 Sc
17 2978 1459 Sc
17 3122 1393 Sc
17 3156 1169 Sc
17 3136 1398 Sc
17 3098 1440 Sc
17 2854 1433 Sc
17 3007 1444 Sc
17 3085 1411 Sc
17 2767 1441 Sc
17 3166 1299 Sc
17 3096 1444 Sc
17 3066 1424 Sc
17 3038 1454 Sc
17 3077 1447 Sc
17 3142 1355 Sc
17 3090 1426 Sc
17 3158 1314 Sc
17 3089 1455 Sc
17 3108 1440 Sc
17 2813 1469 Sc
17 2766 1499 Sc
17 3060 1473 Sc
17 3092 1416 Sc
17 3088 1424 Sc
17 2881 1500 Sc
17 3196 1500 Sc
17 3087 1450 Sc
17 3130 1448 Sc
17 3077 1420 Sc
17 3043 1450 Sc
17 3130 1397 Sc
17 3077 1490 Sc
17 3063 1422 Sc
17 3103 1445 Sc
17 3052 1434 Sc
17 3041 1453 Sc
17 2878 1500 Sc
17 3066 1381 Sc
17 3032 1441 Sc
17 3174 1361 Sc
17 3051 1445 Sc
17 3084 1432 Sc
17 3648 1186 Sc
17 3064 1497 Sc
17 3056 1453 Sc
17 3053 1442 Sc
17 3050 1444 Sc
17 3113 1392 Sc
17 3068 1408 Sc
17 3083 1407 Sc
17 3061 1402 Sc
17 3051 1494 Sc
17 3275 1340 Sc
17 3048 1419 Sc
17 3686 1446 Sc
17 3710 1138 Sc
17 3880 1045 Sc
17 3061 1495 Sc
17 3391 1234 Sc
17 3027 1449 Sc
17 3452 1235 Sc
17 3031 1459 Sc
17 3034 1493 Sc
17 2994 1494 Sc
17 3438 1272 Sc
17 3090 1419 Sc
17 3851 981 Sc
17 3076 1444 Sc
17 3074 1469 Sc
17 3045 1445 Sc
17 3052 1450 Sc
17 3050 1445 Sc
17 3079 1452 Sc
17 3073 1419 Sc
17 3031 1437 Sc
17 3616 1471 Sc
17 3067 1499 Sc
17 3098 1376 Sc
17 3472 1270 Sc
17 3088 1440 Sc
17 3084 1436 Sc
17 3039 1449 Sc
17 3023 1427 Sc
17 3061 1398 Sc
17 3085 1394 Sc
17 3295 1298 Sc
17 3091 1400 Sc
17 3143 1413 Sc
17 3041 1500 Sc
17 37505 56 Sc
17 3327 1245 Sc
17 2974 1402 Sc
17 3563 1310 Sc
17 3095 1437 Sc
17 3367 1238 Sc
17 3101 1437 Sc
17 3060 1431 Sc
17 3026 1456 Sc
17 3024 1456 Sc
17 3032 1451 Sc
17 3310 1289 Sc
17 3347 1222 Sc
17 3204 1386 Sc
17 3032 1499 Sc
17 3081 1414 Sc
17 3066 1445 Sc
17 3118 1395 Sc
17 3087 1432 Sc
17 3100 1446 Sc
17 3105 1434 Sc
17 3089 1449 Sc
17 3251 1362 Sc
17 3148 1393 Sc
17 2973 1499 Sc
17 3066 1438 Sc
17 2995 1454 Sc
17 2972 1500 Sc
17 3029 1500 Sc
17 3790 993 Sc
17 3108 1382 Sc
17 3419 1244 Sc
17 3070 1447 Sc
17 3081 1440 Sc
17 3021 1500 Sc
17 3105 1398 Sc
17 3039 1442 Sc
17 3197 1396 Sc
17 3076 1419 Sc
17 3085 1447 Sc
17 2841 1500 Sc
17 3095 1455 Sc
17 3053 1500 Sc
17 3054 1454 Sc
17 3056 1500 Sc
17 3347 1281 Sc
17 2905 1437 Sc
17 3031 1494 Sc
17 3034 1451 Sc
17 3206 1331 Sc
17 3098 1398 Sc
17 3109 1400 Sc
17 3008 1443 Sc
17 3764 1050 Sc
17 2857 1479 Sc
17 2849 1447 Sc
17 3843 1064 Sc
17 3040 1441 Sc
17 3364 1248 Sc
17 3359 1243 Sc
17 3057 1499 Sc
17 2497 1462 Sc
17 3052 1474 Sc
17 3048 1500 Sc
U
%%EndObject
0 A
FQ
O0
0 0 TM

% PostScript produced by:
%%GMT: pstext -R-90.5/-62/0/650 -JX4i/-1.25i -F+f14,31,+j -N -O -K
%%PROJ: xy -90.50000000 -62.00000000 0.00000000 650.00000000 -90.500 -62.000 650.000 -0.000 +xy +a=6378137.000 +b=6356752.314245
%%BeginObject PSL_Layer_12
0 setlinecap
0 setlinejoin
3.32551 setmiterlimit
0 1615 M PSL_font_encode 31 get 0 eq {ISOLatin1+_Encoding /Palatino-Bold /Palatino-Bold PSL_reencode PSL_font_encode 31 1 put} if
233 F31
(4) Z
4716 1615 M V MU 0 0 M (4) FP 0 82 G 163 F31 (') FP 0 -82 G pathbbox N pop exch pop add U neg 0 G
(4) Z
0 82 G 163 F31 (') Z
0 -82 G %%EndObject
0 A
FQ
O0
0 -2400 TM

% PostScript produced by:
%%GMT: psbasemap -R-90.5/-62/0/650 -JX4i/-1.25i -Bxa5+lLongitude [deg] -Bya100f50+lDepth [km] -BWeSn -Y-2i -O -K
%%PROJ: xy -90.50000000 -62.00000000 0.00000000 650.00000000 -90.500 -62.000 650.000 -0.000 +xy +a=6378137.000 +b=6356752.314245
%%BeginObject PSL_Layer_13
0 setlinecap
0 setlinejoin
3.32551 setmiterlimit
2 setlinecap
/MM {neg exch M} def
/PSL_A0_y 83 def
/PSL_A1_y 0 def
25 W
0 1500 M 0 -1500 D S
8 W
0 1500 M -83 0 D S
0 1269 M -83 0 D S
0 1038 M -83 0 D S
0 808 M -83 0 D S
0 577 M -83 0 D S
0 346 M -83 0 D S
0 115 M -83 0 D S
/PSL_AH0 0
PSL_font_encode 0 get 0 eq {ISOLatin1+_Encoding /Helvetica /Helvetica PSL_reencode PSL_font_encode 0 1 put} if
200 F0
(0) sw mx
(100) sw mx
(200) sw mx
(300) sw mx
(400) sw mx
(500) sw mx
(600) sw mx
def
/PSL_A0_y PSL_A0_y 83 add def
1500 PSL_A0_y MM
(0) mr Z
1269 PSL_A0_y MM
(100) mr Z
1038 PSL_A0_y MM
(200) mr Z
808 PSL_A0_y MM
(300) mr Z
577 PSL_A0_y MM
(400) mr Z
346 PSL_A0_y MM
(500) mr Z
115 PSL_A0_y MM
(600) mr Z
/PSL_A0_y PSL_A0_y PSL_AH0 add def
0 1385 M -42 0 D S
0 1154 M -42 0 D S
0 923 M -42 0 D S
0 692 M -42 0 D S
0 462 M -42 0 D S
0 231 M -42 0 D S
0 0 M -42 0 D S
/PSL_LH 267 F0
(M) sh def
/PSL_L_y PSL_A0_y PSL_A1_y mx 133 add def
750 PSL_L_y MM
V 90 R (Depth \[km\]) bc Z U
4800 0 T
/MM {exch M} def
/PSL_A0_y 83 def
/PSL_A1_y 0 def
25 W
0 1500 M 0 -1500 D S
8 W
0 1500 M 83 0 D S
0 1269 M 83 0 D S
0 1038 M 83 0 D S
0 808 M 83 0 D S
0 577 M 83 0 D S
0 346 M 83 0 D S
0 115 M 83 0 D S
0 1385 M 42 0 D S
0 1154 M 42 0 D S
0 923 M 42 0 D S
0 692 M 42 0 D S
0 462 M 42 0 D S
0 231 M 42 0 D S
0 0 M 42 0 D S
/PSL_LH 0 def /PSL_L_y PSL_A0_y PSL_A1_y mx def
-4800 0 T
/MM {neg M} def
/PSL_A0_y 83 def
/PSL_A1_y 0 def
25 W
0 0 M 4800 0 D S
8 W
84 0 M 0 -83 D S
926 0 M 0 -83 D S
1768 0 M 0 -83 D S
2611 0 M 0 -83 D S
3453 0 M 0 -83 D S
4295 0 M 0 -83 D S
/PSL_AH0 0
200 F0
(-90) sh mx
(-85) sh mx
(-80) sh mx
(-75) sh mx
(-70) sh mx
(-65) sh mx
def
/PSL_A0_y PSL_A0_y 83 add PSL_AH0 add def
84 PSL_A0_y MM
(-90) bc Z
926 PSL_A0_y MM
(-85) bc Z
1768 PSL_A0_y MM
(-80) bc Z
2611 PSL_A0_y MM
(-75) bc Z
3453 PSL_A0_y MM
(-70) bc Z
4295 PSL_A0_y MM
(-65) bc Z
/PSL_LH 267 F0
(M) sh def
/PSL_L_y PSL_A0_y PSL_A1_y mx 133 add PSL_LH add def
2400 PSL_L_y MM
(Longitude \[deg\]) bc Z
0 1500 T
/MM {M} def
/PSL_A0_y 83 def
/PSL_A1_y 0 def
25 W
0 0 M 4800 0 D S
8 W
84 0 M 0 83 D S
926 0 M 0 83 D S
1768 0 M 0 83 D S
2611 0 M 0 83 D S
3453 0 M 0 83 D S
4295 0 M 0 83 D S
/PSL_LH 0 def /PSL_L_y PSL_A0_y PSL_A1_y mx def
0 -1500 T
0 setlinecap
%%EndObject
0 A
FQ
O0
0 0 TM

% PostScript produced by:
%%GMT: psxy -R-90.5/-62/0/650 -JX4i/-1.25i -Sc0.07 -GVIOLETRED1 -Wthinnest -N -O -K
%%PROJ: xy -90.50000000 -62.00000000 0.00000000 650.00000000 -90.500 -62.000 650.000 -0.000 +xy +a=6378137.000 +b=6356752.314245
%%BeginObject PSL_Layer_14
0 setlinecap
0 setlinejoin
3.32551 setmiterlimit
4 W
V
{1 0.243 0.588 C} FS
O1
17 2545 1441 Sc
17 2792 1454 Sc
17 2817 1405 Sc
17 2804 1426 Sc
17 2766 1445 Sc
17 2792 1457 Sc
17 2726 1434 Sc
17 2809 1454 Sc
17 2738 1450 Sc
17 2820 1340 Sc
17 2745 1459 Sc
17 2797 1456 Sc
17 2762 1467 Sc
17 2814 1437 Sc
17 2817 1457 Sc
17 2540 1470 Sc
17 2857 1459 Sc
17 2781 1443 Sc
17 2761 1396 Sc
17 2714 1426 Sc
17 2780 1468 Sc
17 3235 1400 Sc
17 2751 1446 Sc
17 3346 1390 Sc
17 2772 1500 Sc
17 2879 1387 Sc
17 2899 1270 Sc
17 2787 1492 Sc
17 2570 1477 Sc
17 2878 1423 Sc
17 2757 1462 Sc
17 2796 1477 Sc
17 2780 1428 Sc
17 2809 1415 Sc
17 3205 1250 Sc
17 2786 1447 Sc
17 2789 1500 Sc
17 2904 1405 Sc
17 2569 1497 Sc
17 2929 1380 Sc
17 2805 1454 Sc
17 2569 1403 Sc
17 2778 1496 Sc
17 2863 1446 Sc
17 2796 1440 Sc
17 2777 1449 Sc
17 2884 1365 Sc
17 2830 1454 Sc
17 2831 1453 Sc
17 3077 1185 Sc
17 2873 1440 Sc
17 2717 1490 Sc
17 2813 1439 Sc
17 2815 1443 Sc
17 2837 1430 Sc
17 2752 1448 Sc
17 2891 1459 Sc
17 2830 1461 Sc
17 2886 1416 Sc
17 2744 1144 Sc
17 2746 1499 Sc
17 2767 1500 Sc
17 2898 1369 Sc
17 2765 1455 Sc
17 2782 1454 Sc
17 2762 1454 Sc
17 2844 1442 Sc
17 2802 1457 Sc
17 2846 1428 Sc
17 2760 1500 Sc
17 3061 1288 Sc
17 2775 1500 Sc
17 2739 1456 Sc
17 2809 1500 Sc
17 2922 1429 Sc
17 2535 1500 Sc
17 2876 1500 Sc
17 2548 1500 Sc
17 2745 1500 Sc
17 2567 1500 Sc
17 2590 1500 Sc
17 2940 1397 Sc
17 2821 1476 Sc
17 2797 1454 Sc
17 2947 1418 Sc
17 2622 1447 Sc
17 2585 1427 Sc
17 2810 1460 Sc
17 2607 1463 Sc
17 2557 1500 Sc
17 2548 1483 Sc
17 2851 1419 Sc
17 2554 1499 Sc
17 2895 1427 Sc
17 2844 1449 Sc
17 2830 1499 Sc
17 2618 1420 Sc
17 2550 1500 Sc
U
%%EndObject
0 A
FQ
O0
0 0 TM

% PostScript produced by:
%%GMT: pstext -R-90.5/-62/0/650 -JX4i/-1.25i -F+f14,31,+j -N -O -K
%%PROJ: xy -90.50000000 -62.00000000 0.00000000 650.00000000 -90.500 -62.000 650.000 -0.000 +xy +a=6378137.000 +b=6356752.314245
%%BeginObject PSL_Layer_15
0 setlinecap
0 setlinejoin
3.32551 setmiterlimit
0 1615 M PSL_font_encode 31 get 0 eq {ISOLatin1+_Encoding /Palatino-Bold /Palatino-Bold PSL_reencode PSL_font_encode 31 1 put} if
233 F31
(5) Z
4716 1615 M V MU 0 0 M (5) FP 0 82 G 163 F31 (') FP 0 -82 G pathbbox N pop exch pop add U neg 0 G
(5) Z
0 82 G 163 F31 (') Z
0 -82 G %%EndObject
0 A
FQ
O0
0 0 TM

% PostScript produced by:
%%GMT: psxy -R-90.5/-62/0/650 -JX4i/-1.25i -T -O
%%PROJ: xy -90.50000000 -62.00000000 0.00000000 650.00000000 -90.500 -62.000 650.000 -0.000 +xy +a=6378137.000 +b=6356752.314245
%%BeginObject PSL_Layer_16
0 setlinecap
0 setlinejoin
3.32551 setmiterlimit
%%EndObject
%%PageTrailer
U
showpage

%%Trailer

end
%%EOF
