# Nsamples: 643  MAD:  0.502  mean: -0.593  std:  0.742
gfz2010abfc  -0.42051
gfz2010aggj  -0.14036
gfz2010aseg   0.02118
gfz2010azji  -0.68103
gfz2010bkfi  -0.79045
gfz2010bklj  -1.17470
gfz2010bqnk  -0.64754
gfz2010brlc  -0.30912
gfz2010bukb   0.21772
gfz2010bytu   1.10630
gfz2010ccse  -1.14300
gfz2010ccye  -0.22501
gfz2010clbw  -0.39401
gfz2010cllh  -0.52683
gfz2010cnhd   0.32966
gfz2010cnyi   0.25557
gfz2010cphq   0.32464
gfz2010crgy  -0.65457
gfz2010crir  -1.11400
gfz2010csle  -0.33185
gfz2010csmw  -0.12948
gfz2010csqy  -0.06635
gfz2010cvkn  -2.16080
gfz2010cyid  -0.09432
gfz2010dask  -0.16632
gfz2010djib  -1.48610
gfz2010dmij  -1.04350
gfz2010dmkd   0.48478
gfz2010drit  -0.21047
gfz2010drml   2.54880
gfz2010drmq   2.54880
gfz2010drpv  -1.09910
gfz2010drun  -1.49170
gfz2010dumv  -1.83910
gfz2010dwgy  -0.80936
gfz2010eibh  -0.92564
gfz2010ethu   0.04735
gfz2010ewyj  -0.36379
gfz2010fgbo  -0.80052
gfz2010fjio  -0.50992
gfz2010fjme  -0.26535
gfz2010fnkr  -1.23850
gfz2010fvfz   0.12610
gfz2010fxhh  -0.71101
gfz2010gonu  -0.10785
gfz2010guwa  -1.24420
gfz2010habf  -0.55201
gfz2010hllp  -2.05200
gfz2010hnuo  -0.25534
gfz2010hueh   3.30020
gfz2010hxan  -0.32405
gfz2010iaay   0.63239
gfz2010ifhd  -1.15740
gfz2010inbs  -0.51777
gfz2010ioad  -0.74921
gfz2010izag  -0.13795
gfz2010jdhk  -0.37136
gfz2010jgwj  -0.53377
gfz2010jlvp  -0.71878
gfz2010jpkn  -0.30889
gfz2010kuzb  -0.76861
gfz2010ljzf  -0.08970
gfz2010mdti  -0.51100
gfz2010ncwu  -1.04580
gfz2010oguu  -0.53590
gfz2010ogwn  -0.56954
gfz2010ovvg   0.13632
gfz2010pclq  -1.26760
gfz2010pcya  -1.88750
gfz2010pgrf  -0.18255
gfz2010qdqk  -1.51100
gfz2010qrix  -0.07277
gfz2010qrta  -0.15654
gfz2010qykh   0.45366
gfz2010rkuu  -1.27330
gfz2010rljv  -0.85632
gfz2010schp  -0.65547
gfz2010scht  -0.60547
gfz2010sdfs  -0.76892
gfz2010shvn  -0.53684
gfz2010tcgh  -0.07694
gfz2010tgmo   0.40806
gfz2010tmba  -0.85947
gfz2010tpcj  -0.36393
gfz2010tzlz  -0.55015
gfz2010tzma  -1.17150
gfz2010ugws  -0.10795
gfz2010uhjy   0.11587
gfz2010umxj   0.64497
gfz2010umyp  -0.67846
gfz2010uogw  -0.18266
gfz2010vhzx  -0.71750
gfz2010vong  -0.29685
gfz2010wakc  -2.12210
gfz2010xamh  -0.68206
gfz2010xaxw  -0.88386
gfz2010xnbn   0.62811
gfz2010xpzq  -0.64185
gfz2010yczp  -0.29663
gfz2010yfdr  -0.79242
gfz2010yilf  -1.35400
gfz2010ymih  -0.84068
gfz2010ytzb  -1.11800
gfz2010zjun  -0.91529
gfz2011afyc  -0.82789
gfz2011ahvh  -1.02890
gfz2011ameb   0.78049
gfz2011aqpp  -1.12660
gfz2011bcvc  -1.32050
gfz2011bffb  -0.72275
gfz2011bpqm  -1.02220
gfz2011bsvr  -2.80130
gfz2011bygs   0.05255
gfz2011bygu  -0.56438
gfz2011bzio  -0.15492
gfz2011cdge  -1.20220
gfz2011chsa  -1.21570
gfz2011cjuz  -0.48214
gfz2011cwsm  -1.19850
gfz2011cwzi   0.76098
gfz2011cxdj  -0.86160
gfz2011dabj  -0.87570
gfz2011dhfg  -0.25918
gfz2011dhqk  -0.18728
gfz2011dpyu  -0.78632
gfz2011duvm  -0.97164
gfz2011dwae  -0.78080
gfz2011emzr  -0.84001
gfz2011etkc   0.47674
gfz2011fnie  -0.89980
gfz2011fszl  -0.60283
gfz2011fyfu  -0.70674
gfz2011fzcw  -0.76087
gfz2011gaax  -0.83239
gfz2011ggnl   1.75980
gfz2011glpg  -0.67344
gfz2011gnbk  -0.85127
gfz2011gpyr  -1.07330
gfz2011hibi   0.00000
gfz2011hjof  -0.76773
gfz2011hqjs  -0.79956
gfz2011hrgt   0.71898
gfz2011hvzo   2.13700
gfz2011hyct  -0.59533
gfz2011ibew   1.51670
gfz2011ioch   1.10130
gfz2011iryz  -0.14335
gfz2011jpob  -2.58080
gfz2011jryv  -1.66630
gfz2011kfch   0.40879
gfz2011kgvq  -0.69457
gfz2011kjzt  -1.84290
gfz2011kjzv  -1.99130
gfz2011kujo  -1.03880
gfz2011kyzy  -0.68858
gfz2011lkkf  -2.26350
gfz2011lmug  -0.62286
gfz2011lwmg  -1.07180
gfz2011mjje  -1.19930
gfz2011mllb   2.03800
gfz2011mntq  -0.51475
gfz2011mror  -2.25320
gfz2011ndhh  -1.53610
gfz2011nejg  -1.80670
gfz2011nejw  -2.53820
gfz2011nfcz  -0.41867
gfz2011nfln  -1.96800
gfz2011nftw  -1.49320
gfz2011nhby  -0.69184
gfz2011nhvt  -2.81360
gfz2011nhwf   0.33119
gfz2011nifi  -0.72547
gfz2011nijp  -1.90560
gfz2011nilw  -2.13670
gfz2011nisj  -2.42530
gfz2011niuw  -1.07870
gfz2011nlmf  -2.13320
gfz2011nlnl  -0.69628
gfz2011nlum  -0.19335
gfz2011nlyw   0.26479
gfz2011nnda  -0.76920
gfz2011nnos  -0.09625
gfz2011npeu   0.43263
gfz2011nuqo  -0.15981
gfz2011oadm  -0.86523
gfz2011oazk  -0.27806
gfz2011oekz  -1.21020
gfz2011ofpj  -1.13740
gfz2011ohgj  -1.52950
gfz2011oslk  -0.45428
gfz2011osmp  -0.43066
gfz2011owqa   0.35198
gfz2011paqj  -0.33418
gfz2011pdsn  -2.48460
gfz2011pfls  -0.69690
gfz2011pgzk  -0.62682
gfz2011pivq  -0.51558
gfz2011pmuv  -0.25380
gfz2011poug  -1.14510
gfz2011ppsc  -1.16990
gfz2011qenl  -1.41090
gfz2011qukj  -1.18390
gfz2011rbuo  -0.82104
gfz2011rkau  -2.36680
gfz2011scma   0.05251
gfz2011sdax  -0.36125
gfz2011sfph  -0.83435
gfz2011sqco  -0.73660
gfz2011sskq  -0.12646
gfz2011sxno  -0.69852
gfz2011sylg  -0.85414
gfz2011syvj  -0.57339
gfz2011syzr  -0.69300
gfz2011taqr  -0.72070
gfz2011tdjj  -0.46603
gfz2011tgon  -1.37400
gfz2011tlwl   0.75681
gfz2011tqgg  -0.67447
gfz2011tsgl   0.37485
gfz2011tvuv  -0.52459
gfz2011uowi  -0.47132
gfz2011uqlz  -0.65826
gfz2011uqry  -1.68830
gfz2011vahy  -0.73674
gfz2011varl  -2.28580
gfz2011vbxv  -0.31864
gfz2011vimn  -0.99984
gfz2011vsag  -1.97740
gfz2011vtzv  -0.77113
gfz2011wbtc  -0.26246
gfz2011wcvs  -0.62786
gfz2011wkja  -0.49239
gfz2011wngi  -0.61777
gfz2011wpzt  -0.59822
gfz2011wqup  -0.77857
gfz2011wtfn   0.12984
gfz2011wucg  -0.50206
gfz2011wwze  -0.78237
gfz2011xgbc  -1.26300
gfz2011xgwy  -0.94884
gfz2011xlod  -0.30810
gfz2011xnui  -0.72918
gfz2011yexx  -0.83801
gfz2011ypfh  -0.62704
gfz2011ytob  -0.42819
gfz2011ywtj  -1.12630
gfz2011zghc  -0.84783
gfz2011zkbt  -0.85979
gfz2012adja   0.23214
gfz2012ahac  -0.92264
gfz2012alti  -0.56632
gfz2012amjx  -1.05480
gfz2012amvs  -0.82330
gfz2012arlo   0.05617
gfz2012atjr  -1.15830
gfz2012bcvn   0.20676
gfz2012beae  -0.07065
gfz2012bity  -0.71802
gfz2012bjhl  -1.20370
gfz2012bolx  -0.32154
gfz2012bovy  -0.77208
gfz2012bqcf  -0.67726
gfz2012byrq  -2.01850
gfz2012cdju  -0.57860
gfz2012cksh   0.26831
gfz2012cmww  -0.25958
gfz2012cntu  -0.55370
gfz2012crpb  -0.12249
gfz2012cvfr  -0.95164
gfz2012dcjd  -0.45979
gfz2012dejg  -1.00570
gfz2012dleg  -2.01470
gfz2012dpnu  -0.54079
gfz2012dtlu  -0.11183
gfz2012dttl  -0.53515
gfz2012dwwu  -1.22870
gfz2012dyck  -0.62239
gfz2012dysu  -3.45750
gfz2012ebrr   0.42739
gfz2012eeft  -1.03570
gfz2012ekfp  -1.29000
gfz2012ekro  -0.55025
gfz2012elek  -1.11970
gfz2012enio  -0.44461
gfz2012enrg   0.71879
gfz2012erds  -0.97578
gfz2012evxn  -1.16860
gfz2012eyti  -1.59650
gfz2012fhaf  -0.24631
gfz2012flqf  -0.50494
gfz2012fuyd   0.26115
gfz2012fyny  -0.96929
gfz2012gdye  -0.87128
gfz2012gjdg  -1.04020
gfz2012gnow  -0.63867
gfz2012gpcd  -1.20650
gfz2012gubu   0.34206
gfz2012heih  -0.10079
gfz2012hmcv  -0.70209
gfz2012hvfw  -0.50913
gfz2012hzhn  -0.61798
gfz2012hzur  -2.44020
gfz2012iblo  -2.69600
gfz2012iijk  -0.63685
gfz2012ipdc  -1.12840
gfz2012jlez  -1.22430
gfz2012kadi  -0.47367
gfz2012kbub  -1.67170
gfz2012klpl   0.12197
gfz2012kmbo  -0.92294
gfz2012kqjb   1.36250
gfz2012kstg   0.04987
gfz2012ldjj  -0.84949
gfz2012luzm  -1.46510
gfz2012lyyr  -0.43567
gfz2012mdzf  -1.38520
gfz2012mjuu  -1.95160
gfz2012mmiw  -0.84399
gfz2012mpzo  -0.52393
gfz2012mrqk  -1.36420
gfz2012mrwu  -0.76454
gfz2012mtyn  -0.09067
gfz2012mvgu  -0.68199
gfz2012mxdk   0.24307
gfz2012mzqx  -0.67379
gfz2012ndwt  -0.64558
gfz2012nfos   0.06027
gfz2012oafg  -0.61948
gfz2012oehy  -0.74573
gfz2012ofnx   0.42989
gfz2012ojmv  -1.19230
gfz2012onhu  -0.73408
gfz2012oork  -0.34291
gfz2012oozp  -0.52823
gfz2012pdav  -0.97830
gfz2012pdjt   2.94950
gfz2012pgmw  -0.04121
gfz2012phns  -0.48137
gfz2012pmuj  -1.78920
gfz2012pokk  -0.80979
gfz2012ppcq  -0.95548
gfz2012pumy  -0.77921
gfz2012pvve  -1.12640
gfz2012qfah  -1.14960
gfz2012rzwp  -0.77073
gfz2012sjox  -0.34932
gfz2012smyn   2.01020
gfz2012socz  -0.88682
gfz2012sqsc   0.17136
gfz2012ssnb   1.75780
gfz2012stxx  -0.58023
gfz2012suqd   0.02244
gfz2012svwz  -0.43661
gfz2012swbz  -0.94545
gfz2012sxbo  -1.46700
gfz2012syum  -2.10300
gfz2012taph  -1.15940
gfz2012tgta  -0.96926
gfz2012tisj  -0.77020
gfz2012touh   0.10552
gfz2012tqjc  -2.04030
gfz2012trfq  -1.07190
gfz2012trss   0.00149
gfz2012ttnf  -0.45829
gfz2012tvgw   0.58071
gfz2012twec  -0.73856
gfz2012tyoz  -2.29690
gfz2012uhtc  -0.44880
gfz2012ulei  -0.50972
gfz2012umob  -0.45481
gfz2012unxc  -0.93822
gfz2012uovh  -0.81350
gfz2012uvoa  -1.13190
gfz2012uzww  -0.81258
gfz2012vcqw  -0.70953
gfz2012vdsl   0.53049
gfz2012vioy  -1.51620
gfz2012vitw  -0.71354
gfz2012vkjw  -0.60642
gfz2012vlzv  -1.11700
gfz2012vnve  -0.65340
gfz2012vurc   0.02049
gfz2012wgdv  -0.88111
gfz2012wgmg  -1.23260
gfz2012wkki  -0.89143
gfz2012wmmw  -0.36629
gfz2012wowu   0.20042
gfz2012wpen  -1.07350
gfz2012wysg  -0.77110
gfz2012xask  -0.80359
gfz2012xbna  -0.07489
gfz2012xfnu  -0.65653
gfz2012xfsl  -0.73126
gfz2012xncm  -0.85820
gfz2012xrmq  -0.82379
gfz2012xxdj  -1.00350
gfz2012yegw  -0.68168
gfz2012yncm   0.90862
gfz2012zhyz  -0.84451
gfz2012zido   0.09661
gfz2012znou  -1.64360
gfz2012zqis  -0.85838
gfz2013adih  -0.16276
gfz2013aggr  -0.01370
gfz2013ajxz  -0.24741
gfz2013akkd  -0.48448
gfz2013bwgw  -0.67224
gfz2013byyy  -0.41708
gfz2013cinv  -0.50871
gfz2013cqak  -1.00680
gfz2013cvve  -0.55689
gfz2013cyvx  -0.78282
gfz2013delq  -0.51932
gfz2013dftb  -0.47140
gfz2013dfvx   0.05477
gfz2013dksc  -0.34645
gfz2013dmzh  -0.79292
gfz2013dngd   0.08713
gfz2013dnot  -0.12758
gfz2013dzvr  -0.37010
gfz2013eavq  -0.26824
gfz2013eazm  -0.94290
gfz2013efct  -0.23105
gfz2013eidd  -0.50775
gfz2013enjr   0.53945
gfz2013enqo  -1.06760
gfz2013eyyo   0.50463
gfz2013fmcd   0.62952
gfz2013fmcp   0.70143
gfz2013fnpa  -0.33755
gfz2013fulo  -0.74404
gfz2013fvht  -0.86331
gfz2013fvyr  -1.24980
gfz2013fybd  -0.63845
gfz2013gkyn  -0.56483
gfz2013gugi  -1.20700
gfz2013gurk  -0.07037
gfz2013gxye  -0.24755
gfz2013gyce  -0.97468
gfz2013hbmi  -0.72184
gfz2013hbtm  -0.01331
gfz2013hduf  -0.30597
gfz2013hiam  -0.78626
gfz2013hinw  -0.29616
gfz2013hqaa  -0.94527
gfz2013hvzv  -0.65582
gfz2013icgx  -0.50649
gfz2013icql  -0.70318
gfz2013ikic  -0.91737
gfz2013iuyv  -1.77080
gfz2013ivvw  -0.79026
gfz2013iwzn  -0.13903
gfz2013iybg  -0.30013
gfz2013jfcn  -0.34018
gfz2013jhog  -0.32905
gfz2013jobl  -0.16108
gfz2013jzcf  -0.14223
gfz2013kats  -1.06170
gfz2013kbbg  -1.36280
gfz2013kbbn  -0.02148
gfz2013kcdb  -0.49497
gfz2013kqab  -1.00760
gfz2013ksaz  -0.54967
gfz2013kslp  -0.56571
gfz2013kxlr  -0.70229
gfz2013kxof  -0.73553
gfz2013lbod  -1.42980
gfz2013lbvl  -0.83361
gfz2013lgvf  -0.79440
gfz2013ljdu  -0.11510
gfz2013ljwt  -0.86457
gfz2013lqjj  -0.57296
gfz2013lvxe  -0.44649
gfz2013lxed  -0.58640
gfz2013mdxj  -0.27932
gfz2013mvgq  -0.89877
gfz2013mzaw  -0.98564
gfz2013nkgt  -0.52215
gfz2013ntfc  -0.09304
gfz2013ntiu  -0.34609
gfz2013oeni  -0.94240
gfz2013ohnj  -0.44177
gfz2013oizq  -0.81015
gfz2013ojza  -0.29846
gfz2013okxa  -0.51439
gfz2013onvl   0.76763
gfz2013orot   0.87102
gfz2013oruq  -0.62932
gfz2013otuj  -0.72631
gfz2013oywh  -0.65534
gfz2013phhi  -0.07609
gfz2013qapj   0.02324
gfz2013qdno  -0.35836
gfz2013qdpv  -0.22995
gfz2013qigb  -0.99130
gfz2013qmkt  -0.77385
gfz2013qnqr  -0.51911
gfz2013qntl  -0.98509
gfz2013qoak  -0.86574
gfz2013qogb  -0.70331
gfz2013quwz  -1.66540
gfz2013quyn  -0.48161
gfz2013qwnm   0.38901
gfz2013qxof  -0.65005
gfz2013rdmn   0.66163
gfz2013rfik  -0.31559
gfz2013rhbx  -0.46715
gfz2013rocs  -0.36699
gfz2013rtvy  -1.26370
gfz2013rwkj  -1.16790
gfz2013rwog  -0.38269
gfz2013ryfc   0.63041
gfz2013ryph  -1.30220
gfz2013sdkg  -0.16234
gfz2013skvq  -0.74073
gfz2013stou  -0.51121
gfz2013stup   1.62320
gfz2013swnj  -0.55399
gfz2013taeb  -0.43442
gfz2013tcju  -0.63946
gfz2013tdsx  -0.86636
gfz2013tekq  -0.30845
gfz2013tgyb  -0.83298
gfz2013tjub  -1.04390
gfz2013tkcg  -0.33828
gfz2013ttmk  -1.42120
gfz2013xswc  -1.18670
gfz2013xupg  -1.17330
gfz2013xuxr   1.24160
gfz2013xvps  -0.36813
gfz2013xxbf   0.35544
gfz2013xycz  -0.69574
gfz2013yihv  -0.85298
gfz2013ykkf  -1.27260
gfz2013yktj  -0.17165
gfz2013ylxm  -1.24750
gfz2013ymhx  -1.19920
gfz2013yodm  -0.49904
gfz2013yqkz  -0.31136
gfz2013yqtu  -1.03250
gfz2013yvnj  -0.85389
gfz2013yxhf  -0.34310
gfz2013zeye  -1.02410
gfz2013zfbz  -0.83971
gfz2013zkta   0.81162
gfz2013zlak  -1.30810
gfz2013zpwk  -0.34289
gfz2013zqan  -0.63240
gfz2014aedl  -0.76245
gfz2014aluc   0.19534
gfz2014aqop  -0.96134
gfz2014ateb   0.07345
gfz2014ayxf  -1.00640
gfz2014azfu  -0.10349
gfz2014bdju  -1.00550
gfz2014befl  -0.78173
gfz2014bgxe  -1.37280
gfz2014bgyv   0.08222
gfz2014bmch  -0.82608
gfz2014bnea  -0.82713
gfz2014bppg  -0.79774
gfz2014bqpm  -0.37311
gfz2014brkk   0.88360
gfz2014byes  -0.69490
gfz2014bzus  -0.18912
gfz2014cgoi  -0.51455
gfz2014cjao  -0.54040
gfz2014cokw  -0.21803
gfz2014crac   0.04174
gfz2014ctdl  -0.47972
gfz2014cvnb  -0.84862
gfz2014dece  -0.64447
gfz2014dggw  -0.38076
gfz2014diuu  -0.02808
gfz2014djhi   0.45900
gfz2014djyj  -0.55294
gfz2014dmrw  -0.47692
gfz2014dpps  -0.80688
gfz2014dtth  -0.94449
gfz2014dtto   0.36750
gfz2014dwcp  -0.41692
gfz2014dykt  -0.12584
gfz2014edjm  -0.61102
gfz2014edmd  -1.98410
gfz2014eirs  -0.49676
gfz2014emlw  -0.46330
gfz2014eoay  -0.61996
gfz2014epnq  -1.92480
gfz2014epue   0.36872
gfz2014esez  -0.26367
gfz2014etgp  -0.19635
gfz2014etqu  -0.81827
gfz2014eunw  -0.78479
gfz2014evgu   0.58739
gfz2014fbef   0.23338
gfz2014fbli  -0.29719
gfz2014fbnr  -0.96015
gfz2014fjfz  -0.25049
gfz2014flxk  -1.54500
gfz2014fsir  -0.51924
gfz2014fsje  -0.43461
gfz2014fsvc   0.04095
gfz2014fvza  -0.74805
gfz2014fwuf  -1.06330
gfz2014fwxt   0.24528
gfz2014fxte  -0.77591
gfz2014fxtv  -1.13300
gfz2014fxuy  -0.33558
gfz2014grwv  -1.15280
gfz2014gsfc  -0.46705
gfz2014gtee  -0.44530
gfz2014gtoj  -0.29488
gfz2014gutd   0.27120
gfz2014gypw  -0.86276
gfz2014hapg  -0.84993
gfz2014happ  -1.55920
gfz2014herz  -0.77402
gfz2014hhey   0.01771
gfz2014hhis  -0.43318
gfz2014hkcw  -1.41240
gfz2014hotu  -1.49490
gfz2014hqhv  -1.36250
gfz2014huqh  -0.53218
gfz2014hyea  -0.68526
gfz2014hzzf  -1.15870
gfz2014icov  -0.49109
gfz2014igrp  -0.71470
gfz2014iltl  -0.45647
gfz2014ined  -0.23530
gfz2014iolv   1.20050
gfz2014irlf  -0.58160
gfz2014irln  -1.25760
gfz2014irly  -0.35959
gfz2014isov  -0.64682
gfz2014itlx  -0.36172
gfz2014iusw  -0.48304
gfz2014ivgm  -0.44561
gfz2014ixlc  -0.95555
gfz2014iyuc  -0.70590
gfz2014jarg  -0.35283
gfz2014jaxy  -0.82121
gfz2014jayh  -0.61370
gfz2014jckg  -0.98231
