# Nsamples: 1514  MAD:  0.744  mean: -0.534  std:  1.025
gfz2010abfc   0.54478
gfz2010abvu  -1.67370
gfz2010afyi  -1.98770
gfz2010aggj   0.36811
gfz2010aimm  -0.35947
gfz2010aldp   0.03955
gfz2010amec  -2.47150
gfz2010aseg  -0.62795
gfz2010asxa  -0.02014
gfz2010axdz  -4.26430
gfz2010azji  -0.31757
gfz2010bgrt  -3.62510
gfz2010bkfi  -0.55993
gfz2010bklj  -1.02810
gfz2010bnbr   0.05876
gfz2010bnqr  -0.54629
gfz2010bofe  -0.78090
gfz2010bqnk  -0.39636
gfz2010brlc   0.95522
gfz2010brrm  -0.02636
gfz2010btme  -1.67250
gfz2010bukb  -0.25687
gfz2010bvit  -0.50848
gfz2010byau   1.25670
gfz2010bytu  -0.59478
gfz2010cbnp   0.82934
gfz2010ccse   0.25743
gfz2010ccwc   0.12463
gfz2010ccye   0.00497
gfz2010clbw  -0.20942
gfz2010cllh  -2.56500
gfz2010cngg  -0.11143
gfz2010cnhd   0.43794
gfz2010cnyi  -0.15342
gfz2010cphq  -1.13490
gfz2010cpig  -1.09590
gfz2010cqoq  -0.87030
gfz2010crgy   0.17952
gfz2010crir  -0.42582
gfz2010ctak  -0.41047
gfz2010cthm  -3.80310
gfz2010cuzg  -0.39391
gfz2010cvam  -0.43009
gfz2010cvkn   0.28649
gfz2010cwrk   0.91935
gfz2010cyid  -0.35145
gfz2010dask  -0.98221
gfz2010ddan  -0.20028
gfz2010depd  -1.08150
gfz2010diid   0.16422
gfz2010djib   1.72210
gfz2010dmij   0.19485
gfz2010dmkd  -0.62937
gfz2010dpgt  -1.13690
gfz2010drit  -1.10250
gfz2010drml  -2.39330
gfz2010drmq  -2.39330
gfz2010drng  -1.90010
gfz2010drpv   0.09884
gfz2010drun   0.77938
gfz2010dsjq  -0.39004
gfz2010dslu  -2.07870
gfz2010dtgc  -1.18510
gfz2010dtyx  -3.07230
gfz2010dumv  -0.65325
gfz2010dwgy  -0.46075
gfz2010dxhq  -0.91270
gfz2010eepd  -0.11749
gfz2010ehgf  -0.87719
gfz2010eibh  -0.95886
gfz2010ekvl  -1.11520
gfz2010elge  -0.09236
gfz2010ethu   0.75771
gfz2010euue  -0.11595
gfz2010ewyj  -0.74104
gfz2010extu  -1.50280
gfz2010faly  -0.59757
gfz2010fgbo  -0.92062
gfz2010fjio  -0.60184
gfz2010fjme  -0.69270
gfz2010fkff  -0.37846
gfz2010fkpa   1.63630
gfz2010fnkr  -0.02346
gfz2010fopf  -1.31740
gfz2010fpvw  -4.86890
gfz2010fqnn   0.35673
gfz2010fqzh   0.68661
gfz2010ftfq  -1.15730
gfz2010fuky  -0.39366
gfz2010fvfz  -1.09880
gfz2010fxhh  -0.14450
gfz2010fxut  -2.82710
gfz2010gcqp   0.08944
gfz2010gcrn  -0.14752
gfz2010gnvp  -0.29920
gfz2010gonu   0.06568
gfz2010gooc  -0.91650
gfz2010gpjl  -1.18330
gfz2010guwa  -0.00000
gfz2010habf  -0.25192
gfz2010hdxn  -0.14926
gfz2010hesh   0.43978
gfz2010hexh   0.07593
gfz2010hllp  -0.93008
gfz2010hnuo  -2.17880
gfz2010hsgv   0.05638
gfz2010hueh  -3.06420
gfz2010huzl  -1.13490
gfz2010hxan  -0.74991
gfz2010iaay  -2.46470
gfz2010iawy  -0.81499
gfz2010ifhd   0.13776
gfz2010ifru  -0.84154
gfz2010inbs  -0.53107
gfz2010inkz  -0.89063
gfz2010ioad  -0.21544
gfz2010ixjl  -0.30287
gfz2010izag  -0.08360
gfz2010izgb   0.78499
gfz2010jcby  -0.24680
gfz2010jcpq   0.73861
gfz2010jdhk  -0.73348
gfz2010jgwj  -0.44580
gfz2010jkrp   0.37511
gfz2010jlvp   0.61407
gfz2010jpkn  -0.50197
gfz2010juke  -0.86872
gfz2010jvsi  -2.54440
gfz2010jyvd  -1.19880
gfz2010kcdq  -2.03210
gfz2010kcyz  -0.72609
gfz2010kuzb   0.80039
gfz2010kwks  -0.58915
gfz2010ljmp  -0.37318
gfz2010ljol  -0.69127
gfz2010ljzf  -0.67458
gfz2010lswe  -2.25230
gfz2010lvnj  -1.08210
gfz2010mdti  -0.51134
gfz2010mjdl  -0.37867
gfz2010mnoc  -0.65622
gfz2010mpvc  -2.84630
gfz2010mqzz  -0.84250
gfz2010msss  -4.67260
gfz2010mvmb  -6.41600
gfz2010mvtj   1.34480
gfz2010mwmd  -0.67863
gfz2010nbcr  -0.40187
gfz2010nccu  -0.83820
gfz2010ncwu  -0.07716
gfz2010ngge  -0.75342
gfz2010nkrw   0.13697
gfz2010nlai  -0.32883
gfz2010novb  -0.56876
gfz2010nteg  -2.83530
gfz2010nwbd  -0.78923
gfz2010nwyk  -2.24850
gfz2010ocug  -3.65280
gfz2010oguu  -0.47334
gfz2010ogwn  -0.26791
gfz2010oibn   0.50476
gfz2010ojhe  -0.99584
gfz2010okpc  -2.72610
gfz2010okww  -0.74461
gfz2010onxm  -0.76017
gfz2010osaq   0.26251
gfz2010ouvm  -1.25480
gfz2010ovvg   0.98245
gfz2010pclq  -1.06190
gfz2010pcya  -1.08210
gfz2010pdip  -0.27506
gfz2010pgpo  -0.66932
gfz2010pgrf  -1.48430
gfz2010pngv  -0.78239
gfz2010prnw  -0.08335
gfz2010pvnn  -0.08439
gfz2010pzza  -0.45664
gfz2010qbcy   0.46265
gfz2010qdqk  -1.15260
gfz2010qloa   0.91827
gfz2010qqqx   0.60027
gfz2010qrix  -0.38448
gfz2010qrta  -0.34185
gfz2010qykh  -0.84958
gfz2010qylh  -0.71425
gfz2010qzvf  -1.60000
gfz2010rdep  -1.61930
gfz2010rdip  -0.58564
gfz2010rkuu  -0.83097
gfz2010rljv  -0.66916
gfz2010rmua  -0.26218
gfz2010rnqa  -4.02180
gfz2010rnwt   0.93982
gfz2010rpbz  -0.30135
gfz2010rpjd  -0.76307
gfz2010schp  -0.68309
gfz2010scht   0.08404
gfz2010sdfs  -1.39530
gfz2010sftm  -2.48070
gfz2010shvn  -0.49872
gfz2010sook  -0.68519
gfz2010swqy  -0.53502
gfz2010sylk  -0.53574
gfz2010syqh  -1.47910
gfz2010szxo  -1.87650
gfz2010tcgh  -2.71940
gfz2010tfar  -0.44577
gfz2010tgmo  -3.54970
gfz2010tmba  -0.95035
gfz2010tmne  -0.85208
gfz2010tpcj  -1.25810
gfz2010tqyo   0.13126
gfz2010tvit  -0.66589
gfz2010tzki  -1.08400
gfz2010tzlz  -1.39090
gfz2010tzma  -1.54290
gfz2010ugws  -1.67030
gfz2010uhjy  -1.21520
gfz2010uidg  -0.42834
gfz2010ujqn  -0.27952
gfz2010umxj  -1.49930
gfz2010umyp  -1.60690
gfz2010uogw  -1.94240
gfz2010uopf  -0.31386
gfz2010upod  -1.76590
gfz2010uqba  -3.18410
gfz2010uraq  -2.33980
gfz2010utsc  -1.03350
gfz2010uveo  -1.27890
gfz2010uyng  -0.29701
gfz2010vdcf   0.25421
gfz2010vgfu   0.65004
gfz2010vhzx  -0.43676
gfz2010viyi  -0.92687
gfz2010vjac  -1.06760
gfz2010vkca   0.54772
gfz2010vong  -0.85783
gfz2010vxwv  -1.48410
gfz2010vybx  -0.69505
gfz2010vyri  -1.09740
gfz2010wakc   0.03765
gfz2010wdav  -0.41968
gfz2010wigk  -3.98360
gfz2010wtin  -1.74360
gfz2010wwhf  -0.69204
gfz2010wwnq  -0.38596
gfz2010wyso  -0.55958
gfz2010wyuj  -2.50380
gfz2010xamh  -0.78506
gfz2010xaxw  -0.89051
gfz2010xcdd   1.31670
gfz2010xezr  -0.08231
gfz2010xhqq  -0.85625
gfz2010xjsv  -1.67350
gfz2010xkbz  -1.87240
gfz2010xkku  -0.72229
gfz2010xnbn   0.19983
gfz2010xney   0.28235
gfz2010xpzq  -0.49671
gfz2010xvev  -0.33989
gfz2010xytc   0.34835
gfz2010xzah  -0.63925
gfz2010xzte  -0.63137
gfz2010yczp  -0.60912
gfz2010yfdr  -1.42790
gfz2010ygrd  -0.43293
gfz2010yhdn  -0.22091
gfz2010yhhj   0.48977
gfz2010yilf  -0.58491
gfz2010ymih  -0.39863
gfz2010yrex  -0.43618
gfz2010yspe  -1.53890
gfz2010ytzb  -0.24294
gfz2010zaxv  -0.97471
gfz2010zhvj  -1.49900
gfz2010zjun  -0.55796
gfz2010zkle  -2.06290
gfz2011afyc  -2.02500
gfz2011ahvh  -0.32775
gfz2011aksu  -1.76420
gfz2011ameb  -1.15960
gfz2011amst  -2.88360
gfz2011aqpp  -0.50110
gfz2011awsv  -0.56836
gfz2011bazz  -0.83386
gfz2011bcvc  -0.85619
gfz2011bffb  -1.36500
gfz2011biin  -0.92815
gfz2011bpqm  -0.32651
gfz2011bqbx  -2.42850
gfz2011bsvr   0.95184
gfz2011bvog  -1.69800
gfz2011bwsm  -2.77510
gfz2011bygs  -0.23664
gfz2011bygu  -0.05357
gfz2011bzio  -0.74540
gfz2011caca  -0.53682
gfz2011cdge  -2.01010
gfz2011cfyy   0.19907
gfz2011chsa  -0.52806
gfz2011cjcv  -0.24836
gfz2011cjuz  -0.69911
gfz2011cwhx  -0.73067
gfz2011cwsm  -0.53396
gfz2011cwzi  -1.32920
gfz2011cxbw  -4.07140
gfz2011cxdj  -0.25654
gfz2011dabj   0.15962
gfz2011dbzc  -0.46335
gfz2011dhfg  -0.07813
gfz2011dhqk  -0.65934
gfz2011dmdv  -0.94173
gfz2011dpyu   0.04072
gfz2011drmu   1.50510
gfz2011dtcb  -0.04835
gfz2011duvm  -1.25400
gfz2011dwae  -0.42710
gfz2011dzmf  -1.76340
gfz2011ecce  -0.43312
gfz2011edrq  -0.11794
gfz2011emzr   0.29261
gfz2011etkc  -1.46780
gfz2011exxq  -4.14680
gfz2011fbsl  -1.60810
gfz2011ffdh  -0.41512
gfz2011fges  -0.02042
gfz2011fnie  -1.14280
gfz2011fnuk  -0.33949
gfz2011fnxz  -0.17624
gfz2011fszl  -0.67747
gfz2011fxmf  -0.33664
gfz2011fyfu  -0.97958
gfz2011fzcw  -1.48830
gfz2011gaax  -0.47298
gfz2011gcct  -1.77740
gfz2011gdli  -0.25326
gfz2011gdrl   0.15604
gfz2011gfer  -0.86014
gfz2011ggnl   0.69866
gfz2011ggsz   0.59022
gfz2011glpg  -0.22329
gfz2011gnbk  -0.60054
gfz2011gpyr  -0.97053
gfz2011grby  -1.73780
gfz2011gzde   1.58360
gfz2011haaa  -0.00000
gfz2011hatg  -0.59584
gfz2011hbqc   1.06160
gfz2011hffq   1.38670
gfz2011hibi  -1.95410
gfz2011hjof  -0.92596
gfz2011hmnw  -0.61661
gfz2011hqjs  -0.65437
gfz2011hrgt  -1.07840
gfz2011huon  -0.08868
gfz2011hvzo  -2.00120
gfz2011hyct  -1.05180
gfz2011hyuh  -0.94264
gfz2011iamf  -0.80036
gfz2011ibew  -1.80330
gfz2011ifta  -0.22672
gfz2011inan  -0.15695
gfz2011ioch  -2.23460
gfz2011iryz  -0.49279
gfz2011itcv  -1.62710
gfz2011ituo  -0.26710
gfz2011ixpj  -0.90879
gfz2011iybf  -1.11630
gfz2011jdoz  -1.02670
gfz2011jghq   0.50775
gfz2011jphj  -1.72230
gfz2011jpob  -0.40606
gfz2011jqyc  -0.94048
gfz2011jrgh   0.70170
gfz2011jryv  -0.30900
gfz2011jtij  -0.42236
gfz2011kfch  -1.73720
gfz2011kgvq   0.29165
gfz2011kjzt  -0.30305
gfz2011kjzv  -0.42679
gfz2011kmge  -0.71746
gfz2011ksxc  -1.76550
gfz2011kujo  -0.23420
gfz2011kylu  -2.11570
gfz2011kymm  -1.55010
gfz2011kyzy  -0.42257
gfz2011lbnn  -0.63524
gfz2011ldgl  -0.53473
gfz2011lkkf  -0.26357
gfz2011lmug  -0.63241
gfz2011lrpv  -0.22065
gfz2011lwmg  -0.78170
gfz2011lxga  -0.70673
gfz2011lykm  -0.03923
gfz2011mdyq  -0.81077
gfz2011mjje  -0.31115
gfz2011mllb  -2.40370
gfz2011mntq   0.39054
gfz2011moob  -1.50260
gfz2011mrfm  -3.61570
gfz2011mror  -0.55630
gfz2011mrpy  -1.23460
gfz2011mryu  -2.62720
gfz2011nblt   2.13500
gfz2011ncyw   1.49710
gfz2011ndhh   1.47190
gfz2011ndki   0.66875
gfz2011ndlh   0.03561
gfz2011ndse   0.64859
gfz2011ndtp  -0.15059
gfz2011ndvj   0.06203
gfz2011neai   0.63544
gfz2011nejg   1.22310
gfz2011nejw   1.60970
gfz2011nerb   0.95557
gfz2011nfcz  -0.28491
gfz2011nfgt  -1.11180
gfz2011nfih  -2.16180
gfz2011nfln   0.83448
gfz2011nftw   0.27682
gfz2011nfwd   0.34030
gfz2011nfww  -1.59290
gfz2011nhby  -0.57089
gfz2011nhhd  -0.82093
gfz2011nhjv   3.46340
gfz2011nhvt  -0.44712
gfz2011nhwf  -2.05170
gfz2011nifi  -0.49026
gfz2011nihq  -0.14868
gfz2011nijp   1.63010
gfz2011nilw   0.30098
gfz2011nimp   1.12240
gfz2011nioi  -1.02400
gfz2011nisj  -0.50177
gfz2011niuw   2.46940
gfz2011nivw  -0.39621
gfz2011nkda  -0.35506
gfz2011nkou  -2.67830
gfz2011nlmf   0.34004
gfz2011nlnl  -1.09360
gfz2011nlok   1.19170
gfz2011nlou  -1.03080
gfz2011nlum  -0.88870
gfz2011nlyw  -0.08779
gfz2011nmdz  -0.61144
gfz2011nmhg   1.51700
gfz2011nnda  -0.69714
gfz2011nnos  -1.46870
gfz2011npaf   0.89399
gfz2011npeu  -3.12880
gfz2011nsej  -0.24411
gfz2011nsiy  -2.02540
gfz2011nsrx  -0.57240
gfz2011nssr   0.04368
gfz2011nswi  -0.31071
gfz2011nsyi  -1.06650
gfz2011ntyd  -0.30297
gfz2011nuqo  -1.84870
gfz2011nvty   0.72795
gfz2011nyzk  -0.90949
gfz2011oadm  -0.54287
gfz2011oazk   0.35174
gfz2011ocif   0.75414
gfz2011oekz  -1.36210
gfz2011oesd   0.16592
gfz2011ofpj  -0.72638
gfz2011ohgj  -0.79049
gfz2011okza  -1.97570
gfz2011omxt  -0.38853
gfz2011oosp  -0.55305
gfz2011oqjl   0.76010
gfz2011oslk   0.57391
gfz2011osmp  -0.39209
gfz2011osuy  -0.99895
gfz2011ovvj  -0.74240
gfz2011owqa  -0.50023
gfz2011paqj  -0.26232
gfz2011pbgh  -5.08660
gfz2011pbjh  -1.07100
gfz2011pcqr  -0.41819
gfz2011pdgq  -0.81506
gfz2011pdsn   2.31490
gfz2011pfls  -0.32520
gfz2011pfwq   0.04093
gfz2011pgzk  -0.21681
gfz2011pimj  -0.71107
gfz2011pivq   0.20661
gfz2011plzc   1.87480
gfz2011pmuv   0.39096
gfz2011poug   1.22540
gfz2011pphc  -1.99800
gfz2011ppsc  -0.38120
gfz2011prrq   0.13919
gfz2011ptgd  -0.64270
gfz2011pulu  -1.20140
gfz2011pwbw  -0.82710
gfz2011pwld  -0.69107
gfz2011qasw  -0.58097
gfz2011qenl  -1.73150
gfz2011qgea  -2.30070
gfz2011qgvh  -0.35078
gfz2011qgvx  -0.88350
gfz2011qidi  -1.39510
gfz2011qklh  -1.23860
gfz2011qlkj  -0.59974
gfz2011qowe  -1.26020
gfz2011qtoy  -1.05530
gfz2011qukj  -0.58302
gfz2011rbuo   0.10158
gfz2011rczb  -0.82291
gfz2011rkau  -0.64620
gfz2011rkzx  -1.05480
gfz2011rnny   0.06477
gfz2011rnsp  -0.04421
gfz2011rplo  -0.40312
gfz2011rpoo  -0.09232
gfz2011rqut  -1.12980
gfz2011scma  -0.38099
gfz2011sdax  -0.42135
gfz2011sdpl  -0.22433
gfz2011sfmu   0.01997
gfz2011sfph   0.14074
gfz2011sqco  -2.13400
gfz2011sskq  -1.72770
gfz2011stzi  -0.11123
gfz2011swfp  -1.82650
gfz2011sxno  -0.84317
gfz2011sylg  -0.88216
gfz2011syvj   0.38067
gfz2011syzr   0.62993
gfz2011szau  -0.17719
gfz2011szbb   1.74040
gfz2011szcj  -0.12307
gfz2011szis  -2.18360
gfz2011taqr  -0.28528
gfz2011tarj   0.77971
gfz2011tdjj  -0.00000
gfz2011tfor  -1.52040
gfz2011tgey  -0.51522
gfz2011tgon  -0.73305
gfz2011tjpv  -0.70032
gfz2011tlwl   1.79900
gfz2011tozo   1.40110
gfz2011tqgg   0.82121
gfz2011tsgl  -0.39506
gfz2011tssv  -0.65966
gfz2011tvuv  -1.12060
gfz2011twpz  -0.26854
gfz2011txdb  -2.21960
gfz2011txxs   0.29822
gfz2011tzcv  -0.11145
gfz2011unud   0.94943
gfz2011uowi   0.11831
gfz2011uqlz  -1.06680
gfz2011uqry   0.65761
gfz2011urwz  -0.59402
gfz2011uvsi  -0.23834
gfz2011vahy  -0.16177
gfz2011vaoi  -0.99859
gfz2011varl   0.49923
gfz2011vbxv  -0.00000
gfz2011vcyx   0.31731
gfz2011vemg  -1.34540
gfz2011vimn  -0.17129
gfz2011vsag   0.33855
gfz2011vswj   0.32374
gfz2011vtdl  -0.45229
gfz2011vtzv  -0.86094
gfz2011vxek   0.08204
gfz2011wbtc  -0.06586
gfz2011wcvs  -2.45060
gfz2011wfsk   0.98945
gfz2011wgoa  -0.38107
gfz2011wgvh  -1.95250
gfz2011wkja   0.23565
gfz2011wkyx  -1.53280
gfz2011wngi  -0.00000
gfz2011wnjg  -0.94805
gfz2011wnvu  -3.52700
gfz2011wpzt  -0.17544
gfz2011wqth   0.94196
gfz2011wqup  -0.74481
gfz2011wtfn  -0.78858
gfz2011wucg  -0.02660
gfz2011wwze  -0.37983
gfz2011wzss  -1.57700
gfz2011xagc   0.04457
gfz2011xawm  -1.81790
gfz2011xdox  -0.38712
gfz2011xgbc  -0.86383
gfz2011xgwy  -0.35912
gfz2011xkka  -0.16707
gfz2011xlod  -0.16589
gfz2011xnui  -0.59625
gfz2011xpcq  -0.33300
gfz2011xwdv  -4.13720
gfz2011xwum  -0.82678
gfz2011xxng  -1.33290
gfz2011yeck  -0.04371
gfz2011yjtx  -0.29189
gfz2011ykbd  -0.69761
gfz2011ymji   0.37137
gfz2011yntu   0.63480
gfz2011ypfh   0.92289
gfz2011yrfa  -0.61221
gfz2011ytob   0.33562
gfz2011ytwk   0.26859
gfz2011ywtj   0.32614
gfz2011zcwn   0.71884
gfz2011zdyf  -1.47480
gfz2011zghc  -0.96984
gfz2011zgxn  -0.41729
gfz2011zhih  -1.88140
gfz2011ziyk   0.22527
gfz2011zkbt  -0.82593
gfz2011zlga  -2.37800
gfz2012adja   0.45307
gfz2012ahac  -0.03642
gfz2012ahkl  -0.90565
gfz2012aioo  -0.68824
gfz2012alti  -0.78100
gfz2012amjx   0.69090
gfz2012amvs  -0.20200
gfz2012aqpa  -0.70073
gfz2012arlo  -1.97630
gfz2012asin  -0.92914
gfz2012asld  -0.85413
gfz2012atjr  -1.17630
gfz2012auqr  -1.57150
gfz2012avvc  -0.61319
gfz2012axrp  -0.94879
gfz2012bcvn  -0.72465
gfz2012beae  -0.27081
gfz2012bity  -0.00598
gfz2012bjhl  -0.04772
gfz2012bnwa   0.12767
gfz2012bolx   0.60554
gfz2012bovy  -0.09788
gfz2012bqcf   0.43778
gfz2012btbq   1.12550
gfz2012byrq   0.50707
gfz2012bysu   0.46062
gfz2012bytv   1.05870
gfz2012byuk   1.27350
gfz2012cdju   0.22007
gfz2012cfdw   0.52984
gfz2012cksh  -1.50090
gfz2012cmww   0.65200
gfz2012cntu  -0.37560
gfz2012crpb  -0.00000
gfz2012cvfr  -0.26884
gfz2012cwhl   0.38372
gfz2012cxhw  -1.63360
gfz2012czvh  -0.72509
gfz2012dbgt  -2.20750
gfz2012dcjd   0.12932
gfz2012dejg  -0.96927
gfz2012dgfk  -0.05500
gfz2012dkdy  -1.37640
gfz2012dleg  -4.12710
gfz2012dluf  -0.36300
gfz2012dnig  -0.46707
gfz2012dpem  -0.22732
gfz2012dpnu  -0.78371
gfz2012dpwv  -1.74270
gfz2012drak  -0.65546
gfz2012drld  -0.30018
gfz2012drqd  -1.32530
gfz2012dsei  -2.05790
gfz2012dtdt   0.33971
gfz2012dtlu   0.40298
gfz2012dttl  -0.21333
gfz2012dtvr  -0.27504
gfz2012dugf  -0.73926
gfz2012duvf  -0.69774
gfz2012dwwu  -0.46943
gfz2012dyck  -0.08811
gfz2012dyfw  -0.80938
gfz2012dysj   0.03443
gfz2012dysu   0.23887
gfz2012dyua  -0.36543
gfz2012dzen   0.11085
gfz2012dzjo  -1.67820
gfz2012dzoh  -0.59214
gfz2012dzot  -1.00710
gfz2012dzou   2.54610
gfz2012eajr  -1.86950
gfz2012ebff  -0.62554
gfz2012ebgo  -1.11550
gfz2012ebhf  -0.10627
gfz2012ebrr  -0.91371
gfz2012eeft   0.41711
gfz2012ekfp  -1.09680
gfz2012ekro   0.31226
gfz2012elek  -0.57573
gfz2012emin  -1.10450
gfz2012enio   0.47992
gfz2012enrg  -0.57888
gfz2012erds  -0.77415
gfz2012evav  -0.05287
gfz2012evxn  -0.23905
gfz2012eyti   0.42471
gfz2012facv  -0.03712
gfz2012fbgz  -0.67429
gfz2012fcyq  -1.14850
gfz2012fcyr  -1.12700
gfz2012fhaf  -0.46902
gfz2012fiiz   0.33906
gfz2012fjiu   1.53860
gfz2012flqf   0.43948
gfz2012foih   1.45130
gfz2012fpyo   0.07179
gfz2012ftcq  -0.11175
gfz2012ftks  -0.03164
gfz2012fuyd  -0.62812
gfz2012fyny  -0.70576
gfz2012fyop  -0.95750
gfz2012gbrs  -0.48759
gfz2012gczh   0.73969
gfz2012gdye  -0.50817
gfz2012gftg   0.25751
gfz2012ghiv  -0.27959
gfz2012ghyd  -4.63080
gfz2012gjdg  -0.39330
gfz2012gjtd  -1.19770
gfz2012gmsr  -2.09570
gfz2012gnow  -0.33964
gfz2012gpcd  -0.22031
gfz2012grmf   0.29225
gfz2012gubu  -0.82359
gfz2012gvxc  -1.03290
gfz2012gzuk  -1.79110
gfz2012hdny  -1.16400
gfz2012heih  -0.35377
gfz2012hhlx  -1.39300
gfz2012hkxs  -0.49875
gfz2012hlya  -0.61557
gfz2012hmcv  -0.22739
gfz2012hnyy  -1.54130
gfz2012hqlo   0.26795
gfz2012hvfw  -0.29403
gfz2012hvjc   1.96310
gfz2012hvtu  -0.52780
gfz2012hwph  -0.79720
gfz2012hyba  -1.24640
gfz2012hyqh  -1.02440
gfz2012hysb  -2.43070
gfz2012hzhn  -0.23743
gfz2012hzur   0.50905
gfz2012iabn  -0.48893
gfz2012iblo   0.40519
gfz2012ibyd  -0.14403
gfz2012icjo  -1.30650
gfz2012idxu  -1.23950
gfz2012iedy  -1.12360
gfz2012ieln  -0.14515
gfz2012iijk  -1.19510
gfz2012ikke  -1.25330
gfz2012imuo  -0.59745
gfz2012inns  -1.14680
gfz2012iotw   1.57370
gfz2012ipdc   0.35397
gfz2012iroy  -0.49521
gfz2012ivyg  -2.31310
gfz2012iyhs  -0.33383
gfz2012iyoi  -1.54070
gfz2012izke  -1.77670
gfz2012jaun  -2.20480
gfz2012jawj  -0.52354
gfz2012jbzr   0.09724
gfz2012jetp  -0.00000
gfz2012jksz  -0.71692
gfz2012jlez  -1.52870
gfz2012jqxx  -0.98148
gfz2012juem   0.31026
gfz2012jxnm   0.11514
gfz2012jxxe  -0.75791
gfz2012kadi   0.27021
gfz2012kbub   2.70680
gfz2012klpl  -0.11902
gfz2012kmbo  -1.16510
gfz2012kmmz  -0.67774
gfz2012kqjb  -0.31792
gfz2012kstg  -0.61942
gfz2012kvlx  -2.93090
gfz2012kwmx   0.46401
gfz2012lcro  -1.90500
gfz2012ldjj  -1.15440
gfz2012lngq  -2.05720
gfz2012lops  -0.59947
gfz2012lqhw  -0.20574
gfz2012luzm   0.26917
gfz2012lvlr  -0.98239
gfz2012lwha  -1.76390
gfz2012lyqs  -2.97470
gfz2012lyyr  -0.87832
gfz2012mcrb  -0.74663
gfz2012mdzf  -0.87020
gfz2012mekv  -1.63710
gfz2012mhik  -0.77365
gfz2012mjuu   0.34243
gfz2012mjzl  -0.62102
gfz2012mmiw  -0.28887
gfz2012mnth  -1.46100
gfz2012mout   1.17400
gfz2012movu  -2.35530
gfz2012movv  -0.65312
gfz2012mowv   0.05382
gfz2012mpzo   0.28027
gfz2012mrqk   0.29496
gfz2012mrwu  -0.04818
gfz2012mtyn   0.51852
gfz2012mvgu  -0.38994
gfz2012mwhe  -0.78801
gfz2012mxdk   0.37999
gfz2012mxvk  -0.44262
gfz2012mzco  -0.57966
gfz2012mzqx   0.53283
gfz2012ndsk  -1.11970
gfz2012ndwt  -0.50690
gfz2012nfos  -0.00011
gfz2012nfzc  -0.50719
gfz2012nldz   0.48745
gfz2012nlrb  -0.49888
gfz2012nmja   0.08539
gfz2012nnck  -0.46931
gfz2012nnqu   0.18298
gfz2012nnsl  -0.31555
gfz2012nqvd  -0.23891
gfz2012nsxc  -0.82057
gfz2012oafg  -0.61345
gfz2012oehy  -0.03720
gfz2012ofaj  -0.63623
gfz2012ofnx   0.71404
gfz2012ogqu   0.23002
gfz2012ogwe  -0.16521
gfz2012ohgd  -0.09046
gfz2012oieq  -1.01800
gfz2012oiez  -1.45950
gfz2012ojfv  -1.33830
gfz2012ojmv  -0.13502
gfz2012onhu  -0.76114
gfz2012oork  -0.85388
gfz2012oozp  -0.87600
gfz2012ormy   0.27032
gfz2012oxnh  -0.82495
gfz2012oyja   0.40124
gfz2012pcui  -1.95800
gfz2012pdav  -0.82249
gfz2012pdfi  -1.10050
gfz2012pdjt  -0.34618
gfz2012pekf  -0.81215
gfz2012pgmw   0.56084
gfz2012phns  -0.26844
gfz2012pifb  -0.87326
gfz2012pira  -0.34479
gfz2012pmuj   0.58084
gfz2012pmuq  -0.91539
gfz2012pmws  -1.04190
gfz2012pokk   0.37453
gfz2012ppcq  -0.19331
gfz2012prke   0.00000
gfz2012pryl   0.26573
gfz2012pumy  -0.56226
gfz2012pvve  -0.11255
gfz2012qfah   0.25273
gfz2012qfov  -2.46080
gfz2012qhqp  -2.86010
gfz2012qibe  -1.01850
gfz2012qllj  -2.14260
gfz2012qmhz  -2.17740
gfz2012qoev  -1.18150
gfz2012rduv   0.14125
gfz2012rfhw  -2.44830
gfz2012rjlp   2.22220
gfz2012rknz  -0.81854
gfz2012rmvx  -0.13392
gfz2012rnbw  -1.41210
gfz2012rnyn  -0.14679
gfz2012roan  -0.61311
gfz2012rslf   0.00000
gfz2012rugl  -0.84196
gfz2012rzwp  -0.33750
gfz2012sbix  -0.12745
gfz2012sfao  -0.12394
gfz2012sgfd  -1.30970
gfz2012sjdy   0.30108
gfz2012sjox  -0.65849
gfz2012slfd  -0.02132
gfz2012smyn  -1.55750
gfz2012socz  -0.57850
gfz2012sopp  -0.29348
gfz2012sqsc  -2.16810
gfz2012ssnb  -1.74300
gfz2012ssvn   0.42801
gfz2012stxx  -0.16776
gfz2012suqd  -2.02850
gfz2012svwz  -0.87098
gfz2012swbz   0.05643
gfz2012sxbo  -1.89710
gfz2012sxpr  -2.66070
gfz2012sxzs  -0.16206
gfz2012syum  -0.92589
gfz2012taph  -0.58828
gfz2012tgta  -0.25174
gfz2012thyh  -0.47278
gfz2012tisj  -1.17340
gfz2012tjih  -3.21440
gfz2012tjwg  -4.36330
gfz2012touh   0.21408
gfz2012tqjc  -0.12977
gfz2012trfq  -0.55320
gfz2012trss  -1.15770
gfz2012tsdz  -2.29760
gfz2012ttnf  -0.01866
gfz2012tvgw  -0.46964
gfz2012twec   0.23867
gfz2012tyoz   0.31309
gfz2012udeo  -1.92410
gfz2012udxg  -3.13640
gfz2012uegq  -1.59190
gfz2012uhsx  -0.86396
gfz2012uhtc  -0.44781
gfz2012ukzg  -0.25874
gfz2012ulei  -1.33230
gfz2012umob   0.09653
gfz2012unxc  -0.68815
gfz2012uovh  -0.46986
gfz2012urtu   2.02870
gfz2012utdu  -0.69571
gfz2012uvea  -1.02620
gfz2012uvoa  -0.12947
gfz2012uwne  -0.19142
gfz2012uzuu   0.06166
gfz2012uzww  -0.40832
gfz2012vaqd  -0.50560
gfz2012vcqw  -0.22580
gfz2012vdra   0.73956
gfz2012vdsl   0.00000
gfz2012vgot  -0.11515
gfz2012vile  -1.46840
gfz2012vioy   0.39703
gfz2012vitw  -0.14996
gfz2012vkjw   0.32797
gfz2012vlzv  -0.79491
gfz2012vqjw  -0.28428
gfz2012vqmq  -0.19417
gfz2012vrqz   0.06718
gfz2012vurc   0.41325
gfz2012vzkm  -1.72610
gfz2012wbeu  -1.29010
gfz2012wdvt  -0.25687
gfz2012wdxk  -0.10397
gfz2012wgdv  -0.03047
gfz2012wgmg  -0.44363
gfz2012wgxf  -0.27850
gfz2012wiyv  -3.09560
gfz2012wjpf  -2.70710
gfz2012wjsi  -0.23755
gfz2012wjxc  -1.21130
gfz2012wkki  -0.66179
gfz2012wmmw  -0.74460
gfz2012wowu  -2.23410
gfz2012woxj  -0.59010
gfz2012wpen  -0.25908
gfz2012wqfz  -1.08210
gfz2012wugc   0.11602
gfz2012wysg  -0.25343
gfz2012wzja   0.12750
gfz2012xask  -0.35789
gfz2012xbna  -0.68934
gfz2012xcsf   0.02134
gfz2012xfnu  -0.93004
gfz2012xfsk   0.12938
gfz2012xfsl  -0.06290
gfz2012xjgb   0.78629
gfz2012xkln  -0.67710
gfz2012xkvu  -0.00053
gfz2012xlas   0.79809
gfz2012xlfo  -0.86167
gfz2012xncm  -1.70200
gfz2012xqxw  -2.45860
gfz2012xrmq  -0.84186
gfz2012xtvu  -0.29356
gfz2012xwgb  -1.23440
gfz2012xwkx   0.64431
gfz2012xxdj  -0.40006
gfz2012yegw  -1.27770
gfz2012yihn   0.08266
gfz2012ylai  -0.48014
gfz2012yncm  -0.85309
gfz2012yvwc   0.29080
gfz2012ywei   0.28752
gfz2012yygz  -2.44730
gfz2012yytb  -2.84420
gfz2012yzih  -0.16818
gfz2012zhyz  -0.70776
gfz2012zido  -0.03538
gfz2012zkhu  -2.49220
gfz2012zktj   0.88127
gfz2012zmdf   1.13320
gfz2012zmfc   0.09388
gfz2012znou   0.30863
gfz2012zqis  -0.63596
gfz2013aclz  -1.64430
gfz2013adih  -0.19667
gfz2013afzh  -0.31117
gfz2013agbm   0.71128
gfz2013aggr   2.31000
gfz2013agmt  -1.30530
gfz2013ajxz  -0.13695
gfz2013akkd  -0.07007
gfz2013ascz  -0.56589
gfz2013atak  -1.19080
gfz2013atec   0.26590
gfz2013aymi  -0.29191
gfz2013bdvi  -2.21650
gfz2013bgyg  -2.61910
gfz2013bqfc  -0.04031
gfz2013bwgw  -1.35010
gfz2013byyy   0.01233
gfz2013ccng   0.59995
gfz2013cfls  -0.53257
gfz2013cinv  -0.07050
gfz2013ciof  -0.22778
gfz2013cqak   0.31493
gfz2013cqee  -1.50280
gfz2013cvve  -1.31400
gfz2013cyvx  -0.42169
gfz2013ddrx  -1.13130
gfz2013delq  -0.64036
gfz2013dftb   0.11522
gfz2013dfvx   1.31270
gfz2013djfi  -0.43505
gfz2013dksc  -0.64705
gfz2013dmzh  -0.53727
gfz2013dngd  -1.07790
gfz2013dnot   0.12587
gfz2013dwsp  -1.43130
gfz2013dznt  -2.93850
gfz2013dzvr  -0.57707
gfz2013eavq   0.16886
gfz2013eazm  -0.04135
gfz2013efct  -0.25167
gfz2013efys  -0.41571
gfz2013egfv  -3.74560
gfz2013eidd   0.26896
gfz2013ektd  -0.42311
gfz2013enga  -0.59161
gfz2013enqo  -0.27485
gfz2013enrh  -0.49251
gfz2013esef  -2.49520
gfz2013evcl   0.27669
gfz2013ewht  -0.44165
gfz2013exow   1.96690
gfz2013eyyo  -1.35540
gfz2013ezmc  -0.55707
gfz2013ffjt  -0.50727
gfz2013fhzy  -0.87396
gfz2013fmcd  -0.06558
gfz2013fmcp  -0.65936
gfz2013fndg   0.17972
gfz2013fnpa  -0.28607
gfz2013foto  -0.56662
gfz2013frxd   0.87032
gfz2013fskp   0.45219
gfz2013fthi  -0.06568
gfz2013fulo   0.08889
gfz2013fvht  -0.18244
gfz2013fvyr  -1.42170
gfz2013fvzv  -0.34130
gfz2013fwbm  -2.75090
gfz2013fxyr   0.56852
gfz2013fybd   0.56797
gfz2013gaqx  -0.84717
gfz2013gbki  -0.54162
gfz2013gbma   0.91511
gfz2013gglk   2.23700
gfz2013gjmk  -0.00000
gfz2013gkcx   0.21873
gfz2013gkyn   0.44796
gfz2013glkq   1.43300
gfz2013glpz   1.07050
gfz2013gomv   0.21281
gfz2013grle  -2.19580
gfz2013gugi  -0.59562
gfz2013gurk   0.20161
gfz2013gxye  -0.09378
gfz2013gyce   0.13497
gfz2013gywl   0.77937
gfz2013havw  -0.23562
gfz2013hbmi  -0.47395
gfz2013hbtm   0.19165
gfz2013hbwy  -7.09860
gfz2013hdbp  -2.20000
gfz2013hduf  -0.48614
gfz2013hiam   0.09810
gfz2013hinw   1.30620
gfz2013hjtt  -1.54890
gfz2013hqaa  -0.54754
gfz2013hvkg  -0.70807
gfz2013hvzv  -0.08314
gfz2013hwps  -0.13663
gfz2013icgx  -0.00666
gfz2013icql   0.62009
gfz2013idqu  -0.46266
gfz2013ikic  -0.26012
gfz2013irme  -0.18054
gfz2013isqh  -0.08905
gfz2013iuyv   1.11850
gfz2013ivvw  -0.59368
gfz2013iwhc   0.44165
gfz2013iwzn  -0.48936
gfz2013iybg  -0.05237
gfz2013jcnn  -0.55992
gfz2013jdwo  -2.03560
gfz2013jfcn  -0.13186
gfz2013jhog   0.17989
gfz2013jjae  -1.18540
gfz2013jjfw  -1.07270
gfz2013jkqn  -1.90760
gfz2013jlli  -0.49073
gfz2013jobl   0.38337
gfz2013jpir  -0.74054
gfz2013jrqf   0.13140
gfz2013jtsg  -1.45710
gfz2013jzcf   0.38145
gfz2013kats   0.05071
gfz2013kbbn  -1.04100
gfz2013kbkp   0.20360
gfz2013kcdb  -1.73450
gfz2013kdfy  -0.98822
gfz2013kjgh  -0.58560
gfz2013kpes   1.18160
gfz2013kqab  -0.87762
gfz2013kruh  -0.81567
gfz2013ksaz   0.19480
gfz2013kslp   0.02672
gfz2013kuno   1.54630
gfz2013kxlr   0.11105
gfz2013lbod  -0.04921
gfz2013lbvl   0.41872
gfz2013lcrk  -1.07700
gfz2013lgvf   0.20451
gfz2013ljdu   0.18363
gfz2013ljwt  -0.02385
gfz2013lnne  -3.09150
gfz2013lnts   0.56014
gfz2013lqjj   0.03837
gfz2013lxed   0.32378
gfz2013lxnd  -3.02650
gfz2013mbna   0.18287
gfz2013mdxj  -0.10413
gfz2013mimp   0.24687
gfz2013mktp  -0.74319
gfz2013mnux  -2.14510
gfz2013msmy   0.03764
gfz2013muqm  -0.54323
gfz2013mvgq  -0.95966
gfz2013mynb  -0.41486
gfz2013mzaw  -0.20559
gfz2013nhkw  -3.74170
gfz2013njck  -0.17691
gfz2013njwj   1.60170
gfz2013nkgd   1.95100
gfz2013nkgt   1.41940
gfz2013nnai   0.19045
gfz2013noqf  -0.22516
gfz2013ntfc   0.36683
gfz2013ntiu  -2.59010
gfz2013oeni   0.00000
gfz2013ohdt  -0.06658
gfz2013ohnj  -0.34272
gfz2013oizq  -0.53551
gfz2013ojza   0.06523
gfz2013okac  -0.04032
gfz2013okxa  -0.03996
gfz2013olos   2.14320
gfz2013onvl  -0.39303
gfz2013opkx  -1.53250
gfz2013orot  -0.39281
gfz2013ortl   0.17235
gfz2013oruq  -0.37886
gfz2013osmj  -0.32833
gfz2013otuj  -0.30891
gfz2013otxp  -1.17070
gfz2013oywh  -1.55820
gfz2013pegj  -0.85458
gfz2013phhi  -0.56187
gfz2013phly   1.78600
gfz2013pizm  -0.00000
gfz2013pkmz  -0.79782
gfz2013pqkp  -0.38661
gfz2013puiy  -0.08309
gfz2013pvsa  -1.44340
gfz2013pwsm  -1.13580
gfz2013pzdr  -0.99657
gfz2013qaov  -1.23940
gfz2013qapj  -0.06132
gfz2013qboo  -0.12741
gfz2013qdks  -0.14594
gfz2013qdno  -0.06669
gfz2013qdpv   0.13956
gfz2013qdzg  -1.04550
gfz2013qear   0.00577
gfz2013qigb   0.47807
gfz2013qmkt  -1.11450
gfz2013qnqr   0.02977
gfz2013qntl  -0.20275
gfz2013qoak  -1.17110
gfz2013qogb  -0.18954
gfz2013qqyo  -0.48825
gfz2013quwz  -0.33639
gfz2013quyn   0.38285
gfz2013qwnm   0.33409
gfz2013qxof   0.06898
gfz2013rdmn   0.00000
gfz2013rfik  -0.15806
gfz2013rgcc  -0.15446
gfz2013rhbx  -0.40920
gfz2013rhxf  -0.79970
gfz2013rnsa   0.08168
gfz2013rocs  -0.43847
gfz2013rsyt  -1.14640
gfz2013rtvy   0.43228
gfz2013rwkj  -0.03406
gfz2013ryfc  -0.01333
gfz2013ryph   0.48200
gfz2013sbsl   0.12439
gfz2013sbsp  -0.59779
gfz2013sdkg   0.22250
gfz2013sdym  -0.10133
gfz2013skay  -0.50405
gfz2013skvq  -0.15462
gfz2013stou  -0.01739
gfz2013stup  -1.56580
gfz2013swnj  -0.15594
gfz2013syqv  -2.07840
gfz2013taeb  -1.63700
gfz2013tcju   0.31103
gfz2013tdsx  -0.92606
gfz2013tekq   0.05706
gfz2013tert  -0.83900
gfz2013tgia   0.73960
gfz2013tgyb  -0.17025
gfz2013timw  -0.94755
gfz2013tjub   1.09530
gfz2013tkcg   0.51333
gfz2013tmyj   0.17488
gfz2013tnff  -0.30130
gfz2013tnrp  -0.12539
gfz2013tpwl  -3.71300
gfz2013trsq   0.09519
gfz2013twbc   0.48394
gfz2013uafv  -0.15958
gfz2013ubgt   0.60199
gfz2013udtw   0.09593
gfz2013uenl  -0.26759
gfz2013uepl  -0.23833
gfz2013uhio  -1.85330
gfz2013ummt  -3.52280
gfz2013unuv   0.24773
gfz2013urla  -1.07920
gfz2013utqa  -0.02596
gfz2013uugc   0.18043
gfz2013uwjo  -1.06730
gfz2013uwxi   0.15874
gfz2013uxzw  -1.58100
gfz2013uzmf  -0.23231
gfz2013vcgd  -0.66673
gfz2013vdam  -0.05002
gfz2013veoz   1.10800
gfz2013veug  -0.54221
gfz2013vfix  -0.78108
gfz2013vgfb  -0.45607
gfz2013vjrr  -0.69390
gfz2013vjsz   1.01200
gfz2013vldx  -0.54730
gfz2013vmrv  -0.89979
gfz2013vmsg  -2.35770
gfz2013vmsn  -1.54330
gfz2013vnwa  -1.23090
gfz2013voai  -0.10891
gfz2013vojy  -0.21737
gfz2013vsdd  -1.07380
gfz2013vvre  -0.38143
gfz2013vwkh   0.01220
gfz2013vxht  -0.45249
gfz2013vzel   0.99011
gfz2013vzet   0.73100
gfz2013wegs  -1.43380
gfz2013wgwz  -1.09840
gfz2013wigs  -0.06540
gfz2013wpns   0.32064
gfz2013wwee  -0.27524
gfz2013wyfl  -1.05610
gfz2013wyho  -3.37250
gfz2013xacx  -0.02167
gfz2013xahp  -0.53511
gfz2013xbdc   0.11604
gfz2013xjmo  -0.14849
gfz2013xjmy  -2.94850
gfz2013xlic   0.17784
gfz2013xmzw  -1.43850
gfz2013xodn  -0.19976
gfz2013xofz  -0.40937
gfz2013xswc  -0.21865
gfz2013xupg  -0.81049
gfz2013xvps   0.21315
gfz2013xxbf  -0.74066
gfz2013xycz  -0.22392
gfz2013xzxe  -0.32765
gfz2013yapz   2.09460
gfz2013yawe  -2.00680
gfz2013yfwz  -2.09970
gfz2013ygsj  -0.63781
gfz2013yihv  -1.33470
gfz2013ykqw  -1.48440
gfz2013yktj  -0.02570
gfz2013ylxm  -0.85250
gfz2013ymhx  -0.61043
gfz2013yodm  -0.58004
gfz2013yqkz   0.26605
gfz2013yqtu  -0.13395
gfz2013ytfm  -0.36807
gfz2013ytmi   1.30470
gfz2013yvnj  -0.55881
gfz2013yvpn  -0.50528
gfz2013yxhf   0.28006
gfz2013yxif  -0.41593
gfz2013yywh  -0.31791
gfz2013zbfb   0.47266
gfz2013zedt  -0.11664
gfz2013zeye  -0.81235
gfz2013zfbz  -0.58961
gfz2013zghn  -1.48660
gfz2013ziix   0.02187
gfz2013zkgm  -0.90485
gfz2013zkzb  -0.86744
gfz2013zlak  -1.14760
gfz2013zlij  -1.93320
gfz2013zpse  -2.38410
gfz2013zpwk  -0.20183
gfz2013zqan  -0.73019
gfz2014aapq  -0.54108
gfz2014aedl  -0.16703
gfz2014aejh  -0.38701
gfz2014afbt  -1.69190
gfz2014ajgi  -0.60623
gfz2014aluc   1.18170
gfz2014alzg  -1.02460
gfz2014amgk  -0.21906
gfz2014amsy  -3.19940
gfz2014aqax  -1.05650
gfz2014aqop  -0.87714
gfz2014arox  -1.26550
gfz2014ascp   0.48230
gfz2014avag   0.68303
gfz2014avmd  -1.01770
gfz2014avzp   0.22985
gfz2014ayxf  -2.20840
gfz2014azfu   0.22584
gfz2014bdju  -1.92660
gfz2014befl  -0.20524
gfz2014bfjb  -0.72314
gfz2014bgxe   0.40780
gfz2014bgyv   0.97268
gfz2014bhch  -2.01090
gfz2014bkra  -1.58450
gfz2014bmch  -0.25375
gfz2014bmdf  -2.40150
gfz2014bmqw  -0.57575
gfz2014bnea   0.30889
gfz2014bppg   0.09971
gfz2014bqpm  -0.28018
gfz2014brkk  -0.99216
gfz2014bumr   0.48658
gfz2014buyz  -1.02120
gfz2014bycg  -0.48236
gfz2014byes  -0.06395
gfz2014bzus  -0.04957
gfz2014cbfo  -0.04144
gfz2014cgoi   0.24630
gfz2014cjao  -0.05071
gfz2014ckqv  -0.57772
gfz2014club  -0.27392
gfz2014cncl  -1.14000
gfz2014cokw  -0.03637
gfz2014crac   0.55192
gfz2014ctdl  -0.54699
gfz2014cvnb  -0.56367
gfz2014cwti   0.40305
gfz2014dbmu  -0.83372
gfz2014dbqi  -0.99693
gfz2014dece   0.15551
gfz2014dggw  -0.26398
gfz2014dihl  -0.06732
gfz2014djhi   0.42183
gfz2014djyj  -0.32422
gfz2014dmrw   0.17600
gfz2014dpny  -0.05631
gfz2014dpps  -0.28043
gfz2014dsqr  -0.87514
gfz2014dtth  -0.82242
gfz2014dtto   0.29016
gfz2014dudd  -0.41650
gfz2014dutu  -0.66261
gfz2014dwcp   0.12214
gfz2014dykt  -0.90912
gfz2014ecor  -2.38240
gfz2014edjm  -0.24665
gfz2014edmd  -0.01754
gfz2014eflc   0.81458
gfz2014egvg  -0.48911
gfz2014eiav   0.07948
gfz2014eirs  -0.18286
gfz2014ejfx  -0.83901
gfz2014emlw  -0.63936
gfz2014eoay  -0.18211
gfz2014epfm  -0.40432
gfz2014epnq   0.86732
gfz2014epue   0.44308
gfz2014esez   0.43457
gfz2014etgp  -0.47239
gfz2014etqu  -0.75924
gfz2014eunw   0.27195
gfz2014evgu   0.52015
gfz2014evhm  -0.29931
gfz2014exxj   0.76838
gfz2014eyne   0.35709
gfz2014ezjq  -1.36890
gfz2014ezvd   0.68728
gfz2014faex   0.20509
gfz2014fbef  -0.01986
gfz2014fbli  -0.09887
gfz2014fbnr  -1.63110
gfz2014fhki  -0.15062
gfz2014fjfz  -0.07603
gfz2014flxk   1.85020
gfz2014fmdc  -2.70760
gfz2014fqas  -0.03545
gfz2014fsir  -0.24156
gfz2014fsje   0.26648
gfz2014fskh   0.11198
gfz2014fsvc  -0.25582
gfz2014fvza  -0.17431
gfz2014fwuf  -1.17400
gfz2014fwxt   0.93210
gfz2014fxim  -0.78220
gfz2014fxte   0.57939
gfz2014fxtv   0.08960
gfz2014fxuy  -0.02734
gfz2014gasb  -0.09465
gfz2014gbxg  -1.47670
gfz2014gcgf   2.11090
gfz2014gcia   0.08711
gfz2014gdbh  -0.86362
gfz2014geln  -0.04289
gfz2014ggie   0.22166
gfz2014ginr   0.26494
gfz2014gjfd   0.02193
gfz2014gnbw  -0.38204
gfz2014gpnr   1.19340
gfz2014gqxg  -1.46750
gfz2014grwv   0.26487
gfz2014gsfc  -0.48291
gfz2014gtee  -0.59777
gfz2014gtoj   0.83533
gfz2014gutd  -1.81720
gfz2014gypw  -1.37490
gfz2014gzlm  -0.54972
gfz2014hapg  -1.64420
gfz2014happ  -1.15430
gfz2014herz   0.31746
gfz2014hgjb  -0.52248
gfz2014hhey  -0.49500
gfz2014hhis  -0.28390
gfz2014hjmc  -1.59660
gfz2014hkcw  -1.20930
gfz2014hotu  -0.67111
gfz2014hqhv  -0.48517
gfz2014huah  -2.69910
gfz2014hyea   0.01218
gfz2014hzzf  -0.04302
gfz2014iayo  -0.27432
gfz2014icov  -1.13140
gfz2014igrp  -0.54138
gfz2014ijsa  -0.42871
gfz2014ikvw  -0.81488
gfz2014iltl   0.65421
gfz2014imqh   0.66634
gfz2014ined  -0.33268
gfz2014inrg  -0.39899
gfz2014iolv  -1.26580
gfz2014ipfu  -0.38244
gfz2014ipwk  -1.46960
gfz2014irlf   0.16310
gfz2014irln   0.37403
gfz2014irly   0.38995
gfz2014isjg  -0.04715
gfz2014isov  -0.05912
gfz2014itlx  -0.60223
gfz2014iusw  -0.16102
gfz2014ivgm  -0.48994
gfz2014ixlc  -0.28331
gfz2014iyuc  -0.03627
gfz2014jarg  -0.54364
gfz2014jaxy   0.89297
gfz2014jayh   0.08914
gfz2014jbfp  -0.72061
gfz2014jbgm  -1.09040
gfz2014jckg  -0.89363
gfz2014jffe  -1.97840
gfz2014jfmc  -0.63529
