# Nsamples: 248  MAD:  0.382  mean:  1.078  std:  0.724
gfz2010dask   0.44333
gfz2010djib   1.25380
gfz2010drit   1.72400
gfz2010dwgy   1.30730
gfz2010fgbo   1.69150
gfz2010fjme   2.36060
gfz2010habf   1.00270
gfz2010hxan   1.42340
gfz2010iaay   2.60190
gfz2010ifhd   0.27650
gfz2010izag   1.59180
gfz2010jlvp   0.83446
gfz2010mdti   1.30220
gfz2010oguu   1.23540
gfz2010pclq   2.46100
gfz2010qrta   1.27050
gfz2010rkuu   2.25420
gfz2010rljv   1.13880
gfz2010sdfs   1.13900
gfz2010tmba   1.14470
gfz2010vong   0.90908
gfz2010ytzb   0.51860
gfz2010zjun   0.85149
gfz2011ahvh   1.23050
gfz2011aqpp   0.66696
gfz2011bpqm   0.79241
gfz2011bsvr   0.03684
gfz2011bygu   0.52198
gfz2011cdge   3.25440
gfz2011dabj   0.74538
gfz2011dhfg   0.99260
gfz2011dpyu   0.82052
gfz2011gnbk   1.20420
gfz2011gpyr   1.10600
gfz2011haaa   2.49350
gfz2011hjof   0.94775
gfz2011hyct   1.90070
gfz2011kfch   2.02330
gfz2011kjzt   0.59345
gfz2011kjzv   0.18989
gfz2011kujo   0.35217
gfz2011kylu  -0.87418
gfz2011lmug   1.15900
gfz2011mjje   1.55880
gfz2011ndhh   1.94930
gfz2011nfcz   0.37658
gfz2011nhby   0.80098
gfz2011nijp  -0.17722
gfz2011oadm   1.28630
gfz2011ofpj   0.80266
gfz2011ohgj   1.25420
gfz2011oslk   1.20730
gfz2011owqa   1.77800
gfz2011paqj  -1.37860
gfz2011pfls   0.83756
gfz2011pgzk   1.08040
gfz2011pivq   1.08810
gfz2011ppsc   1.96250
gfz2011qenl   0.66236
gfz2011qukj   3.83660
gfz2011sdax   1.39940
gfz2011taqr  -0.88016
gfz2011tqgg  -1.31270
gfz2011tsgl   0.71503
gfz2011tvuv   0.36658
gfz2011uqlz   0.51596
gfz2011uqry   0.40433
gfz2011vahy   1.09880
gfz2011wngi   1.25190
gfz2011wqup   0.94200
gfz2011wwze   1.16400
gfz2011wzss   1.33340
gfz2011yexx   1.19350
gfz2011zghc   1.58330
gfz2012ahac   0.72813
gfz2012amvs   1.01250
gfz2012bity   0.72820
gfz2012bovy   0.88709
gfz2012bqcf   0.93003
gfz2012cdju   1.18450
gfz2012cksh   1.12150
gfz2012cvfr   1.09320
gfz2012dpnu   1.69540
gfz2012dyck   0.77260
gfz2012ekfp   0.01455
gfz2012elek   0.81833
gfz2012flqf   1.25810
gfz2012fyny   1.60640
gfz2012gdye   0.02017
gfz2012gnow   1.09510
gfz2012klpl   2.19120
gfz2012kmbo   0.22114
gfz2012kmmz   1.29680
gfz2012kstg   1.66480
gfz2012ldjj   2.07980
gfz2012lyyr   0.79832
gfz2012mdzf   0.74120
gfz2012mmiw   1.04310
gfz2012mrqk   0.28110
gfz2012mvgu   0.98991
gfz2012nfos   2.11970
gfz2012oafg   1.37920
gfz2012oehy   0.96270
gfz2012ofnx   1.43180
gfz2012pgmw   1.24330
gfz2012phns   1.53260
gfz2012pmuj   5.01520
gfz2012pumy   0.89335
gfz2012pvve   0.89975
gfz2012qfah   0.78128
gfz2012suqd   1.28670
gfz2012tisj   2.27920
gfz2012trss   1.66030
gfz2012ttnf   1.21020
gfz2012twec   1.11980
gfz2012uvoa   0.74503
gfz2012uzww   1.41440
gfz2012vlzv   1.35410
gfz2012wgmg   2.67390
gfz2012wmmw   0.89197
gfz2012wysg   1.20350
gfz2012xfsl   0.51320
gfz2012xxdj   0.88938
gfz2012yegw   1.85560
gfz2012zhyz   0.93635
gfz2013aggr   0.40972
gfz2013byyy   1.03560
gfz2013cinv   1.17560
gfz2013cvve   0.41972
gfz2013cyvx   1.12910
gfz2013delq   0.31406
gfz2013dftb   1.06750
gfz2013dnot   1.20430
gfz2013eavq   1.12890
gfz2013eidd   0.89237
gfz2013fnpa   0.94136
gfz2013fulo   1.10830
gfz2013gkyn   1.57970
gfz2013gurk   1.30770
gfz2013gxye   1.50960
gfz2013gyce  -0.29376
gfz2013hbmi   0.78348
gfz2013hbtm   1.76720
gfz2013hdbp  -3.00820
gfz2013hqaa   0.99110
gfz2013icgx   0.83723
gfz2013icql   1.15160
gfz2013iuyv   0.75539
gfz2013jfcn   1.24340
gfz2013jobl   1.31500
gfz2013jzcf   1.96320
gfz2013kats   0.84259
gfz2013kcdb   1.07390
gfz2013kslp   1.59470
gfz2013lbvl   1.09830
gfz2013ljdu   1.24300
gfz2013lvxe   0.99428
gfz2013mdxj   1.20840
gfz2013mimp   1.05890
gfz2013mvgq   2.09490
gfz2013mzaw   0.88317
gfz2013nnai  -0.40193
gfz2013oeni   0.79640
gfz2013ohnj   1.17730
gfz2013oizq   1.63690
gfz2013okac   0.92270
gfz2013okxa   1.52920
gfz2013oruq   1.08130
gfz2013pizm   1.55070
gfz2013pkmz   0.15095
gfz2013qdno   1.07320
gfz2013qnqr   1.33090
gfz2013qntl   1.59760
gfz2013qoak   2.20640
gfz2013quwz   0.76932
gfz2013quyn   0.95746
gfz2013qwnm   1.14680
gfz2013qxof   0.66597
gfz2013rfik   0.94327
gfz2013rhbx   1.42210
gfz2013rtvy   0.86002
gfz2013rwkj   0.83856
gfz2013rwog   1.28490
gfz2013skvq   0.78286
gfz2013stou   1.11370
gfz2013swnj   0.84766
gfz2013tcju   0.83755
gfz2013tekq   1.17480
gfz2013tnrp   0.84069
gfz2013udtw   1.21280
gfz2013uepl   1.02270
gfz2013unuv   0.99866
gfz2013utqa   0.76900
gfz2013uwjo  -0.31832
gfz2013vcgd   0.38112
gfz2013veoz   0.46184
gfz2013vmrv   0.82544
gfz2013voai   1.00700
gfz2013vwkh   0.54790
gfz2013vzel   1.92220
gfz2013wyfl   1.25380
gfz2013xahp   1.50950
gfz2013xmzw  -0.01975
gfz2013xofz   0.56438
gfz2013xswc   1.53650
gfz2013xvps   1.22390
gfz2013yodm   0.94509
gfz2013zfbz   0.77108
gfz2013zlak   0.94153
gfz2014aedl   1.01120
gfz2014ateb   1.49200
gfz2014azfu   1.29810
gfz2014befl   1.13430
gfz2014bqpm   0.90981
gfz2014bzus   1.19970
gfz2014cjao   1.02310
gfz2014ckqv   1.75310
gfz2014ctdl   1.14930
gfz2014cvnb   1.13760
gfz2014dbqi   0.07788
gfz2014dggw   1.19180
gfz2014edjm   1.08290
gfz2014emlw   0.91731
gfz2014eoay   1.00660
gfz2014etgp   0.95693
gfz2014fbli   1.51200
gfz2014fjfz   1.35570
gfz2014fsir   0.90061
gfz2014fsje   1.09350
gfz2014fxte   1.14880
gfz2014fxuy   0.74476
gfz2014gnbw   1.02940
gfz2014gtee   1.13850
gfz2014gypw   0.02107
gfz2014happ   2.40980
gfz2014hotu   0.45519
gfz2014hqhv   0.61610
gfz2014hyea   0.97774
gfz2014hzzf   1.41450
gfz2014icov   0.99433
gfz2014iltl   1.21050
gfz2014irlf   2.21340
gfz2014irln   1.44390
gfz2014iusw   1.10510
gfz2014ivgm   1.14440
gfz2014ixlc   1.09980
gfz2014jarg   1.10540
gfz2014jayh   1.21790
