# Nsamples: 266  MAD:  1.130  mean:  1.073  std:  1.630
gfz2010abfc   1.83540
gfz2010aggj   0.92987
gfz2010aseg  -0.06880
gfz2010cbnp   2.18180
gfz2010crgy   1.27390
gfz2010crir   0.54625
gfz2010cyid   2.94270
gfz2010dask   0.41282
gfz2010djib   3.35550
gfz2010drit  -0.18240
gfz2010drml   2.30460
gfz2010drmq   2.30460
gfz2010dumv   1.42970
gfz2010fgbo   0.56871
gfz2010fjme   1.57500
gfz2010habf   0.83333
gfz2010hllp   0.47684
gfz2010hxan   0.29821
gfz2010jlvp   3.85090
gfz2010kcyz   0.53226
gfz2010lvnj  -2.00260
gfz2010mjdl   2.15020
gfz2010mqzz   1.43180
gfz2010onxm  -2.30400
gfz2010pcya   3.41840
gfz2010qzvf  -0.82214
gfz2010rljv   1.19040
gfz2010rnwt   3.99380
gfz2010rpbz   3.01470
gfz2010rpjd  -1.19160
gfz2010upod   2.62980
gfz2010vong   0.49120
gfz2010wakc   0.43357
gfz2010xamh   1.84550
gfz2010xnbn   2.75390
gfz2010xzte   1.94400
gfz2010yfdr   1.00600
gfz2010yhhj   3.80850
gfz2010ymih   1.35590
gfz2010zjun   0.65629
gfz2011ahvh   1.13180
gfz2011ameb   0.58957
gfz2011bpqm   0.77203
gfz2011bsvr   3.33700
gfz2011cdge   0.43070
gfz2011chsa   1.61550
gfz2011dabj   1.67870
gfz2011dpyu   1.54660
gfz2011drmu   2.58940
gfz2011etkc   2.01800
gfz2011gnbk   0.57075
gfz2011gzde   6.67660
gfz2011hibi   0.02805
gfz2011hjof   0.46121
gfz2011hvzo   1.67690
gfz2011iryz   0.55203
gfz2011jpob   1.24920
gfz2011jryv   0.91276
gfz2011kgvq   0.17536
gfz2011kjzt   2.37970
gfz2011kjzv   1.15970
gfz2011kyzy   1.87960
gfz2011lkkf  -0.45170
gfz2011mjje   1.84360
gfz2011mror  -4.08890
gfz2011ndhh   3.39650
gfz2011ndki   3.89920
gfz2011nejg   0.64281
gfz2011nejw   3.60570
gfz2011nfcz   0.20420
gfz2011nftw   0.74310
gfz2011nijp   3.78880
gfz2011nilw   2.12990
gfz2011nisj  -0.26122
gfz2011niuw   4.36380
gfz2011nlmf   3.38240
gfz2011nssr   9.63310
gfz2011nvty   1.84070
gfz2011oadm   1.97900
gfz2011ohgj   1.51320
gfz2011oqjl   1.21000
gfz2011oslk   1.57540
gfz2011osmp   1.46600
gfz2011ovvj   1.31980
gfz2011owqa  -1.59000
gfz2011paqj   1.23220
gfz2011pdsn   1.75290
gfz2011pfwq   1.32430
gfz2011pgzk  -2.40550
gfz2011plzc   1.06360
gfz2011ppsc   2.00260
gfz2011qenl   0.03491
gfz2011qukj   1.71650
gfz2011rkau  -0.72701
gfz2011rnny   2.52010
gfz2011scma  -0.39103
gfz2011sdax   1.55810
gfz2011tgon   1.39240
gfz2011tozo   3.06890
gfz2011tqgg  -1.07110
gfz2011tsgl   0.73687
gfz2011twpz   0.39117
gfz2011txxs   0.87537
gfz2011urwz   2.41000
gfz2011uvsi   1.88580
gfz2011vahy   0.06011
gfz2011vsag   2.95730
gfz2011wfsk  -0.04357
gfz2011wqup   0.38513
gfz2011wucg   1.25300
gfz2011xgwy   1.64510
gfz2011xlod   0.30716
gfz2011yexx   1.59790
gfz2011yjtx  -0.15984
gfz2011ymji   0.70764
gfz2011ypfh   2.34040
gfz2011ytob   1.68240
gfz2012amjx   3.67390
gfz2012bqcf   1.73790
gfz2012bysu   3.27640
gfz2012bytv  -0.06596
gfz2012cdju   1.20350
gfz2012crpb   0.40747
gfz2012cvfr   0.82630
gfz2012cwhl   2.12120
gfz2012czvh  -0.03116
gfz2012dttl   0.69257
gfz2012dugf   2.28310
gfz2012dysu  -1.63460
gfz2012eajr   0.61458
gfz2012ebgo   2.40610
gfz2012ebhf   1.81340
gfz2012ekfp  -5.25370
gfz2012fhaf   0.94951
gfz2012ftks   2.68720
gfz2012gzuk  -0.13494
gfz2012hzur   0.73603
gfz2012iijk   0.57938
gfz2012iroy   1.63800
gfz2012kmbo   1.58110
gfz2012kmmz   0.80833
gfz2012mcrb   1.21750
gfz2012mjuu   3.19000
gfz2012mmiw   0.50676
gfz2012mrqk   2.60000
gfz2012nfos   0.51176
gfz2012oafg  -0.10471
gfz2012ofnx  -1.68260
gfz2012oork   1.73000
gfz2012roan   1.86700
gfz2012sjox   2.50520
gfz2012slfd   3.13270
gfz2012socz   0.65274
gfz2012sopp   1.30880
gfz2012tgta   1.39580
gfz2012touh  -2.89720
gfz2012tqjc   3.15250
gfz2012uvoa  -1.57550
gfz2012vgot   0.75878
gfz2012vlzv   1.60390
gfz2012vqmq   0.70162
gfz2012wgdv   1.95610
gfz2012wgmg   1.34990
gfz2012wgxf   0.52140
gfz2012wowu  -0.59613
gfz2012xbna   0.94023
gfz2012xfsl   1.18850
gfz2012yegw   0.02472
gfz2012zhyz   0.67649
gfz2012zmdf   3.42670
gfz2012zmfc   1.56450
gfz2013afzh  -2.25220
gfz2013agmt  -1.20340
gfz2013akkd   2.34060
gfz2013aymi   1.46890
gfz2013cfls   2.20630
gfz2013cvve   1.32440
gfz2013cyvx   0.46643
gfz2013delq   0.09274
gfz2013dftb  -0.47473
gfz2013dzvr   1.95540
gfz2013eidd  -0.17824
gfz2013fnpa   1.25250
gfz2013fulo  -0.93161
gfz2013fvht  -2.58290
gfz2013fybd   2.49850
gfz2013gugi   1.31610
gfz2013gurk   1.01130
gfz2013hqaa   0.61866
gfz2013hwps   2.51450
gfz2013icql   2.59410
gfz2013iwhc   1.66090
gfz2013jfcn   0.16648
gfz2013jrqf   2.46430
gfz2013kats   0.87083
gfz2013kqab  -1.40030
gfz2013kxlr   1.49380
gfz2013lgvf   1.85570
gfz2013mdxj  -2.33070
gfz2013nkgd   3.25650
gfz2013nkgt   2.26970
gfz2013onvl   0.94932
gfz2013oywh  -0.73331
gfz2013phhi   0.95738
gfz2013qear   2.13240
gfz2013qigb  -1.83030
gfz2013qoak   1.55100
gfz2013quwz   1.66060
gfz2013qxof  -3.32760
gfz2013rdmn   1.56880
gfz2013ryph   1.75340
gfz2013taeb  -0.91780
gfz2013tjub   3.55280
gfz2013ubgt  -3.60690
gfz2013uepl   1.70520
gfz2013unuv   1.12970
gfz2013upqj  -0.05508
gfz2013utqa   1.09740
gfz2013uwjo   0.40210
gfz2013vldx   1.07080
gfz2013vmrv  -0.19351
gfz2013vnwa   0.96641
gfz2013vvre  -1.28810
gfz2013wegs  -3.52800
gfz2013wgwz  -1.78130
gfz2013wpns   0.95342
gfz2013wwee   1.56720
gfz2013wyfl   1.04650
gfz2013xswc   1.12300
gfz2013ygsj   1.40380
gfz2013ykqw   0.77258
gfz2013ylxm  -0.14186
gfz2013yqkz   1.42140
gfz2013yqtu   1.65460
gfz2013ytfm   3.43690
gfz2013yxhf  -0.05231
gfz2013zlak  -0.30130
gfz2014amgk   1.41420
gfz2014aqax   0.63237
gfz2014avzp   1.65220
gfz2014bfjb   0.29055
gfz2014bgyv   2.52000
gfz2014cokw  -1.49550
gfz2014crac   1.00450
gfz2014cwti   2.26820
gfz2014eirs   0.00000
gfz2014eoay   0.61245
gfz2014eunw   1.88440
gfz2014evhm   0.80342
gfz2014fsir   0.82634
gfz2014fwxt   1.66430
gfz2014fxte   2.40330
gfz2014fxuy  -0.17128
gfz2014herz   0.62834
gfz2014hotu   0.22045
gfz2014hyea   1.41330
gfz2014icov   0.04419
gfz2014ijsa   1.97070
gfz2014ikvw  -0.15942
gfz2014iltl  -1.13530
gfz2014imqh   3.60430
gfz2014irlf   1.60000
gfz2014irln   1.67210
gfz2014irly   1.04230
gfz2014jarg   1.20420
gfz2014jfmc   1.09180
