# Nsamples: 688  MAD:  0.781  mean:  0.597  std:  0.960
gfz2010abfc   1.40420
gfz2010abvu  -0.73791
gfz2010aggj   0.80031
gfz2010aseg  -0.57229
gfz2010bkfi  -0.25195
gfz2010bklj   0.15684
gfz2010bqnk  -0.16264
gfz2010btme  -1.76580
gfz2010bukb   0.43085
gfz2010byau   1.29970
gfz2010bytu   0.50004
gfz2010cbnp   1.84600
gfz2010ccse  -1.13310
gfz2010clbw   0.19313
gfz2010cllh  -2.07260
gfz2010crgy   0.85207
gfz2010crir   0.62023
gfz2010csle   1.50430
gfz2010cvkn   1.39240
gfz2010dask   0.64421
gfz2010djib   3.48770
gfz2010drit  -0.08677
gfz2010drml   0.87583
gfz2010drmq   0.87583
gfz2010drpv   1.32830
gfz2010dumv  -0.19642
gfz2010dwgy   0.26927
gfz2010dxhq   1.51790
gfz2010eibh   0.22730
gfz2010ekvl  -0.08326
gfz2010ethu   1.11370
gfz2010fgbo  -0.27815
gfz2010fjio   0.29911
gfz2010fjme   0.96939
gfz2010fkff   0.67085
gfz2010ftfq   0.07415
gfz2010fxhh   1.69060
gfz2010gcqp   1.00950
gfz2010gcrn   1.86920
gfz2010gonu   1.13520
gfz2010gooc   1.11950
gfz2010guwa   1.47300
gfz2010habf   0.54230
gfz2010hesh   2.01020
gfz2010hllp   1.84740
gfz2010hsgv   0.53244
gfz2010hueh   0.46091
gfz2010hxan  -0.10177
gfz2010iaay  -0.11607
gfz2010ifhd   0.14092
gfz2010inbs   0.37309
gfz2010inkz  -0.06909
gfz2010ioad   0.61658
gfz2010ixjl   0.57020
gfz2010izag   0.31649
gfz2010jcby   0.75649
gfz2010jgwj   0.26137
gfz2010jlvp   2.64320
gfz2010jpkn   1.10070
gfz2010kcyz   0.04917
gfz2010ljmp  -1.20080
gfz2010ljzf   1.48250
gfz2010mdti   0.74243
gfz2010mnoc   1.61000
gfz2010mqzz   0.23974
gfz2010nlai   0.67872
gfz2010oguu  -0.06725
gfz2010onxm  -0.31245
gfz2010ovvg   1.80050
gfz2010pcya   2.06300
gfz2010pgpo   0.28944
gfz2010prnw   1.01960
gfz2010pvnn   1.97850
gfz2010pzza   0.77172
gfz2010qdqk  -0.88006
gfz2010qrta   0.18503
gfz2010qylh   0.94881
gfz2010qzvf  -0.43323
gfz2010rdep  -0.83560
gfz2010rdip   0.49610
gfz2010rkuu   0.73006
gfz2010rljv   0.10782
gfz2010rnwt   2.78730
gfz2010rpbz   4.42200
gfz2010rpjd   0.52874
gfz2010schp   0.50567
gfz2010scht   0.95301
gfz2010sdfs  -0.18752
gfz2010shvn   0.25121
gfz2010tmba  -0.00899
gfz2010tzlz  -1.05470
gfz2010tzma   0.24730
gfz2010ugws   0.20093
gfz2010uhjy   0.57882
gfz2010uogw  -1.00680
gfz2010uraq   0.75727
gfz2010uyng   0.56231
gfz2010vhzx   0.85477
gfz2010vong  -1.99160
gfz2010vxwv  -0.27248
gfz2010vybx   1.84250
gfz2010wakc   1.11550
gfz2010xamh   0.61573
gfz2010xaxw   0.35090
gfz2010xhqq   0.68156
gfz2010xnbn   1.25050
gfz2010xpzq  -0.50642
gfz2010xzah   1.18860
gfz2010xzte   1.74610
gfz2010yfdr  -0.37590
gfz2010yhhj   4.32030
gfz2010yilf   0.40452
gfz2010ymih   0.97551
gfz2010yrex   0.55481
gfz2010ytzb   0.25496
gfz2010zaxv   0.64138
gfz2010zhvj  -0.03340
gfz2010zjun   0.56348
gfz2011ahvh   1.50750
gfz2011ameb   1.81610
gfz2011aqpp   1.23500
gfz2011awsv   0.32322
gfz2011bcvc  -1.08410
gfz2011bpqm   0.48944
gfz2011bqbx  -0.49396
gfz2011bsvr   2.45110
gfz2011bygu   0.24175
gfz2011cdge  -0.19556
gfz2011cfyy   1.19760
gfz2011chsa   0.76979
gfz2011cjuz  -0.07920
gfz2011cwsm   1.61680
gfz2011cxdj   0.77949
gfz2011dabj   0.49891
gfz2011dbzc   0.14834
gfz2011dhfg   0.42943
gfz2011dhqk   0.73230
gfz2011dpyu   1.10890
gfz2011drmu   2.64280
gfz2011duvm  -0.38280
gfz2011dwae   0.33663
gfz2011edrq   0.53783
gfz2011emzr   2.48140
gfz2011etkc  -0.32867
gfz2011exxq   5.29940
gfz2011fges   0.51181
gfz2011fszl   0.35227
gfz2011gaax   0.71802
gfz2011gdli   0.55521
gfz2011gdrl   0.74275
gfz2011glpg   1.12680
gfz2011gnbk   0.12833
gfz2011gpyr  -0.28150
gfz2011hatg   0.33118
gfz2011hibi  -0.70669
gfz2011hjof   0.09102
gfz2011hqjs  -0.53463
gfz2011hrgt   2.99900
gfz2011hyct  -0.15591
gfz2011iamf  -0.04178
gfz2011iryz   1.93150
gfz2011jpob   1.01530
gfz2011jryv   1.33500
gfz2011jtij   1.16100
gfz2011kgvq   1.84870
gfz2011kjzt   1.42980
gfz2011kjzv   1.08380
gfz2011kylu   0.93111
gfz2011kyzy   0.72340
gfz2011lmug   0.67598
gfz2011lrpv   0.56475
gfz2011mdyq   0.00716
gfz2011mjje   1.00430
gfz2011mror  -0.59764
gfz2011nblt  -2.60410
gfz2011ndhh   2.48370
gfz2011nejg   1.84060
gfz2011nejw   0.34169
gfz2011nfcz   0.65851
gfz2011nftw   2.39010
gfz2011nhby  -0.18486
gfz2011nhhd  -0.20520
gfz2011nhvt  -1.60070
gfz2011nifi   1.42530
gfz2011nijp   2.61210
gfz2011nilw   2.07860
gfz2011nimp   2.54580
gfz2011niuw  -0.14197
gfz2011nkou   0.85736
gfz2011nlmf   2.86170
gfz2011nlnl  -1.55560
gfz2011nlum  -0.49168
gfz2011nsej   0.04970
gfz2011nsrx   1.06570
gfz2011nuqo   0.02259
gfz2011oadm   0.57815
gfz2011ofpj   1.99190
gfz2011ohgj   0.54473
gfz2011okza   0.39595
gfz2011oqjl   1.22920
gfz2011oslk   1.36820
gfz2011osmp   0.45893
gfz2011osuy   0.35953
gfz2011owqa  -0.24225
gfz2011paqj   1.29300
gfz2011pdgq  -0.07938
gfz2011pdsn   2.71270
gfz2011pfls   1.08650
gfz2011pgzk   0.52512
gfz2011poug   0.97684
gfz2011ppsc   0.91424
gfz2011pwbw  -0.00711
gfz2011pwld   0.56317
gfz2011qenl  -0.27952
gfz2011qlkj   1.47090
gfz2011qukj   0.87987
gfz2011rkau   0.15103
gfz2011rnny  -0.10453
gfz2011scma  -0.50781
gfz2011sdax   0.91582
gfz2011sfmu   1.11670
gfz2011sfph   0.59642
gfz2011sqco  -1.95090
gfz2011sxno  -0.04611
gfz2011taqr   0.78040
gfz2011tqgg   0.92593
gfz2011tsgl   0.08059
gfz2011tssv   0.04396
gfz2011tvuv   0.10829
gfz2011ugbt   0.39688
gfz2011uqlz   1.60340
gfz2011uqry   1.27530
gfz2011uvsi   1.67400
gfz2011vahy   0.17174
gfz2011vimn   0.57538
gfz2011vxek   1.47710
gfz2011wbtc   1.42600
gfz2011wkja   1.02990
gfz2011wngi   0.23933
gfz2011wnjg  -1.39490
gfz2011wpzt  -0.11964
gfz2011wqup   0.00000
gfz2011wtfn   0.76073
gfz2011wucg   0.91901
gfz2011wwze  -0.00000
gfz2011xagc   2.00800
gfz2011xgbc  -0.85512
gfz2011xgwy   1.14670
gfz2011xkka  -0.07457
gfz2011xlod  -0.88740
gfz2011xnui   0.34971
gfz2011xxng  -0.15559
gfz2011yexx   0.95866
gfz2011ytob  -1.47250
gfz2011zcwn   2.07820
gfz2011zghc  -0.57062
gfz2011ziyk   0.48069
gfz2011zkbt   0.49638
gfz2012ahac   0.81051
gfz2012alti   0.35130
gfz2012amjx   1.25020
gfz2012amvs  -0.11771
gfz2012aqpa  -0.39834
gfz2012arlo   0.60317
gfz2012asld   0.36845
gfz2012bcvn   0.57555
gfz2012beae   0.03408
gfz2012bity   0.57371
gfz2012bjhl   0.82166
gfz2012bovy   0.53931
gfz2012bqcf   1.27560
gfz2012bysu  -0.71360
gfz2012bytv   1.84060
gfz2012byuk  -1.69560
gfz2012cdju   0.97205
gfz2012cksh  -0.55980
gfz2012cmww   1.29810
gfz2012cntu   1.26750
gfz2012crpb   1.98810
gfz2012cvfr   0.68107
gfz2012cwhl   3.98180
gfz2012dcjd   0.68194
gfz2012dejg  -0.07344
gfz2012dleg   0.66433
gfz2012dnig   0.43298
gfz2012dtlu   1.34480
gfz2012dttl   0.22948
gfz2012dwwu   1.00320
gfz2012dyck   0.85625
gfz2012dysu   0.97792
gfz2012dzot   0.36734
gfz2012eajr  -1.11390
gfz2012eeft   1.08360
gfz2012ekfp  -0.08493
gfz2012elek   0.31998
gfz2012enio   0.27058
gfz2012erds   0.69060
gfz2012eyti   1.17780
gfz2012facv   0.17806
gfz2012fbgz  -0.41204
gfz2012fcyq   2.03610
gfz2012fcyr   2.06330
gfz2012fhaf   0.50955
gfz2012flqf   0.85503
gfz2012foih   3.93490
gfz2012fyny   0.95540
gfz2012fyop   0.15088
gfz2012gbrs   1.56230
gfz2012gdye  -0.24921
gfz2012gftg   0.64679
gfz2012ghiv   0.60050
gfz2012gjdg   0.71129
gfz2012gjtd  -0.34943
gfz2012gnow   0.37407
gfz2012gpcd   1.27290
gfz2012heih   0.84692
gfz2012hkxs   0.53629
gfz2012hmcv   1.08060
gfz2012hvtu   1.90490
gfz2012hwph   0.25903
gfz2012hzhn   0.39409
gfz2012icjo   0.27910
gfz2012iijk  -0.24357
gfz2012imsm   0.42570
gfz2012ipdc   1.59640
gfz2012iroy   0.62526
gfz2012iyhs   1.24860
gfz2012izke   0.04488
gfz2012jawj   1.26830
gfz2012jbzr   0.97140
gfz2012jqxx   0.85275
gfz2012juem   0.64454
gfz2012kadi   1.42720
gfz2012kbub   3.35340
gfz2012kmbo  -0.00000
gfz2012kmmz   0.19454
gfz2012kstg   0.42760
gfz2012kwmx   1.66670
gfz2012ldjj   0.05251
gfz2012lqhw   0.87697
gfz2012mcrb   0.56808
gfz2012mdzf  -0.09599
gfz2012mjuu   1.81070
gfz2012mmiw   1.28590
gfz2012mowv   1.01770
gfz2012mpzo   0.21963
gfz2012mrqk   1.61340
gfz2012mrwu   0.61413
gfz2012mtyn  -0.23589
gfz2012mwhe  -0.19904
gfz2012ndwt  -0.13532
gfz2012nfos   0.47529
gfz2012nlrb   0.94885
gfz2012nqvd   0.44488
gfz2012nsxc  -0.00000
gfz2012oafg   0.31043
gfz2012oehy   0.12789
gfz2012ofnx   2.82970
gfz2012ohgd   0.06304
gfz2012ojmv   1.16260
gfz2012oork   1.03190
gfz2012oyja   0.67004
gfz2012pdav  -0.13003
gfz2012phns   0.05412
gfz2012pira   1.93160
gfz2012pokk   0.29149
gfz2012ppcq  -0.76524
gfz2012prke  -0.10443
gfz2012pryl   0.77838
gfz2012pvve   0.66004
gfz2012qhqp  -0.87732
gfz2012qllj  -0.06741
gfz2012qmhz  -0.14139
gfz2012rknz   0.25775
gfz2012smyn   0.19688
gfz2012socz   0.40835
gfz2012sopp   1.26480
gfz2012sqsc  -0.65682
gfz2012stxx   1.81750
gfz2012suqd  -0.44309
gfz2012svwz  -0.20892
gfz2012swbz   1.31820
gfz2012sxbo  -1.63680
gfz2012sxzs   0.39064
gfz2012tgta   1.04360
gfz2012tisj   0.19969
gfz2012touh   1.58660
gfz2012tqjc   1.16440
gfz2012ttnf   0.92926
gfz2012twec   1.08590
gfz2012tyoz   2.48750
gfz2012ulei  -0.47502
gfz2012uvea   0.31197
gfz2012uvoa   1.56070
gfz2012vcqw   0.81706
gfz2012vdsl  -0.67073
gfz2012vgot   0.53479
gfz2012vioy   0.74601
gfz2012vitw   0.27991
gfz2012vlzv   0.99107
gfz2012vqmq   0.94943
gfz2012vurc  -1.41730
gfz2012wgdv   0.99466
gfz2012wgmg   1.46860
gfz2012wkki   0.14002
gfz2012wmmw   0.12265
gfz2012wowu  -0.57942
gfz2012wpen   3.34480
gfz2012wqfz  -0.87728
gfz2012wysg   0.14995
gfz2012xask   0.10279
gfz2012xbna   0.68426
gfz2012xcsf   1.59880
gfz2012xfsl   0.87864
gfz2012xkln   0.19575
gfz2012xlas   1.46370
gfz2012xlfo   0.15979
gfz2012xncm  -0.31347
gfz2012xrmq   0.29899
gfz2012xxdj   1.53220
gfz2012yegw   0.04521
gfz2012ylai   0.04073
gfz2012yncm   1.44590
gfz2012zhyz   0.51522
gfz2012zido   2.56230
gfz2012zkhu   1.27800
gfz2012zktj   2.49740
gfz2012znou   0.95315
gfz2012zqis   0.24320
gfz2013afzh   0.82494
gfz2013agbm  -1.45170
gfz2013aggr   2.76630
gfz2013akkd   1.35270
gfz2013atak   1.43430
gfz2013aymi   0.82036
gfz2013bwgw  -1.15660
gfz2013byyy   1.31110
gfz2013cfls   1.47950
gfz2013cinv  -0.11682
gfz2013cqak   1.30530
gfz2013cqee  -1.55140
gfz2013cvve  -0.08107
gfz2013cyvx   0.42868
gfz2013delq  -0.02039
gfz2013dftb   0.52523
gfz2013dfvx  -1.48670
gfz2013dksc  -2.72530
gfz2013dmzh   0.32670
gfz2013dnot   1.00510
gfz2013dzvr   0.59931
gfz2013eavq   0.37591
gfz2013efct   1.08720
gfz2013egfv   0.65171
gfz2013eidd   1.22810
gfz2013enga   2.23230
gfz2013enqo  -1.17090
gfz2013enrh   0.23353
gfz2013evcl   0.95361
gfz2013ewht   0.67170
gfz2013ezmc   0.26493
gfz2013ffjt   0.77506
gfz2013fmcp   0.03836
gfz2013fndg   0.17353
gfz2013fnpa   0.95644
gfz2013foto   0.56066
gfz2013fthi  -0.79894
gfz2013fulo   0.54854
gfz2013fvht   0.48549
gfz2013fvyr   0.53980
gfz2013fwbm   1.69190
gfz2013fxyr   1.44620
gfz2013fybd   1.68610
gfz2013gkyn   1.77580
gfz2013gomv   0.23834
gfz2013gsnl  -0.39785
gfz2013gugi   0.68782
gfz2013gurk   0.78692
gfz2013gxye   0.63642
gfz2013gyce   0.95620
gfz2013gywl   0.12879
gfz2013hbmi  -0.34391
gfz2013hbtm   0.91073
gfz2013hbwy   1.94640
gfz2013hdbp   1.09260
gfz2013hduf   0.30343
gfz2013hiam   0.66201
gfz2013hinw  -0.02035
gfz2013hqaa   0.48327
gfz2013hvzv   0.35404
gfz2013icgx   0.63822
gfz2013icql   1.97870
gfz2013ikic  -0.52565
gfz2013ivvw  -0.21571
gfz2013iwhc   1.61930
gfz2013iwzn   0.00000
gfz2013iybg   0.03261
gfz2013jfcn  -0.31443
gfz2013jjfw  -1.92290
gfz2013jlli   1.33860
gfz2013jobl   1.05840
gfz2013jrqf   1.69120
gfz2013jtsg   1.11230
gfz2013kats   0.79171
gfz2013kcdb  -0.16004
gfz2013kjgh   0.73745
gfz2013kqab   0.80343
gfz2013ksaz   0.37466
gfz2013kslp   1.34050
gfz2013kxlr   0.73046
gfz2013lbod   0.56049
gfz2013lbvl   1.09850
gfz2013lgvf   1.26510
gfz2013ljdu   1.34450
gfz2013ljwt   0.88007
gfz2013lvxe   0.85239
gfz2013lwtr   2.44790
gfz2013lxed   0.30164
gfz2013mdxj   0.61629
gfz2013msmy  -0.56424
gfz2013mvgq  -1.36260
gfz2013mynb   0.69849
gfz2013mzaw  -0.09140
gfz2013nkgd   2.46480
gfz2013nkgt   1.62910
gfz2013nnai   2.15870
gfz2013noqf   0.50239
gfz2013ntfc   1.37500
gfz2013ntiu  -0.95267
gfz2013ohdt   0.89537
gfz2013ohnj   0.56461
gfz2013oizq   0.84409
gfz2013ojza   0.84121
gfz2013okxa   0.34199
gfz2013olos   2.94960
gfz2013onvl   0.47633
gfz2013orot  -0.41698
gfz2013oruq   0.08084
gfz2013otuj   0.43213
gfz2013oywh  -1.05750
gfz2013phhi   1.96820
gfz2013pizm   0.18415
gfz2013pkmz   0.15922
gfz2013pwsm   0.64601
gfz2013qboo  -0.04395
gfz2013qdks   0.66688
gfz2013qdno   0.71615
gfz2013qdpv   0.66988
gfz2013qdzg  -0.00583
gfz2013qear   1.44930
gfz2013qigb   1.00140
gfz2013qmkt  -0.54843
gfz2013qntl   1.03750
gfz2013qoak   1.06770
gfz2013qogb   1.26890
gfz2013quwz   1.07580
gfz2013qwnm   1.17980
gfz2013qxof   0.17490
gfz2013rdmn   0.05844
gfz2013rfik   0.40645
gfz2013rhbx   0.27269
gfz2013rhxf   0.22956
gfz2013rnsa   0.76802
gfz2013rtvy   1.37110
gfz2013rwkj   1.25340
gfz2013ryph   1.31020
gfz2013sdym   0.06911
gfz2013skvq   0.40261
gfz2013stou   0.36690
gfz2013stup   1.42400
gfz2013swnj   0.58118
gfz2013taeb  -0.52649
gfz2013tcju   0.98436
gfz2013tert  -0.08836
gfz2013tjub   2.35420
gfz2013tmyj   0.56978
gfz2013tnff   2.02730
gfz2013tnrp   0.81224
gfz2013udtw   0.28692
gfz2013uepl   0.47701
gfz2013unuv   0.80044
gfz2013upqj   0.35544
gfz2013utqa   0.39001
gfz2013uwjo   0.31306
gfz2013uzmf   0.36779
gfz2013vdam   0.54161
gfz2013veoz   1.30890
gfz2013vjrr   0.37982
gfz2013vldx   0.60847
gfz2013vmrv  -0.26468
gfz2013vmsg  -1.71270
gfz2013vmsn  -0.44384
gfz2013vnwa  -0.51367
gfz2013voai   0.42548
gfz2013vvre   1.24120
gfz2013vwkh   0.90363
gfz2013vxht   0.40599
gfz2013wgwz  -0.46629
gfz2013wpns   1.33320
gfz2013wwee   0.83083
gfz2013wyfl  -0.03916
gfz2013xahp   0.25854
gfz2013xbdc   0.56376
gfz2013xjmo   2.35480
gfz2013xmzw  -0.12133
gfz2013xodn   0.16899
gfz2013xofz   1.97670
gfz2013xswc   0.79600
gfz2013xycz   0.72482
gfz2013yihv   0.38073
gfz2013ykkf  -0.55670
gfz2013ymhx   0.04278
gfz2013yodm  -0.29797
gfz2013yqkz   1.13070
gfz2013yqtu   1.05070
gfz2013yxif   0.00000
gfz2013zeye   0.13580
gfz2013zfbz  -0.51299
gfz2013zlak  -0.53872
gfz2014aapq  -1.88860
gfz2014aedl  -0.16004
gfz2014amgk   0.86139
gfz2014aqax  -0.19744
gfz2014aqop   0.42793
gfz2014avmd  -0.21598
gfz2014avzp   1.22370
gfz2014ayxf  -2.49150
gfz2014azfu   1.02670
gfz2014befl   0.31776
gfz2014bkra  -1.17790
gfz2014bmch   0.29913
gfz2014buyz  -0.47123
gfz2014byes   1.11590
gfz2014bzus   0.90674
gfz2014cjao  -0.13587
gfz2014club   0.21435
gfz2014cokw   0.94324
gfz2014crac  -0.89507
gfz2014cvnb  -0.00815
gfz2014djyj   0.16836
gfz2014dmrw   1.00590
gfz2014dpny   0.05511
gfz2014dpps   0.13767
gfz2014dtto   0.47125
gfz2014dwcp   0.23888
gfz2014esez   1.35620
gfz2014evhm   0.87178
gfz2014fjfz   0.56354
gfz2014flxk   3.27150
gfz2014fqas   1.38220
gfz2014fsir   0.36884
gfz2014fsje   0.88585
gfz2014fwuf  -1.32340
gfz2014fwxt   1.11730
gfz2014fxim   0.33324
gfz2014fxte   1.79780
gfz2014fxtv   1.35270
gfz2014fxuy   1.33220
gfz2014geln   0.66884
gfz2014ginr   0.14764
gfz2014gjfd   1.17640
gfz2014gnbw  -0.17423
gfz2014gtee   0.87024
gfz2014gypw  -0.85003
gfz2014happ   0.76110
gfz2014hhey   0.05617
gfz2014hkcw  -0.67240
gfz2014hotu   0.49765
gfz2014hqhv  -0.38165
gfz2014huqh  -0.34881
gfz2014hyea   0.96493
gfz2014hzzf   1.83610
gfz2014icov   0.45271
gfz2014ikvw  -0.14587
gfz2014iltl   1.48990
gfz2014imqh   2.12010
gfz2014ined  -0.02164
gfz2014inrg   1.99410
gfz2014ipfu   0.21551
gfz2014ipwk  -0.27576
gfz2014irlf   1.24230
gfz2014irln   1.06340
gfz2014irly   1.75680
gfz2014itlx  -0.03157
gfz2014ivgm   0.81158
gfz2014iyuc   1.80190
gfz2014jarg   0.52698
gfz2014jckg  -0.08130
gfz2014jfmc  -0.57297
