# Nsamples: 178  MAD:  1.271  mean: -0.165  std:  1.611
gfz2010aggj  -0.66616
gfz2010aseg  -1.08930
gfz2010ccye  -3.53810
gfz2010crgy  -2.01480
gfz2010dask  -2.07080
gfz2010djib   1.32730
gfz2010dmij  -0.83833
gfz2010gonu   0.95645
gfz2010hsgv  -1.51550
gfz2010ifhd   0.05697
gfz2010inbs   4.97720
gfz2010izag  -0.01997
gfz2010jlvp  -0.10170
gfz2010jpkn  -3.53300
gfz2010mqaj  -1.28570
gfz2010mqzz   0.08532
gfz2010ncwu  -0.63819
gfz2010ngge   0.53668
gfz2010pzza  -1.31210
gfz2010rkuu   1.69160
gfz2010rnwt  -2.03920
gfz2010rpjd  -0.41168
gfz2010shvn   0.53777
gfz2010tpcj  -0.26856
gfz2010ugws  -3.47220
gfz2010uhjy  -2.49290
gfz2010vgfu   5.31480
gfz2010vhzx   0.88311
gfz2010wwnq   4.38210
gfz2010xjsv   0.26557
gfz2010xnbn  -2.55280
gfz2010yfdr   1.83150
gfz2010zjun   0.42300
gfz2011ahvh  -0.47559
gfz2011awsv  -2.11040
gfz2011bpqm  -0.03100
gfz2011bygs   0.02722
gfz2011bygu  -0.23989
gfz2011cdge  -1.22280
gfz2011chsa   3.41880
gfz2011dabj  -0.83901
gfz2011dhfg  -0.21118
gfz2011dpyu  -1.41260
gfz2011dwae   5.38040
gfz2011emzr  -0.34917
gfz2011fnxz   0.12869
gfz2011fszl  -0.33326
gfz2011fzcw  -0.41522
gfz2011gaax  -0.05450
gfz2011ggnl  -0.86474
gfz2011gnbk  -1.57640
gfz2011gpyr   5.14190
gfz2011haaa  -0.48191
gfz2011hffq  -1.73580
gfz2011hjof  -0.98868
gfz2011hvzo   1.18000
gfz2011hyct  -1.04080
gfz2011iryz  -1.58780
gfz2011ituo  -2.07300
gfz2011jghq  -2.64900
gfz2011kjzt   0.27311
gfz2011lwmg   0.09337
gfz2011mror   2.12010
gfz2011ndhh  -2.46460
gfz2011nijp  -0.66130
gfz2011nilw   1.17390
gfz2011niuw  -2.53030
gfz2011nkou   0.02503
gfz2011nlum   0.17032
gfz2011oazk  -0.23826
gfz2011ocif  -0.02065
gfz2011ofpj  -0.15152
gfz2011oslk  -1.40770
gfz2011owqa  -0.57525
gfz2011pwbw   1.02790
gfz2011qhjw   2.27570
gfz2011qukj  -0.61137
gfz2011rnsp  -1.43070
gfz2011scma  -0.63551
gfz2011sdax  -0.88558
gfz2011sfph   1.20680
gfz2011sskq   3.40330
gfz2011sxno  -1.24070
gfz2011tgon   2.56490
gfz2011tqgg   0.56876
gfz2011tssv   2.40810
gfz2011twpz  -1.01140
gfz2011uqry  -2.55050
gfz2011urwz  -0.18459
gfz2011vahy  -1.26450
gfz2011vcyx   0.32235
gfz2011xgbc  -0.14791
gfz2011yexx   0.38015
gfz2011ypfh   1.64910
gfz2011zghc  -2.19330
gfz2012amjx   0.99045
gfz2012amvs  -1.00140
gfz2012aqpa   0.56753
gfz2012bnwa  -1.72160
gfz2012bqcf  -1.64990
gfz2012cvfr  -0.51548
gfz2012dwwu   0.49710
gfz2012dzoh   3.95060
gfz2012dzot  -0.92259
gfz2012ebrr   2.34230
gfz2012ekfp  -1.41200
gfz2012fcyq   0.67448
gfz2012fcyr   0.58531
gfz2012hvtu   0.39418
gfz2012hzur   3.97180
gfz2012ibyd  -0.09842
gfz2012icjo   1.58870
gfz2012iijk  -0.92117
gfz2012kmbo  -2.90030
gfz2012lcca   1.85310
gfz2012ldjj   0.89676
gfz2012mhik   0.86949
gfz2012mmiw   0.17799
gfz2012oafg   0.15231
gfz2012oehy   0.27141
gfz2012pdav  -0.60142
gfz2012phns  -1.07340
gfz2012ppcq   0.89026
gfz2012qfah  -0.67856
gfz2012ssnb   2.20970
gfz2012suqd   0.87086
gfz2012svwz  -0.83670
gfz2012thyh  -1.14740
gfz2012uhtc  -1.21380
gfz2012uvoa  -0.90192
gfz2012uzww   0.81349
gfz2012vgot  -0.98030
gfz2012wgmg   0.21135
gfz2012wkki  -1.30190
gfz2012wysg  -1.20720
gfz2013akkd  -1.44280
gfz2013bwgw   0.97781
gfz2013cvve  -2.30810
gfz2013cyvx  -0.24743
gfz2013dftb  -0.24994
gfz2013djfi  -1.03870
gfz2013dzvr   1.38490
gfz2013fnpa  -1.71310
gfz2013fulo  -1.09190
gfz2013fvht   0.57524
gfz2013gugi  -1.29010
gfz2013hduf  -0.04244
gfz2013hqaa   0.01840
gfz2013hvzv  -0.47824
gfz2013icql  -1.97840
gfz2013iuyv  -0.35495
gfz2013jfcn  -2.41690
gfz2013jrqf   0.02844
gfz2013jzcf  -0.32997
gfz2013kats  -0.35122
gfz2013kbbg  -1.07900
gfz2013kcdb  -0.86190
gfz2013lbvl  -1.68720
gfz2013lgvf  -0.46759
gfz2013lqjj  -0.85933
gfz2013mzaw  -0.46133
gfz2013oeni   0.80640
gfz2013olos   0.42054
gfz2013oywh  -1.46650
gfz2013phhi   0.07706
gfz2013quwz   0.16282
gfz2013qxof  -0.26656
gfz2014edmd   2.05270
gfz2014eirs  -0.79139
gfz2014etqu  -0.04231
gfz2014flxk   1.43340
gfz2014fsir  -1.56890
gfz2014fxte  -0.80097
gfz2014fxuy  -1.12530
gfz2014geln  -1.29890
gfz2014gnbw  -1.01760
gfz2014icov   0.09528
gfz2014igrp   0.51483
