# Nsamples: 113  MAD:  0.930  mean:  0.751  std:  1.014
gfz2010aggj   0.67046
gfz2010crgy   0.37982
gfz2010crir   0.46980
gfz2010cvkn  -0.09264
gfz2010djib   1.40090
gfz2010fgbo   0.04414
gfz2010fjme   2.05500
gfz2010habf   0.09789
gfz2010jlvp   2.28350
gfz2010mqzz   1.47880
gfz2010rljv   1.48950
gfz2010rpjd   0.24158
gfz2010scht   0.62750
gfz2010tmba   0.10842
gfz2010yfdr   0.35574
gfz2010ytzb   1.25340
gfz2010zjun   0.81338
gfz2011ahvh   1.47520
gfz2011ameb   2.08700
gfz2011bpqm   0.75877
gfz2011bsvr   2.48210
gfz2011dpyu   0.82002
gfz2011dwae   0.73389
gfz2011gnbk   0.35127
gfz2011gpyr   1.03870
gfz2011hjof   1.02250
gfz2011kyzy   0.51800
gfz2011mjje   0.77366
gfz2011ndhh   1.56000
gfz2011nfcz  -0.30610
gfz2011nijp   1.82610
gfz2011nilw   1.79910
gfz2011niuw   3.30790
gfz2011oslk   0.82504
gfz2011osmp   2.01970
gfz2011owqa  -0.27481
gfz2011pdsn   0.82887
gfz2011pgzk  -2.02030
gfz2011qenl   1.23560
gfz2011rkau  -0.38672
gfz2011sdax   1.30900
gfz2011sxno   0.40604
gfz2011tqgg   0.39212
gfz2011tsgl  -0.35686
gfz2011uqry   2.38220
gfz2011vahy   0.64081
gfz2011wnjg   1.37810
gfz2011yexx   1.18330
gfz2012bqcf   0.95987
gfz2012byuk   2.46950
gfz2012cdju   0.81246
gfz2012cvfr   0.84015
gfz2012dcjd  -1.29360
gfz2012dejg   0.86498
gfz2012dwwu   1.41330
gfz2012eeft   3.23150
gfz2012ekfp  -1.08860
gfz2012elek   2.14810
gfz2012enio   0.77443
gfz2012gnow   0.07831
gfz2012heih  -1.37490
gfz2012hvtu   2.12540
gfz2012iijk  -0.83587
gfz2012iroy   2.04990
gfz2012kmbo  -1.04720
gfz2012kmmz   0.54567
gfz2012mdzf   0.39042
gfz2012mtyn  -1.50800
gfz2012oafg   0.37251
gfz2012oehy  -1.22360
gfz2012oork   2.25270
gfz2012phns  -1.44190
gfz2012pira   1.71050
gfz2012socz   1.56930
gfz2012uvoa   1.94250
gfz2012wkki   1.20190
gfz2012wowu   1.06250
gfz2013kats  -0.02431
gfz2013lbvl   0.41486
gfz2013onvl   2.18330
gfz2013oywh  -1.40090
gfz2013phhi   1.54440
gfz2013pizm   0.08713
gfz2013qear   2.33360
gfz2013qoak   0.66298
gfz2013qogb   0.86436
gfz2013quwz   1.00490
gfz2013qxof  -0.33644
gfz2013ryph   0.86299
gfz2013stou   0.31447
gfz2013tnrp   0.34449
gfz2013udtw   0.17001
gfz2013uwjo  -0.29674
gfz2013vmrv  -0.33324
gfz2013vvre   0.22957
gfz2013wyfl   0.58935
gfz2013xahp   1.65730
gfz2013xbdc   0.36733
gfz2013xmzw   1.08390
gfz2013xofz   1.46540
gfz2013xswc   0.75259
gfz2014ajgi   0.70207
gfz2014aqax  -0.02207
gfz2014bnea   0.86442
gfz2014dmrw   0.64643
gfz2014eiav   1.09980
gfz2014eirs   0.37088
gfz2014emlw   0.29769
gfz2014eoay   0.01746
gfz2014fsir  -0.02224
gfz2014iltl   1.54630
gfz2014irlf   1.03020
gfz2014irln   1.30500
