# Nsamples: 90  MAD:  0.536  mean:  0.418  std:  0.551
gfz2010btme   0.67790
gfz2010crgy  -0.27632
gfz2010dask   1.00040
gfz2010djib  -0.21535
gfz2010drit   1.20120
gfz2010drml   1.91170
gfz2010drmq   1.91170
gfz2010drun  -0.07916
gfz2010fjme   1.27080
gfz2010habf   0.04728
gfz2010rljv   0.90542
gfz2010tzma   0.03545
gfz2010uhjy   0.97594
gfz2010vong   1.88830
gfz2010zjun   1.66040
gfz2011ahvh   0.66620
gfz2011bpqm   0.54466
gfz2011bsvr  -0.10791
gfz2011cdge  -0.66401
gfz2011chsa   0.24540
gfz2011dabj   0.24437
gfz2011dpyu   0.32032
gfz2011fnie   0.12866
gfz2011gnbk   0.55279
gfz2011gpyr   0.49773
gfz2011hjof   0.53229
gfz2011kjzt   0.22242
gfz2011kjzv  -0.20909
gfz2011mjje  -0.05751
gfz2011ndhh   0.10033
gfz2011nuqo   0.53703
gfz2011ofpj   1.03830
gfz2011oslk   0.14926
gfz2011owqa   0.93660
gfz2011qukj   1.35520
gfz2011sdax   0.73976
gfz2011tlwl   0.94029
gfz2011tsgl  -0.11284
gfz2011uqry   0.23769
gfz2011vahy   0.17488
gfz2011wucg   1.07140
gfz2011wwze   0.75033
gfz2011wyei   1.00640
gfz2011yexx   0.55154
gfz2012cvfr   0.17583
gfz2012dwwu  -0.30310
gfz2012fyny   0.51432
gfz2012gjdg  -0.02523
gfz2012zhyz   0.18106
gfz2013byyy   0.30770
gfz2013cyvx   0.69752
gfz2013delq  -0.50458
gfz2013fnpa   0.88369
gfz2013fulo   0.51958
gfz2013fvht   0.45148
gfz2013icql  -0.13149
gfz2013iwzn   0.29702
gfz2013jfcn   0.28740
gfz2013jhog   0.54830
gfz2013kats   0.10572
gfz2013kcdb   0.76501
gfz2013lbvl  -0.13030
gfz2013oizq   1.15550
gfz2013osmj   0.23514
gfz2013qigb   0.15611
gfz2013qoak   0.29967
gfz2013quwz   0.46091
gfz2013rwkj   0.03654
gfz2013ubgt   0.62434
gfz2013unuv  -0.07985
gfz2013utqa  -0.10092
gfz2013vmrv   1.11250
gfz2013wyfl   0.54451
gfz2013xahp   0.21483
gfz2013xjmo  -0.37057
gfz2013xmzw   0.01104
gfz2013xswc  -0.66645
gfz2014fsir  -0.09174
gfz2014fxte  -0.38474
gfz2014gypw   0.97331
gfz2014hyea  -0.04864
gfz2014hzzf   0.25103
gfz2014icov   1.12930
gfz2014iltl   0.74309
gfz2014ined  -0.15402
gfz2014irlf   0.21526
gfz2014irln  -0.02867
gfz2014irly   0.31562
gfz2014iusw   0.46107
gfz2014jarg   0.61938
