# Nsamples: 24  MAD:  0.947  mean:  1.940  std:  1.101
gfz2010dmij   2.78840
gfz2010msss   4.13920
gfz2010pgpo   3.85020
gfz2010rhvu   3.90600
gfz2010zhvj   1.90690
gfz2011bqbx   1.62020
gfz2011bsvr   1.55040
gfz2011cdge   1.15580
gfz2011fnie   2.77050
gfz2011hvzo   1.89680
gfz2011mllb   1.96230
gfz2011ndki   1.00710
gfz2011nejg   1.96520
gfz2011nsiy   1.71110
gfz2011nssr   1.21450
gfz2011nuqo   1.02480
gfz2011nvty   2.31660
gfz2011nyzk   1.53510
gfz2011okza  -0.45953
gfz2011pfwq   0.87084
gfz2011qowe   3.40350
gfz2011txxs   0.97450
gfz2011urwz   2.27580
gfz2011vcyx   1.17480
