# Nsamples: 21  MAD:  1.471  mean:  1.339  std:  1.893
gfz2010jcpq   5.71610
gfz2011bsvr   2.27590
gfz2011hvzo   2.85300
gfz2011ndki   0.42818
gfz2011ndoe  -0.66340
gfz2011nejg  -0.38481
gfz2011nlnl   3.33640
gfz2011nlum   1.23730
gfz2011npeu  -3.50080
gfz2011nsiy   0.06653
gfz2011nssr   1.88180
gfz2011nuqo  -0.46193
gfz2011nvty   2.28250
gfz2011pfwq   0.62412
gfz2011twpz   2.25600
gfz2012byrq   1.04570
gfz2012gjtd   3.68950
gfz2012hzur   1.28350
gfz2012ulei   0.62943
gfz2013tert   1.43510
gfz2013vmsg   2.09760
