# Nsamples: 128  MAD:  0.979  mean:  0.762  std:  1.164
gfz2011mjje   0.61917
gfz2011mllb   1.94620
gfz2011ndhh   0.02124
gfz2011ndki  -0.76481
gfz2011ndlh  -0.27963
gfz2011ndse  -1.51290
gfz2011neai   0.12529
gfz2011nejg   0.54465
gfz2011nejw   0.52490
gfz2011nfgt  -1.53020
gfz2011nhjv   3.89340
gfz2011nhvt   0.11356
gfz2011nhwf  -0.14531
gfz2011nilw   1.46370
gfz2011niuw   1.83410
gfz2011nkou   2.61820
gfz2011nlmf  -1.36740
gfz2011nlnl   3.38270
gfz2011nlum   0.22540
gfz2011nsiy  -0.78945
gfz2011nssr   0.97250
gfz2011nsyi   1.80320
gfz2011nvty  -0.44282
gfz2011nyzk  -0.46416
gfz2011oadm   0.48206
gfz2011ofpj   1.06210
gfz2011okza   1.01980
gfz2011oqjl   0.63845
gfz2011paqj   0.15227
gfz2011pdsn   0.29815
gfz2011pfwq   0.31978
gfz2011plzc   1.54470
gfz2011pphc   2.07630
gfz2011qenl   1.57400
gfz2011qgea   0.00000
gfz2011qklh  -1.03910
gfz2011rkau  -4.09030
gfz2011scma   1.42090
gfz2011tsgl  -0.19155
gfz2011twpz  -0.17298
gfz2011txxs  -0.70786
gfz2011udxo  -1.06000
gfz2011ugbt   0.59623
gfz2011unud   0.99723
gfz2011uowi   0.85833
gfz2011uqry  -0.27765
gfz2011vcyx   0.07103
gfz2011wfsk   0.18040
gfz2011wgoa   0.35110
gfz2011wkyx   1.71220
gfz2011yexx   0.62158
gfz2011ywtj   0.67124
gfz2012alti   1.41900
gfz2012amjx  -0.08846
gfz2012arlo   1.16320
gfz2012avvc   1.90820
gfz2012bolx   1.08120
gfz2012byrq   0.79149
gfz2012bytv   1.06640
gfz2012byuk   1.03050
gfz2012cdju   0.27815
gfz2012cksh  -1.25740
gfz2012gjtd   1.05190
gfz2012gmsr   0.70149
gfz2012hzur  -0.19795
gfz2012iotw   1.08120
gfz2012ivyg   2.98980
gfz2012kmbo   2.02460
gfz2012kmmz   0.76678
gfz2012moul   4.19670
gfz2012mrqk   0.34349
gfz2012oehy   0.43589
gfz2012pifb   1.65600
gfz2012pziw   2.20140
gfz2012qpoc   0.12240
gfz2012rjlp   0.56971
gfz2012sjdy   0.70040
gfz2012suqd   0.16713
gfz2012syum   0.24725
gfz2012ulei   0.69958
gfz2012uzww   0.68145
gfz2012wowu  -0.07059
gfz2012xlas  -0.05452
gfz2012xlfo   0.71664
gfz2012xncm   1.13200
gfz2013adih   2.43650
gfz2013atec   3.61010
gfz2013bwgw   1.73380
gfz2013byyy   1.04890
gfz2013cfls   0.92222
gfz2013cokc   1.17930
gfz2013cvve   1.40120
gfz2013dngd   1.38550
gfz2013fnpa  -0.01467
gfz2013fwbm   3.02590
gfz2013hqaa   0.16418
gfz2013kbbg   0.91999
gfz2013kcdb  -0.47379
gfz2013ljwt   2.01060
gfz2013mvgq   1.66670
gfz2013oizq   0.48044
gfz2013pkmz   2.22530
gfz2013pqkp   0.55584
gfz2013qoak   1.70190
gfz2013rdmn  -0.28784
gfz2013stup   0.01029
gfz2013taeb   3.24570
gfz2013tert   0.39521
gfz2013unuv   0.15623
gfz2013upqj   1.35880
gfz2013uwxb   2.01860
gfz2013veug   0.07074
gfz2013vmsg  -0.13097
gfz2013vnwa   1.13110
gfz2013vzel   0.47245
gfz2013xahp  -0.23380
gfz2013yawe   0.89111
gfz2014ayxf   2.74850
gfz2014bdju   0.57461
gfz2014cncl   0.72042
gfz2014cwti   0.79919
gfz2014flxk   0.55039
gfz2014fxtv   1.46040
gfz2014gqxg   1.10230
gfz2014gypw   2.08510
gfz2014hzzf  -0.40838
gfz2014imqh   0.43737
gfz2014irly   0.94767
