# Nsamples: 397  MAD:  0.412  mean: -0.219  std:  0.631
gfz2010abfc  -0.09362
gfz2010aggj  -0.41825
gfz2010aseg  -0.04133
gfz2010clbw  -0.67080
gfz2010cllh  -1.08310
gfz2010cnhd  -0.52441
gfz2010crgy  -0.46224
gfz2010crir  -0.92270
gfz2010cthm  -1.07200
gfz2010cyid  -1.40390
gfz2010dask  -1.04850
gfz2010djib  -0.57705
gfz2010dmij  -1.77610
gfz2010drit  -0.37316
gfz2010drml   2.01740
gfz2010drmq   2.01740
gfz2010dwgy   0.13273
gfz2010ekvl   0.63186
gfz2010fgbo  -0.64988
gfz2010fjme  -0.61893
gfz2010fkff   0.22328
gfz2010fqzh  -0.79401
gfz2010fvfz  -0.23983
gfz2010fxhh   0.42096
gfz2010ifhd  -0.93204
gfz2010izag  -0.07037
gfz2010jdhk  -0.02089
gfz2010jlvp  -0.55364
gfz2010jpkn   0.38707
gfz2010mdti  -0.62997
gfz2010mqzz  -0.24289
gfz2010ncwu  -0.46495
gfz2010ngge  -0.14328
gfz2010pclq   2.24710
gfz2010pzza  -0.92211
gfz2010qdqk  -1.10150
gfz2010rhvu  -0.00524
gfz2010rkuu  -0.79443
gfz2010rljv  -0.29495
gfz2010rnwt  -1.69850
gfz2010rpjd  -1.95650
gfz2010schp  -0.55531
gfz2010sdfs  -0.16767
gfz2010shvn  -0.04071
gfz2010tcgh  -0.38142
gfz2010tmba  -0.58657
gfz2010tpcj  -1.02650
gfz2010tzlz  -0.39916
gfz2010ugws   0.30410
gfz2010uhjy  -0.74828
gfz2010vdcf   0.42347
gfz2010vhzx  -0.29627
gfz2010vong  -0.84619
gfz2010wakc  -0.72865
gfz2010wyuj  -1.47140
gfz2010xamh  -0.86483
gfz2010xaxw  -0.31932
gfz2010xjsv  -0.85558
gfz2010xnbn  -0.47435
gfz2010xpzq  -0.12309
gfz2010xzte  -0.97100
gfz2010yfdr   0.77663
gfz2010zjun   0.46612
gfz2011ahvh  -0.49563
gfz2011boaz  -0.16990
gfz2011bpqm   0.02863
gfz2011bsvr  -0.83041
gfz2011bwsm   0.48877
gfz2011bygs   0.08958
gfz2011bygu  -0.28412
gfz2011chsa  -0.57110
gfz2011cjuz   0.78290
gfz2011cwhx   1.55890
gfz2011cwsm  -0.08926
gfz2011cwzi  -0.44420
gfz2011cxdj  -0.17795
gfz2011dabj  -0.47679
gfz2011dhfg  -0.56259
gfz2011dhqk  -0.21865
gfz2011etkc  -0.46695
gfz2011ffdh  -0.15840
gfz2011fnie  -0.22843
gfz2011fnuk  -1.03870
gfz2011fszl  -0.01605
gfz2011gfer  -0.74646
gfz2011ggnl  -0.34711
gfz2011gnbk  -0.39723
gfz2011gpyr  -0.20487
gfz2011haaa  -0.30566
gfz2011hatg  -0.38678
gfz2011hqjs  -0.22050
gfz2011ioch   1.39800
gfz2011iryz  -0.40724
gfz2011jdoz   0.37948
gfz2011jphj  -2.06590
gfz2011kfch  -0.36739
gfz2011kjzt  -0.49252
gfz2011kjzv   0.17882
gfz2011kyzy   0.15323
gfz2011lkkf   1.27440
gfz2011lmug  -0.34038
gfz2011lwmg  -0.08703
gfz2011mjje  -0.55556
gfz2011mror   1.02090
gfz2011nftw   0.57792
gfz2011nhby  -0.96753
gfz2011nijp  -1.04390
gfz2011nilw  -0.38173
gfz2011niuw  -0.53341
gfz2011nlmf  -1.63220
gfz2011nlnl  -1.51800
gfz2011nlum  -1.04150
gfz2011nmdz  -0.13982
gfz2011nmhg  -0.98768
gfz2011nsiy  -0.94639
gfz2011nuqo  -0.94629
gfz2011oazk   0.32520
gfz2011oekz  -0.34480
gfz2011ofpj  -0.32825
gfz2011ohgj  -1.05010
gfz2011oslk  -0.13152
gfz2011owqa  -0.50300
gfz2011paqj  -0.83982
gfz2011pfls  -0.24114
gfz2011pmuv  -0.27506
gfz2011poug  -0.75823
gfz2011ppsc  -0.44781
gfz2011prrq  -0.37669
gfz2011pwbw  -0.57292
gfz2011qenl  -0.34560
gfz2011qgea   0.20835
gfz2011qukj  -0.63471
gfz2011scma  -0.23366
gfz2011sdax  -0.25643
gfz2011sqco  -1.34570
gfz2011sxno  -0.46252
gfz2011syvj   0.44910
gfz2011syzr   0.36656
gfz2011taqr   1.13260
gfz2011tlwl   1.01390
gfz2011tqgg   0.27285
gfz2011tsgl   0.34159
gfz2011tssv   0.36586
gfz2011uqry  -0.46384
gfz2011urwz   0.66945
gfz2011vahy  -0.42314
gfz2011vbxv  -0.55895
gfz2011vtzv  -0.52462
gfz2011wcvs  -0.97951
gfz2011wkja  -0.60076
gfz2011wpzt  -0.73219
gfz2011wtfn  -1.37540
gfz2011wucg  -0.10468
gfz2011wwze  -0.03009
gfz2011xgbc  -0.69536
gfz2011xgwy  -0.43873
gfz2011xkka   0.89754
gfz2011xnui  -0.60062
gfz2011yeck  -0.37040
gfz2011yexx  -0.00322
gfz2011ypfh   0.09554
gfz2011ytob   0.97993
gfz2011zghc   0.12064
gfz2011zkbt  -0.51741
gfz2012adja   0.65429
gfz2012amvs  -0.03927
gfz2012bcvn  -0.55849
gfz2012bqcf  -0.01714
gfz2012byrq  -0.11188
gfz2012cdju  -0.26760
gfz2012cntu  -0.38761
gfz2012cvfr  -0.38411
gfz2012cwhl  -0.08883
gfz2012dejg   1.31520
gfz2012dpwv   0.67814
gfz2012dugf  -1.07020
gfz2012dwwu   0.40910
gfz2012dyck  -0.32882
gfz2012dysu  -0.40910
gfz2012dzot  -0.61013
gfz2012ebff  -0.25492
gfz2012ebrr  -0.81896
gfz2012ekfp  -0.05439
gfz2012ekro   0.06539
gfz2012elek  -0.58565
gfz2012erds  -0.02584
gfz2012eyti  -2.40420
gfz2012gnow  -0.53666
gfz2012hhlx  -0.13144
gfz2012ipdc   0.29104
gfz2012izke   0.17190
gfz2012kmbo  -0.24793
gfz2012kmmz   0.25288
gfz2012kstg  -0.18395
gfz2012ldjj   0.35060
gfz2012luzm  -0.54157
gfz2012mdzf  -0.12207
gfz2012mjuu  -0.57803
gfz2012mrqk   0.80968
gfz2012mrwu  -0.53960
gfz2012mtyn   0.19912
gfz2012ndwt   0.85992
gfz2012nmja  -0.39496
gfz2012nnqu  -0.05298
gfz2012nqvd  -0.24562
gfz2012oafg  -0.13858
gfz2012oehy  -0.16553
gfz2012ofnx   0.27991
gfz2012oork   1.56800
gfz2012pdav  -0.37608
gfz2012phns   0.06843
gfz2012pmuj  -0.17551
gfz2012qmhz  -0.57300
gfz2012qpoc   0.87981
gfz2012roan  -1.11730
gfz2012sgfd  -0.81504
gfz2012smyn   0.63512
gfz2012socz   0.40108
gfz2012suqd  -0.51176
gfz2012svwz  -0.35764
gfz2012sxzs  -0.50525
gfz2012syum  -0.58808
gfz2012tisj  -0.43675
gfz2012tqjc  -0.47148
gfz2012trfq  -0.04698
gfz2012uhsx  -0.96298
gfz2012uhtc  -0.43494
gfz2012uzww  -0.73372
gfz2012vitw  -0.44999
gfz2012vkjw  -1.26640
gfz2012vqmq  -1.11010
gfz2012vrqz  -0.37908
gfz2012vurc   0.10576
gfz2012wgdv  -0.12068
gfz2012wgmg  -0.61441
gfz2012wkki   0.13308
gfz2012wmmw   0.25467
gfz2012wowu   0.79673
gfz2012wqfz  -0.75436
gfz2012wysg   0.19431
gfz2012xask  -0.28345
gfz2012xfnu   0.40057
gfz2012xkln  -0.63880
gfz2012xlfo   0.23143
gfz2012xncm  -0.11201
gfz2012xrmq  -0.18899
gfz2012xtvu  -0.45150
gfz2012xxdj  -0.70741
gfz2012yegw  -0.39755
gfz2012ylai  -0.58630
gfz2013agmt   0.40101
gfz2013bwgw  -0.40509
gfz2013byyy  -0.46705
gfz2013cvve  -0.73272
gfz2013cyvx  -0.40934
gfz2013delq  -0.71841
gfz2013dftb  -0.22271
gfz2013dzvr   0.39597
gfz2013esef  -0.17088
gfz2013fmcd   0.66918
gfz2013fmcp  -0.12050
gfz2013fnpa  -0.21673
gfz2013fthi  -0.30528
gfz2013fulo   0.38521
gfz2013fvht  -0.02441
gfz2013fvyr  -0.18115
gfz2013ghpd   0.08184
gfz2013gkcx  -0.76403
gfz2013gkyn  -0.50452
gfz2013glpz   0.64083
gfz2013gsnl   0.65306
gfz2013gurk  -0.15665
gfz2013gxye   0.03255
gfz2013hbmi  -0.69213
gfz2013hbtm   0.21404
gfz2013hqaa  -0.40385
gfz2013icql  -0.24229
gfz2013ikic  -0.24693
gfz2013irme   0.24074
gfz2013iuyv   0.34996
gfz2013ivvw  -0.16629
gfz2013iwzn   0.67850
gfz2013jfcn  -0.29622
gfz2013jobl  -0.18838
gfz2013jrqf  -0.07851
gfz2013jtsg  -0.07643
gfz2013jzcf   0.06216
gfz2013kats  -0.15241
gfz2013kbbg  -0.42846
gfz2013kbbn  -0.23253
gfz2013kbkp   2.09050
gfz2013kcdb  -0.38785
gfz2013kdfy  -0.13352
gfz2013kqab  -0.15380
gfz2013lbod   0.05451
gfz2013lbvl  -0.02483
gfz2013lcrk   0.15981
gfz2013ljdu  -0.42351
gfz2013mktp  -0.68452
gfz2013mynb   0.47738
gfz2013mzaw  -0.36049
gfz2013nkgt  -0.04818
gfz2013ntfc  -1.51700
gfz2013ntiu   0.85213
gfz2013oeni  -0.11660
gfz2013oizq   0.00000
gfz2013okac  -0.46287
gfz2013orot   0.20116
gfz2013oywh  -0.74950
gfz2013phhi   0.26871
gfz2013pkmz   2.27130
gfz2013pqkp   0.55749
gfz2013qear  -0.83093
gfz2013qigb  -0.10835
gfz2013qoak  -0.74783
gfz2013quwz  -0.59601
gfz2013quyn  -0.33250
gfz2013qxof  -0.36275
gfz2013rdmn  -0.56650
gfz2013rfik  -0.29571
gfz2013rocs  -0.41618
gfz2013rtvy  -0.77014
gfz2013ryph  -0.13580
gfz2013skvq  -0.35292
gfz2013stup   2.16280
gfz2013swnj  -0.47272
gfz2013taeb   0.74037
gfz2013tcju  -0.95192
gfz2013tdsx   0.18007
gfz2013tekq  -0.49810
gfz2013tgia  -0.04268
gfz2013tkcg   0.58435
gfz2013tnrp   0.22505
gfz2013twbc   0.76602
gfz2013ubgt  -0.38086
gfz2013udtw  -0.45672
gfz2013utqa  -0.42158
gfz2013uwjo  -0.59294
gfz2013vdam  -0.19806
gfz2013veug  -0.13638
gfz2013vfix  -0.16211
gfz2013vldx   0.44824
gfz2013vmrv  -0.08054
gfz2013vnwa  -0.43858
gfz2013voai  -0.54649
gfz2013vojy  -0.54869
gfz2013vvre  -0.28307
gfz2013vzel  -0.69555
gfz2013xmzw  -0.23501
gfz2013xswc  -0.20530
gfz2013xxbf   1.64420
gfz2013yodm  -0.46944
gfz2013yxhf   0.59671
gfz2013zfbz  -0.15412
gfz2013zlak  -0.00000
gfz2014amgk  -0.80512
gfz2014aqop  -0.43157
gfz2014ayxf  -0.14662
gfz2014azfu  -0.40024
gfz2014dihl  -0.48886
gfz2014eirs  -0.24403
gfz2014eoay  -0.54108
gfz2014esez  -0.41825
gfz2014etgp   0.36275
gfz2014fbef  -0.53315
gfz2014fbli  -0.22250
gfz2014flxk   0.02118
gfz2014fqas  -0.45402
gfz2014fsir  -0.08601
gfz2014fsje  -0.32336
gfz2014fwuf  -0.87198
gfz2014fwxt  -0.22213
gfz2014fxte  -0.17706
gfz2014gnbw  -0.34386
gfz2014gnvp  -0.03234
gfz2014gsfc  -0.13970
gfz2014gssz  -0.19089
gfz2014gtee  -0.83201
gfz2014gtoj  -1.39260
gfz2014gypw   0.51037
gfz2014hqhv  -0.82349
gfz2014huqh  -0.71385
gfz2014hyea  -0.54276
gfz2014hzzf  -0.49306
gfz2014icov  -0.96003
gfz2014igrp  -0.04202
gfz2014iltl   0.03776
gfz2014ined  -0.58356
gfz2014irlf   0.26850
gfz2014irln   0.22720
gfz2014irly  -0.05222
gfz2014isjg  -0.45804
gfz2014iusw  -0.29827
gfz2014ixlc  -0.70612
gfz2014jarg  -0.30712
gfz2014jaxy   0.94183
gfz2014jayh  -0.40924
