# Nsamples: 289  MAD:  0.398  mean:  0.193  std:  0.666
gfz2010aggj  -0.15691
gfz2010aimm  -0.03157
gfz2010bkfi   0.35450
gfz2010bqnk  -0.04482
gfz2010brlc  -0.36945
gfz2010brrm   0.00000
gfz2010bukb   0.66390
gfz2010cllh   0.15444
gfz2010crgy  -0.39436
gfz2010crir  -0.46113
gfz2010csle  -1.04540
gfz2010csmw   0.02694
gfz2010csqy  -0.76939
gfz2010cthm   2.32810
gfz2010cyid   0.95988
gfz2010dask   0.32326
gfz2010djib  -0.43870
gfz2010drit   0.32842
gfz2010eibh   0.06045
gfz2010fgbo   0.42591
gfz2010fjme   0.80569
gfz2010gcqp   0.09331
gfz2010habf   0.03112
gfz2010izag   0.74573
gfz2010jdhk   0.45655
gfz2010mdti   0.84550
gfz2010ngge   2.46170
gfz2010oguu   0.15916
gfz2010pgpo   0.36662
gfz2010pzza  -0.54036
gfz2010qrix   0.50805
gfz2010qrta   0.12409
gfz2010rhvu   0.45855
gfz2010rkuu   0.25646
gfz2010rljv   0.40964
gfz2010sdfs   1.00130
gfz2010tmba   0.33145
gfz2010tzlz   0.35589
gfz2010tzma   0.58586
gfz2010uhjy   0.89294
gfz2010vong  -0.14160
gfz2010xezr   2.32090
gfz2010xpzq   0.07811
gfz2010yfdr   0.33911
gfz2010yilf   0.67345
gfz2010ytzb  -0.35005
gfz2011ahvh  -0.05975
gfz2011bpqm  -0.45423
gfz2011bygu   0.13517
gfz2011cdge   3.04300
gfz2011dabj  -0.37053
gfz2011dhfg  -0.25306
gfz2011dpyu   0.46838
gfz2011duvm   1.04660
gfz2011edrq  -0.06957
gfz2011fnie  -0.11680
gfz2011gnbk   0.19866
gfz2011gpyr   4.73060
gfz2011kjzt   0.09967
gfz2011kyzy   0.04788
gfz2011lmug   0.33652
gfz2011ndhh   0.32680
gfz2011nfcz   0.06792
gfz2011nhby   0.05878
gfz2011nijp   0.95869
gfz2011nlmf  -0.86057
gfz2011nlum  -0.41482
gfz2011ofpj  -0.09132
gfz2011oslk  -0.16200
gfz2011pgzk   0.09134
gfz2011pmuv  -0.29245
gfz2011qenl   1.26880
gfz2011rnsp   0.50064
gfz2011sdax  -0.13682
gfz2011sxno  -0.01575
gfz2011syzr   0.98191
gfz2011tqgg   0.76480
gfz2011tsgl   0.41392
gfz2011uqry   0.42909
gfz2011vahy  -0.10459
gfz2011vcyx   0.63442
gfz2011vimn  -0.08506
gfz2011wngi   0.14163
gfz2011wpzt  -0.10619
gfz2011wqup  -0.54834
gfz2011wucg   0.68786
gfz2011wwze   0.21812
gfz2011wzss  -0.05022
gfz2011xgbc   0.05040
gfz2011xnui   0.16721
gfz2011yexx  -0.14382
gfz2011zghc   0.82342
gfz2012adja   0.51861
gfz2012ahac  -0.50456
gfz2012bity  -0.06671
gfz2012bqcf  -0.22974
gfz2012cdju  -0.02475
gfz2012cntu   1.94630
gfz2012cvfr   0.16526
gfz2012dcjd  -0.05563
gfz2012dnig   0.40659
gfz2012dtdt   1.19040
gfz2012dtlu   0.01787
gfz2012dttl   0.15002
gfz2012dyck   0.22805
gfz2012dysu  -0.09428
gfz2012dzot  -0.04434
gfz2012eeft  -0.09442
gfz2012ekfp  -0.15450
gfz2012elek   0.06509
gfz2012erds  -0.33406
gfz2012fyny   0.14534
gfz2012gftg  -1.05970
gfz2012gjdg   0.89672
gfz2012gnow   0.05155
gfz2012iijk   0.17436
gfz2012ipdc  -0.66408
gfz2012kmbo   0.28977
gfz2012kmmz   0.44762
gfz2012kstg   2.40870
gfz2012ldjj   0.21027
gfz2012mdzf  -0.16486
gfz2012mmiw  -0.33737
gfz2012mpzo   0.89958
gfz2012mrqk  -0.51818
gfz2012mrwu  -0.00289
gfz2012nqvd  -0.39852
gfz2012oafg  -0.15648
gfz2012oehy   0.19900
gfz2012pdav  -0.08435
gfz2012pumy  -0.27085
gfz2012pvve  -0.17985
gfz2012sgfd   1.67210
gfz2012tisj  -0.14370
gfz2012trfq  -0.00000
gfz2012trss   0.19054
gfz2012ttnf   0.08626
gfz2012uzww   0.21934
gfz2012vile   1.50150
gfz2012vitw   0.04547
gfz2012wgmg   0.27561
gfz2012wmmw   0.66648
gfz2012wowu   0.71285
gfz2012wugc  -0.68592
gfz2012wysg   0.34048
gfz2012xask   0.22892
gfz2012xkln  -0.19077
gfz2012xrmq  -0.13258
gfz2012xxdj   0.14647
gfz2012yegw   1.30290
gfz2012zhyz   0.12304
gfz2012zqis  -0.54900
gfz2013agbm   0.39373
gfz2013aggr   0.61153
gfz2013byyy  -0.26730
gfz2013cinv  -0.04952
gfz2013cvve   0.10702
gfz2013cyvx   0.02387
gfz2013delq  -0.42673
gfz2013dftb   0.12004
gfz2013dnot   0.20862
gfz2013eavq   0.08177
gfz2013eazm   0.54976
gfz2013efct   0.09481
gfz2013eidd  -0.40169
gfz2013fnpa   0.09118
gfz2013fvht   0.31153
gfz2013fvyr  -0.25353
gfz2013glpz  -0.17968
gfz2013gurk  -0.00227
gfz2013gxye   0.22064
gfz2013havw   0.38012
gfz2013hbmi   0.12677
gfz2013hbtm   0.76516
gfz2013hinw   0.13224
gfz2013hqaa   0.88756
gfz2013hvzv   0.31821
gfz2013icgx  -0.09492
gfz2013icql  -0.38259
gfz2013ikic   0.43420
gfz2013irme   2.13580
gfz2013iuyv  -2.50030
gfz2013jfcn   0.22071
gfz2013jhog   0.32847
gfz2013jobl   0.03090
gfz2013jzcf   0.87175
gfz2013kats  -0.35438
gfz2013kqab   0.87889
gfz2013kslp   0.20436
gfz2013lbvl   0.20281
gfz2013ljdu   0.06789
gfz2013ljwt  -0.39789
gfz2013lqjj  -0.02244
gfz2013mdxj   0.28770
gfz2013mzaw   0.16118
gfz2013oeni  -0.26857
gfz2013ohnj   0.14410
gfz2013oizq   0.96008
gfz2013oruq   0.18600
gfz2013phhi   0.14719
gfz2013pizm   0.63708
gfz2013qigb   0.27096
gfz2013qnqr   0.35923
gfz2013qoak   0.39944
gfz2013quwz  -0.09241
gfz2013quyn  -0.26908
gfz2013qxof  -0.62929
gfz2013rocs  -0.01997
gfz2013sdkg   0.00000
gfz2013skvq   0.02516
gfz2013stou   0.41207
gfz2013swnj  -0.34012
gfz2013tekq  -0.21394
gfz2013tgyb   0.12058
gfz2013tmyj   0.26958
gfz2013tnrp  -0.17173
gfz2013ubgt   0.24953
gfz2013udtw   0.28050
gfz2013uepl  -0.14809
gfz2013unuv  -0.27528
gfz2013utqa   0.73447
gfz2013uwjo   0.17854
gfz2013vcgd  -0.37104
gfz2013vdam   0.42381
gfz2013vmrv   0.67400
gfz2013voai   0.06347
gfz2013vvre   1.37720
gfz2013vwkh  -0.14935
gfz2013vxht   1.01530
gfz2013wyfl  -0.17087
gfz2013xacx  -1.60900
gfz2013xahp  -0.26733
gfz2013xbdc   2.15030
gfz2013xddu   0.17993
gfz2013xjmo   1.18960
gfz2013xmzw  -0.07732
gfz2013xodn  -0.32703
gfz2013xswc   0.52592
gfz2013xvps   0.04044
gfz2013yktj  -0.19116
gfz2013ylxm   0.80139
gfz2013yodm  -0.25864
gfz2013yqkz   0.36153
gfz2013yqtu  -0.59080
gfz2013yvnj   0.02681
gfz2013yxif   0.18187
gfz2013zfbz   0.22582
gfz2013zlak   0.18792
gfz2014aedl   0.27883
gfz2014amgk   0.65883
gfz2014ateb   0.48237
gfz2014azfu   0.16615
gfz2014bqpm   0.01477
gfz2014bzus  -0.31811
gfz2014cokw   0.36492
gfz2014ctdl  -0.30865
gfz2014cvnb   0.01675
gfz2014dbqi  -0.38749
gfz2014diuu   0.43263
gfz2014djhi   0.52703
gfz2014dmrw  -0.41143
gfz2014dtth   0.02147
gfz2014dwcp  -0.18485
gfz2014edjm   0.33543
gfz2014ejfx  -0.07247
gfz2014emlw   0.14390
gfz2014eoay  -0.10400
gfz2014esez  -0.16374
gfz2014etgp   0.58808
gfz2014evgu   0.41678
gfz2014fbli   0.35388
gfz2014fhki  -1.60660
gfz2014fjfz   0.19401
gfz2014fwxt   0.00000
gfz2014fxte  -0.60458
gfz2014grwv   0.09295
gfz2014gtee  -0.14139
gfz2014herz  -0.44326
gfz2014hqhv  -0.51605
gfz2014hyea  -0.44853
gfz2014icov   1.58130
gfz2014iltl   0.57223
gfz2014ined  -0.03990
gfz2014irlf   0.06193
gfz2014irln  -0.70426
gfz2014itlx   0.14376
gfz2014iusw   0.07998
gfz2014jarg   0.19668
gfz2014jayh   0.00010
