# Nsamples: 62  MAD:  0.729  mean:  0.821  std:  1.036
gfz2010dask   0.41107
gfz2010fvfz  -0.76749
gfz2010rkuu   1.26270
gfz2010tmba   4.06110
gfz2010ugws  -0.35475
gfz2010uhjy   0.19496
gfz2011ahvh   1.92110
gfz2011oslk   0.41819
gfz2011paqj  -0.44781
gfz2011ppsc   1.84260
gfz2011qukj   3.13870
gfz2011sdax   0.89845
gfz2011sqco   0.24178
gfz2011sxno   3.23830
gfz2011taqr   0.71942
gfz2011tsgl   0.94476
gfz2011uqry   0.13481
gfz2011vahy   0.55137
gfz2011xgwy   3.42180
gfz2011yexx   0.66927
gfz2012bqcf   0.33080
gfz2012byrq   0.06167
gfz2012ekfp   0.42956
gfz2012gpcd  -0.08399
gfz2012uhtc   0.47311
gfz2012uvoa   0.52233
gfz2012wgmg   0.45867
gfz2012xcsf  -0.36948
gfz2012xrmq   0.35457
gfz2013cvve   1.17820
gfz2013efct  -1.65350
gfz2013fmcp   1.33880
gfz2013fnpa   0.53771
gfz2013fulo   1.20580
gfz2013fvht   1.22780
gfz2013icgx   2.44510
gfz2013iwzn   1.73110
gfz2013jfcn   0.77831
gfz2013noqf   2.41640
gfz2013orot   0.96927
gfz2013oywh   0.37695
gfz2013phhi  -0.63379
gfz2013utqa   0.56077
gfz2013uwjo  -1.22090
gfz2013vmrv   1.06570
gfz2013vvre   1.28630
gfz2013xswc   0.87198
gfz2013zlak   0.13132
gfz2014bkra   0.77391
gfz2014fwxt   1.29930
gfz2014fxte   0.51724
gfz2014fxuy   0.82797
gfz2014gnbw   0.99134
gfz2014hyea   0.07485
gfz2014hzzf   0.23204
gfz2014icov   0.17261
gfz2014igrp   1.78400
gfz2014iltl   0.99892
gfz2014irlf   1.43150
gfz2014irln   1.15700
gfz2014jarg   0.34818
gfz2014jayh   1.02120
