# Nsamples: 53  MAD:  0.512  mean:  0.303  std:  0.709
gfz2010bklj   0.10723
gfz2010clbw  -0.02438
gfz2010cllh  -0.23561
gfz2010crgy   0.06457
gfz2010crir  -0.43122
gfz2010dask   0.16606
gfz2010djib  -0.02882
gfz2010drit   0.76044
gfz2010fjme   0.89668
gfz2010habf   0.61963
gfz2010jlvp  -1.01920
gfz2010ngge   0.72491
gfz2010rljv   1.42770
gfz2010tmba   0.53097
gfz2010uhjy   0.59067
gfz2010vong   0.34204
gfz2010xnbn   0.35048
gfz2010xpzq   0.29861
gfz2010yfdr   0.56158
gfz2011ahvh   0.87788
gfz2011amst   0.02939
gfz2011bpqm   0.20919
gfz2011cdge   0.46993
gfz2011dabj  -0.03604
gfz2011dpyu   0.46560
gfz2011ggnl   2.91580
gfz2011gnbk   0.32080
gfz2011gpyr   0.84004
gfz2011ndhh  -0.83832
gfz2011nijp   0.37943
gfz2011oslk   0.15060
gfz2011sdax   0.00000
gfz2012bqcf  -0.08340
gfz2012cvfr   0.70256
gfz2012ekfp   0.89413
gfz2012iijk   0.66109
gfz2012kmbo  -0.52413
gfz2012qllj  -1.18550
gfz2012uvoa   0.17319
gfz2013fnpa   0.63650
gfz2013hiam  -0.50074
gfz2013jfcn   0.40155
gfz2013jobl   0.44620
gfz2013kats   0.19998
gfz2013kbbg  -0.25229
gfz2013qoak  -0.60901
gfz2013quwz   2.02350
gfz2013stou  -1.24210
gfz2013utqa   0.19843
gfz2013vmrv   0.92229
gfz2013yqtu   0.23666
gfz2013zlak   0.73723
gfz2014ayxf   0.73507
