# Nsamples: 33  MAD:  0.658  mean:  0.113  std:  0.867
gfz2010dask   0.27630
gfz2010djib  -0.21272
gfz2010drit  -0.22138
gfz2010dxhq  -2.92030
gfz2010yfdr   0.70574
gfz2010zjun   0.29353
gfz2011ahvh   0.21250
gfz2011bpqm  -0.75852
gfz2011bsvr   0.18362
gfz2011cjuz   0.74912
gfz2011dabj   0.75381
gfz2011dpyu   0.00274
gfz2011ggnl   0.48215
gfz2011gnbk   0.70802
gfz2011gpyr   1.05100
gfz2011tsgl  -0.36209
gfz2011uqry  -0.40558
gfz2011vahy   0.65770
gfz2011yexx  -0.11357
gfz2012cdju   0.35980
gfz2012cntu   0.79724
gfz2012cvfr   0.90811
gfz2012ekfp  -0.61052
gfz2012elek   0.48344
gfz2012iijk   0.73738
gfz2012kmbo   0.89697
gfz2012kqjb  -2.35340
gfz2012mpzo  -0.57053
gfz2012oafg   0.62223
gfz2012pokk   0.18208
gfz2012uvoa  -0.14439
gfz2012uzww   0.44855
gfz2012wkki   0.88568
