# Nsamples: 290  MAD:  0.496  mean:  0.108  std:  0.767
gfz2010abfc  -0.42488
gfz2010abvu  -0.10770
gfz2010aimm   0.36743
gfz2010aseg   1.03380
gfz2010bklj  -0.64225
gfz2010bmls   3.29150
gfz2010bqnk  -0.27582
gfz2010brrm   0.45991
gfz2010clbw  -0.39775
gfz2010cllh  -0.31654
gfz2010cphq   0.00254
gfz2010cpig  -0.40120
gfz2010crgy  -0.44252
gfz2010crir  -0.79833
gfz2010csle   0.13871
gfz2010csqy  -0.61484
gfz2010cthm   3.71150
gfz2010cvkn   0.56881
gfz2010dask   0.30950
gfz2010djib  -0.98933
gfz2010drit   0.34133
gfz2010drml  -0.13963
gfz2010drmq  -0.13963
gfz2010drpv   0.96873
gfz2010drun  -0.06858
gfz2010dumv  -0.45602
gfz2010dwgy  -0.31645
gfz2010dxhq  -0.33507
gfz2010ethu  -0.68404
gfz2010faly  -0.25620
gfz2010fgbo  -0.04957
gfz2010fjio   0.44718
gfz2010fjme  -0.38404
gfz2010fkff   0.18028
gfz2010fkpa  -0.61689
gfz2010fxhh  -0.45894
gfz2010fxut   1.51680
gfz2010gcqp   0.02122
gfz2010gonu  -0.06425
gfz2010habf  -0.10208
gfz2010hesh  -0.51245
gfz2010hllp   1.63920
gfz2010hsgv  -0.33428
gfz2010hueh   1.70700
gfz2010hxan  -0.39166
gfz2010iaay  -0.42580
gfz2010iawy   0.40654
gfz2010ifhd  -1.32700
gfz2010ljzf   0.55493
gfz2010mdti  -0.00000
gfz2010ncwu   1.26350
gfz2010ngge  -0.27968
gfz2010oguu   0.22902
gfz2010qrix   0.04542
gfz2010qrta   0.47548
gfz2010qzvf   0.57785
gfz2010rpjd   0.39996
gfz2010schp  -0.35813
gfz2010tpcj   0.05785
gfz2011edrq   0.02945
gfz2011emzr   0.07123
gfz2011fnie  -0.36031
gfz2011fszl  -0.08721
gfz2011fzcw   0.85339
gfz2011gfer  -0.48247
gfz2011ggnl   3.47960
gfz2011gnbk  -0.06086
gfz2011gpyr  -0.32173
gfz2011hffq   0.69144
gfz2011kyzy  -0.38546
gfz2011ldgl  -0.12322
gfz2011lkkf   0.12855
gfz2011lwmg  -0.44225
gfz2011mjje  -0.42531
gfz2011mllb   0.27303
gfz2011mntq   0.67852
gfz2011niuw  -0.27581
gfz2011qenl   0.10274
gfz2011rkau  -0.06162
gfz2011rnsp   0.18753
gfz2011rqut   0.16918
gfz2011sdax  -0.80029
gfz2011sdpl   0.29351
gfz2011sqco  -0.24619
gfz2011sxno  -0.26739
gfz2011syvj   0.91384
gfz2011syzr   0.91806
gfz2011szcj   0.49025
gfz2011taqr   0.76225
gfz2011tarj   1.57500
gfz2011tdjj   0.62561
gfz2011xgbc   0.23840
gfz2011xkka   0.49056
gfz2011xxng   0.63948
gfz2011yexx  -0.57400
gfz2011ymji  -0.18990
gfz2011zghc   0.63882
gfz2011zkbt  -0.66137
gfz2012adja   0.62284
gfz2012ahac  -0.68281
gfz2012amjx   0.24218
gfz2012arlo   0.25655
gfz2012bity  -0.11667
gfz2012bqcf  -0.12341
gfz2012byrq   0.26724
gfz2012cdju  -0.40958
gfz2012cksh  -0.15179
gfz2012dnig   0.05481
gfz2012dtlu   0.07248
gfz2012dttl   0.31093
gfz2012duwm  -0.87099
gfz2012dwwu  -0.81234
gfz2012dyck  -0.18619
gfz2012dysu   0.32101
gfz2012fuyd   1.17440
gfz2012gdye  -0.24821
gfz2012ghiv  -0.41866
gfz2012gnow   0.13858
gfz2012gpcd  -1.40740
gfz2012hvtu   2.13740
gfz2012hzur   0.57078
gfz2012iblo   0.32545
gfz2012iijk  -0.22895
gfz2012ipdc  -1.04150
gfz2012kadi  -0.55367
gfz2012kmbo  -0.43278
gfz2012ldjj  -0.83501
gfz2012luzm  -0.32432
gfz2012lyyr  -0.00000
gfz2012mdzf  -0.61023
gfz2012mjuu  -0.08533
gfz2012mmiw  -0.49415
gfz2012mpzo   0.98874
gfz2012mrqk  -0.73648
gfz2012mrwu  -0.09360
gfz2012nnqu   0.18808
gfz2012nqvd  -0.60423
gfz2012oafg  -0.15010
gfz2012oehy  -0.12479
gfz2012ofnx  -0.13727
gfz2012oozp   0.46691
gfz2012pdav  -0.50605
gfz2012phns   0.15518
gfz2012pmuj   0.39628
gfz2012pumy  -0.17154
gfz2012pvve   0.09749
gfz2012qfah   0.05667
gfz2012qllj   0.17807
gfz2012qpoc  -0.80578
gfz2012rzwp   0.61615
gfz2012sfao   0.13575
gfz2012sgfd   1.36800
gfz2012socz   0.05274
gfz2012sqsc   5.00120
gfz2012suqd   1.18960
gfz2012svwz   0.25977
gfz2012swbz   1.05010
gfz2012taph  -0.10958
gfz2012tisj  -0.27955
gfz2012trfq   0.41797
gfz2012twec  -0.40500
gfz2012uegq   2.27010
gfz2012uhtc   0.11454
gfz2012uzww  -0.50415
gfz2012vrqz   0.26103
gfz2012vsav   0.60816
gfz2012wkki   0.40083
gfz2012wpen   1.11650
gfz2012wugc  -0.27615
gfz2012wysg   0.51308
gfz2012xask   0.50840
gfz2012xcsf   0.50743
gfz2012xkln  -0.74903
gfz2012xlas  -0.32796
gfz2012xncm   0.00000
gfz2012xrmq  -0.20596
gfz2012ylai  -0.97716
gfz2012zqis  -0.47449
gfz2013byyy  -0.37522
gfz2013cinv  -0.16315
gfz2013cvve  -0.51785
gfz2013cyvx  -0.00000
gfz2013delq   0.02003
gfz2013dftb  -0.00000
gfz2013dngd  -0.16164
gfz2013dzvr  -0.36807
gfz2013eavq  -0.03228
gfz2013efct   0.03063
gfz2013eidd  -0.19066
gfz2013fmcd   0.06310
gfz2013fmcp   1.98260
gfz2013fulo   0.13199
gfz2013fvht   1.24900
gfz2013gsnl  -0.29045
gfz2013gxye   0.41355
gfz2013gywl   1.52880
gfz2013havw   0.15960
gfz2013hbmi   0.08115
gfz2013hbtm   0.78645
gfz2013oizq  -0.05601
gfz2013orot  -0.23040
gfz2013oruq   0.16523
gfz2013oywh   1.54900
gfz2013pkmz  -0.03930
gfz2013qigb   0.28389
gfz2013qoak   0.13310
gfz2013quwz  -0.48675
gfz2013quyn  -0.12748
gfz2013qxof   0.01161
gfz2013rdmn  -0.00714
gfz2013rfik  -0.25788
gfz2013rocs  -0.18140
gfz2013rwkj  -0.32220
gfz2013ryph   0.47594
gfz2013skay   0.33441
gfz2013skvq  -0.02643
gfz2013swnj  -0.14698
gfz2013tcju  -0.84839
gfz2013tekq  -0.18862
gfz2013tjub  -0.08246
gfz2013tnrp  -0.15135
gfz2013ubgt  -0.26376
gfz2013udtw   0.16419
gfz2013uepl  -0.17461
gfz2013ujze  -0.09899
gfz2013unuv  -0.46525
gfz2013upqj   1.04870
gfz2013utqa   0.33530
gfz2013uugc   0.59140
gfz2013uwjo  -0.60359
gfz2013vjrr  -0.09841
gfz2013vldx  -0.29702
gfz2013vmrv   0.23828
gfz2013voai   0.12818
gfz2013vojy  -0.25466
gfz2013vvre   0.58759
gfz2013vwkh  -0.15299
gfz2013vxht   0.16641
gfz2013vzel   0.35278
gfz2013xacx   0.21790
gfz2013xahp  -0.34075
gfz2013xbdc   2.32850
gfz2013xjmo  -0.17417
gfz2013xlic   0.33920
gfz2013xmzw  -0.22606
gfz2013xodn  -0.28034
gfz2013xofz   0.61010
gfz2013xswc  -0.90551
gfz2013xvps  -0.51102
gfz2013xycz  -0.16099
gfz2013ykkf  -0.44293
gfz2013ymhx   0.30061
gfz2013yodm  -0.00000
gfz2013yqkz   0.41977
gfz2013yqtu  -0.78388
gfz2013yxhf   0.95430
gfz2013zeye  -0.25846
gfz2013ziix  -2.46770
gfz2013zlak   0.19156
gfz2014aedl   0.76018
gfz2014amgk   0.50227
gfz2014aqax   0.33662
gfz2014ayxf   0.31064
gfz2014azfu   0.35788
gfz2014bdju  -0.40784
gfz2014befl   0.40648
gfz2014bqpm   0.10007
gfz2014bzus  -0.17129
gfz2014cokw  -0.11326
gfz2014crac  -0.06646
gfz2014ctdl  -0.05185
gfz2014cvnb   0.10530
gfz2014dbqi  -0.57525
gfz2014dece  -0.21550
gfz2014dihl   1.52090
gfz2014diuu   0.67089
gfz2014dtth  -0.41533
gfz2014dwcp  -0.15271
gfz2014ecor   0.73782
gfz2014edjm   0.49740
gfz2014eglj   0.15625
gfz2014ejfx   0.01970
gfz2014eoay  -0.43550
gfz2014epfm  -2.56550
gfz2014epnq   0.09948
gfz2014epue   0.31384
gfz2014esez   0.29945
gfz2014evhm  -0.01253
gfz2014fbli   0.70743
gfz2014fjfz   0.49814
