# Nsamples: 444  MAD:  0.590  mean: -0.600  std:  0.834
gfz2010abfc  -1.89410
gfz2010abvu  -0.95929
gfz2010aggj  -0.97963
gfz2010aimm  -0.89842
gfz2010aseg  -0.16542
gfz2010azji  -0.53398
gfz2010bkfi  -0.66739
gfz2010bklj  -1.06440
gfz2010bmls  -0.80138
gfz2010bqnk  -0.22883
gfz2010brlc  -0.60113
gfz2010brrm  -0.16521
gfz2010btme   0.49399
gfz2010bukb  -0.07371
gfz2010bvit  -0.91517
gfz2010ccwc  -0.76793
gfz2010ccye  -1.04490
gfz2010clbw  -0.86727
gfz2010cllh   0.34260
gfz2010cnhd   0.13442
gfz2010cphq   0.15535
gfz2010cpig  -0.04482
gfz2010crgy  -1.36860
gfz2010crir  -1.70110
gfz2010csle   0.15118
gfz2010csmw  -0.44213
gfz2010cthm   4.81100
gfz2010cyid   0.01983
gfz2010dask  -0.07211
gfz2010depd  -1.47300
gfz2010djib  -1.72760
gfz2010dmij  -1.03370
gfz2010drit   0.82476
gfz2010drml  -1.00320
gfz2010drmq  -1.00320
gfz2010drpv   0.79712
gfz2010drun  -1.01710
gfz2010dslu  -1.10690
gfz2010dtgc   0.43719
gfz2010dtyx   0.35864
gfz2010dumv  -0.21109
gfz2010dwgy  -0.19194
gfz2010dxhq  -0.15740
gfz2010eepd  -0.19541
gfz2010eibh   0.18222
gfz2010extu  -0.86839
gfz2010fgbo  -0.70618
gfz2010fjio  -0.63794
gfz2010fjme  -0.74858
gfz2010fkff  -0.21033
gfz2010fkpa  -0.95110
gfz2010fvfz  -0.92708
gfz2010fxhh  -0.67823
gfz2010fxut   0.29406
gfz2010gcqp  -0.61462
gfz2010gnvp  -0.39087
gfz2010gonu  -0.18705
gfz2010gxki   0.66430
gfz2010habf  -0.84898
gfz2010hllp  -2.59580
gfz2010hsgv  -0.32280
gfz2010hueh   0.73671
gfz2010iaay  -0.46244
gfz2010ifhd  -1.36510
gfz2010inbs  -0.67323
gfz2010ioad  -0.06104
gfz2010izag  -0.14623
gfz2010jlvp  -1.15990
gfz2010jvsi  -0.28737
gfz2010kwks   0.69583
gfz2010ljol  -0.16035
gfz2010ljzf  -2.26300
gfz2010mdti  -1.09250
gfz2010mpvc  -0.26375
gfz2010ncwu  -0.63202
gfz2010ngge  -0.99801
gfz2010oguu  -0.72486
gfz2010pclq  -0.53129
gfz2010pcya  -2.06090
gfz2010qdqk  -1.26350
gfz2010qrix   0.54389
gfz2010qrta  -0.53941
gfz2010qzvf  -0.87271
gfz2010rkuu  -1.44450
gfz2010rljv  -0.56400
gfz2010rnwt  -3.22770
gfz2010rpjd   0.86019
gfz2010schp  -0.70299
gfz2010tcgh  -0.49397
gfz2010tfar   0.87140
gfz2010tmba  -1.14710
gfz2010tpcj  -0.38177
gfz2010tzlz  -0.55338
gfz2010tzma   0.07080
gfz2010ugws  -0.17451
gfz2010uhjy  -0.84533
gfz2010uogw  -0.18619
gfz2010vdcf  -2.43910
gfz2010vong  -0.55486
gfz2010wakc  -1.48560
gfz2010wwhf  -1.19200
gfz2010xamh  -1.09720
gfz2010xnbn  -0.61691
gfz2010xpzq  -0.49617
gfz2010yfdr  -0.43139
gfz2010ytzb  -1.40320
gfz2010zjun  -0.34575
gfz2011ahvh  -1.36010
gfz2011amst  -0.30589
gfz2011bcvc   0.16235
gfz2011bpqm  -0.98458
gfz2011bsvr  -1.49920
gfz2011bygs  -0.35414
gfz2011bygu  -0.75060
gfz2011cdge  -1.35010
gfz2011cfyy  -0.90770
gfz2011cjuz  -0.74502
gfz2011dabj  -1.44890
gfz2011dhfg  -1.06170
gfz2011dpyu  -1.03670
gfz2011emzr  -0.28572
gfz2011exxq  -2.68810
gfz2011fnie  -0.90384
gfz2011fnuk  -1.06250
gfz2011fszl   0.18724
gfz2011fzcw   0.18117
gfz2011gfer  -1.17160
gfz2011ggnl   1.89090
gfz2011gnbk  -0.88969
gfz2011gpyr  -1.13860
gfz2011hqjs  -1.04900
gfz2011jghq  -1.34400
gfz2011jryv  -2.39080
gfz2011kfch  -1.04560
gfz2011kjzt  -1.07490
gfz2011kjzv  -1.08080
gfz2011kylu   1.52650
gfz2011kyzy  -1.07560
gfz2011lkkf  -0.21694
gfz2011lwmg  -1.37780
gfz2011mjje  -1.37910
gfz2011mntq  -0.34443
gfz2011ndhh  -0.61514
gfz2011neai  -1.96110
gfz2011nejg  -1.20000
gfz2011nejw  -0.96677
gfz2011nfcz  -0.98860
gfz2011nftw  -2.50170
gfz2011nhby  -0.62158
gfz2011nhvt  -1.39810
gfz2011nijp  -1.22030
gfz2011nilw   0.67184
gfz2011niuw  -1.27190
gfz2011nlmf  -0.91855
gfz2011nlnl  -1.61530
gfz2011nlum   0.19441
gfz2011nlyw  -1.21130
gfz2011nnos   1.78560
gfz2011npeu   0.65397
gfz2011nsej   0.11949
gfz2011nsiy   0.13647
gfz2011nsrx  -1.09750
gfz2011nuqo   0.10947
gfz2011oadm  -1.41590
gfz2011oazk  -0.80112
gfz2011oekz   0.22181
gfz2011ofpj  -1.27360
gfz2011okza   0.95314
gfz2011oslk  -1.08080
gfz2011owqa   0.00000
gfz2011paqj  -1.84350
gfz2011pivq  -0.45174
gfz2011ppsc  -1.31560
gfz2011pwbw  -1.13790
gfz2011qenl  -0.81126
gfz2011qukj  -1.46870
gfz2011rkau  -1.49990
gfz2011rnny  -1.00200
gfz2011rnsp  -1.01540
gfz2011rqut  -0.56563
gfz2011sdax  -0.80530
gfz2011sdpl  -0.00000
gfz2011sqco   0.86848
gfz2011sxno  -1.17820
gfz2011syvj  -1.35170
gfz2011syzr  -0.35376
gfz2011szbb  -1.52370
gfz2011szcj  -1.53450
gfz2011taqr  -0.44190
gfz2011tarj  -0.36396
gfz2011tdjj  -0.34231
gfz2011tqgg  -0.77929
gfz2011tsgl  -0.44356
gfz2011uqry  -0.28829
gfz2011vahy  -1.05010
gfz2011vbxv   0.21756
gfz2011vcyx  -0.61256
gfz2011xdox  -0.98122
gfz2011xkka  -0.59665
gfz2011xxng   0.43408
gfz2011yexx  -1.74250
gfz2011ypfh  -0.66503
gfz2011zdyf  -0.85390
gfz2011zghc  -0.12054
gfz2011zkbt  -1.82000
gfz2012adja   0.17626
gfz2012amjx  -0.71297
gfz2012arlo   0.02594
gfz2012bity  -1.02280
gfz2012bqcf  -0.92192
gfz2012byuk  -1.89400
gfz2012cdju  -0.97657
gfz2012cksh   0.09353
gfz2012cntu  -1.00230
gfz2012cvfr  -1.15640
gfz2012dejg  -0.79858
gfz2012dnig  -0.86265
gfz2012dttl  -0.37003
gfz2012duwm  -1.04450
gfz2012dwwu  -1.64210
gfz2012dyck  -0.81499
gfz2012dysu  -1.12690
gfz2012eajr   0.22728
gfz2012ekfp  -0.34943
gfz2012fuyd  -1.55180
gfz2012fxgc   2.06110
gfz2012gdye  -0.74985
gfz2012ghiv   0.04139
gfz2012gnow  -0.67179
gfz2012hzur  -0.00000
gfz2012iijk  -0.67372
gfz2012imsm  -1.04630
gfz2012imuo   4.56840
gfz2012jodg  -1.58110
gfz2012kmbo  -1.33740
gfz2012ldjj  -1.12150
gfz2012lvlr  -0.01998
gfz2012lyyr  -0.94187
gfz2012mdzf  -1.20340
gfz2012mjuu  -1.18700
gfz2012mpzo   0.09085
gfz2012mrqk  -1.18860
gfz2012mvgu  -0.75084
gfz2012nldz  -1.47460
gfz2012nnqu  -0.52593
gfz2012nqvd  -1.38640
gfz2012oafg  -0.70202
gfz2012oehy  -0.73679
gfz2012ofnx  -1.42690
gfz2012pdav  -1.47350
gfz2012pgmw  -0.89376
gfz2012phns  -1.17910
gfz2012pmuj   2.27930
gfz2012qfah  -0.91526
gfz2012qpoc  -0.69464
gfz2012rzwp  -0.63257
gfz2012sfao  -1.17380
gfz2012sgfd   1.22400
gfz2012socz  -0.37207
gfz2012sqsc  -0.05958
gfz2012suqd   0.48844
gfz2012svwz  -0.86772
gfz2012sxbo  -0.03780
gfz2012syum  -1.80360
gfz2012taph  -0.78067
gfz2012tisj  -0.90181
gfz2012trfq  -0.25452
gfz2012tvgw  -0.04179
gfz2012uegq  -0.93582
gfz2012uhtc  -0.58019
gfz2012uvoa  -1.11260
gfz2012uzww  -0.95324
gfz2012vdra  -2.15340
gfz2012vile  -0.19015
gfz2012vitw  -1.22580
gfz2012vkjw  -0.61791
gfz2012vnve  -0.13906
gfz2012vrqz  -0.90675
gfz2012wgmg  -1.35400
gfz2012wkki  -0.95754
gfz2012wmmw  -0.33173
gfz2012wowu  -0.53229
gfz2012wysg  -0.53229
gfz2012xask  -0.71350
gfz2012xcsf  -1.07140
gfz2012xkln  -1.12120
gfz2012xlas  -1.01530
gfz2012xlfo   3.39310
gfz2012xncm  -0.41240
gfz2012xxdj  -1.22000
gfz2012ylai  -0.92732
gfz2012yncm   1.55270
gfz2012yvwc  -0.46352
gfz2013aggr  -0.81620
gfz2013agmt   0.12606
gfz2013akkd   1.17710
gfz2013bwgw  -0.88705
gfz2013byyy  -1.22990
gfz2013cinv  -0.15719
gfz2013cokc   0.11438
gfz2013cvve  -1.01020
gfz2013cyvx  -0.82693
gfz2013delq  -0.95600
gfz2013dftb  -0.72660
gfz2013dfvx   0.04009
gfz2013dngd  -0.45726
gfz2013dzvr  -0.98297
gfz2013eazm   0.30068
gfz2013efct  -0.86064
gfz2013fmcd  -0.03493
gfz2013fnpa  -1.09140
gfz2013fulo  -1.01490
gfz2013fvht  -0.31486
gfz2013fybd  -0.91743
gfz2013gkyn  -0.76554
gfz2013gsnl  -1.21900
gfz2013hbmi  -0.50746
gfz2013hiam  -0.83005
gfz2013lbvl  -1.20700
gfz2013lqjj  -0.61784
gfz2013mdxj  -0.51235
gfz2013mimp  -0.39148
gfz2013mvgq  -0.39305
gfz2013mzaw  -0.90814
gfz2013njck   0.17254
gfz2013ntiu   0.02805
gfz2013oeni  -1.05570
gfz2013oizq  -0.62426
gfz2013olos   0.12592
gfz2013oruq  -0.55992
gfz2013osmj  -0.39060
gfz2013otuj  -0.66430
gfz2013pegj  -0.59465
gfz2013pkmz  -0.32185
gfz2013qigb  -0.83486
gfz2013qmkt  -0.38034
gfz2013qoak  -1.63960
gfz2013quwz  -1.35020
gfz2013qxof  -0.95435
gfz2013rdmn  -1.13860
gfz2013rtvy  -1.28450
gfz2013stou  -0.50765
gfz2013taeb   0.64635
gfz2013tdsx  -0.40282
gfz2013tert   1.49350
gfz2013tjub  -1.50490
gfz2013tnrp  -1.19980
gfz2013trsq  -0.73764
gfz2013ubgt  -1.38630
gfz2013udtw  -1.04480
gfz2013ujze  -0.99820
gfz2013unuv  -1.22600
gfz2013upqj   0.51695
gfz2013utqa  -1.05010
gfz2013uwjo  -0.02855
gfz2013uxzw  -0.08788
gfz2013vcgd  -1.49990
gfz2013vdam  -1.06080
gfz2013vjrr  -0.36999
gfz2013vldx  -0.93309
gfz2013vmrv  -0.05448
gfz2013vnwa   0.90818
gfz2013voai  -0.84070
gfz2013vojy  -1.20310
gfz2013vvre  -0.33873
gfz2013vwkh  -0.58765
gfz2013vxht   0.05925
gfz2013wgwz   0.10859
gfz2013wyfl  -0.86912
gfz2013xahp  -0.97317
gfz2013xjmo  -1.12850
gfz2013xlic  -0.83145
gfz2013xmzw  -1.12780
gfz2013xofz  -0.54681
gfz2013xswc  -1.19650
gfz2013yodm  -0.70637
gfz2013yqkz  -0.50196
gfz2013yqtu  -0.63780
gfz2013yxhf  -0.35423
gfz2013zfbz  -0.92072
gfz2013ziix  -2.03650
gfz2013zkgm  -0.23795
gfz2013zkta   0.62898
gfz2013zlak  -0.52400
gfz2014aedl  -0.25780
gfz2014ajgi  -0.32090
gfz2014amgk   0.05677
gfz2014aqax  -0.76650
gfz2014aqop  -0.37897
gfz2014ayxf  -0.37742
gfz2014azfu  -0.32239
gfz2014bdju  -0.62724
gfz2014bkra   1.40450
gfz2014bnea  -0.00000
gfz2014bqpm  -0.52306
gfz2014byes  -1.06030
gfz2014cokw  -0.53855
gfz2014ctdl  -0.86690
gfz2014cvnb  -0.99211
gfz2014cwcj   0.19206
gfz2014dggw  -0.85611
gfz2014dihl  -0.53296
gfz2014diuu  -0.17514
gfz2014djhi  -0.39297
gfz2014djyj  -0.32067
gfz2014edjm  -0.47930
gfz2014egvg   0.54388
gfz2014emlw  -0.80770
gfz2014eoay  -1.15850
gfz2014esez  -0.81080
gfz2014etgp   0.24206
gfz2014etqu  -0.47079
gfz2014eunw  -1.70460
gfz2014evhm   0.12203
gfz2014faex  -0.74481
gfz2014ffqg   0.15502
gfz2014fhki  -1.90310
gfz2014fjfz  -0.18728
gfz2014flxk  -0.21014
gfz2014fmdc   0.78277
gfz2014fsje  -0.95381
gfz2014fskh  -0.84907
gfz2014fvza  -0.23610
gfz2014fwxt  -0.51912
gfz2014fxte  -0.98414
gfz2014gnbw  -0.70616
gfz2014grwv  -0.74972
gfz2014gsfc   0.50559
gfz2014hkcw  -1.53180
gfz2014hotu  -2.10380
gfz2014hqhv  -1.27350
gfz2014iayo   1.65680
gfz2014icov  -0.41462
gfz2014igrp  -0.72842
gfz2014iltl  -0.49747
gfz2014ined  -0.80759
gfz2014irlf  -0.98399
gfz2014irln  -0.26582
gfz2014irly  -0.81458
gfz2014itlx  -0.41548
gfz2014iusw  -0.76296
gfz2014ixlc  -1.23040
gfz2014jarg  -0.71164
gfz2014jayh  -0.77276
