# Nsamples: 41  MAD:  0.454  mean:  0.165  std:  0.832
gfz2010aggj   0.05002
gfz2010aimm  -0.18981
gfz2010bkfi   0.07325
gfz2010brlc  -0.92488
gfz2010brrm  -0.54742
gfz2010btme   1.29990
gfz2010bukb   1.13400
gfz2010cbnp  -1.30600
gfz2010ccye  -0.11743
gfz2010clbw  -0.23888
gfz2010cllh  -0.59533
gfz2010crgy  -0.00618
gfz2010crir  -0.31226
gfz2010csle   0.17930
gfz2010cvam   0.70734
gfz2010cvkn  -0.04050
gfz2010cyid  -0.21458
gfz2010dask   0.01263
gfz2010djib  -0.38455
gfz2010drit  -0.23222
gfz2010drml   0.58213
gfz2010drmq   0.58213
gfz2010dumv  -1.17010
gfz2010dwgy  -0.26158
gfz2010dxhq  -0.31183
gfz2010eepd   1.61050
gfz2010eibh   0.93894
gfz2010fgbo  -0.34284
gfz2010fjme   0.26826
gfz2010fkff   0.09091
gfz2010fnkr  -0.64686
gfz2010fqnn   0.07630
gfz2010ftfq   3.21720
gfz2010fxhh   1.09640
gfz2010gcrn   1.69970
gfz2010gonu   0.25706
gfz2010habf  -0.05809
gfz2010hdgr   0.58912
gfz2010hdxn   0.60423
gfz2010hesh  -0.19264
gfz2010hllp  -0.21316
