# Nsamples: 517  MAD:  0.544  mean: -1.104  std:  0.873
gfz2010abfc  -1.30410
gfz2010abvu  -1.34420
gfz2010aggj  -1.10220
gfz2010aimm  -1.84190
gfz2010amec  -0.05910
gfz2010aseg  -0.75309
gfz2010azji  -1.16250
gfz2010bkfi  -0.91126
gfz2010bklj  -2.23260
gfz2010bmls  -1.68000
gfz2010bqnk  -1.17960
gfz2010brlc  -1.21090
gfz2010brrm  -0.68472
gfz2010btme  -0.63984
gfz2010bukb   0.04954
gfz2010bvit  -1.26660
gfz2010byau  -1.77650
gfz2010cbnp  -1.78190
gfz2010ccwc  -1.34000
gfz2010ccye  -1.66520
gfz2010clbw  -1.11520
gfz2010cllh  -0.27303
gfz2010cngg  -1.53750
gfz2010cnhd  -0.56557
gfz2010cnyi  -0.26775
gfz2010cphq  -0.22610
gfz2010cpig  -0.33470
gfz2010crgy  -1.73860
gfz2010crir  -2.07440
gfz2010csle  -1.44390
gfz2010csmw  -0.81537
gfz2010csqy  -1.83570
gfz2010cthm   1.98540
gfz2010cyid  -1.04480
gfz2010dask  -0.63421
gfz2010ddan  -1.12590
gfz2010depd   1.63570
gfz2010djib  -2.44310
gfz2010dmij   0.11057
gfz2010drit  -1.05690
gfz2010drml  -2.14800
gfz2010drmq  -2.14800
gfz2010drpv  -1.06010
gfz2010drun  -0.89857
gfz2010dslu  -0.84058
gfz2010dtgc  -0.89684
gfz2010dtyx   0.95337
gfz2010dumv  -0.86506
gfz2010dwgy  -1.53010
gfz2010dxhq  -1.40030
gfz2010eepd  -1.48160
gfz2010eibh  -0.12586
gfz2010ewyj   1.44060
gfz2010extu  -1.30370
gfz2010faly  -1.55220
gfz2010fgbo  -1.25740
gfz2010fjio  -1.50440
gfz2010fkff  -1.07360
gfz2010fkpa  -2.40740
gfz2010fnkr  -1.32390
gfz2010fpvw  -0.65729
gfz2010fqnn  -2.02160
gfz2010ftfq  -0.01962
gfz2010fvfz  -0.59104
gfz2010fxhh  -1.57720
gfz2010fxut  -0.19936
gfz2010gonu  -1.40840
gfz2010gooc  -0.15034
gfz2010guwa  -1.89040
gfz2010habf  -1.46830
gfz2010hdxn  -1.42830
gfz2010hsgv  -1.58230
gfz2010hueh  -1.39090
gfz2010hxan  -1.10620
gfz2010iaay  -0.40798
gfz2010iawy  -1.20130
gfz2010ifhd  -1.51130
gfz2010inbs  -1.11530
gfz2010ioad  -1.44560
gfz2010ixjl  -1.18980
gfz2010izag  -0.53873
gfz2010izgb  -1.65120
gfz2010jcpq  -0.55207
gfz2010jdhk  -0.72785
gfz2010jlvp  -1.33560
gfz2010jvsi  -1.05620
gfz2010kcdq  -2.12120
gfz2010kwks  -2.33080
gfz2010ljol  -2.03030
gfz2010ljzf  -2.92400
gfz2010mdti  -1.51620
gfz2010mjdl  -2.25950
gfz2010mpvc  -0.60715
gfz2010mqaj   0.45820
gfz2010ncwu  -1.54780
gfz2010ngge  -1.82320
gfz2010nteg  -0.89162
gfz2010nwyk   1.99180
gfz2010oibn  -1.13250
gfz2010okpc   3.38560
gfz2010onxm  -2.15720
gfz2010ovvg  -1.27220
gfz2010pclq  -1.30600
gfz2010pcya  -2.41710
gfz2010pngv  -1.01550
gfz2010qbcy  -0.60461
gfz2010qdqk  -2.09210
gfz2010qrix   0.09742
gfz2010qrta  -1.03570
gfz2010qzvf  -0.67564
gfz2010rkuu  -1.95630
gfz2010rljv  -0.99048
gfz2010rnwt   0.46393
gfz2010rpjd  -2.30410
gfz2010schp  -1.54140
gfz2010tcgh  -1.40760
gfz2010tgmo   0.11894
gfz2010tmba  -1.54140
gfz2010tpcj  -1.05350
gfz2010tzki  -2.02590
gfz2010tzlz  -0.76126
gfz2010tzma  -0.63216
gfz2010ugws  -1.07360
gfz2010uhjy  -0.44320
gfz2010uidg   0.54495
gfz2010umyp  -0.30419
gfz2010uogw  -0.87506
gfz2010ussf  -0.19150
gfz2010vdcf  -1.89820
gfz2010vong  -0.46538
gfz2010wakc  -2.10270
gfz2010xamh  -1.89730
gfz2010xnbn  -0.92312
gfz2010xpzq  -0.62060
gfz2010yfdr  -1.54680
gfz2010ytzb  -1.76760
gfz2010zjun  -1.11720
gfz2011ahvh  -1.90050
gfz2011amst  -1.14840
gfz2011bcvc  -0.86343
gfz2011bffb  -0.02213
gfz2011bpqm  -1.63280
gfz2011bsvr  -2.43330
gfz2011bygs  -1.51530
gfz2011bygu  -1.28990
gfz2011cdge  -1.72140
gfz2011cfyy  -1.18960
gfz2011cjuz  -1.09690
gfz2011dabj  -1.54470
gfz2011dhfg  -1.49130
gfz2011dpyu  -1.10620
gfz2011emzr  -1.35380
gfz2011fnie  -1.57830
gfz2011fnuk  -1.41190
gfz2011fszl  -1.41820
gfz2011fzcw  -0.82459
gfz2011gcct  -0.09127
gfz2011gdli  -0.13212
gfz2011ggnl  -1.41190
gfz2011gnbk  -1.32610
gfz2011grby  -0.37359
gfz2011hbqc  -2.75440
gfz2011hqjs  -1.58990
gfz2011qenl  -1.21480
gfz2011qgvx  -1.44370
gfz2011qukj  -1.97730
gfz2011rbuo  -1.99710
gfz2011rkau  -0.73696
gfz2011rnny  -1.53570
gfz2011rnsp  -1.06000
gfz2011rqut  -1.00460
gfz2011tgey  -4.25120
gfz2011tlwl  -0.45922
gfz2011tozo  -1.61030
gfz2011tqgg  -1.21160
gfz2011tsgl  -0.61046
gfz2011txxs  -1.54540
gfz2011tzcv  -1.96910
gfz2011unud  -1.34990
gfz2011uqry  -0.45705
gfz2011vahy  -1.44260
gfz2011varl  -1.97570
gfz2011vbxv  -1.18030
gfz2011vcyx  -1.44860
gfz2011vimn  -1.53590
gfz2011vsag  -1.64600
gfz2011vtzv  -1.11040
gfz2011vxek  -1.52580
gfz2011wcvs  -0.18552
gfz2011wgoa  -1.27620
gfz2011wkja  -1.42110
gfz2011wkyx   1.50650
gfz2011wngi  -1.06540
gfz2011wqup  -1.35140
gfz2011wtfn  -0.13736
gfz2011wucg  -1.54180
gfz2011wwze  -0.93225
gfz2011wyei  -0.55533
gfz2012bysu  -2.31960
gfz2012bytv  -3.71650
gfz2012byuk  -1.74140
gfz2012cdju  -1.41890
gfz2012cksh  -0.63043
gfz2012cmww  -1.56930
gfz2012cntu  -1.35350
gfz2012crpb   0.22791
gfz2012cvfr  -1.40410
gfz2012dcjd  -1.04840
gfz2012dejg  -1.17290
gfz2012dnig  -1.10890
gfz2012dtlu  -1.32190
gfz2012dttl  -1.01050
gfz2012duwm  -2.63200
gfz2012dwwu  -2.16090
gfz2012dyck  -1.50540
gfz2012dyfw  -2.43380
gfz2012dysu  -1.10400
gfz2012dzou   1.34000
gfz2012eajr  -2.14380
gfz2012ekfp  -1.14470
gfz2012ekro  -0.05368
gfz2012enio  -1.14470
gfz2012evxn  -1.58290
gfz2012eyti   0.51667
gfz2012fpyo  -1.10320
gfz2012fuyd  -0.58241
gfz2012gdye  -1.39370
gfz2012gftg  -1.05570
gfz2012ghiv  -1.69600
gfz2012ghyd   2.94810
gfz2012gnow  -1.23120
gfz2012gpcd  -2.12280
gfz2012gubu  -0.56898
gfz2012hvtu   0.13405
gfz2012hzur  -2.37400
gfz2012iblo  -1.08630
gfz2012iijk  -1.54310
gfz2012imsm  -2.93810
gfz2012imuo  -3.37130
gfz2012ipdc  -1.92230
gfz2012jnlt  -0.62786
gfz2012jodg  -1.68610
gfz2012klpl  -0.76192
gfz2012kmbo  -1.94380
gfz2012ldjj  -1.84820
gfz2012lvlr   3.47530
gfz2012lyyr  -1.49810
gfz2012mdzf  -1.44960
gfz2012mjuu  -1.56800
gfz2012mmiw  -1.36140
gfz2012mpzo  -0.33815
gfz2012mrqk  -1.63500
gfz2012mrwu  -1.51310
gfz2012mtyn  -1.23660
gfz2012mvgu  -1.64460
gfz2012mxdk  -0.48053
gfz2012nldz   0.66780
gfz2012nnqu  -2.29900
gfz2012nqvd  -1.94640
gfz2012oafg  -1.21000
gfz2012oehy  -1.38900
gfz2012ofnx  -2.04760
gfz2012oozp   1.08210
gfz2012pdav  -1.25430
gfz2012phns  -1.12690
gfz2012pmuj  -0.25724
gfz2012qfah  -0.81234
gfz2012qpoc  -1.76050
gfz2012rzwp  -1.82210
gfz2012sgfd  -1.42000
gfz2012sqsc  -1.19920
gfz2012suqd  -0.78074
gfz2012svwz  -1.21820
gfz2012swbz  -1.66840
gfz2012sxbo  -0.80677
gfz2012sxzs  -0.76899
gfz2012syum  -1.47350
gfz2012taph  -1.39980
gfz2012tgta  -1.30700
gfz2012thyh  -1.62570
gfz2012tisj  -1.48010
gfz2012tjih   0.44612
gfz2012tjwg  -1.01740
gfz2012trfq  -0.60314
gfz2012trss  -0.52936
gfz2012tvgw   0.31068
gfz2012tyoz  -2.38860
gfz2012uhtc  -1.34110
gfz2012ulei  -1.29080
gfz2012umob  -1.29090
gfz2012uvoa  -1.64260
gfz2012uzww  -1.64940
gfz2012vdra  -1.54910
gfz2012vgot  -0.88186
gfz2012vile   0.98045
gfz2012vitw  -1.16650
gfz2012vkjw  -1.45270
gfz2012vnve  -1.05940
gfz2012vqmq  -0.91838
gfz2012vrqz  -1.53900
gfz2012wkki  -1.18120
gfz2012wmmw  -0.94358
gfz2012wowu  -0.99202
gfz2012wqfz   0.72578
gfz2012wysg  -0.97477
gfz2012xask  -1.03660
gfz2012xbna   0.90022
gfz2012xcsf  -1.35880
gfz2012xkln  -1.87090
gfz2012xlfo  -1.91800
gfz2012xncm  -1.69800
gfz2012xqxw  -1.56400
gfz2012xrmq  -1.34500
gfz2012xxdj  -1.82530
gfz2012ylai  -1.05190
gfz2012yncm   2.82630
gfz2012yvwc  -1.07250
gfz2012znou  -2.07860
gfz2013adih   0.71074
gfz2013aggr  -1.57070
gfz2013agmt  -1.70730
gfz2013akkd  -1.90640
gfz2013auew  -1.18340
gfz2013bwgw  -0.87716
gfz2013byyy  -1.70190
gfz2013bzwa  -0.42091
gfz2013cinv  -1.31800
gfz2013cokc  -0.31740
gfz2013cpjc  -0.90332
gfz2013cvve  -1.76620
gfz2013cyvx  -1.38710
gfz2013delq  -0.90912
gfz2013dftb  -1.18860
gfz2013dfvx  -1.07470
gfz2013dngd  -0.56377
gfz2013dzvr  -1.67490
gfz2013eavq  -1.07930
gfz2013eazm  -1.02570
gfz2013efct  -1.13710
gfz2013enqo  -0.13363
gfz2013enrh  -0.92245
gfz2013fmcd  -0.81845
gfz2013fmcp  -0.01322
gfz2013fnpa  -1.63870
gfz2013fulo  -1.31850
gfz2013fvht  -0.93373
gfz2013fybd  -1.70830
gfz2013gkyn  -1.74970
gfz2013glkq  -0.88374
gfz2013gsnl  -1.76560
gfz2013gurk  -1.24690
gfz2013gxye  -0.68695
gfz2013gywl  -0.42080
gfz2013hbmi  -1.02210
gfz2013hbtm  -0.39413
gfz2013hiam  -0.95145
gfz2013kslp  -1.07780
gfz2013lbod  -0.89603
gfz2013lbvl  -1.57650
gfz2013lgvf  -1.25760
gfz2013ljdu  -0.43114
gfz2013ljwt  -1.36300
gfz2013lqjj  -0.76698
gfz2013mdxj  -0.94810
gfz2013mimp  -1.33000
gfz2013mvgq  -0.68149
gfz2013mzaw  -1.04380
gfz2013njck  -0.36379
gfz2013nkgd  -1.45690
gfz2013nnai  -1.78030
gfz2013ntiu  -0.31232
gfz2013oeni  -1.47240
gfz2013oizq  -1.45390
gfz2013olos  -1.25550
gfz2013orot  -1.55660
gfz2013oruq  -0.79781
gfz2013osmj  -0.41556
gfz2013oywh   0.04552
gfz2013phhi  -1.81020
gfz2013pkmz  -1.86850
gfz2013qigb  -1.16840
gfz2013qoak  -1.07630
gfz2013qogb  -0.64113
gfz2013quwz  -1.83150
gfz2013quyn  -1.69980
gfz2013qxof  -1.52570
gfz2013rdmn  -1.12600
gfz2013rfik  -1.71130
gfz2013rgcc  -1.86840
gfz2013rhbx  -1.25830
gfz2013rocs  -1.31090
gfz2013rsyt  -0.86534
gfz2013rtvy  -1.31700
gfz2013rwkj  -1.55690
gfz2013rwog  -0.83446
gfz2013ryph  -1.37200
gfz2013sbsp  -1.13650
gfz2013sdkg  -1.10260
gfz2013sdym  -0.88847
gfz2013skay  -0.81190
gfz2013skvq  -1.04530
gfz2013xjmo  -1.35710
gfz2013xlic  -1.17680
gfz2013xmzw  -1.34080
gfz2013xodn  -1.32220
gfz2013xofz  -1.24170
gfz2013xswc  -2.03180
gfz2013ygsj  -4.88180
gfz2013ykkf  -1.46240
gfz2013ykqw  -0.85740
gfz2013ylxm  -0.29039
gfz2013ylxn  -1.75070
gfz2013yodm  -1.35000
gfz2013yqkz  -0.65840
gfz2013yqtu  -1.64220
gfz2013yvnj  -1.21050
gfz2013yxhf  -0.86738
gfz2013zbfb  -1.54430
gfz2013zeye  -1.51040
gfz2013zfbz  -1.36410
gfz2013ziix  -2.74750
gfz2013zkta   0.21428
gfz2013zlak  -0.83520
gfz2014ajgi  -1.53010
gfz2014amgk  -0.53291
gfz2014aqax  -1.47760
gfz2014aqop  -1.06990
gfz2014ayxf  -0.68754
gfz2014azfu  -0.49338
gfz2014bdju  -1.40980
gfz2014befl  -1.39050
gfz2014bgxe  -1.10110
gfz2014bkra   2.21070
gfz2014bnea  -0.92173
gfz2014bppg  -1.46030
gfz2014bqpm  -1.12770
gfz2014brkk   0.69527
gfz2014buyz  -1.73220
gfz2014byes  -1.22990
gfz2014bzus  -1.70300
gfz2014cgoi  -1.42350
gfz2014cjao  -1.04830
gfz2014cncl  -0.44989
gfz2014cokw  -1.27110
gfz2014ctdl  -0.92953
gfz2014cvnb  -1.12980
gfz2014cwcj  -0.78110
gfz2014cwti  -3.27920
gfz2014dbqi  -1.53850
gfz2014dggw  -1.16620
gfz2014dihl  -0.52855
gfz2014diuu  -0.51368
gfz2014djhi  -0.90926
gfz2014dtth  -1.15830
gfz2014dykt  -0.42221
gfz2014ecor  -0.01962
gfz2014edjm  -0.80823
gfz2014egvg  -0.37220
gfz2014eoay  -1.43880
gfz2014epfm   1.06290
gfz2014epnq  -1.35180
gfz2014epue  -2.17800
gfz2014esez  -1.14050
gfz2014eunw  -1.60300
gfz2014evhm  -0.14120
gfz2014evyu  -1.07370
gfz2014faex  -0.92530
gfz2014fbef  -0.54835
gfz2014fbli  -1.14250
gfz2014fbnr  -0.51678
gfz2014fdhk  -0.93232
gfz2014ffqg  -1.08800
gfz2014fhki  -1.72250
gfz2014fjfz  -0.74301
gfz2014flxk  -0.45141
gfz2014fmdc   0.66614
gfz2014fsir  -1.16010
gfz2014fsje  -1.24730
gfz2014fskh  -1.14540
gfz2014fwxt  -1.40000
gfz2014fxte  -1.64360
gfz2014fxtv  -1.41920
gfz2014fxuy  -1.64850
gfz2014gcia  -1.15540
gfz2014gjfd  -1.38570
gfz2014gnbw  -1.04880
gfz2014gnvp  -1.12800
gfz2014grwv  -1.00410
gfz2014gsfc  -0.56884
gfz2014gtee  -1.23710
gfz2014gtoj  -0.72621
gfz2014gutd  -1.98880
gfz2014gypw  -2.30380
gfz2014hapg  -0.33172
gfz2014herz  -1.62370
gfz2014hkcw  -1.45590
gfz2014hotu  -1.43240
gfz2014hqhv  -1.81060
gfz2014hzzf  -1.20880
gfz2014iaqm   1.28730
gfz2014iayo   1.35210
gfz2014icov  -0.57151
gfz2014igrp  -1.08290
gfz2014ijsa  -2.20810
gfz2014iltl  -0.71150
gfz2014imqh  -1.63020
gfz2014inrg  -0.59338
gfz2014irlf  -1.22880
gfz2014irly  -1.45850
gfz2014itlx  -1.07300
gfz2014iusw  -1.07590
gfz2014ixlc  -1.15330
gfz2014iyuc  -1.38570
gfz2014jarg  -1.01680
gfz2014jayh  -1.26270
gfz2014jbgm  -1.64470
gfz2014jckg  -1.47960
