# Nsamples: 94  MAD:  1.158  mean: -0.390  std:  1.027
gfz2010aggj  -0.83221
gfz2010bklj   0.26053
gfz2010btme   1.70990
gfz2010ngge  -0.35350
gfz2010pclq   2.45660
gfz2010qdqk  -0.10476
gfz2010qrta   1.01020
gfz2010rkuu   0.92301
gfz2010rljv   0.01471
gfz2010rnwt   2.10580
gfz2010tmba   0.64397
gfz2010ugws  -0.74857
gfz2010uhjy  -0.19459
gfz2010vong  -0.39089
gfz2010wakc  -1.99300
gfz2010xnbn  -0.64582
gfz2010xpzq  -0.31434
gfz2011ahvh  -1.60150
gfz2011bcvc  -0.73460
gfz2011bffb   1.29100
gfz2011bpqm  -1.36600
gfz2011bsvr  -2.10450
gfz2011bygs   0.04713
gfz2011bygu  -1.33640
gfz2011cdge  -0.46424
gfz2011dabj  -1.89390
gfz2011dpyu  -1.41610
gfz2011exxq  -0.16712
gfz2011fnie  -0.18811
gfz2011fszl   0.50632
gfz2011fzcw  -0.96022
gfz2011gpyr  -0.42694
gfz2011hqjs  -1.68470
gfz2011jryv  -0.70261
gfz2011kjzt  -1.73650
gfz2011kjzv  -2.71450
gfz2011lkkf   1.12130
gfz2011lwmg  -0.13143
gfz2011pfwq  -1.21730
gfz2011ppsc  -0.28910
gfz2011qenl   0.88975
gfz2011qukj  -0.14847
gfz2011rkau  -1.16200
gfz2011rnny  -0.53564
gfz2011sdax  -1.14880
gfz2011sqco  -1.66420
gfz2011sxno   0.13344
gfz2012uvoa  -0.60408
gfz2012uzww  -0.24802
gfz2012wgmg   0.43727
gfz2012wkki   0.62227
gfz2012xncm   0.70751
gfz2012xxdj  -0.62823
gfz2013agmt   1.40680
gfz2013akkd   0.55063
gfz2013bwgw  -0.47214
gfz2013byyy  -0.73447
gfz2013cvve   0.51311
gfz2013cyvx  -0.93651
gfz2013delq  -1.31430
gfz2013dftb   0.60749
gfz2013dngd   0.27099
gfz2013dzvr   0.20958
gfz2013efct   0.91910
gfz2013fnpa   0.45044
gfz2013fulo  -1.32740
gfz2013fvht  -0.73770
gfz2013fvyr  -0.55128
gfz2013icql  -1.43310
gfz2013iuyv  -1.69370
gfz2013yqtu   1.57210
gfz2013yxhf   0.63699
gfz2013zfbz  -0.65653
gfz2013ziix  -2.21030
gfz2014eirs   0.09009
gfz2014eoay   0.44420
gfz2014epfm   0.31032
gfz2014flxk  -0.63394
gfz2014fsir  -1.41560
gfz2014fsje  -1.29600
gfz2014fxte  -0.83261
gfz2014gnbw  -0.07686
gfz2014gypw   0.51466
gfz2014hkcw  -0.36790
gfz2014hqhv  -0.08314
gfz2014hzzf  -1.61870
gfz2014igrp   0.12802
gfz2014iltl  -1.27160
gfz2014irlf  -1.88240
gfz2014irln  -2.05720
gfz2014irly  -1.79590
gfz2014iusw  -1.08640
gfz2014jarg  -0.46843
gfz2014jayh  -0.34760
