# Nsamples: 154  MAD:  0.895  mean: -0.924  std:  0.846
gfz2010aseg   0.07601
gfz2010azji  -0.11159
gfz2010bklj  -1.57620
gfz2010bqnk  -0.44646
gfz2010btme   1.98120
gfz2010ccwc  -0.87838
gfz2010ccye  -1.18280
gfz2010clbw  -1.75830
gfz2010cllh  -0.66923
gfz2010cphq  -0.42590
gfz2010cpig   0.55110
gfz2010crgy  -2.34400
gfz2010crir  -1.86980
gfz2010csle  -1.16330
gfz2010csqy   0.20844
gfz2010cyid  -0.27566
gfz2010dask  -0.75030
gfz2010djib  -2.64180
gfz2010drit  -0.72367
gfz2010drml  -0.20905
gfz2010drmq  -0.20905
gfz2010drun  -2.30090
gfz2010dslu  -0.42684
gfz2010fqnn  -1.37830
gfz2010habf  -1.09580
gfz2010hueh   1.10140
gfz2010jvsi  -0.75327
gfz2010pcya  -3.23340
gfz2010rljv  -0.61122
gfz2010sdfs   0.13443
gfz2010tmba  -0.66851
gfz2010tpcj  -2.01540
gfz2010tzma  -1.92250
gfz2010uhjy  -0.95948
gfz2011ahvh  -1.83280
gfz2011vahy  -0.97852
gfz2011vbxv  -0.94695
gfz2011vcyx  -0.52922
gfz2011vtzv  -0.63940
gfz2011wcvs  -0.56443
gfz2011zghc   0.33387
gfz2012arlo   0.67079
gfz2012dejg  -0.34414
gfz2012dttl  -0.38465
gfz2012dwwu  -1.56150
gfz2012qfah  -0.36874
gfz2012qpoc  -1.06690
gfz2012sgfd   0.12021
gfz2012socz  -0.92894
gfz2012sqsc  -0.52167
gfz2012suqd  -0.20124
gfz2012svwz  -0.52786
gfz2012syum  -2.05410
gfz2012tvgw   0.31254
gfz2012uegq  -0.49878
gfz2012uhtc  -0.90859
gfz2012uvoa  -1.73740
gfz2012uzww  -1.19520
gfz2012wgmg  -0.90758
gfz2012wkki  -0.61306
gfz2012wowu  -0.19707
gfz2012wysg  -0.42731
gfz2012xcsf  -0.30952
gfz2012xkln  -0.74055
gfz2012xlas  -2.08210
gfz2012xncm  -0.19790
gfz2012xqxw  -0.64431
gfz2012xrmq  -0.58087
gfz2012xxdj  -1.54230
gfz2013agmt   0.00000
gfz2013akkd  -0.51393
gfz2013bwgw  -0.89607
gfz2013byyy  -1.37540
gfz2013cvve  -0.39845
gfz2013cyvx  -1.54410
gfz2013delq  -1.58550
gfz2013dngd  -0.60422
gfz2013dzvr  -1.26550
gfz2013efct  -0.86937
gfz2013fulo  -2.35760
gfz2013fvht   0.41882
gfz2013jfcn  -1.13040
gfz2013jobl  -0.51561
gfz2013kats  -2.09950
gfz2013kcdb  -0.59312
gfz2013kpcb  -1.81690
gfz2013kqab  -0.52654
gfz2013lbvl  -2.18100
gfz2013mdxj  -0.29225
gfz2013nkgd  -1.89490
gfz2013oizq  -1.57070
gfz2013olos  -1.11320
gfz2013orot  -0.24759
gfz2013qigb  -2.08840
gfz2013qmkt  -0.95965
gfz2013qoak  -1.49650
gfz2013quwz  -2.31240
gfz2013qxof  -1.02730
gfz2013skvq  -0.61016
gfz2013tdsx  -1.00230
gfz2013tjub  -2.41010
gfz2013upqj   1.37590
gfz2013uwjo  -0.31245
gfz2013uxzw  -0.41575
gfz2013vmsg  -0.50439
gfz2013vnwa  -0.23946
gfz2013vojy  -0.07188
gfz2013vzel  -2.10370
gfz2013wyfl  -1.20930
gfz2013xahp  -1.13530
gfz2013xjmo  -1.45170
gfz2013xmzw  -0.26759
gfz2013xswc  -1.71400
gfz2013ylxn  -1.39230
gfz2013yqtu   0.25900
gfz2013zfbz  -1.07570
gfz2013zlak  -0.50649
gfz2014amgk   0.33672
gfz2014aqop  -2.41100
gfz2014ayxf  -0.15711
gfz2014bdju  -0.95120
gfz2014bgxe  -2.04350
gfz2014bkra  -1.78910
gfz2014cokw  -0.71436
gfz2014dggw  -0.63281
gfz2014dihl  -1.45390
gfz2014diuu   0.44368
gfz2014egvg  -0.04408
gfz2014eirs  -1.32840
gfz2014eoay  -0.94188
gfz2014epnq  -1.73640
gfz2014esez  -0.74977
gfz2014fbnr   0.24131
gfz2014fdhk  -0.27634
gfz2014flxk  -0.78103
gfz2014fsir  -1.73090
gfz2014fsje  -1.80980
gfz2014fxte  -2.00880
gfz2014fxuy  -1.59440
gfz2014gnbw  -1.19220
gfz2014gypw   0.05769
gfz2014hkcw  -1.49950
gfz2014hqhv  -1.49680
gfz2014huqh   0.13208
gfz2014hzzf  -1.72170
gfz2014igrp  -1.38660
gfz2014ijsa  -2.22860
gfz2014iltl  -1.61520
gfz2014irlf  -2.00780
gfz2014irln  -1.33910
gfz2014irly  -1.77780
gfz2014iusw  -1.22920
gfz2014jarg  -0.16672
gfz2014jayh  -1.84670
