# Nsamples: 543  MAD:  0.598  mean: -0.195  std:  0.827
gfz2010abfc   0.00000
gfz2010abvu  -0.28401
gfz2010aggj  -0.01387
gfz2010aimm  -0.23117
gfz2010amec  -1.34600
gfz2010aseg   0.83731
gfz2010asxa  -0.26359
gfz2010azji   0.17491
gfz2010bklj   0.21830
gfz2010cbnp  -0.97255
gfz2010ccse   1.50140
gfz2010ccwc   0.37171
gfz2010ccye  -0.57094
gfz2010clbw  -0.45096
gfz2010cllh   1.19170
gfz2010cphq   0.98584
gfz2010cpig  -1.26260
gfz2010crgy  -0.28750
gfz2010crir  -0.88230
gfz2010csle  -2.20220
gfz2010csmw  -0.63209
gfz2010csqy  -0.93703
gfz2010cthm   3.34230
gfz2010cyid  -1.12450
gfz2010dask  -0.46466
gfz2010diid  -0.56968
gfz2010djib  -0.61928
gfz2010dmkd  -0.79720
gfz2010dpgt   1.43280
gfz2010drit  -0.38792
gfz2010drml  -1.63700
gfz2010drmq  -1.63700
gfz2010drng  -2.66220
gfz2010drpv  -1.20940
gfz2010drun  -1.85960
gfz2010dsjq  -2.69020
gfz2010dslu  -0.25626
gfz2010dtgc  -1.46020
gfz2010dtyx  -2.75130
gfz2010dumv  -0.24850
gfz2010dwgy  -0.12257
gfz2010dxhq  -1.22520
gfz2010eibh   0.52697
gfz2010ethu  -0.77248
gfz2010euue  -0.65781
gfz2010ewyj   1.28920
gfz2010extu  -1.69280
gfz2010faly  -0.21945
gfz2010fgbo   0.25704
gfz2010fjio   0.09070
gfz2010fjme  -1.12710
gfz2010fkff  -0.62807
gfz2010fkpa  -0.86854
gfz2010fnkr  -0.30417
gfz2010fopf   0.75999
gfz2010fpvw   1.20730
gfz2010fqnn  -0.72736
gfz2010hsgv  -0.45135
gfz2010hueh   0.48733
gfz2010hxan  -0.14935
gfz2010iaay  -1.27480
gfz2010iawy  -0.34979
gfz2010ifru  -0.42331
gfz2010jcby  -0.44448
gfz2010jdhk   0.43056
gfz2010jgwj   0.23737
gfz2010juke   0.21680
gfz2010jvsi   0.70623
gfz2010kcyz  -0.32852
gfz2010ljzf  -1.26110
gfz2010lswe   0.83764
gfz2010mdti  -0.70890
gfz2010mpvc   1.52390
gfz2010mqaj  -2.19660
gfz2010mqzz  -1.44350
gfz2010mwmd  -0.54088
gfz2010myqg   0.06483
gfz2010ncwu  -0.67743
gfz2010ngge  -0.94094
gfz2010nlai  -0.06877
gfz2010novb  -0.86617
gfz2010nteg  -4.85500
gfz2010nwyk  -0.98719
gfz2010oguu   0.26161
gfz2010ogwn   1.47880
gfz2010ojhe  -0.25618
gfz2010okpc  -0.57850
gfz2010onxm  -0.24555
gfz2010osaq   0.59817
gfz2010ovvg  -0.77874
gfz2010pclq  -1.17050
gfz2010pcya  -2.74270
gfz2010pgrf  -0.43283
gfz2010pngv   0.18014
gfz2010prnw   0.53373
gfz2010pvnn  -0.76102
gfz2010pxoi   0.98618
gfz2010pzza  -1.17220
gfz2010qbcy   0.15465
gfz2010qdqk  -0.44074
gfz2010qloa  -1.21210
gfz2010qqqx  -1.28100
gfz2010qrix   0.96597
gfz2010qrta   0.14598
gfz2010qykh   0.64250
gfz2010qzvf   0.03153
gfz2010rdip   0.02139
gfz2010rkuu  -1.06260
gfz2010rljv   0.21368
gfz2010rmua  -0.26368
gfz2010rnwt  -2.24570
gfz2010rpjd  -1.04560
gfz2010schp  -0.78083
gfz2010scht  -0.24411
gfz2010tcgh   0.15957
gfz2010tfar   0.12452
gfz2010tgmo   0.18493
gfz2010tmba  -0.19588
gfz2010tpcj  -0.84976
gfz2010tqyo  -0.82407
gfz2010tzki   0.91576
gfz2010tzlz   0.30692
gfz2010tzma  -0.13860
gfz2010ugws  -0.44656
gfz2010uhjy  -0.12000
gfz2010uidg  -0.46532
gfz2010ujqn  -0.10386
gfz2010umxj   0.05025
gfz2010umyp  -0.24783
gfz2010uogw  -0.24667
gfz2010uopf  -0.52412
gfz2010ussf   0.18827
gfz2010utsc   0.60528
gfz2010vdcf   0.00000
gfz2010vjac   0.25734
gfz2010vong  -0.13050
gfz2010vyri   0.57269
gfz2010wakc   0.03053
gfz2010wwnq  -0.64437
gfz2010wyso   0.98292
gfz2010xamh  -1.15870
gfz2010xezr   0.61615
gfz2010xnbn  -0.24470
gfz2010xpzq   0.20133
gfz2010xvev  -0.49268
gfz2010xytc  -1.00030
gfz2010yczp  -0.00000
gfz2010yfdr  -0.81694
gfz2010yilf   0.06101
gfz2010ymih  -0.81864
gfz2010yspe   2.66350
gfz2010ytzb  -0.02673
gfz2010zjun  -0.61806
gfz2011afyc   0.58039
gfz2011ahvh  -1.07410
gfz2011amst  -0.92925
gfz2011awsv  -0.89287
gfz2011bcvc  -0.42989
gfz2011bffb   0.31006
gfz2011boaz   0.14787
gfz2011bpqm   0.33154
gfz2011bsvr  -0.13776
gfz2011bygs  -0.48981
gfz2011bygu  -0.06734
gfz2011cdge  -0.13063
gfz2011cfyy   0.81481
gfz2011cjcv  -0.57280
gfz2011cjuz   0.25638
gfz2011clwu  -0.78797
gfz2011cwsm  -1.06020
gfz2011cwzi  -0.22473
gfz2011dabj   0.30916
gfz2011dhfg  -0.52195
gfz2011dhqk  -0.02212
gfz2011dmdv  -0.51873
gfz2011edrq  -0.05991
gfz2011emzr  -0.40933
gfz2011etkc  -0.38771
gfz2011exxq  -1.22310
gfz2011fnie   0.02988
gfz2011fnuk  -0.39832
gfz2011fszl  -0.20116
gfz2011fyfu  -0.11589
gfz2011fzcw   0.45715
gfz2011gcct  -0.03956
gfz2011gdli  -0.11569
gfz2011gfer  -0.42850
gfz2011ggnl  -1.48020
gfz2011gkdx  -0.74181
gfz2011gnbk  -0.12839
gfz2011gpyr  -0.37319
gfz2011grby  -0.24781
gfz2011hffq  -0.39798
gfz2011hqjs  -0.05274
gfz2011jdoz  -0.11548
gfz2011jfyb  -1.84290
gfz2011jghq  -1.31050
gfz2011jphj  -0.47929
gfz2011jqyc   6.91130
gfz2011jryv  -2.68220
gfz2011jtij  -1.13090
gfz2011kbzo  -0.81775
gfz2011kfch  -0.13212
gfz2011kgvq  -0.93891
gfz2011kjzt  -1.00680
gfz2011kjzv  -0.86465
gfz2011kmge   1.73260
gfz2011ksxc  -0.25112
gfz2011kujo  -0.08181
gfz2011kylu  -0.52452
gfz2011kymm   0.40963
gfz2011kyzy  -0.62122
gfz2011ldgl   0.03575
gfz2011lkkf   0.08378
gfz2011mjje  -0.40779
gfz2011mllb   0.43257
gfz2011mntq   0.45143
gfz2011ndhh  -0.26973
gfz2011nejg  -0.06903
gfz2011nerb  -0.58033
gfz2011nhwf   1.01150
gfz2011nijp  -0.96470
gfz2011nilw  -0.29332
gfz2011niuw  -1.05880
gfz2011nlum  -1.62000
gfz2011nlyw  -1.65820
gfz2011ocif  -1.09520
gfz2011oekz  -0.37695
gfz2011ofpj  -0.32168
gfz2011oslk  -0.04675
gfz2011owqa  -0.52504
gfz2011pfls   0.08529
gfz2011pfwq   0.02021
gfz2011pgzk   0.25824
gfz2011pimj  -0.15221
gfz2011pivq  -0.78983
gfz2011pmuv   0.09564
gfz2011poug   0.04583
gfz2011ppsc  -0.64619
gfz2011prrq   0.23604
gfz2011pwbw  -0.78655
gfz2011pwld  -0.55081
gfz2011qenl   0.03713
gfz2011qgvx  -0.05626
gfz2011qklh  -1.15450
gfz2011qlkj  -0.40516
gfz2011qukj  -1.04840
gfz2011rbuo  -1.10180
gfz2011rkau   0.43135
gfz2011rnny  -0.35537
gfz2011rnsp  -0.07768
gfz2011rplo  -0.11785
gfz2011rqut   0.56897
gfz2011tzcv  -0.87994
gfz2011udjs   0.22139
gfz2011ypfh   0.21760
gfz2011ytob  -0.93532
gfz2011zghc   0.10173
gfz2011zkbt  -1.01510
gfz2012agwh  -2.79370
gfz2012ahac  -0.89729
gfz2012aioo  -0.01618
gfz2012aisj  -1.18220
gfz2012alti   0.90319
gfz2012arlo  -0.14604
gfz2012atjr  -1.02620
gfz2012bcvn  -0.21517
gfz2012beae   0.72024
gfz2012bity   0.13444
gfz2012bnwa  -0.23353
gfz2012bqcf   0.29313
gfz2012byrq   0.27086
gfz2012bysu  -0.66563
gfz2012bytv   0.23904
gfz2012byuk  -0.54878
gfz2012cdju   0.05561
gfz2012cksh   0.03336
gfz2012cmww  -0.36512
gfz2012cntu  -0.38354
gfz2012crpb  -1.67570
gfz2012cvfr   0.28237
gfz2012dcjd   0.28718
gfz2012dnig   0.15116
gfz2012dttl   0.21930
gfz2012duwm  -1.01990
gfz2012dwwu  -0.97009
gfz2012dyck   0.14767
gfz2012dysu   0.75987
gfz2012dzou  -0.47713
gfz2012ekfp  -0.34926
gfz2012ekro   0.40275
gfz2012evav   0.80497
gfz2012evxn  -0.59898
gfz2012eyti  -0.73290
gfz2012fbgz   0.02015
gfz2012foih  -1.40050
gfz2012fpyo  -0.37428
gfz2012gdye   0.01985
gfz2012ghiv  -0.71221
gfz2012ghyd  -1.51020
gfz2012gjdg  -0.86013
gfz2012gnow   0.23555
gfz2012gpcd  -0.95393
gfz2012gubu  -0.79322
gfz2012nqvd  -0.10702
gfz2012oafg   0.06309
gfz2012oehy   0.29529
gfz2012ofnx  -0.59875
gfz2012phns   0.13126
gfz2012ppcq   0.05437
gfz2012pvve  -0.40262
gfz2012qllj  -0.13610
gfz2012rmvx   0.41525
gfz2012sgfd  -0.09861
gfz2012socz  -0.14228
gfz2012sopp   0.08430
gfz2012sqsc   0.25147
gfz2012suqd  -0.41602
gfz2012svwz   0.43967
gfz2012swbz  -0.29874
gfz2012sxbo  -0.93289
gfz2012sxzs   0.01570
gfz2012syum   1.18410
gfz2012taph  -0.78578
gfz2012tgta  -0.44260
gfz2012thyh  -0.16116
gfz2012tisj  -0.21706
gfz2012ttnf   0.42016
gfz2012twec  -0.17729
gfz2012uhsx  -0.07649
gfz2012uhtc   0.13683
gfz2012ulei   0.43483
gfz2012umob  -0.23687
gfz2012unxc   0.17098
gfz2012uvoa  -0.59853
gfz2012uzww  -0.06865
gfz2012vgot   0.26417
gfz2012vioy  -1.62140
gfz2012vitw   0.58691
gfz2012vkjw   0.02559
gfz2012vqmq  -0.68140
gfz2012vrqz   1.26100
gfz2012wgdv  -0.22314
gfz2012wgmg  -0.56572
gfz2012wkki   0.33713
gfz2012wpen   0.05962
gfz2012wysg   0.52169
gfz2012xask   0.45286
gfz2012xcsf   0.27043
gfz2012xfsl  -0.66455
gfz2012xkln  -0.04023
gfz2012xlas  -0.24596
gfz2012xlfo   0.13965
gfz2012xncm  -0.27729
gfz2012xrmq   0.50931
gfz2012ylai   0.03940
gfz2012zhyz  -0.00000
gfz2013akkd  -0.88449
gfz2013bwgw   0.24302
gfz2013byyy  -0.63330
gfz2013cvve  -0.20629
gfz2013fmcd  -0.31233
gfz2013fndg   0.25156
gfz2013fnpa   0.14734
gfz2013fulo  -0.60164
gfz2013fvht   0.18946
gfz2013fybd  -0.38852
gfz2013gbki  -2.08560
gfz2013glpz  -0.45326
gfz2013hbtm   0.89531
gfz2013icql   0.17220
gfz2013iuyv   0.13480
gfz2013ivvw   0.34833
gfz2013iwhc  -0.19263
gfz2013jfcn   0.27420
gfz2013jlli  -0.61836
gfz2013jobl  -0.00000
gfz2013jzcf   1.19880
gfz2013kats   0.45874
gfz2013kcdb   0.03613
gfz2013kjgh   0.74363
gfz2013kpcb  -0.16298
gfz2013kqab  -0.28190
gfz2013kslp   0.23728
gfz2013kxlr   0.02488
gfz2013lbod   0.50058
gfz2013lbvl   0.04465
gfz2013ljdu   0.41095
gfz2013ljwt  -0.01998
gfz2013lqjj   0.39923
gfz2013lvxe  -0.60455
gfz2013mvgq   1.67000
gfz2013mzaw   0.58255
gfz2013ntiu   0.97898
gfz2013ohnj   0.36808
gfz2013oizq  -0.20054
gfz2013okxa   1.08030
gfz2013oruq   0.73701
gfz2013osmj   0.51362
gfz2013otuj   0.83791
gfz2013phhi   0.62680
gfz2013pkmz   0.30593
gfz2013quwz   0.16743
gfz2013quyn   0.07200
gfz2013rwog   0.38709
gfz2013skvq   0.53909
gfz2013swnj   0.29650
gfz2013uzmf   0.76233
gfz2013vcgd  -0.17806
gfz2013vdam   0.12332
gfz2013vjrr  -0.04227
gfz2013vldx  -0.15415
gfz2013vmrv  -0.17848
gfz2013vmsg  -0.97697
gfz2013vnwa   0.94814
gfz2013voai   0.00303
gfz2013vojy   0.22889
gfz2013vvre  -1.92660
gfz2013vwkh  -0.21070
gfz2013vxht   0.48205
gfz2013vzel  -0.28182
gfz2013wigs  -0.09741
gfz2013wpns  -0.70706
gfz2013wwee  -0.39895
gfz2013wyfl  -0.04723
gfz2013xacx  -1.25170
gfz2013xahp  -0.16994
gfz2013xbdc   2.12990
gfz2013xddu  -0.48784
gfz2013xjmo  -0.88352
gfz2013xlic   0.21375
gfz2013xmzw   0.08868
gfz2013xodn  -0.43123
gfz2013xofz  -0.38421
gfz2013xswc  -0.65054
gfz2013xupg   0.27956
gfz2013xuxr   0.72079
gfz2013xvps  -0.00696
gfz2013xxbf   0.29240
gfz2013xycz  -0.29599
gfz2013xzxe   1.00250
gfz2013yapz  -0.04570
gfz2013yawe   0.41008
gfz2013ykqw  -0.95363
gfz2013ylxm   0.61723
gfz2013ylxn  -0.63911
gfz2013ymhx  -0.46149
gfz2013yodm   0.23724
gfz2013yqkz  -0.19094
gfz2013yqtu  -0.45207
gfz2013yxhf   0.10298
gfz2013zeye  -0.90866
gfz2013zfbz   0.11644
gfz2013ziix  -1.81830
gfz2013zkgm   0.72779
gfz2013zkta  -0.98522
gfz2013zkzb  -1.09820
gfz2013zlak  -0.50418
gfz2013zlij   0.32306
gfz2013zpwk  -0.18743
gfz2013zqan   0.31474
gfz2014aaae  -0.28143
gfz2014aapq  -0.33902
gfz2014aedl   0.68847
gfz2014ajgi  -0.79105
gfz2014amgk   0.21512
gfz2014aqax   1.46490
gfz2014aqop   0.22090
gfz2014ateb   0.23389
gfz2014avzp  -1.04100
gfz2014ayxf   0.14001
gfz2014azfu   0.14772
gfz2014bdju   0.22145
gfz2014befl   0.20551
gfz2014bfjb  -1.51400
gfz2014bgxe  -0.28087
gfz2014bgyv   0.90774
gfz2014bkra  -0.13951
gfz2014bmdf  -1.02600
gfz2014bmqw   1.45140
gfz2014bppg  -0.45282
gfz2014bqpm  -0.75084
gfz2014byes  -0.55236
gfz2014cjao   0.39195
gfz2014cncl   0.52716
gfz2014cokw  -0.43740
gfz2014crac  -0.06218
gfz2014ctdl  -0.04176
gfz2014cvnb   0.26969
gfz2014cwcj   0.27264
gfz2014cwti  -2.47130
gfz2014dbmu   0.44208
gfz2014dbqi  -0.40601
gfz2014dece  -0.82754
gfz2014dggw   0.14447
gfz2014dihl  -0.68926
gfz2014djhi  -0.35441
gfz2014djyj   0.03105
gfz2014dpny   0.04820
gfz2014dpps   0.05460
gfz2014dtth  -0.01372
gfz2014dtto  -0.03916
gfz2014dwcp  -0.22354
gfz2014eoay  -0.16013
gfz2014esez  -0.42268
gfz2014eunw  -0.96274
gfz2014evgu  -0.88285
gfz2014evhm  -0.39219
gfz2014evyu  -0.36216
gfz2014exxj   0.10608
gfz2014ezvd   0.22205
gfz2014ezvj   0.24966
gfz2014fbef  -0.19359
gfz2014fbli   0.43599
gfz2014fbnr  -0.78564
gfz2014fdhk  -0.49533
gfz2014fhki   0.34247
gfz2014fjfz   0.31819
gfz2014flxk   0.88655
gfz2014fmdc   0.07525
gfz2014fqas   0.56737
gfz2014fsir   0.15255
gfz2014fskh   0.39612
gfz2014fsvc  -1.30210
gfz2014fvza   0.38392
gfz2014fxte  -0.20654
gfz2014fxuy  -0.51867
gfz2014gjfd  -1.03070
gfz2014gnbw   0.43088
gfz2014gnvp   0.23962
gfz2014grwv   0.08039
gfz2014gsfc   0.45966
gfz2014gtoj   0.42812
gfz2014hapg   0.01628
gfz2014happ   0.18281
gfz2014herz   0.40646
gfz2014hhey  -0.15861
gfz2014hhis   0.23484
gfz2014hjmc  -0.99520
gfz2014hkcw   0.15443
gfz2014hotu  -0.96237
gfz2014hqhv  -0.25263
gfz2014hyea  -0.46325
