# Nsamples: 42  MAD:  0.549  mean:  0.068  std:  1.160
gfz2010tmba   4.82940
gfz2010ugws   0.93713
gfz2010yilf  -4.53710
gfz2011bpqm   0.51555
gfz2011uqry  -1.31820
gfz2011vahy  -0.87094
gfz2011vtdl   0.48220
gfz2012cdju  -0.48740
gfz2012cvfr   0.25734
gfz2012ekfp  -0.24528
gfz2012ldjj   0.30574
gfz2012suqd   0.71063
gfz2012svwz   0.22339
gfz2012uhsx  -0.61389
gfz2012uhtc  -0.15609
gfz2012uvoa  -0.50909
gfz2012uzww  -0.35162
gfz2013cyvx   0.36681
gfz2013fvht   0.47382
gfz2013icql   0.49892
gfz2013iuyv   0.11257
gfz2013iwzn  -0.11610
gfz2013jfcn  -0.39562
gfz2013jobl  -0.28742
gfz2013kats  -0.45907
gfz2013kbbg   0.93289
gfz2013kbbn   0.17870
gfz2013kcdb   0.17670
gfz2013kqab   0.13132
gfz2013mdxj   0.29379
gfz2013mvgq   0.35436
gfz2013mzaw  -0.06316
gfz2013oizq   0.20423
gfz2013oywh   1.08480
gfz2013pkmz  -0.62177
gfz2013qigb  -0.47882
gfz2013utqa  -0.26609
gfz2013uwjo  -0.22564
gfz2013vldx   0.38777
gfz2013vnwa   0.42455
gfz2013vojy  -0.10884
gfz2013vvre   1.10540
