# Nsamples: 22  MAD:  0.489  mean:  0.076  std:  0.735
gfz2014evhm   0.58446
gfz2014fdhk   0.23250
gfz2014fgbn  -0.15067
gfz2014fhki  -0.45070
gfz2014fjfz   0.38447
gfz2014flxk   0.75918
gfz2014fmdc   1.70450
gfz2014gnbw   0.20039
gfz2014grwv   0.33247
gfz2014gsfc  -0.27620
gfz2014gtoj  -0.11693
gfz2014herz  -0.02040
gfz2014hkcw  -0.18938
gfz2014iaqm  -0.38285
gfz2014ijsa  -0.74935
gfz2014iltl   0.54232
gfz2014ined   0.35858
gfz2014inrg  -2.32820
gfz2014irlf   0.26522
gfz2014irln   0.41365
gfz2014iusw   0.19903
gfz2014iyuc   0.35217
