# Nsamples: 123  MAD:  0.555  mean:  0.065  std:  0.886
gfz2010btme  -0.83606
gfz2010bvit   0.66510
gfz2010cllh   0.80893
gfz2010crgy  -1.17930
gfz2010cyid   0.50965
gfz2010dask  -0.04099
gfz2010djib  -1.23970
gfz2010drit   1.04250
gfz2010fgbo  -0.03860
gfz2010habf  -0.19024
gfz2010izag   0.29426
gfz2010jlvp  -1.14900
gfz2010mdti  -0.51235
gfz2010ngge  -0.17098
gfz2010pclq   3.35910
gfz2010pgpo   5.00350
gfz2010qdqk  -1.28650
gfz2010rkuu   0.08286
gfz2010rljv   0.02213
gfz2010rnwt   0.74292
gfz2010tmba  -0.07092
gfz2010uhjy  -0.28164
gfz2010vong   0.38035
gfz2010wakc  -1.08300
gfz2010xnbn   0.96976
gfz2011ahvh   0.48024
gfz2011bpqm  -0.76043
gfz2011bygu   0.08574
gfz2011cdge   2.08280
gfz2011cfyy   0.82851
gfz2011dabj  -0.97785
gfz2011dhfg  -0.41562
gfz2011dpyu  -0.57391
gfz2011fnie  -0.27668
gfz2011gnbk  -0.33876
gfz2011gpyr  -0.39238
gfz2011kjzt   0.02216
gfz2011lkkf  -0.14183
gfz2011lwmg  -0.77380
gfz2011ndhh  -0.37333
gfz2011nfcz   0.69091
gfz2011nijp  -1.24990
gfz2011nilw   0.31940
gfz2011niuw   1.11370
gfz2011nuqo  -0.20091
gfz2011ofpj   0.63383
gfz2011oslk  -0.88160
gfz2011owqa   0.15372
gfz2011qenl   0.11511
gfz2011qukj  -0.04413
gfz2011uqry   0.01978
gfz2011vahy  -0.59491
gfz2011vcyx   0.05318
gfz2011wucg   0.13934
gfz2011wwze   0.08398
gfz2011zghc   0.11402
gfz2012bqcf  -0.73742
gfz2012cntu  -0.39458
gfz2012cvfr  -0.40972
gfz2012dejg   0.98367
gfz2012dnig  -0.10578
gfz2012dyck   0.91138
gfz2012ekfp   0.24490
gfz2012iijk   1.30380
gfz2012kmbo  -0.61060
gfz2012kmmz   1.24890
gfz2012ldjj   0.25878
gfz2012mdzf  -0.65408
gfz2012mjuu  -0.17300
gfz2012nqvd  -0.66788
gfz2012oafg  -1.00360
gfz2012oehy  -0.58321
gfz2012qfah   0.11072
gfz2012rzwp   2.05730
gfz2012sgfd   1.68380
gfz2012tisj   0.12127
gfz2012wkki   0.02318
gfz2012wysg  -0.10325
gfz2012xncm   0.84556
gfz2012xxdj   0.47932
gfz2013byyy  -0.38753
gfz2013cvve   0.18244
gfz2013cyvx  -0.39206
gfz2013delq  -0.45814
gfz2013dftb  -0.12231
gfz2013fnpa  -0.59627
gfz2013fulo  -0.13939
gfz2013gsnl   1.13040
gfz2013icql   0.21316
gfz2013iuyv  -0.11650
gfz2013jfcn  -0.00000
gfz2013jobl  -0.64165
gfz2013kats  -0.97036
gfz2013kbbg  -1.01830
gfz2013oizq   0.55875
gfz2013qigb  -0.79859
gfz2013qoak   1.02810
gfz2013quwz  -0.61085
gfz2013qxof  -0.28432
gfz2013utqa   0.09844
gfz2013uwjo   0.36523
gfz2013vmrv   0.41053
gfz2013vojy   0.06040
gfz2013vvre   1.31310
gfz2013vzel   1.02540
gfz2013wyfl   0.20112
gfz2013xahp   2.27180
gfz2013xmzw  -0.30221
gfz2013xofz  -0.55023
gfz2013xswc   0.07204
gfz2013yqtu   0.05677
gfz2014bdju  -0.65530
gfz2014dtth  -0.41272
gfz2014flxk  -0.26575
gfz2014fsir  -0.28420
gfz2014fxte  -0.16691
gfz2014gnbw  -0.08215
gfz2014gnvp  -0.91717
gfz2014igrp  -0.02734
gfz2014iltl  -0.00000
gfz2014irlf  -0.23221
gfz2014itlx   0.00948
gfz2014iusw  -0.11465
