# Nsamples: 110  MAD:  0.579  mean:  0.390  std:  0.726
gfz2010abfc  -0.17960
gfz2010abvu   0.91253
gfz2010aggj   0.26813
gfz2010aimm  -0.13528
gfz2010aseg   0.96419
gfz2010bklj  -0.24315
gfz2010clbw   0.23230
gfz2010cllh   0.94278
gfz2010cphq   0.30140
gfz2010crgy  -0.32665
gfz2010crir   0.40079
gfz2010cyid   1.20980
gfz2010dask   1.00690
gfz2010djib  -0.64754
gfz2010drit   0.83223
gfz2010drun   0.37173
gfz2010dumv   0.99511
gfz2010fxut   0.01367
gfz2010habf   0.46186
gfz2010hesh   0.21739
gfz2010hxan  -0.11181
gfz2010iaay   0.91292
gfz2010izag   1.33360
gfz2010jlvp  -0.24979
gfz2010kcdq  -0.85709
gfz2010ngge   0.77698
gfz2010pclq   2.16200
gfz2010pcya  -1.56400
gfz2010pgpo   0.79637
gfz2010pngv  -2.13310
gfz2010rljv   0.71622
gfz2010rnwt   1.55620
gfz2010rpjd  -1.03320
gfz2010schp   0.76593
gfz2010tcgh   0.56471
gfz2010tmba   0.57807
gfz2010tpcj   0.47745
gfz2010tzma   0.72672
gfz2010ugws   1.48120
gfz2010uhjy   0.79614
gfz2010uogw   1.18210
gfz2010vong   0.59994
gfz2010wakc  -0.14394
gfz2011wpzt   2.66100
gfz2012umob   0.34023
gfz2012uvoa   0.01621
gfz2012vile   1.18620
gfz2012vitw   0.55497
gfz2012vkjw   0.42828
gfz2013cvve  -0.00000
gfz2013cyvx   0.51993
gfz2013dzvr   0.67418
gfz2013fnpa   0.66807
gfz2013fulo   0.40831
gfz2013fvht   1.03100
gfz2013gkyn   1.79630
gfz2013icql   0.34085
gfz2013iuyv  -0.87167
gfz2013iwzn   0.75479
gfz2013jfcn   0.90589
gfz2013jhog   0.68006
gfz2013jobl   0.22374
gfz2013kats  -0.00000
gfz2013kbbg   0.18876
gfz2013kbbn   0.19421
gfz2013kcdb   0.35809
gfz2013kjgh   0.11650
gfz2013kpcb   0.97295
gfz2013lbod   0.03886
gfz2013lbvl   0.12207
gfz2013lgvf   0.01538
gfz2013mdxj   0.67610
gfz2013mzaw   0.57504
gfz2013ntiu   2.17640
gfz2013oizq  -1.49870
gfz2013osmj   0.78665
gfz2013pizm  -0.26384
gfz2013qdpv   0.26881
gfz2013qoak   0.27335
gfz2013quwz  -0.11240
gfz2013qxof   0.32233
gfz2013rdmn  -0.65697
gfz2013skvq   0.20416
gfz2013tjub  -0.20398
gfz2013udtw   0.57314
gfz2013ujze  -0.25337
gfz2013unuv  -0.53812
gfz2013utqa  -0.07073
gfz2013uwjo  -0.41083
gfz2013uxzw   1.55470
gfz2013vcgd  -0.27197
gfz2013veug   0.26825
gfz2013vjrr   0.48574
gfz2013vldx   0.00000
gfz2013vmrv   1.47510
gfz2013voai   0.49193
gfz2013vojy   0.30102
gfz2013vvre   1.04740
gfz2013vzel   0.31304
gfz2013xahp   0.29994
gfz2013xmzw   1.03280
gfz2013xswc   0.22276
gfz2013ykkf   0.33614
gfz2013yodm   0.35486
gfz2013yqtu   0.62473
gfz2013zfbz   0.48351
gfz2014ayxf   1.23150
gfz2014bkra   0.02110
gfz2014cokw  -0.47129
gfz2014dihl  -0.02664
