# Nsamples: 147  MAD:  0.424  mean:  0.043  std:  0.774
gfz2010drit  -0.16076
gfz2010ekvl  -0.10890
gfz2010fgbo  -0.03442
gfz2010fjio   1.78200
gfz2010fjme  -0.24955
gfz2010fkff   0.34411
gfz2010fvfz   0.11427
gfz2010gonu  -0.00016
gfz2010habf  -0.00418
gfz2010hdxn   0.28753
gfz2010hllp  -1.07960
gfz2010izag   0.34363
gfz2010mdti  -0.04314
gfz2010ncwu   0.12839
gfz2010ngge  -0.43084
gfz2010qdqk   0.25698
gfz2010rpjd  -2.09760
gfz2010tcgh   0.63507
gfz2010tgmo   0.05697
gfz2010tmba  -0.33730
gfz2010xnbn  -0.91621
gfz2010xpzq  -0.16451
gfz2010yfdr  -0.28704
gfz2011ahvh  -0.37893
gfz2011amst   1.10090
gfz2011bygs   0.37601
gfz2011bygu   0.63736
gfz2011bzio   1.39140
gfz2011cdge  -0.43464
gfz2011dhfg  -0.14099
gfz2011fszl  -0.12104
gfz2011yexx  -0.13214
gfz2011zghc   0.32556
gfz2011zkbt  -0.65427
gfz2012bity  -0.19937
gfz2012bqcf  -0.15992
gfz2012cdju  -0.29500
gfz2012cfdw   1.35860
gfz2012cksh  -0.41397
gfz2012cntu   0.52973
gfz2012cvfr  -0.18389
gfz2012dwwu  -0.50383
gfz2012dyck  -0.46469
gfz2012dysu   0.22741
gfz2012ekfp   0.50535
gfz2012evxn  -0.64998
gfz2012gftg  -0.91477
gfz2012ghiv  -0.30706
gfz2012gpcd  -0.71205
gfz2012hvtu   1.49870
gfz2012klpl   0.68621
gfz2012lvlr   1.60890
gfz2012lyyr   2.04490
gfz2012mdzf  -0.35304
gfz2012mjuu  -0.59112
gfz2012mmiw  -0.30550
gfz2012mrqk  -0.30462
gfz2012mrwu  -0.12593
gfz2012nldz   1.60150
gfz2012nnqu  -0.25848
gfz2012nqvd   0.08911
gfz2012oafg   0.21640
gfz2012oehy  -0.42237
gfz2012pdav  -0.17369
gfz2012phns  -0.16861
gfz2012pmuj  -0.80808
gfz2012rzwp  -2.12730
gfz2012sgfd  -1.85230
gfz2012socz   4.15810
gfz2012sqsc   2.05550
gfz2012suqd  -0.05515
gfz2012svwz  -0.10782
gfz2012swbz  -0.57421
gfz2012syum  -0.24058
gfz2012taph  -0.41152
gfz2012tisj   1.09410
gfz2012uzww  -0.23143
gfz2012vdra  -0.42836
gfz2012vile  -0.28251
gfz2012vrqz   0.37894
gfz2012wgdv   0.03896
gfz2012wgmg  -0.01213
gfz2012wkki   0.20135
gfz2012wmmw   0.96794
gfz2012wpen   1.37740
gfz2012xfsl  -0.52276
gfz2012xkln   0.29848
gfz2012xncm   0.35916
gfz2012xrmq  -0.29765
gfz2012xxdj  -0.06911
gfz2012ylai  -0.34726
gfz2013gxye   0.11495
gfz2013kxlr  -0.26534
gfz2013lbod  -0.23404
gfz2013lbvl   0.02460
gfz2013mdxj   0.17563
gfz2013mvgq  -0.10442
gfz2013mzaw  -0.05732
gfz2013oeni  -0.24963
gfz2013oizq   0.09150
gfz2013orot   0.46706
gfz2013oywh   0.34387
gfz2013phhi  -1.95160
gfz2013qigb   0.07933
gfz2013qoak  -0.59179
gfz2013qogb   0.20542
gfz2013quwz   0.30407
gfz2013rocs  -0.52507
gfz2013rwkj  -0.44195
gfz2013taeb  -0.44485
gfz2013tkcg   0.61569
gfz2013tnrp   0.56320
gfz2013ubgt  -0.04167
gfz2013vvre   1.25730
gfz2013wwee   0.43983
gfz2013wyfl  -0.22589
gfz2013xahp  -0.14430
gfz2014eirs   0.40624
gfz2014emlw   0.06369
gfz2014eoay  -0.43083
gfz2014esez   0.21678
gfz2014fsje  -0.15838
gfz2014fwxt   0.39614
gfz2014fxte  -0.28240
gfz2014fxuy  -0.25367
gfz2014gnbw  -0.00831
gfz2014gnvp  -0.05838
gfz2014gtoj   0.22726
gfz2014gypw   0.20439
gfz2014hapg  -0.14657
gfz2014hkcw  -0.05435
gfz2014hqhv  -0.63718
gfz2014huqh   0.03223
gfz2014hyea  -0.30783
gfz2014hzzf  -0.55756
gfz2014icov  -0.85149
gfz2014igrp   0.17446
gfz2014iltl   0.50830
gfz2014ined   0.14808
gfz2014inrg   0.20398
gfz2014irlf   0.05482
gfz2014irln   0.28643
gfz2014irly  -0.19003
gfz2014isov   2.62500
gfz2014iusw  -0.13544
gfz2014jarg   0.30210
gfz2014jayh  -0.22516
