# Nsamples: 40  MAD:  1.341  mean:  1.630  std:  1.793
gfz2010cllh   0.82697
gfz2010cngg   1.29140
gfz2010dask   2.42550
gfz2010ddan  -3.01260
gfz2010djib  -0.31598
gfz2010dmij   0.26315
gfz2010drml   4.76130
gfz2010drmq   4.76130
gfz2010mqzz   7.62380
gfz2010pzza   1.76380
gfz2010qloa   5.26580
gfz2010qrta   0.83195
gfz2010tmba   2.57540
gfz2010uhjy   2.28980
gfz2010vong   2.23020
gfz2011ahvh   2.82870
gfz2011bpqm   0.24858
gfz2011dpyu   1.84410
gfz2011gnbk   1.98150
gfz2011hjof   0.82417
gfz2011kjzt   2.45650
gfz2011kjzv   0.83060
gfz2011ndhh   0.91256
gfz2011niuw   2.58550
gfz2011oslk   1.05170
gfz2011sdax   2.07710
gfz2011tsgl   1.17390
gfz2011vahy   1.01990
gfz2012cvfr   1.68190
gfz2012ekfp   1.20750
gfz2012mjuu   0.54687
gfz2012zhyz   2.62870
gfz2013cyvx   2.33070
gfz2013hbmi  -0.93846
gfz2013iuyv   1.86510
gfz2013kats   1.10070
gfz2013qapj   0.56417
gfz2013skvq  -0.43957
gfz2013uenl   0.15900
gfz2013vmsg   1.06850
