# Nsamples: 31  MAD:  1.131  mean:  1.653  std:  1.132
gfz2011mjje   0.89236
gfz2011ndhh  -0.39443
gfz2011ofpj   2.28390
gfz2011oslk   2.15140
gfz2011paqj   1.58610
gfz2011scma   1.68250
gfz2011sdax   2.23390
gfz2011taqr   2.69770
gfz2011tsgl   0.08611
gfz2011uqry  -0.74667
gfz2011yexx   1.80800
gfz2011zghc   0.99893
gfz2012bqcf   2.07290
gfz2012dyck  -0.02778
gfz2012ekfp   2.22790
gfz2012twec   1.29200
gfz2013kats   0.92251
gfz2013lbvl   1.55550
gfz2013quwz   2.00990
gfz2013ryph   2.22520
gfz2013taeb   3.80370
gfz2013utqa   2.30550
gfz2013wyfl   2.57080
gfz2013xswc   1.58210
gfz2014fsir   2.11200
gfz2014fsvc   0.07814
gfz2014fxte   2.71020
gfz2014icov   0.78624
gfz2014iltl   0.71070
gfz2014irlf   3.80200
gfz2014irln   3.23390
