# Nsamples: 1059  MAD:  0.670  mean:  0.229  std:  0.839
gfz2010abfc  -0.11516
gfz2010afyi   3.02920
gfz2010aggj   0.81609
gfz2010aseg   1.17300
gfz2010asxa   0.14527
gfz2010axdz  -0.02150
gfz2010azji   1.39850
gfz2010bklj   0.28533
gfz2010bnbr   3.77160
gfz2010bofe   1.98480
gfz2010bqnk   0.60809
gfz2010brlc  -0.32770
gfz2010btme  -0.09606
gfz2010bukb   0.69978
gfz2010bvit   0.15829
gfz2010byau   0.29695
gfz2010cbnp  -0.05228
gfz2010ccwc   0.48826
gfz2010ccye   0.22159
gfz2010cdnv   0.39953
gfz2010ckoc   1.59510
gfz2010clbw   0.42757
gfz2010cllh   0.44045
gfz2010cnyi  -0.48156
gfz2010colm   0.10200
gfz2010cphq   1.56050
gfz2010cpig   0.99606
gfz2010cqoq   1.68020
gfz2010crgy   0.11628
gfz2010crir  -0.10106
gfz2010csle   0.35182
gfz2010ctak   2.21760
gfz2010cthm   2.32930
gfz2010cvam   0.66593
gfz2010dask  -0.16236
gfz2010ddan   0.33596
gfz2010depd   0.80234
gfz2010djib   0.14464
gfz2010dmij  -0.20164
gfz2010dmkd   0.29641
gfz2010drit   0.28474
gfz2010drml  -0.54814
gfz2010drmq  -0.54814
gfz2010drng   0.22645
gfz2010drpv   0.60742
gfz2010drun  -0.28431
gfz2010dsjq   0.38572
gfz2010dtgc  -0.31388
gfz2010dtyx   1.90250
gfz2010dumv   0.97541
gfz2010dwgy   0.63928
gfz2010dxhq   0.40592
gfz2010eibh   0.81023
gfz2010elge  -1.57830
gfz2010eqyj  -0.51080
gfz2010euue  -0.10555
gfz2010ewyj   0.76843
gfz2010extu   1.01250
gfz2010faly  -0.11887
gfz2010fgbo   0.30323
gfz2010fjio   0.08857
gfz2010fkpa   0.98645
gfz2010fopf   0.63827
gfz2010fqzh  -0.13024
gfz2010fvfz   0.63911
gfz2010fxut  -0.46706
gfz2010gonu   0.05803
gfz2010gooc   0.13159
gfz2010gpjl  -0.98256
gfz2010gxki  -1.07700
gfz2010habf   0.43828
gfz2010hesh  -0.03183
gfz2010hexh  -0.54396
gfz2010hnuo   1.63460
gfz2010hsgv   0.85506
gfz2010hueh   0.11392
gfz2010huzl   1.31710
gfz2010hxan   0.25219
gfz2010iaay  -0.15138
gfz2010ihef   1.48750
gfz2010inbs   0.67796
gfz2010ioad  -0.38595
gfz2010izag   0.68560
gfz2010izgb   0.07482
gfz2010jcby   0.44690
gfz2010jgwj   0.77614
gfz2010jkrp   0.98469
gfz2010jlvp   0.35954
gfz2010jvsi   0.02940
gfz2010kcdq   0.31715
gfz2010kcyz  -0.18227
gfz2010kzzm  -3.02550
gfz2010lvnj   1.92280
gfz2010mjdl  -0.09412
gfz2010mqaj   1.54000
gfz2010mvmb   0.56975
gfz2010mwmd   1.51210
gfz2010nteg   0.70844
gfz2010ogwn   0.34725
gfz2010okpc   0.39571
gfz2010osrl   0.36857
gfz2010ovvg  -0.47997
gfz2010pngv   2.68590
gfz2010qdqk  -2.27320
gfz2010qrix   0.91746
gfz2010qrta   0.56125
gfz2010qykh   1.01810
gfz2010qzvf   0.23831
gfz2010rdep   0.19885
gfz2010rhvu  -0.96070
gfz2010rkuu  -0.25874
gfz2010rljv   0.71290
gfz2010rmua   0.27799
gfz2010rnqa   2.04570
gfz2010schp   0.03892
gfz2010scht   0.86504
gfz2010sdfs  -0.58604
gfz2010sftm   1.65720
gfz2010sook   0.22090
gfz2010swqy   0.23468
gfz2010sylk   0.19812
gfz2010tcgh   0.38340
gfz2010tgmo  -0.18920
gfz2010tmba   0.73156
gfz2010tmne   0.44150
gfz2010tpcj  -0.08303
gfz2010tqyo   0.16683
gfz2010tvit  -0.07779
gfz2010tzlz   1.10050
gfz2010tzma   0.57859
gfz2010ugws  -0.41740
gfz2010uhjy   0.30375
gfz2010uidg  -0.08193
gfz2010umxj   0.31971
gfz2010umyp  -0.53197
gfz2010uogw  -1.12610
gfz2010uopf  -0.55991
gfz2010upod   0.42035
gfz2010uqba  -1.07990
gfz2010uraq   1.64260
gfz2010ussf  -0.29365
gfz2010uyng  -0.32463
gfz2010vhzx  -0.61336
gfz2010viyi   0.86282
gfz2010vjac   0.64738
gfz2010vong   0.88251
gfz2010vybx   0.58552
gfz2010vyri   1.18040
gfz2010wakc   0.12006
gfz2010wigk   0.59474
gfz2010wplk   0.17965
gfz2010wtin   0.65765
gfz2010wwhf   0.73898
gfz2010wwnq   0.19165
gfz2010wyuj  -0.23848
gfz2010xamh  -0.65741
gfz2010xaxw  -0.06477
gfz2010xezr   1.20300
gfz2010xjsv   1.66710
gfz2010xkbz   0.36028
gfz2010xnbn   0.26006
gfz2010xnwf   0.53807
gfz2010xpzq   0.28557
gfz2010xytc   3.45000
gfz2010xzah   0.42106
gfz2010xzte   1.11570
gfz2010yczp  -0.01602
gfz2010yfdr  -0.88384
gfz2010ygrd   1.38260
gfz2010yhdn   1.52800
gfz2010yhhj  -0.22870
gfz2010yrex   0.05450
gfz2010yspe   0.56585
gfz2010zaxv  -0.03721
gfz2010zhvj  -0.57469
gfz2010zjun  -0.44592
gfz2010zkle  -1.27190
gfz2011afyc   1.41140
gfz2011ahvh  -0.49212
gfz2011amst  -0.41797
gfz2011aqpp   0.27234
gfz2011awsv   0.75759
gfz2011bazz  -0.02178
gfz2011bcvc   1.10660
gfz2011bffb   0.14333
gfz2011biin  -0.03785
gfz2011bpqm   0.37168
gfz2011bqbx  -3.07420
gfz2011bsvr  -0.15501
gfz2011bwsm  -0.43144
gfz2011byec   0.72901
gfz2011bygs   0.02131
gfz2011bygu   0.61182
gfz2011cdge  -1.18660
gfz2011cfyy  -0.32758
gfz2011cjcv   2.02300
gfz2011cjuz   0.82827
gfz2011cwsm   0.27008
gfz2011cwzi  -0.04245
gfz2011cxbw  -4.94010
gfz2011cxdj  -0.24632
gfz2011dabj   0.78493
gfz2011dhqk  -0.23785
gfz2011dtcb   0.80837
gfz2011duvm   0.07215
gfz2011dwae  -0.12335
gfz2011dzmf   0.00000
gfz2011ecce   0.08756
gfz2011edrq  -0.39609
gfz2011fnie  -0.63568
gfz2011fnuk  -0.28541
gfz2011fnxz  -0.19749
gfz2011fszl   0.27300
gfz2011fxmf   1.03610
gfz2011fyfu   0.16471
gfz2011fzcw  -0.26550
gfz2011gaax  -0.19474
gfz2011gcct   0.00374
gfz2011gfer  -0.56482
gfz2011ggnl   1.00300
gfz2011ggsz   0.64232
gfz2011gkdx   0.99998
gfz2011glpg   1.03950
gfz2011gpyr  -0.30775
gfz2011grby  -2.96230
gfz2011gzde  -0.38799
gfz2011haaa  -0.02651
gfz2011hatg   1.16340
gfz2011hffq   0.41762
gfz2011hibi  -0.19937
gfz2011hjof   0.61258
gfz2011hmnw  -0.17089
gfz2011hqjs  -0.16231
gfz2011huon  -0.86423
gfz2011hvzo  -1.45910
gfz2011hwbn  -0.55067
gfz2011hyct   0.02210
gfz2011hyuh  -0.11952
gfz2011iamf  -0.23775
gfz2011ibew   0.36985
gfz2011ifta  -0.31653
gfz2011inan   0.77519
gfz2011ioch   2.32920
gfz2011iryz   0.30719
gfz2011ituo  -0.36418
gfz2011ixpj  -0.10191
gfz2011jdoz  -0.11198
gfz2011jeta   1.49650
gfz2011jphj   0.65201
gfz2011jpob   1.07150
gfz2011jqyc   3.50910
gfz2011jrgh   0.17087
gfz2011jryv   0.78587
gfz2011kbzo   0.67261
gfz2011kfch   0.48615
gfz2011kjzt  -0.15333
gfz2011kmge   1.79630
gfz2011knht   1.04280
gfz2011kylu   1.28780
gfz2011kymm   0.66835
gfz2011kyzy   0.43232
gfz2011ldgl   0.02140
gfz2011lkkf   0.56376
gfz2011lmug  -0.52458
gfz2011lnzf   2.63740
gfz2011lrpv   0.09106
gfz2011lwmg   0.17570
gfz2011lxga   1.22430
gfz2011lykm   1.05150
gfz2011lywj   0.17768
gfz2011mdyq  -0.18043
gfz2011melb  -0.40521
gfz2011mimz   0.71679
gfz2011mjje   0.03197
gfz2011mllb   0.08928
gfz2011mntq  -0.27659
gfz2011moob   0.53861
gfz2011mrfm   0.92367
gfz2011mror   0.50751
gfz2011mzvn  -0.06093
gfz2011nblt   0.41649
gfz2011ncyw  -0.28492
gfz2011ndki  -1.41280
gfz2011ndlh  -0.80126
gfz2011ndoe  -0.38219
gfz2011ndse  -1.00690
gfz2011ndvj  -0.47184
gfz2011ndyk  -0.15102
gfz2011neai  -0.26126
gfz2011nejg  -0.94999
gfz2011nejw  -0.06121
gfz2011nerb  -0.21638
gfz2011nfcz   0.04810
gfz2011nfgt   2.69100
gfz2011nfih   0.20775
gfz2011nfln   0.20814
gfz2011nftw   0.02714
gfz2011nfwd   0.51348
gfz2011nfww  -0.37439
gfz2011nhby   0.49289
gfz2011nhhd   0.13552
gfz2011nhjv  -1.13590
gfz2011nhvt   0.69123
gfz2011nhwf   0.29447
gfz2011nifi  -0.27591
gfz2011nihq  -0.19415
gfz2011nijp  -0.08496
gfz2011nilw   0.15378
gfz2011nioi  -1.49760
gfz2011nivw  -0.48166
gfz2011nkda   0.92875
gfz2011nkou  -1.02350
gfz2011nlmf   0.37595
gfz2011nlnl  -1.17190
gfz2011nlok  -1.10040
gfz2011nlou   1.09050
gfz2011nlum   0.35336
gfz2011nlyw   0.89308
gfz2011nmdz   0.54700
gfz2011nmhg   0.97709
gfz2011nnos   0.87667
gfz2011npaf   0.51153
gfz2011nsiy  -0.02653
gfz2011nsrx  -0.20953
gfz2011nssr  -0.97506
gfz2011nswi  -0.40659
gfz2011ntyd  -0.16584
gfz2011nuqo   0.01477
gfz2011nvty  -1.32830
gfz2011nyzk  -0.57900
gfz2011oadm  -0.54894
gfz2011ocif  -0.07445
gfz2011oesd   1.08370
gfz2011ofpj  -0.06381
gfz2011okza   0.63270
gfz2011omxt  -0.13380
gfz2011oqjl  -0.75441
gfz2011osmp  -0.32115
gfz2011ovvj   1.03260
gfz2011owqa   0.15056
gfz2011paqj  -0.44727
gfz2011pbgh  -0.51871
gfz2011pbjh   0.35453
gfz2011pdgq   0.11954
gfz2011pdsn  -0.83383
gfz2011pfls   0.80273
gfz2011pfwq  -0.11082
gfz2011pgzk   0.16210
gfz2011pivq   0.74479
gfz2011plzc  -0.26377
gfz2011pmuv  -0.14396
gfz2011poug   0.93864
gfz2011pphc  -0.56002
gfz2011ppsc  -0.15194
gfz2011prrq   0.84692
gfz2011ptgd  -0.20418
gfz2011pulu   0.12845
gfz2011pwbw  -0.34585
gfz2011pwld   0.35218
gfz2011qasw   0.66913
gfz2011qenl  -0.17642
gfz2011qgea  -0.93925
gfz2011qgvh   0.14278
gfz2011qgvx  -1.12290
gfz2011qhjw  -0.73318
gfz2011qidi   0.38672
gfz2011qowe  -0.70912
gfz2011qtoy  -0.02210
gfz2011qukj  -0.37940
gfz2011rkau   0.26868
gfz2011rnny   0.51524
gfz2011rnsp   0.77862
gfz2011rplo  -1.94070
gfz2011rqut  -0.10581
gfz2011scma  -0.35061
gfz2011sdpl   0.30727
gfz2011sfmu   2.25580
gfz2011sfph   0.65747
gfz2011sqco   0.16165
gfz2011sqxp  -0.26772
gfz2011sskq   0.46279
gfz2011swfp   0.08195
gfz2011sxno  -0.41206
gfz2011syvj   0.11586
gfz2011szis   0.25033
gfz2011taqr  -0.24615
gfz2011tfor  -0.12735
gfz2011tgon  -0.56082
gfz2011tjpv  -0.29249
gfz2011tozo   2.96180
gfz2011tsgl   0.40547
gfz2011tssv   2.37230
gfz2011twpz  -0.76756
gfz2011txdb  -0.47656
gfz2011txxs  -0.26365
gfz2011tzcv   0.06109
gfz2011udjs   1.05540
gfz2011udxo  -0.54825
gfz2011ugbt  -0.05668
gfz2011uowi  -0.40466
gfz2011urwz  -0.74670
gfz2011uvsi  -0.43085
gfz2011vahy   0.65622
gfz2011vaoi   0.08274
gfz2011varl   0.16067
gfz2011vcyx  -0.78051
gfz2011vsag  -0.19898
gfz2011vtzv   1.01980
gfz2011wbtc   0.09188
gfz2011wkja  -0.09211
gfz2011wkyx  -0.19730
gfz2011wngi   0.89194
gfz2011wnvu   0.08559
gfz2011wqth   3.56050
gfz2011wtfn  -0.82073
gfz2011wucg   0.71940
gfz2011wwze   0.17351
gfz2011wyei   0.00000
gfz2011wzss  -0.31235
gfz2011xagc  -0.21661
gfz2011xawm  -0.15565
gfz2011xgbc   0.21208
gfz2011xgwy  -0.41399
gfz2011xkka   0.09500
gfz2011xlod   0.46119
gfz2011xwdv  -0.81068
gfz2011yeck  -0.14502
gfz2011yexx  -0.71140
gfz2011ykbd   0.47633
gfz2011yntu  -1.08540
gfz2011ytwk   0.81580
gfz2011ywtj  -0.58718
gfz2011zdyf  -0.07784
gfz2011zghc   0.96645
gfz2011zgxn   0.11791
gfz2011ziyk   0.80760
gfz2011zkbt  -0.42643
gfz2011znyq  -0.38794
gfz2012agwh   1.15490
gfz2012ahac  -0.54210
gfz2012ahkl  -1.89140
gfz2012aioo   0.02059
gfz2012alti   0.45542
gfz2012amjx  -0.34473
gfz2012amvs   0.23322
gfz2012aqpa  -0.16354
gfz2012arlo  -1.47070
gfz2012asin   0.17447
gfz2012atjr   0.50770
gfz2012auqr  -0.95463
gfz2012avvc   0.19605
gfz2012azel   1.16710
gfz2012bcvn   0.61214
gfz2012beae   0.75423
gfz2012bjhl  -0.50850
gfz2012bnwa   0.40235
gfz2012bolx  -0.66201
gfz2012bovy  -0.52351
gfz2012brrg  -0.12571
gfz2012byrq  -0.41621
gfz2012bysu  -0.76273
gfz2012bytv  -0.73966
gfz2012byuk  -0.37786
gfz2012cdju  -0.19554
gfz2012cfdw   0.24816
gfz2012cksh   0.70526
gfz2012cmww   0.20533
gfz2012cntu  -0.00856
gfz2012dbgt   0.62777
gfz2012dejg   0.33312
gfz2012dleg   0.16051
gfz2012dluf   0.26329
gfz2012dnig   0.68383
gfz2012dpem  -0.18737
gfz2012dpnu  -0.58321
gfz2012dpwv   0.01969
gfz2012drak   0.20959
gfz2012drld   0.64839
gfz2012dsei   2.35860
gfz2012dtdt  -0.40964
gfz2012dtlu   1.20370
gfz2012dtvr  -0.22803
gfz2012duvf  -1.12680
gfz2012duwm   0.58369
gfz2012dwwu  -0.79937
gfz2012dyck   0.17662
gfz2012dyfw   1.11020
gfz2012dysj   1.09440
gfz2012dysu   0.06515
gfz2012dyua   0.04458
gfz2012dzat  -1.71340
gfz2012dzen  -0.84123
gfz2012dzjo  -0.39508
gfz2012dzoh  -0.75153
gfz2012dzot  -0.51338
gfz2012dzou  -0.92951
gfz2012dzul  -0.98029
gfz2012dzva  -0.89960
gfz2012eajr   0.40911
gfz2012eary  -1.38930
gfz2012ebff   0.31123
gfz2012ebgo  -0.43812
gfz2012ebhf   0.04423
gfz2012ebrr  -0.10156
gfz2012eeft  -0.06090
gfz2012emin   2.47670
gfz2012enrg   0.94125
gfz2012erds  -1.01550
gfz2012evav   0.36990
gfz2012evxn  -1.26200
gfz2012eyti   0.95324
gfz2012fcyq  -0.61342
gfz2012fcyr  -0.62934
gfz2012fhaf   0.18218
gfz2012fjiu   0.73498
gfz2012flqf   0.66815
gfz2012foih   0.89692
gfz2012fpyo  -0.38272
gfz2012fuyd   0.85822
gfz2012fxgc  -0.04858
gfz2012fyny  -0.11495
gfz2012fyop   0.33219
gfz2012gczh   0.21110
gfz2012gdye   0.88758
gfz2012ghiv   0.16817
gfz2012ghyd  -0.66056
gfz2012gjdg  -0.34951
gfz2012gjtd   0.21756
gfz2012gmsr  -0.96149
gfz2012grmf  -0.29564
gfz2012gubu  -0.06120
gfz2012gvxc  -0.10476
gfz2012gzuk  -0.80694
gfz2012hdny   2.54730
gfz2012heih   0.48126
gfz2012hmcv   0.27747
gfz2012hnyy   2.79950
gfz2012hvjc  -0.40821
gfz2012hwph   0.94160
gfz2012hyqh   0.22835
gfz2012hzhn   0.29489
gfz2012hzur  -0.95504
gfz2012ibyd   3.51440
gfz2012icjo   0.52760
gfz2012idxu   0.08792
gfz2012iedy   1.90490
gfz2012iijk   0.22109
gfz2012ikke   0.97966
gfz2012imuo  -1.27900
gfz2012inns   0.49240
gfz2012iotw  -0.62593
gfz2012ipdc   0.96674
gfz2012iphs   0.94617
gfz2012iroy  -0.10785
gfz2012itxz   0.94535
gfz2012ivyg  -0.61854
gfz2012iyhs  -0.13537
gfz2012iyoi   0.19016
gfz2012izke   0.54155
gfz2012jaun   1.03460
gfz2012jbzr  -1.88380
gfz2012jetp   0.92954
gfz2012jihg   1.02020
gfz2012jjxm   1.17330
gfz2012jksz  -0.84848
gfz2012jlez  -0.40435
gfz2012jodg   1.02060
gfz2012jopi   0.32565
gfz2012jxnm  -0.14358
gfz2012jxxe  -0.25450
gfz2012jyhb   0.47596
gfz2012kadi  -0.14514
gfz2012kjzx  -0.48033
gfz2012kmbo   0.57149
gfz2012kmmz  -0.52453
gfz2012krcm   0.44875
gfz2012kstg   0.15368
gfz2012kvlx  -1.10980
gfz2012kwmx   0.04440
gfz2012kyhj  -3.46040
gfz2012lcca   0.48354
gfz2012lcro  -0.37622
gfz2012ldjj  -0.21122
gfz2012lngq   0.78079
gfz2012lqhw  -0.47107
gfz2012lvlr   0.35718
gfz2012lvxx   1.12380
gfz2012lwha   0.33959
gfz2012lyqs   0.75563
gfz2012lyyr  -0.36695
gfz2012mdzf  -0.55016
gfz2012mekv   0.36818
gfz2012mhik  -0.18705
gfz2012mjuu  -0.23838
gfz2012mjzl  -0.09457
gfz2012mmiw  -0.26796
gfz2012mnth  -0.10540
gfz2012moul   1.66160
gfz2012mout  -0.96631
gfz2012movu  -0.16625
gfz2012movv   1.00490
gfz2012mowv  -0.31575
gfz2012mrqk   0.13512
gfz2012mrwu   0.03228
gfz2012mwhe  -0.24410
gfz2012mxvk   0.94794
gfz2012mzco  -0.31762
gfz2012mzqx   0.34165
gfz2012ndsk   0.57466
gfz2012ndwt   0.47298
gfz2012nldz  -0.99679
gfz2012nlrb  -0.30863
gfz2012nmja   1.51540
gfz2012nnck  -0.55059
gfz2012nnqu  -0.44090
gfz2012nqvd  -0.25300
gfz2012nsxc  -0.37938
gfz2012oehy  -0.05923
gfz2012ofnx   0.33008
gfz2012ogqu   0.93367
gfz2012ogwe   2.18840
gfz2012ohgd  -0.38366
gfz2012oieq  -0.48152
gfz2012ojfv   3.27680
gfz2012onfs  -0.51742
gfz2012onhu   0.70281
gfz2012ooij   0.15121
gfz2012oork  -0.48173
gfz2012oozp   0.59166
gfz2012ormy   0.91337
gfz2012oxnh   0.04415
gfz2012oyja   0.02074
gfz2012pcui   0.13498
gfz2012pdav   0.31439
gfz2012pdfi  -2.71850
gfz2012pdjt  -0.49940
gfz2012phns  -0.41013
gfz2012pifb  -0.02099
gfz2012pmuj   0.62270
gfz2012pmws   0.98867
gfz2012prke   0.60512
gfz2012pvve  -0.05465
gfz2012pziw   0.09209
gfz2012qbbt  -0.21127
gfz2012qfah   0.73450
gfz2012qfov   0.20005
gfz2012qhqp   0.60880
gfz2012qibe   1.82060
gfz2012qmhz  -0.38121
gfz2012qpoc  -0.27757
gfz2012qvwy   0.08944
gfz2012rfhw  -1.08280
gfz2012rknz  -0.56378
gfz2012rnbw   0.87624
gfz2012rnml   0.22554
gfz2012rnyn   0.02233
gfz2012roan  -0.11406
gfz2012rslf  -0.54074
gfz2012rugl   0.56326
gfz2012rzwp  -0.91679
gfz2012sbix   0.10566
gfz2012scuk  -0.68860
gfz2012sfao   0.63388
gfz2012sgfd   0.92820
gfz2012sjox   0.43790
gfz2012slfd   1.41190
gfz2012smyn   0.35220
gfz2012socz  -0.47879
gfz2012sopp  -0.05558
gfz2012sqsc   0.00181
gfz2012ssnb  -0.37227
gfz2012stxx   0.00726
gfz2012suqd  -0.76079
gfz2012svwz   0.52782
gfz2012sxpr  -0.36985
gfz2012sxzs  -0.10726
gfz2012syum   0.83508
gfz2012tisj  -0.19031
gfz2012tjih   0.44018
gfz2012tqjc   0.06124
gfz2012trfq   0.33186
gfz2012trss   0.75846
gfz2012tsdz   0.27534
gfz2012tvgw  -0.96505
gfz2012twec   0.19557
gfz2012udxg   0.22978
gfz2012uegq   0.79795
gfz2012uhsx   0.26916
gfz2012uhtc  -0.17792
gfz2012ukzg   1.58410
gfz2012ulei  -0.42968
gfz2012umob   0.13271
gfz2012unxc   0.29266
gfz2012uovh  -0.33618
gfz2012utdu   0.08866
gfz2012uwne   0.08876
gfz2012uzww  -0.32812
gfz2012vaqd   0.30371
gfz2012vcqw  -0.01395
gfz2012vile   0.43104
gfz2012vitw   0.27359
gfz2012vkjw   0.19089
gfz2012vnve   0.03279
gfz2012vqjw  -0.19733
gfz2012vqmq  -0.12863
gfz2012vurc   0.14236
gfz2012wbeu   2.69950
gfz2012wgdv  -0.56362
gfz2012wgmg  -0.44684
gfz2012wiyv  -0.53355
gfz2012wjpf   0.29799
gfz2012wjsi   0.23912
gfz2012wjxc   0.04734
gfz2012wkki   0.61363
gfz2012wowu  -0.81621
gfz2012woxj   0.19839
gfz2012wysg   0.82861
gfz2012xcsf   0.32158
gfz2012xfnu  -0.64921
gfz2012xjgb  -0.90263
gfz2012xkln   0.19510
gfz2012xlas   0.18535
gfz2012xlfo  -0.73397
gfz2012xmwt  -0.06782
gfz2012xncm   0.47065
gfz2012xppl   1.49960
gfz2012xqxw   0.44739
gfz2012xrmq  -0.14705
gfz2012xtvu  -0.05166
gfz2012xwgb   1.87490
gfz2012xwkx   1.24820
gfz2012xxdj  -0.69000
gfz2012yegw   0.44700
gfz2012yihn   0.38242
gfz2012ylai   0.76820
gfz2012yncm   1.04230
gfz2012ywei   1.11080
gfz2012yygz   1.51650
gfz2012yzcf   1.23120
gfz2012zhyz   0.27465
gfz2012zido  -0.33541
gfz2012zkhu  -0.51379
gfz2012zmfc  -0.76284
gfz2012znou   0.01664
gfz2013aclz   3.02480
gfz2013adih   0.47716
gfz2013afzh  -0.13422
gfz2013agbm   0.95018
gfz2013aggr  -0.58997
gfz2013agmt   1.44010
gfz2013ajxz   0.00000
gfz2013ascz   0.34488
gfz2013atak  -0.05322
gfz2013atec   1.64320
gfz2013aymi  -0.36828
gfz2013bdvi  -0.16521
gfz2013bqfc   0.55853
gfz2013bwgw   0.21896
gfz2013byyy  -0.58654
gfz2013ccng   0.28702
gfz2013cfls  -0.20169
gfz2013cinv  -0.39246
gfz2013cokc   0.66255
gfz2013cqak  -0.89258
gfz2013cqee  -0.21522
gfz2013cvve  -0.56947
gfz2013ddrx   0.57773
gfz2013delq   0.50704
gfz2013dftb   0.38684
gfz2013dfvx   0.18776
gfz2013djfi   0.19022
gfz2013dksc   1.36640
gfz2013dngd  -0.14865
gfz2013dtjl   0.11095
gfz2013dvub   0.52099
gfz2013dwsp  -0.92319
gfz2013dznt  -1.05800
gfz2013dzvr  -0.86273
gfz2013efct   0.13252
gfz2013efys   0.30124
gfz2013eidd  -0.27969
gfz2013ektd  -0.71178
gfz2013enga  -0.45171
gfz2013esef   0.20825
gfz2013evcl  -1.14160
gfz2013ewht  -0.15014
gfz2013exow   1.19380
gfz2013ezmc   1.16100
gfz2013ffjt  -0.49586
gfz2013fhzy   0.39604
gfz2013fmcp   0.38658
gfz2013fndg  -0.25118
gfz2013fnpa   0.18464
gfz2013foto   0.30936
gfz2013frxd  -1.80450
gfz2013fthi   0.29550
gfz2013fvyr  -0.56296
gfz2013fvzv   0.13393
gfz2013fwbm  -0.05371
gfz2013fybd  -0.35223
gfz2013gaqx   0.52782
gfz2013gbki   0.61222
gfz2013gbma  -1.35280
gfz2013gffe   0.86013
gfz2013gjmk   0.40713
gfz2013glkq  -0.75172
gfz2013gqtl   1.50070
gfz2013gsnl   0.25801
gfz2013gugi  -0.45581
gfz2013gurk  -0.68793
gfz2013gyce   1.46280
gfz2013havw   1.16530
gfz2013hbwy   2.15090
gfz2013hdbp  -1.15060
gfz2013hduf  -0.21709
gfz2013hinw   0.19897
gfz2013hjtt  -0.34855
gfz2013hqaa  -0.13059
gfz2013hqcd   0.49788
gfz2013hvzv   0.22785
gfz2013hwps  -1.15590
gfz2013icgx  -0.42846
gfz2013idqu   0.80521
gfz2013ifag   0.75723
gfz2013ikic   1.77870
gfz2013irme  -0.05552
gfz2013isqh  -0.69894
gfz2013iuyv   0.61583
gfz2013iwzn  -0.67735
gfz2013iybv   1.24520
gfz2013jcnn   0.71288
gfz2013jdwo   1.38420
gfz2013jfcn   0.22863
gfz2013jhog   0.11140
gfz2013jjae   1.32930
gfz2013jkqn   1.01610
gfz2013jlli   0.54588
gfz2013jobl   0.08238
gfz2013jpir  -0.09118
gfz2013jqsk   1.89130
gfz2013jtsg   0.10640
gfz2013kbbg   0.49583
gfz2013kbbn   0.93675
gfz2013kbkp  -0.28268
gfz2013kcdb  -0.25807
gfz2013kjgh  -0.00000
gfz2013kpcb   0.41160
gfz2013kqab   0.22701
gfz2013kslp   0.61794
gfz2013kxlr   0.26024
gfz2013kxof   1.26990
gfz2013lbod   1.08060
gfz2013lcrk   2.56150
gfz2013lgvf   0.09184
gfz2013ljdu   0.58600
gfz2013lnne  -1.09940
gfz2013lnts   0.52636
gfz2013lrkp   1.31280
gfz2013lwtr   0.56476
gfz2013lxed   0.03839
gfz2013lxnd   1.50200
gfz2013mbna  -0.21773
gfz2013mdnp  -0.46975
gfz2013mimp   0.53519
gfz2013mktp   0.46571
gfz2013mvgq  -0.18931
gfz2013mynb  -0.48060
gfz2013mzaw   0.00000
gfz2013nhkw  -0.95020
gfz2013njjh  -0.13595
gfz2013njwj   0.30382
gfz2013nkgd   1.18220
gfz2013ntfc   0.78134
gfz2013obof   0.88648
gfz2013oeni  -0.22022
gfz2013ohdt  -0.06417
gfz2013ohnj   0.29551
gfz2013oizq  -0.47216
gfz2013ojza   0.18631
gfz2013okxa   0.37010
gfz2013olos   0.79378
gfz2013onvl  -0.17114
gfz2013opkx   0.50701
gfz2013orot   1.16470
gfz2013ortl   0.98810
gfz2013oruq   0.70540
gfz2013osmj   0.93025
gfz2013otuj   0.69429
gfz2013oywh   0.56693
gfz2013pegj   0.86480
gfz2013phly  -0.14610
gfz2013pizm   1.01610
gfz2013pkmz  -0.08264
gfz2013pqkp  -0.19763
gfz2013pvsa   0.18476
gfz2013qigb   0.05683
gfz2013qmkt   0.84394
gfz2013qntl   0.17109
gfz2013quyn  -0.13239
gfz2013qxof  -0.47242
gfz2013rdmn  -0.44162
gfz2013rfik   0.37603
gfz2013rgcc   0.44898
gfz2013rnsa   0.55012
gfz2013rofg   0.36285
gfz2013rsyt   0.54575
gfz2013ryph  -0.06317
gfz2013sbsp  -0.74967
gfz2013sdkg   0.29000
gfz2013stup  -0.21904
gfz2013taeb  -0.66127
gfz2013tdsx  -0.62661
gfz2013tert  -0.52677
gfz2013tgyb   0.55569
gfz2013tnrp   0.22910
gfz2013tpwl   0.98286
gfz2013trsq   0.01978
gfz2013ttmk  -0.00000
gfz2013ubgt   2.80600
gfz2013udtw   0.62728
gfz2013ujze  -0.15041
gfz2013unuv  -0.02406
gfz2013upqj   0.08614
gfz2013uwxb   0.42806
gfz2013uxzw   0.34691
gfz2013uzmf   0.67044
gfz2013vdam   0.26299
gfz2013veoz   0.29356
gfz2013veug  -0.08079
gfz2013vjrr  -0.32840
gfz2013vldx   0.81925
gfz2013vmrv   0.15607
gfz2013vmsg  -1.55780
gfz2013vmsn   0.77162
gfz2013vnwa  -0.01400
gfz2013voai   0.65341
gfz2013vojy   0.02117
gfz2013vsdd   0.63598
gfz2013vvre  -0.01660
gfz2013vwkh   0.06927
gfz2013vzel  -0.20228
gfz2013wpns  -0.15509
gfz2013wyfl  -0.17486
gfz2013xahp  -0.51266
gfz2013xjmo  -0.05851
gfz2013xlic  -1.26440
gfz2013xmzw  -0.14757
gfz2013xodn   0.47533
gfz2013xofz   0.53026
gfz2013xuxr   0.27388
gfz2013xvps   0.21298
gfz2013xzxe   1.58160
gfz2013yawe   0.12864
gfz2013yihv   1.29190
gfz2013yktj   1.10600
gfz2013ylxm  -1.04720
gfz2013ymhx   0.16195
gfz2013yodm   0.01266
gfz2013yqtu  -0.49276
gfz2013ytfm   0.55771
gfz2013yvpn   0.52379
gfz2013yywh   0.78514
gfz2013zedt   0.86371
gfz2013zfbz   0.29802
gfz2013zkta   0.37207
gfz2013zlak   0.22032
gfz2013zpse   1.30360
gfz2013zpwk   0.38954
gfz2014aaae   0.34513
gfz2014aedl   1.77500
gfz2014afbt  -0.18321
gfz2014ajgi   0.24394
gfz2014aluc  -0.03820
gfz2014aqop   1.11620
gfz2014avmd   1.36190
gfz2014avzp   0.10032
gfz2014ayxf  -0.47873
gfz2014bdju   0.75378
gfz2014befl  -0.39536
gfz2014bkra   0.55138
gfz2014bmqw   1.56390
gfz2014bnea   0.40350
gfz2014bqpm   0.58609
gfz2014bumr   0.93552
gfz2014bycg  -0.34426
gfz2014bztn   3.52810
gfz2014bzus   0.17650
gfz2014cgxj   1.18440
gfz2014cjao   0.78954
gfz2014club   0.61689
gfz2014cncl   0.34705
gfz2014cokw   0.99352
gfz2014cwcj   0.37325
gfz2014dbmu   1.19190
gfz2014dggw   1.07100
gfz2014dihl   0.83034
gfz2014diuu   0.94975
gfz2014dmrw   0.58958
gfz2014dpps  -0.02531
gfz2014dtto   3.08020
gfz2014dudd   1.47710
gfz2014dutu   0.67007
gfz2014dwcp   0.33828
gfz2014dykt   1.34420
gfz2014ecor   0.24086
gfz2014eglj   1.46450
gfz2014egvg   1.37170
gfz2014eirs   0.63925
gfz2014eoay   0.21081
gfz2014epfm   0.48554
gfz2014epnq  -0.13706
gfz2014epue   1.00700
gfz2014esez   0.98855
gfz2014etqu   0.39732
gfz2014evyu   0.18107
gfz2014exxj   1.00030
gfz2014eysf   1.50180
gfz2014ezjq   0.87976
gfz2014ezld   0.73107
gfz2014faex  -0.03045
gfz2014fbef  -0.08770
gfz2014fbli   0.74932
gfz2014fdhk   0.43915
gfz2014ffqg   1.25450
gfz2014fgbn   3.06490
gfz2014flxk   0.28930
gfz2014fmdc   1.19900
gfz2014fsir  -0.11059
gfz2014fsje   0.51486
gfz2014fskh   0.65350
gfz2014fxtv  -0.28601
gfz2014fxuy  -0.41474
gfz2014gbxg   1.32500
gfz2014gnbw   0.33372
gfz2014gnvp   0.19096
gfz2014gqxg  -0.09855
gfz2014grwv  -0.57330
gfz2014gsfc  -0.16515
gfz2014gssz   0.44500
gfz2014gypw   0.21833
gfz2014hapg   0.76444
gfz2014hgjb   1.37570
gfz2014hhis   0.95228
gfz2014hqhv  -0.34798
gfz2014huqh   0.05609
gfz2014hyea  -0.34453
gfz2014hzzf   0.13036
gfz2014iaqm   1.47690
gfz2014ijsa   0.10527
gfz2014inrg   1.11380
gfz2014ipfu   0.73566
gfz2014irly  -0.20724
gfz2014isjg   0.91077
gfz2014isov   0.59899
gfz2014itlx   0.85964
gfz2014iusw   0.58716
gfz2014jayh  -0.05219
gfz2014jbgm   0.35464
gfz2014jffe   0.80786
