# Nsamples: 174  MAD:  0.567  mean: -1.895  std:  0.742
gfz2010crgy  -2.37220
gfz2010dask  -1.87290
gfz2010ddan  -1.74070
gfz2010djib  -1.66090
gfz2010hxan  -2.26390
gfz2010jgwj  -1.89340
gfz2010jvsi  -1.42920
gfz2010kcyz  -2.49890
gfz2010mdti  -1.58380
gfz2010mjdl  -0.85745
gfz2010mqzz  -2.89350
gfz2010yczp  -2.19640
gfz2011tqgg  -0.45370
gfz2011tsgl  -1.17540
gfz2011ugbt  -2.25610
gfz2011uowi  -2.26950
gfz2011uqry  -1.05670
gfz2011urwz  -1.51530
gfz2011vahy  -1.69860
gfz2011vcyx  -1.01980
gfz2011vimn  -2.90160
gfz2011vtzv  -1.74870
gfz2011wbtc  -2.33820
gfz2011wwze  -2.40720
gfz2012qllj  -2.03890
gfz2012qmhz   2.45650
gfz2012qpoc  -2.96910
gfz2012rzwp  -0.38189
gfz2012syum  -1.73550
gfz2012twec  -2.40470
gfz2012uhtc  -2.47230
gfz2012uvoa  -1.53830
gfz2012uzww  -2.90940
gfz2012vgot  -1.11090
gfz2012vitw  -2.43020
gfz2012vurc  -2.35880
gfz2012xcsf  -2.87390
gfz2012xlfo  -3.30190
gfz2012xncm  -2.55020
gfz2012xrmq  -2.39910
gfz2012xtvu  -2.53660
gfz2012xxdj  -2.55240
gfz2012ylai  -2.16000
gfz2012zhyz  -1.93330
gfz2013aggr  -3.44490
gfz2013bwgw  -1.92300
gfz2013cinv  -2.64940
gfz2013cyvx  -1.39290
gfz2013dftb  -2.19190
gfz2013dnot  -0.88746
gfz2013eidd  -1.94800
gfz2013fhzy  -2.14820
gfz2013fybd  -1.99270
gfz2013gomv  -2.34080
gfz2013havw  -1.69700
gfz2013hbmi  -2.36460
gfz2013hdbp  -2.42800
gfz2013hqaa  -2.43540
gfz2013hwps  -2.16050
gfz2013icql  -1.75700
gfz2013irme  -2.25580
gfz2013iuyv  -1.67870
gfz2013jfcn  -2.19600
gfz2013jhog  -2.22840
gfz2013jlli  -1.39770
gfz2013jobl  -2.21700
gfz2013jrqf  -0.64771
gfz2013jzcf  -0.84549
gfz2013kats  -1.84320
gfz2013kbbg  -1.55810
gfz2013kbbn  -1.90410
gfz2013kcdb  -1.17240
gfz2013kqab  -0.61824
gfz2013kruh  -1.04690
gfz2013kslp  -2.29700
gfz2013kxlr  -2.00930
gfz2013kxof  -1.13480
gfz2013lbod  -2.57550
gfz2013lbvl  -1.92810
gfz2013lcrk  -2.05170
gfz2013ljdu  -2.37250
gfz2013ljwt  -2.02000
gfz2013lnts  -1.65870
gfz2013lqjj  -1.90370
gfz2013lwtr  -0.49932
gfz2013lxed  -2.51100
gfz2013lxnd  -1.40680
gfz2013mimp  -2.67780
gfz2013mzaw  -2.26180
gfz2013nkgd  -1.34660
gfz2013noqf  -0.83745
gfz2013ntfc  -2.01010
gfz2013ntiu  -2.89550
gfz2013oeni  -1.81440
gfz2013ohnj  -2.79260
gfz2013oizq  -3.68110
gfz2013ojza  -1.68210
gfz2013okac  -2.21880
gfz2013okxa  -1.82600
gfz2013onvl  -1.94760
gfz2013ortl  -1.42620
gfz2013oruq  -1.90000
gfz2013otuj  -1.51550
gfz2013oywh  -1.73300
gfz2013phhi  -2.27010
gfz2013pkmz  -1.54160
gfz2013pqkp  -1.25410
gfz2013qnqr  -1.36040
gfz2013qogb  -0.52932
gfz2013quwz  -2.44400
gfz2013quyn  -2.71440
gfz2013qwnm  -1.71370
gfz2013qxof  -2.75240
gfz2013rocs  -2.19780
gfz2013rwkj  -1.76140
gfz2013ryph  -1.94630
gfz2013sdkg  -2.64130
gfz2013skvq  -1.25530
gfz2013syqp  -1.31070
gfz2013tdsx  -2.05940
gfz2013tgyb  -1.16540
gfz2013tmnf  -1.42120
gfz2013udtw  -2.22960
gfz2013ujze  -2.10610
gfz2013unuv  -1.78260
gfz2013utqa  -0.98860
gfz2013vdam  -2.30630
gfz2013veoz  -1.65620
gfz2013veug  -2.74860
gfz2013vjrr  -2.39680
gfz2013vmrv  -2.84600
gfz2013wyfl  -1.45910
gfz2013xahp  -2.14880
gfz2013xmzw  -2.36120
gfz2013xswc  -1.64590
gfz2013xvps  -1.72160
gfz2013yodm  -2.59690
gfz2013yqtu  -1.84510
gfz2014aedl  -1.36110
gfz2014amgk   0.54156
gfz2014ayxf  -2.38870
gfz2014bdju  -1.82670
gfz2014befl  -2.45550
gfz2014bkra   0.70174
gfz2014bppg  -0.95121
gfz2014bqpm  -2.36910
gfz2014byes  -1.53700
gfz2014cjao  -2.12900
gfz2014dmrw  -2.27530
gfz2014dtth  -1.63880
gfz2014eirs  -2.09890
gfz2014eoay  -2.20170
gfz2014epnq  -1.68790
gfz2014epue  -1.69550
gfz2014esez  -2.30980
gfz2014exxj  -2.19590
gfz2014fbef  -2.90970
gfz2014fbli  -2.17420
gfz2014fjfz  -1.64340
gfz2014fsir  -2.22760
gfz2014fwxt  -2.17350
gfz2014fxte  -2.24780
gfz2014fxtv  -2.75540
gfz2014gnvp  -2.02590
gfz2014gssz  -2.20910
gfz2014gypw  -1.66610
gfz2014hzzf  -1.97600
gfz2014icov  -1.96620
gfz2014irlf  -1.51790
gfz2014irln  -2.01880
gfz2014irly  -1.59740
gfz2014iusw  -2.84930
gfz2014jarg  -1.70900
gfz2014jfmc  -0.37834
