# Nsamples: 173  MAD:  0.641  mean: -0.281  std:  0.824
gfz2010aggj  -0.45297
gfz2010aimm  -0.43612
gfz2010clbw  -0.77056
gfz2010cllh  -1.03400
gfz2010crgy  -0.85309
gfz2010dask  -0.86282
gfz2010habf  -0.33129
gfz2010hueh  -1.00340
gfz2010jgwj   0.05522
gfz2010jlvp   0.35482
gfz2010mqzz  -1.08930
gfz2010pgpo  -0.20127
gfz2010pzza  -0.52872
gfz2010qdqk  -0.07377
gfz2010rkuu  -0.04550
gfz2010rljv   1.42710
gfz2010scht  -0.23129
gfz2010sdfs   0.92465
gfz2010ugws   1.57430
gfz2010uhjy  -0.12139
gfz2010xpzq   0.64560
gfz2010yfdr   0.18331
gfz2010yhdn   0.12812
gfz2010zjun  -0.54204
gfz2011ahvh   0.05061
gfz2011bcvc   1.27410
gfz2011cdge   1.18240
gfz2011dabj   0.16698
gfz2011dpyu  -1.05210
gfz2011ffdh  -0.08485
gfz2011ggnl  -0.37810
gfz2011gnbk  -0.24376
gfz2011gpyr  -0.24877
gfz2011hjof   0.08901
gfz2011hmnw   0.73160
gfz2011hqjs  -0.88880
gfz2011hyct   0.11758
gfz2011kjzt  -0.65970
gfz2011lmug   0.13138
gfz2011mjje  -0.82378
gfz2011ndhh  -0.61016
gfz2011nfcz   0.52134
gfz2011nfgt  -1.68160
gfz2011nhby  -0.14685
gfz2011nijp  -1.21720
gfz2011nilw   1.01330
gfz2011niuw  -0.10011
gfz2011nkou   1.70450
gfz2011nlmf  -0.18239
gfz2011nlnl  -1.97400
gfz2011nlum  -0.02565
gfz2011nnda   1.01000
gfz2011ofpj  -0.11279
gfz2011ohgj  -1.46290
gfz2011oslk  -0.35939
gfz2011owqa  -0.56680
gfz2011pfls  -0.35539
gfz2011pmuv  -0.62153
gfz2011prrq  -0.35204
gfz2011pwbw  -0.47494
gfz2011qgea   1.65000
gfz2011qhjw  -0.67568
gfz2011rkau   0.59174
gfz2011rnny  -1.10890
gfz2011rnsp  -0.40857
gfz2011sdax   0.19808
gfz2011sskq  -0.23495
gfz2011sxno   1.16660
gfz2011tsgl  -0.55373
gfz2011uowi  -1.14860
gfz2011uqry  -0.78069
gfz2011uvsi  -2.29060
gfz2011vahy  -0.34911
gfz2011zghc   0.28299
gfz2012amvs   0.40859
gfz2012bqcf  -0.70578
gfz2012cdju   0.15847
gfz2012cvfr   0.42676
gfz2012dyck  -0.25851
gfz2012iijk  -0.18039
gfz2012kmbo  -0.36621
gfz2012kmmz   0.48665
gfz2012ldjj   0.23891
gfz2012mdzf  -0.09780
gfz2012mmiw  -0.65244
gfz2012mpzo   1.00830
gfz2012nqvd   0.13107
gfz2012oafg  -0.22149
gfz2012oehy   0.08206
gfz2012ohgd   0.29803
gfz2012phns   0.15190
gfz2012ppcq  -0.39901
gfz2012pumy  -0.08371
gfz2012qpoc  -0.23483
gfz2012rugl  -1.39200
gfz2012smyn   0.33181
gfz2012socz  -0.11390
gfz2012swbz  -1.18870
gfz2012uhsx  -0.48296
gfz2012uhtc   0.16356
gfz2012uvoa  -0.99538
gfz2012uzww   0.00091
gfz2012vgot  -0.80008
gfz2012xlfo   0.17359
gfz2013byyy  -1.08500
gfz2013cyvx   0.39317
gfz2013dftb  -2.37780
gfz2013fndg  -0.44308
gfz2013fnpa   0.22287
gfz2013fvyr   0.17134
gfz2013hqaa   0.04551
gfz2013icql  -0.43449
gfz2013iuyv  -0.63393
gfz2013jfcn  -0.22375
gfz2013jobl  -0.52023
gfz2013kats   0.69227
gfz2013kbbg   0.40417
gfz2013kbbn   0.79939
gfz2013kcdb   0.09064
gfz2013kpcb  -1.57100
gfz2013kpes   1.23630
gfz2013kqab  -0.17138
gfz2013kruh  -0.15867
gfz2013kslp  -1.07110
gfz2013lbvl  -1.58680
gfz2013lqjj  -0.00000
gfz2013mdxj  -0.00672
gfz2013mzaw   0.21888
gfz2013ntfc   0.57752
gfz2013oeni  -0.18718
gfz2013oizq   0.27543
gfz2013okac  -0.62750
gfz2013olos  -1.64590
gfz2013oruq   0.05092
gfz2013otuj   0.17019
gfz2013phhi  -0.70709
gfz2013pkmz  -0.07960
gfz2013qigb  -0.86889
gfz2013quwz  -1.79000
gfz2013quyn  -3.78970
gfz2013qxof   0.51492
gfz2013rdmn  -1.14490
gfz2013rfik   0.02053
gfz2013rocs  -0.38754
gfz2013swnj   1.36090
gfz2013tkcg  -0.73077
gfz2013upqj  -1.88700
gfz2013utqa  -0.44966
gfz2013uwjo   0.59320
gfz2013uxzw   0.00000
gfz2013uzmf  -1.58750
gfz2013veug   0.53006
gfz2013vnwa  -1.34150
gfz2013wyfl   0.25119
gfz2013xahp   0.32806
gfz2013yqtu   0.23815
gfz2013yvnj  -0.40335
gfz2014bnea  -1.54090
gfz2014bppg  -1.68780
gfz2014edmd  -2.48900
gfz2014fsir   0.11107
gfz2014fxte  -0.71696
gfz2014gnbw  -0.08684
gfz2014icov  -0.96403
gfz2014igrp  -0.02278
gfz2014iltl  -0.54712
gfz2014irlf  -1.02640
gfz2014irln  -0.24977
gfz2014irly  -1.04870
gfz2014isjg  -0.68153
gfz2014iusw  -1.51360
gfz2014jarg   0.17761
gfz2014jayh   0.05147
