# Nsamples: 887  MAD:  0.509  mean: -0.465  std:  0.781
gfz2010clbw  -0.47788
gfz2010cllh  -0.62084
gfz2010cngg  -0.11865
gfz2010cnhd   0.31264
gfz2010cnyi  -0.06797
gfz2010cphq   0.23129
gfz2010cpig  -2.03440
gfz2010crgy  -0.42936
gfz2010crir  -1.03640
gfz2010csle  -0.82154
gfz2010csmw  -0.24760
gfz2010csqy   0.02185
gfz2010cthm   2.49410
gfz2010cvkn   0.08560
gfz2010cyid   0.83014
gfz2010dask  -0.63814
gfz2010depd   0.58347
gfz2010diid   0.63168
gfz2010djib  -0.66189
gfz2010dmij   0.31089
gfz2010dmkd  -1.19740
gfz2010dpgt   4.51150
gfz2010drit  -0.14447
gfz2010drml   0.61224
gfz2010drmq   0.61224
gfz2010drpv  -0.90923
gfz2010drun  -0.62376
gfz2010dwgy  -0.70537
gfz2010dxhq  -1.22820
gfz2010ekvl   0.26299
gfz2010ethu  -0.72038
gfz2010faly  -0.75196
gfz2010fgbo  -0.55899
gfz2010fjio  -0.77446
gfz2010fjme  -0.97349
gfz2010fkff  -0.32172
gfz2010fnkr  -1.13860
gfz2010fpvw  -1.65770
gfz2010fqnn  -0.02228
gfz2010ftfq   0.60983
gfz2010fvfz   0.55199
gfz2010fxhh  -0.59901
gfz2010gcqp  -0.01838
gfz2010gcrn  -1.54400
gfz2010gooc  -0.27707
gfz2010inbs  -0.28682
gfz2010ioad  -0.80135
gfz2010izag  -0.24841
gfz2010jcby  -0.44844
gfz2010jdhk  -0.51836
gfz2010jgwj  -0.02052
gfz2010kcyz  -0.64546
gfz2010kuzb  -0.04094
gfz2010kwks  -0.14788
gfz2010lswe  -0.32822
gfz2010mdti  -0.68077
gfz2010mqzz  -0.58338
gfz2010myqg  -0.23034
gfz2010ncwu  -0.44431
gfz2010ngge  -0.56166
gfz2010nlai   4.56770
gfz2010novb  -0.19868
gfz2010nteg  -1.37000
gfz2010nwbd  -0.99924
gfz2010nwyk  -0.79450
gfz2010ocug   1.12140
gfz2010oguu  -0.28763
gfz2010oibn  -1.19740
gfz2010onxm   0.61102
gfz2010ouvm   0.87814
gfz2010ovvg   0.09450
gfz2010pclq  -0.55626
gfz2010pcya  -0.97762
gfz2010pdip   5.02900
gfz2010pgpo  -0.89251
gfz2010pngv  -0.49805
gfz2010pvnn  -0.24277
gfz2010pxoi  -1.18110
gfz2010pzza  -1.06460
gfz2010qbcy  -0.45307
gfz2010qdqk  -1.06350
gfz2010qrix  -0.84026
gfz2010qrta  -0.03335
gfz2010qykh   0.05957
gfz2010qylh  -0.90907
gfz2010qzvf  -0.22848
gfz2010rdip  -1.58400
gfz2010rhvu  -0.71967
gfz2010rkuu  -0.97794
gfz2010rljv  -0.41536
gfz2010rnqa  -0.48079
gfz2010rnwt  -2.19640
gfz2010rpbz  -0.97881
gfz2010rpjd  -0.70705
gfz2010schp  -0.52890
gfz2010scht  -0.53203
gfz2010sdfs  -0.39511
gfz2010shvn  -0.05892
gfz2010swqy  -0.84825
gfz2010sylk  -0.86185
gfz2010syqh   0.38718
gfz2010szxo  -0.50055
gfz2010tcgh  -0.80427
gfz2010tfar   0.36568
gfz2010tgmo  -0.96216
gfz2010tmba  -0.76784
gfz2010tmne  -0.86488
gfz2010tpcj   0.81449
gfz2010tzki  -1.22390
gfz2010tzlz  -0.71481
gfz2010tzma  -1.25290
gfz2010ugws  -0.78409
gfz2010uhjy  -0.71079
gfz2010umxj  -0.98053
gfz2010umyp   0.02112
gfz2010uogw  -1.31490
gfz2010uraq  -0.28098
gfz2010utsc  -0.64445
gfz2010uvpz   0.36661
gfz2010uyng  -0.16610
gfz2010vfyu  -0.30031
gfz2010vhzx  -0.55896
gfz2010vkca   0.19301
gfz2010vong  -0.91010
gfz2010vybx  -0.66654
gfz2010wakc  -1.28770
gfz2010wwnq   0.73559
gfz2010xamh  -0.56707
gfz2010xaxw  -0.91108
gfz2010xpzq  -0.51865
gfz2010xytc   0.10262
gfz2010yczp  -1.08270
gfz2010yfdr  -0.85618
gfz2010yhhj  -1.69650
gfz2010yilf  -0.59443
gfz2010ymih  -1.15530
gfz2010yrex   1.26070
gfz2010ytzb  -0.61229
gfz2010zhvj  -1.60230
gfz2010zjun  -0.94590
gfz2011afyc  -0.87010
gfz2011ahvh  -0.84015
gfz2011aqpp  -0.98065
gfz2011bffb  -0.13970
gfz2011biin  -0.71402
gfz2011bpqm  -0.92074
gfz2011bqbx  -0.46206
gfz2011bsvr  -1.92400
gfz2011bygs  -0.31929
gfz2011bygu  -0.41464
gfz2011bzio  -0.55196
gfz2011cdge  -1.30280
gfz2011cfyy  -0.33237
gfz2011chsa  -1.08000
gfz2011cjcv   0.04149
gfz2011cjuz  -0.91302
gfz2011cwsm  -1.08650
gfz2011cxdj  -0.92832
gfz2011dabj  -0.67490
gfz2011dhfg  -0.41558
gfz2011dhqk  -0.48617
gfz2011dpyu  -0.62660
gfz2011duvm  -0.79756
gfz2011dwae  -0.54865
gfz2011edrq  -0.49728
gfz2011emzr  -0.09002
gfz2011etkc  -0.30261
gfz2011fnie  -0.98505
gfz2011fnuk  -0.87100
gfz2011fszl  -0.80412
gfz2011fxmf   0.73851
gfz2011fyfu  -0.08951
gfz2011fzcw  -0.14729
gfz2011gaax  -0.53796
gfz2011gdrl   0.13826
gfz2011gfer  -0.90710
gfz2011ggnl  -1.19360
gfz2011glpg  -0.53308
gfz2011gnbk  -0.55808
gfz2011gpyr  -0.77441
gfz2011haaa  -0.66137
gfz2011hatg  -0.74009
gfz2011hbqc  -1.72980
gfz2011hffq  -0.27839
gfz2011hibi   0.73605
gfz2011hjof  -0.60927
gfz2011hmnw  -0.71285
gfz2011hqjs  -0.74472
gfz2011hvzo  -0.89968
gfz2011hyct  -0.44805
gfz2011hyuh   0.02197
gfz2011iamf  -0.64015
gfz2011ibew  -0.96981
gfz2011ifta  -0.52545
gfz2011ioch  -1.33360
gfz2011iryz  -0.28890
gfz2011ituo  -1.57890
gfz2011jphj  -0.41265
gfz2011jpob  -0.39066
gfz2011jryv  -1.27600
gfz2011jtij  -0.09797
gfz2011kfch   0.17891
gfz2011kgvq  -1.12960
gfz2011lmug  -0.46637
gfz2011mdyq  -0.66911
gfz2011mjje  -0.95659
gfz2011mllb  -0.94327
gfz2011mntq  -0.80860
gfz2011mror  -2.28300
gfz2011mrpy  -0.31948
gfz2011ndhh  -1.50520
gfz2011ndlh  -2.80790
gfz2011ndse   0.05052
gfz2011nejw  -1.16430
gfz2011nerb  -1.28550
gfz2011nfcz  -0.06834
gfz2011nfln  -1.64930
gfz2011nftw  -1.47230
gfz2011nhby  -0.32053
gfz2011nhjv   4.06780
gfz2011nhvt   0.31000
gfz2011nhwf  -0.96280
gfz2011nijp  -1.05370
gfz2011nilw  -1.30970
gfz2011nimp  -1.76710
gfz2011nioi  -2.33690
gfz2011nisj  -0.82206
gfz2011niuw  -0.26339
gfz2011nlmf  -0.50492
gfz2011nlnl   1.37480
gfz2011nnda   0.84419
gfz2011npaf  -1.55450
gfz2011nsiy  -1.10600
gfz2011nsrx  -0.78060
gfz2011ntyd  -0.96763
gfz2011nuqo  -0.96745
gfz2011nvty  -0.00000
gfz2011nyzk  -1.93820
gfz2011oadm  -0.98687
gfz2011oazk  -0.69940
gfz2011ocif  -0.66939
gfz2011oekz  -0.45413
gfz2011oesd  -0.69749
gfz2011ofpj  -1.13170
gfz2011ohgj  -1.40020
gfz2011okza  -1.29670
gfz2011omxt  -0.88192
gfz2011oosp  -0.69524
gfz2011oqjl  -1.08100
gfz2011oslk  -0.23501
gfz2011osmp  -0.76476
gfz2011osuy  -0.76249
gfz2011owqa   0.66615
gfz2011paqj  -0.15004
gfz2011pbjh   0.21895
gfz2011pdsn  -1.00500
gfz2011pfls  -0.59635
gfz2011pgzk  -0.38705
gfz2011pimj  -0.46221
gfz2011pivq  -0.62565
gfz2011plzc  -2.56010
gfz2011pmuv  -0.01010
gfz2011poug  -0.31743
gfz2011pphc  -1.12180
gfz2011ppsc  -0.86272
gfz2011prrq  -0.25887
gfz2011ptgd  -0.02225
gfz2011pulu  -0.99877
gfz2011pwbw  -1.10010
gfz2011pwld  -0.70131
gfz2011qenl  -0.84359
gfz2011qgea  -1.49680
gfz2011qgvh  -0.59326
gfz2011qhjw  -0.75902
gfz2011qlkj   0.23173
gfz2011qtoy   4.02140
gfz2011qukj  -1.17800
gfz2011rbuo  -0.58653
gfz2011rczb  -0.32748
gfz2011rkau  -0.44965
gfz2011rkzx  -0.82852
gfz2011rnsp   0.24361
gfz2011scma  -0.08196
gfz2011sdax  -1.07510
gfz2011sdpl  -0.12864
gfz2011sfph  -0.40822
gfz2011sqco  -0.27332
gfz2011sqxp  -0.60181
gfz2011sskq  -2.07310
gfz2011stzi  -0.26389
gfz2011sxno  -0.47554
gfz2011syvj   0.36480
gfz2011syzr   0.21721
gfz2011taqr   0.35890
gfz2011tarj   1.54730
gfz2011tdjj   0.08413
gfz2011tlwl   0.78898
gfz2011tozo  -0.91458
gfz2011tqgg   0.05922
gfz2011tsgl  -0.23175
gfz2011tssv  -0.64022
gfz2011tvuv  -0.79979
gfz2011txxs  -0.86512
gfz2011udjs  -0.32904
gfz2011ugbt  -1.26470
gfz2011unud  -2.61870
gfz2011uowi  -0.14247
gfz2011uqlz  -0.76042
gfz2011uqry  -1.15230
gfz2011urwz  -1.58440
gfz2011vahy  -0.31190
gfz2011vcyx  -1.37900
gfz2011vimn  -0.19244
gfz2011vsag  -1.26910
gfz2011vtdl   1.00650
gfz2011vtzv  -0.46951
gfz2011wbtc  -0.44100
gfz2011wcvs  -0.90037
gfz2011wkja  -0.34457
gfz2011wkyx  -0.08391
gfz2011wngi  -0.49951
gfz2011wnjg  -0.28481
gfz2011wpzt  -0.61579
gfz2011wqup  -0.56315
gfz2011wtfn  -0.65896
gfz2011wucg  -0.41965
gfz2011wwze  -0.23749
gfz2011wzss  -0.21335
gfz2011xagc  -0.50227
gfz2011xawm  -0.27214
gfz2011xdox   0.76234
gfz2011xgbc  -0.45970
gfz2011xgwy  -0.16106
gfz2011xlod  -0.28731
gfz2011xnui  -0.43407
gfz2011xxng  -0.22197
gfz2011yexx  -0.65073
gfz2011ymji   0.66837
gfz2011ypfh   0.37783
gfz2011yrfa  -0.86025
gfz2011ytob  -0.80253
gfz2011ytwk   0.77800
gfz2011ywtj  -1.32800
gfz2011zcwn   0.19937
gfz2011zghc   0.27835
gfz2011zkbt  -0.85400
gfz2012adja   0.28039
gfz2012ahac  -0.68734
gfz2012ahkl   1.22320
gfz2012alti  -0.56814
gfz2012amjx  -0.86180
gfz2012amvs  -0.32864
gfz2012aqpa   0.14012
gfz2012auqr   1.07020
gfz2012axrp  -0.02236
gfz2012azel  -0.08460
gfz2012bcvn  -0.08798
gfz2012bity  -0.36991
gfz2012bjhl  -1.06450
gfz2012bolx  -0.38670
gfz2012bovy  -0.27388
gfz2012bqcf  -0.36291
gfz2012byrq  -0.10507
gfz2012bytv  -1.79330
gfz2012byuk  -0.50473
gfz2012cdju  -0.32096
gfz2012cfdw  -0.11365
gfz2012cksh  -0.57354
gfz2012cmww  -0.32423
gfz2012cntu  -0.47982
gfz2012crpb  -0.39731
gfz2012cvfr  -0.49864
gfz2012dbgt  -0.72880
gfz2012dcjd  -0.16811
gfz2012dejg  -0.65638
gfz2012dgfk   0.02197
gfz2012dleg   0.93398
gfz2012dnig  -0.38863
gfz2012dpnu  -0.02215
gfz2012dpwv  -0.74756
gfz2012dtdt  -0.74010
gfz2012dtlu   0.08483
gfz2012dttl  -0.35012
gfz2012dwwu  -0.49299
gfz2012dyck  -0.25662
gfz2012dzot  -0.39653
gfz2012eajr   1.34010
gfz2012ebff  -0.58212
gfz2012ebrr  -0.83913
gfz2012eeft  -0.20809
gfz2012ekfp  -0.49908
gfz2012ekro   0.43763
gfz2012elek  -0.72251
gfz2012emin   0.31748
gfz2012enrg   0.36295
gfz2012erds  -0.65103
gfz2012evxn  -1.03930
gfz2012eyti  -0.69482
gfz2012fcyq  -0.89215
gfz2012fcyr  -0.87263
gfz2012flqf  -0.60917
gfz2012foih   0.62255
gfz2012ftcq  -1.01810
gfz2012ftks  -1.15380
gfz2012fuyd   0.49239
gfz2012fyny  -0.54446
gfz2012fyop  -0.85981
gfz2012gbrs   5.76880
gfz2012gczh  -0.69330
gfz2012gdye  -0.58809
gfz2012ghiv  -0.69299
gfz2012gjdg  -0.81196
gfz2012gjtd  -0.45979
gfz2012gmsr  -0.07177
gfz2012gnow  -0.45920
gfz2012gpcd  -0.80352
gfz2012gubu  -1.36510
gfz2012gvxc  -1.00310
gfz2012hdny  -0.09634
gfz2012heih  -0.57010
gfz2012hhlx  -1.04640
gfz2012hkxs  -0.80094
gfz2012hmcv  -0.83966
gfz2012hnyy   1.75210
gfz2012hqlo  -0.37443
gfz2012hvfw  -0.39210
gfz2012hvtu  -0.52238
gfz2012hyba  -0.02201
gfz2012hzur  -0.54785
gfz2012iblo  -1.86330
gfz2012ibyd  -0.05754
gfz2012icjo   1.05430
gfz2012iijk  -0.72398
gfz2012ikke  -1.78560
gfz2012iotw  -1.33850
gfz2012ipdc  -0.58331
gfz2012iphs  -0.89930
gfz2012iroy   0.48718
gfz2012ivyg  -1.77120
gfz2012iyoi   1.39450
gfz2012izke  -0.85648
gfz2012jihg  -1.66490
gfz2012jjxm  -1.25680
gfz2012jlez  -0.74897
gfz2012jodg  -2.24960
gfz2012jopi   0.52827
gfz2012kadi  -0.50368
gfz2012kjzx  -1.03210
gfz2012klpl  -0.38518
gfz2012kmbo  -0.97966
gfz2012kmmz  -0.69866
gfz2012kqjb   0.23048
gfz2012krcm  -0.11845
gfz2012kstg  -0.48160
gfz2012kwmx  -0.10609
gfz2012ldjj  -0.68574
gfz2012luzm  -1.41040
gfz2012lvlr  -0.97917
gfz2012lvwx  -3.44740
gfz2012lwha  -0.82972
gfz2012lyyr  -0.89118
gfz2012mdzf  -0.92336
gfz2012mjuu  -1.53200
gfz2012mmiw  -0.48793
gfz2012mowv  -0.26986
gfz2012mpzo   0.09019
gfz2012mrqk  -1.62360
gfz2012mrwu  -0.60901
gfz2012mtyn   0.05420
gfz2012mwhe   0.64027
gfz2012mzqx  -0.24684
gfz2012ndwt  -0.23871
gfz2012nsxc   0.66046
gfz2012oafg  -0.68658
gfz2012oehy  -0.62339
gfz2012ofnx  -0.15525
gfz2012oieq   0.37747
gfz2012ojfv   0.26866
gfz2012ojmv   1.66720
gfz2012onhu  -0.67868
gfz2012oork   1.28290
gfz2012oozp  -1.22290
gfz2012pdav  -0.82489
gfz2012pdfi  -0.32232
gfz2012pgmw  -0.04556
gfz2012phns  -0.77606
gfz2012pira   0.17149
gfz2012pmuj  -1.09550
gfz2012pokk   0.02209
gfz2012ppcq  -0.70102
gfz2012pumy  -0.54133
gfz2012pvve  -0.49288
gfz2012pziw  -1.61900
gfz2012qbbt   0.33619
gfz2012qfah   0.55118
gfz2012qfov  -1.13150
gfz2012qllj  -0.81658
gfz2012qpoc  -1.18080
gfz2012qvwy   1.66230
gfz2012rnyn  -0.55334
gfz2012roan  -1.37030
gfz2012rzwp   0.13886
gfz2012sbix  -1.22490
gfz2012sfao   1.04930
gfz2012sgfd  -1.09410
gfz2012sjdy  -1.34060
gfz2012sjox   0.20953
gfz2012slfd  -1.26030
gfz2012smyn  -0.67918
gfz2012socz  -0.83175
gfz2012sopp   0.38995
gfz2012sqsc  -0.98728
gfz2012ssnb  -0.47181
gfz2012ssvn   0.31298
gfz2012stxx  -0.64413
gfz2012suqd  -0.59097
gfz2012svwz  -0.28173
gfz2012swbz  -0.72798
gfz2012sxbo  -0.76904
gfz2012sxpr  -1.55360
gfz2012sxzs  -0.44149
gfz2012syum  -1.60240
gfz2012taph  -0.24872
gfz2012tisj  -1.06620
gfz2012tjih  -1.09350
gfz2012touh  -0.84053
gfz2012tqjc  -1.47960
gfz2012trfq  -0.55765
gfz2012trss  -0.95822
gfz2012tsdz  -0.03767
gfz2012ttnf  -0.41951
gfz2012tvgw  -0.02260
gfz2012twec  -0.46025
gfz2012tyoz  -0.66241
gfz2012uegq  -1.40320
gfz2012uhsx  -0.70285
gfz2012uhtc  -0.50075
gfz2012ulei  -0.56582
gfz2012umob  -0.30695
gfz2012unxc  -0.52633
gfz2012urtu  -0.81543
gfz2012uvea   0.02117
gfz2012uvoa  -0.34986
gfz2012uzww  -0.72380
gfz2012vcqw  -0.66049
gfz2012vdra  -1.39420
gfz2012vdsl   0.55829
gfz2012vgot  -0.23694
gfz2012vitw  -0.41925
gfz2012vkjw   0.22800
gfz2012vlzv  -1.12050
gfz2012vqmq   0.35246
gfz2012vrqz  -0.23468
gfz2012vurc  -0.51951
gfz2012wgdv  -0.55971
gfz2012wgmg  -1.04820
gfz2012wgmp   1.35620
gfz2012wjpf  -0.78403
gfz2012wkki  -0.08083
gfz2012wmmw  -0.37457
gfz2012wowu  -0.11371
gfz2012wpen  -0.71678
gfz2012wqfz   0.39459
gfz2012wugc  -0.99158
gfz2012wysg  -0.22876
gfz2012wzja  -2.02440
gfz2012xask  -0.14767
gfz2012xbna  -0.45844
gfz2012xcsf  -0.23460
gfz2012xfnu  -0.43312
gfz2012xfsl  -0.58421
gfz2012xkln  -0.67476
gfz2012xlas  -0.85994
gfz2012xmwt   0.23923
gfz2012xncm  -1.37870
gfz2012xrmq  -0.60917
gfz2012xtvu  -0.66376
gfz2012xxdj  -0.63456
gfz2012yegw  -0.43981
gfz2012ylai  -0.61325
gfz2012yncm   0.75694
gfz2012yvwc  -0.02244
gfz2012yygz  -1.04410
gfz2012yytb  -2.21460
gfz2012zhyz  -0.73279
gfz2012zido  -0.00000
gfz2012zkhu  -0.04825
gfz2012zmdf   0.17847
gfz2012zmfc  -1.43720
gfz2012zqis  -0.94471
gfz2013adih  -0.07305
gfz2013agbm  -0.64715
gfz2013aggr  -0.49028
gfz2013agmt  -0.69507
gfz2013ajxz  -0.38803
gfz2013akkd  -0.57941
gfz2013aymi  -1.09860
gfz2013bwgw  -0.33736
gfz2013byyy  -0.58483
gfz2013cinv  -0.17697
gfz2013cokc   0.00000
gfz2013cpjc   0.32069
gfz2013cqak  -0.83118
gfz2013cqee  -0.46640
gfz2013cvve  -1.08920
gfz2013cyvx  -0.48479
gfz2013dbhl  -0.91931
gfz2013ddrx  -0.33257
gfz2013delq  -1.10150
gfz2013dftb  -0.16404
gfz2013dfvx  -0.24460
gfz2013dngd  -0.71224
gfz2013dnot  -0.08609
gfz2013esef  -1.81000
gfz2013ewht  -0.63150
gfz2013eyyo   0.20295
gfz2013jfcn  -0.24831
gfz2013jhog  -0.29170
gfz2013jobl  -0.04770
gfz2013jrqf  -0.83642
gfz2013jzcf   0.50221
gfz2013kats  -0.30678
gfz2013kbbg  -0.88623
gfz2013kbbn  -1.19540
gfz2013kcdb  -0.72078
gfz2013kdfy   1.59860
gfz2013kjgh  -0.84611
gfz2013kpcb  -0.12611
gfz2013kpes  -0.71799
gfz2013kqab  -0.83590
gfz2013kslp  -0.51634
gfz2013kxlr  -0.27866
gfz2013kxof  -0.29791
gfz2013lbod  -0.73803
gfz2013lbvl  -0.33502
gfz2013lcrk  -0.75332
gfz2013lgvf  -0.55635
gfz2013ljdu   0.06758
gfz2013ljwt  -0.77701
gfz2013lnts  -1.28620
gfz2013lqjj  -0.11898
gfz2013lvxe  -0.54611
gfz2013lxed  -0.53685
gfz2013lxnd  -2.89080
gfz2013mdxj  -0.09987
gfz2013mimp  -0.44226
gfz2013mktp  -0.28942
gfz2013mvgq  -0.07914
gfz2013mynb  -0.55783
gfz2013mzaw  -0.33170
gfz2013njwj  -0.90082
gfz2013nkgd  -0.34070
gfz2013nkgt  -1.75530
gfz2013nnai  -0.68443
gfz2013noqf  -0.10603
gfz2013ntfc  -0.35623
gfz2013ntiu  -0.77903
gfz2013oeni  -0.12983
gfz2013ohdt  -0.40068
gfz2013ohnj  -0.37511
gfz2013oizq  -1.04610
gfz2013okac  -0.22592
gfz2013okxa   0.17444
gfz2013olos  -1.55330
gfz2013onvl  -0.87529
gfz2013orot   0.10274
gfz2013oruq  -0.06946
gfz2013osmj   2.01650
gfz2013otuj  -0.18880
gfz2013otxp   0.19188
gfz2013oywh   0.10400
gfz2013phhi  -0.80819
gfz2013phly  -0.58113
gfz2013pizm   0.10566
gfz2013pkmz  -1.12180
gfz2013pqkp  -1.33930
gfz2013pwsm  -0.61083
gfz2013qaov  -0.06657
gfz2013qapj   0.00000
gfz2013qdzg   0.58137
gfz2013qear  -1.82040
gfz2013qigb  -0.10702
gfz2013qmkt  -1.59370
gfz2013qnqr  -0.00309
gfz2013qntl  -0.89332
gfz2013qogb   0.42609
gfz2013rnsa  -0.19481
gfz2013rocs  -0.20760
gfz2013rtvy  -1.07430
gfz2013rwkj  -0.85532
gfz2013rwog   0.09722
gfz2013ryfc   0.35382
gfz2013ryph  -1.05440
gfz2013sdkg  -0.36823
gfz2013sdym  -1.24170
gfz2013skay  -0.11302
gfz2013skvq  -0.64502
gfz2013stou  -0.45922
gfz2013swnj  -0.77172
gfz2013syqp  -0.12499
gfz2013taeb  -0.63685
gfz2013tcju  -0.56731
gfz2013tdsx  -0.83536
gfz2013tekq  -0.33219
gfz2013tert  -1.68630
gfz2013tgia   0.09179
gfz2013tgyb  -0.76063
gfz2013tkcg  -0.58887
gfz2013tmnf  -0.61162
gfz2013tnrp  -0.24453
gfz2013trsq  -0.35853
gfz2013ttmk   0.39668
gfz2013uafv   0.14516
gfz2013ubgt   0.31434
gfz2013udtw  -0.10658
gfz2013uepl  -0.26973
gfz2013uhio  -0.32715
gfz2013ujze  -0.72549
gfz2013umay  -1.41130
gfz2013unuv  -0.36306
gfz2013upqj  -0.28129
gfz2013utqa  -0.81495
gfz2013uugc  -0.03506
gfz2013uwjo  -1.15060
gfz2013uxzw  -1.11210
gfz2013vcgd  -0.29594
gfz2013vdam  -0.34226
gfz2013veoz  -0.83207
gfz2013veug  -0.00000
gfz2013vfix  -0.14829
gfz2013vjrr  -0.72626
gfz2013vldx  -0.75266
gfz2013vmrv  -0.03738
gfz2013vmsg  -0.63033
gfz2013vnwa  -0.56845
gfz2013voai  -0.31862
gfz2013vojy  -0.59650
gfz2013vsdd  -0.44941
gfz2013vvre  -0.82622
gfz2013vwkh  -0.29585
gfz2013vxht  -0.63782
gfz2013vzel  -0.49171
gfz2013wgwz   0.24885
gfz2013wigs  -0.42508
gfz2013wpns  -0.27650
gfz2013wwee  -0.41071
gfz2013wyfl  -0.70065
gfz2013xahp  -0.54981
gfz2013xbdc   0.80316
gfz2013xddu  -0.22858
gfz2013xjmo  -1.89160
gfz2013xlic  -0.25206
gfz2013xmzw  -0.85766
gfz2013xodn  -0.49274
gfz2013xofz  -0.11316
gfz2013ykkf  -1.15600
gfz2013ykqw  -0.38619
gfz2013ylxm  -0.83471
gfz2013ylxn  -0.65488
gfz2013ymhx  -0.29997
gfz2013yodm  -0.65299
gfz2013yqkz   0.04487
gfz2013yqtu  -0.89916
gfz2013ytfm  -1.27280
gfz2013yvnj  -0.53614
gfz2014ajgi  -0.18244
gfz2014amgk   0.12740
gfz2014aqax   1.00250
gfz2014aqop  -0.62320
gfz2014avux   1.58480
gfz2014ayxf  -0.80923
gfz2014azfu  -0.23630
gfz2014bdju  -0.27421
gfz2014befl  -0.42661
gfz2014bgxe  -0.66752
gfz2014bgyv   1.12160
gfz2014bkra  -0.41040
gfz2014bqpm  -0.49654
gfz2014brkk   0.50282
gfz2014buyz  -1.03360
gfz2014bzus  -0.88773
gfz2014cgoi  -0.68618
gfz2014cjao  -0.32248
gfz2014ckqv   0.11951
gfz2014cokw  -0.23791
gfz2014crac   0.29052
gfz2014ctdl  -0.39961
gfz2014cvnb  -0.45877
gfz2014dbqi  -0.84010
gfz2014dece  -0.49616
gfz2014dggw  -0.42076
gfz2014dihl   0.67007
gfz2014diuu   0.15529
gfz2014djhi   0.30307
gfz2014djyj  -0.35367
gfz2014dmrw  -0.63874
gfz2014dpps  -0.48358
gfz2014dsqr  -0.48773
gfz2014dtth  -0.44303
gfz2014dudd  -0.89601
gfz2014dwcp  -0.28313
gfz2014dykt  -1.43270
gfz2014edjm  -0.45540
gfz2014edmd  -1.25840
gfz2014eflc  -0.24607
gfz2014eglj  -0.26008
gfz2014egvg  -0.20111
gfz2014eiav   0.34542
gfz2014eirs  -0.19968
gfz2014ejfx  -0.78947
gfz2014emlw  -0.16385
gfz2014eoay  -0.44630
gfz2014epnq  -0.73361
gfz2014esez  -0.10876
gfz2014etgp  -0.09036
gfz2014etqu   0.49461
gfz2014exxj  -0.46957
gfz2014ezjq  -1.03250
gfz2014ezld  -0.87642
gfz2014faex  -0.66240
gfz2014fbef  -0.16665
gfz2014fbli  -0.04242
gfz2014fbnr  -1.22550
gfz2014fhki  -1.53470
gfz2014fjfz   0.05674
gfz2014flxk  -0.81008
gfz2014fqas  -0.57992
gfz2014fsir  -0.36277
gfz2014fsje  -0.29575
gfz2014fskh  -0.37560
gfz2014fsvc  -1.46630
gfz2014fvza  -0.27774
gfz2014fwuf  -0.71350
gfz2014fwxt  -0.82802
gfz2014fxim  -0.96326
gfz2014fxte  -0.80142
gfz2014fxtv  -0.95288
gfz2014fxuy  -0.73688
gfz2014gbxg  -0.14049
gfz2014geln   0.35345
gfz2014ggie  -1.36180
gfz2014gnbw  -0.32561
gfz2014grwv  -0.02220
gfz2014gsfc  -0.41706
gfz2014gssz  -1.63370
gfz2014gtee  -0.59257
gfz2014gtoj  -0.83376
gfz2014gypw  -0.32941
gfz2014hapg  -0.21206
gfz2014happ  -1.05730
gfz2014herz  -0.58905
gfz2014hgjb  -0.24018
gfz2014hhey  -0.27081
gfz2014hhis  -0.34299
gfz2014hjmc  -0.59978
gfz2014hkcw  -0.83970
gfz2014hotu  -1.27460
gfz2014hqhv  -0.84309
gfz2014huah  -1.24430
gfz2014huqh  -0.62718
gfz2014hyea  -0.54378
gfz2014hzzf  -0.88086
gfz2014iayo  -0.86933
gfz2014icov  -1.15160
gfz2014igrp  -0.37437
gfz2014iltl   0.51634
gfz2014imqh  -0.98465
gfz2014ined   0.09352
gfz2014iolv   0.82441
gfz2014ipfu  -0.85676
gfz2014ipwk  -0.65108
gfz2014irlf  -0.04561
gfz2014irln  -0.97751
gfz2014irly  -0.47051
gfz2014isjg  -0.29185
gfz2014isov  -1.03290
gfz2014itlx   0.16158
gfz2014iusw  -0.32091
gfz2014ivgm   0.01855
gfz2014ixlc  -0.42518
gfz2014iyuc   0.03367
gfz2014jarg  -0.52529
gfz2014jaxy   0.62094
gfz2014jayh  -0.24542
gfz2014jbfp  -0.48009
gfz2014jckg  -1.09060
gfz2014jfmc  -3.43300
