# Nsamples: 56  MAD:  0.760  mean:  0.481  std:  0.639
gfz2013dngd  -0.23081
gfz2013enga   0.85227
gfz2013ffjt   0.19390
gfz2013fndg  -0.24217
gfz2013fnpa   1.10140
gfz2013fulo   1.35010
gfz2013fvyr   0.35979
gfz2013fybd   0.20886
gfz2013hdbp   1.19290
gfz2013icql   0.31941
gfz2013iuyv   0.93478
gfz2013iwzn   0.90699
gfz2013jfcn   0.12136
gfz2013jobl   1.24810
gfz2013kats   0.49582
gfz2013kbbg   0.44775
gfz2013kcdb   0.02273
gfz2013kqab   1.17910
gfz2013lbvl   0.46373
gfz2013mvgq  -0.18322
gfz2013mzaw   1.15220
gfz2013njwj  -0.16507
gfz2013oizq  -0.19886
gfz2013osmj   0.29862
gfz2013oywh   0.10937
gfz2013phhi   1.14370
gfz2013phly   0.94517
gfz2013pkmz   0.30441
gfz2013quwz   0.23762
gfz2013rdmn   0.29007
gfz2013upqj   0.19579
gfz2013urla  -0.24069
gfz2013vmrv  -0.56026
gfz2013vzel   1.54470
gfz2013wyfl   0.94458
gfz2013xahp   0.96726
gfz2013xswc   0.45056
gfz2013yawe   0.07595
gfz2013yqtu   1.78410
gfz2013zlak  -0.69586
gfz2014bqpm   0.78025
gfz2014dggw   1.15190
gfz2014epnq  -0.51041
gfz2014epue   2.22760
gfz2014etqu   0.73622
gfz2014fsir   0.50191
gfz2014fxte   0.54638
gfz2014gnbw   1.02050
gfz2014huqh  -0.52386
gfz2014hyea  -0.51976
gfz2014hzzf   1.06870
gfz2014icov   0.40590
gfz2014irln   0.39758
gfz2014irly   0.28967
gfz2014jarg   0.55604
gfz2014jayh  -0.54075
