# Nsamples: 64  MAD:  0.595  mean:  0.844  std:  1.219
gfz2013cqee   4.35460
gfz2013delq   0.46369
gfz2013dngd   0.96124
gfz2013dzvr   0.66859
gfz2013eidd   0.49534
gfz2013fnpa   1.59010
gfz2013fybd   1.12360
gfz2013havw  -1.47980
gfz2013hdbp   0.26833
gfz2013hduf   3.32610
gfz2013icql   0.58144
gfz2013iuyv   1.30970
gfz2013iwzn   1.44500
gfz2013jfcn   1.00550
gfz2013jhog   0.27954
gfz2013jobl   1.19440
gfz2013kats   0.60769
gfz2013kbbg   0.50743
gfz2013kcdb  -0.31526
gfz2013lbvl   0.76382
gfz2013lcrk  -3.36490
gfz2013mvgq   0.32140
gfz2013mzaw   1.15190
gfz2013oizq   0.70096
gfz2013onvl   1.71340
gfz2013oywh   1.06870
gfz2013phhi   1.32230
gfz2013qoak   0.16631
gfz2013quwz   0.98194
gfz2013qxof   0.27304
gfz2013rdmn  -0.57157
gfz2013ryph   1.40030
gfz2013taeb   1.34940
gfz2013tdsx   0.15318
gfz2013tert  -0.10837
gfz2013unuv   1.07530
gfz2013upqj   1.23390
gfz2013veoz   0.97567
gfz2013veug   0.93982
gfz2013vmrv   0.53483
gfz2013vmsg   1.37120
gfz2013wpns  -0.58538
gfz2013wyfl   1.09100
gfz2013xahp   0.27818
gfz2013xjmo   0.78657
gfz2013xmzw   1.69710
gfz2013xswc   0.16783
gfz2013xuxr   1.18520
gfz2013yqtu   1.06330
gfz2013zlak   0.87105
gfz2014bkra  -2.41500
gfz2014bztn   5.81480
gfz2014cwti   0.52184
gfz2014epnq   0.77897
gfz2014etqu   1.11860
gfz2014fbli   1.60500
gfz2014flxk   0.52135
gfz2014fsir   1.22390
gfz2014gnbw   1.45380
gfz2014hyea   0.75099
gfz2014hzzf   0.90561
gfz2014icov   1.16220
gfz2014irly   0.57511
gfz2014jarg   1.60350
