# Nsamples: 399  MAD:  0.508  mean:  0.054  std:  0.777
gfz2010aseg   0.39541
gfz2010brlc   0.05051
gfz2010brrm   1.68090
gfz2010ccwc   0.61054
gfz2010ccye  -0.06732
gfz2010clbw  -0.46404
gfz2010cllh  -0.32582
gfz2010cnhd   0.35614
gfz2010cqoq   0.70784
gfz2010crgy  -0.29486
gfz2010crir  -0.27944
gfz2010dask   0.21339
gfz2010djib  -0.73253
gfz2010drit   0.54689
gfz2010drun  -3.05820
gfz2010dtyx   1.25880
gfz2010eibh   1.04580
gfz2010fpvw  -0.43867
gfz2010izag   1.00850
gfz2010jdhk   0.60328
gfz2010jlvp   0.22996
gfz2010kwks  -1.30470
gfz2010mqaj   0.61020
gfz2010mqzz  -0.98709
gfz2010mwmd   2.97330
gfz2010myqg  -0.41205
gfz2010ncwu   0.15313
gfz2010ngge  -0.24277
gfz2010okpc   0.98682
gfz2010pclq   0.10766
gfz2010pcya   0.83455
gfz2010pgpo   0.60113
gfz2010pzza  -0.42324
gfz2010qdqk   0.23497
gfz2010qrta  -0.29058
gfz2010rhvu  -0.30453
gfz2010rkuu  -0.60816
gfz2010rljv   0.33781
gfz2010rmua  -0.45535
gfz2010rnqa   4.03260
gfz2010rnwt  -2.15590
gfz2010rpjd  -1.60630
gfz2010schp   0.23216
gfz2010sdfs  -0.09520
gfz2010swqy   0.98945
gfz2010tgmo  -0.61850
gfz2010tmba   0.02150
gfz2010tpcj   0.58069
gfz2010tzma   0.19617
gfz2010ugws   0.49575
gfz2010uhjy   0.49448
gfz2010vfyu   0.75352
gfz2010vong   0.29575
gfz2010vybx  -0.13201
gfz2010wyuj   0.12285
gfz2010xamh   0.19658
gfz2010xaxw   0.40545
gfz2010xnbn   0.07665
gfz2010xpzq   0.33789
gfz2010ytzb  -0.38625
gfz2010zjun  -0.05002
gfz2011bpqm   0.01267
gfz2011bsvr  -0.12930
gfz2011bygs   0.64250
gfz2011bygu   0.12474
gfz2011cdge   2.31550
gfz2011chsa  -0.59116
gfz2011cwzi  -0.05288
gfz2011dabj   0.01181
gfz2011dhfg  -0.08807
gfz2011dpyu  -0.22681
gfz2011duvm   0.26347
gfz2011edrq  -0.00719
gfz2011emzr  -0.13619
gfz2011fnie   0.17847
gfz2011fzcw   1.70060
gfz2011gaax  -0.36129
gfz2011gfer   0.24431
gfz2011ggnl  -0.82839
gfz2011glpg  -0.42379
gfz2011gnbk   0.02547
gfz2011gpyr   0.15149
gfz2011haaa  -0.23647
gfz2011hatg  -0.50659
gfz2011hjof   0.54583
gfz2011hmnw   0.39892
gfz2011hqjs  -0.07353
gfz2011hrgt  -1.03830
gfz2011hyct   0.42068
gfz2011iryz  -0.13899
gfz2011itcv  -0.68270
gfz2011ituo  -1.32090
gfz2011jdoz  -0.22004
gfz2011jeta  -1.20610
gfz2011jghq  -0.81690
gfz2011jphj  -1.35190
gfz2011jryv  -0.26446
gfz2011kjzt  -0.27815
gfz2011kjzv  -0.11873
gfz2011kyzy   0.23890
gfz2011lkkf   0.35797
gfz2011lmug   0.00825
gfz2011mjje  -0.48441
gfz2011ndhh   0.39818
gfz2011nejg  -1.33840
gfz2011nejw  -0.47557
gfz2011nfcz  -0.10606
gfz2011nftw  -1.46530
gfz2011nfww   0.22985
gfz2011nhby   0.07567
gfz2011nhvt   0.30749
gfz2011nijp  -0.13210
gfz2011nilw  -0.74874
gfz2011niuw  -0.20608
gfz2011nkou   1.32050
gfz2011nlmf  -1.66620
gfz2011nlnl  -0.29389
gfz2011nlou  -0.10876
gfz2011nlum   1.18250
gfz2011nnda  -0.01456
gfz2011nsej  -0.73554
gfz2011nsiy   0.53223
gfz2011nsrx  -0.56801
gfz2011nuqo   0.58046
gfz2011oadm  -0.52861
gfz2011oazk  -0.88557
gfz2011ofpj   0.06123
gfz2011ohgj  -1.11320
gfz2011oslk  -0.19035
gfz2011ovvj  -1.45190
gfz2011owqa  -0.23832
gfz2011paqj  -1.01100
gfz2011pfls   0.10902
gfz2011pmuv  -0.01073
gfz2011ppsc  -0.53694
gfz2011qenl   0.09675
gfz2011qgea   0.10764
gfz2011qukj  -0.41381
gfz2011rkau  -0.20039
gfz2011rnny  -0.26631
gfz2011rnsp   0.33770
gfz2011scma   0.39089
gfz2011sdax  -0.04116
gfz2011sdpl   1.02760
gfz2011sqco  -1.42260
gfz2011sskq   1.48030
gfz2011taqr   1.13010
gfz2011tdjj   0.43932
gfz2011tlwl   0.89364
gfz2011tqgg   0.28423
gfz2011tsgl   0.21023
gfz2011udjs   1.03670
gfz2011uqry   0.26120
gfz2011urwz  -0.95659
gfz2011vahy   0.13378
gfz2011vcyx   0.44003
gfz2011wkja  -0.24703
gfz2011wpzt  -0.43740
gfz2011wucg   0.37534
gfz2011wwze   0.33435
gfz2011wzss   0.64059
gfz2011xgbc   0.30464
gfz2011xgwy  -0.46543
gfz2011xnui  -0.14374
gfz2011yexx  -0.07578
gfz2011ypfh   0.67950
gfz2011zghc  -0.14182
gfz2012adja   0.73599
gfz2012ahac  -0.21468
gfz2012amjx  -0.72660
gfz2012amvs   0.05515
gfz2012aqpa  -0.20580
gfz2012arlo   0.43430
gfz2012bcvn   0.74159
gfz2012bity  -0.25821
gfz2012bqcf  -0.05206
gfz2012cdju  -0.07170
gfz2012cksh   0.94094
gfz2012cmww  -0.29679
gfz2012cntu   0.12793
gfz2012cvfr   0.15259
gfz2012dbgt   0.91622
gfz2012dcjd   0.42505
gfz2012dejg   0.03919
gfz2012dtdt   0.63746
gfz2012dtlu   0.16871
gfz2012dttl   0.47509
gfz2012dwwu  -0.62054
gfz2012dyck  -0.22192
gfz2012ekfp   0.41833
gfz2012elek  -0.17277
gfz2012enio   1.90700
gfz2012erds  -0.23899
gfz2012ftcq   0.73350
gfz2012ftks  -0.59001
gfz2012fyny   0.45763
gfz2012ghiv  -0.04890
gfz2012gjdg  -0.51519
gfz2012gnow  -0.05338
gfz2012gpcd  -0.85840
gfz2012gvxc   0.54268
gfz2012hmcv  -0.51038
gfz2012hvtu   1.27500
gfz2012hzur  -0.80237
gfz2012ibyd  -0.03657
gfz2012icjo  -0.41209
gfz2012ieln  -0.51191
gfz2012iijk  -0.13790
gfz2012imsm  -0.96327
gfz2012ipdc  -0.38883
gfz2012ivyg   0.40014
gfz2012iyhs  -0.29556
gfz2012izke   1.22830
gfz2012kmbo  -0.34030
gfz2012kmmz  -0.09294
gfz2012ldjj   0.30535
gfz2012lyyr   0.00810
gfz2012mcrb  -0.27253
gfz2012mdzf  -0.46033
gfz2012mjuu  -0.21191
gfz2012mpzo   1.19260
gfz2012mrqk   1.07280
gfz2012mrwu   0.16733
gfz2012nnqu  -0.40179
gfz2012pdav   0.21915
gfz2012phns   0.82690
gfz2012pmuj  -0.22645
gfz2012pumy  -0.17275
gfz2012pvve   0.04695
gfz2012qfah   0.83283
gfz2012qpoc  -0.86429
gfz2012svwz   0.29765
gfz2012syum   0.05262
gfz2012tisj  -0.06449
gfz2012uhtc   0.15658
gfz2012uzww  -0.17939
gfz2012vdra  -1.07640
gfz2012vitw   0.15862
gfz2012vrqz  -0.23138
gfz2012vurc  -0.14504
gfz2012wysg   0.43512
gfz2012xask   0.26691
gfz2012xlfo   0.07142
gfz2012xncm  -0.06987
gfz2012xqxw  -0.03227
gfz2012xrmq   0.25058
gfz2012xtvu   0.06376
gfz2012xxdj   0.26152
gfz2012yegw   0.23779
gfz2012yihn  -0.74551
gfz2012zhyz   0.25129
gfz2012zido   0.01635
gfz2013agbm   0.58800
gfz2013aggr  -0.45018
gfz2013bwgw   0.10823
gfz2013byyy  -0.21545
gfz2013cinv  -0.33660
gfz2013cokc   1.22170
gfz2013cqee   6.65890
gfz2013cvve  -0.46526
gfz2013cyvx   0.19504
gfz2013delq  -0.07890
gfz2013dftb   0.12280
gfz2013dzvr   0.18193
gfz2013eazm   0.46345
gfz2013enqo   0.82195
gfz2013fndg  -0.63666
gfz2013fulo   0.34551
gfz2013fvht   0.55714
gfz2013fvyr  -0.38083
gfz2013fwbm   0.17574
gfz2013grle   0.89098
gfz2013gsnl  -0.19308
gfz2013gugi  -0.36769
gfz2013gxye   0.70397
gfz2013hqaa   0.08718
gfz2013hvzv   0.60917
gfz2013icql  -0.10836
gfz2013irme   0.53171
gfz2013iuyv  -0.60536
gfz2013iwzn   0.02684
gfz2013jfcn   0.55370
gfz2013jhog   0.37995
gfz2013jkqn   1.42140
gfz2013jobl   0.21508
gfz2013kxlr  -0.18159
gfz2013lbod   0.45498
gfz2013lbvl  -0.02354
gfz2013ljwt  -0.29173
gfz2013lqjj   0.30241
gfz2013lvxe  -0.61489
gfz2013mdxj   0.31682
gfz2013oeni   0.15574
gfz2013oizq   0.06025
gfz2013okac  -0.13986
gfz2013oruq   0.42085
gfz2013pegj   0.15145
gfz2013phhi  -1.48850
gfz2013tcju  -0.84933
gfz2013tdsx   0.51336
gfz2013tekq   0.13309
gfz2013tgia   0.42082
gfz2013tjub   0.02668
gfz2013tnrp   0.14164
gfz2013ttmk   0.57740
gfz2013uafv   0.32860
gfz2013udtw   0.30989
gfz2013uhio  -1.31150
gfz2013unuv  -0.00000
gfz2013utqa  -0.47225
gfz2013uxzw   0.60619
gfz2013vdam   0.47660
gfz2013veug  -0.21695
gfz2013vgfb   0.23567
gfz2013vjrr   0.48519
gfz2013vldx  -0.17845
gfz2013vmrv   0.99490
gfz2013vmsg   0.84968
gfz2013voai   0.13697
gfz2013vojy   0.08425
gfz2013vsdd   0.93305
gfz2013vvre   0.64800
gfz2013vwkh  -0.01878
gfz2013wwee   0.02771
gfz2013wyfl  -0.08062
gfz2013xacx  -0.36398
gfz2013xahp   0.09843
gfz2013xjmo  -0.16168
gfz2013xmzw  -0.36317
gfz2013xodn  -0.30998
gfz2013xofz   0.07090
gfz2013xswc  -0.73140
gfz2013xycz  -0.09575
gfz2013ykkf  -0.11766
gfz2013yodm   0.15290
gfz2013yqtu  -0.09191
gfz2013yvnj   1.76550
gfz2013yxhf   0.85398
gfz2013zfbz  -3.48850
gfz2013zlak   1.00050
gfz2014aedl   0.39194
gfz2014aqop  -1.66180
gfz2014azfu   0.31154
gfz2014bdju   0.50105
gfz2014bqpm  -0.00669
gfz2014buyz  -0.33400
gfz2014byes  -0.35120
gfz2014bzus  -0.27371
gfz2014cgxj  -0.54150
gfz2014cjao  -0.06094
gfz2014cokw  -0.15172
gfz2014crac  -0.19234
gfz2014ctdl   0.13847
gfz2014cvnb   0.08014
gfz2014dbqi  -0.30055
gfz2014dihl   0.97995
gfz2014djhi   0.52844
gfz2014dmrw  -0.45973
gfz2014dtth   0.53591
gfz2014dtto   0.06573
gfz2014dwcp  -0.36233
gfz2014ecor   0.94875
gfz2014edjm   0.28614
gfz2014edmd  -0.11999
gfz2014eirs   0.44479
gfz2014eoay   0.12848
gfz2014epnq  -2.04000
gfz2014esez  -0.27244
gfz2014fbef  -0.35566
gfz2014fjfz   0.05795
gfz2014flxk   0.02472
gfz2014fmdc   1.23740
gfz2014fsir   0.42734
gfz2014fsje   0.27234
gfz2014fwxt  -0.19175
gfz2014fxte   0.10584
gfz2014fxuy   0.05926
gfz2014gnbw   0.30537
gfz2014gtee   0.20871
gfz2014gtoj   0.15765
gfz2014hapg   0.87538
gfz2014happ   0.31137
gfz2014hkcw  -0.16197
gfz2014hqhv  -0.55351
gfz2014huqh   0.54472
gfz2014hyea  -0.53733
gfz2014hzzf  -0.05186
gfz2014icov   0.24401
gfz2014igrp   0.32128
gfz2014iltl   0.84135
gfz2014imqh  -0.76463
gfz2014ined   0.25812
gfz2014irlf  -0.06736
gfz2014irln   0.18815
gfz2014irly  -1.56470
gfz2014iusw   0.24796
gfz2014jarg   0.04632
gfz2014jayh   0.17760
gfz2014jfmc  -1.75950
