# Nsamples: 792  MAD:  2.020  mean: -1.854  std:  2.086
gfz2010abfc  -2.78880
gfz2010aggj  -3.04720
gfz2010aldp   0.51841
gfz2010aseg  -1.24650
gfz2010asxa  -3.69830
gfz2010bgrt  -1.19020
gfz2010bklj  -3.32200
gfz2010bmls   1.39950
gfz2010bofe   0.05947
gfz2010brlc  -2.01700
gfz2010btme  -1.82990
gfz2010bukb  -3.56080
gfz2010bvit   2.50700
gfz2010byau  -1.15400
gfz2010bytu  -2.40740
gfz2010cbnp   0.00000
gfz2010ccse  -0.90155
gfz2010ccwc  -2.80830
gfz2010ccye  -3.12200
gfz2010clbw  -3.98920
gfz2010cllh  -0.99843
gfz2010cngg  -2.59320
gfz2010cnhd  -1.25420
gfz2010cnyi   0.71184
gfz2010cphq  -1.00690
gfz2010cqoq  -0.29222
gfz2010crgy  -6.12370
gfz2010crir  -4.53940
gfz2010csle   0.62695
gfz2010csmw  -1.51060
gfz2010csqy  -2.14800
gfz2010cvkn  -0.85260
gfz2010cwrk  -1.06260
gfz2010cyid   0.89604
gfz2010dask  -2.04770
gfz2010diid  -1.05320
gfz2010djib  -3.47700
gfz2010dmij  -0.71157
gfz2010drit  -2.49230
gfz2010drpv   0.84825
gfz2010drun  -2.42790
gfz2010dtyx  -1.18550
gfz2010dumv  -1.45520
gfz2010dxhq  -3.90870
gfz2010elge  -1.83920
gfz2010ethu  -1.90110
gfz2010ewyj  -0.16447
gfz2010faly   0.28336
gfz2010fjme  -4.48760
gfz2010fkff   3.55000
gfz2010fqzh  -2.20630
gfz2010fxut  -1.64960
gfz2010gonu  -0.32275
gfz2010guwa  -1.81670
gfz2010habf  -3.56990
gfz2010hdxn   0.30573
gfz2010hesh  -1.64390
gfz2010hexh  -3.56280
gfz2010hueh  -1.70810
gfz2010iaay  -2.37530
gfz2010ifhd  -3.72440
gfz2010ioad  -3.55070
gfz2010izag  -1.60290
gfz2010jcby  -3.22590
gfz2010jdhk  -1.00560
gfz2010jlvp  -2.45680
gfz2010ljzf  -1.79010
gfz2010lvnj  -3.03150
gfz2010mdti  -2.71970
gfz2010mguv   0.88266
gfz2010mnoc  -0.75559
gfz2010mpvc  -1.66440
gfz2010mqaj  -0.35668
gfz2010mqzz  -4.77510
gfz2010mvmb  -1.55500
gfz2010ncwu   0.26092
gfz2010nkrw  -0.35254
gfz2010novb  -1.08420
gfz2010ocug  -1.65690
gfz2010ogwn  -0.54436
gfz2010osrl  -0.67162
gfz2010ovvg  -1.42530
gfz2010pclq  -1.15080
gfz2010pcya  -9.59650
gfz2010pdip   1.53140
gfz2010pgpo  -3.12640
gfz2010prnw  -3.13170
gfz2010qdqk  -0.97820
gfz2010qloa  -1.81190
gfz2010qrix  -2.28620
gfz2010qrta  -2.40260
gfz2010rkuu  -3.62100
gfz2010rljv  -2.41180
gfz2010rmua  -3.32740
gfz2010rnwt  -4.19970
gfz2010rpbz   0.68837
gfz2010rpjd   0.57828
gfz2010scht  -3.28560
gfz2010sdfs  -1.30240
gfz2010tcgh   1.79010
gfz2010tgmo  -2.73270
gfz2010tmba  -3.61080
gfz2010tpcj  -2.71990
gfz2010tqyo  -0.55954
gfz2010tzlz  -0.81664
gfz2010tzma  -2.68860
gfz2010ugws  -2.35250
gfz2010uhjy  -0.90909
gfz2010ussf   1.12560
gfz2010utsc  -3.04100
gfz2010uveo  -3.24880
gfz2010uvpz  -0.22872
gfz2010vdcf  -6.18670
gfz2010vong  -2.13610
gfz2010wakc  -5.72260
gfz2010wplk   6.38230
gfz2010wyuj   2.23200
gfz2010xamh  -0.51110
gfz2010xaxw  -0.55069
gfz2010xcdd   1.58600
gfz2010xhqq  -2.13210
gfz2010xkbz  -3.16670
gfz2010xkku  -2.26290
gfz2010xney  -0.60850
gfz2010xnwf  -0.69692
gfz2010xpzq  -3.24560
gfz2010xytc   0.05199
gfz2010yfdr   0.20350
gfz2010yhhj  -1.81240
gfz2010yilf  -2.93680
gfz2010ymih  -4.17780
gfz2010yspe   0.90025
gfz2010ytzb  -0.40461
gfz2010zaxv  -2.10520
gfz2010zhvj   1.83370
gfz2010zjun  -5.85030
gfz2011afyc  -0.05680
gfz2011ahvh  -0.40092
gfz2011ameb  -2.34900
gfz2011amst  -1.41040
gfz2011aqpp  -0.57027
gfz2011awsv  -4.51810
gfz2011bcvc  -0.40982
gfz2011bpqm  -2.67690
gfz2011bqbx  -1.12800
gfz2011bsvr  -11.57200
gfz2011bygs  -2.81280
gfz2011cfyy   0.53873
gfz2011chsa  -0.27940
gfz2011cwhx   1.07520
gfz2011cwsm  -4.44200
gfz2011cxbw  -1.47540
gfz2011cxdj  -1.47310
gfz2011dabj  -3.63370
gfz2011dbzc  -2.33120
gfz2011dhfg  -3.08030
gfz2011dpyu  -4.81590
gfz2011duvm  -1.60280
gfz2011ekty  -0.85393
gfz2011emzr   1.36630
gfz2011etkc  -2.24290
gfz2011exxq  -1.15640
gfz2011fbsl   4.89290
gfz2011ffdh  -2.38470
gfz2011fges  -2.99400
gfz2011fnie  -4.97900
gfz2011fzcw  -0.66201
gfz2011gaax  -0.39296
gfz2011gdli  -1.08670
gfz2011gdrl  -1.77310
gfz2011ggnl  -2.95280
gfz2011glpg  -1.52180
gfz2011gnbk  -3.41940
gfz2011gzde   8.38590
gfz2011haaa  -3.21760
gfz2011hatg  -3.41700
gfz2011hbqc  -8.22220
gfz2011hffq   0.65674
gfz2011hibi  -2.01220
gfz2011hjof  -2.84300
gfz2011hqjs  -4.98690
gfz2011hrgt   0.50084
gfz2011hvzo  -1.88750
gfz2011hwbn   0.15200
gfz2011hyct   1.83020
gfz2011ioch  -1.74940
gfz2011iryz  -4.09980
gfz2011jeta  -1.40100
gfz2011jfyb  -1.47880
gfz2011jghq  -2.94580
gfz2011jrgh  -0.14809
gfz2011jryv  -5.14030
gfz2011kfch  -0.86216
gfz2011kjzt  -4.98400
gfz2011kjzv  -5.86470
gfz2011knht   0.92461
gfz2011ksxc   0.58481
gfz2011kylu  -0.68633
gfz2011kyzy  -2.56750
gfz2011lkkf  -1.79890
gfz2011lmug  -0.60755
gfz2011lrpv  -3.00270
gfz2011mjje  -5.33930
gfz2011mllb  -2.63970
gfz2011mntq  -1.66680
gfz2011ndhh  -10.12900
gfz2011ndki  -2.38280
gfz2011ndse  -1.55750
gfz2011nejg  -3.89820
gfz2011nejw  -4.84940
gfz2011nerb  -5.08890
gfz2011nfcz  -4.47610
gfz2011nftw  -5.53180
gfz2011nhjv   5.69100
gfz2011nhvt  -1.03970
gfz2011nhwf  -2.20400
gfz2011nijp  -4.71240
gfz2011nilw  -2.16790
gfz2011nlmf  -5.73040
gfz2011nlnl  -4.12030
gfz2011nlum  -4.36500
gfz2011npaf  -0.42201
gfz2011nsrx   0.78988
gfz2011nsyi  -2.81240
gfz2011nuqo  -1.58240
gfz2011nyzk   2.25880
gfz2011oadm  -5.79440
gfz2011oazk  -1.59830
gfz2011ocif  -1.04810
gfz2011ofpj  -4.05600
gfz2011okza  -2.46570
gfz2011oqjl  -1.23960
gfz2011oslk  -7.57880
gfz2011osmp  -3.93950
gfz2011osuy   1.07230
gfz2011owqa  -1.28370
gfz2011paqj  -5.74060
gfz2011pfls  -2.52130
gfz2011pivq  -2.71870
gfz2011plzc  -3.69750
gfz2011pmuv  -4.42160
gfz2011poug  -4.00140
gfz2011pphc   0.57256
gfz2011ppsc  -1.14330
gfz2011pwbw  -2.97190
gfz2011qenl  -0.86943
gfz2011qgea   1.56300
gfz2011qklh   2.73890
gfz2011qowe  -1.93180
gfz2011qtoy   1.70640
gfz2011qukj  -1.18700
gfz2011rbuo  -1.76500
gfz2011rkau  -3.43510
gfz2011rnny  -5.72720
gfz2011rnsp  -3.33630
gfz2011scma  -5.65410
gfz2011sdax  -4.20980
gfz2011sfmu  -3.76610
gfz2011sqco  -2.71450
gfz2011sqxp  -0.82805
gfz2011sskq  -3.24230
gfz2011swfp  -0.02953
gfz2011sxno  -1.66570
gfz2011sylg  -6.08250
gfz2011syvj  -0.04862
gfz2011syzr   1.29080
gfz2011szbb   1.57290
gfz2011szcj  -0.91348
gfz2011taqr   0.40858
gfz2011tarj   0.16528
gfz2011tdjj  -1.22790
gfz2011tfor  -0.33412
gfz2011tgon  -0.04428
gfz2011tjpv  -2.47470
gfz2011tlwl   0.59497
gfz2011tozo  -0.20831
gfz2011tqgg  -0.22388
gfz2011tsgl  -2.49770
gfz2011udxo  -2.05860
gfz2011ugbt  -2.38420
gfz2011unud  -2.36460
gfz2011uqlz  -1.96250
gfz2011uqry  -6.97360
gfz2011urwz  -3.73190
gfz2011uvsi  -2.05240
gfz2011vahy  -3.26020
gfz2011vemg  -0.48784
gfz2011vsag  -3.35640
gfz2011vxek  -2.20450
gfz2011wbtc  -1.43580
gfz2011wcvs   0.68596
gfz2011wgvh  -2.02890
gfz2011wkja  -2.05620
gfz2011wkyx  -2.86550
gfz2011wnjg   1.07450
gfz2011wpzt  -2.32720
gfz2011wqth  -0.22389
gfz2011wqup  -3.30680
gfz2011wtfn  -1.45800
gfz2011xgbc  -3.20000
gfz2011xgwy   0.11164
gfz2011xkka  -2.64140
gfz2011xlod  -3.75110
gfz2011xwum   0.42526
gfz2011xxng  -2.40810
gfz2011yexx  -3.45850
gfz2011ykbd   0.24465
gfz2011ymji  -0.74408
gfz2011ypfh   1.12040
gfz2011ytob  -0.50029
gfz2011ywtj  -1.80100
gfz2011zcwn  -1.30710
gfz2011zdyf   0.71447
gfz2011zghc  -3.30730
gfz2011zgxn  -0.93375
gfz2011ziyk  -3.35740
gfz2011zkbt  -4.16080
gfz2012adja  -2.22030
gfz2012ahac  -3.29950
gfz2012ahkl  -1.44750
gfz2012aisj  -2.22400
gfz2012alti  -2.40180
gfz2012amjx  -5.85400
gfz2012aqpa   0.10259
gfz2012arlo  -2.09200
gfz2012asld   1.38630
gfz2012auqr  -0.18241
gfz2012bcvn  -0.46732
gfz2012beae  -3.34690
gfz2012bity  -0.89006
gfz2012bjhl  -3.56130
gfz2012bolx  -3.05050
gfz2012brrg  -1.89850
gfz2012byrq  -5.32390
gfz2012bysu   0.06291
gfz2012bytv  -2.45470
gfz2012byuk  -0.74388
gfz2012cdju  -4.25320
gfz2012cksh  -1.15850
gfz2012cmww  -2.44720
gfz2012cntu  -2.55490
gfz2012cvfr  -2.18670
gfz2012cxhw  -3.03480
gfz2012dbgt  -0.41805
gfz2012dejg  -0.50020
gfz2012dleg  -0.80175
gfz2012dpem  -0.83396
gfz2012dpnu  -1.14620
gfz2012dtlu  -2.41570
gfz2012dtvr  -4.35470
gfz2012dwwu  -3.25530
gfz2012dysu  -2.50370
gfz2012dzou   0.38766
gfz2012eajr   2.40500
gfz2012ebrr  -2.85760
gfz2012eeft  -2.78290
gfz2012ekfp  -0.01013
gfz2012ekro   1.18310
gfz2012enio   1.20980
gfz2012erds  -2.91220
gfz2012evxn  -2.32470
gfz2012fbgz  -1.63200
gfz2012fhaf  -1.84580
gfz2012fiiz   0.83106
gfz2012fjiu  -1.96110
gfz2012flqf  -2.96620
gfz2012ftks   1.35010
gfz2012fuyd  -3.07890
gfz2012fxgc  -0.61416
gfz2012gbrs   1.35080
gfz2012gczh   0.15719
gfz2012ghiv  -2.23740
gfz2012gjdg  -4.81760
gfz2012gjtd  -2.10210
gfz2012gmsr   1.21790
gfz2012gpcd  -2.08870
gfz2012gvxc  -0.26776
gfz2012heih  -2.67110
gfz2012hkxs   0.73383
gfz2012hlya   0.93057
gfz2012hmcv   0.14905
gfz2012hqlo   0.43723
gfz2012hvtu   0.11634
gfz2012ibyd  -0.19784
gfz2012icjo  -1.33430
gfz2012ieln   2.21700
gfz2012iijk  -4.04460
gfz2012imsm   1.66250
gfz2012ipdc  -6.73940
gfz2012iroy  -4.04530
gfz2012iyhs  -1.35790
gfz2012izke  -0.77430
gfz2012jbzr  -0.68486
gfz2012jihg  -1.37070
gfz2012jlez  -1.01400
gfz2012jnlt  -1.94430
gfz2012jodg   2.64980
gfz2012juem  -3.32330
gfz2012jxnm  -1.64560
gfz2012kadi  -2.23740
gfz2012kbub  -1.98930
gfz2012klpl  -0.95756
gfz2012kmbo  -4.05230
gfz2012kmmz  -4.67250
gfz2012kqjb  -1.73010
gfz2012kyhj  -1.65580
gfz2012ldjj  -2.54260
gfz2012lqhw  -4.67720
gfz2012lwha   1.86020
gfz2012mdzf  -0.59188
gfz2012mmiw  -4.44070
gfz2012mowv  -2.71430
gfz2012mpzo  -3.52350
gfz2012mrqk  -4.83140
gfz2012mtyn   1.76220
gfz2012mxdk  -2.27590
gfz2012mxvk  -1.24330
gfz2012nfos  -1.52800
gfz2012nldz  -0.07089
gfz2012nlrb  -0.17984
gfz2012nmja  -1.17080
gfz2012nnck  -0.46768
gfz2012nqvd  -3.75990
gfz2012nsxc  -0.79903
gfz2012oafg  -4.02090
gfz2012ofnx  -0.09036
gfz2012oork  -3.25620
gfz2012oozp  -0.19623
gfz2012ormy   0.60627
gfz2012oyja  -4.75300
gfz2012pdav  -1.56870
gfz2012pdjt  -2.21330
gfz2012pgmw  -2.69790
gfz2012phns  -3.59770
gfz2012pifb  -1.51950
gfz2012pira   0.53341
gfz2012pmuj   0.12994
gfz2012pvve  -3.38080
gfz2012pziw   0.65331
gfz2012qbbt   0.92173
gfz2012qfah  -0.94154
gfz2012qfov   1.99150
gfz2012qmhz   2.04650
gfz2012qmxz  -1.77530
gfz2012rduv   1.19630
gfz2012rfhw  -1.03550
gfz2012rknz  -2.83690
gfz2012roan  -1.09100
gfz2012rzwp  -1.42270
gfz2012scuk   0.78785
gfz2012sfao   1.78020
gfz2012sjox  -1.65110
gfz2012smyn   1.09500
gfz2012socz  -2.90210
gfz2012sopp   0.57232
gfz2012sqsc  -1.68020
gfz2012ssnb  -0.16104
gfz2012ssvn  -0.29581
gfz2012suqd  -1.54470
gfz2012svwz  -1.81060
gfz2012swbz  -2.56940
gfz2012sxbo  -2.07540
gfz2012tgta  -4.07850
gfz2012tisj  -3.33120
gfz2012touh  -2.54070
gfz2012trss  -2.74040
gfz2012tsdz  -2.72500
gfz2012ttnf  -3.27060
gfz2012tvgw  -0.77776
gfz2012twec  -4.15310
gfz2012uhsx  -3.27350
gfz2012uhtc  -4.90700
gfz2012ulei  -2.27100
gfz2012uvoa  -0.76169
gfz2012uzww  -4.36410
gfz2012vcqw  -1.41310
gfz2012vdsl  -3.28590
gfz2012vioy   3.58050
gfz2012vitw  -4.96210
gfz2012vlzv  -3.02220
gfz2012vqmq  -4.60810
gfz2012vrqz   1.12230
gfz2012vurc  -4.40280
gfz2012wbeu   3.78970
gfz2012wgdv  -0.23394
gfz2012wgmg  -4.17390
gfz2012wgmp  -2.61350
gfz2012wicr  -0.32828
gfz2012wkki  -0.99897
gfz2012wmas  -1.12870
gfz2012wmmw   0.34665
gfz2012wmrf   0.07164
gfz2012wowu  -1.83080
gfz2012woxj  -2.94100
gfz2012wpen  -0.51105
gfz2012wzja  -0.43404
gfz2012xbna   0.06933
gfz2012xcsf  -3.09060
gfz2012xfsk  -0.11598
gfz2012xfsl  -3.62160
gfz2012xjgb  -0.69861
gfz2012xkln  -4.57770
gfz2012xkvu   0.60345
gfz2012xlfo  -2.76180
gfz2012xncm  -4.93160
gfz2012xtvu  -3.61280
gfz2012yegw  -1.48230
gfz2012ylai  -4.84360
gfz2012yncm  -1.07560
gfz2012yytb   3.66940
gfz2012zhyz  -1.93540
gfz2012zido  -0.21268
gfz2012zkhu  -3.19480
gfz2012zmdf   4.92150
gfz2012zmfc   1.81420
gfz2013agbm  -2.14860
gfz2013aggr  -3.20380
gfz2013ajxz  -1.23870
gfz2013akkd  -0.77283
gfz2013ascz  -1.83300
gfz2013atak  -1.28890
gfz2013atec  -0.13997
gfz2013aymi  -2.97300
gfz2013bqfc   2.04080
gfz2013bwgw  -3.14390
gfz2013byyy  -4.06530
gfz2013bzwa   1.39440
gfz2013ccng  -2.13340
gfz2013cfls   3.27880
gfz2013cinv  -4.66790
gfz2013ciof  -4.00400
gfz2013cqak  -0.29535
gfz2013cqee   1.40650
gfz2013cvve  -3.84620
gfz2013cyvx  -4.29870
gfz2013dbhl  -1.90060
gfz2013delq  -1.80900
gfz2013dftb  -3.32320
gfz2013dfvx  -1.32300
gfz2013djfi  -2.50310
gfz2013dksc  -2.41770
gfz2013dngd  -3.28760
gfz2013dnot  -2.26270
gfz2013dtjl  -0.03466
gfz2013dvub  -1.79970
gfz2013dznt  -0.66476
gfz2013dzvr  -3.93450
gfz2013eavq  -2.39470
gfz2013eazm   0.24657
gfz2013efct  -3.64400
gfz2013egfv  -3.66050
gfz2013enga   1.74160
gfz2013enjr  -0.08278
gfz2013enqo  -0.31156
gfz2013enrh  -0.96294
gfz2013evcl  -3.54110
gfz2013ffjt   0.99553
gfz2013fhzy  -4.03760
gfz2013fmcd  -0.98544
gfz2013fmcp  -1.44540
gfz2013fndg  -2.29990
gfz2013fnpa  -4.02290
gfz2013foto  -3.02420
gfz2013frxd   0.77240
gfz2013fskp  -1.32640
gfz2013fulo   0.58430
gfz2013fvht   0.17846
gfz2013fybd  -0.08304
gfz2013gaqx  -1.15370
gfz2013gglk  -0.43187
gfz2013gjmk  -4.05670
gfz2013gkcx  -2.88190
gfz2013gkyn  -4.23490
gfz2013glkq  -0.56192
gfz2013glpz  -1.79930
gfz2013gqtl  -2.17190
gfz2013gugi  -0.61289
gfz2013gurk  -2.18540
gfz2013gxye  -3.47110
gfz2013gyce  -2.46660
gfz2013hbmi  -2.64790
gfz2013hbwy  -0.04434
gfz2013hduf   2.83200
gfz2013hiam  -2.32610
gfz2013hjtt  -0.05259
gfz2013hwps  -3.02730
gfz2013icgx  -3.46950
gfz2013irme   0.84307
gfz2013iwzn  -0.98999
gfz2013iybg  -0.82963
gfz2013jfcn  -3.54020
gfz2013jhog  -4.42320
gfz2013jjae  -1.22170
gfz2013jjfw   0.01962
gfz2013jkqn  -4.04190
gfz2013jobl  -3.68140
gfz2013jrqf  -1.28260
gfz2013jtsg  -3.34390
gfz2013jzfz  -1.95470
gfz2013kpcb  -1.81630
gfz2013kpes  -1.48370
gfz2013kqab  -6.76120
gfz2013kruh   0.20351
gfz2013kslp  -4.52570
gfz2013kuno   1.29640
gfz2013lbvl  -6.25620
gfz2013ljdu  -3.68520
gfz2013ljwt  -2.81960
gfz2013lnts  -2.56440
gfz2013lwtr  -2.74830
gfz2013lxed  -1.54740
gfz2013lxnd   0.69015
gfz2013mdxj  -3.03470
gfz2013mimp  -3.92310
gfz2013msmy  -2.84730
gfz2013mvgq  -1.98220
gfz2013mynb  -2.48080
gfz2013njjh  -2.61300
gfz2013ntfc  -2.65470
gfz2013obof  -2.62050
gfz2013oeni  -3.98010
gfz2013ohdt  -0.70732
gfz2013ojza  -2.24130
gfz2013okac  -4.31140
gfz2013onvl  -5.41650
gfz2013opkx  -0.51533
gfz2013orot  -0.08464
gfz2013osmj  -1.83660
gfz2013otxp   1.50750
gfz2013oywh  -1.37420
gfz2013phhi   0.54385
gfz2013phly  -0.27874
gfz2013pifg  -1.05250
gfz2013pkmz  -2.44570
gfz2013pvsa   0.11961
gfz2013qaex  -0.98176
gfz2013qdno  -2.53930
gfz2013qear  -2.79990
gfz2013qigb   0.40528
gfz2013qoak  -1.41040
gfz2013qogb   1.17080
gfz2013qqyo   1.19540
gfz2013quyn  -3.76190
gfz2013qwnm  -2.50020
gfz2013qxof  -4.70590
gfz2013rdmn  -5.37800
gfz2013rhbx  -1.27760
gfz2013rocs  -3.95310
gfz2013rsyt  -3.73720
gfz2013rwkj  -3.90610
gfz2013rwog  -2.87760
gfz2013ryfc  -0.92204
gfz2013ryph  -4.60480
gfz2013sbsp  -3.77950
gfz2013sdkg  -2.78790
gfz2013suck  -3.24620
gfz2013swnj   0.38062
gfz2013taeb  -1.68840
gfz2013tcju  -2.99570
gfz2013tert  -0.71889
gfz2013tgia  -2.75240
gfz2013timw   0.52256
gfz2013tjub  -1.55140
gfz2013tkcg  -2.95030
gfz2013tmyj  -2.16320
gfz2013tnrp  -3.58490
gfz2013tpwl  -1.85170
gfz2013ubgt  -0.42041
gfz2013udtw  -3.82250
gfz2013uepl  -2.97360
gfz2013ummt  -1.18630
gfz2013unuv  -6.34750
gfz2013upqj  -2.42660
gfz2013uugc  -2.77110
gfz2013uwjo  -3.80500
gfz2013uxzw  -0.83704
gfz2013veug  -2.72880
gfz2013vmrv  -0.85116
gfz2013vmsg  -1.10030
gfz2013vnwa  -0.98934
gfz2013vojy  -2.92940
gfz2013vvre   0.55786
gfz2013vwkh  -3.56990
gfz2013vxht  -3.89130
gfz2013wegs   0.41382
gfz2013wpns  -3.76300
gfz2013wwee  -2.04820
gfz2013xacx  -2.38090
gfz2013xahp  -3.76210
gfz2013xbdc   0.13889
gfz2013xjmo  -1.90560
gfz2013xmzw  -5.50530
gfz2013xofz  -0.04615
gfz2013xswc  -4.22770
gfz2013xuxr  -2.35960
gfz2013xvps  -4.08130
gfz2013xzxe  -2.23520
gfz2013yapz   1.05010
gfz2013yktj  -3.36990
gfz2013ylxm  -1.87490
gfz2013ylxn  -1.82190
gfz2013yodm  -4.21090
gfz2013yqtu  -4.00500
gfz2013yvpn  -4.78750
gfz2013yxhf   0.51931
gfz2014ayxf  -2.74350
gfz2014azfu  -1.03770
gfz2014bgyv   0.28161
gfz2014bhch   1.29060
gfz2014bkra  -0.17254
gfz2014bmdf   1.13820
gfz2014bmqw  -1.00650
gfz2014bnea  -0.77811
gfz2014bppg  -2.79250
gfz2014bqpm  -4.01070
gfz2014buyz  -3.61470
gfz2014bycg  -1.24840
gfz2014byes  -0.70532
gfz2014bzus  -3.93660
gfz2014cgoi  -2.45670
gfz2014cncl  -1.79360
gfz2014cokw  -1.67420
gfz2014ctdl  -2.14390
gfz2014dbqi  -5.35970
gfz2014dece  -1.63930
gfz2014dggw  -0.58163
gfz2014diuu  -1.76680
gfz2014djhi   0.63823
gfz2014djyj  -3.65250
gfz2014dmrw  -1.58450
gfz2014dtto   0.18857
gfz2014dwcp  -3.05480
gfz2014dykt  -0.12384
gfz2014eflc  -0.09779
gfz2014eiav  -1.73120
gfz2014ejfx  -3.06210
gfz2014emlw   0.81303
gfz2014eoay  -4.67260
gfz2014esez  -1.92730
gfz2014eunw  -3.38180
gfz2014evgu  -0.94680
gfz2014evhm  -1.80930
gfz2014eyne  -1.77860
gfz2014eysf  -4.33160
gfz2014ezvd  -1.71100
gfz2014fbef  -2.17620
gfz2014fbli  -3.88730
gfz2014ffqg  -2.13940
gfz2014fjfz  -2.61300
gfz2014fsir  -4.20450
gfz2014fsje  -3.11640
gfz2014fsvc  -2.44510
gfz2014fwxt  -4.77630
gfz2014fxte  -4.47170
gfz2014fxtv  -3.21140
gfz2014fxuy  -3.50310
gfz2014gbxg  -1.28780
gfz2014geln  -0.76450
gfz2014gjfd   0.10743
gfz2014gnvp  -3.30890
gfz2014gsfc  -2.54930
gfz2014gssz  -3.23980
gfz2014gtee  -0.94428
gfz2014gypw  -5.34950
gfz2014gzlm  -5.25280
gfz2014hapg  -1.37480
gfz2014hhey  -2.49690
gfz2014hotu  -4.78990
gfz2014hqhv  -4.67800
gfz2014huqh  -3.34710
gfz2014hyea  -5.34530
gfz2014hzzf  -5.09030
gfz2014iaqm  -1.42880
gfz2014icov  -2.66320
gfz2014igrp  -2.42890
gfz2014ikvw  -1.55020
gfz2014iltl   0.34308
gfz2014ined  -3.07380
gfz2014inrg  -4.99850
gfz2014ipwk  -1.81260
gfz2014irlf  -5.11930
gfz2014irln  -4.48540
gfz2014isjg  -3.55740
gfz2014itlx  -1.87460
gfz2014iusw  -3.97750
gfz2014ivgm  -2.46390
gfz2014iyuc  -0.15219
gfz2014jarg  -1.97530
gfz2014jaxy   1.06170
gfz2014jayh  -4.26770
gfz2014jckg  -2.82360
gfz2014jffe  -2.99030
