# Nsamples: 74  MAD:  0.571  mean:  1.377  std:  0.869
gfz2010btme   1.59770
gfz2010bvit   1.62570
gfz2010ccwc   1.13770
gfz2010cllh   2.26170
gfz2010crgy   0.64011
gfz2010crir   0.85589
gfz2010csle   1.44680
gfz2010cyid   2.20340
gfz2010dask   2.32170
gfz2010djib  -0.26054
gfz2010dmij   1.96190
gfz2010drit   0.78110
gfz2010drml   1.52820
gfz2010drmq   1.52820
gfz2010drpv   1.47330
gfz2010drun   1.64180
gfz2010dslu   0.45343
gfz2010dtgc   2.95110
gfz2010dumv   0.27056
gfz2010dxhq   1.99320
gfz2010habf   1.29920
gfz2010hdxn   0.97657
gfz2010rkuu   2.79890
gfz2010rnqa   2.38020
gfz2010rnwt   4.39590
gfz2010rpjd   2.44880
gfz2010schp   1.05480
gfz2010scht   1.17920
gfz2010sdfs   3.92700
gfz2010shvn   1.22800
gfz2010swqy   0.63932
gfz2010xpzq   1.42230
gfz2011fnie   1.35830
gfz2011fnuk   0.15481
gfz2011fnxz   0.94971
gfz2011fszl   0.97396
gfz2011gnbk   0.94300
gfz2011gpyr   0.50932
gfz2011haaa   1.18250
gfz2011hatg   0.21397
gfz2011hjof   1.13980
gfz2011hmnw   1.14430
gfz2011hqjs   0.57147
gfz2011huon   2.77180
gfz2011hvzo   1.30980
gfz2011hyct   0.98379
gfz2011ifta   0.57781
gfz2011ioch   1.50800
gfz2011iryz   1.13480
gfz2011ituo   2.44520
gfz2011jphj   0.44423
gfz2011jryv   1.09420
gfz2011kjzt   1.01090
gfz2011kjzv   0.99691
gfz2011mjje   0.91271
gfz2011mror   1.26280
gfz2011mzvn   1.53550
gfz2011ndki   1.01400
gfz2011nijp   1.53000
gfz2011nilw   2.13010
gfz2011nlum   1.76320
gfz2011okza   0.32850
gfz2011paqj   0.87752
gfz2011pdsn   0.43754
gfz2011pfwq  -0.31806
gfz2011ppsc   1.25210
gfz2011prrq   2.89060
gfz2011ptgd   1.88580
gfz2011pwbw   0.87677
gfz2011qenl   1.67820
gfz2011qgvh   1.57570
gfz2011qklh   2.97850
gfz2012byrq   0.47307
gfz2012qibe   1.26620
