# Nsamples: 235  MAD:  0.671  mean: -1.135  std:  1.199
gfz2010fjme  -2.63280
gfz2010habf  -1.64510
gfz2010iaay  -1.20640
gfz2010izag  -0.21234
gfz2010jlvp  -1.99850
gfz2010jpkn  -0.68365
gfz2010jvsi  -0.72814
gfz2010qrix  -1.26180
gfz2010scht  -4.54010
gfz2010tmba  -1.45630
gfz2010tzlz  -1.42330
gfz2010tzma  -1.43120
gfz2010uhjy   1.01630
gfz2010uogw  -1.31780
gfz2010vong  -0.62800
gfz2010xnbn  -0.02920
gfz2010xpzq  -1.01720
gfz2010yczp  -1.72890
gfz2010yfdr  -0.99812
gfz2010zjun  -2.08240
gfz2011ahvh  -0.69206
gfz2011amst   3.62380
gfz2011bpqm  -1.50760
gfz2011bygs  -0.97270
gfz2011cdge   1.30700
gfz2011dhfg  -2.61680
gfz2011dpyu  -2.46220
gfz2011duvm  -0.94263
gfz2011edrq  -1.44820
gfz2011exxq   2.89560
gfz2011fnie  -0.94549
gfz2011fzcw   6.41380
gfz2011gnbk  -1.90970
gfz2011haaa  -1.96540
gfz2011hatg  -2.22930
gfz2011hjof  -1.20130
gfz2011hmnw  -0.83333
gfz2011hqjs  -2.35590
gfz2011hyct   0.37873
gfz2011iamf  -1.00320
gfz2011iryz  -1.81030
gfz2011jryv  -0.89798
gfz2011lmug  -0.01750
gfz2011lwmg  -1.60430
gfz2011mror  -0.89792
gfz2011nblt   3.24850
gfz2011ndhh  -1.60380
gfz2011nhby  -1.09510
gfz2011nhhd   3.06900
gfz2011niuw  -0.41264
gfz2011nlum  -0.69767
gfz2011nnda  -0.74819
gfz2011nsiy  -0.91113
gfz2011nuqo  -1.14990
gfz2011oekz   0.25845
gfz2011ofpj  -2.20170
gfz2011ohgj  -2.57760
gfz2011okza  -1.41790
gfz2011omxt  -1.61930
gfz2011oslk  -2.24310
gfz2011owqa  -0.70939
gfz2011paqj  -2.00150
gfz2011pmuv  -0.93970
gfz2011poug  -0.74035
gfz2011ppsc  -2.09500
gfz2011prrq  -1.25070
gfz2011pwbw  -1.96110
gfz2011qenl  -0.71467
gfz2011qgvh  -2.00450
gfz2011rkau  -0.23757
gfz2011rnny  -2.15010
gfz2011rnsp  -1.63180
gfz2011sdax  -1.94840
gfz2011sdpl  -0.95556
gfz2011sqco   1.80590
gfz2011sskq  -0.02606
gfz2011tsgl   0.08794
gfz2011uqry  -1.77690
gfz2011vahy  -1.81550
gfz2011vtzv  -1.35590
gfz2011wucg  -1.16740
gfz2011xgbc  -0.68018
gfz2011zghc  -0.88901
gfz2012amvs  -0.95505
gfz2012bovy  -1.56590
gfz2012bqcf  -2.49400
gfz2012cdju  -1.48870
gfz2012cksh  -1.22320
gfz2012cmww  -2.18200
gfz2012cntu  -1.66160
gfz2012cvfr  -1.37290
gfz2012dejg  -1.52280
gfz2012dtlu  -1.45670
gfz2012dyck  -1.71450
gfz2012ekfp  -0.90223
gfz2012erds  -1.18410
gfz2012ghiv  -2.01520
gfz2012hdny  -1.64370
gfz2012hzhn  -2.05320
gfz2012iijk  -1.32730
gfz2012kmbo  -0.15480
gfz2012kstg  -0.98580
gfz2012ldjj  -2.22220
gfz2012lwha  -0.70626
gfz2012lyyr  -1.88030
gfz2012mdzf  -1.79560
gfz2012mekv   2.82180
gfz2012mmiw  -1.23510
gfz2012mpzo   0.11838
gfz2012mvgu  -1.62580
gfz2012ndwt  -0.67093
gfz2012nqvd  -2.00990
gfz2012oafg  -1.83570
gfz2012oehy  -1.36500
gfz2012oozp  -1.27330
gfz2012pdav  -1.19930
gfz2012phns  -1.50750
gfz2012pmuj   0.31319
gfz2012pmws  -0.21466
gfz2012pumy  -0.81124
gfz2012pvve  -1.48730
gfz2012qfah  -0.00000
gfz2012qmhz   0.62747
gfz2012rzwp  -1.34990
gfz2012smyn   1.24370
gfz2012socz  -1.90540
gfz2012sqsc  -1.31980
gfz2012taph  -2.21410
gfz2012tisj  -1.36550
gfz2012uvoa  -1.75140
gfz2012uzww  -1.97530
gfz2012vitw  -1.22980
gfz2012wysg  -1.34130
gfz2012xkln  -1.64680
gfz2012xncm  -0.26659
gfz2012xrmq  -1.22250
gfz2012xxdj   3.04300
gfz2012zqis  -2.91100
gfz2013bwgw  -2.35540
gfz2013byyy  -2.21320
gfz2013cinv  -1.63700
gfz2013cvve   0.76984
gfz2013cyvx  -1.57480
gfz2013delq  -0.93713
gfz2013dftb  -1.06820
gfz2013dzvr  -2.22930
gfz2013efct  -1.38880
gfz2013eidd  -0.60387
gfz2013fndg  -1.88560
gfz2013fnpa  -1.17150
gfz2013gxye  -0.90236
gfz2013hbmi  -1.09060
gfz2013hqaa  -1.58110
gfz2013icql  -2.19930
gfz2013irme  -1.05310
gfz2013iuyv  -0.94636
gfz2013jfcn  -1.57800
gfz2013jhog  -1.23880
gfz2013jlli  -0.43924
gfz2013jobl  -1.57470
gfz2013jzcf  -0.27806
gfz2013kats  -1.81840
gfz2013kbbg  -2.01560
gfz2013kcdb  -1.57890
gfz2013kjgh  -0.48320
gfz2013kpcb  -2.61130
gfz2013kqab  -1.27770
gfz2013lbod  -0.94458
gfz2013lbvl  -1.52180
gfz2013lcrk   1.51440
gfz2013lgvf  -2.20260
gfz2013ljdu  -1.67810
gfz2013mdxj  -1.09930
gfz2013mimp   0.19019
gfz2013mzaw  -1.48130
gfz2013ntfc   1.03090
gfz2013oeni  -1.72010
gfz2013oizq  -3.47450
gfz2013okac  -1.53500
gfz2013phhi  -1.47470
gfz2013pkmz  -2.09440
gfz2013pqkp  -2.09180
gfz2013qoak  -0.49456
gfz2013quwz   0.50014
gfz2013quyn  -1.76590
gfz2013rocs  -1.60280
gfz2013rwkj  -2.38080
gfz2013syqp  -0.63862
gfz2013tdsx  -1.37030
gfz2013tgia  -1.14550
gfz2013tnrp  -1.52490
gfz2013udtw  -1.11140
gfz2013utqa  -0.83094
gfz2013vmrv  -1.37660
gfz2013vojy  -0.81771
gfz2013vwkh   0.79072
gfz2013wyfl  -1.07190
gfz2013xahp  -1.58780
gfz2013xmzw  -1.52450
gfz2013xswc  -2.00260
gfz2013yodm  -1.78450
gfz2013yqtu  -0.99566
gfz2013zfbz  -1.08970
gfz2013zlak  -0.20373
gfz2014aedl  -0.90337
gfz2014amgk  -2.33430
gfz2014bdju  -1.17300
gfz2014bqpm  -1.86800
gfz2014brkk   0.03853
gfz2014cjao  -1.32310
gfz2014ctdl  -1.56370
gfz2014cvnb  -0.96730
gfz2014dtth  -1.32350
gfz2014edjm  -1.01140
gfz2014eiav  -1.34590
gfz2014eoay  -1.40990
gfz2014fbnr  -1.40600
gfz2014fsir  -1.84210
gfz2014fsje  -2.36170
gfz2014fwxt  -1.34310
gfz2014fxte  -2.50930
gfz2014gnbw  -1.38920
gfz2014hkcw  -1.11910
gfz2014hqhv  -1.97590
gfz2014huah  -1.08320
gfz2014huqh  -0.72312
gfz2014hyea  -2.68380
gfz2014hzzf  -1.27310
gfz2014icov  -1.62290
gfz2014iltl  -1.78430
gfz2014irlf  -2.39340
gfz2014irln  -2.42470
gfz2014iusw  -1.89140
gfz2014jarg  -1.85690
gfz2014jayh  -1.20750
