# Nsamples: 272  MAD:  0.715  mean: -0.252  std:  1.089
gfz2010dtyx   0.63860
gfz2010dumv  -0.92840
gfz2010ewyj  -0.34968
gfz2010fjme  -1.98010
gfz2010fkff  -0.00667
gfz2010habf  -0.95201
gfz2010hueh  -0.94544
gfz2010iaay   0.13172
gfz2010jlvp  -0.23231
gfz2010jpkn  -1.11230
gfz2010jvsi   0.82396
gfz2010mdti   3.01400
gfz2010mpvc   0.15087
gfz2010mqaj   3.29810
gfz2010mqzz  -1.18010
gfz2010ncwu   1.18650
gfz2010ngge  -0.32982
gfz2010oibn   0.68868
gfz2010okpc   2.74790
gfz2010pclq  -1.35450
gfz2010pcya   2.85580
gfz2010pgpo  -0.26083
gfz2010pzza  -1.73440
gfz2010rhvu   0.11740
gfz2010rkuu  -0.93687
gfz2010rljv   0.52816
gfz2010rmua   2.97550
gfz2010rnwt   1.75550
gfz2010rpjd   1.00360
gfz2010schp  -0.68926
gfz2010scht  -0.19030
gfz2010sdfs  -1.00460
gfz2010swqy  -1.09410
gfz2010sylk   0.22259
gfz2010tmba  -0.61241
gfz2010tpcj  -0.36868
gfz2010tzlz  -0.21569
gfz2010tzma  -0.12172
gfz2010ugws   0.67871
gfz2010uhjy  -0.15200
gfz2010vong   0.16062
gfz2010wakc  -1.24200
gfz2010xnbn  -1.94000
gfz2010xpzq   0.79472
gfz2010yczp  -0.82589
gfz2010yfdr  -0.22247
gfz2010zjun  -0.79212
gfz2011ahvh  -1.55350
gfz2011amst   1.80860
gfz2011awsv  -1.00600
gfz2011bpqm  -0.55297
gfz2011bygs  -0.42700
gfz2011cdge  -0.11266
gfz2011chsa  -0.10556
gfz2011cjuz  -0.91105
gfz2011dabj   0.06607
gfz2011dhfg  -1.41220
gfz2011dpyu  -1.48250
gfz2011duvm   0.07132
gfz2011dwae  -0.61546
gfz2011exxq  -0.91331
gfz2011fbsl  -0.02196
gfz2011fnie  -0.06728
gfz2011gnbk  -0.70191
gfz2011gpyr   3.51180
gfz2011haaa  -0.92035
gfz2011hatg  -1.14700
gfz2011hibi   4.17490
gfz2011hjof  -0.43595
gfz2011hmnw  -0.30069
gfz2011hqjs  -0.76502
gfz2011hvzo   0.27698
gfz2011hyct  -0.10411
gfz2011iamf  -0.02454
gfz2011ibew   3.09760
gfz2011iryz  -0.76267
gfz2011ituo   0.40692
gfz2011jryv  -0.97705
gfz2011kylu   1.49990
gfz2011kyzy  -0.39884
gfz2011lmug  -0.79765
gfz2011lwmg  -0.34153
gfz2011mdyq   0.13324
gfz2011mjje  -1.26400
gfz2011mllb  -1.86570
gfz2011mror  -0.76133
gfz2011ndhh  -0.23601
gfz2011nhvt  -1.22700
gfz2011niuw  -1.32750
gfz2011nlum  -0.88363
gfz2011nnda  -0.42980
gfz2011nsiy  -0.54768
gfz2011nuqo  -0.35682
gfz2011ofpj  -1.14910
gfz2011ohgj  -1.30850
gfz2011okza  -1.59000
gfz2011omxt  -0.70681
gfz2011oslk  -1.00650
gfz2011owqa  -0.32359
gfz2011paqj  -1.05450
gfz2011pivq  -0.55096
gfz2011pmuv  -1.31550
gfz2011pphc   0.02709
gfz2011ppsc  -0.93722
gfz2011qukj   1.07340
gfz2011rkau   0.43116
gfz2011rnny  -0.44936
gfz2011rqut  -0.03662
gfz2011sdax  -1.06990
gfz2011sqco   1.62330
gfz2011tqgg  -0.65480
gfz2011tsgl   0.98001
gfz2011uqry  -0.67884
gfz2011vahy  -1.59790
gfz2011wucg  -0.68947
gfz2011zghc  -0.68599
gfz2012bovy  -0.65457
gfz2012bqcf  -1.33570
gfz2012cdju  -0.95000
gfz2012cntu  -0.88430
gfz2012cvfr  -0.56814
gfz2012dejg  -0.44686
gfz2012dtdt  -0.47343
gfz2012ekfp  -0.30262
gfz2012ekro   0.63352
gfz2012erds  -0.10551
gfz2012fyny  -0.12916
gfz2012gbrs   1.24110
gfz2012ghiv  -1.26690
gfz2012gjdg   2.64240
gfz2012hdny  -0.46214
gfz2012iijk   0.38877
gfz2012iphs   0.83274
gfz2012kmbo  -0.23397
gfz2012kmmz   1.87380
gfz2012kstg  -0.09021
gfz2012lwha   0.18284
gfz2012lyyr  -0.74465
gfz2012mdzf  -1.07480
gfz2012nmja   2.93470
gfz2012nqvd  -1.09530
gfz2012oafg  -0.93644
gfz2012oehy  -0.93834
gfz2012phns  -0.43624
gfz2012pmuj  -2.59300
gfz2012pvve  -0.18969
gfz2012qfah  -0.81043
gfz2012qmhz   0.90422
gfz2012rzwp  -1.40660
gfz2012smyn  -0.51067
gfz2012socz  -0.69385
gfz2012sqsc  -0.55434
gfz2012ssnb   3.18510
gfz2012suqd  -1.15590
gfz2012svwz  -0.57586
gfz2012sxpr   3.00730
gfz2012tisj  -0.18471
gfz2012trfq   0.60129
gfz2012uhtc  -0.52851
gfz2012uovh  -0.22402
gfz2012uvoa  -1.09710
gfz2012uzww  -1.17030
gfz2012vdra  -0.53045
gfz2012wgdv  -0.22434
gfz2012wgmg  -1.36300
gfz2012wysg  -1.92350
gfz2012xkln  -0.00000
gfz2012xncm   0.46436
gfz2012xqxw  -1.37400
gfz2012xxdj  -0.28199
gfz2013bwgw  -0.80428
gfz2013byyy  -0.41171
gfz2013cyvx  -0.33519
gfz2013delq  -1.79290
gfz2013djfi   2.83940
gfz2013dzvr  -1.14050
gfz2013efct  -0.25879
gfz2013enqo  -0.82920
gfz2013esef   0.73353
gfz2013fnpa  -1.23760
gfz2013fulo  -0.37758
gfz2013fvht   0.37083
gfz2013fvyr  -0.30431
gfz2013fxyr  -0.80019
gfz2013gglk  -2.14540
gfz2013hinw  -0.41075
gfz2013hqaa  -0.31341
gfz2013hwps   2.04380
gfz2013irme   0.06377
gfz2013iuyv  -0.06135
gfz2013jfcn  -0.13382
gfz2013jhog  -0.41092
gfz2013jlli  -0.38901
gfz2013kats  -0.83594
gfz2013kbbg  -0.54028
gfz2013kbbn  -1.85500
gfz2013kcdb   0.26846
gfz2013kdfy   0.59667
gfz2013kjgh   0.29092
gfz2013kpcb  -0.65241
gfz2013kqab  -0.99903
gfz2013kxlr   0.51216
gfz2013lbvl  -0.35919
gfz2013lcrk  -0.03288
gfz2013ljdu  -0.92447
gfz2013mdxj  -0.39034
gfz2013mzaw  -0.26243
gfz2013ntfc  -0.19206
gfz2013oeni  -0.26544
gfz2013oizq  -2.19550
gfz2013onvl  -0.67338
gfz2013orot  -1.84110
gfz2013osmj  -1.83660
gfz2013phhi  -0.79958
gfz2013pkmz  -0.55565
gfz2013pqkp   0.23693
gfz2013quwz   1.07270
gfz2013quyn  -0.26919
gfz2013rsyt  -0.07885
gfz2013rwkj  -1.22660
gfz2013ryfc  -0.14262
gfz2013sdkg  -0.53102
gfz2013skvq   0.07121
gfz2013stup  -0.00000
gfz2013taeb  -1.14560
gfz2013tdsx  -0.02224
gfz2013udtw  -0.29491
gfz2013upqj  -1.19540
gfz2013utqa   0.15761
gfz2013veug   3.11630
gfz2013vmrv   0.36275
gfz2013vnwa   1.36220
gfz2013vsdd   1.58080
gfz2013vvre  -0.56023
gfz2013wyfl  -0.37543
gfz2013xahp  -0.42098
gfz2013xmzw  -0.78966
gfz2013xofz  -1.63800
gfz2013xswc   0.78590
gfz2013yodm  -0.40950
gfz2013yqtu   0.29217
gfz2013yxhf  -0.06454
gfz2013zfbz  -0.22644
gfz2013zlak   0.06601
gfz2014amgk   0.40247
gfz2014bdju  -0.37249
gfz2014bqpm  -0.66125
gfz2014bzus  -1.45760
gfz2014cgxj  -1.76970
gfz2014cjao  -0.60136
gfz2014cokw  -0.62746
gfz2014cvnb  -0.13794
gfz2014fdhk  -0.44774
gfz2014fsir  -1.05250
gfz2014fsje  -0.96477
gfz2014fwxt  -0.15851
gfz2014fxte  -0.66966
gfz2014gnbw  -0.96724
gfz2014gnvp  -0.26577
gfz2014hkcw  -1.35190
gfz2014huah   0.32060
gfz2014huqh   0.42614
gfz2014hyea  -0.63762
gfz2014hzzf  -0.53883
gfz2014icov  -0.69563
gfz2014igrp  -0.08935
gfz2014iltl  -0.83958
gfz2014ined  -0.35761
gfz2014irlf  -0.98729
gfz2014iusw  -0.67765
gfz2014jarg  -0.64111
gfz2014jayh  -0.71212
