# Nsamples: 415  MAD:  0.673  mean:  0.073  std:  1.121
gfz2010cwrk   1.35610
gfz2010dmkd  -0.53612
gfz2010drit  -0.67922
gfz2010drun   0.24901
gfz2010faly   0.58278
gfz2010fgbo   1.07810
gfz2010fopf  -0.77578
gfz2010fxut  -1.40700
gfz2010gonu   0.58214
gfz2010gooc   0.44453
gfz2010gpjl   1.42840
gfz2010habf  -1.35940
gfz2010hesh   0.66266
gfz2010hllp   0.41632
gfz2010hnuo   0.60978
gfz2010hueh  -0.26137
gfz2010huzl   0.79733
gfz2010hxan   0.14303
gfz2010iaay  -0.42388
gfz2010iawy   0.51382
gfz2010ioad   0.24124
gfz2010jlvp  -0.77137
gfz2010kcyz   0.78222
gfz2010kzzm   3.49320
gfz2010mqzz   0.61932
gfz2010ngge   0.82361
gfz2010novb   2.22930
gfz2010nwbd   0.98070
gfz2010nwyk  -0.33145
gfz2010okpc  -1.41560
gfz2010pgpo   0.25778
gfz2010qrta   0.04689
gfz2010qzvf   0.69414
gfz2010rhvu  -1.16290
gfz2010rnwt  -0.00463
gfz2010sook  -3.22760
gfz2010tpcj  -0.26758
gfz2010tvit   0.16275
gfz2010tzlz   0.07353
gfz2010tzma  -0.20278
gfz2010ugws  -0.23506
gfz2010uhjy   0.63024
gfz2010upod   0.47163
gfz2010uraq   1.40270
gfz2010ussf   0.35047
gfz2010uyng   0.41842
gfz2010vhzx   0.23757
gfz2010vjac   0.20232
gfz2010vong  -0.36684
gfz2010vyri   1.08070
gfz2010wakc   0.54233
gfz2010wtin   1.02540
gfz2010wwnq   0.46153
gfz2010xezr   0.43925
gfz2010xjsv   0.48757
gfz2010xkbz   0.05578
gfz2010xnbn  -1.02990
gfz2010xpzq  -0.81781
gfz2010yczp   0.28578
gfz2010yfdr  -0.41563
gfz2010yhhj  -0.69136
gfz2010yrex   0.80987
gfz2010zaxv  -0.15290
gfz2010zjun  -0.58009
gfz2010zkle  -1.32420
gfz2011amst  -0.09513
gfz2011bqbx  -1.79240
gfz2011bsvr  -0.35997
gfz2011bvog  -0.16553
gfz2011bwsm  -0.42471
gfz2011byec   0.78037
gfz2011bygs  -0.60755
gfz2011bygu  -0.49422
gfz2011cdge  -1.01720
gfz2011cjuz  -0.26964
gfz2011cwzi   0.50877
gfz2011dabj  -0.17322
gfz2011duvm  -0.18256
gfz2011dwae   0.19842
gfz2011dzmf  -0.00813
gfz2011fnie  -0.87425
gfz2011fszl   0.17045
gfz2011fyfu   0.83175
gfz2011fzcw   0.60776
gfz2011gaax   0.06663
gfz2011gcct   0.37434
gfz2011ggnl  -0.99618
gfz2011ggsz   3.07030
gfz2011gkdx   0.92739
gfz2011gpyr  -0.03692
gfz2011gzde   0.29590
gfz2011haaa   0.72982
gfz2011hibi  -0.66606
gfz2011hjof  -0.23107
gfz2011hmnw   0.69833
gfz2011hyct   0.31785
gfz2011hyuh  -0.25876
gfz2011iamf   0.66988
gfz2011inan   0.26071
gfz2011ioch  -0.20799
gfz2011iryz   0.59371
gfz2011ituo  -0.34600
gfz2011jphj   0.32876
gfz2011jrgh   0.83635
gfz2011kjzt   0.34122
gfz2011kmge   1.25080
gfz2011kylu   0.15086
gfz2011lkkf  -0.50817
gfz2011lykm   3.56520
gfz2011mdyq  -0.00000
gfz2011mllb   0.39079
gfz2011nblt   0.64566
gfz2011ndki  -1.29000
gfz2011neai   1.03470
gfz2011nejg  -0.26265
gfz2011nejw  -2.80740
gfz2011nftw   0.57512
gfz2011nfww   0.39205
gfz2011nhvt  -1.59000
gfz2011nhwf  -0.08952
gfz2011niuw  -0.92619
gfz2011nivw   0.30932
gfz2011nkou   1.15290
gfz2011nlnl   0.54768
gfz2011nlum  -0.07639
gfz2011nnda   6.14110
gfz2011nnos  -0.37960
gfz2011nsiy  -0.68142
gfz2011nsrx   0.63926
gfz2011nuqo  -1.11100
gfz2011nyzk  -0.07668
gfz2011oadm   0.16862
gfz2011ofpj   1.45760
gfz2011osmp   0.13734
gfz2011owqa  -0.02505
gfz2011pcqr  -1.72600
gfz2011pdsn   0.36521
gfz2011pmuv   0.04575
gfz2011pphc  -0.41124
gfz2011pwbw   0.24602
gfz2011pwld   1.20680
gfz2011qenl  -0.59764
gfz2011qklh  -0.73002
gfz2011xwdv   0.39432
gfz2011yexx   1.21430
gfz2011ykbd  -0.23730
gfz2011ymji  -3.35170
gfz2011ytwk  -1.42510
gfz2011zghc  -0.05935
gfz2011zgxn   0.45388
gfz2011ziyk   1.63790
gfz2011zkbt  -0.74257
gfz2011znyq  -0.27055
gfz2012ahkl   1.50160
gfz2012amjx  -0.29670
gfz2012arlo   0.51022
gfz2012asin   4.71440
gfz2012avvc   0.55886
gfz2012beae   0.16406
gfz2012bolx  -0.50656
gfz2012byrq  -1.09350
gfz2012bysu   0.16229
gfz2012bytv  -0.30358
gfz2012byuk  -0.33979
gfz2012cdju   0.67917
gfz2012cfdw   0.64014
gfz2012cksh   0.35505
gfz2012cmww  -0.23242
gfz2012cntu   0.39936
gfz2012dejg   0.83269
gfz2012dleg   0.19135
gfz2012dpem   0.39509
gfz2012drld  -1.19790
gfz2012dtdt   0.39751
gfz2012dtlu   0.05959
gfz2012dugf   0.23385
gfz2012duwm   0.45527
gfz2012dwwu   0.43292
gfz2012dzot  -0.54436
gfz2012ebrr   1.72570
gfz2012eeft  -8.68960
gfz2012enrg  -0.94334
gfz2012eyti  -0.08529
gfz2012fcyq   0.42727
gfz2012fcyr   0.40432
gfz2012fhaf   0.34863
gfz2012fjiu   6.28020
gfz2012foih   0.72672
gfz2012fyny   0.66499
gfz2012ghiv   0.77794
gfz2012gjdg   0.72686
gfz2012gjtd  -3.05560
gfz2012gvxc   0.32155
gfz2012heih   0.28619
gfz2012hzur  -1.18820
gfz2012iijk  -0.26542
gfz2012iroy   1.02480
gfz2012iyoi   0.08775
gfz2012jlez  -0.09461
gfz2012jopi   2.91720
gfz2012kmbo  -0.17659
gfz2012kmmz  -0.78609
gfz2012kstg   0.87596
gfz2012kyhj   1.84240
gfz2012ldjj  -0.47269
gfz2012lqhw  -0.07052
gfz2012lvlr   0.45375
gfz2012lvxx  -0.71920
gfz2012lwha   0.44482
gfz2012mjuu  -0.15115
gfz2012moul  -3.05200
gfz2012movu   0.11229
gfz2012mowv   0.23727
gfz2012mrqk   0.26330
gfz2012mrwu  -0.00654
gfz2012mwhe   0.51759
gfz2012mxvk   0.60892
gfz2012mzco  -0.13452
gfz2012nldz  -1.40450
gfz2012nnqu  -0.20615
gfz2012nqvd  -0.42740
gfz2012nsxc   0.18935
gfz2012oehy  -0.30548
gfz2012ogqu  -1.24480
gfz2012onfs  -0.40119
gfz2012oork  -0.52481
gfz2012oozp  -0.79407
gfz2012pcui   0.74532
gfz2012pdav   0.78940
gfz2012pdfi   2.34940
gfz2012phns  -0.42062
gfz2012pifb  -0.04072
gfz2012pmuj  -0.02018
gfz2012pziw  -0.25920
gfz2012qbbt  -0.49829
gfz2012qfah   1.59160
gfz2012qfov  -0.55803
gfz2012qibe  -0.03999
gfz2012qmhz  -0.65729
gfz2012qpoc  -0.28851
gfz2012qvwy  -0.34113
gfz2012rjlp  -0.85195
gfz2012rknz  -0.52300
gfz2012rnbw   1.51410
gfz2012rnml  -0.06494
gfz2012rzwp   1.36360
gfz2012sbix   0.28827
gfz2012scuk  -0.23124
gfz2012sgfd  -0.92194
gfz2012socz  -0.42026
gfz2012sqsc   0.15358
gfz2012ssnb   3.83410
gfz2012suqd  -0.94343
gfz2012svwz  -0.36201
gfz2012syum  -0.05157
gfz2012tisj  -1.19040
gfz2012tjih  -1.13320
gfz2012tsdz   0.04696
gfz2012uegq   0.60207
gfz2012uhtc  -0.21764
gfz2012ukzg  -0.51440
gfz2012ulei  -1.12150
gfz2012uzww   0.10921
gfz2012vaqd   0.64781
gfz2012vcqw   0.83340
gfz2012vile  -0.27454
gfz2012wgmg   1.00900
gfz2012wjpf   1.21630
gfz2012wowu  -1.25680
gfz2012woxj   0.84294
gfz2012wysg  -0.25884
gfz2012xcsf   0.43206
gfz2012xfnu   0.23463
gfz2012xjgb  -0.37242
gfz2012xkln   0.40386
gfz2012xlas   0.35823
gfz2012xlfo  -0.17891
gfz2012xncm  -0.92666
gfz2012xqxw   0.91831
gfz2012xxdj   0.06183
gfz2012yegw  -0.14962
gfz2012yihn   0.17493
gfz2012yncm  -1.54670
gfz2012yytb   0.11616
gfz2012zhyz   0.49876
gfz2012zkhu  -1.00190
gfz2012zktj   3.33120
gfz2012zmdf  -0.25546
gfz2012zmfc  -0.62171
gfz2013atak   0.02227
gfz2013atec   0.45080
gfz2013aymi  -0.33961
gfz2013bwgw  -0.32987
gfz2013byyy   0.24960
gfz2013cokc  -0.07397
gfz2013cvve  -0.10086
gfz2013delq  -0.76668
gfz2013dftb   0.16064
gfz2013dfvx  -0.15001
gfz2013dngd  -0.43585
gfz2013dwsp   1.12890
gfz2013dzvr   0.00000
gfz2013efys   1.29430
gfz2013fmcp  -0.26577
gfz2013fnpa  -0.17726
gfz2013fwbm  -0.04374
gfz2013fybd  -0.08756
gfz2013gbma  -0.82080
gfz2013gsnl   0.26866
gfz2013gugi   0.19747
gfz2013gurk  -0.01015
gfz2013hduf   0.48371
gfz2013hjtt  -0.28486
gfz2013hqaa   0.26526
gfz2013hwps   2.68510
gfz2013irme   0.83276
gfz2013iuyv   0.03683
gfz2013jfcn  -0.53238
gfz2013jobl   1.03700
gfz2013jpir   0.45907
gfz2013jqsk   1.86520
gfz2013jtsg   0.02355
gfz2013kbbg  -0.71633
gfz2013kcdb  -0.95508
gfz2013kjgh  -0.35698
gfz2013kpcb   0.05407
gfz2013kqab   1.07430
gfz2013kxof  -0.03822
gfz2013ljdu  -0.93107
gfz2013mdnp  -1.38860
gfz2013mimp   0.78489
gfz2013mvgq  -0.57567
gfz2013mynb   0.14348
gfz2013mzaw  -0.32873
gfz2013oruq   1.22680
gfz2013oywh  -0.42362
gfz2013pqkp   0.76341
gfz2013pvsa  -0.52196
gfz2013qxof  -0.72205
gfz2013rfik  -0.14576
gfz2013rgcc   0.03234
gfz2013stou  -1.01170
gfz2013stup  -0.21520
gfz2013taeb  -1.14030
gfz2013trsq   0.18010
gfz2013twbc  -2.14790
gfz2013udtw   0.51281
gfz2013unuv  -0.70724
gfz2013upqj  -0.21313
gfz2013urla  -0.67799
gfz2013uwxb  -0.69769
gfz2013uxzw  -0.15054
gfz2013uzmf   0.62332
gfz2013vdam   0.90150
gfz2013veug   0.05302
gfz2013vjrr   0.09772
gfz2013vmsg  -1.76440
gfz2013vnwa  -0.80051
gfz2013voai  -0.00296
gfz2013vojy  -0.21012
gfz2013vsdd  -0.25396
gfz2013vzel  -0.16503
gfz2013wyfl  -0.60992
gfz2013xahp  -0.30642
gfz2013xjmo   0.40429
gfz2013xlic   1.50820
gfz2013xmzw  -0.43301
gfz2013yawe   0.40613
gfz2013ytfm  -0.13201
gfz2013yvpn   0.17746
gfz2013zedt   0.68119
gfz2013zfbz   0.04631
gfz2013zlak  -0.48009
gfz2013zpse   0.64625
gfz2014ayxf  -0.42253
gfz2014bdju   0.09040
gfz2014bkra   0.08288
gfz2014bmqw   0.34912
gfz2014cgxj   0.40895
gfz2014cncl   0.54508
gfz2014cokw   1.08580
gfz2014cwti  -1.17550
gfz2014dggw   0.34946
gfz2014diuu   0.24467
gfz2014dmrw   0.07563
gfz2014dutu   0.13720
gfz2014dykt   0.02966
gfz2014eirs   0.63430
gfz2014eysf   0.70182
gfz2014faex  -0.53024
gfz2014ffqg   0.96984
gfz2014fgbn   0.63894
gfz2014fjfz   2.94620
gfz2014flxk   0.26958
gfz2014fsir  -0.38603
gfz2014fsje   0.25184
gfz2014fskh   0.35089
gfz2014fxuy  -0.65449
gfz2014gbxg  -0.04529
gfz2014gnbw   0.02939
gfz2014gnvp  -0.04111
gfz2014gqxg   0.20526
gfz2014gsfc   0.33730
gfz2014gssz   0.43246
gfz2014gypw  -0.04045
gfz2014hapg  -2.95780
gfz2014huah   0.47706
gfz2014huqh  -0.87543
gfz2014hyea  -0.15251
gfz2014iaqm  -0.01228
gfz2014inrg   0.08117
gfz2014itlx  -3.23600
gfz2014iusw   0.25199
gfz2014ixlc   1.81450
gfz2014jayh  -0.03188
