# Nsamples: 264  MAD:  0.838  mean:  0.178  std:  1.105
gfz2010afyi   2.71920
gfz2010aggj   0.34500
gfz2010aseg   0.84011
gfz2010bnbr   2.65870
gfz2010bofe   0.89982
gfz2010btme   1.07020
gfz2010bukb   0.36650
gfz2010ccye  -0.52365
gfz2010colm  -0.21908
gfz2010cphq   1.56090
gfz2010cpig  -0.11325
gfz2010crgy  -0.61689
gfz2010crir  -0.16924
gfz2010cthm   0.33351
gfz2010djib  -0.92240
gfz2010dmkd   0.31704
gfz2010drit  -0.91040
gfz2010dtyx   1.17360
gfz2010ewyj   0.40171
gfz2010faly   0.23906
gfz2010fgbo   0.58474
gfz2010fvfz  -0.14132
gfz2010gonu  -0.10906
gfz2010habf  -0.09255
gfz2010hnuo   1.15140
gfz2010hueh  -0.22000
gfz2010huzl   0.66324
gfz2010hxan  -0.02154
gfz2010iaay  -0.39832
gfz2010ihef   2.02580
gfz2010inbs   2.79330
gfz2010jkrp   1.08430
gfz2010kcyz   0.39570
gfz2010kzzm  -1.37330
gfz2010mpvc   0.68407
gfz2010mqaj   0.73913
gfz2010mqzz  -0.45441
gfz2010mwmd  -8.35740
gfz2010mzfb   1.67890
gfz2010ngge  -0.33361
gfz2010nlai   1.76060
gfz2010nwbd   0.83910
gfz2010nwyk   0.40272
gfz2010okpc  -0.08152
gfz2010osrl  -0.00000
gfz2010pdip   2.14520
gfz2010pgpo  -1.08210
gfz2010pngv  -1.60940
gfz2010qdqk   0.20736
gfz2010qloa   0.26388
gfz2010qrta   0.35185
gfz2010qykh   0.65977
gfz2010qzvf   0.18995
gfz2010rhvu  -0.57516
gfz2010rkuu  -0.34439
gfz2010rnqa   1.61320
gfz2010rnwt   3.54010
gfz2010sdfs  -0.56286
gfz2010tcgh   0.25906
gfz2010tpcj  -0.92351
gfz2010tzlz   2.38210
gfz2010tzma  -0.52140
gfz2010ugws  -1.15640
gfz2010uhjy   0.52434
gfz2010vjac   0.98570
gfz2010vong  -0.07911
gfz2010vyri   0.66791
gfz2010wigk   0.97558
gfz2010xpzq  -0.69118
gfz2010yczp   1.17630
gfz2010yfdr  -0.30563
gfz2010zjun  -0.71194
gfz2011amst   1.58370
gfz2011aqpp   3.31620
gfz2011bsvr  -0.47567
gfz2011bvog  -1.52830
gfz2011byec   0.55029
gfz2011bygs   0.03054
gfz2011cdge  -1.15840
gfz2011cjuz   0.71459
gfz2011dabj  -0.16615
gfz2011duvm   1.32970
gfz2011dwae   1.36890
gfz2011exxq  -0.17967
gfz2011fnie  -1.27870
gfz2011fszl  -0.01779
gfz2011fzcw   1.59320
gfz2011gaax  -0.23840
gfz2011kjzt  -0.33084
gfz2011kylu   0.47388
gfz2011lywj   0.29941
gfz2011mjje  -0.37180
gfz2011mllb   0.23154
gfz2011mror   0.08012
gfz2011nblt   2.00090
gfz2011nejg   0.91375
gfz2011nfcz   0.09647
gfz2011nhvt   0.45533
gfz2011nijp   3.16070
gfz2011nkou  -3.77910
gfz2011nlnl   0.12394
gfz2011nlum  -1.38890
gfz2011nnos  -0.34152
gfz2011nsiy  -0.80288
gfz2011oadm  -0.22080
gfz2011okza   0.16177
gfz2011osmp  -0.08785
gfz2011owqa   0.35641
gfz2011paqj  -0.45558
gfz2011pivq   0.38607
gfz2011pphc  -0.75020
gfz2011prrq   1.44240
gfz2011ptgd   0.69717
gfz2011qenl  -0.63515
gfz2011qklh   2.97300
gfz2011qowe   0.20407
gfz2011qukj  -0.45879
gfz2011rkau   0.06695
gfz2011rnny  -0.61883
gfz2011rplo   0.40005
gfz2011scma  -0.49059
gfz2011sqco  -0.33670
gfz2011swfp   0.35199
gfz2011sxno  -0.06073
gfz2011szis  -0.31727
gfz2011tsgl  -0.53869
gfz2011wkyx  -0.40259
gfz2011yexx  -0.64104
gfz2011ykbd   0.12952
gfz2011zghc   0.26441
gfz2012ahkl   1.30370
gfz2012alti  -0.50709
gfz2012amjx  -0.82128
gfz2012amvs   0.27393
gfz2012arlo  -1.57430
gfz2012beae  -0.11746
gfz2012cdju  -0.60688
gfz2012cmww   0.08047
gfz2012cntu   1.23980
gfz2012dbgt   0.81876
gfz2012dejg   0.78224
gfz2012dleg   2.63660
gfz2012dtdt   0.74680
gfz2012dwwu  -0.97777
gfz2012dysu  -1.30090
gfz2012dzot   0.38722
gfz2012evav   0.10520
gfz2012eyti  -0.48604
gfz2012fhaf   1.22880
gfz2012foih   1.23290
gfz2012fyny   0.30521
gfz2012gjtd  -0.18688
gfz2012gmsr  -0.55851
gfz2012hzur   1.04050
gfz2012jopi   1.23780
gfz2012jxxe  -0.41182
gfz2012kmbo   0.43972
gfz2012kmmz  -0.75273
gfz2012ldjj  -0.40558
gfz2012lqhw   0.74487
gfz2012lvxx   0.89308
gfz2012lyyr   0.65517
gfz2012mnth   0.08572
gfz2012moul   1.44110
gfz2012mout  -1.30520
gfz2012movu  -0.02388
gfz2012movv   1.04210
gfz2012mrqk  -0.17167
gfz2012mwhe   2.12660
gfz2012mxvk   0.32521
gfz2012nnqu   0.15519
gfz2012nqvd  -0.00000
gfz2012nsxc  -0.34595
gfz2012oehy   0.15153
gfz2012ogqu  -0.47896
gfz2012onfs   2.57510
gfz2012oork  -0.81014
gfz2012phns  -0.90728
gfz2012pmuj   0.33153
gfz2012pvve  -0.74129
gfz2012qbbt  -0.09947
gfz2012qfov  -0.34748
gfz2012qmhz  -0.59301
gfz2012qpoc  -0.14627
gfz2012rzwp   0.25635
gfz2012socz   0.50772
gfz2012ssnb   0.74184
gfz2012suqd  -0.68290
gfz2012svwz  -0.64430
gfz2012tisj   2.94540
gfz2012uegq  -1.49360
gfz2012uhtc  -0.55284
gfz2012ukzg   1.10460
gfz2012wowu  -0.97568
gfz2012xncm  -0.38200
gfz2012xwgb  -0.32576
gfz2012xwkx   2.07580
gfz2012xxdj   0.34927
gfz2012yegw  -0.00000
gfz2012yncm  -0.23076
gfz2013adih   0.37791
gfz2013bwgw  -0.21215
gfz2013cokc   0.24085
gfz2013ddrx  -0.67428
gfz2013dftb   0.31128
gfz2013dngd   0.02046
gfz2013dwsp   0.61807
gfz2013dzvr  -0.59597
gfz2013eidd  -0.45343
gfz2013fnpa  -0.04501
gfz2013fwbm  -0.25104
gfz2013fybd  -0.28726
gfz2013gsnl   0.19097
gfz2013gurk  -0.68951
gfz2013gyce  -0.20733
gfz2013hduf   0.62732
gfz2013hjtt   1.31440
gfz2013irme   1.05540
gfz2013iwzn  -0.02804
gfz2013kbbg   0.35522
gfz2013kcdb  -0.53587
gfz2013kqab   0.48409
gfz2013ljdu   0.14308
gfz2013mimp   0.73991
gfz2013mvgq  -0.52777
gfz2013mzaw  -0.05360
gfz2013pvsa  -0.10717
gfz2013qxof   0.23840
gfz2013taeb  -0.61643
gfz2013tert  -0.56420
gfz2013upqj   1.06440
gfz2013uzmf   0.23469
gfz2013vjrr   1.29050
gfz2013vmsg  -0.45915
gfz2013vnwa   0.25449
gfz2013vsdd   1.97480
gfz2013xahp  -0.56495
gfz2013xmzw  -0.10943
gfz2013xvps   0.02637
gfz2013yawe  -0.07932
gfz2013zfbz  -0.69643
gfz2013zlak  -0.62413
gfz2013zpse   0.47582
gfz2014ayxf  -0.10909
gfz2014bdju   1.18030
gfz2014bkra   0.31280
gfz2014bmqw   1.89210
gfz2014bumr   0.74734
gfz2014eirs   0.88520
gfz2014epnq  -1.01710
gfz2014etqu  -0.03037
gfz2014eysf  -0.21096
gfz2014flxk   0.24859
gfz2014fsje   0.59356
gfz2014fxuy  -0.75391
gfz2014gnbw   0.14695
gfz2014gnvp   0.35760
gfz2014gsfc  -1.81340
gfz2014gssz  -0.32222
gfz2014huqh  -0.79151
gfz2014iaqm   0.83574
gfz2014ijsa   0.81078
gfz2014iusw   0.20749
gfz2014jayh   0.04818
