# Nsamples: 145  MAD:  0.703  mean:  0.792  variance:  0.786
gfz2010bjeb   0.90960
gfz2010bowy   1.18190
gfz2010cqwl  -0.11530
gfz2010czps   2.40350
gfz2010dlgc   0.10990
gfz2010eaoy   0.65580
gfz2010eapk   0.51770
gfz2010eaqe   0.61080
gfz2010eaqx  -0.37370
gfz2010eaqy   0.69350
gfz2010earq  -0.14110
gfz2010earu  -0.69450
gfz2010easf   1.36650
gfz2010easo   0.98500
gfz2010easu   0.53210
gfz2010eati   0.87100
gfz2010eaul   2.70190
gfz2010eavd   0.52860
gfz2010eavs   1.01800
gfz2010eawb   0.52110
gfz2010eawu  -0.51240
gfz2010eaxa   1.11970
gfz2010eaxn   0.49700
gfz2010eayd   0.97000
gfz2010eayp  -0.49000
gfz2010eaze   1.40880
gfz2010eazu   1.16850
gfz2010ebbd   0.33380
gfz2010ebbx   0.29150
gfz2010ebby  -1.04700
gfz2010ebdl  -0.02940
gfz2010ebeh   0.83060
gfz2010ebfa   0.21010
gfz2010ebgj  -0.63660
gfz2010ebhc   0.50240
gfz2010ebih   0.83230
gfz2010ebin   0.88140
gfz2010ebiv  -0.20910
gfz2010ebjg   1.70060
gfz2010ebjy  -0.06240
gfz2010ebkj   0.16120
gfz2010ebla   1.54210
gfz2010ebll   1.72830
gfz2010ebmb   0.27280
gfz2010ebmi   2.01100
gfz2010ebnn   1.08360
gfz2010ebqt  -0.06650
gfz2010ebrm   1.53610
gfz2010ebsv   0.57770
gfz2010ebvm   0.48390
gfz2010ebwp   0.87170
gfz2010ebxl   0.88430
gfz2010ebzr   1.17660
gfz2010ecam   1.32240
gfz2010ecay   0.20900
gfz2010ehsy   0.61590
gfz2010eiqi  -0.48340
gfz2010eisx  -2.48530
gfz2010eixj   0.52190
gfz2010ejjg  -0.37630
gfz2010ekoe   1.06090
gfz2010ekrv  -0.19640
gfz2010ensu   0.83970
gfz2010eoao   0.67860
gfz2010eomb   1.50890
gfz2010epbe   4.61510
gfz2010eujm  -1.22220
gfz2010gyqp   0.80780
gfz2010gzxr  -0.34140
gfz2010hgld   0.96380
gfz2010hlln   1.30800
gfz2010hlmq   0.94490
gfz2010hnnf   1.50410
gfz2010hnpi   1.07040
gfz2010hptz   0.64910
gfz2010hxgv   0.83810
gfz2010icqq   0.52380
gfz2010iibf   2.51000
gfz2010iobp   1.67850
gfz2010iqnm   0.94080
gfz2010iull   1.27570
gfz2010jpss   0.70360
gfz2010jpyj   0.58200
gfz2010jssh  -0.15880
gfz2010jtal   1.16980
gfz2010jxbm   1.22630
gfz2010kdyc   0.94590
gfz2010mgss   0.27770
gfz2010mncc  -0.21990
gfz2010moyw   0.62010
gfz2010mpuy   0.55920
gfz2010muca   1.12920
gfz2010mwdq   0.20970
gfz2010ncrl   0.33950
gfz2010nfsj   1.37360
gfz2010nmpc   0.51520
gfz2010nqwf   0.13510
gfz2010nqwo   1.64960
gfz2010nrjo  -0.46990
gfz2010nsck   1.41580
gfz2010nwef   1.22430
gfz2010nzha   1.02090
gfz2010pxgh   2.17770
gfz2010qpvi   0.64980
gfz2010rqwj  -0.57510
gfz2010rywq   0.91570
gfz2010srdb   0.87580
gfz2010svtn   0.96580
gfz2010tcrl   0.68980
gfz2010upfb  -0.00000
gfz2010upiw   1.61570
gfz2010usho   0.18690
gfz2010ustq   1.56830
gfz2010utcg   0.49450
gfz2010utmc   2.02590
gfz2010veri   0.28330
gfz2010xgzw   1.95080
gfz2010xjsj   0.18130
gfz2010xxzn   3.21810
gfz2010yjev   1.26870
gfz2010yosr   1.27430
gfz2011tbas   0.72890
gfz2011toub   1.20790
gfz2011tpbl   0.75410
gfz2011ueni   0.43070
gfz2011vhfi   1.69380
gfz2011wtmq  -0.15730
gfz2011xyxj   2.85870
gfz2012ajtq   1.74250
gfz2012attr   0.38330
gfz2012bfah   1.49650
gfz2012bpkx   0.67550
gfz2012cxdn   0.84050
gfz2012ekzf   1.49580
gfz2012enno   1.25230
gfz2012hnul   1.94330
gfz2012ilvn   1.36580
gfz2012keor   0.60040
gfz2012kkup   0.60490
gfz2012klhx   0.87800
gfz2012thfx   0.50500
gfz2014czua   0.06130
gfz2014ffdc   2.99430
gfz2014fgvz  -0.53100
gfz2014ubwn   1.46580
