# Nsamples: 214  MAD:  0.686  mean:  1.272  variance:  0.707
gfz2010eazu  -0.87680
gfz2010eccq   2.55990
gfz2010edde  -1.45880
gfz2010eutw   1.02280
gfz2010exdl  -2.31270
gfz2010fupn   1.85490
gfz2010kjmp  -0.01940
gfz2010mwdq   0.59130
gfz2010ncrl   0.63020
gfz2010nmpc   0.84860
gfz2010nqwf   1.40860
gfz2010nqwo   0.82670
gfz2010nrjo   1.46490
gfz2010nsck   0.17620
gfz2010nxsy   0.57510
gfz2010ocxq   0.15040
gfz2010pxgh   3.41300
gfz2010qpvi   0.59620
gfz2010qwwx   0.35750
gfz2010rhas   0.26470
gfz2010rkfp   1.82620
gfz2010rqwj  -0.09560
gfz2010rywq   1.16120
gfz2010sfee   0.83270
gfz2010srdb   0.79330
gfz2010svtn   1.52660
gfz2010szim   0.34240
gfz2010tcrl   1.83620
gfz2010upfb   1.16840
gfz2010usho   1.33630
gfz2010ustq   1.71990
gfz2010utcg   0.81990
gfz2010vtdg   4.12860
gfz2010vzzz   0.46240
gfz2010wrxx   2.07590
gfz2010xgzw   1.54400
gfz2010xjck   0.60870
gfz2010yjev   1.32230
gfz2010yosr   1.13090
gfz2011cndo   1.03930
gfz2011csju   1.00140
gfz2011cvcg   0.54570
gfz2011cvfg   1.97390
gfz2011cykd   0.18750
gfz2011cynl   1.55400
gfz2011cyre   1.09060
gfz2011cyuk   0.76390
gfz2011dbev   0.59520
gfz2011dbig   0.95050
gfz2011dbon   1.23840
gfz2011dbwt   0.48340
gfz2011dcqb   2.80130
gfz2011dcqf   0.94850
gfz2011deaf   2.54790
gfz2011dkyi   1.52120
gfz2011dpqx   1.24370
gfz2011ehzq   1.14170
gfz2011eiis   1.01610
gfz2011enva   0.43370
gfz2011etje   0.99630
gfz2011fgvr   1.33410
gfz2011fnsw   1.35490
gfz2011gbmx   1.37050
gfz2011gjlx   1.21760
gfz2011gkzt   0.50790
gfz2011haid   2.08480
gfz2011hfkj   1.01640
gfz2011hlqw   0.97420
gfz2011hlsa   1.03100
gfz2011hlth   1.66520
gfz2011hpqp   1.27280
gfz2011hvbu   1.66650
gfz2011jplh   0.65300
gfz2011jtlg   1.55360
gfz2011kqwo   0.80620
gfz2011kqyg   2.04220
gfz2011kwld   1.67600
gfz2011kxzp   0.69550
gfz2011lcxq   2.30970
gfz2011lzwj   1.42050
gfz2011mdie   1.68960
gfz2011mpme   1.23350
gfz2011nmnq   2.65610
gfz2011nrwc   2.50880
gfz2011nrwv   0.52270
gfz2011ntkh   1.79160
gfz2011nudm   0.80710
gfz2011olkk   1.28900
gfz2011orgn   1.47940
gfz2011ornx   1.34680
gfz2011owvz   1.00890
gfz2011rewa   0.95710
gfz2011rgwp   0.13540
gfz2011rqui   1.92160
gfz2011sagt   1.45560
gfz2011tbas   1.21430
gfz2011tcij   1.26520
gfz2011toub   1.63560
gfz2011tpbl   1.49540
gfz2011ueni  -0.18480
gfz2011vhfi   1.70890
gfz2011vnza   1.56990
gfz2011vxns   0.88790
gfz2011vxod   1.24400
gfz2011wxfs   1.31870
gfz2011wxtk   2.11430
gfz2011xyxj   1.89790
gfz2011zklv   1.42820
gfz2012aqgp   1.96460
gfz2012attr   0.32540
gfz2012bfah   1.76020
gfz2012bpkx   0.93270
gfz2012cxdn   1.12730
gfz2012ekda   0.93290
gfz2012fivh   1.61800
gfz2012hnul   2.35830
gfz2012hnuw   1.96590
gfz2012ihdl   0.76480
gfz2012ilvn   0.66900
gfz2012jgvj   0.54990
gfz2012jlox   1.73670
gfz2012jpgs   1.38940
gfz2012jupx   1.37830
gfz2012keor   0.84300
gfz2012kkcp   1.89460
gfz2012kkup   0.92770
gfz2012klhx   1.19400
gfz2012kuct  -0.00000
gfz2012kudo   0.73180
gfz2012kwgo   4.63140
gfz2012lczo   1.31750
gfz2012ldxg   1.90520
gfz2012lxkv   1.51140
gfz2012nkdf   0.15810
gfz2012oazn   1.05710
gfz2012obgw   0.01740
gfz2012pciw   0.92380
gfz2012rwov   1.72850
gfz2012sphd   1.73570
gfz2012teic   1.01530
gfz2012thfx   1.33080
gfz2012tvmv   0.55740
gfz2012tzcc   1.81680
gfz2012uafg   1.45390
gfz2012uaqj   0.70580
gfz2012vrgb   2.56130
gfz2012wklq   0.15840
gfz2012wmkd   1.86490
gfz2012wvfl   2.41130
gfz2012wxlg   1.67340
gfz2012wypz   1.33420
gfz2012zemz   0.25090
gfz2012zfag   2.57280
gfz2012zitl   1.01240
gfz2012zjpv   2.60830
gfz2013ccnr   1.22920
gfz2013cvqg   0.90800
gfz2013cwpn   1.99340
gfz2013dkly   1.97200
gfz2013dnnx   1.38120
gfz2013dofo   0.41960
gfz2013drxz   0.67090
gfz2013fiud   1.14640
gfz2013fkii   2.90970
gfz2013gbcn   1.18380
gfz2013gdnq   1.18700
gfz2013goux  -0.35600
gfz2013hfmp   0.80330
gfz2013hisv   0.16940
gfz2013idbb   1.14760
gfz2013ikgo   0.87270
gfz2013iunn   0.61860
gfz2013jdrx   1.10850
gfz2013jesk   0.85470
gfz2013jgij   1.42250
gfz2013jgip   1.56250
gfz2013jkut   2.43390
gfz2013jwvc   1.22020
gfz2013kdeo   1.78080
gfz2013lixa   1.29100
gfz2013lxyn   2.69060
gfz2013lyko   1.52440
gfz2013mqmv   2.51890
gfz2013ngnt   0.74980
gfz2013nkgj   2.00490
gfz2013nnzf   1.74090
gfz2013nvdj   0.92990
gfz2013nwdi   2.28030
gfz2013ogde   0.44670
gfz2013pfbx   1.63120
gfz2013pxsj   2.19710
gfz2013qmer   2.98260
gfz2013sdus   2.04320
gfz2013suvn   0.82430
gfz2013svci   0.80620
gfz2013tcxc   2.28360
gfz2013tlaf   1.32910
gfz2013toea   0.64000
gfz2013twwf   4.44070
gfz2013uauo   1.16480
gfz2014ande   1.89400
gfz2014arpf   1.37630
gfz2014bfng   1.83260
gfz2014bldx   1.17450
gfz2014bwue   1.21140
gfz2014bzxy   1.27790
gfz2014cbtl   0.19930
gfz2014hjgr   2.23330
gfz2014hzfw   1.22970
gfz2014hzhe   0.03790
gfz2014ubwn   1.68140
gfz2014watn   2.03620
gfz2014xjri   0.63290
gfz2014yhhm   1.19020
