# Nsamples: 45  MAD:  0.488  mean: -0.913  variance:  0.652
gfz2010bxxs  -0.69920
gfz2010cqwl   0.47320
gfz2010ebhc  -1.67470
gfz2010grjd   0.07510
gfz2010iull  -0.52830
gfz2010nmpc  -0.63610
gfz2011aatr  -0.82750
gfz2011enva  -0.42600
gfz2011hlqw  -0.70090
gfz2011hlsa  -0.86210
gfz2011lcxq  -0.57810
gfz2011lzwj  -0.34680
gfz2011rewa  -0.52930
gfz2011toub  -0.84650
gfz2011wxfs  -0.89650
gfz2012enno  -0.67750
gfz2012jlox  -0.82710
gfz2012kkup  -1.02640
gfz2012klhx  -1.01060
gfz2012kudo  -1.30130
gfz2012ldxg  -0.42580
gfz2012ttoa   0.37610
gfz2012wypz  -0.76800
gfz2013jkut  -2.08690
gfz2013kdeo  -2.74890
gfz2013pfbx  -2.91750
gfz2014ande  -1.29380
gfz2014bwue  -0.81560
gfz2014fgvi  -0.01360
gfz2014fhla  -0.88870
gfz2014ftka  -1.15640
gfz2014gkgf  -1.80130
gfz2014gkhy  -1.10770
gfz2014gkqf  -0.39350
gfz2014gmge  -0.22190
gfz2014gmhr   1.02720
gfz2014gmnb  -1.49250
gfz2014gmnw  -1.40950
gfz2014goba  -0.36130
gfz2014hasj  -2.10740
gfz2014jpep  -3.13980
gfz2014nqfm  -0.99460
gfz2014ssvz  -0.54940
gfz2015fsjj  -1.04880
gfz2015lhjy  -0.87930
