# Nsamples: 866  MAD:  1.002  mean: -0.419  variance:  4.541
gfz2012mkpn  -0.32010
gfz2012mlyf  -1.16280
gfz2012mofm   0.63300
gfz2012mpvy  -0.05100
gfz2012mpyl   0.58560
gfz2012mtiu  -1.87640
gfz2012nben   0.41380
gfz2012nbtn   1.42840
gfz2012nzpz  -0.09500
gfz2012obgw  -0.75730
gfz2012obnq   0.14500
gfz2012oedb  -1.52040
gfz2012ofpe   3.30730
gfz2012omvo  -0.13070
gfz2012oycg  -1.71870
gfz2012pazr   0.24400
gfz2012peex  -1.87040
gfz2012pkel   0.33600
gfz2012pofl  -1.63930
gfz2012poju  -0.09030
gfz2012pqlt   1.08440
gfz2012pqmu   3.35120
gfz2012priv  -0.38140
gfz2012pygp  -0.06940
gfz2012qjhs  -0.41170
gfz2012qouy  -0.61620
gfz2012qqxg   0.20140
gfz2012qtgs  -1.32070
gfz2012qurq  -0.46410
gfz2012quso  -0.58240
gfz2012qxcy   0.76970
gfz2012rats   1.04300
gfz2012rboy   1.43680
gfz2012rcbq  -0.66140
gfz2012rcnj  -0.11620
gfz2012repv   0.75870
gfz2012rjsd   0.36030
gfz2012rknn  -0.40270
gfz2012royy   3.36310
gfz2012rqlg   1.14260
gfz2012rubi  -0.00000
gfz2012rwko  -3.47210
gfz2012rwov   2.11480
gfz2012rwql  -1.55550
gfz2012rypu   0.13530
gfz2012shtg  -0.87590
gfz2012sjea   0.99790
gfz2012snhi   0.46290
gfz2012spbj   0.78910
gfz2012sphd  -1.52570
gfz2012vmeh   0.29010
gfz2012vnbk   0.31620
gfz2012vwvd   0.07250
gfz2012wecd  -0.13590
gfz2012wizz   1.21570
gfz2012wklq  -2.13720
gfz2012wmkd   0.80220
gfz2012wmsg  -4.83160
gfz2012wrir  -0.63930
gfz2012wtkr   0.27710
gfz2012wvfl   0.37930
gfz2012wxer   0.52740
gfz2012wxkg  -1.49600
gfz2012wxlg   1.12170
gfz2012wxnt   0.48410
gfz2012wybs  -0.30730
gfz2012wypz  -0.63090
gfz2012xbjq  -1.11380
gfz2012xdna  29.19760
gfz2012xhci   2.63060
gfz2012xjyv  -0.41890
gfz2012xkkv   6.02970
gfz2012xslk  -0.10920
gfz2012xwqa  -0.04810
gfz2012xyqp  -0.30020
gfz2012xyua  -4.68800
gfz2012yfrp  -1.58020
gfz2012yldu  -0.23030
gfz2012yqjj  -0.99110
gfz2012yxxu  -0.31430
gfz2012zemh   0.84640
gfz2012zfag  -0.66690
gfz2012zitl  -0.04150
gfz2012zjpv  -0.32560
gfz2012zjre   0.14360
gfz2012zklq   0.18320
gfz2012zmbp   0.47980
gfz2012zmln  -2.09000
gfz2013aknp   0.11780
gfz2013apmm  -3.50740
gfz2013bobq  -3.04080
gfz2013bokp   0.49930
gfz2013bouj  -0.10700
gfz2013btjm  -2.04070
gfz2013ccnr  -1.70210
gfz2013cdfj   1.09260
gfz2013cfyy  -0.23670
gfz2013cnhh   0.05580
gfz2013cnve   0.32750
gfz2013comh  -0.67060
gfz2013cvad  -0.26400
gfz2013cvqg  -0.32730
gfz2013cwpn   1.22500
gfz2013cwps   2.11080
gfz2013ddbh  -1.75330
gfz2013dddp  -4.48200
gfz2013dfhb  -0.01660
gfz2013dofo  -1.08270
gfz2013dqls  -3.85630
gfz2013drpk   0.21870
gfz2013drxz  -0.19610
gfz2013dspt  -0.52940
gfz2013dvye  -0.20270
gfz2013dyop   0.50860
gfz2013enbx   1.18690
gfz2013eswe  -0.11740
gfz2013eulz   0.04390
gfz2013fdoo  -0.31870
gfz2013feep  -0.60630
gfz2013fepm  -0.76990
gfz2013figy   0.42810
gfz2013fiud  -1.19910
gfz2013fkii   2.95690
gfz2013flox   0.56640
gfz2013fnzr  -0.42600
gfz2013fwxa  -3.84360
gfz2013fygc  -3.48930
gfz2013gbcn  -0.46780
gfz2013gcfx  -1.87960
gfz2013gdgf  -0.52200
gfz2013gdnq  -0.42920
gfz2013geia  -1.93020
gfz2013gelv  -0.00000
gfz2013geno  -0.73180
gfz2013glcr   0.30680
gfz2013gngz  -1.54760
gfz2013gock  -0.81910
gfz2013goux   0.61700
gfz2013govy  -3.97570
gfz2013gvet  -1.89120
gfz2013gvex   0.24870
gfz2013gvxh  -0.00590
gfz2013gwrd  -0.03480
gfz2013hbkh  -0.78520
gfz2013hdnc   0.22830
gfz2013hfmp  -0.53180
gfz2013hisv   0.55560
gfz2013hkja   0.90910
gfz2013hklr   0.13940
gfz2013hlbe  -0.86880
gfz2013hmbc   1.32130
gfz2013hsfw   1.37890
gfz2013hzdp  -0.11810
gfz2013iayx   0.37030
gfz2013iexo  -0.47320
gfz2013ifpq   0.82020
gfz2013ijsr  -0.73320
gfz2013ikgo   0.27650
gfz2013ilug   0.20310
gfz2013inux  -0.93170
gfz2013iodt  -1.54740
gfz2013iqzq  -0.70910
gfz2013itsu  -0.25710
gfz2013iunn  -0.60090
gfz2013iyqz  -1.49020
gfz2013jdrx  -1.24220
gfz2013jesk  -0.79320
gfz2013jgij  -4.53130
gfz2013jgip   1.84390
gfz2013jjsi  -0.16590
gfz2013jkut  -0.34760
gfz2013jlst  -4.34970
gfz2013jusj  -1.42690
gfz2013jwcn  -0.13750
gfz2013kccc  -1.02790
gfz2013kdeo  -1.79130
gfz2013kgmj  -0.27810
gfz2013kheb   0.59480
gfz2013khli  -1.37860
gfz2013kkzr  -0.39390
gfz2013kqln   1.46110
gfz2013krei   2.33180
gfz2013kvtk   1.34600
gfz2013lajn   0.56220
gfz2013lbiu   0.66500
gfz2013ldqb  -3.39800
gfz2013lgbb  -1.63770
gfz2013lgnl  -0.17990
gfz2013lgxc  -0.06780
gfz2013lixa  -3.10090
gfz2013lmqe  -0.01010
gfz2013lmrs  -2.24500
gfz2013lwbk  -2.63720
gfz2013lxyn  -0.05240
gfz2013lyko   0.62920
gfz2013malg  -0.37240
gfz2013mded  -0.64430
gfz2013mnei  -0.13910
gfz2013mnju  -1.42140
gfz2013mqmv   0.06420
gfz2013mtqd  -1.17290
gfz2013mvgr  -1.24500
gfz2013mzwe  -0.32550
gfz2013nabl  -1.91580
gfz2013ncjp  -3.85580
gfz2013neuc  -0.56460
gfz2013ngnt   1.04730
gfz2013nhjb  -0.17540
gfz2013nixj  -1.10120
gfz2013nknw  -0.30080
gfz2013nlxz  -1.44890
gfz2013nmac  -2.19410
gfz2013nppd  -1.01110
gfz2013nqgw  -0.41290
gfz2013nuor  -0.15620
gfz2013nuvi   0.25320
gfz2013nvdj  -1.57740
gfz2013nwdi  -4.06900
gfz2013ogde   1.10780
gfz2013oqsc  -1.13320
gfz2013orjg  -1.22270
gfz2013ornz   0.40500
gfz2013ozku   0.36650
gfz2013oznn  -3.25070
gfz2013ozqm  -0.02790
gfz2013ozrp   0.86880
gfz2013pcos  -3.52170
gfz2013pfeb   0.09330
gfz2013phef  -0.77220
gfz2013pkbs  -0.32940
gfz2013pqui  -3.65410
gfz2013puag  -1.06820
gfz2013pxsj   3.29680
gfz2013pxtx  -1.01890
gfz2013qali  -0.63970
gfz2013qbca  -0.80000
gfz2013qesa  -1.82100
gfz2013qidm  -0.27870
gfz2013qmer  -6.08230
gfz2013qnxc  -0.72390
gfz2013qzdq  -0.25560
gfz2013rait   0.37110
gfz2013rdoo   0.98670
gfz2013roki   0.60500
gfz2013rqcy  -0.14960
gfz2013rrza   0.09540
gfz2013saez  -1.22360
gfz2013sart  -0.00000
gfz2013scai  -0.14650
gfz2013sdus  -0.28160
gfz2013sebq  -1.51710
gfz2013sfto  -1.60940
gfz2013shlq  -1.29430
gfz2013shzy  -0.98030
gfz2013sjhg  -1.41110
gfz2013snbr  -0.57550
gfz2013snyf  -2.74140
gfz2013sred   0.85010
gfz2013stht  -0.96180
gfz2013svci  -0.77600
gfz2013svqv  -0.89700
gfz2013sxbw  -2.86910
gfz2013syqk  -0.54230
gfz2013tbzy   1.03060
gfz2013tcbk   1.22000
gfz2013tcxc   0.19090
gfz2013tcxq   0.70090
gfz2013tdau   0.72030
gfz2013tlaf  -0.72750
gfz2013toea  -2.83070
gfz2013toxf   0.06230
gfz2013tqbb  -0.28140
gfz2013ttoz  -1.03890
gfz2013tvmw  -1.39280
gfz2013twwf   0.99400
gfz2013txev  -0.23010
gfz2013txtb  -0.19200
gfz2013uauo   0.02680
gfz2013ufku   0.01480
gfz2013ufxk  -1.47050
gfz2013uqsp  -0.00000
gfz2013utsh  -3.40220
gfz2013uuzn  -0.62160
gfz2013vdic  -0.34930
gfz2013vefs  -0.08570
gfz2013vfyw   0.96830
gfz2013vfzp  -0.35130
gfz2013vgev   0.68300
gfz2013vgpf   1.27010
gfz2013vhnk  -0.10910
gfz2013vhzu  -0.90180
gfz2013vjfe   0.24730
gfz2013vjjc  -0.03480
gfz2013vjod   0.15140
gfz2013vmro  -3.26300
gfz2013vpnf  -0.85220
gfz2013vqot  -0.81490
gfz2013vrmy  -4.23560
gfz2013vsbl   0.86810
gfz2013vthd  -1.81210
gfz2013vvjh   0.01680
gfz2013vxta  -0.14590
gfz2013vzbo   2.58370
gfz2013waam   0.26260
gfz2013wgeu  -3.43720
gfz2013wjmm   4.44240
gfz2013wkyk  -0.71650
gfz2013wmfd   0.76690
gfz2013wpga  -0.69910
gfz2013wrgw  -0.86670
gfz2013wtzl  -3.04560
gfz2013wwii   0.10870
gfz2013xizq   4.89700
gfz2013xkbh   1.47280
gfz2013xklb  -0.67100
gfz2013xmqg  -1.26350
gfz2013xmul  -0.35270
gfz2013xpfa  -2.66200
gfz2013xqnn  -3.07610
gfz2013xsdt  -3.81120
gfz2013xvqd   1.83040
gfz2013xvxf  -0.91730
gfz2013xvyl   0.96280
gfz2013xwda   0.83910
gfz2013xwxn  -0.10190
gfz2013xwzd  -0.00000
gfz2013xxcc  -0.23690
gfz2013xxwv   0.02910
gfz2013xxxq   0.24260
gfz2013xzcg   0.29250
gfz2013yach  -0.90510
gfz2013yctg   1.00330
gfz2013ylbx  -0.69970
gfz2013ymky  -1.11630
gfz2013ymxs  -0.85690
gfz2013ynmw  -4.86470
gfz2013ypdc  -2.66340
gfz2013yqkv  -1.33740
gfz2013yrmc  -3.91040
gfz2013yyti   0.83120
gfz2013zfhu   0.00000
gfz2013ziyr   0.23410
gfz2013zjel   1.66910
gfz2014algk  -5.32460
gfz2014alwz  -1.46890
gfz2014aqbk   2.23490
gfz2014ared  -1.59840
gfz2014arpf  -0.13080
gfz2014arqr   0.35120
gfz2014atgw  -1.05740
gfz2014bagd   1.35980
gfz2014bbro  -0.77910
gfz2014bekc   1.08890
gfz2014bezu  -3.57410
gfz2014bfqo  -0.94890
gfz2014bjgt  -1.68910
gfz2014bjsy  -0.95230
gfz2014bolf   0.62290
gfz2014bwue  -1.72460
gfz2014bzxy  -5.16170
gfz2014caop  -1.86430
gfz2014cbtl   0.13400
gfz2014cgog   0.03990
gfz2014claq  -0.25180
gfz2014cmwb  -4.13660
gfz2014cqyo  -1.37970
gfz2014ctot  -1.34240
gfz2014cueu  -4.36330
gfz2014cvkm   0.29270
gfz2014cybg  -0.78780
gfz2014cyvm  -1.77740
gfz2014czol   6.76940
gfz2014czua   2.49270
gfz2014dbdf  -0.21670
gfz2014dbyx  -1.64230
gfz2014dffd   2.47500
gfz2014dgiy  -2.40810
gfz2014dhxt   0.71380
gfz2014disp   0.04770
gfz2014dofa  -4.86000
gfz2014dpzx   0.81170
gfz2014duqn  -4.16710
gfz2014ebmc   1.60890
gfz2014edfx   0.65960
gfz2014efkk   0.22030
gfz2014eght   1.71620
gfz2014egwu   1.01690
gfz2014ehsf   0.96090
gfz2014ekcr   0.82200
gfz2014ekdt   0.54890
gfz2014eqpl  -3.12670
gfz2014erbj  -0.96080
gfz2014etqa   1.95520
gfz2014ettc  -3.38640
gfz2014ewcz  -0.23400
gfz2014ewrw   0.29320
gfz2014exxa   0.16120
gfz2014ezgb  -0.17470
gfz2014fcms   1.26950
gfz2014femz   2.87640
gfz2014fgvi  -8.09660
gfz2014fhla  -4.28390
gfz2014fhrq   0.12960
gfz2014fiuj  -0.01900
gfz2014fjdz  -2.15230
gfz2014fjyo   1.53900
gfz2014flfa  -2.78870
gfz2014fnyg  -2.78530
gfz2014foio  -0.47830
gfz2014fqpz  -5.69570
gfz2014frdz  -2.74610
gfz2014frel  -0.07060
gfz2014ftka  -5.63570
gfz2014ftoc   1.83220
gfz2014furx  -1.68950
gfz2014fuub   0.34300
gfz2014fvgh   0.89080
gfz2014fvjl  -0.77620
gfz2014fvrg  -5.04290
gfz2014fwtt   0.44490
gfz2014fwyr   0.03680
gfz2014fxpu  -2.27130
gfz2014gbcz   0.05440
gfz2014gbdq  -0.91830
gfz2014geuy   1.52100
gfz2014gkgf  -4.87160
gfz2014gkqf  -0.63150
gfz2014gkqu  -0.04280
gfz2014gktn   3.11510
gfz2014gktq  -3.28990
gfz2014gkut  -2.83730
gfz2014gmge  -2.26160
gfz2014gmhr  -0.75860
gfz2014gmnb  -1.88080
gfz2014gmuw  -2.71280
gfz2014gmzl  -1.42830
gfz2014gntd  -1.03870
gfz2014goba   1.30820
gfz2014gogv  -3.40630
gfz2014goqw  -2.04890
gfz2014gori   3.45650
gfz2014gpdo   0.12950
gfz2014gpya   4.18800
gfz2014gqro  -0.89750
gfz2014gsqs  -4.95400
gfz2014gtlu   1.77090
gfz2014gtrb   2.62510
gfz2014gtwz  -2.24070
gfz2014gufl   0.44910
gfz2014gull  -5.59780
gfz2014gumd  -1.04310
gfz2014gutm  -2.75900
gfz2014gwab  -1.75960
gfz2014gwgf   0.12560
gfz2014gxqu  -0.36970
gfz2014gxvf  -0.71410
gfz2014gzrm  -0.01730
gfz2014hasj  -4.44200
gfz2014hauo   0.17340
gfz2014heum  -3.65250
gfz2014hfhl  -1.05520
gfz2014hiiz   0.10420
gfz2014hkcf   1.04720
gfz2014hqxs  -0.81390
gfz2014hrft  -0.48170
gfz2014hriu  -3.82130
gfz2014hscz   0.03800
gfz2014huaj  -1.93930
gfz2014hwan  -0.18080
gfz2014hyal   0.19440
gfz2014hyvq  -4.75900
gfz2014hzfw  -0.29240
gfz2014hzgn  -0.99110
gfz2014hzhe   0.07980
gfz2014hzze   0.05910
gfz2014iava  -0.35820
gfz2014icqt   1.56600
gfz2014ieam  -0.57130
gfz2014ieho  -0.47920
gfz2014igur  -1.30610
gfz2014ilwu  -7.07180
gfz2014imap  -1.57440
gfz2014imnn   0.09500
gfz2014inbj  -0.59660
gfz2014isys  -0.06080
gfz2014itjx   0.22290
gfz2014itpj  -5.49480
gfz2014ivep   0.09800
gfz2014ixky  -0.52940
gfz2014iywt   2.32940
gfz2014jass   0.85880
gfz2014jatq   0.52030
gfz2014jcjt  -0.29830
gfz2014jjhc  -4.06520
gfz2014jjkh  -2.87060
gfz2014jkxe   0.08450
gfz2014jlwb   0.12810
gfz2014jmnk  -4.56750
gfz2014jnxm  -0.29360
gfz2014jnyv  -5.06680
gfz2014jomw  -7.86390
gfz2014jpep  -4.52310
gfz2014jpvx  -0.05430
gfz2014jpxs  -2.16650
gfz2014jtcz  -2.12440
gfz2014jwmh   0.91220
gfz2014kara   0.25190
gfz2014kbwm  -1.46730
gfz2014khlk  -0.40910
gfz2014kjee  -2.42560
gfz2014kjjq   0.69180
gfz2014kmmt  -1.68950
gfz2014knxs   1.10880
gfz2014krlg  -0.94630
gfz2014ksdv   1.52830
gfz2014ksmz   2.62480
gfz2014kyan  -4.33540
gfz2014kzzm  -1.30360
gfz2014lbcq  -2.11170
gfz2014lbxn   0.46360
gfz2014lddn   3.01960
gfz2014lefs   0.25500
gfz2014lgqn   1.36350
gfz2014lkyf  -0.68220
gfz2014lmge   0.71650
gfz2014lnmw  -4.87900
gfz2014lpim  -2.52670
gfz2014lwom  -5.30210
gfz2014lxnc  -0.01230
gfz2014lyhk  -2.36480
gfz2014lynp   0.46600
gfz2014lzal  -0.56680
gfz2014madw   0.53080
gfz2014mcno  -0.40140
gfz2014mden  -0.05310
gfz2014mhgg   1.03390
gfz2014mioi  -0.08200
gfz2014mtum   0.34320
gfz2014mwor   0.57850
gfz2014mxkr   0.40550
gfz2014ndue  -1.30110
gfz2014ngnd  -0.06550
gfz2014niqj   0.60080
gfz2014nkdx   0.09710
gfz2014nnxd  -0.60180
gfz2014nowp   3.58820
gfz2014npdk   1.25680
gfz2014npeo   0.96550
gfz2014nphm  -0.84430
gfz2014nqfm  -7.53150
gfz2014nrie  -4.85370
gfz2014utac   0.18220
gfz2014uuuf  -0.19310
gfz2014uvji   0.15940
gfz2014uvrk   1.05680
gfz2014uxyg   0.23480
gfz2014uzaw  -0.52550
gfz2014vcev   1.66890
gfz2014vhld  -1.15430
gfz2014vhms   1.38620
gfz2014vjoz  -0.80300
gfz2014vljh   0.08610
gfz2014vnxu  -1.45050
gfz2014vpus  -3.98050
gfz2014waoo  -0.42070
gfz2014watn  -5.67500
gfz2014wjko  -0.04360
gfz2014wmsc   1.03130
gfz2014wqcp  -0.63110
gfz2014wrkh  -0.95120
gfz2014xhkc   0.05590
gfz2014xqqd  -3.52700
gfz2014yazi   1.14980
gfz2014yrug   1.67260
gfz2014yula  -0.00000
gfz2014zkys  -0.09300
gfz2014zlgp   1.14330
gfz2015abpw   0.57530
gfz2015aide  -0.24530
gfz2015alzx   1.19510
gfz2015apnk  -4.74550
gfz2015aqav   0.87410
gfz2015aqbq   0.61280
gfz2015arpd  -2.95440
gfz2015aruz  -5.46960
gfz2015atxv   0.26560
gfz2015azzp   1.32830
gfz2015bavu  -0.39390
gfz2015bdyd  -3.80920
gfz2015berb  -1.30080
gfz2015bfjm   2.45700
gfz2015bfzt  -0.21870
gfz2015bkbj  -2.60050
gfz2015bohx   0.46470
gfz2015bphe   0.39070
gfz2015bsnl   0.44680
gfz2015bucr  -0.95750
gfz2015bvsj   2.33030
gfz2015bvxx  -0.52180
gfz2015byfn  -1.53020
gfz2015byjd  -0.27440
gfz2015bzej   1.22570
gfz2015cewd   0.73770
gfz2015chhn   0.41850
gfz2015cpuo  -0.59000
gfz2015cxhx   1.22320
gfz2015cxrc  -1.37350
gfz2015cyjd  -7.49040
gfz2015dadj   1.18400
gfz2015dizn   2.59510
gfz2015djts  -0.29730
gfz2015dskr  -0.62340
gfz2015dtqr   0.09320
gfz2015ecgq  -0.40820
gfz2015ednc  -0.25690
gfz2015eeyq  -1.37140
gfz2015eezy  -0.66040
gfz2015egbk  -0.41930
gfz2015egxq  -0.30450
gfz2015ehpz  -0.66930
gfz2015eiky  -6.07940
gfz2015elgy  -0.00580
gfz2015eljz  -0.12090
gfz2015emin  -0.54950
gfz2015emtg  -1.19390
gfz2015enth  -0.57780
gfz2015etai   0.47750
gfz2015evpl  -0.67490
gfz2015eyqs   0.12160
gfz2015fbbk  -0.62060
gfz2015fbew  -1.88400
gfz2015fcua  -0.53280
gfz2015fjhk  -2.36640
gfz2015fkbc  -1.10180
gfz2015fkgt  -0.93340
gfz2015fkic  -0.80230
gfz2015fkkd  -1.09860
gfz2015fkuu   0.75020
gfz2015flis  -1.84990
gfz2015fpez  -0.54720
gfz2015fvoi  -0.06490
gfz2015fwnf  -2.48310
gfz2015fxbv  -0.04210
gfz2015fxdi   0.02140
gfz2015fyvk  -0.11580
gfz2015gckd  -6.23310
gfz2015gjbr  -0.70150
gfz2015gkwa  -1.06450
gfz2015gmgf  -1.47980
gfz2015gnmy  -0.50790
gfz2015guhd   0.76270
gfz2015hdbn  -0.13890
gfz2015hdcp   0.82800
gfz2015hepg   0.25540
gfz2015hgbk  -7.91210
gfz2015hhbd  -0.95540
gfz2015hlfq  -1.89240
gfz2015hlqo  -0.49560
gfz2015hpmk  -4.06160
gfz2015hslo   0.32030
gfz2015hvgs  -0.32940
gfz2015idho  -1.73820
gfz2015igsy   0.08540
gfz2015ijmh   1.10310
gfz2015imty  -0.94940
gfz2015isim  -0.82330
gfz2015iwqk  -0.61180
gfz2015ixyy   2.00460
gfz2015jkdw  -2.70000
gfz2015jmlu  -0.84340
gfz2015jpap   0.04800
gfz2015jwgl   7.21790
gfz2015jxbx  -2.43060
gfz2015jxjd   1.71590
gfz2015kfsu  -6.34790
gfz2015kkqb  -1.03620
gfz2015kkth  -0.76220
gfz2015ksni   0.56970
gfz2015kvwz  -1.06830
gfz2015lbcg  -0.03200
gfz2015lcma   0.18010
gfz2015lcuo   0.12010
gfz2015lhjq  -5.78660
gfz2015ltii  -3.00300
gfz2015lytv  -0.80530
gfz2015lzad  -0.82650
gfz2015mddr  -1.18440
gfz2015mfpy  -0.58340
gfz2015mhym  -1.41310
gfz2015micz  -3.88220
gfz2015mljd   0.14380
gfz2015mpte   0.33300
gfz2015mvzk   0.24310
gfz2015nbdc   7.33140
gfz2015nerz   0.47700
gfz2015nqgf  -0.00000
gfz2015ntpk   2.47210
gfz2015nuxz  -3.27760
gfz2015nwug   0.60920
gfz2015ocdz   0.78610
gfz2015ojut   0.48830
gfz2015okmq  -2.87980
gfz2015okpu   0.17520
gfz2015omab   2.05730
gfz2015opjp   0.53090
gfz2015othd  -0.83320
gfz2015oyfl  -0.73430
gfz2015pgxa  -1.29300
gfz2015pjgr  -2.90360
gfz2015prlr   0.26550
gfz2015puqp   0.44370
gfz2015qafb  -1.25990
gfz2015qnho  -0.32990
gfz2015qprd   0.37840
gfz2015qpvd  -2.49040
gfz2015qvxu   0.56520
gfz2015rddx  -0.53990
gfz2015rgrg  -0.64860
gfz2015rkbq   0.25560
gfz2015rkrg   3.48030
gfz2015rkzg  -0.80410
gfz2015rlnh   0.16800
gfz2015rnis  -0.31800
gfz2015roac   0.83040
gfz2015rpzn   0.14060
gfz2015rwsb   1.92580
gfz2015saet  -0.54230
gfz2015sfdd   5.97910
gfz2015sfdh   0.08640
gfz2015sfdy   4.73990
gfz2015sfeo   0.02830
gfz2015sffn   0.02180
gfz2015sfga   0.09910
gfz2015sfho   0.02110
gfz2015sfhz   4.67720
gfz2015sfiq   3.15490
gfz2015sfkh   0.40670
gfz2015sfkz   0.41890
gfz2015sflf   0.37800
gfz2015sfln  -0.51690
gfz2015sfmd  -0.09140
gfz2015sfnb   2.30360
gfz2015sfno   6.20100
gfz2015sfnv   1.64230
gfz2015sfoc   0.92050
gfz2015sfoh   0.08350
gfz2015sfom  -0.38550
gfz2015sfoq  -0.06190
gfz2015sfpj   0.06780
gfz2015sfps  -0.33440
gfz2015sfrc   0.09710
gfz2015sfte  -0.72360
gfz2015sfuz   0.00000
gfz2015sfxn  -0.02030
gfz2015sfzm  -0.93000
gfz2015sgad   1.21190
gfz2015sgdj   0.02070
gfz2015sggc   0.02040
gfz2015sghq   0.43420
gfz2015sgie  -0.64710
gfz2015sglg   0.00000
gfz2015sgmm   1.34400
gfz2015sgmr  -0.04190
gfz2015sgna   0.00000
gfz2015sgoa   0.09850
gfz2015sgpu   1.39670
gfz2015sguf  -0.12540
gfz2015sgxc  -0.02030
gfz2015sgyd   0.02180
gfz2015shel   0.02060
gfz2015shhu   2.06150
gfz2015shjn   0.48010
gfz2015shlp   0.56450
gfz2015shov  -0.62950
gfz2015shqc   0.02090
gfz2015shqe   0.02130
gfz2015shsb  -0.16750
gfz2015shsz   3.53060
gfz2015shwt   0.03200
gfz2015sicf   0.25710
gfz2015sicu  -0.48300
gfz2015siem   0.01910
gfz2015siky   0.27280
gfz2015sing   0.40500
gfz2015siof  -0.39920
gfz2015sist  -0.76280
gfz2015sitn  -0.33940
gfz2015sixi   0.00000
gfz2015sixs   0.01960
gfz2015siyy  -0.87490
gfz2015sjbx   0.49150
gfz2015sjeq  -0.01860
gfz2015sjfi  -0.06200
gfz2015sjgk  -0.71700
gfz2015sjjb  -0.02150
gfz2015sjne   0.05650
gfz2015sjoj   4.48390
gfz2015sjpn   0.03210
gfz2015sjtz  -0.05610
gfz2015sjwi  -0.63870
gfz2015skgj   0.40440
gfz2015skhf  -0.21260
gfz2015skia   0.07930
gfz2015sklu   0.05060
gfz2015skpv  -0.49580
gfz2015skxu   1.39520
gfz2015sldx   0.15130
gfz2015slfn  -0.53890
gfz2015sljs   0.31060
gfz2015smgj  -0.30110
gfz2015smym   2.97810
gfz2015snhn  -1.04280
gfz2015snmg  -0.29810
gfz2015snmr  -0.24080
gfz2015snsf   0.65090
gfz2015snwh   4.33380
gfz2015soat   2.62140
gfz2015solh   0.15240
gfz2015sopc  -0.03890
gfz2015sowu   0.06040
gfz2015soxc   3.56810
gfz2015sozw  -1.12410
gfz2015spal  -0.22130
gfz2015spxh   0.06640
gfz2015sqbg  -0.29300
gfz2015sqmy   0.02050
gfz2015sqoz   0.00000
gfz2015sqvx  -0.28270
gfz2015sqwv  -0.03740
gfz2015sqyh   0.66770
gfz2015srat   0.31250
gfz2015srgf   0.22540
gfz2015srxe   0.27590
gfz2015srxm  -0.82000
gfz2015ssaf  -0.75060
gfz2015sspn  -0.72760
gfz2015ssrl  -0.10440
gfz2015stas   0.03760
gfz2015stcv   0.33090
gfz2015stfy   0.72030
gfz2015stso  -1.11310
gfz2015subg   0.25040
gfz2015subx  -0.08000
gfz2015sudm   0.01750
gfz2015sunp   0.10410
gfz2015supa  -0.09820
gfz2015susq  -0.03940
gfz2015svjy  -0.38790
gfz2015svwm   2.63560
gfz2015swgn  -0.59190
gfz2015sxgd  -0.27120
gfz2015sxmh  -0.32470
gfz2015sxxu  -0.34740
gfz2015sydc  -0.99390
gfz2015szcb   3.49280
gfz2015szfe  -0.02070
gfz2015szfq   0.42460
gfz2015sztx  -0.06150
gfz2015taml  -6.53730
gfz2015tbdn   0.07530
gfz2015tbje   0.07140
gfz2015tbxe  -0.23150
gfz2015tcem   0.20860
gfz2015tdbb   0.61210
gfz2015tdcu  -0.54960
gfz2015teje  -0.08760
