# Nsamples: 88  MAD:  0.632  mean:  0.090  variance:  0.497
gfz2010ahqi  -0.10820
gfz2010bjeb  -0.02200
gfz2010bowy   0.07760
gfz2010boxo  -0.39720
gfz2010bxxs   0.47120
gfz2010cqwl   0.40880
gfz2010eaoy   1.06240
gfz2010earu   2.17780
gfz2010eawu   2.07740
gfz2010excp   0.58600
gfz2010fync   2.08120
gfz2010hrkr  -0.19630
gfz2010iull   0.35670
gfz2010nmpc   0.18340
gfz2010usho  -0.03020
gfz2011aatr   0.16140
gfz2011dpqx  -0.24290
gfz2011enva  -0.06180
gfz2011gkzt   0.14180
gfz2011hlqw  -0.42090
gfz2011hlsa  -0.25990
gfz2011jplh  -0.50420
gfz2011lcxq   0.69260
gfz2011lzwj   0.87770
gfz2011mdie  -0.38520
gfz2011owvz   0.74870
gfz2011rewa  -0.25830
gfz2011toub   0.29710
gfz2011wxfs   0.70280
gfz2012fzfa   0.16560
gfz2012hnul   0.71830
gfz2012jlox   0.13490
gfz2012kkup  -0.30470
gfz2012klhx  -0.47600
gfz2012kuct  -0.02840
gfz2012kudo  -0.12360
gfz2012ldxg  -0.84930
gfz2012ldzj   0.71160
gfz2012ttoa  -0.95900
gfz2012vrgb   0.72690
gfz2012wypz   0.25200
gfz2013aqaw   0.72100
gfz2013ccnr  -0.89840
gfz2013drxz  -0.34360
gfz2013jkut   0.48420
gfz2013nkgj   0.20100
gfz2013nwdi  -0.52040
gfz2013qmer  -0.54270
gfz2013svci   0.18640
gfz2013vjjc   1.51020
gfz2013xsdt   0.75170
gfz2014ande  -0.34840
gfz2014fgvi   0.73180
gfz2014fhla  -0.50110
gfz2014fkmr  -1.50510
gfz2014ftka  -0.50960
gfz2014gkgf   0.37810
gfz2014gkqf   0.04440
gfz2014gmge   0.54450
gfz2014gmhr   1.03370
gfz2014gmnb  -0.69550
gfz2014goba  -0.19770
gfz2014gull  -0.56060
gfz2014hasj   0.04910
gfz2014hocg   0.10060
gfz2014itkw   0.59720
gfz2014jggm  -1.21160
gfz2014jjhc   0.37760
gfz2014jpep  -2.25660
gfz2014kitm   0.13630
gfz2014lgqn  -1.01900
gfz2014lxnc  -0.30780
gfz2014lyhk  -0.52340
gfz2014lyhp  -0.47100
gfz2014qqhm   0.41640
gfz2014ssvz   0.10140
gfz2014ubwn  -0.09890
gfz2015chhn  -0.60250
gfz2015cyjd  -0.41320
gfz2015fjhk   0.03950
gfz2015fsjj   0.37150
gfz2015kquq   0.26430
gfz2015lhjy   0.39450
gfz2015lytv   0.96770
gfz2015mpte   0.36690
gfz2015smym  -0.05360
gfz2015snwh   0.36680
gfz2015soxc   0.17590
