# Nsamples: 26  MAD:  0.204  mean:  0.526  variance:  0.351
gfz2010iull   0.29650
gfz2010nmpc   0.94690
gfz2011aatr   0.36990
gfz2011enva   1.13600
gfz2011hlqw  -0.27150
gfz2011hlsa   0.18230
gfz2011lcxq   0.50260
gfz2011lzwj   0.46110
gfz2011rewa   0.50240
gfz2012enno   0.50870
gfz2012jlox  -0.54860
gfz2012kkup   0.55590
gfz2012klhx   0.18120
gfz2012kudo   0.36000
gfz2012wypz   0.44760
gfz2013drxz   0.30140
gfz2013nwdi   0.31270
gfz2013svci  -0.01510
gfz2014fgvi   0.85580
gfz2014gkgf   0.41050
gfz2014gmhr   2.82020
gfz2015fsjj   0.43240
gfz2015sfdd   0.54090
gfz2015sfdy   1.33180
gfz2015snwh   0.58830
gfz2015svwm   0.47550
