# Nsamples: 27  MAD:  0.490  mean:  0.190  variance:  0.707
gfz2010iull   0.36950
gfz2010nmpc   0.18970
gfz2011aatr   0.00000
gfz2011enva   0.96670
gfz2011hlsa   3.66680
gfz2011lcxq   0.03250
gfz2011lzwj   0.30410
gfz2011rewa   0.18230
gfz2011toub   0.28020
gfz2011wxfs  -0.22680
gfz2012jlox  -0.49960
gfz2012kkup   0.56210
gfz2012kudo   0.76750
gfz2012wypz   0.18960
gfz2013nwdi  -0.85050
gfz2013svci  -0.10950
gfz2014fgvi   0.58090
gfz2014gkgf  -0.94630
gfz2014gkqf   0.22380
gfz2014gmhr  -0.30430
gfz2014lgqn   0.52020
gfz2015cyjd   0.01050
gfz2015fsjj  -0.22490
gfz2015sfdd  -0.15010
gfz2015sfdy  -1.14920
gfz2015snwh   0.35860
gfz2015svwm   0.39620
