# Nsamples: 7  MAD:  0.260  mean:  1.090  variance:  1.935
gfz2010eaoy   0.16740
gfz2010eisx   0.08940
gfz2010elyc   0.23040
gfz2010excp   0.05490
gfz2010rqwj   0.70240
gfz2013jusj   3.85810
gfz2013vjjc   2.52840
