# Nsamples: 169  MAD:  0.967  mean:  1.882  variance:  0.943
gfz2010ahqi   1.94700
gfz2010bjeb   2.17800
gfz2010bowy   1.67400
gfz2010bxxs   2.55150
gfz2010cqwl   1.70870
gfz2010czps   1.39050
gfz2010eaoy   1.82230
gfz2010eapk   1.23720
gfz2010eaqe   2.02060
gfz2010eaqx   2.05310
gfz2010eaqy   1.86220
gfz2010earq   1.97840
gfz2010earu   0.80330
gfz2010easo   1.72270
gfz2010eati   2.37150
gfz2010eato   0.97830
gfz2010eatt   1.16970
gfz2010eaul   1.58190
gfz2010eavs   0.50910
gfz2010eawb   1.16980
gfz2010eawu   1.39660
gfz2010eaxa   0.29380
gfz2010ebhc   1.83570
gfz2010ebvm   1.38580
gfz2010ecua   0.91190
gfz2010ecvt   1.68230
gfz2010eeij   1.80850
gfz2010eisx   1.58900
gfz2010ejjg   1.58480
gfz2010ekyc   2.51680
gfz2010eltf   0.67080
gfz2010elyc   1.75840
gfz2010epbe   0.62160
gfz2010evco  -0.11610
gfz2010excp   1.63720
gfz2010exdd   1.97120
gfz2010exdl   1.49690
gfz2010ezck   1.24160
gfz2010falm   2.16550
gfz2010fcax   1.57780
gfz2010fedq   0.29760
gfz2010ffhq   1.16210
gfz2010fync   1.35660
gfz2010gdld   1.81730
gfz2010hxgv   1.51630
gfz2010iobp   1.86850
gfz2010itpb  -0.75800
gfz2010iull   2.67200
gfz2010lluj   1.58360
gfz2010moyw   1.50180
gfz2010nmpc   3.32430
gfz2010nqwo  -0.53500
gfz2010nwef   2.20760
gfz2010pcxi   2.42300
gfz2010upfb   0.88530
gfz2010utcg   1.65540
gfz2011aatr   2.20200
gfz2011adjs   1.85610
gfz2011alip   1.99540
gfz2011aqxf   2.49440
gfz2011cykd   0.98530
gfz2011cyre   0.68800
gfz2011dbig   0.63510
gfz2011dcqb   0.27870
gfz2011dpqx   2.34470
gfz2011enva   2.76930
gfz2011gbmx   1.89360
gfz2011gkzt   1.77570
gfz2011hlqw   2.33870
gfz2011hlsa   2.27930
gfz2011jplh   1.84660
gfz2011lcxq   2.78330
gfz2011lvjr   3.38120
gfz2011lzwj   2.93040
gfz2011mdie   3.06340
gfz2011olkk   1.65460
gfz2011rewa   2.08810
gfz2011tkfp   1.73800
gfz2011toub   1.55830
gfz2011ujze   2.51110
gfz2011vhfi   1.27200
gfz2011vrhg   1.79800
gfz2011wxfs   2.91700
gfz2012ajtq   0.60640
gfz2012bpkx   0.87660
gfz2012ekda   1.31170
gfz2012enno   2.09520
gfz2012ewgo   2.61070
gfz2012fwfo   2.30060
gfz2012fzfa   1.65560
gfz2012hnul   2.28020
gfz2012ilvn  -0.96800
gfz2012jlox   2.52050
gfz2012jupx   1.08980
gfz2012keor   1.27100
gfz2012kkup   2.60380
gfz2012klhx   2.42260
gfz2012kudo   2.70110
gfz2012lczo   1.91350
gfz2012ldxg   3.04530
gfz2012minr   2.66450
gfz2012rwov   0.80420
gfz2012tmop   3.80800
gfz2012ttoa   3.12890
gfz2012uafg   2.13800
gfz2012vrgb   3.40290
gfz2012wklq   0.80770
gfz2012wypz   2.66330
gfz2013ccnr   0.99300
gfz2013drxz   1.57550
gfz2013ldqb   1.96730
gfz2013lixa   2.38310
gfz2013lyko   1.86360
gfz2013mqmv   3.03840
gfz2013ncjp   2.61420
gfz2013nkgj   2.69820
gfz2013nwdi   2.37420
gfz2013qmer   3.03230
gfz2013svci   2.51530
gfz2013vjjc   2.57910
gfz2013wjmm   1.65360
gfz2013xsdt   2.92230
gfz2014algk   2.58970
gfz2014bagd  -0.15440
gfz2014bzxy   2.28130
gfz2014ekcr   0.94920
gfz2014fgvi   3.55530
gfz2014fhla   2.22900
gfz2014fhrq   2.40660
gfz2014fhsg   3.34590
gfz2014ftka   3.19650
gfz2014gkgf   1.80510
gfz2014gkqf   4.28350
gfz2014gmge   1.61560
gfz2014gmhr   1.14450
gfz2014gmnb   2.99500
gfz2014gmnw   3.20290
gfz2014gmuw   2.69230
gfz2014goba   3.29250
gfz2014gori   3.73740
gfz2014gqer   0.19340
gfz2014jjhc   2.85600
gfz2014jpep   2.59060
gfz2014jwmh   0.22290
gfz2014lxnc   3.22460
gfz2014nqfm   3.22180
gfz2014qlxd   2.95290
gfz2014qngj   1.67950
gfz2014ssvz   1.85450
gfz2014tqdo   2.68130
gfz2015berb   0.53160
gfz2015chhn   0.97430
gfz2015cyjd   2.34510
gfz2015dvbn   2.50940
gfz2015etai   0.72710
gfz2015fkgt   1.21140
gfz2015fsjj   2.68820
gfz2015gckd   2.83640
gfz2015kfsu   2.19010
gfz2015lytv  -1.09860
gfz2015mhym  -0.66930
gfz2015mpte   3.24110
gfz2015shsz   3.27400
gfz2015sjgk   2.29970
gfz2015sjoj   2.45230
gfz2015snwh   1.06140
gfz2015soxc   1.01990
gfz2015svwm   1.46910
gfz2015taml   2.55610
