# Nsamples: 27  MAD:  0.647  mean: -0.499  variance:  0.916
gfz2010nmpc  -0.11560
gfz2011wxfs  -0.73260
gfz2012jlox  -0.30720
gfz2012kkup  -1.00650
gfz2012klhx  -0.70550
gfz2012kudo  -1.02760
gfz2012tmop  -2.28320
gfz2012wypz  -0.97850
gfz2013drxz  -1.06540
gfz2013jkut   0.84250
gfz2013pfbx  -0.87620
gfz2013xsdt   2.00680
gfz2014bwue  -0.97950
gfz2014gkgf   0.31810
gfz2014gkqf  -2.93290
gfz2014gmhr   0.67870
gfz2014hasj  -0.54440
gfz2014ssvz  -0.09960
gfz2015cyjd   0.42250
gfz2015fsjj  -0.15430
gfz2015kxxs   0.17280
gfz2015lhjy  -0.78050
gfz2015sfdd  -1.32600
gfz2015sfdy  -0.26940
gfz2015snwh   0.36910
gfz2015svwm  -1.01280
gfz2015taml  -1.07350
