# Nsamples: 51  MAD:  0.589  mean: -0.139  variance:  0.303
gfz2011enva   0.05610
gfz2011gkzt  -0.96640
gfz2011hlsa   0.33020
gfz2011lcxq  -0.21760
gfz2011lzwj   0.43910
gfz2011rewa   0.67820
gfz2011toub   0.48740
gfz2011wxfs   0.63150
gfz2012enno   0.32450
gfz2012jlox  -0.55050
gfz2012kkup  -0.22530
gfz2012klhx  -0.20870
gfz2012kudo  -0.58440
gfz2012ldxg  -1.35630
gfz2012ttoa   0.47250
gfz2012wypz  -0.21830
gfz2013drxz   0.00610
gfz2013nwdi  -0.95010
gfz2013pfbx  -0.86410
gfz2013svci  -0.06620
gfz2014ande  -0.12000
gfz2014bwue  -0.48740
gfz2014fgvi   0.52830
gfz2014fhla  -1.53600
gfz2014ftka  -0.51720
gfz2014fval  -0.09430
gfz2014gkgf  -0.77300
gfz2014gkhy   0.64110
gfz2014gkqf  -0.24110
gfz2014gltx   0.46950
gfz2014gmge   0.53220
gfz2014gmhr   1.38820
gfz2014gmnb  -0.01480
gfz2014gmnw   0.06360
gfz2014goba   0.00520
gfz2014hasj  -0.03200
gfz2014huaj  -0.03790
gfz2014jpep  -0.09160
gfz2014lxnc   0.07130
gfz2014lyhk  -0.47360
gfz2014nqfm   0.05430
gfz2014oinz  -0.64010
gfz2014pvch  -0.55790
gfz2014qqhm   0.30460
gfz2014ssvz  -0.20630
gfz2015cyjd  -0.62780
gfz2015fsjj  -0.16220
gfz2015lhjy  -0.36870
gfz2015mpte  -1.02070
gfz2015svwm  -0.18250
gfz2015taml  -0.18400
