# Nsamples: 60  MAD:  0.446  mean: -0.444  variance:  0.671
gfz2010bowy  -0.18970
gfz2010bxxs  -0.07750
gfz2010cqwl  -0.61530
gfz2010usho  -0.28870
gfz2011aatr  -0.70850
gfz2011enva  -0.66330
gfz2011gkzt  -3.44870
gfz2011hlqw  -0.89400
gfz2011hlsa  -0.65630
gfz2011lzwj  -0.35310
gfz2011mjom   1.52220
gfz2011rewa  -0.34180
gfz2011toub  -0.76810
gfz2011wxfs  -0.41750
gfz2012enno   0.01660
gfz2012jlox  -0.15380
gfz2012kkup  -0.53130
gfz2012klhx  -0.71660
gfz2012kudo  -0.69390
gfz2012ldxg  -0.23760
gfz2012sphd  -1.58220
gfz2012ttoa   0.08600
gfz2012vrgb   0.31130
gfz2012wypz  -0.65110
gfz2013drxz  -0.49830
gfz2013jkut   0.04960
gfz2013kdeo  -0.06490
gfz2013nwdi  -1.07400
gfz2013pfbx  -0.48550
gfz2013svci  -0.14690
gfz2014afmx   0.22720
gfz2014ande  -0.36410
gfz2014bwue  -0.52030
gfz2014fgvi   0.11230
gfz2014fhla   0.15330
gfz2014fkmr  -0.16070
gfz2014ftka  -0.81630
gfz2014fval  -0.39420
gfz2014gkgf  -0.77200
gfz2014gkqf  -0.45980
gfz2014gltx  -1.26940
gfz2014gmge   0.19210
gfz2014gmhr   1.33910
gfz2014gmnb  -0.36870
gfz2014goba  -0.73900
gfz2014gsqs   1.09270
gfz2014hasj  -2.07840
gfz2014huaj  -0.43480
gfz2014jpep  -0.29990
gfz2014lxnc  -0.43600
gfz2014nqfm  -0.29140
gfz2014pvch  -3.70850
gfz2014qqhm   0.24270
gfz2014ssvz  -0.73400
gfz2015cyjd   0.15990
gfz2015fsjj  -0.60730
gfz2015gckd  -0.21280
gfz2015lhjy  -0.67590
gfz2015mpte   0.17750
gfz2015taml  -0.70430
