# Nsamples: 1354  MAD:  0.786  mean: -0.345  variance:  1.024
gfz2010aerk  -0.90360
gfz2010ahla  -1.15070
gfz2010ahqi  -0.19350
gfz2010awfi  -0.72750
gfz2010bfzs   0.60360
gfz2010bgth  -0.55510
gfz2010bhhq  -0.41290
gfz2010bifb  -1.04760
gfz2010bjeb  -0.76880
gfz2010bjjx  -1.40060
gfz2010bjsl  -0.66850
gfz2010bkob  -0.13000
gfz2010bowy   0.55590
gfz2010boxo  -0.38450
gfz2010bpda  -1.68310
gfz2010caft  -1.21510
gfz2010cbkg  -1.10850
gfz2010cdbt  -0.30290
gfz2010cjqh  -1.01660
gfz2010ckeu  -0.93400
gfz2010ckzm   0.41690
gfz2010cnwc  -2.02290
gfz2010cptb   0.48670
gfz2010cqwl  -0.61290
gfz2010ctuw  -1.66540
gfz2010czps   0.60720
gfz2010dtmx   1.61170
gfz2010dumm  -0.83980
gfz2010eaoy   1.16050
gfz2010eapk   0.04610
gfz2010eapn  -3.09180
gfz2010eaqe   0.40430
gfz2010eaqx   1.28420
gfz2010eaqy   0.76990
gfz2010earq  -0.79180
gfz2010earu  -0.15470
gfz2010easf   0.31060
gfz2010eask  -0.21620
gfz2010easo   0.61100
gfz2010easu   0.00000
gfz2010eati   0.63470
gfz2010eato   1.37350
gfz2010eatt   1.53400
gfz2010eaty   0.11460
gfz2010eaul   1.52020
gfz2010eavd   0.72720
gfz2010eavp  -0.85240
gfz2010eavs   1.05770
gfz2010eawb   0.71340
gfz2010eaxa   0.84130
gfz2010eaya   1.43550
gfz2010eayd  -0.56320
gfz2010eayp   0.61380
gfz2010eayx  -0.25800
gfz2010eaze  -0.31020
gfz2010eazu  -0.30470
gfz2010ebbd  -0.70580
gfz2010ebbx  -2.20350
gfz2010ebby  -1.35740
gfz2010ebdl  -0.02040
gfz2010ebeh  -0.22200
gfz2010ebek  -0.27630
gfz2010ebfa  -0.52640
gfz2010ebfx  -0.95720
gfz2010ebgj  -1.40700
gfz2010ebhc   0.10440
gfz2010ebih  -0.49110
gfz2010ebin  -0.58720
gfz2010ebiv   0.09170
gfz2010ebjg  -1.30430
gfz2010ebjy  -0.08600
gfz2010ebkj   0.06510
gfz2010ebkx  -1.39070
gfz2010ebla   0.68950
gfz2010ebll   0.42490
gfz2010ebmb   0.25200
gfz2010ebmi   0.57390
gfz2010ebnn  -0.06020
gfz2010ebqt  -0.25910
gfz2010ebqz  -3.28110
gfz2010ebrm  -0.32250
gfz2010ebsv   0.92630
gfz2010ebtk  -0.26270
gfz2010ebvm   0.18180
gfz2010ebvv  -0.08570
gfz2010ebwp   0.24740
gfz2010ebxl  -0.64660
gfz2010ebzk  -1.06960
gfz2010ebzr   0.12980
gfz2010ecam   0.28000
gfz2010ecay  -0.46540
gfz2010ecbi   0.11120
gfz2010eced   0.54240
gfz2010ecft   0.10710
gfz2010echc  -1.05740
gfz2010echt  -0.27970
gfz2010echy   0.71220
gfz2010ecka  -0.35400
gfz2010ecls  -0.09110
gfz2010ecnm  -0.08680
gfz2010ecns   0.13100
gfz2010ecpg  -1.04050
gfz2010ecps   0.14680
gfz2010ecsp   0.46150
gfz2010ectq  -0.46590
gfz2010ecua  -0.30210
gfz2010ecuv  -0.06350
gfz2010ecvt   0.61400
gfz2010edad  -1.32430
gfz2010edat  -0.05110
gfz2010eday  -1.49840
gfz2010edbz   0.27650
gfz2010edcp  -1.24330
gfz2010edde   0.09640
gfz2010edhr  -0.94960
gfz2010edhv  -0.13090
gfz2010edim  -0.79150
gfz2010edji  -0.03460
gfz2010edkp  -0.17530
gfz2010edpb  -1.36450
gfz2010edqh  -0.25480
gfz2010edsk  -0.50290
gfz2010edsn   0.69970
gfz2010edvf  -0.54680
gfz2010edyi  -1.16100
gfz2010edzb   0.10900
gfz2010eedz   0.47110
gfz2010eeia  -1.95940
gfz2010eeij   1.22670
gfz2010eekg  -1.05370
gfz2010eekq  -0.84750
gfz2010eell  -0.43760
gfz2010eeng  -0.31240
gfz2010eeqy  -1.90830
gfz2010eerh  -0.29020
gfz2010eern  -0.39350
gfz2010eesf   0.11880
gfz2010eevu   0.86640
gfz2010eexz  -0.33670
gfz2010eeyh   0.53130
gfz2010efak  -0.19500
gfz2010efnf  -0.90300
gfz2010efsq   0.69510
gfz2010efwo   0.51570
gfz2010efxf  -1.14990
gfz2010egap   1.59750
gfz2010eghq  -0.56290
gfz2010egld  -0.00000
gfz2010egmp  -0.84160
gfz2010egqh  -1.69100
gfz2010egsw  -0.61130
gfz2010egsy   1.38500
gfz2010egyy  -1.05880
gfz2010ehaj  -1.06110
gfz2010eher  -0.95130
gfz2010ehft   0.18110
gfz2010ehsy  -0.71960
gfz2010ehxz  -0.42830
gfz2010eimf  -0.84320
gfz2010eiqi   0.37410
gfz2010eisx  -0.09420
gfz2010eixj   0.09820
gfz2010ejae  -0.16900
gfz2010ejju  -1.59150
gfz2010ejka  -0.69670
gfz2010ejma  -0.22130
gfz2010ejxf  -0.82300
gfz2010ekaw   0.48300
gfz2010ekyc  -0.69870
gfz2010elhv   0.19370
gfz2010elin   1.73370
gfz2010elsw  -0.13950
gfz2010eltf   0.31330
gfz2010elvp  -0.30190
gfz2010elyc   0.22060
gfz2010elyo  -0.33590
gfz2010elzf  -1.17150
gfz2010elzl  -0.25730
gfz2010enpa   3.30210
gfz2010eoao   0.32650
gfz2010eomb  -0.13230
gfz2010epbe  -0.82810
gfz2010epud  -0.25240
gfz2010epxj   0.11260
gfz2010epzk   0.03950
gfz2010eqjg   0.16740
gfz2010eqmu  -2.18030
gfz2010erda   0.72860
gfz2010erdi   0.24040
gfz2010erkn  -0.15510
gfz2010erna  -0.33840
gfz2010erom   0.49420
gfz2010eruy  -0.35330
gfz2010erwn  -0.09420
gfz2010erxk  -0.67970
gfz2010eryg  -0.31800
gfz2010eted   5.82110
gfz2010euae   0.50660
gfz2010euan   0.25910
gfz2010euii   0.92530
gfz2010eujm  -0.28610
gfz2010evco   0.83660
gfz2010evgf  -0.56650
gfz2010evkd   0.17260
gfz2010ewbc  -1.07530
gfz2010ewvc  -0.14800
gfz2010ewyu   0.00000
gfz2010excp   0.71170
gfz2010exdd  -0.92900
gfz2010exdl  -0.36350
gfz2010exed  -0.57690
gfz2010exel  -0.42620
gfz2010exfb  -1.22330
gfz2010exgb  -0.08010
gfz2010exhd  -0.47280
gfz2010exhw   0.03960
gfz2010exjw   0.22890
gfz2010exmc  -0.36360
gfz2010exno   0.36950
gfz2010exqu  -0.23240
gfz2010exts   0.64870
gfz2010eyaz   0.62740
gfz2010eymr   1.48880
gfz2010eymx  -1.03650
gfz2010eyvq   0.23850
gfz2010eyxe   0.11370
gfz2010ezax  -0.10310
gfz2010ezck   0.14170
gfz2010ezjk   0.75900
gfz2010ezvt   0.16510
gfz2010ezwz  -0.07420
gfz2010ezxd  -0.49840
gfz2010falm  -0.75120
gfz2010fauz   4.17460
gfz2010faxg   0.61570
gfz2010fbeu  -0.75040
gfz2010fcax   0.75240
gfz2010fcdw  -0.18780
gfz2010fcxy   1.18400
gfz2010fcyj   0.03890
gfz2010fczt   0.01110
gfz2010fdxr  -1.65370
gfz2010fedq  -0.05820
gfz2010ffhq   1.11610
gfz2010ffjb  -0.35220
gfz2010figq  -0.02960
gfz2010fika  -1.14630
gfz2010fixr  -1.00750
gfz2010fjas  -1.09350
gfz2010fkhd  -1.65190
gfz2010fknh   0.63630
gfz2010flha  -0.24580
gfz2010floi  -0.32110
gfz2010flrt   0.11110
gfz2010flxi  -0.63730
gfz2010fmhb  -0.13470
gfz2010fmip  -0.43530
gfz2010fmpy  -1.48170
gfz2010fnrk  -1.92860
gfz2010fpqy   0.27500
gfz2010fqdu  -2.15950
gfz2010fser   0.10280
gfz2010fsth   0.73620
gfz2010ftlm  -0.78130
gfz2010fupn  -0.13840
gfz2010fuuy  -0.62650
gfz2010fuwa  -0.39570
gfz2010fvuc  -0.54730
gfz2010fwkk   0.41290
gfz2010fwlb  -0.47210
gfz2010fwny  -1.60180
gfz2010fwpv  -0.26860
gfz2010fwzd  -0.89160
gfz2010fyen  -0.94090
gfz2010fync   0.64050
gfz2010fzoi  -0.11350
gfz2010fzsg   3.29560
gfz2010gcdn   0.26830
gfz2010gcrl   0.05520
gfz2010gcrp   0.19330
gfz2010gdld  -0.90960
gfz2010gjvo  -0.92850
gfz2010glqr   7.04830
gfz2010govu  -5.83880
gfz2010grjd   0.23840
gfz2010grss   0.18340
gfz2010gtzt  -2.04080
gfz2010gyqp   1.50260
gfz2010gzxr  -0.48730
gfz2010hbka  -1.17130
gfz2010hevz  -0.89520
gfz2010hgld  -1.87700
gfz2010hhls  -0.84550
gfz2010hjoc  -0.93170
gfz2010hlco  -0.44890
gfz2010hllj   0.35950
gfz2010hlmq   0.43590
gfz2010hmhm  -0.02030
gfz2010hnnf   0.17150
gfz2010hnpi   0.16920
gfz2010hnzr   0.09870
gfz2010homc  -0.89800
gfz2010hptz   0.13310
gfz2010hrkr  -0.90340
gfz2010hufk  -1.09130
gfz2010hxgv  -0.07310
gfz2010hxhe  -0.40500
gfz2010ibiy  -0.56670
gfz2010icqq  -0.49980
gfz2010iibf  -0.33750
gfz2010imfv  -0.06160
gfz2010iobp   0.71640
gfz2010iqep  -0.28130
gfz2010iqfm   6.07120
gfz2010iqus  -1.64240
gfz2010irqr  -1.54350
gfz2010irvf  -1.23610
gfz2010ited  -1.04290
gfz2010iull   0.24630
gfz2010izzj  -0.22360
gfz2010jagd   1.94100
gfz2010jatq  -0.53020
gfz2010jlhj   0.50260
gfz2010jpyj  -0.57280
gfz2010jucj  -1.20820
gfz2010jwpy   0.11780
gfz2010jxbm   0.74400
gfz2010kdyc  -0.49840
gfz2010kmgg  -0.34500
gfz2010lcoq   2.11840
gfz2010lczp   1.64760
gfz2010lfju  -0.36870
gfz2010lgwy  -0.27810
gfz2010lkcf  -0.31590
gfz2010lopz   1.31650
gfz2010lrlk  -1.09870
gfz2010lruw  -0.15310
gfz2010mant   0.03920
gfz2010mcrx  -0.86180
gfz2010mdpq  -0.64830
gfz2010miil  -1.26390
gfz2010mipi  -0.99220
gfz2010mkuu  -0.79550
gfz2010mlta  -0.27990
gfz2010mncc  -0.17160
gfz2010moyw   0.12610
gfz2010mpuy  -0.09650
gfz2010mwdq  -0.16650
gfz2010ncrl  -1.07270
gfz2010nfsj   0.09150
gfz2010nmpc   0.10780
gfz2010nnny   1.88770
gfz2010nqwf  -0.00000
gfz2010nqwo   1.31660
gfz2010nrjo  -0.04890
gfz2010ntuo  -0.01970
gfz2010nubk   0.08160
gfz2010nwef  -0.08100
gfz2010nxsy  -0.19420
gfz2010ocxq  -0.96290
gfz2010odpb  -1.71800
gfz2010oedn   0.54560
gfz2010onma  -0.68170
gfz2010osjs  -1.72190
gfz2010osqo  -1.24170
gfz2010pbdz  -1.42110
gfz2010pcxi  -0.58440
gfz2010pewx  -1.19730
gfz2010pexf  -0.16460
gfz2010pfyu  -1.32840
gfz2010phvg  -0.47740
gfz2010pmqd  -0.30630
gfz2010pxgh   0.21770
gfz2010qpcq  -1.37090
gfz2010qttw  -0.30630
gfz2010rlbv  -0.45420
gfz2010rqwj  -0.30810
gfz2010rxjw  -1.37280
gfz2010rywq  -0.77520
gfz2010sfee  -1.16740
gfz2010sfla   0.02200
gfz2010skqo  -1.44390
gfz2010skve  -0.51310
gfz2010srdb  -0.37330
gfz2010svtn  -0.46840
gfz2010swcy  -0.71470
gfz2010sxfq   0.25940
gfz2010szim  -0.86240
gfz2010tcbr  -0.20440
gfz2010tcrl  -0.75170
gfz2010tlfm  -0.11040
gfz2010tzzk   0.31330
gfz2010uept   0.25880
gfz2010upfb   0.26270
gfz2010upiw  -0.62190
gfz2010urlq  -1.06410
gfz2010usho  -1.37720
gfz2010ustq  -0.51760
gfz2010utcg  -0.30950
gfz2010utmc  -0.31830
gfz2010utvp  -0.57070
gfz2010vhuj  -0.41590
gfz2010vppc  -1.07310
gfz2010vtdg  -1.41590
gfz2010vxvs  -1.75110
gfz2010vyxd  -1.05360
gfz2010vzpr  -0.85980
gfz2010wnty  -0.79590
gfz2010wofs  -0.12340
gfz2010wrxx  -0.08720
gfz2010xbgs   0.00000
gfz2010xden  -1.32690
gfz2010xgzw  -0.45740
gfz2010xjck  -1.09280
gfz2010xjsj  -1.12270
gfz2010xnxk  -1.03540
gfz2010yjev  -0.78660
gfz2010ymfy  -0.89680
gfz2010yosr  -1.41740
gfz2010yoyx   0.45280
gfz2011aatr   0.64560
gfz2011adjs   0.14830
gfz2011adlj   0.01930
gfz2011adne  -0.70130
gfz2011adpw  -0.82680
gfz2011adqk   1.27680
gfz2011aeay   1.25960
gfz2011aldv   1.33460
gfz2011alip  -1.02130
gfz2011alsa  -1.34460
gfz2011anur  -1.94640
gfz2011aosc  -0.32060
gfz2011blsi  -0.78800
gfz2011cfae  -0.33380
gfz2011cndo  -0.61980
gfz2011coxh   0.60410
gfz2011crdy  -2.04530
gfz2011csju  -0.39870
gfz2011cvcg  -0.65880
gfz2011cvfg   0.37010
gfz2011cykd  -0.02540
gfz2011cylz   0.51610
gfz2011cynl  -0.22360
gfz2011cyre  -0.33510
gfz2011cyuk  -0.11430
gfz2011czwj   0.43730
gfz2011dbev  -0.15200
gfz2011dbig   0.21840
gfz2011dbon  -0.19230
gfz2011dbwt   0.47420
gfz2011dcqb   0.36060
gfz2011dcqf   0.28950
gfz2011dddh   3.93960
gfz2011deaf  -1.50300
gfz2011dkyi  -0.39750
gfz2011dlyx  -0.24840
gfz2011dndz   0.27550
gfz2011dpaa   0.00000
gfz2011dpqx   0.92500
gfz2011dtpy   0.11140
gfz2011duyr  -0.31130
gfz2011eayc  -1.12090
gfz2011eazf  -1.01990
gfz2011ecaj  -0.25220
gfz2011edmm  -0.95680
gfz2011efgv  -0.83280
gfz2011ehzq  -0.29280
gfz2011eiis  -0.62660
gfz2011ekpr  -0.66160
gfz2011eltw  -1.22020
gfz2011enva  -0.65030
gfz2011etje   0.05550
gfz2011fgvr  -0.70810
gfz2011fhag  -1.00690
gfz2011fhur  -0.94290
gfz2011fkbn   0.44490
gfz2011flgj  -0.64990
gfz2011flhp  -1.54200
gfz2011gbmx  -0.35150
gfz2011gcwb  -0.74690
gfz2011gdgh  -0.79940
gfz2011ghky  -0.47880
gfz2011gjlx  -1.43350
gfz2011gkzt  -1.69820
gfz2011haid  -0.02170
gfz2011hbex   0.20770
gfz2011hbqk  -1.15640
gfz2011hfkj  -0.61960
gfz2011hlqw  -0.99210
gfz2011hlsa  -0.36880
gfz2011hlth  -0.96970
gfz2011hpqp  -0.50040
gfz2011hvbu  -0.04260
gfz2011iwte   0.07410
gfz2011izqa  -1.23590
gfz2011jdsj  -1.66600
gfz2011jghb  -2.03200
gfz2011jplh   0.31240
gfz2011jtlg  -0.44290
gfz2011jxpl   3.05380
gfz2011knoo  -0.77260
gfz2011kqwo   0.13850
gfz2011kqyg   0.35120
gfz2011kwjx   0.05810
gfz2011kwkw   0.00000
gfz2011kxzp   0.05140
gfz2011lcxq   0.28960
gfz2011lczg  -1.26790
gfz2011lhls  -0.65020
gfz2011lvjr  -0.06490
gfz2011lzwj   1.06600
gfz2011mdie  -1.37530
gfz2011mjom  -0.89070
gfz2011mpme   0.87650
gfz2011nauw  -2.01830
gfz2011nmnq  -1.11410
gfz2011noud  -0.00000
gfz2011ntkh  -0.43900
gfz2011nudm  -0.82040
gfz2011ohcy  -0.02130
gfz2011oiqe  -0.18560
gfz2011oiwk   0.22820
gfz2011olkk   0.53840
gfz2011orgn  -0.04680
gfz2011ornx  -0.32410
gfz2011owvz  -1.46660
gfz2011phms  -0.00000
gfz2011qvae  -0.28030
gfz2011rewa  -0.30590
gfz2011rqui  -0.37730
gfz2011sagt   0.16190
gfz2011sawg  -0.24940
gfz2011tbas   0.99200
gfz2011tcij   0.94070
gfz2011tjrf  -1.16600
gfz2011tjue  -0.49170
gfz2011tkfp  -0.59190
gfz2011tkog  -0.67570
gfz2011toub   0.99630
gfz2011tpbl  -2.41940
gfz2011tpfr   0.18930
gfz2011tuea  -1.36120
gfz2011udsq  -0.63470
gfz2011ueni  -2.02190
gfz2011ugzz   0.32000
gfz2011ujze  -0.82460
gfz2011ukmp  -1.72420
gfz2011uphh  -0.68860
gfz2011urxy  -1.45920
gfz2011urzu  -1.25810
gfz2011vhfi   0.05490
gfz2011vnza   1.28200
gfz2011vrhg  -0.24470
gfz2011vxns  -0.58690
gfz2011vxod  -1.02880
gfz2011wcic  -0.39360
gfz2011wjul   0.17610
gfz2011wvzb  -1.04020
gfz2011wxfs   0.39940
gfz2011wxoj  -0.57200
gfz2011xcpv   0.40860
gfz2011xesx   0.39590
gfz2011xyxj   0.64680
gfz2011yfys  -1.94080
gfz2011yhwz  -1.86120
gfz2011yybo  -0.94890
gfz2011yzwq   0.46630
gfz2011zklv   0.40180
gfz2011zqhh  -0.82600
gfz2012ablh  -0.63020
gfz2012ajtq   0.79220
gfz2012aqgp  -0.63160
gfz2012attr  -0.87200
gfz2012bfah   0.06450
gfz2012bfyn   0.35010
gfz2012bpkx  -0.35820
gfz2012bszs  -0.39110
gfz2012byad  -1.06990
gfz2012cgvr  -0.18870
gfz2012cnod   0.02740
gfz2012cqnl   1.75540
gfz2012cxdn  -0.23190
gfz2012czlw   0.51750
gfz2012ddma   0.48170
gfz2012deri   0.29150
gfz2012dinb   1.37420
gfz2012dyyh  -1.42720
gfz2012enno   0.06830
gfz2012ewgo  -0.69000
gfz2012fbfo  -1.15530
gfz2012fivh  -0.94650
gfz2012foeo  -1.12700
gfz2012fwob   0.62460
gfz2012fzfa   0.71140
gfz2012glss  -0.29120
gfz2012gocc   3.56300
gfz2012gomm  -1.81780
gfz2012gwqb  -1.83190
gfz2012hnul   1.23810
gfz2012hnuw  -0.12930
gfz2012ihdl  -1.60420
gfz2012ilvn  -0.95870
gfz2012ilxh  -0.31500
gfz2012imay  -0.46790
gfz2012imbd  -0.33770
gfz2012intn   0.42100
gfz2012iyrb   0.00000
gfz2012jgvj  -0.42050
gfz2012jlox   0.19800
gfz2012jshk  -0.46960
gfz2012jupx  -0.57930
gfz2012keor  -0.86490
gfz2012kkcp  -2.08240
gfz2012kkup  -0.44740
gfz2012klba   1.27570
gfz2012klhx  -0.26870
gfz2012kuct   0.13210
gfz2012kudo   0.04210
gfz2012kvzv  -0.61510
gfz2012kwgo  -0.46880
gfz2012ldxg  -0.86310
gfz2012ldzj  -0.80350
gfz2012llug   0.15240
gfz2012lpvn  -1.09740
gfz2012lxkv   0.64360
gfz2012lzmr  -0.59650
gfz2012minr  -0.29670
gfz2012mtiu  -1.39960
gfz2012mupa  -0.38600
gfz2012mwij   1.11960
gfz2012naqz  -0.42930
gfz2012nedn  -1.23780
gfz2012ngic  -0.56930
gfz2012nqnk  -0.77360
gfz2012nsbz  -1.10750
gfz2012oazn  -0.38530
gfz2012ostk  -0.53600
gfz2012pciw  -0.11820
gfz2012pkel   0.12550
gfz2012pofl  -1.65250
gfz2012pqmu   3.51980
gfz2012qjhs  -2.99110
gfz2012quso  -1.64600
gfz2012rats   0.74820
gfz2012repv  -1.81670
gfz2012ronz  -0.06800
gfz2012royy   0.11260
gfz2012rqlg   0.54810
gfz2012ruks   0.13380
gfz2012rwko  -0.99080
gfz2012rwov   0.18750
gfz2012spbj   0.39600
gfz2012sphd   0.18900
gfz2012sqvi  -3.03290
gfz2012syvl  -0.34950
gfz2012teic  -0.79920
gfz2012thfx  -0.60040
gfz2012ttoa  -0.60860
gfz2012tvmv   0.33250
gfz2012tzcc  -0.05350
gfz2012uafg   0.16030
gfz2012uaqj  -0.50760
gfz2012uhup   0.01370
gfz2012uqzp  -0.95080
gfz2012usba   0.10120
gfz2012uvqf  -0.12200
gfz2012uyie  -0.14140
gfz2012uzom  -0.32240
gfz2012uzyj  -1.84020
gfz2012wklq  -1.09660
gfz2012wmkd  -0.81920
gfz2012wmsg  -1.25000
gfz2012wtkh  -3.04870
gfz2012wtkr  -0.16650
gfz2012wxlg  -1.09750
gfz2012wypz   0.47470
gfz2012xgqm  -0.44320
gfz2012xyqp  -0.87960
gfz2012xyua  -3.12810
gfz2012yfrp  -0.34320
gfz2012yldu  -0.16710
gfz2012yqjj  -0.55820
gfz2012yxxu  -0.73260
gfz2012yzod  -3.04970
gfz2012zemz  -1.59530
gfz2012ziml   1.68220
gfz2012zitl  -0.49200
gfz2012zjpv   0.42970
gfz2012zmln  -0.01950
gfz2013aahq  -1.18940
gfz2013aayj  -1.19420
gfz2013acag  -1.44690
gfz2013adey   0.64940
gfz2013aeee   0.37580
gfz2013aknp  -0.24270
gfz2013apmm  -1.06040
gfz2013aqaw  -0.27870
gfz2013bnxc  -0.28470
gfz2013bobq  -2.28970
gfz2013bokp  -0.60010
gfz2013bouj  -0.73330
gfz2013btjm   1.58050
gfz2013bzzm   1.75010
gfz2013ccnr   0.05740
gfz2013cdan  -0.83320
gfz2013ciaf  -0.55560
gfz2013cwpn   0.25550
gfz2013cwps   0.58810
gfz2013czeq  -0.39170
gfz2013dddp  -1.30150
gfz2013dkly  -0.48510
gfz2013dkmz  -0.74410
gfz2013dnnx  -0.74210
gfz2013dofo  -1.96280
gfz2013dojq  -0.92000
gfz2013dqls  -2.42370
gfz2013drpk  -1.54700
gfz2013drxz  -0.71850
gfz2013dsog  -0.18320
gfz2013dspt  -0.47270
gfz2013dsrk  -2.07280
gfz2013dujm   0.14940
gfz2013dvyh   1.47420
gfz2013egni  -1.04050
gfz2013ehwe  -0.70390
gfz2013enbx   0.98520
gfz2013ewbo   0.33340
gfz2013figy   3.35670
gfz2013fiud  -0.90560
gfz2013fkcl  -0.61260
gfz2013fkii   1.03280
gfz2013flox  -0.99100
gfz2013fwxa  -1.82920
gfz2013fxge  -0.03080
gfz2013fygc  -1.30390
gfz2013gbcn  -0.61200
gfz2013gbst  -0.31180
gfz2013gcfx  -1.21750
gfz2013gdnq  -0.52930
gfz2013geia  -0.71850
gfz2013gelv  -1.34160
gfz2013ggtf  -0.88600
gfz2013gmor  -0.37890
gfz2013gngz  -1.01040
gfz2013gnse  -1.73490
gfz2013goux  -1.92770
gfz2013gvdb   2.20280
gfz2013gvet  -3.25370
gfz2013hbkq   1.02810
gfz2013hfmp  -0.85140
gfz2013hisv  -1.84500
gfz2013hkja  -1.45470
gfz2013hudi   1.34190
gfz2013hydf  -0.90620
gfz2013idbb  -0.34630
gfz2013iexo   0.27060
gfz2013ifpq  -0.81060
gfz2013ihcj  -1.42430
gfz2013ikgo  -1.02110
gfz2013inux   1.08190
gfz2013iodt  -0.99970
gfz2013ippu   1.38590
gfz2013iunn  -2.27590
gfz2013iyqz  -3.06470
gfz2013jdrx  -1.71040
gfz2013jesk  -1.53110
gfz2013jgij  -1.33740
gfz2013jgip   1.12410
gfz2013jkut   0.29290
gfz2013jmcc   2.65290
gfz2013json  -0.24510
gfz2013jusj   0.51870
gfz2013jwvc  -0.25310
gfz2013kdeo  -0.85150
gfz2013kheb  -0.40310
gfz2013kvtk  -1.37260
gfz2013kweg  -0.68000
gfz2013ldpc   0.27990
gfz2013ldqb   0.09870
gfz2013lgbb   0.06540
gfz2013lixa  -1.35490
gfz2013lljw  -1.32920
gfz2013lxyn   0.20200
gfz2013lyko  -0.42830
gfz2013mmlw  -0.87040
gfz2013mqmv   0.41470
gfz2013mtqd   1.07470
gfz2013mwbh  -0.31290
gfz2013nabl  -0.63730
gfz2013ncjp  -0.96390
gfz2013ndin  -0.52420
gfz2013nfwx   0.94880
gfz2013nixj   0.39920
gfz2013nkgj  -0.27170
gfz2013nknw  -0.22970
gfz2013nnzf  -1.03380
gfz2013nojf  -0.03800
gfz2013npcg   1.90010
gfz2013nwdi   0.31280
gfz2013ogde  -0.37370
gfz2013ozku   0.23320
gfz2013ozrf  -1.40930
gfz2013pfbx  -0.90590
gfz2013pfeb   0.79020
gfz2013pffm  -0.47040
gfz2013pfnf   0.16360
gfz2013puag  -1.64980
gfz2013pxsj   0.62530
gfz2013qali   1.28690
gfz2013qcck  -1.03000
gfz2013qmer   0.82880
gfz2013qqrr  -0.60860
gfz2013qzdq  -0.82080
gfz2013roki   0.49840
gfz2013scai  -0.72170
gfz2013sdus  -0.88340
gfz2013sebq  -0.31710
gfz2013shzy   0.18400
gfz2013skkm  -1.95520
gfz2013snbr  -0.32630
gfz2013sred   0.10070
gfz2013svci   0.19200
gfz2013tcxc  -0.23630
gfz2013tcxq  -0.11620
gfz2013tdau  -0.31050
gfz2013tlaf  -0.91120
gfz2013toxf   0.38460
gfz2013tusd  -0.33060
gfz2013txij  -0.48220
gfz2013uauo  -1.58800
gfz2013ufku  -1.12500
gfz2013ufxm  -0.69700
gfz2013uhlm   0.07330
gfz2013uqsp   0.63060
gfz2013utsh   0.89220
gfz2013vexx  -0.39120
gfz2013vfyw   0.77280
gfz2013vfzp   0.50930
gfz2013vgev  -1.70630
gfz2013viul   0.22820
gfz2013vjfe  -1.24090
gfz2013vjjc  -0.44400
gfz2013vzbo  -0.52300
gfz2013wjmm   1.02820
gfz2013wkyk   0.82780
gfz2013wrgw  -0.14330
gfz2013wtzl  -1.00900
gfz2013xgek  -0.11290
gfz2013xgmp  -1.45060
gfz2013xsdt   1.34840
gfz2013xtwj   1.03690
gfz2013xvqd   1.17300
gfz2013xwda  -1.30880
gfz2013xxcc  -0.21260
gfz2013xxwv   0.07220
gfz2013xxxq  -0.35290
gfz2013xyzb  -0.17810
gfz2013xzcg   0.12240
gfz2013yach  -0.90230
gfz2013yaig  -1.66370
gfz2013yctg  -0.49850
gfz2013yhbu  -0.43640
gfz2013yhpk   0.26660
gfz2013ymky   0.32370
gfz2013ynmw  -1.14240
gfz2013ypdc  -0.43370
gfz2013yqkv   0.91640
gfz2013yyhc  -1.35140
gfz2013zfhu  -1.08590
gfz2013ziyr   2.07770
gfz2013zjtw   0.22060
gfz2013zmoc  -1.41180
gfz2013zmtb  -0.03960
gfz2014adoj  -0.11760
gfz2014afmx  -0.21330
gfz2014afyp  -0.60330
gfz2014agrl   0.13400
gfz2014ajlk   0.56750
gfz2014algk  -0.95150
gfz2014alwz  -0.22960
gfz2014amsb  -2.34830
gfz2014ande  -0.46430
gfz2014aqbk  -0.02910
gfz2014arpf  -1.35880
gfz2014arqr   0.06870
gfz2014bhvd  -0.15700
gfz2014bjgt  -0.40520
gfz2014bldx  -1.23880
gfz2014bmfv  -0.69840
gfz2014bmta  -0.62740
gfz2014bwue   0.21480
gfz2014bzxy  -1.11050
gfz2014caop  -0.93490
gfz2014capn  -0.22410
gfz2014cbtl  -1.02040
gfz2014cgog  -0.68270
gfz2014chdv  -0.05550
gfz2014claq  -1.07710
gfz2014clnq  -1.74640
gfz2014cmwb  -0.82860
gfz2014ctot  -1.20850
gfz2014cueu  -1.32690
gfz2014cvkm  -0.32790
gfz2014cvxx  -0.46090
gfz2014czno   0.12600
gfz2014czol   0.68820
gfz2014czqi  -0.67280
gfz2014czua   0.34060
gfz2014dbyx   1.21570
gfz2014dddc  -0.15360
gfz2014dffd   0.23160
gfz2014dhxt  -0.52280
gfz2014disp   0.25070
gfz2014dpzx   0.41720
gfz2014duqn  -1.27630
gfz2014efkk   0.57880
gfz2014eght   1.34800
gfz2014ehfp   1.80130
gfz2014ehsf   0.67350
gfz2014ejmt   0.04640
gfz2014ekcr  -0.07810
gfz2014ekdn  -0.50100
gfz2014ekdt  -0.19200
gfz2014emrg  -0.03410
gfz2014enhi   0.58650
gfz2014eqpl  -2.03600
gfz2014etqa  -0.61750
gfz2014ettc  -0.68790
gfz2014exxa   0.10360
gfz2014ezgb  -0.99240
gfz2014fcms   0.60090
gfz2014fcsy   0.84360
gfz2014fedd  -0.83880
gfz2014femz   0.21510
gfz2014fexu  -1.09450
gfz2014ffdc  -1.46510
gfz2014fgvi   0.82280
gfz2014fgvz   0.51470
gfz2014fhdw  -0.52740
gfz2014fhla  -2.25060
gfz2014fhrq  -1.45520
gfz2014fhwx  -1.10110
gfz2014fhxm  -1.55960
gfz2014fimn  -0.25090
gfz2014fjdz   0.24490
gfz2014fjzd  -0.35410
gfz2014fkmr  -1.03240
gfz2014fkmx  -0.98840
gfz2014fnyg  -0.39250
gfz2014fqpz  -0.69710
gfz2014frdz  -0.31240
gfz2014frez  -1.15130
gfz2014frfl  -1.62580
gfz2014frwh  -1.20130
gfz2014fsuh  -1.47720
gfz2014ftka  -2.14190
gfz2014ftoc  -0.79480
gfz2014ftrk   0.30210
gfz2014furx  -0.94760
gfz2014fusc  -1.48110
gfz2014fusj  -0.65170
gfz2014fuub   0.77210
gfz2014fvaa  -0.58340
gfz2014fval  -0.53060
gfz2014fvgh  -0.87030
gfz2014fvjl   0.26200
gfz2014fvrg  -0.61850
gfz2014fwtt  -0.53650
gfz2014fxhd   0.75410
gfz2014gbcz   0.16860
gfz2014gbdq   0.21680
gfz2014ghpe  -1.45110
gfz2014gkgf  -0.98570
gfz2014gkgs  -1.12620
gfz2014gkhy   0.30390
gfz2014gkjl  -1.05830
gfz2014gkjt  -1.13180
gfz2014gkmm   0.01410
gfz2014gkob  -0.24650
gfz2014gkqf  -0.06820
gfz2014gkqu  -0.11360
gfz2014gksj   0.59470
gfz2014gksu  -0.55950
gfz2014gktq   0.11730
gfz2014gkxm  -4.41560
gfz2014glcu  -0.48910
gfz2014glcy  -1.13250
gfz2014glgo   2.12840
gfz2014glhs  -0.96350
gfz2014gltx  -0.02940
gfz2014glvn   3.11480
gfz2014gmci  -1.69210
gfz2014gmes  -0.52580
gfz2014gmge   0.12780
gfz2014gmhr  -0.36200
gfz2014gmip   1.26910
gfz2014gmjo  -0.66900
gfz2014gmnb  -0.23820
gfz2014gmnw  -0.17950
gfz2014gmzl  -0.72900
gfz2014gnfd  -0.79230
gfz2014gnfs  -1.17110
gfz2014goba  -0.09060
gfz2014gogv  -0.65580
gfz2014goqw  -0.66410
gfz2014gori   1.99020
gfz2014gpbx  -0.59330
gfz2014gpce  -0.98500
gfz2014gpya   0.29770
gfz2014gqbj  -0.12900
gfz2014gqer   0.69910
gfz2014gqve  -0.88900
gfz2014grho  -0.70670
gfz2014gsqs  -0.93300
gfz2014gtef   1.24410
gfz2014gtlu   0.73340
gfz2014gull  -0.91900
gfz2014gulp  -1.51840
gfz2014gvqj  -0.39700
gfz2014gwab  -2.85070
gfz2014gwgf  -1.00050
gfz2014gwqj  -1.60620
gfz2014gxxo  -1.31130
gfz2014hasj  -1.03570
gfz2014hauo  -0.54160
gfz2014hbqb  -0.69760
gfz2014hcmj   0.06450
gfz2014heyq  -0.61720
gfz2014hfhl  -1.06270
gfz2014hgqo  -0.40120
gfz2014hhwx  -1.79190
gfz2014hifp  -1.20190
gfz2014hjgh  -4.63050
gfz2014hjgr  -0.50620
gfz2014hjij  -1.09260
gfz2014hjlx  -1.27410
gfz2014hlib  -0.18990
gfz2014hmzg  -0.89370
gfz2014hocg   0.24690
gfz2014hqxs  -0.59280
gfz2014hrft   0.28130
gfz2014hriu  -0.78970
gfz2014hscz   0.86000
gfz2014huaj  -0.84200
gfz2014hyal   0.16610
gfz2014hymr  -0.03340
gfz2014hyvq  -0.81630
gfz2014hzdy   0.09110
gfz2014hzfr   0.03110
gfz2014hzfw  -0.55460
gfz2014ifzj  -1.43020
gfz2014ikun  -1.39140
gfz2014ilwu   0.10940
gfz2014inbj  -0.83070
gfz2014iobd  -0.68530
gfz2014itkw   0.81780
gfz2014itpj   1.68660
gfz2014jatq  -1.38440
gfz2014jbyg   0.69400
gfz2014jcmt   0.02000
gfz2014jfis  -0.56940
gfz2014jggm  -1.50670
gfz2014jhra  -0.50570
gfz2014jipr  -0.90900
gfz2014jjhc  -0.38400
gfz2014jjln  -0.98600
gfz2014jlwb  -1.99420
gfz2014jmnk  -1.09750
gfz2014jnyv  -0.03190
gfz2014jpep  -0.47930
gfz2014jpxs  -1.64390
gfz2014jvow  -0.51290
gfz2014jwmh  -0.02850
gfz2014kara  -0.84320
gfz2014khlk  -0.33310
gfz2014kitm  -0.69930
gfz2014kjjq   0.17720
gfz2014kndc   0.11330
gfz2014knks   0.22800
gfz2014ksdv  -0.50370
gfz2014kssw  -0.42080
gfz2014lbcq   1.13460
gfz2014lbxn  -1.63500
gfz2014ldhu  -0.14400
gfz2014lefs  -0.34630
gfz2014lgqn   0.39030
gfz2014lhqn   0.04060
gfz2014lkyf  -1.17880
gfz2014lpim  -0.54480
gfz2014lxnc  -0.87800
gfz2014lyhk  -0.56590
gfz2014lyhp  -1.11380
gfz2014macx  -0.56240
gfz2014madw  -1.22960
gfz2014myqz  -5.69460
gfz2014ncub   0.86940
gfz2014ndue  -1.46000
gfz2014ngnd  -0.20850
gfz2014ngsk  -1.31160
gfz2014nnih  -1.37040
gfz2014nowp  -0.25530
gfz2014npdk  -0.38350
gfz2014npeo   0.08630
gfz2014nphm   0.26300
gfz2014nqfm   0.01220
gfz2014nrie   0.13020
gfz2014ntdh   0.17170
gfz2014oinz  -0.49500
gfz2014osvz   0.31100
gfz2014oxcc  -0.58040
gfz2014pjer  -2.80510
gfz2014poap  -0.27820
gfz2014ppyi  -0.70900
gfz2014pvch  -0.82810
gfz2014pzni  -1.01500
gfz2014qdog  -1.61070
gfz2014qlxd   0.24080
gfz2014qngj  -0.07090
gfz2014qqhm   0.02720
gfz2014raau  -0.31820
gfz2014rbsl  -0.06070
gfz2014rdoz   0.80110
gfz2014rfeb  -0.49790
gfz2014riel  -1.60950
gfz2014rkwl  -0.94570
gfz2014roba  -0.27640
gfz2014ryfb  -0.71890
gfz2014snfs  -0.17950
gfz2014ssmv   0.15440
gfz2014ssvz  -1.18550
gfz2014szzf  -0.02140
gfz2014tovs  -0.42000
gfz2014tqdo  -0.22380
gfz2014tqsf  -1.25520
gfz2014tqth  -2.16180
gfz2014tute   0.01920
gfz2014tzsd   0.55250
gfz2014ubwn  -0.78150
gfz2014uvji  -0.89920
gfz2014uvrk   0.26630
gfz2014vcev  -0.85490
gfz2014vhld  -0.26560
gfz2014vhms   0.12660
gfz2014vhuy  -1.66990
gfz2014vjoz  -0.07710
gfz2014watn   0.23670
gfz2014wjko   0.41150
gfz2014wqcp  -0.84420
gfz2014wrkh  -0.17080
gfz2014wwib  -0.68260
gfz2014xbyr   0.05320
gfz2014xjri  -0.36170
gfz2014xqby  -1.69380
gfz2014yazi   0.68820
gfz2014yhhm  -1.80660
gfz2014ynzy  -0.93640
gfz2014yrug  -0.76220
gfz2014zplq   1.15040
gfz2015abpw  -0.74850
gfz2015apnk  -0.17040
gfz2015aqbq  -0.60870
gfz2015aruz   0.05390
gfz2015atxv  -1.30180
gfz2015aush  -0.07580
gfz2015azzp  -0.74400
gfz2015bavu  -1.51020
gfz2015berb   0.33860
gfz2015bfjm  -0.36780
gfz2015bkbj  -1.40030
gfz2015bohx  -1.25440
gfz2015bphe  -0.52900
gfz2015bucr  -0.66200
gfz2015chhn   0.39050
gfz2015chqn   0.57580
gfz2015cxrc   0.94430
gfz2015cxxk  -0.47070
gfz2015cyjd  -1.01220
gfz2015czfv  -1.69970
gfz2015ecgq  -1.83450
gfz2015eeyq  -0.96100
gfz2015eezy   0.76050
gfz2015egxq   0.12270
gfz2015ehou  -0.83910
gfz2015eiky  -0.37320
gfz2015elgy  -0.00000
gfz2015eljz  -0.44280
gfz2015emcg   0.20620
gfz2015emin   0.22420
gfz2015emtg  -0.60310
gfz2015esrj  -0.29400
gfz2015etai   0.51290
gfz2015eyqs  -1.54820
gfz2015fcua  -0.88350
gfz2015fjhk  -0.07190
gfz2015fkgt   0.65670
gfz2015fkic  -0.29610
gfz2015fkjs  -1.49100
gfz2015flis  -0.32380
gfz2015fsjj   0.15460
gfz2015fvoi  -0.61120
gfz2015fxdi  -0.45610
gfz2015fyvk   0.21800
gfz2015gckd   0.25600
gfz2015ggjw  -0.80590
gfz2015gjbr   0.07210
gfz2015gkwa  -0.67720
gfz2015gmgf  -0.20720
gfz2015guhd  -1.29330
gfz2015gwao  -0.47520
gfz2015hepg  -0.91520
gfz2015hgbk  -0.29670
gfz2015hpmk  -0.76230
gfz2015hvgs   0.10560
gfz2015hwkv  -1.20430
gfz2015hwzw   4.65520
gfz2015igsy  -0.56480
gfz2015ijmh  -0.08490
gfz2015ixyy  -0.40070
gfz2015jkdw  -0.20520
gfz2015jpap  -0.21640
gfz2015jxjd  -0.66550
gfz2015jzcv  -0.86040
gfz2015kcaa  -0.23480
gfz2015kfsu  -0.37530
gfz2015kkth  -0.71220
gfz2015ksni   0.16290
gfz2015kxxs   0.17930
gfz2015lhjy   0.75230
gfz2015lytv   0.24600
gfz2015lzad  -0.14670
gfz2015mddr   0.13350
gfz2015mpte  -0.66450
gfz2015oyfl   0.85280
gfz2015pgxa  -0.57370
gfz2015poni  -1.28580
gfz2015qiit  -0.62350
gfz2015qnho   0.31510
gfz2015qnlv  -0.61570
gfz2015qnto  -1.77210
gfz2015qpvd  -0.55630
gfz2015rddx  -0.23520
gfz2015rkzg   0.71840
gfz2015sfdd   0.86560
gfz2015sfdh  -2.30090
gfz2015sfdl  -0.12490
gfz2015sfdv  -0.40080
gfz2015sfdy  -0.24610
gfz2015sfeo   0.63830
gfz2015sffn  -0.78520
gfz2015sfga  -1.28560
gfz2015sfhz   0.78450
gfz2015sfiq  -0.72160
gfz2015sfjf   0.13420
gfz2015sfko   0.13260
gfz2015sfks  -0.13760
gfz2015sfkz  -1.19370
gfz2015sfmd   0.66760
gfz2015sfnb  -0.94860
gfz2015sfno   0.09880
gfz2015sfnv   0.04370
gfz2015sfoc  -1.05330
gfz2015sfom  -0.95070
gfz2015sfoq   0.67720
gfz2015sfpj  -1.75210
gfz2015sfqr  -0.33940
gfz2015sfrc  -2.83710
gfz2015sfrf  -0.23610
gfz2015sfrv   7.53500
gfz2015sftu  -0.21350
gfz2015sfuz  -1.27490
gfz2015sfwf   0.09160
gfz2015sfxn  -0.92670
gfz2015sfzm  -0.14600
gfz2015sgad  -0.90100
gfz2015sglg  -0.40600
gfz2015sgmm  -1.24530
gfz2015sgmr   1.47520
gfz2015sgoa  -1.01800
gfz2015sgpu  -1.46830
gfz2015sguf   0.84030
gfz2015sgyd  -0.41040
gfz2015shaq   0.04320
gfz2015shel  -1.14540
gfz2015shhg   0.10440
gfz2015shhu  -1.32290
gfz2015shjn  -0.85630
gfz2015shlp  -0.94300
gfz2015shov   1.41810
gfz2015shrg  -0.35420
gfz2015shsz   0.44630
gfz2015shwt  -0.80000
gfz2015sicf  -0.77500
gfz2015sicu  -0.77650
gfz2015siem  -0.73760
gfz2015sixs  -2.01190
gfz2015siyy  -1.38370
gfz2015sjbx  -0.57770
gfz2015sjfi   1.34760
gfz2015sjgk  -0.06640
gfz2015sjjb  -0.96220
gfz2015sjne  -0.40910
gfz2015sjoj   0.88990
gfz2015sjpn  -0.91970
gfz2015sjvu   0.87000
gfz2015sjwi   1.21550
gfz2015skab  -1.36350
gfz2015skgj  -0.93110
gfz2015skia  -2.74230
gfz2015skpv  -0.39660
gfz2015skxu  -0.29210
gfz2015sldx  -0.15120
gfz2015sljs  -0.77750
gfz2015slun   0.17610
gfz2015smgj   0.25310
gfz2015smym  -0.33360
gfz2015snsf  -0.56320
gfz2015snwh  -0.01020
gfz2015snyd   0.37800
gfz2015soat  -0.26130
gfz2015sopc   1.53810
gfz2015sowu  -0.33360
gfz2015soxc   0.29370
gfz2015spal  -1.41180
gfz2015sqbg  -1.02670
gfz2015sqmy  -0.34610
gfz2015sqwv   0.11730
gfz2015sqyh  -2.16460
gfz2015srat  -0.55560
gfz2015srgf   0.40790
gfz2015srxe  -0.13380
gfz2015ssoe  -0.80980
gfz2015sspn   2.09700
gfz2015ssrl   0.00000
gfz2015stas  -2.01540
gfz2015stcv  -1.25430
gfz2015stso  -0.06290
gfz2015subg  -0.33620
gfz2015subx   0.52200
gfz2015sunp  -0.41510
gfz2015supa  -0.33480
gfz2015susq   0.16150
gfz2015svwm   0.91460
gfz2015sxgd  -1.07120
gfz2015sxmh  -0.33400
gfz2015sxxu  -0.51960
gfz2015szcb   0.26160
gfz2015szfe  -0.92830
gfz2015szfq  -0.70390
gfz2015sztx  -0.81070
gfz2015taml  -0.85520
gfz2015tbdn  -1.07440
gfz2015tdbb  -0.95100
gfz2015tdcu  -0.63330
gfz2015teje  -2.97630
