# Nsamples: 10  MAD:  0.643  mean: -0.124  variance:  2.536
gfz2010grjd  -0.89280
gfz2010iull   0.19350
gfz2010nmpc   1.29210
gfz2011enva   0.30320
gfz2011lcxq  -0.35460
gfz2011lzwj   0.48800
gfz2011wxfs   0.19710
gfz2012jlox  -0.12220
gfz2014ftka  -4.31550
gfz2015cyjd   1.96810
