# Nsamples: 590  MAD:  1.051  mean:  1.117  variance:  1.486
gfz2010bifb   0.98340
gfz2010bjeb   1.23630
gfz2010bjjx   1.95270
gfz2010bxxs   0.43270
gfz2010caft   1.08130
gfz2010cqwl   2.60770
gfz2010ctuw   0.64020
gfz2010czps   1.06720
gfz2010dlgc   0.19650
gfz2010eaoy  -2.23210
gfz2010eapk   0.04640
gfz2010eapn  -0.47910
gfz2010eaqe  -2.70640
gfz2010eaqx   0.10070
gfz2010eaqy  -0.43740
gfz2010earq   0.75840
gfz2010earu  -1.50490
gfz2010easf   0.04010
gfz2010eask   0.95950
gfz2010easo  -1.07040
gfz2010easu  -0.23870
gfz2010eati  -0.74380
gfz2010eato  -1.19780
gfz2010eatt  -5.15390
gfz2010eaty  -1.24430
gfz2010eaul  -0.39940
gfz2010eavd  -0.57900
gfz2010eavs  -1.62030
gfz2010eawb  -2.45230
gfz2010eaxa   0.08450
gfz2010eaxn  -0.57930
gfz2010eayp   1.78550
gfz2010eazu  -0.00000
gfz2010ebbd   0.61360
gfz2010ebbx   2.00990
gfz2010ebby   0.90850
gfz2010ebdl  -0.18770
gfz2010ebek   0.04200
gfz2010ebfa  -0.89390
gfz2010ebfx   0.89210
gfz2010ebgj   1.65220
gfz2010ebhc   0.03280
gfz2010ebih   0.13730
gfz2010ebin   0.29410
gfz2010ebiv   1.11790
gfz2010ebjy  -0.38470
gfz2010ebkj  -0.61670
gfz2010ebkx   1.45750
gfz2010ebla   0.17080
gfz2010ebmb   0.06740
gfz2010ebnn  -0.42350
gfz2010ebrm   1.70230
gfz2010ebsv  -1.04050
gfz2010ebtk   0.57480
gfz2010ebvm   2.44600
gfz2010ebvv  -0.20980
gfz2010ebwp   0.20170
gfz2010ebxl   1.56590
gfz2010ebzk   1.16760
gfz2010ebzr   0.44970
gfz2010ecam  -0.21340
gfz2010ecay  -1.64580
gfz2010ecbi   0.41060
gfz2010ecfx   2.63440
gfz2010ecgh  -0.02060
gfz2010echc   0.75700
gfz2010ecsp  -0.82390
gfz2010ecua  -0.40620
gfz2010ecvt  -0.10600
gfz2010edat   1.25130
gfz2010eujm   1.14310
gfz2010evjv  -0.87750
gfz2010evkd   0.62110
gfz2010exdd  -1.04220
gfz2010exdl   0.42790
gfz2010exed   0.22970
gfz2010exel   3.54230
gfz2010exgb  -0.19060
gfz2010exhd   0.52960
gfz2010exhw  -0.17950
gfz2010exno  -0.23810
gfz2010ezck  -1.29390
gfz2010ezwz   0.98500
gfz2010ezxd   0.36720
gfz2010faeu   0.82510
gfz2010falm   0.39150
gfz2010fauz   1.71090
gfz2010fcax   0.79330
gfz2010fedq   1.47190
gfz2010ffhq   0.59980
gfz2010fupn   1.00990
gfz2010fuuy  -0.16100
gfz2010fwkk   0.86160
gfz2010fwpv   2.73520
gfz2010fync   0.16550
gfz2010fzoi   0.84830
gfz2010gcrl  -0.16120
gfz2010gcrp   0.88770
gfz2010gdld   0.88240
gfz2010gjia   0.41550
gfz2010glxl  -0.29900
gfz2010grjd   0.36030
gfz2010gymo   0.46000
gfz2010gyqp  -0.54490
gfz2010gzxr   0.53150
gfz2010hakh  -0.49680
gfz2010hcio   0.41770
gfz2010hlco   0.47220
gfz2010hllj  -0.24750
gfz2010hlln   0.22130
gfz2010hlmq  -0.29420
gfz2010hnnf   0.28300
gfz2010hxgv   1.12600
gfz2010iibf   1.00120
gfz2010imfv   2.53820
gfz2010iobp   0.08330
gfz2010iphd   0.85630
gfz2010iqfm   0.65720
gfz2010iqnm   0.21360
gfz2010irvf   0.74340
gfz2010isrp   0.36890
gfz2010itpb   0.63050
gfz2010jant  -0.28290
gfz2010jatq   1.11870
gfz2010jhie   2.97230
gfz2010jipf   2.03960
gfz2010jpyj   0.49580
gfz2010jqxx   1.49690
gfz2010jssh  -0.17730
gfz2010jtal   2.17920
gfz2010jucj   0.69470
gfz2010jxbm  -0.31610
gfz2010kdyc   1.26840
gfz2010liqs   0.86060
gfz2010lkcf   1.12940
gfz2010lruw   0.59880
gfz2010mdpq   1.59770
gfz2010mgss   1.58430
gfz2010miqn   1.09350
gfz2010mkuu   1.08790
gfz2010moyw  -0.45030
gfz2010mpuy  -0.32970
gfz2010mwdq   0.49150
gfz2010ncrl   0.47660
gfz2010nfsj   0.18540
gfz2010nqwo  -0.51150
gfz2010nsck  -0.72560
gfz2010nubk   0.66270
gfz2010nwef   1.26490
gfz2010nxsy   0.00000
gfz2010nxum   0.25840
gfz2010ocxq   0.35380
gfz2010okdm   0.74920
gfz2010onma   0.23800
gfz2010osjs  -0.31170
gfz2010oyqy   2.11350
gfz2010pcxi   0.99770
gfz2010pewa   0.18390
gfz2010pewx   0.25510
gfz2010pexf   0.86790
gfz2010phvg  -1.21500
gfz2010plbg   0.88010
gfz2010pmqd   0.51750
gfz2010qitd   1.98650
gfz2010qjst   0.52640
gfz2010qpcq   1.78630
gfz2010qpum   1.88020
gfz2010rkfp   1.74070
gfz2010rlbv   5.27670
gfz2010rqwj  -2.29540
gfz2010rxjw  -1.81900
gfz2010sfee   1.41410
gfz2010sfla   0.68550
gfz2010skqo   1.46140
gfz2010srdb   0.38730
gfz2010svtn   0.91100
gfz2010swcy   0.70940
gfz2010sxwt   7.19950
gfz2010szde   2.06690
gfz2010tcbr   0.86730
gfz2010tcrl  -1.04060
gfz2010tlfm   1.35450
gfz2010truw   0.66380
gfz2010upfb  -0.50400
gfz2010upiw   0.25750
gfz2010usho   1.21440
gfz2010ustq   1.23190
gfz2010utcg   0.13070
gfz2010utmc   1.41330
gfz2010uyhb  -0.34060
gfz2010veri   0.55540
gfz2011csju   1.72000
gfz2011cvfg   1.08480
gfz2011cykd  -0.20900
gfz2011cynl   1.20450
gfz2011cyuk  -0.03570
gfz2011dbev   0.77650
gfz2011dbig  -0.10460
gfz2011dbon   1.17480
gfz2011dcqb  -1.92980
gfz2011dcqf   0.09810
gfz2011dpqx   1.15540
gfz2011ecaj   0.12310
gfz2011fgvr   1.92700
gfz2011flgj  -2.84690
gfz2011fnsw   2.64920
gfz2011gbmx   1.51320
gfz2011gcwb   2.68830
gfz2011gkzt  -0.08360
gfz2011hbex   1.90770
gfz2011hfkj   0.71360
gfz2011hlqw   1.24640
gfz2011hlsa   0.98750
gfz2011hlth   2.60000
gfz2011hpgx   2.03110
gfz2011hpqp   0.68760
gfz2011iwte   0.34740
gfz2011jghb   2.70280
gfz2011jplh   0.80710
gfz2011jtlg   0.89460
gfz2011jxpl  -2.18110
gfz2011knoo   1.97040
gfz2011kqwo  -0.45120
gfz2011kqyg   1.23260
gfz2011kwjx   2.88110
gfz2011kwkw   1.39260
gfz2011kwqc   1.94440
gfz2011kxzp   0.74360
gfz2011lcxq   0.54160
gfz2011lzwj   1.34710
gfz2011mdie   1.55480
gfz2011mllx   1.77810
gfz2011mpme   0.91400
gfz2011mprq   2.59740
gfz2011nmnq   0.92040
gfz2011noud   1.83440
gfz2011ntkh   2.44620
gfz2011orgn   2.03230
gfz2011ornx   1.42250
gfz2011owvz   1.03620
gfz2011ozsl   1.82300
gfz2011pccd   2.54910
gfz2011wcic   0.91890
gfz2011wxfs   1.83610
gfz2011wxtk   1.84560
gfz2011xcpv   1.27600
gfz2011xyxj   2.54000
gfz2012cqnl   1.09660
gfz2012cxdn   0.82340
gfz2012fbfo   1.24340
gfz2012fzfa   1.13110
gfz2012hnul   0.94810
gfz2012hnuw   2.36860
gfz2012ilvn   0.95930
gfz2012intn   1.20040
gfz2012jlox   0.47810
gfz2012jshk   2.23050
gfz2012jupx   1.09760
gfz2012keor   4.18090
gfz2012kkup   1.05430
gfz2012klba   1.75870
gfz2012kuct   0.88070
gfz2012kudo   1.53250
gfz2012kwgo   1.59880
gfz2012lczo   1.20590
gfz2012ldzj   2.35600
gfz2012lxkv   0.87980
gfz2012minr   1.40240
gfz2012mpvy   1.76370
gfz2012mupa   1.11690
gfz2012mwij   3.10210
gfz2012naqz   0.55060
gfz2012nedn   1.56220
gfz2012ngic   1.33140
gfz2012ntzv   4.16370
gfz2012nxog   0.49650
gfz2012oazn  -0.31520
gfz2012obgw   1.18810
gfz2012omvo   1.16460
gfz2012pciw   0.29770
gfz2012pgcl   0.22340
gfz2012pkel   2.83550
gfz2012quso  -1.37690
gfz2012royy   1.99260
gfz2012rwko   1.82460
gfz2012rwov   1.36780
gfz2012syvl   2.30910
gfz2012thfx   1.36880
gfz2012ttoa   2.41750
gfz2012tvmv   0.42370
gfz2012tzcc   1.93610
gfz2012uafg   0.05930
gfz2012uciv   0.29280
gfz2012uqzp   1.67180
gfz2012uvqf   2.05790
gfz2012uyxb   1.61700
gfz2012uzom   2.69110
gfz2012vceo   0.84920
gfz2012vsev   1.68560
gfz2012whku   1.13820
gfz2012wklq  -0.76970
gfz2012wvfl   1.77010
gfz2012wxlg  -0.02600
gfz2012wypz   2.40600
gfz2012xbjq   2.22300
gfz2012xslk   1.86650
gfz2012zitl   0.84610
gfz2013apmm   0.83120
gfz2013bnxc   0.59800
gfz2013bokp   2.76070
gfz2013ccnr   0.74870
gfz2013cdan   1.53130
gfz2013cvqg   2.38410
gfz2013dofo   0.49890
gfz2013drxz   0.38150
gfz2013egni   1.45750
gfz2013egpu   5.76530
gfz2013figy   2.12490
gfz2013fiud   2.07330
gfz2013fkii   3.39860
gfz2013fwxa   3.17130
gfz2013fygc   1.85170
gfz2013gdgf   2.39710
gfz2013gdnq   0.35480
gfz2013hbkh  -0.42820
gfz2013hfmp   1.19050
gfz2013ijsr   2.35320
gfz2013ippu   1.82320
gfz2013iunn   2.48340
gfz2013jesk   0.89800
gfz2013jgij   2.43490
gfz2013jgip   1.79680
gfz2013jusj   2.55990
gfz2013kccc   4.08440
gfz2013kdeo   2.18570
gfz2013kheb   1.86440
gfz2013ldpc   1.98100
gfz2013ldqb   1.87270
gfz2013lixa   2.32320
gfz2013lyko   1.55810
gfz2013mwbh   1.60800
gfz2013ncjp   1.56700
gfz2013nixj   1.61460
gfz2013nkgj   2.28910
gfz2013nmac   1.45940
gfz2013nqgw   0.48680
gfz2013pcos   1.67000
gfz2013pfbx   1.37510
gfz2013pfeb   2.22990
gfz2013puag   1.62460
gfz2013pxsj   3.17270
gfz2013qmer   2.72520
gfz2013qnxc   0.75920
gfz2013sfds   1.46870
gfz2013sfto   2.76050
gfz2013suvn   2.48990
gfz2013svci   1.71680
gfz2013tcxc   1.51560
gfz2013tcxq   2.01470
gfz2013tdau   1.65070
gfz2013tlaf   2.44710
gfz2013tusd   2.38620
gfz2013tvmw   1.46290
gfz2013twwf   0.87200
gfz2013txtb   0.79670
gfz2013tyas   3.07420
gfz2013uqsp   1.08200
gfz2013uuzn   1.49840
gfz2013vfyw   2.06890
gfz2013vfzp   3.06760
gfz2013vgev   1.44810
gfz2013viul   2.13930
gfz2013vjjc  -1.77720
gfz2013vvrq   1.22570
gfz2013vzbo   2.59610
gfz2013wjmm   1.52560
gfz2013wtzl   1.52970
gfz2013xsdt   2.67090
gfz2013xxxq   2.06980
gfz2013yctg   1.23630
gfz2013yqkv   2.08770
gfz2014adoj   1.64270
gfz2014afmx   1.29850
gfz2014bagd   1.09910
gfz2014czqi   2.88310
gfz2014disp   0.09830
gfz2014ekcr  -0.52540
gfz2014enhi  -1.77300
gfz2014fgvi   2.09590
gfz2014fgza   3.00350
gfz2014fhla   0.56630
gfz2014fnyg  -3.14800
gfz2014ftka   0.45870
gfz2014gbcz   1.45340
gfz2014gbdq  -0.18080
gfz2014ghpe   2.33090
gfz2014gkgf   0.52830
gfz2014gkqf   2.38090
gfz2014gmge   2.55180
gfz2014gmhr   1.07150
gfz2014gmnb   3.26440
gfz2014goba   3.53250
gfz2014gpya   2.31710
gfz2014gqve   2.06340
gfz2014gsqs   2.56730
gfz2014gull   2.33260
gfz2014gwab   2.71960
gfz2014gxxo   2.17920
gfz2014hasj   1.61200
gfz2014hauo   1.53380
gfz2014hcmj   2.17600
gfz2014hgqo   1.65100
gfz2014hjgr   2.16600
gfz2014hmrs   2.67750
gfz2014hnfm   0.30290
gfz2014hocg   1.55920
gfz2014hyal   2.64330
gfz2014hzfw   0.81130
gfz2014iava   1.34610
gfz2014ikun   1.30470
gfz2014ilwu   1.98740
gfz2014isys   2.15900
gfz2014jjhc   2.04610
gfz2014jlwb  -0.23520
gfz2014jnyv   1.96060
gfz2014jpep   2.26180
gfz2014jwmh   0.99520
gfz2014khlk   1.76790
gfz2014kjjq  -1.74390
gfz2014knxs   1.39560
gfz2014krlg  -0.15500
gfz2014kyan   2.06010
gfz2014kzzm   1.46590
gfz2014ldhu   1.64060
gfz2014lefs  -0.44440
gfz2014lkyf   1.53990
gfz2014lnmw   3.11340
gfz2014lpim   1.80200
gfz2014lyhk   2.49680
gfz2014lynp   1.59620
gfz2014lzow   1.61000
gfz2014nkdx   2.04270
gfz2014nowp   1.08000
gfz2014npeo   0.97640
gfz2014nphm   2.32460
gfz2014nqbs   2.14700
gfz2014nqfm   2.14970
gfz2014nylm   1.44080
gfz2014oinz   1.38180
gfz2014oxcc   1.44210
gfz2014pjer   1.76370
gfz2014pkll   1.53900
gfz2014ppzf   1.98990
gfz2014pqqp   2.14510
gfz2014pqrc   0.06290
gfz2014pvch   0.94140
gfz2014qlxd   2.48170
gfz2014qngj   1.52540
gfz2014raau   0.88800
gfz2014riel   1.45330
gfz2014rkwl   1.84860
gfz2014sptq   0.28320
gfz2014sryn   1.12190
gfz2014ssmv   1.10910
gfz2014ssvz   0.28680
gfz2014tqdo   1.48740
gfz2014uvrk   0.60890
gfz2014watn   2.04050
gfz2015abpw   1.67100
gfz2015aruz   1.06220
gfz2015berb   1.79840
gfz2015chhn   0.22600
gfz2015cxxk   1.87130
gfz2015cyjd   0.87330
gfz2015dvbn   1.92600
gfz2015egxq   2.36650
gfz2015fcua   0.95520
gfz2015fkgt   0.49320
gfz2015fsjj   1.43140
gfz2015fxdi   1.80130
gfz2015gckd   2.73350
gfz2015gjbr   1.39040
gfz2015guhd   2.12460
gfz2015hepg   1.47080
gfz2015hgbk   2.36130
gfz2015idho  -1.58040
gfz2015ixyy   1.44360
gfz2015jkdw   1.76390
gfz2015jpap  -1.75810
gfz2015jwgl   1.06480
gfz2015jxbx   1.45880
gfz2015jzcv   2.09160
gfz2015kkth   1.76830
gfz2015ksni   1.77380
gfz2015lcma   1.78000
gfz2015lfud   2.07190
gfz2015lhjq   2.29150
gfz2015lhjy   2.03160
gfz2015lytv  -1.18650
gfz2015nerz   2.77570
gfz2015ntpk   2.36750
gfz2015nuxz   0.73220
gfz2015nwug   1.25260
gfz2015ocdz   1.67030
gfz2015okmq   1.63100
gfz2015orkl   2.05670
gfz2015oyfl   1.95850
gfz2015poni   1.51280
gfz2015puqp  -1.43990
gfz2015qnho   1.06270
gfz2015qnto   1.17710
gfz2015rkrg   1.06460
gfz2015rpzn   1.13150
gfz2015rxmg   1.32510
gfz2015sfdd   0.67720
gfz2015sfdl  -0.13570
gfz2015sfdv   2.22730
gfz2015sfdy  -0.23330
gfz2015sfeo   0.57400
gfz2015sffn   0.45380
gfz2015sfga   0.29320
gfz2015sfhz  -0.08660
gfz2015sfiq  -0.45320
gfz2015sfjf   4.71420
gfz2015sfkh   1.05070
gfz2015sfko   1.69940
gfz2015sfkz   0.81170
gfz2015sflf   1.10240
gfz2015sfln   5.69130
gfz2015sfmd   3.84930
gfz2015sfno  -0.17340
gfz2015sfnv   0.88090
gfz2015sfoc   1.09030
gfz2015sfoh   1.33190
gfz2015sfpj   2.91130
gfz2015sfps   1.49520
gfz2015sfqo   1.90420
gfz2015sfqr   1.18340
gfz2015sfte   1.18420
gfz2015sftu   0.84480
gfz2015sfwf   2.16070
gfz2015sfxn   1.11380
gfz2015sfzm   1.94160
gfz2015sgad   0.83200
gfz2015sgmr   1.70730
gfz2015sgyd   0.82900
gfz2015shaq   0.85050
gfz2015shel   2.50120
gfz2015shhg   0.91010
gfz2015shhu   1.09020
gfz2015shjn   0.88820
gfz2015shrg   1.52070
gfz2015shsz   2.83000
gfz2015sicf   2.51290
gfz2015siky   1.18340
gfz2015sist   0.27380
gfz2015sitn   1.49930
gfz2015siyy   1.83320
gfz2015sjbx   2.22240
gfz2015sjgk   0.74360
gfz2015sjjb   1.85070
gfz2015sjne   1.46690
gfz2015sjoj   0.63660
gfz2015sjpn   0.40400
gfz2015sjvu   0.74030
gfz2015sjwi   0.34680
gfz2015skxu   1.69020
gfz2015sldx   1.68920
gfz2015sljs   0.64020
gfz2015slun   0.83870
gfz2015smym   0.98560
gfz2015snmr   0.24970
gfz2015snsf   1.09670
gfz2015snwh   0.01460
gfz2015snyd   1.31150
gfz2015soat   2.06040
gfz2015soxc   0.80110
gfz2015susq   1.15640
gfz2015svjy   2.10830
gfz2015svwm   1.03390
gfz2015sxmh   1.01410
gfz2015sxxu   0.90120
gfz2015szcb   1.20770
gfz2015szfe   2.15530
gfz2015szfq   1.20120
gfz2015sztx   2.52990
gfz2015taml   1.71720
gfz2015tbdn   1.09220
gfz2015tdcu   0.90350
gfz2015teje   1.03440
