# Nsamples: 17  MAD:  0.681  mean:  0.223  variance:  4.732
gfz2010eaoy   2.67610
gfz2010eaqx  -6.22790
gfz2010earu   2.18700
gfz2010elyc   2.80380
gfz2010rqwj   0.19100
gfz2011ccpw  -3.22870
gfz2011wxfs   0.60660
gfz2012jlox   0.89500
gfz2012wklq   0.31620
gfz2013nwdi   0.00000
gfz2013svci   0.66660
gfz2013vjjc   2.12450
gfz2014ssvz   1.44690
gfz2015cyjd   0.35090
gfz2015lytv   0.38310
gfz2015sfdd  -1.85360
gfz2015snwh   0.45910
