# Nsamples: 7  MAD:  1.001  mean: -0.020  variance:  1.651
gfz2010iull  -0.61020
gfz2011aatr  -0.19850
gfz2011bswz  -2.61630
gfz2011lcxq   0.74870
gfz2011rewa   1.81960
gfz2011wxfs   0.65440
gfz2012jlox   0.06470
