# Nsamples: 28  MAD:  0.739  mean: -0.214  variance:  1.301
gfz2010iull  -0.63080
gfz2010nmpc  -0.41050
gfz2010usho   0.06330
gfz2011aatr  -1.04710
gfz2011enva   0.29040
gfz2011gkzt   3.86400
gfz2011lcxq  -0.93310
gfz2011lzwj   0.20520
gfz2011rewa   0.30100
gfz2011toub  -0.49190
gfz2011wxfs  -0.68480
gfz2012jlox  -0.92490
gfz2012kudo  -0.42820
gfz2012ldxg  -0.53960
gfz2012ldzj  -0.09060
gfz2012wypz  -0.61760
gfz2013nwdi  -1.44440
gfz2013svci  -0.69580
gfz2014bwue  -0.56850
gfz2014fgvi   0.11500
gfz2014fhla   1.41420
gfz2014fkmr  -2.42110
gfz2014gkgf  -1.27820
gfz2014gmhr   0.42350
gfz2014gmnb  -0.15290
gfz2015cyjd   1.97720
gfz2015fsjj  -1.00370
gfz2015lhjy  -0.27710
