# Nsamples: 16  MAD:  0.469  mean: -0.787  variance:  0.495
gfz2010nmpc  -0.89350
gfz2011aatr  -1.30730
gfz2011enva   0.77190
gfz2011lcxq  -0.61500
gfz2011lzwj   0.19000
gfz2011rewa   0.14960
gfz2012jlox  -1.16840
gfz2012kudo  -0.91420
gfz2012ldxg  -2.00570
gfz2012teic  -0.92680
gfz2012wypz  -0.85500
gfz2013drxz  -0.56210
gfz2013svci  -1.44750
gfz2014fgvi  -0.61980
gfz2014gkgf  -1.83830
gfz2015lhjy  -0.55350
