# Nsamples: 150  MAD:  0.582  mean:  1.284  variance:  0.870
gfz2013dkly   0.15310
gfz2013dofo   1.44210
gfz2013dspt   1.82380
gfz2013dsrk   0.19640
gfz2013dvyh   1.31350
gfz2013ewbo   1.58570
gfz2013gdnq   1.35180
gfz2013gngz   0.95590
gfz2013idbb   0.89600
gfz2013ijsr   1.92780
gfz2013ikgo   1.57770
gfz2013ilug   0.52970
gfz2013ippu   0.62070
gfz2013jwvc   2.05270
gfz2013kccc   4.03480
gfz2013kdeo   1.47840
gfz2013ldpc   1.45470
gfz2013ldqb   0.28980
gfz2013lixa   1.49950
gfz2013lyko   1.36940
gfz2013mqmv   1.45330
gfz2013mwbh   1.92020
gfz2013ncjp   0.82790
gfz2013ndin   1.20760
gfz2013oqsc   0.57620
gfz2013ozrp   0.59020
gfz2013pfbx   1.50610
gfz2013qali   1.14030
gfz2013qmer   1.57500
gfz2013qzdq   1.21440
gfz2013sdus   2.47160
gfz2013svci   1.51180
gfz2013tlaf   1.06630
gfz2013tusd   1.09900
gfz2013tvmw   0.75730
gfz2013txij   1.53860
gfz2013ufxk   1.89510
gfz2013ufxm   1.50960
gfz2013vexx   1.47490
gfz2013vfzp   1.19010
gfz2013vjjc  -0.67880
gfz2013vsxi   0.66140
gfz2013wjmm   1.19970
gfz2013xsdt   2.21630
gfz2013yctg   1.21940
gfz2014adoj   1.18840
gfz2014afmx  -1.62750
gfz2014algk   1.18480
gfz2014ande   1.33380
gfz2014bagd   0.99380
gfz2014chdv   1.81990
gfz2014czqi   1.54060
gfz2014ekcr   1.27720
gfz2014femz   2.26340
gfz2014fhdw   1.46780
gfz2014fhla   0.62640
gfz2014fhrq   1.54090
gfz2014fkmr   1.00390
gfz2014frel   2.53030
gfz2014frez   2.49780
gfz2014ftka  -0.04890
gfz2014ftoc   1.40000
gfz2014fusc   2.94950
gfz2014fval   2.03040
gfz2014fvrg   2.32460
gfz2014gbcz   0.37300
gfz2014gbdq   1.96930
gfz2014ghpe   1.69540
gfz2014gmge   0.91770
gfz2014gmhr   1.37320
gfz2014gmip   1.49530
gfz2014gmnb   2.20900
gfz2014gmuw   1.06210
gfz2014goba   1.27000
gfz2014gqve   1.59430
gfz2014gsqs   0.71030
gfz2014gull   1.28960
gfz2014gvrd   0.88250
gfz2014gwab   1.87960
gfz2014hasj   0.83460
gfz2014hbqb   1.68340
gfz2014hfhl   1.69110
gfz2014hgqo   1.77430
gfz2014hjgr   1.74360
gfz2014hkcf   1.46630
gfz2014hocg   1.21880
gfz2014hqxs   4.04380
gfz2014huaj   1.58690
gfz2014hzfw  -0.87660
gfz2014igur   0.43040
gfz2014itkw   2.87670
gfz2014itpj   0.49770
gfz2014jjhc   0.72720
gfz2014jnyv   1.20510
gfz2014jpep   2.17440
gfz2014jwmh   2.43550
gfz2014kbuk   1.07170
gfz2014kndc   1.58340
gfz2014knks   0.79370
gfz2014kwwg   1.94700
gfz2014lgqn   2.27200
gfz2014lxnc   1.12150
gfz2014lyhk   1.29020
gfz2014macx   1.48860
gfz2014madw   3.56460
gfz2014mwor   1.18870
gfz2014mxkr   2.27400
gfz2014npeo   1.42180
gfz2014nqfm   1.22500
gfz2014nrie   1.86090
gfz2014oinz   1.05070
gfz2014owxc   1.96060
gfz2014pvch   2.27450
gfz2014qlxd   0.99420
gfz2014qngj   0.54780
gfz2014qqhm   1.47980
gfz2014rdsn   1.56200
gfz2014ssmv   1.05580
gfz2014ssvz   0.07130
gfz2014tovs  -3.10820
gfz2014tqdo   1.21430
gfz2014tqsf  -3.31920
gfz2014vhld   1.39340
gfz2014vhms   1.49040
gfz2014vjoz   0.92220
gfz2014waoo   0.50480
gfz2014watn   1.08050
gfz2014wjko   1.93600
gfz2014wrkh   2.00580
gfz2014xjri   1.74160
gfz2014xqqd   1.22870
gfz2014yhhm   2.37900
gfz2015aruz   1.23980
gfz2015berb   0.88290
gfz2015chhn   0.55630
gfz2015chqn   1.01990
gfz2015cxxk   0.62410
gfz2015cyjd   0.65720
gfz2015dizn   1.49770
gfz2015dskr   0.95880
gfz2015dvbn   0.77750
gfz2015egxq   2.10820
gfz2015eiky   1.83630
gfz2015etai   0.35370
gfz2015fbbk  -0.82420
gfz2015fcua   1.57780
gfz2015fsjj   1.57230
gfz2015gckd   1.36360
gfz2015gjbr   1.28940
gfz2015hgbk   1.24640
