# Nsamples: 144  MAD:  0.717  mean:  1.497  variance:  0.996
gfz2013cvqg   1.93380
gfz2013dofo   0.82670
gfz2013drxz   0.32040
gfz2013dsrk   3.24210
gfz2013flox   0.93580
gfz2013gdnq   1.23520
gfz2013lyko   1.51290
gfz2013mqmv   1.79600
gfz2013mwbh   2.13660
gfz2013ncjp   1.02620
gfz2013nixj   1.78050
gfz2013nkgj   1.54800
gfz2013nknw   1.07800
gfz2013nwdi   1.48380
gfz2013ozrp   1.31710
gfz2013pfbx   1.37940
gfz2013qmer   1.88810
gfz2013qzdq   1.19600
gfz2013sdus   3.09680
gfz2013svci   1.62030
gfz2013tvmw   1.23770
gfz2013txij   1.87280
gfz2013vexx   2.64180
gfz2013vfzp   1.65920
gfz2013vjjc   1.64310
gfz2013wjmm   0.54670
gfz2013xsdt   2.33360
gfz2013yctg   1.73700
gfz2014afmx   1.73290
gfz2014algk   1.37430
gfz2014atgw  -0.62660
gfz2014bagd   0.63140
gfz2014bwue   0.82350
gfz2014chdv   1.74540
gfz2014cvxx   1.59540
gfz2014czqi   1.46920
gfz2014dffd   1.35320
gfz2014enhi   1.45060
gfz2014fhbd   2.33740
gfz2014fhdw   1.30710
gfz2014fhla   2.15610
gfz2014fhrq   1.75350
gfz2014fhsg   1.62880
gfz2014fkmr   1.44650
gfz2014frel   2.30030
gfz2014frez   1.61430
gfz2014ftka   1.05530
gfz2014ftoc   1.45610
gfz2014ftrk   2.19590
gfz2014furx   3.58610
gfz2014fusj   2.67450
gfz2014fval   2.33020
gfz2014fvhp  -3.87260
gfz2014fvrg   1.77960
gfz2014gbcz   0.60100
gfz2014ghpe   1.84400
gfz2014gkgf  -1.32790
gfz2014gkjl   0.53530
gfz2014gkmm   2.12370
gfz2014gkqf   2.48240
gfz2014gkqu   4.50830
gfz2014gksu   1.90360
gfz2014gktq   2.50140
gfz2014gkxm  -0.37490
gfz2014gltx   2.83890
gfz2014gmge   1.22740
gfz2014gmhr   2.73690
gfz2014gmic   0.51700
gfz2014gmip   1.76640
gfz2014gmku   2.07080
gfz2014gmnb   2.31240
gfz2014gmor   2.55840
gfz2014gmpy   2.90860
gfz2014gmuk   1.97180
gfz2014gmuw   1.19570
gfz2014gmzl   2.55400
gfz2014goba   1.84910
gfz2014gori   2.35460
gfz2014gqer   1.34840
gfz2014gqve   2.05800
gfz2014gsqs   0.86680
gfz2014gull   0.69500
gfz2014gvra   0.51960
gfz2014gvrd   1.08990
gfz2014gwab   1.90320
gfz2014hasj  -0.71780
gfz2014hbjm   1.68740
gfz2014hbqb   1.96450
gfz2014hfhl   1.97270
gfz2014hgqo   3.12550
gfz2014hjgr   1.82430
gfz2014hkcf   1.64790
gfz2014hocg   0.37930
gfz2014hqxs   4.19220
gfz2014huaj   1.68320
gfz2014itkw   2.11080
gfz2014jjhc   0.44120
gfz2014jnyv   1.46960
gfz2014jpep   2.72610
gfz2014kbuk   1.35470
gfz2014kndc   1.52210
gfz2014knks   1.44820
gfz2014lgqn   1.79040
gfz2014mxkr   1.77700
gfz2014npeo   0.86310
gfz2014nphm   2.08210
gfz2014nqfm   1.47520
gfz2014nrie   2.21820
gfz2014oinz  -1.13890
gfz2014owxc   2.42910
gfz2014ppzf   1.20050
gfz2014pvch   2.00890
gfz2014ssvz   0.21040
gfz2014tqdo   1.41740
gfz2014vhld  -1.20400
gfz2014watn   1.32070
gfz2014wjko   2.11980
gfz2014wwib   0.98580
gfz2014xbyr   1.94200
gfz2014xkdg   1.09990
gfz2014xqqd   1.71590
gfz2014yhhm   2.56390
gfz2015apnk   1.13080
gfz2015aruz   1.42380
gfz2015berb   0.97150
gfz2015bkbj   1.14970
gfz2015chhn   0.44390
gfz2015cxxk   0.61480
gfz2015cyjd   0.75790
gfz2015czfv   2.16050
gfz2015dskr   1.07660
gfz2015dvbn   0.98260
gfz2015eiky   1.73620
gfz2015etai   0.56210
gfz2015fkgt   0.93810
gfz2015fsjj   1.81350
gfz2015fwnf   1.15010
gfz2015gckd   1.57430
gfz2015ggjw   1.34890
gfz2015gzja   0.12150
gfz2015hdcp   1.38180
gfz2015hgbk   1.16400
gfz2015kfsu   0.80890
gfz2015kkth   2.04650
