# Nsamples: 71  MAD:  0.710  mean:  0.870  variance:  0.876
gfz2013dofo   0.34730
gfz2013drxz   0.16400
gfz2013gdnq   1.39760
gfz2013jesk   2.76260
gfz2013jgij   1.01420
gfz2013jkut   1.14520
gfz2013jlst  -1.03160
gfz2013ldqb   0.13840
gfz2013lyko   0.98330
gfz2013mqmv   1.70290
gfz2013nkgj   0.56730
gfz2013nwdi   1.10390
gfz2013onjy  -0.21500
gfz2013qmer   1.32740
gfz2013svci   1.07050
gfz2013vexx   0.10580
gfz2013vfzp   1.71480
gfz2013wjmm   0.54860
gfz2013xsdt   1.54130
gfz2013yctg   1.78510
gfz2014adoj   0.02650
gfz2014afmx   0.64570
gfz2014algk   0.92290
gfz2014bagd   0.10210
gfz2014bwue  -0.87240
gfz2014czol   1.18020
gfz2014czqi   0.96390
gfz2014czua   2.22380
gfz2014dffd  -0.58020
gfz2014dhxt   1.62210
gfz2014enhi   0.46730
gfz2014fhla   1.67870
gfz2014fhrq   1.07750
gfz2014fkmr   1.20700
gfz2014ftka   1.97130
gfz2014gbcz   0.06590
gfz2014ghpe   1.21410
gfz2014gkgf   2.11460
gfz2014gkqf   1.69750
gfz2014gmge   2.55640
gfz2014gmhr   2.17000
gfz2014gmnb   0.89670
gfz2014goba   1.27310
gfz2014gqve   2.28710
gfz2014gtlu  -3.16150
gfz2014gull   1.07410
gfz2014hasj  -0.16060
gfz2014hbqb   1.29550
gfz2014hkcf   0.90360
gfz2014hocg   0.91430
gfz2014lxnc   2.92690
gfz2014lyhk   0.89560
gfz2014npeo   0.58790
gfz2014nqfm   0.80410
gfz2014oinz  -0.24800
gfz2014qlxd   0.81280
gfz2014ssvz  -0.28110
gfz2014tqdo   0.74590
gfz2014vhld   1.21540
gfz2014watn   1.35160
gfz2015aruz   0.88970
gfz2015berb   0.68560
gfz2015chhn  -0.09620
gfz2015cxxk   0.41070
gfz2015cyjd   0.57180
gfz2015dvbn   0.91840
gfz2015etai   0.40080
gfz2015fkgt   0.03100
gfz2015fsjj   0.92970
gfz2015gckd   1.53440
gfz2015kfsu   0.71850
