# Nsamples: 160  MAD:  0.944  mean:  0.234  variance:  1.040
gfz2010bfzs  -0.14020
gfz2010bhhq   3.12860
gfz2010bifb   2.30700
gfz2010bjeb   0.17330
gfz2010bjsl  -1.01180
gfz2010bxxs   0.87410
gfz2010caft   0.79100
gfz2010cbkg   2.03630
gfz2010cqwl   0.97730
gfz2010czps  -0.54760
gfz2010eaoy  -0.00000
gfz2010eapk   0.36170
gfz2010eapn   1.76660
gfz2010eaqx   0.53990
gfz2010eaqy   0.97010
gfz2010earq   0.84240
gfz2010earu   0.45010
gfz2010eask  -1.53790
gfz2010easo  -0.31810
gfz2010easu   1.53050
gfz2010eati   0.24890
gfz2010eato  -0.27310
gfz2010eaul   0.14410
gfz2010eavp  -1.74790
gfz2010eavs  -1.02790
gfz2010eawb  -3.11700
gfz2010eawu  -0.30880
gfz2010eaxa  -0.84640
gfz2010ebhc   0.26390
gfz2010ebih   1.88230
gfz2010ebin   2.64990
gfz2010ebkj  -0.02010
gfz2010ebmb   0.56320
gfz2010ebnn   1.65490
gfz2010ebvm   1.10620
gfz2010ebvv   0.05030
gfz2010eced  -0.57030
gfz2010echy  -0.08140
gfz2010ecua  -0.52410
gfz2010ecvt  -0.69930
gfz2010egld   0.07770
gfz2010eisx   1.37820
gfz2010eltf   0.14510
gfz2010elyc  -1.12000
gfz2010erkn  -0.57930
gfz2010evco  -0.15700
gfz2010ewvc  -0.74040
gfz2010excp  -0.80150
gfz2010exdd   0.11410
gfz2010exdl  -0.16110
gfz2010exno  -0.37130
gfz2010exsg  -0.13110
gfz2010ezck   0.09600
gfz2010fcnn  -0.38280
gfz2010fczt  -0.76480
gfz2010fedq  -0.86030
gfz2010ffhq  -0.47800
gfz2010fqdu   2.19520
gfz2010fqtj  -0.38370
gfz2010fync  -0.28090
gfz2010gcrl  -0.74350
gfz2010gdld  -0.37020
gfz2010gyqp  -0.24990
gfz2010homc   0.45180
gfz2010hxhe   1.54940
gfz2010iciq   0.10080
gfz2010iqnm  -1.08670
gfz2010irvf   2.41430
gfz2010iull   0.77260
gfz2010jkxj  -1.92400
gfz2010jxbm   0.47350
gfz2010pxgh  -1.23980
gfz2010rqwj   1.69030
gfz2011cykd  -0.69280
gfz2011cynl  -0.26310
gfz2011dcqb   1.08890
gfz2011dpqx   0.58590
gfz2011eayc   1.33630
gfz2011ecaj  -0.24780
gfz2011enva   0.71280
gfz2011gbmx   0.31140
gfz2011gkzt  -0.17370
gfz2011hbex   0.89910
gfz2011hlqw  -0.08800
gfz2011hlsa   0.14440
gfz2011izqa   0.64790
gfz2011jplh  -0.39670
gfz2011kqwo   0.59710
gfz2011kxzp   0.09900
gfz2011lcxq   1.27220
gfz2011lvjr   2.96920
gfz2011lzwj   0.85540
gfz2011mdie   0.22170
gfz2011olkk   0.12370
gfz2011owvz  -0.55190
gfz2011rewa   0.23630
gfz2011rgwp  -0.13790
gfz2011sagt   1.85370
gfz2011shqm   1.11640
gfz2011tkfp   0.45170
gfz2011tkog   0.92120
gfz2011toub   0.00000
gfz2011ujze   0.15570
gfz2011uphh   0.48440
gfz2011vhfi   2.14130
gfz2011wxfs   0.89880
gfz2011wxtk   0.21360
gfz2011zqhh  -0.50220
gfz2012bpkx  -1.04750
gfz2012byad   1.43360
gfz2012cxdn  -1.14900
gfz2012ekda   0.64040
gfz2012enno  -0.15750
gfz2012ewgo   1.30760
gfz2012fzfa   0.03160
gfz2012hnul   1.38420
gfz2012jlox   0.49330
gfz2012ldxg   0.86630
gfz2012lxkv  -2.62990
gfz2012rqlg  -1.15010
gfz2012rwov  -1.24390
gfz2012ttoa   1.00490
gfz2012vrgb   0.28190
gfz2012wklq  -1.14810
gfz2012wybs   1.53210
gfz2012wypz   0.54530
gfz2012zitl  -0.65360
gfz2013axoj   0.26310
gfz2013ccnr  -0.86920
gfz2013dofo   0.65250
gfz2013drxz  -0.30320
gfz2013dvyh   1.94630
gfz2013ikgo   0.06770
gfz2013jgij   1.43580
gfz2013jusj  -1.04080
gfz2013ldqb  -0.29430
gfz2013lyko  -0.19050
gfz2013mwbh   1.92460
gfz2013ncjp   0.31440
gfz2013nkgj   0.79840
gfz2013nwdi   0.43530
gfz2013qmer   1.00950
gfz2013qzdq  -0.56400
gfz2013svci   0.58340
gfz2013vfyw  -1.76300
gfz2013vfzp   0.50690
gfz2013vjjc  -0.37700
gfz2013wjmm  -0.47700
gfz2013xsdt   0.99510
gfz2014afmx   0.04060
gfz2014algk   0.14270
gfz2014bagd  -1.02480
gfz2014bwue   1.02000
gfz2014bzxy   0.33710
gfz2014dddc   1.58040
gfz2014enhi  -0.28520
gfz2014oryw  -0.18020
gfz2014ppzf   0.45750
gfz2014qlxd   0.43540
gfz2014qngj   1.04290
