# Nsamples: 93  MAD:  1.144  mean:  1.058  variance:  2.176
gfz2010bxxs   1.08140
gfz2010czps   1.36820
gfz2010eaoy   0.50400
gfz2010eaqe   0.00620
gfz2010eaqx  -7.42680
gfz2010eaqy   2.93810
gfz2010earu   0.70890
gfz2010easo   0.70900
gfz2010easu   0.68100
gfz2010eati   0.86600
gfz2010eato  -0.46630
gfz2010eatt  -1.05860
gfz2010eaty   0.64920
gfz2010eavs  -0.14750
gfz2010eaxa  -0.32890
gfz2010eazu  -0.07930
gfz2010ebvm   0.47110
gfz2010ebvv   0.07230
gfz2010ebzr   0.71690
gfz2010ecam   1.30650
gfz2010ecay   0.09280
gfz2010ecsp   0.71530
gfz2010ecua   1.46000
gfz2010edde   1.57220
gfz2010edyi   1.80420
gfz2010eeij   0.30640
gfz2010eevu   0.97910
gfz2010egap   0.16020
gfz2010egld   3.30570
gfz2010eisx   6.24500
gfz2010ekyc   1.66460
gfz2010eltf  -0.42110
gfz2010elyc   2.03540
gfz2010eujm  -0.37640
gfz2010eutw   1.10390
gfz2010excp   0.42900
gfz2010exdd  -0.24590
gfz2010exdl  -0.70420
gfz2010ezck  -0.37380
gfz2010fedq   1.42520
gfz2010ffhq   0.52130
gfz2010fpqy   1.14890
gfz2010fync   0.37080
gfz2010gyqp   1.75600
gfz2010iobp   0.53050
gfz2010iqnm   2.20910
gfz2010iull   1.07230
gfz2010jxbm   1.64400
gfz2010moyw  -0.15570
gfz2010nmpc   1.57410
gfz2010nqwo  -0.97650
gfz2010rqwj  -0.59960
gfz2010upfb   1.10800
gfz2011aatr   0.45420
gfz2011adjs   1.25550
gfz2011cvfg   1.92580
gfz2011cykd   3.11530
gfz2011cyuk   2.72450
gfz2011dbig   3.39310
gfz2011dcqb   2.70130
gfz2011ecaj   2.03830
gfz2011kqwo   2.49380
gfz2011rewa   1.15190
gfz2011vhfi  -0.28210
gfz2011vrhg   3.07060
gfz2012bfah   2.98280
gfz2012bpkx   0.05840
gfz2012fzfa   2.11800
gfz2012hnul   2.85230
gfz2012wklq   0.60690
gfz2012wxlg   1.65260
gfz2013ccnr   0.26700
gfz2013drxz   1.14890
gfz2013jusj   0.09210
gfz2013vjjc   2.21290
gfz2014enhi   0.81520
gfz2014gbcz   2.47420
gfz2014gkgf   2.19950
gfz2014gmhr   3.25710
gfz2014qngj   0.77540
gfz2015chhn   1.11070
gfz2015cyjd   1.25250
gfz2015fsjj   1.57460
gfz2015jwgl   0.46020
gfz2015lytv   0.50270
gfz2015qnho   2.05350
gfz2015sfdd   1.28610
gfz2015sfdy   1.70030
gfz2015sfhz   1.08290
gfz2015sfno   0.23960
gfz2015snwh   2.41910
gfz2015soxc   1.31360
gfz2015svwm   1.85450
