# Nsamples: 47  MAD:  0.536  mean:  0.013  variance:  0.457
gfz2010bxxs   0.26150
gfz2010ebhc   0.18360
gfz2010grjd   0.45120
gfz2010iull  -0.06570
gfz2010lluj  -0.99000
gfz2010nmpc  -0.54150
gfz2010usho  -0.16610
gfz2011enva   0.09830
gfz2011gkzt  -0.39120
gfz2011lcxq  -0.52930
gfz2011lzwj   0.36900
gfz2011rewa   0.85590
gfz2011toub   0.06600
gfz2011wxfs  -0.23950
gfz2012enno  -0.39920
gfz2012jlox  -0.45440
gfz2012kkup   0.32770
gfz2012kudo  -0.31830
gfz2012ldxg  -0.88830
gfz2012ldzj  -0.32300
gfz2012mvwr   1.26240
gfz2012teic   0.32210
gfz2012ttoa   2.18160
gfz2012wypz   0.27110
gfz2013drxz   0.74020
gfz2013jkut   0.13070
gfz2013svci   0.01510
gfz2013uauo  -0.46290
gfz2014afmx   0.47670
gfz2014ande  -0.09980
gfz2014bwue  -0.28000
gfz2014fgvi   0.51040
gfz2014fhla  -1.17130
gfz2014fkmr   0.80450
gfz2014gkgf  -0.62480
gfz2014gkqf   0.27640
gfz2014gmnb   0.07670
gfz2014hasj  -1.49370
gfz2014jpep   1.85040
gfz2014nqfm   0.04250
gfz2014oinz  -0.60410
gfz2014qqhm   0.42030
gfz2014ssvz  -0.40610
gfz2015cyjd  -0.27740
gfz2015gckd  -0.39580
gfz2015hgbk  -0.03740
gfz2015lhjy  -0.24030
