# Nsamples: 8  MAD:  0.644  mean:  0.267  variance:  1.011
gfz2010iull  -0.09470
gfz2010nmpc   1.96060
gfz2011enva   1.18750
gfz2011lcxq   0.01470
gfz2011rewa   0.77460
gfz2011wxfs  -0.01380
gfz2012jlox  -0.02280
gfz2013nwdi  -1.67140
