# Nsamples: 618  MAD:  0.619  mean: -0.789  variance:  0.856
gfz2010dejx  -0.03950
gfz2010diqn  -1.23410
gfz2010eaoy  -0.51660
gfz2010eapk  -0.55260
gfz2010eapn   0.86040
gfz2010eaqe  -0.74990
gfz2010eaqx  -0.55320
gfz2010eaqy   0.09700
gfz2010earq  -1.36800
gfz2010earu  -1.74730
gfz2010easu  -0.54850
gfz2010eato  -0.62410
gfz2010eatt   1.27030
gfz2010eavs  -0.33560
gfz2010eawb  -0.62710
gfz2010eawu  -1.01550
gfz2010eaxa  -1.74440
gfz2010ebhc   0.03660
gfz2010ebih  -1.41990
gfz2010ebin   3.54700
gfz2010ebjy  -0.71060
gfz2010ebkj   0.06430
gfz2010ebll  -0.31820
gfz2010ebnn   0.68240
gfz2010ebvm  -0.30040
gfz2010ebvv  -0.18410
gfz2010ebwp  -0.46670
gfz2010ebzr   0.00000
gfz2010ecbi  -0.98900
gfz2010eccq   1.01180
gfz2010echc  -1.70380
gfz2010ecua  -1.12470
gfz2010ecvt  -1.53770
gfz2010edcp   1.74460
gfz2010edvf  -0.52750
gfz2010edyi   4.66810
gfz2010eegn  -0.72740
gfz2010eevu  -1.13550
gfz2010ehnm  -0.59750
gfz2010eisx   0.72590
gfz2010ekyc  -1.10920
gfz2010elhv  -1.43830
gfz2010eltf   0.65890
gfz2010elyc  -0.64980
gfz2010epxj   3.57620
gfz2010eqmu   1.49370
gfz2010erdi  -0.45760
gfz2010erom  -0.91660
gfz2010eruy  -1.13970
gfz2010erwn  -1.01780
gfz2010erxb  -1.07790
gfz2010eryg  -1.08150
gfz2010esid  -1.12940
gfz2010esmg   0.22350
gfz2010eujm  -1.52470
gfz2010evco   0.00000
gfz2010ewvc  -1.99300
gfz2010excp  -0.65120
gfz2010exdd  -1.49340
gfz2010exdl  -1.06530
gfz2010exel  -1.08050
gfz2010exgb  -1.14240
gfz2010exhd  -1.35920
gfz2010exhw  -1.81990
gfz2010exjw  -0.49050
gfz2010exno  -0.58680
gfz2010ezck  -1.03680
gfz2010fedq  -2.21150
gfz2010ffhq  -1.63320
gfz2010fika  -1.58640
gfz2010fjal  -1.06070
gfz2010flha  -1.43970
gfz2010flxi  -0.81370
gfz2010fpqy  -0.78730
gfz2010fqdu  -2.75190
gfz2010ftlm  -0.88060
gfz2010fync  -0.73470
gfz2010gcrl  -3.52230
gfz2010gdld  -1.63940
gfz2010gjia  -1.16300
gfz2010grjd   0.34410
gfz2010gyqp  -1.06690
gfz2010gzxr  -1.88730
gfz2010hbka  -1.31840
gfz2010hevz  -2.04580
gfz2010hjoc  -2.76520
gfz2010hlvr  -0.62240
gfz2010homc  -1.64620
gfz2010hxgv  -1.21040
gfz2010hxhe  -0.95540
gfz2010iobp  -0.95050
gfz2010irvf  -1.31470
gfz2010iull  -0.50810
gfz2010jkxj  -1.03280
gfz2010jwpy  -0.61600
gfz2010jxbm  -0.69360
gfz2010lczp   4.05760
gfz2010lepw  -1.38910
gfz2010lkcf  -2.30670
gfz2010sfee  -1.01980
gfz2010srdb  -0.98120
gfz2010swcy  -1.23520
gfz2010tcrl   1.11060
gfz2010upfb  -0.87130
gfz2010urlq  -1.20680
gfz2010usho  -1.16600
gfz2010ustq  -0.81670
gfz2010utcg  -0.55550
gfz2010uyhb   2.20450
gfz2010xden  -0.52900
gfz2010xjsj  -0.78040
gfz2010xnxk  -1.47780
gfz2011aatr   0.08320
gfz2011adjs  -0.71480
gfz2011alip  -1.12800
gfz2011bpkd  -1.11980
gfz2011cfae  -0.98480
gfz2011csju  -0.66400
gfz2011cvcg  -1.57570
gfz2011cvfg  -1.08120
gfz2011cykd  -0.36240
gfz2011dbig  -0.37450
gfz2011dcqb  -0.11970
gfz2011dpqx  -0.58460
gfz2011eayc  -0.83840
gfz2011edmm  -4.84610
gfz2011enva  -1.40250
gfz2011etje  -0.79650
gfz2011fgvr   0.40090
gfz2011fhbm  -1.39980
gfz2011flgj  -0.10710
gfz2011fnsw  -0.93900
gfz2011gbmx  -0.76810
gfz2011gkzt  -1.60020
gfz2011hbex  -1.20540
gfz2011hlqw  -0.72750
gfz2011hlsa  -0.38210
gfz2011hpqp  -0.52290
gfz2011hrhe  -1.42040
gfz2011icxe  -2.55720
gfz2011knoo  -1.50930
gfz2011kqwo  -2.10380
gfz2011kwsz  -1.67180
gfz2011kxzp  -0.90530
gfz2011lcxq  -1.80410
gfz2011lhls  -0.11860
gfz2011lvjr  -2.61580
gfz2011lzwj  -0.02320
gfz2011mdie  -0.77470
gfz2011mjom  -3.05070
gfz2011mpme  -0.39550
gfz2011nrwv  -0.34140
gfz2011ntkh  -0.70890
gfz2011nudm  -1.35710
gfz2011ohcy  -0.57830
gfz2011oiqe  -1.03840
gfz2011oiwk  -0.63350
gfz2011olkk  -1.55950
gfz2011orgn  -1.00820
gfz2011ornx  -0.76620
gfz2011owvz  -1.05120
gfz2011pdst   0.21670
gfz2011qyms  -1.14300
gfz2011rewa  -0.67550
gfz2011rqui  -0.74030
gfz2011sagt  -0.07440
gfz2011tpfr  -0.68160
gfz2011tsfd  -1.90510
gfz2011tuea  -1.03050
gfz2011uepx  -3.03400
gfz2011uphh  -0.75200
gfz2011vxns  -1.36760
gfz2011xyxj   0.41550
gfz2011zqhh  -1.06630
gfz2012bfah  -0.23070
gfz2012bpkx  -1.58240
gfz2012cgvr  -1.36680
gfz2012cnod   0.16790
gfz2012covm  -0.60960
gfz2012czlw   0.04630
gfz2012deri  -0.42160
gfz2012dyyh  -0.36310
gfz2012ekda  -0.27810
gfz2012emjg  -0.33220
gfz2012enno  -0.44230
gfz2012ewgo  -1.09310
gfz2012fbfo   1.56160
gfz2012foeo  -1.19100
gfz2012fzfa  -0.66150
gfz2012gomm  -1.27480
gfz2012hnul  -0.44240
gfz2012ilvn  -0.36320
gfz2012jlox  -2.16380
gfz2012jshk   1.21980
gfz2012jupx  -1.55830
gfz2012kbjb  -1.08220
gfz2012kkup  -0.54810
gfz2012klhx  -0.73040
gfz2012kuct  -0.62190
gfz2012kudo  -1.12910
gfz2012lczo  -1.55540
gfz2012ldxg  -1.17900
gfz2012llug  -2.69050
gfz2012lxkv  -1.07280
gfz2012minr  -0.74110
gfz2012mupa  -0.40400
gfz2012mvwr  -1.46650
gfz2012mwij   1.69660
gfz2012ngic  -0.73570
gfz2012nojx  -0.39870
gfz2012nolo   0.02020
gfz2012nsbz  -0.86830
gfz2012oazn   0.04330
gfz2012oedb  -0.83760
gfz2012peex  -1.25410
gfz2012pgcl  -0.03350
gfz2012quso  -2.25080
gfz2012royy  -0.07450
gfz2012rwov  -1.88200
gfz2012rypu  -2.08950
gfz2012sphd  -0.52520
gfz2012syvl  -0.70310
gfz2012teic  -1.35630
gfz2012tmop  -0.05710
gfz2012ttoa  -1.02700
gfz2012tvmv  -0.93010
gfz2012uafg  -1.26820
gfz2012uaqj  -0.31430
gfz2012uvqf  -0.69030
gfz2012vrgb  -0.26910
gfz2012vsev  -1.71730
gfz2012whku  -0.14250
gfz2012wklq  -1.58540
gfz2012wmsg  -2.10210
gfz2012wvfl  -0.32950
gfz2012wxlg  -1.06380
gfz2012wypz  -0.34290
gfz2012yzod  -0.61970
gfz2012zemz  -2.65580
gfz2012zitl  -1.78560
gfz2012zmbp   0.42980
gfz2013apmm  -1.48850
gfz2013aqaw  -1.66330
gfz2013btjm  -1.27390
gfz2013ccnr  -1.99680
gfz2013cwpn  -0.96360
gfz2013dofo  -1.55020
gfz2013dojq   0.36730
gfz2013drxz  -0.97870
gfz2013dspt   0.23190
gfz2013dsrk   0.04060
gfz2013fkcl  -1.00590
gfz2013fkii   0.10070
gfz2013gdnq  -0.21910
gfz2013gock  -0.64170
gfz2013gvdb  -0.66020
gfz2013gvex   3.57200
gfz2013idbb  -1.35130
gfz2013ifpq  -1.36630
gfz2013ijsr  -0.67280
gfz2013ikgo  -1.07450
gfz2013ilug  -1.85540
gfz2013ippu  -0.41300
gfz2013iunn  -2.13800
gfz2013jdrx  -1.84410
gfz2013jesk  -0.62300
gfz2013jgip  -0.34370
gfz2013jkut  -0.39100
gfz2013jusj  -1.46460
gfz2013jxoi  -1.51890
gfz2013kdeo  -1.72240
gfz2013ldqb  -0.76200
gfz2013lixa  -1.59270
gfz2013lyko  -0.86010
gfz2013mqmv  -2.48010
gfz2013mwbh  -0.87690
gfz2013nabl  -1.58030
gfz2013ncjp  -1.50780
gfz2013ndin  -0.24980
gfz2013nixj  -1.09200
gfz2013nkgj  -0.43080
gfz2013nqgw   0.38880
gfz2013nwdi  -1.22630
gfz2013ogde  -1.25870
gfz2013ozrp  -1.66960
gfz2013pfbx  -0.72630
gfz2013pxsj   0.13340
gfz2013qali  -0.60970
gfz2013qmer  -0.25940
gfz2013qzdq  -1.32410
gfz2013roki  -0.66260
gfz2013sdus  -1.69200
gfz2013snbr  -0.86150
gfz2013suvn  -0.78290
gfz2013svci  -0.59450
gfz2013tusd  -1.40420
gfz2013tvmw  -1.26410
gfz2013uauo  -1.14780
gfz2013ufxm   0.26420
gfz2013vexx  -1.01300
gfz2013vfyw  -0.47040
gfz2013vfzp  -1.12950
gfz2013vjjc   0.00000
gfz2013wjmm  -0.40270
gfz2013wkyk  -1.68730
gfz2013xsdt   0.01970
gfz2013xyzb  -1.14070
gfz2013yctg  -0.71200
gfz2013yhpk  -1.37090
gfz2013ypdc  -3.03090
gfz2013yqkv  -1.06780
gfz2013zmtb  -1.33440
gfz2014afmx  -0.13400
gfz2014algk  -1.66000
gfz2014amsb  -0.24370
gfz2014ande  -0.20340
gfz2014arpf  -0.62220
gfz2014atbl  -0.18010
gfz2014bmdh  -0.53240
gfz2014bwue  -0.25540
gfz2014bzxy  -2.12080
gfz2014chdv  -0.44690
gfz2014cmwb  -0.84850
gfz2014ctot  -1.23010
gfz2014cvxx  -1.01420
gfz2014czqi  -0.53260
gfz2014czua  -0.73020
gfz2014dhxt  -0.89390
gfz2014disp  -1.04990
gfz2014femz  -0.33390
gfz2014fgvi   0.08890
gfz2014fgvr   0.01710
gfz2014fgvz  -0.05880
gfz2014fgxt  -0.62470
gfz2014fgyo  -0.20010
gfz2014fhbd  -0.75870
gfz2014fhdw  -0.40010
gfz2014fhla  -2.66140
gfz2014fhlh  -0.08140
gfz2014fhrq  -0.83000
gfz2014fhwx   0.04280
gfz2014fimn  -2.65730
gfz2014fjzd  -0.52120
gfz2014fkmr  -1.17550
gfz2014fkmx  -0.79500
gfz2014fknp  -0.26870
gfz2014frdz  -0.82020
gfz2014frel  -3.61450
gfz2014frez  -1.09260
gfz2014frgm  -0.38270
gfz2014frwh  -0.51250
gfz2014ftka  -1.75920
gfz2014ftoc  -0.80270
gfz2014ftpw  -1.99480
gfz2014ftrk  -0.23200
gfz2014furx  -0.08440
gfz2014fusc   0.02190
gfz2014fusj  -0.64160
gfz2014fuub   1.05310
gfz2014fval  -0.35700
gfz2014fvrg   0.07170
gfz2014gbcz  -1.47210
gfz2014gbdq   0.68870
gfz2014ghpe  -1.31300
gfz2014gkgf  -0.88210
gfz2014gkgs  -0.11430
gfz2014gkhp   0.06640
gfz2014gkhy   0.02500
gfz2014gkjl  -1.57470
gfz2014gkjt  -0.32330
gfz2014gkob  -0.30340
gfz2014gkok  -0.47570
gfz2014gkpj  -1.57300
gfz2014gkqf  -0.11100
gfz2014gkqu   0.77010
gfz2014gksj   0.25730
gfz2014gksu   0.75020
gfz2014gktq  -0.77190
gfz2014gkut  -1.04820
gfz2014glcu   0.19490
gfz2014glcy  -0.60950
gfz2014glgo   0.05740
gfz2014gltx  -0.35960
gfz2014gmci  -0.45850
gfz2014gmge  -2.09850
gfz2014gmhp   0.24340
gfz2014gmhr  -2.04980
gfz2014gmip   0.01210
gfz2014gmjo  -0.57200
gfz2014gmku  -1.08430
gfz2014gmmk   0.69440
gfz2014gmmt  -0.25600
gfz2014gmnb  -0.94690
gfz2014gmnw  -0.55200
gfz2014gmor   0.03630
gfz2014gmpy  -0.70910
gfz2014gmrj  -0.22850
gfz2014gmtb  -0.76040
gfz2014gmuk  -0.65490
gfz2014gmvr  -0.51910
gfz2014gmzl  -0.96710
gfz2014gndq  -0.01860
gfz2014gnfd  -0.00000
gfz2014gngg  -0.06100
gfz2014gnmp   0.05540
gfz2014gnnt  -0.26380
gfz2014gnre  -0.74140
gfz2014gnxb   0.38100
gfz2014goba  -0.82370
gfz2014goqw  -0.37530
gfz2014gori   0.43070
gfz2014gpce  -0.23510
gfz2014gphr  -1.13790
gfz2014gqer  -0.33930
gfz2014gsqs  -0.58760
gfz2014gull  -0.48330
gfz2014gulp   0.35540
gfz2014gvqj  -0.29200
gfz2014gvrd  -0.63790
gfz2014gwab  -2.88460
gfz2014gxxo  -0.57920
gfz2014hagb  -0.98060
gfz2014haos  -0.25170
gfz2014hasj  -1.15580
gfz2014hbjm  -1.08020
gfz2014hbjz  -4.65010
gfz2014hbqb  -0.76970
gfz2014hcmj  -1.68040
gfz2014heum  -0.55980
gfz2014hfhl  -1.71100
gfz2014hgqo  -0.54880
gfz2014hkcf  -2.17090
gfz2014hocg  -0.24410
gfz2014hphw  -1.17790
gfz2014hpqz   0.32310
gfz2014hqxs  -1.11910
gfz2014hrtn  -0.60030
gfz2014huaj   0.00000
gfz2014hwwi  -0.07360
gfz2014hyvq   0.37180
gfz2014hzgn  -0.37810
gfz2014ifue  -0.41520
gfz2014imnn  -0.95450
gfz2014inbj  -0.03270
gfz2014iqzj  -0.37160
gfz2014irci  -0.74670
gfz2014itkw  -0.68800
gfz2014itpj  -0.86810
gfz2014iuhq  -0.65760
gfz2014iwnf   0.09730
gfz2014ixga  -0.72620
gfz2014jesb  -0.26310
gfz2014jfis  -1.53770
gfz2014jggm  -0.26460
gfz2014jjhc  -0.41140
gfz2014jjln  -0.49600
gfz2014jnyv  -0.82950
gfz2014jpep  -0.37870
gfz2014jwmh  -0.30360
gfz2014kbuk  -1.92420
gfz2014kitm  -1.17070
gfz2014kkhh  -0.82590
gfz2014kndc  -0.77960
gfz2014knks  -0.69340
gfz2014kwrg  -0.20470
gfz2014kxqf  -0.59680
gfz2014kyan  -1.30400
gfz2014kytf  -0.82820
gfz2014ldhu  -0.44700
gfz2014lefs  -1.78930
gfz2014lgqn  -0.63750
gfz2014lhqn  -0.70970
gfz2014lrzx  -0.87890
gfz2014lxnc  -0.59310
gfz2014lxqr   1.43410
gfz2014lyhk  -1.11040
gfz2014lyhp  -0.25950
gfz2014macx  -0.95660
gfz2014madw  -0.80260
gfz2014moaw   0.55820
gfz2014mogb  -1.64600
gfz2014mxkr  -1.31430
gfz2014niqj  -1.77600
gfz2014nnxd  -1.12450
gfz2014nowp  -0.57180
gfz2014npeo  -0.46160
gfz2014nphm  -0.56810
gfz2014nqfm  -0.53600
gfz2014nrie  -0.53560
gfz2014nyeh  -0.06610
gfz2014nyfb  -0.37450
gfz2014nyko  -0.45780
gfz2014odgv  -1.05060
gfz2014oinz  -0.71040
gfz2014owxc  -1.51310
gfz2014oyly  -0.96270
gfz2014ppzf  -1.38720
gfz2014pvch  -0.24460
gfz2014pzml  -2.59400
gfz2014pzni  -1.25880
gfz2014qlxd  -1.00830
gfz2014qngj  -1.07700
gfz2014qqhm  -1.21780
gfz2014rdsn  -1.02530
gfz2014riel  -1.27830
gfz2014ssvz  -1.40330
gfz2014szzf  -1.01170
gfz2014tfgn  -1.46980
gfz2014tqdo  -0.90700
gfz2014tqsf  -1.09300
gfz2014tqth  -0.61870
gfz2014ubwn  -0.31080
gfz2014vhld  -0.60170
gfz2014watn  -0.87620
gfz2014wwib  -2.96760
gfz2014xjri  -1.16340
gfz2014xqqd  -2.42280
gfz2014yhhm  -1.34970
gfz2014yppv  -0.13160
gfz2015aruz  -0.90100
gfz2015atxv  -1.79880
gfz2015berb  -0.88450
gfz2015bphe  -1.59750
gfz2015chhn  -1.37130
gfz2015cxxk  -0.98170
gfz2015cyjd  -0.90510
gfz2015dskr  -1.25560
gfz2015dvbn  -0.46910
gfz2015eeyq  -0.49900
gfz2015eezy  -0.48570
gfz2015egxq  -0.18530
gfz2015eiky  -0.45570
gfz2015etai  -1.29590
gfz2015fcua  -0.89320
gfz2015fjhk  -0.55670
gfz2015fkgt  -0.25990
gfz2015fsjj  -0.98770
gfz2015fvoi  -0.61310
gfz2015fwkq  -1.18430
gfz2015gckd  -0.62240
gfz2015gjbr  -0.96910
gfz2015gkwa  -0.98330
gfz2015hgbk  -1.01340
gfz2015imty  -0.91350
gfz2015iwqk  -2.21870
gfz2015jmlf  -1.65840
gfz2015jpap   0.38510
gfz2015jwgl  -0.72080
gfz2015jzcv  -0.80580
gfz2015kakw  -5.24520
gfz2015kfsu  -1.79530
gfz2015kkqb  -0.42060
gfz2015kkth  -1.08660
gfz2015kphk  -0.61370
gfz2015kquq  -0.02980
gfz2015ksni  -1.21390
gfz2015kxxs  -0.05630
gfz2015lfma  -0.60970
gfz2015lhjy  -0.27970
gfz2015lytv  -3.02600
gfz2015mddr  -0.59710
gfz2015mpte  -0.69740
gfz2015nuxz  -3.38770
gfz2015nwug  -0.99660
gfz2015okmq  -0.56290
gfz2015oyfl  -1.17570
gfz2015poni  -1.24090
gfz2015qnde   1.06990
gfz2015qnho  -0.70330
gfz2015qpvd  -1.91200
gfz2015rddx  -0.41740
gfz2015rkzg  -0.85810
gfz2015sdeo  -0.51470
gfz2015sdfy  -0.79760
gfz2015sevh  -0.94510
gfz2015sfdd  -0.92510
gfz2015sfdl  -0.49050
gfz2015sfdv  -0.44130
gfz2015sfdy  -1.36740
gfz2015sfeo  -0.59200
gfz2015sffn  -4.01890
gfz2015sfga  -0.54840
gfz2015sfhz  -0.72780
gfz2015sfiq   0.90080
gfz2015sfnb  -1.28540
gfz2015sfno  -1.34620
gfz2015sfoc  -1.06640
gfz2015sfqr  -0.56090
gfz2015sfrv   0.77690
gfz2015sfsi  -0.86820
gfz2015sgad  -0.62250
gfz2015sgyd  -0.65520
gfz2015shhg  -1.10360
gfz2015shhu  -1.16250
gfz2015shjn  -1.21040
gfz2015shjo   0.12880
gfz2015shsz  -0.15930
gfz2015sitn  -0.56440
gfz2015sjbx  -1.14000
gfz2015sjgk  -0.71470
gfz2015sjne  -0.39030
gfz2015sjoj  -0.30250
gfz2015sjvu  -0.82970
gfz2015sjwi   0.25310
gfz2015skxu  -1.22660
gfz2015smym  -0.67230
gfz2015snsf  -0.69720
gfz2015snwh  -0.64390
gfz2015snyd  -2.20880
gfz2015soat  -0.75090
gfz2015soxc  -1.65190
gfz2015srat  -0.76050
gfz2015stfy  -0.17700
gfz2015subz  -0.92140
gfz2015svwm  -1.19620
gfz2015szcb  -0.59130
gfz2015taml  -0.84490
gfz2015tbdn  -0.31990
