# Nsamples: 151  MAD:  0.688  mean:  0.539  variance:  0.695
gfz2010cqwl   0.82090
gfz2010czps   0.48240
gfz2010eaoy   0.63020
gfz2010eaqy   1.07290
gfz2010earu   1.47520
gfz2010eawu  -1.69650
gfz2010ebhc   0.13350
gfz2010ecua   0.85120
gfz2010eisx  -0.42840
gfz2010ekyc   0.61870
gfz2010erkn   0.29750
gfz2010excp   0.33990
gfz2010exdd   1.00300
gfz2010ezck  -0.93960
gfz2010fedq   1.69750
gfz2010ffhq  -0.31540
gfz2010fqdu   1.04750
gfz2010fync  -0.23950
gfz2010grjd   2.32450
gfz2010iull   1.65110
gfz2010mkuu   1.02680
gfz2010moyw   0.61820
gfz2010nmpc   0.92790
gfz2010pfyu  -0.49150
gfz2010rkfp   0.43280
gfz2010sfee   0.25010
gfz2010skqo   0.93240
gfz2010sysw   1.69000
gfz2010usho   0.18040
gfz2011aatr   0.35150
gfz2011bgrp   0.69860
gfz2011dpqx  -0.19770
gfz2011gkzt   0.40660
gfz2011hlqw  -0.43860
gfz2011hlsa  -0.11560
gfz2011jplh   0.80320
gfz2011lcxq   1.57320
gfz2011rewa  -0.11530
gfz2011rqui   0.61320
gfz2011toub   0.79320
gfz2011wxfs   1.56370
gfz2011xyxj   1.18270
gfz2012bpkx  -1.09270
gfz2012czlw   1.83140
gfz2012deri  -0.02240
gfz2012dyyh   0.44340
gfz2012emjg   1.05120
gfz2012enno  -0.26060
gfz2012fzfa   1.29960
gfz2012gomm   1.08500
gfz2012hnul   1.70590
gfz2012jlox   1.23450
gfz2012jupx  -0.35800
gfz2012kkup  -0.10200
gfz2012klhx  -0.14520
gfz2012kuct  -0.14650
gfz2012kudo   0.28300
gfz2012ldxg   0.71540
gfz2012ldzj   1.41180
gfz2012minr   0.28060
gfz2012oazn   0.57000
gfz2012rqlg  -0.21430
gfz2012teic   0.59120
gfz2012ttoa  -0.51270
gfz2012tvmv   0.54080
gfz2012uaqj   0.23570
gfz2012vrgb   0.44840
gfz2012wklq  -1.14220
gfz2012wmsg  -0.33080
gfz2013ccnr  -0.09800
gfz2013drxz  -0.32160
gfz2013fkii   1.54020
gfz2013jkut   1.28160
gfz2013kdeo   0.10840
gfz2014bwue   0.65590
gfz2014bzxy  -0.62820
gfz2014czqi   0.49710
gfz2014fgvi   1.66720
gfz2014fhla  -0.69670
gfz2014fimn   0.93650
gfz2014fkmr   0.46090
gfz2014frez   0.64340
gfz2014ftka  -0.72060
gfz2014ftoc  -2.21760
gfz2014furx   0.83560
gfz2014fusj   0.89090
gfz2014fval   1.24610
gfz2014fvrg   0.36160
gfz2014gbcz  -1.81740
gfz2014ghpe   0.50190
gfz2014gkgf   0.33330
gfz2014gkqf   1.44650
gfz2014gmge   0.86760
gfz2014gmhr  -2.14890
gfz2014gmnb   1.10250
gfz2014gmnw   1.25360
gfz2014goba   0.97310
gfz2014gqer   2.49580
gfz2014gsqs  -0.03600
gfz2014gull   0.95210
gfz2014gwab   0.38250
gfz2014hasj   0.10060
gfz2014hjgr   1.03010
gfz2014hocg   0.47360
gfz2014hqxs   0.66870
gfz2014jjhc   0.88770
gfz2014jjln   1.51730
gfz2014jpep   1.09410
gfz2014knks   0.85710
gfz2014lxnc   0.48750
gfz2014lyhk   0.82610
gfz2014macx   0.87040
gfz2014madw   0.39840
gfz2014ngvt  -1.44150
gfz2014nqfm   0.87600
gfz2014nrie   1.70610
gfz2014oinz   0.50860
gfz2014pvch   0.80330
gfz2014qlxd   1.17900
gfz2014qqhm   1.44700
gfz2014rdsn   1.68270
gfz2014ssvz   0.27730
gfz2014ubwn   1.34190
gfz2014vjoz   0.39420
gfz2014yhhm   0.27010
gfz2015aruz   1.18040
gfz2015berb   0.77460
gfz2015chhn  -0.01980
gfz2015cxxk   0.52580
gfz2015cyjd  -0.00910
gfz2015egxq   0.89010
gfz2015fsjj   1.40390
gfz2015gckd   1.68740
gfz2015ggjw  -1.02320
gfz2015kxxs   1.54950
gfz2015lhjy   0.73180
gfz2015lytv  -1.41800
gfz2015mpte   1.28090
gfz2015okmq   1.02910
gfz2015qnho   0.73690
gfz2015rddx  -0.46610
gfz2015sfdd   0.80810
gfz2015sfdy   1.63280
gfz2015sfnb   1.47920
gfz2015sfno   0.41350
gfz2015smym   0.78250
gfz2015snwh   0.11560
gfz2015soat   0.82400
gfz2015soxc   0.61410
gfz2015svwm   0.86700
gfz2015taml   1.13060
