# Nsamples: 305  MAD:  0.658  mean:  0.080  variance:  0.653
gfz2012spbj   1.80770
gfz2012svpr  -0.51170
gfz2012uxnz   0.16940
gfz2012uzyj  -1.11900
gfz2012vwvd  -0.05380
gfz2012wmsg   0.67070
gfz2012wtkh   0.05380
gfz2012wtkr   0.43880
gfz2012wubh   0.03440
gfz2012wvfl  -0.52920
gfz2012wxlg  -0.76260
gfz2012wypz   0.63050
gfz2012yzod   0.65940
gfz2012zemz  -0.00000
gfz2012zmbp   0.40430
gfz2012zmln  -0.58590
gfz2013aahq  -0.73840
gfz2013aeee   1.73490
gfz2013bnxc   0.33500
gfz2013bobq   0.63780
gfz2013btjm  -0.50130
gfz2013ccnr  -0.62310
gfz2013cdan  -0.51200
gfz2013cvqg  -0.18460
gfz2013cwps   1.42500
gfz2013ddbh   0.08440
gfz2013dddp   0.67750
gfz2013dkmz   1.20570
gfz2013dnnx   0.01920
gfz2013dofo  -0.74350
gfz2013enbx   0.94140
gfz2013fdoo   1.61530
gfz2013fiud   0.07750
gfz2013fkii   2.05400
gfz2013flox  -0.90280
gfz2013fwxa   0.66920
gfz2013fygc  -0.29220
gfz2013gbst   1.15510
gfz2013gcfx  -0.29390
gfz2013gelv   4.71580
gfz2013glcr   0.62750
gfz2013gmor   1.14000
gfz2013gngz   0.70370
gfz2013goux  -1.39100
gfz2013govy  -1.15390
gfz2013hfmp  -0.34980
gfz2013idbb  -0.06140
gfz2013ihcj   0.58840
gfz2013ilug  -1.13220
gfz2013inux   0.97660
gfz2013iodt   0.12620
gfz2013jgip  -0.01960
gfz2013jmcc   1.33600
gfz2013jusj  -1.07650
gfz2013kvtk  -0.59630
gfz2013kweg   0.46100
gfz2013lajn  -0.84610
gfz2013lgxc   1.25460
gfz2013lljw   0.31920
gfz2013lsob  -0.18850
gfz2013lwao   0.49340
gfz2013lwbk   1.50130
gfz2013lxyn   1.49350
gfz2013nmac   0.70830
gfz2013nnzf  -0.86440
gfz2013nojf  -0.12870
gfz2013qmer   0.58220
gfz2013qqrr  -0.29650
gfz2013rrza  -0.08840
gfz2013saez   0.48810
gfz2013scai  -0.44880
gfz2013sdus  -0.04100
gfz2013shlq  -0.46680
gfz2013skkm   0.19050
gfz2013sllq   0.28420
gfz2013snbr  -0.29120
gfz2013snyf   1.71290
gfz2013sred   1.77140
gfz2013svci   0.42110
gfz2013svqv   0.41810
gfz2013tdkk   0.08930
gfz2013thtc  -0.06930
gfz2013toea  -0.23220
gfz2013ttoz   1.17050
gfz2013tusd  -0.38880
gfz2013tuzv   0.12600
gfz2013twwf  -2.80850
gfz2013txtb   0.01910
gfz2013tyas  -0.61260
gfz2013uthl   0.41240
gfz2013vdic  -0.37890
gfz2013vfyw   1.21260
gfz2013vfzp   0.56380
gfz2013vgev  -0.48270
gfz2013vgpf   1.91330
gfz2013vgrk   0.53970
gfz2013vhnk   1.12010
gfz2013viul  -0.52690
gfz2013vjfe   0.01540
gfz2013vjjc  -2.50120
gfz2013vsbl   0.47020
gfz2013vuja   0.59420
gfz2013vvjh   0.34580
gfz2013wjmm  -0.57830
gfz2013wqhq   0.67580
gfz2013wtzl   0.00000
gfz2013wuon   1.15130
gfz2013xcmp  -0.08860
gfz2013xkbh  -0.73000
gfz2013xmul   0.34140
gfz2013xpfa   2.17390
gfz2013xsdt   0.50960
gfz2013xtwj   1.17880
gfz2013xvqd   2.35910
gfz2013xwda  -0.06640
gfz2013xwxn   0.40590
gfz2013xwzd   1.01950
gfz2013xxcc  -0.83180
gfz2013xxwv   0.98150
gfz2013xxxq   0.81600
gfz2013xyzb   0.86710
gfz2013xzcg   1.28420
gfz2013yhpk   0.16430
gfz2013yixl   1.05160
gfz2013ylbx  -0.81840
gfz2013ypdc  -0.03510
gfz2013yyti   0.43320
gfz2013zfhu   1.08990
gfz2013zjel   1.25300
gfz2013zmoc   0.80990
gfz2013zmtb  -0.07910
gfz2014aawc  -1.11600
gfz2014cbtl   0.09420
gfz2014ccbz  -0.92690
gfz2014cgog   0.41030
gfz2014claq  -0.52780
gfz2014cqyo   0.58720
gfz2014cvkm   0.34520
gfz2014cyvm  -0.71640
gfz2014czua   0.35990
gfz2014dcdy   0.05390
gfz2014dhxt  -0.01980
gfz2014dofa  -0.35480
gfz2014dpzx  -0.03540
gfz2014ebmc   0.31270
gfz2014ejmt   0.61170
gfz2014ekdn  -0.31210
gfz2014ekdt   0.07680
gfz2014enhi  -0.88510
gfz2014etqa   0.66780
gfz2014ettc   0.17070
gfz2014ezgb   0.86940
gfz2014fgvi   0.58310
gfz2014fgvr   1.86380
gfz2014fgvz   1.19910
gfz2014fhla  -0.86040
gfz2014fjzd  -0.53000
gfz2014ftka  -1.43680
gfz2014ftpw  -0.40090
gfz2014fuub  -0.73490
gfz2014fvaa   0.33440
gfz2014fvjl   0.16070
gfz2014fxhd  -0.84290
gfz2014hyvq   0.67030
gfz2014hzdy   0.12940
gfz2014hzfw  -0.54890
gfz2014hzhe   0.28220
gfz2014icqt  -0.32680
gfz2014ieam  -0.05980
gfz2014igur   0.42640
gfz2014ilwu  -0.06420
gfz2014iobd   0.27520
gfz2014issk   0.23760
gfz2014isys  -0.00000
gfz2014iwnf   0.45180
gfz2014nylm  -0.78130
gfz2014oims   0.07280
gfz2014okjw  -0.30690
gfz2014opqr  -0.30860
gfz2014osvz  -0.52990
gfz2014oxcc  -0.66250
gfz2014pjum   1.03480
gfz2014ppyi   0.27350
gfz2014qcxs  -0.17350
gfz2014raau  -0.83120
gfz2014rbpx  -0.23680
gfz2014rfeb  -0.55030
gfz2014rghp  -0.15010
gfz2014rils   0.10590
gfz2014rkwl  -0.37970
gfz2014roba  -0.10400
gfz2014ryfb   0.03900
gfz2014szzf  -0.40270
gfz2014tute   0.16950
gfz2014uvji  -0.02020
gfz2014uvrk  -0.25970
gfz2014wrkh   0.46720
gfz2015alzx   1.12120
gfz2015azzp   0.22680
gfz2015bohx   0.92750
gfz2015byfn  -0.73300
gfz2015byjd   0.16980
gfz2015chhn  -0.68180
gfz2015cxhx   0.43340
gfz2015cxrc  -0.44350
gfz2015elgy  -0.31110
gfz2015eljz  -0.21430
gfz2015emin   1.14880
gfz2015enth   0.23950
gfz2015etai  -0.05640
gfz2015eyqs  -0.12390
gfz2015fcua  -0.81120
gfz2015fjhk  -0.26960
gfz2015fkgt   0.01960
gfz2015flis  -0.38100
gfz2015fsjj  -0.23100
gfz2015fwkq   1.14520
gfz2015gkwa  -0.12120
gfz2015guhd  -0.35330
gfz2015gwao  -0.13140
gfz2015gzja  -0.51600
gfz2015hgbk   0.33400
gfz2015jmlu  -0.03230
gfz2015jwgl   0.12570
gfz2015kxxs  -0.03900
gfz2015lhjy   0.10320
gfz2015ojut   0.50760
gfz2015okpu   0.01980
gfz2015opjp  -0.42350
gfz2015pdri   0.14810
gfz2015poni  -0.41730
gfz2015qisx  -0.91510
gfz2015qnho   0.00800
gfz2015qpvd   0.38360
gfz2015sfdd  -0.34180
gfz2015sfdl  -1.62290
gfz2015sfdv  -0.35560
gfz2015sfeo  -2.06910
gfz2015sfkh  -0.78630
gfz2015sfmd   1.49160
gfz2015sfnv  -1.35220
gfz2015sfoh  -0.45190
gfz2015sfoq   0.36460
gfz2015sfpj   0.18000
gfz2015sfps  -0.42200
gfz2015sfrc  -0.63110
gfz2015sfrf  -0.02070
gfz2015sfrv  -0.22460
gfz2015sfte  -0.98180
gfz2015sftu  -0.91640
gfz2015sfuz   0.01790
gfz2015sfwf  -0.02110
gfz2015sfxn  -0.76720
gfz2015sfzm  -0.50160
gfz2015sgdj  -0.40460
gfz2015sgdn   1.56550
gfz2015sgey  -0.47560
gfz2015sghq  -1.07400
gfz2015sgie  -0.14200
gfz2015sglg  -0.47110
gfz2015sgmm  -0.22840
gfz2015sgmr  -0.08320
gfz2015sgoa  -0.91800
gfz2015sgpu  -0.24590
gfz2015sgyd  -1.14520
gfz2015shel  -0.06530
gfz2015shhg  -0.83130
gfz2015shlp   0.80040
gfz2015shov   1.98910
gfz2015shqc  -0.36230
gfz2015shrg  -0.27920
gfz2015shsb   1.04490
gfz2015shsz   0.37530
gfz2015shwt   0.90940
gfz2015sicu   0.15500
gfz2015siem   0.19250
gfz2015sixs  -0.38490
gfz2015siyy   0.00000
gfz2015sjbx  -0.16710
gfz2015sjoj  -0.96430
gfz2015sjtz   0.85960
gfz2015sjwi  -1.79110
gfz2015skab  -0.27850
gfz2015skhf   0.27980
gfz2015skia  -1.13630
gfz2015snwh  -0.73400
gfz2015sopc   0.89410
gfz2015soxc  -0.35180
gfz2015spal   0.41540
gfz2015sqmy  -0.27250
gfz2015sqoz   0.14860
gfz2015sqvx  -0.30670
gfz2015sqwv   0.01930
gfz2015srat  -0.32470
gfz2015srgf   0.13810
gfz2015srxe   0.56780
gfz2015srxm   0.04810
gfz2015ssoe   0.49770
gfz2015sspn   1.32500
gfz2015ssrl   0.57640
gfz2015stcv  -0.01910
gfz2015stso   0.10960
gfz2015svwm  -0.38000
gfz2015sxgd   0.07700
gfz2015szcb  -0.08290
