# Nsamples: 17  MAD:  0.536  mean:  0.036  variance:  1.859
gfz2010iull  -0.39080
gfz2011enva   0.01780
gfz2011gkzt  -0.36090
gfz2011lcxq   0.17660
gfz2012ldxg   0.47780
gfz2013jkut  -0.18490
gfz2013nwdi   0.15930
gfz2014fgvi  -0.71810
gfz2014fhla   3.50180
gfz2014ftka  -0.56550
gfz2014gmhr   1.02610
gfz2014gmnb  -0.49440
gfz2014goba   0.85240
gfz2015cyjd   1.39350
gfz2015eeyq  -3.71370
gfz2015gckd  -0.35450
gfz2015lhjy  -0.21340
