# Nsamples: 57  MAD:  0.812  mean: -0.429  variance:  0.804
gfz2010ebhc  -0.27690
gfz2010fqdu   0.06550
gfz2010ftlm  -1.27150
gfz2010grjd   1.70660
gfz2010usho  -0.52400
gfz2011aatr  -0.14870
gfz2011dpqx  -0.76900
gfz2011enva  -0.78280
gfz2011gkzt  -1.66610
gfz2011lcxq   0.18740
gfz2011wxfs  -0.30150
gfz2012dyyh  -1.43890
gfz2012enno  -0.31950
gfz2012fwtr  -0.28890
gfz2012kkup   0.21180
gfz2012kudo  -0.84830
gfz2012ldxg  -0.00900
gfz2012minr   0.18040
gfz2012nsbz  -0.06050
gfz2013dspt   0.47210
gfz2013dsrk   0.36950
gfz2013ifpq   0.65350
gfz2013jkut  -0.48740
gfz2013jwvc   1.12510
gfz2013kdeo  -0.32670
gfz2013nwdi   0.87910
gfz2013svci  -1.25040
gfz2014fgvi  -0.25730
gfz2014fhla  -1.38160
gfz2014frdz   1.66460
gfz2014frez  -0.31890
gfz2014ftka  -1.22550
gfz2014ghpe  -1.67010
gfz2014gkqf  -0.51940
gfz2014gltx  -0.35290
gfz2014gmge  -0.18620
gfz2014gmhr   1.68790
gfz2014gmnb  -1.01050
gfz2014gmnw  -0.35210
gfz2014goba  -1.04540
gfz2014gull  -0.46290
gfz2014gzue  -1.06030
gfz2014hasj  -1.45790
gfz2014hgqo  -0.76200
gfz2014hjgr  -1.12330
gfz2014huaj  -0.40340
gfz2015aruz  -0.95420
gfz2015cyjd  -1.23730
gfz2015ddhl   1.42320
gfz2015dvbn  -0.77540
gfz2015eiky  -3.08190
gfz2015fjhk  -1.00450
gfz2015fsjj   0.18030
gfz2015gckd  -0.77730
gfz2015hgbk  -1.03580
gfz2015lhjy  -0.88360
gfz2015mpte  -1.14840
