# Nsamples: 49  MAD:  1.284  mean:  1.000  variance:  2.605
gfz2010bxxs   1.59600
gfz2010czps   0.88350
gfz2010eaoy   2.22660
gfz2010earu   0.62940
gfz2010eaul  -1.68360
gfz2010ebhc   0.67380
gfz2010eisx   2.72790
gfz2010eltf   1.62890
gfz2010elyc   2.80240
gfz2010excp   0.34560
gfz2010ezxd  -5.99610
gfz2010ffhq   2.68110
gfz2010gtqs  -0.31920
gfz2010hxgv   0.63510
gfz2010iull   1.49400
gfz2010nmpc   4.58310
gfz2011hlsa   2.33910
gfz2011rewa   1.24140
gfz2011wxfs   2.56490
gfz2012kkup   2.33590
gfz2012pciw   0.49330
gfz2012rwov  -0.05830
gfz2012wypz   0.82180
gfz2013ccnr  -0.86860
gfz2013jusj   1.79990
gfz2013ldqb  -1.01810
gfz2013nkgj   1.19330
gfz2013nwdi   2.25190
gfz2013svci   1.28590
gfz2013vhnk  -0.33540
gfz2013vjjc   2.53810
gfz2014fgvi   2.11470
gfz2014fhla   1.51940
gfz2014fjzw   1.39250
gfz2014gkgf   1.01180
gfz2014gmhr   2.36590
gfz2014gmnb   1.41630
gfz2014jbyg  -2.72300
gfz2014ssvz   1.06040
gfz2015chhn   0.69860
gfz2015cyjd   1.75710
gfz2015lhjy   2.43150
gfz2015lytv   0.83850
gfz2015sfdd   1.29620
gfz2015sjoj   0.82010
gfz2015snwh  -0.16510
gfz2015soxc   0.27970
gfz2015svwm   1.21180
gfz2015taml   0.19170
