# Nsamples: 15  MAD:  0.492  mean:  1.346  variance:  0.839
gfz2010iull   0.99530
gfz2011aatr   0.69590
gfz2011enva   0.96090
gfz2012ttoa   2.11890
gfz2012vrgb   1.34080
gfz2012wypz   0.85600
gfz2013jkut   1.79160
gfz2013nwdi   4.18590
gfz2013svci   1.29260
gfz2014bwue  -0.13730
gfz2014fgvi   1.40330
gfz2014gkgf   1.20730
gfz2014qqhm   1.52310
gfz2015cyjd   0.61110
gfz2015taml   1.33950
