# Nsamples: 38  MAD:  0.497  mean:  0.121  variance:  0.356
gfz2010bxxs   0.62640
gfz2010grjd  -0.34170
gfz2010iull   0.32190
gfz2010nmpc  -0.10950
gfz2011aatr   0.31520
gfz2011enva  -0.20540
gfz2011gkzt   1.47310
gfz2011hlqw  -0.15670
gfz2011hlsa  -0.10960
gfz2011lcxq  -0.25040
gfz2011lzwj   0.29390
gfz2011mdie   0.25220
gfz2011rewa  -0.22110
gfz2011toub   0.37210
gfz2011wxfs  -0.07870
gfz2012enno   0.87600
gfz2012jlox  -0.27580
gfz2012kkup   0.41660
gfz2012klhx   1.14090
gfz2012kudo  -0.17510
gfz2012teic   0.45470
gfz2013drxz   0.34010
gfz2013nwdi  -1.28960
gfz2013svci   0.33550
gfz2014bwue  -0.33810
gfz2014fgvi   0.67650
gfz2014fhla  -1.68850
gfz2014ftka  -0.21360
gfz2014gkgf   0.51740
gfz2014gkqf   0.12600
gfz2014gmnb  -0.13010
gfz2014goba   0.35250
gfz2014hasj  -0.26890
gfz2014jjhc  -0.54120
gfz2014nqfm  -0.01580
gfz2014qqhm   0.82840
gfz2014ssvz   0.16410
gfz2015cyjd   1.12640
