# Nsamples: 59  MAD:  0.807  mean: -0.829  variance:  2.385
gfz2010nmpc  -0.90630
gfz2010oyqy   0.19530
gfz2010rqwj  -1.00290
gfz2011aatr  -0.76880
gfz2011hlsa  -0.71550
gfz2011lcxq  -0.95360
gfz2011lzwj  -0.52750
gfz2011xyxj  -0.14570
gfz2012enno  -0.44750
gfz2012jlox  -1.25560
gfz2012kkup  -0.34750
gfz2012kudo  -1.09310
gfz2012ldxg  -0.70450
gfz2012nxyt  -0.14650
gfz2012vrgb  -1.13570
gfz2012wypz  -0.74690
gfz2013ccnr  -2.00310
gfz2013dofo  -2.23780
gfz2013drxz  -1.31330
gfz2013jdrx   5.22910
gfz2013jkut  -0.99090
gfz2013mded  -7.18260
gfz2013nwdi  -1.44730
gfz2013pcos   0.32830
gfz2013svci  -1.56070
gfz2013tlaf  -1.10020
gfz2013vjjc   1.35210
gfz2013xsdt   0.21560
gfz2013ymxs  -1.40390
gfz2014bwue  -0.77080
gfz2014capn   0.90520
gfz2014fgvi  -0.05760
gfz2014fhla   0.65870
gfz2014flfa  -1.06880
gfz2014ftka  -0.66540
gfz2014gkgf   0.32480
gfz2014gkpj  -3.95050
gfz2014gmge   0.65320
gfz2014gmhr   1.06480
gfz2014gmnb  -0.56750
gfz2014gmnw  -0.31420
gfz2014gndq  -3.05230
gfz2014goba  -0.84730
gfz2014gpbx   1.82540
gfz2014oinz  -1.92840
gfz2014opqr  -0.55060
gfz2014orgz  -2.19590
gfz2014qqhm  -3.29820
gfz2014ssvz  -0.70750
gfz2015cyjd  -1.58270
gfz2015fsjj  -0.67540
gfz2015gckd  -1.01720
gfz2015lhjy  -0.72030
gfz2015lytv  -1.57190
gfz2015sfdd  -2.17470
gfz2015snwh  -0.24900
gfz2015svwm  -1.75090
gfz2015szcb  -0.73220
gfz2015taml  -1.05740
