# Nsamples: 216  MAD:  0.689  mean: -0.385  variance:  0.588
gfz2010aerk  -0.71800
gfz2010chnv  -0.46330
gfz2010ezax  -0.41280
gfz2010fmhb  -2.67230
gfz2010gzxr  -1.77350
gfz2010hrkr  -0.70250
gfz2010iciq  -1.06140
gfz2010iobp  -0.13260
gfz2010iull   0.63740
gfz2010lczp  -1.13190
gfz2010mipi  -1.03850
gfz2010mkuu  -0.06000
gfz2010nmpc  -0.56210
gfz2010nqwo  -1.88370
gfz2010nwef  -0.15480
gfz2010onma  -0.54760
gfz2010pfyu  -1.06250
gfz2010qpcq  -0.17570
gfz2010rqwj   0.21110
gfz2010sfee  -0.14880
gfz2010skqo  -0.11900
gfz2010sysw   0.04150
gfz2010upfb  -1.93540
gfz2010usho  -0.50340
gfz2010vtdg  -0.66550
gfz2011aatr  -0.54910
gfz2011adjs   0.63790
gfz2011bgrp  -0.63120
gfz2011dcqb  -1.03800
gfz2011dpqx  -0.41590
gfz2011enva   0.08280
gfz2011flgj  -0.62450
gfz2011fnsw  -1.55870
gfz2011gjlx  -1.69300
gfz2011gkzt  -1.05120
gfz2011hlqw  -0.98930
gfz2011hlsa  -0.90820
gfz2011hlth  -0.60750
gfz2011jplh  -0.62460
gfz2011lcxq   0.40810
gfz2011lhls  -0.37010
gfz2011lzwj   0.52130
gfz2011mdie  -1.19520
gfz2011nrwv  -0.66800
gfz2011ntkh  -1.00760
gfz2011owvz   0.12800
gfz2011qvae   0.87260
gfz2011rewa  -0.80920
gfz2011rqui  -0.51020
gfz2011tkog   0.83990
gfz2011toub  -0.03990
gfz2011uepx  -0.88930
gfz2011ujze  -0.47420
gfz2011vhfi   0.46910
gfz2011vrhg  -1.32340
gfz2011wxfs   0.68140
gfz2011xyxj  -0.17590
gfz2011yybo  -0.80470
gfz2012bfah  -0.02140
gfz2012bpkx  -1.46370
gfz2012czlw   0.44470
gfz2012emjg   0.18660
gfz2012enno  -0.43220
gfz2012fzfa  -0.71680
gfz2012hnul   1.13400
gfz2012jlox   0.23330
gfz2012jupx   0.31440
gfz2012kkup  -0.77860
gfz2012klhx  -0.93930
gfz2012kuct  -0.20680
gfz2012kudo  -0.74680
gfz2012ldxg   0.04160
gfz2012minr  -0.53800
gfz2012mupa   0.24190
gfz2012nqnk  -1.24790
gfz2012omvo  -0.11920
gfz2012rqlg  -0.36510
gfz2012sphd  -0.52660
gfz2012syvl   0.87880
gfz2012teic  -0.30010
gfz2012ttoa  -0.54270
gfz2012uaqj  -0.70280
gfz2012vrgb  -0.30790
gfz2012wklq  -1.69290
gfz2012wxkg  -0.55240
gfz2012wypz  -0.11710
gfz2013ccnr  -1.25580
gfz2013dofo  -1.26860
gfz2013drpk  -0.18940
gfz2013drxz  -0.98070
gfz2013iodt  -1.08510
gfz2013iunn  -0.62300
gfz2013jkut   0.69890
gfz2013kdeo  -0.12370
gfz2013mwbh   0.24940
gfz2013nkgj  -0.00730
gfz2013nknw   0.48830
gfz2013nqgw  -0.76630
gfz2013nwdi  -0.39660
gfz2013pfbx  -0.90630
gfz2013qmer   0.28640
gfz2013suvn  -0.71180
gfz2013svci   0.41650
gfz2013tusd  -0.69700
gfz2013tvmw   0.19320
gfz2013uauo  -1.13660
gfz2013vjjc   0.26230
gfz2013wjmm  -0.09750
gfz2013xsdt   0.50490
gfz2014afmx  -0.26430
gfz2014ande  -1.14090
gfz2014arpf   0.17240
gfz2014bwue  -0.16020
gfz2014bzxy  -0.53950
gfz2014chdv   0.72760
gfz2014czqi   0.06130
gfz2014fedd  -0.55030
gfz2014fgvi   0.86170
gfz2014fhla  -2.09190
gfz2014fhwx  -0.11730
gfz2014fimn  -0.07050
gfz2014fkmr  -0.36270
gfz2014fnyg  -0.68070
gfz2014frdz   0.02980
gfz2014frez  -0.53570
gfz2014ftka  -0.74690
gfz2014fval   0.16590
gfz2014gkgf   0.12650
gfz2014gkgs  -0.45580
gfz2014gkhy   0.60490
gfz2014gkob   1.88280
gfz2014gkqf   0.00000
gfz2014glcu  -1.82010
gfz2014gltx   0.12540
gfz2014gmge   0.80390
gfz2014gmhr  -0.11660
gfz2014gmnb   0.13270
gfz2014gmnw  -0.07490
gfz2014goba   0.97650
gfz2014goqw  -0.04150
gfz2014gqer   0.23530
gfz2014gull  -0.55150
gfz2014gwab  -0.54990
gfz2014gxxo  -1.29670
gfz2014hagb  -1.35360
gfz2014hasj  -0.84290
gfz2014heyq  -0.27470
gfz2014hgqo  -0.69550
gfz2014hjgh  -3.60200
gfz2014hjgr  -0.28800
gfz2014hkcf  -0.37180
gfz2014hkck   0.64160
gfz2014hocg  -0.41250
gfz2014hqxs  -1.81320
gfz2014huaj   0.11460
gfz2014hyvq  -0.63750
gfz2014inbj  -0.91960
gfz2014itkw   0.09440
gfz2014jjhc  -0.15920
gfz2014jnyv  -0.37080
gfz2014jpep  -0.32110
gfz2014kitm  -0.38770
gfz2014kndc  -0.84720
gfz2014lgqn   1.12610
gfz2014lxnc  -1.39980
gfz2014lyhk  -0.53360
gfz2014lyhp  -0.59000
gfz2014macx  -2.94430
gfz2014ndue  -1.38010
gfz2014nqfm   0.04810
gfz2014nrie   0.78180
gfz2014oinz  -0.66990
gfz2014owxc  -2.39390
gfz2014pvch  -0.61280
gfz2014qlxd   0.17560
gfz2014qqhm   0.77210
gfz2014rdsn   0.31140
gfz2014ssvz  -0.58190
gfz2014ubwn   0.70470
gfz2014vhms   0.85830
gfz2014watn   0.26770
gfz2014wrkh   0.65040
gfz2015aruz   0.27700
gfz2015atxv  -0.73010
gfz2015berb  -0.67940
gfz2015chhn  -0.99670
gfz2015chqn   0.81470
gfz2015cxxk  -0.26660
gfz2015cyjd  -0.56200
gfz2015egxq  -0.28600
gfz2015fjhk   0.06030
gfz2015fsjj   0.51290
gfz2015gckd  -0.83070
gfz2015ggjw  -0.34630
gfz2015igsy  -0.46050
gfz2015kquq  -0.09690
gfz2015kxxs   0.48240
gfz2015lhjy   0.08790
gfz2015lytv  -0.74650
gfz2015mddr   0.18830
gfz2015mpte   0.41820
gfz2015sfdd  -0.90150
gfz2015sfdy  -0.59300
gfz2015sfeo   0.69840
gfz2015sfnb   0.31670
gfz2015sfno  -1.08950
gfz2015sjgk   0.32650
gfz2015sjoj  -0.16650
gfz2015sjvu  -1.03950
gfz2015smym  -0.79190
gfz2015snwh  -1.21940
gfz2015soat  -2.24960
gfz2015soxc  -0.97420
gfz2015svwm  -0.75800
gfz2015taml  -0.11950
gfz2015tbdn  -0.99580
