# Nsamples: 166  MAD:  0.677  mean: -0.256  variance:  0.774
gfz2010ahqi  -0.18960
gfz2010bxxs   0.29990
gfz2010cqwl   0.24710
gfz2010czps   0.09940
gfz2010eaoy  -1.39440
gfz2010eapn  -5.77940
gfz2010eaqe  -1.50230
gfz2010ebhc   0.02000
gfz2010ecua   0.54690
gfz2010eisx   0.83420
gfz2010ekyc   0.35100
gfz2010eltf   0.83120
gfz2010elyc   0.02640
gfz2010excp  -0.05830
gfz2010exdd   2.41850
gfz2010exdl  -1.34910
gfz2010grjd   1.19040
gfz2010hrkr  -0.56060
gfz2010hxhe   0.24190
gfz2010iull   0.68970
gfz2010mkuu   0.08310
gfz2010nmpc   0.04960
gfz2010onma   0.22180
gfz2010pbdz   0.10920
gfz2010pfyu  -0.57530
gfz2010rqwj   0.56400
gfz2010sfee  -0.03820
gfz2010urlq  -0.44320
gfz2010usho  -0.49650
gfz2010vtdg  -0.21470
gfz2011aatr  -0.23420
gfz2011cfae  -0.13930
gfz2011dpqx  -0.34030
gfz2011enva   0.46280
gfz2011gkzt  -2.11110
gfz2011hlsa  -0.30350
gfz2011jplh  -0.53150
gfz2011lcxq   0.85290
gfz2011lzwj   0.45030
gfz2011mdie  -0.77250
gfz2011nqpd  -0.30840
gfz2011nrwv  -0.58940
gfz2011ntkh  -0.17250
gfz2011owvz   0.78550
gfz2011qvae  -0.39540
gfz2011rewa  -0.95130
gfz2011tjue   0.04250
gfz2011toub   0.17330
gfz2011vhfi  -1.23340
gfz2011vrhg  -1.00430
gfz2011wxfs   0.58310
gfz2012bfah   0.02290
gfz2012czlw   0.85810
gfz2012enno  -0.90970
gfz2012fzfa  -0.73420
gfz2012gomm   0.20460
gfz2012hnul   0.84920
gfz2012jlox   0.32520
gfz2012kkup  -0.84630
gfz2012klhx  -1.02100
gfz2012kuct  -0.52160
gfz2012kudo  -0.27510
gfz2012vrgb   0.77010
gfz2012wtkh  -2.22840
gfz2012wypz   0.13140
gfz2013btjm  -0.29890
gfz2013ccnr  -0.95960
gfz2013drxz  -0.76030
gfz2013jkut   0.72920
gfz2013jwvc  -0.32730
gfz2013kdeo   0.78440
gfz2013ldqb   0.13400
gfz2013ndin   0.48430
gfz2013nkgj   0.11750
gfz2013nwdi  -0.35170
gfz2013pfbx  -0.60200
gfz2013qmer  -0.18840
gfz2013svci   0.32830
gfz2013uauo  -0.66550
gfz2013vjjc   0.04310
gfz2013ypdc   0.12630
gfz2014bwue  -0.34490
gfz2014bzxy  -0.50010
gfz2014fgvi   0.90090
gfz2014fhdw   0.13960
gfz2014fhla  -2.12750
gfz2014fhwx  -0.11520
gfz2014fimn   0.19670
gfz2014fkmr  -0.29650
gfz2014frdz  -0.13130
gfz2014frez   0.52220
gfz2014ftka  -1.41200
gfz2014ftpw  -0.76290
gfz2014fusj  -0.00000
gfz2014fval   0.40370
gfz2014ghpe  -0.73860
gfz2014gkgf  -0.62810
gfz2014gkgs   0.52650
gfz2014gkhy   0.33260
gfz2014gkqf   0.11730
gfz2014glcu  -0.31760
gfz2014gltx   0.23520
gfz2014gmge   0.69930
gfz2014gmhr  -0.67100
gfz2014gmnb  -0.43090
gfz2014gmnw  -0.17520
gfz2014gnfd  -0.71940
gfz2014goba   0.55410
gfz2014gqer  -3.44320
gfz2014gull   0.88060
gfz2014gwab  -0.56930
gfz2014gxxo  -0.93030
gfz2014haey  -0.85410
gfz2014hasj  -0.26620
gfz2014hfhl   0.56640
gfz2014hgqo  -1.19400
gfz2014hjgr  -1.36750
gfz2014hocg  -0.43330
gfz2014hphw  -2.04690
gfz2014hqxs  -1.03260
gfz2014huaj   0.16420
gfz2014itkw   0.15620
gfz2014jjhc   0.38000
gfz2014jpep  -0.24410
gfz2014kndc  -0.95600
gfz2014lgqn   1.25800
gfz2014lxnc  -0.21530
gfz2014lyhk  -0.04390
gfz2014lyhp  -0.86600
gfz2014macx  -0.21470
gfz2014madw  -0.92810
gfz2014nqfm   0.01790
gfz2014nrie   0.94740
gfz2014oinz  -0.62110
gfz2014pvch  -0.16360
gfz2014qlxd  -0.20010
gfz2014qqhm   0.66250
gfz2014riel  -2.27340
gfz2014ssvz  -0.08580
gfz2014ubwn  -0.06490
gfz2014vhms  -0.02160
gfz2014vjoz  -1.99480
gfz2014wwib  -1.72250
gfz2015berb   0.32120
gfz2015chhn  -0.78750
gfz2015cxxk  -0.89880
gfz2015cyjd  -0.42130
gfz2015fjhk  -0.00000
gfz2015fsjj   0.43140
gfz2015gckd   0.47950
gfz2015ggjw   0.03550
gfz2015jzcv   0.11590
gfz2015kquq   0.47680
gfz2015kxxs   0.25660
gfz2015lhjy  -0.07370
gfz2015lytv  -0.58650
gfz2015mpte   0.22800
gfz2015rddx   0.16720
gfz2015sfdd  -0.86540
gfz2015sfdy  -0.66960
gfz2015smym  -0.85250
gfz2015snwh  -0.55690
gfz2015soxc  -1.21610
gfz2015svwm  -0.52230
gfz2015szcb  -0.85790
gfz2015taml   0.00700
