# Nsamples: 8  MAD:  1.060  mean:  1.632  variance:  0.791
gfz2010eaoy   0.29240
gfz2010earu   3.02560
gfz2010eisx   1.40490
gfz2010elyc   0.74230
gfz2010exdd   2.72690
gfz2011aatr   1.56210
gfz2011adjs   1.13020
gfz2014arpf   2.17190
