# Nsamples: 74  MAD:  0.735  mean:  1.397  variance:  0.748
gfz2010bgth   0.50520
gfz2010bxxs   1.88230
gfz2010cqwl  -1.96990
gfz2010czps   1.09910
gfz2010eaoy   1.11520
gfz2010eapk   1.22450
gfz2010eapn   2.68080
gfz2010eaqe   2.06240
gfz2010eaqy   0.77810
gfz2010earu   2.55380
gfz2010easo   1.84760
gfz2010eavs   1.84730
gfz2010eaxa   1.55630
gfz2010ebhc   1.34390
gfz2010ecua   2.09500
gfz2010ekyc   1.16890
gfz2010eltf   1.46990
gfz2010elyc   0.45660
gfz2010evco   0.80760
gfz2010excp   1.75210
gfz2010exdd   2.27640
gfz2010exdl   0.79900
gfz2010ezck   1.37830
gfz2010fedq   0.16140
gfz2010ffhq  -0.00890
gfz2010fync   1.32050
gfz2010hxgv   1.51070
gfz2010iobp   1.23250
gfz2010iull   1.64880
gfz2010nqwo   0.66430
gfz2010rqwj   0.90480
gfz2011aatr   1.67120
gfz2011adjs   2.05230
gfz2011dbig   2.47210
gfz2011dcqb   0.12520
gfz2011dpqx   1.05390
gfz2011enva   2.50790
gfz2011gkzt   1.49470
gfz2011lzwj   1.86720
gfz2011rewa   1.26130
gfz2011toub   0.99000
gfz2011vrhg   1.57160
gfz2011wxfs   2.10840
gfz2012enno   1.64250
gfz2012fzfa   2.50830
gfz2012hnul   1.29580
gfz2012kkup   2.15350
gfz2012minr   2.87810
gfz2012ttoa   1.73520
gfz2012vrgb   2.64320
gfz2012wklq   0.31100
gfz2012wypz   1.70260
gfz2013ccnr   0.74410
gfz2013drxz   0.89110
gfz2013zjel  -0.92880
gfz2014fgvi   2.18810
gfz2014fhla   2.88430
gfz2014gmhr   2.99630
gfz2014hocg   1.34920
gfz2014ssvz   0.67270
gfz2014tqdo   2.24580
gfz2015chhn   0.97780
gfz2015cyjd   1.06560
gfz2015fkgt   1.51740
gfz2015fsjj   2.21700
gfz2015gckd   1.98790
gfz2015kfsu   0.72770
gfz2015lhjy   1.29180
gfz2015lytv  -0.47910
gfz2015sjoj   1.90830
gfz2015snwh   1.06200
gfz2015soxc   1.39630
gfz2015svwm   1.07360
gfz2015taml   1.34740
