# Nsamples: 26  MAD:  0.773  mean: -0.927  variance:  0.390
gfz2010bxxs  -0.36790
gfz2010homc  -1.21710
gfz2010iull  -0.40620
gfz2010nmpc  -0.92380
gfz2011aatr  -1.68210
gfz2011enva  -0.09600
gfz2011lcxq   0.05010
gfz2011lzwj  -0.79700
gfz2011rewa  -1.18010
gfz2011wxfs  -1.01480
gfz2012jlox  -0.46400
gfz2012kudo  -1.50720
gfz2012vrgb  -0.72570
gfz2012wypz  -1.26090
gfz2013drxz  -1.65590
gfz2013jkut  -0.12700
gfz2013nwdi   0.26610
gfz2013pfbx  -1.48590
gfz2013svci  -0.98010
gfz2014fgvi  -1.01520
gfz2014gmhr  -0.27050
gfz2014oinz  -1.73570
gfz2014ssvz  -1.69710
gfz2015cyjd  -2.23510
gfz2015fsjj  -0.55370
gfz2015sfdd  -1.00650
