# Nsamples: 10  MAD:  0.852  mean: -1.041  variance:  1.837
gfz2011aatr  -2.43090
gfz2011rewa   2.19000
gfz2011wxfs  -1.39680
gfz2012kudo  -0.45320
gfz2012wypz  -1.23600
gfz2013pfbx  -0.78240
gfz2013svci  -1.31290
gfz2014fgvi  -0.50240
gfz2014gkgf  -3.28480
gfz2015lhjy  -1.19770
