# Nsamples: 11  MAD:  0.734  mean:  0.199  variance:  1.930
gfz2010iull  -0.01990
gfz2011rewa  -0.39750
gfz2011wxfs  -0.19720
gfz2012jlox  -0.90600
gfz2012kkup   1.19080
gfz2012kudo   0.48380
gfz2013dspt   4.18340
gfz2013nwdi  -0.25930
gfz2013svci  -0.24960
gfz2014gkgf  -0.89850
gfz2015hwzw  -0.74460
