# Nsamples: 42  MAD:  0.390  mean:  0.546  variance:  0.364
gfz2010grjd  -0.06490
gfz2010iull   0.48430
gfz2010mkuu   0.73690
gfz2010nmpc   0.48740
gfz2011aatr  -0.48630
gfz2011enva   0.61170
gfz2011hlsa   0.98150
gfz2011lcxq  -0.05850
gfz2011lzwj   0.26830
gfz2011rewa   0.71950
gfz2011toub  -0.07080
gfz2011wxfs   0.21110
gfz2012enno   0.56920
gfz2012jlox   0.31460
gfz2012kkup   0.42000
gfz2012klhx   0.73610
gfz2012kudo   0.97830
gfz2012ldxg   0.54030
gfz2012vrgb   0.48010
gfz2012wypz   0.15900
gfz2013jkut   0.64040
gfz2013kdeo   1.56800
gfz2013nwdi  -0.56400
gfz2013pfbx  -0.10190
gfz2013svci   0.39640
gfz2014bwue  -0.29130
gfz2014fgvi   1.08380
gfz2014fhla   2.03620
gfz2014ftka   0.35250
gfz2014fval   0.46720
gfz2014gkgf   0.28500
gfz2014gkqf   0.82280
gfz2014gltx   0.92330
gfz2014gmhr   2.33080
gfz2014gmnb   0.54090
gfz2014goba   1.95860
gfz2014gull   0.35050
gfz2014gumd   0.40320
gfz2014qqhm   0.94550
gfz2014ssvz   0.66130
gfz2015cyjd  -0.06040
gfz2015lhjy   0.17380
