# Nsamples: 36  MAD:  0.690  mean:  0.093  variance:  0.422
gfz2011lcxq  -0.39750
gfz2011lzwj   0.58070
gfz2011rewa   0.82060
gfz2011toub  -0.30080
gfz2011wxfs  -0.19590
gfz2012enno   0.12390
gfz2012jlox  -0.33820
gfz2012kkup   0.16590
gfz2012klhx   1.38920
gfz2012kudo  -0.43150
gfz2012ldxg   0.15810
gfz2012ldzj  -0.35950
gfz2012teic   1.20050
gfz2012vrgb   0.58380
gfz2012wypz   0.13790
gfz2013drxz   0.09050
gfz2013jkut   0.42080
gfz2013kdeo   0.19460
gfz2013nwdi   0.55910
gfz2013svci   0.19090
gfz2014bwue  -0.50430
gfz2014fgvi   0.67360
gfz2014ftka  -1.01660
gfz2014ftoc  -0.71410
gfz2014gkgf  -0.68560
gfz2014gkhy   0.09700
gfz2014gkqf   0.42320
gfz2014gmvr  -1.91010
gfz2014goba  -0.25060
gfz2014gyxd   0.92230
gfz2014nqfm   0.18120
gfz2015berb  -0.33360
gfz2015cyjd   0.89220
gfz2015lhjy  -0.33450
gfz2015mpte   0.57210
gfz2015taml   0.74420
