# Nsamples: 40  MAD:  0.435  mean:  0.108  variance:  0.456
gfz2010ebhc  -0.20470
gfz2010grjd   0.87290
gfz2010iull   0.01750
gfz2010nmpc   0.02190
gfz2010odpb   2.45100
gfz2011aatr   0.23690
gfz2011enva  -0.10880
gfz2011hlqw  -0.26010
gfz2011hlsa   0.08510
gfz2011lcxq  -0.41360
gfz2011lzwj   0.53870
gfz2011rewa   0.93560
gfz2011wxfs  -0.06560
gfz2012enno   0.44580
gfz2012jlox  -0.36610
gfz2012kkup   0.18920
gfz2012klhx   1.31140
gfz2012kudo  -0.08050
gfz2012ldxg   0.32560
gfz2012vrgb  -0.55960
gfz2012wypz   0.07530
gfz2013drxz   0.51500
gfz2013jkut   0.10590
gfz2013kdeo  -0.31680
gfz2013nwdi  -0.08600
gfz2013svci   0.19100
gfz2014bwue  -0.18640
gfz2014fgvi  -0.18370
gfz2014fhla  -1.14660
gfz2014ftka  -0.46600
gfz2014gkgf  -0.83470
gfz2014gkhy   1.03900
gfz2014gmhr   0.86470
gfz2014goba  -0.02180
gfz2014hasj  -1.54450
gfz2014nqfm   0.10990
gfz2014qqhm   0.47690
gfz2015cyjd   0.78890
gfz2015fsjj  -0.26130
gfz2015lhjy  -0.18790
