# Nsamples: 15  MAD:  0.523  mean:  0.139  variance:  1.008
gfz2013kdeo   0.09810
gfz2013nwdi   0.02530
gfz2013pfbx  -0.47760
gfz2013svci   0.47830
gfz2014afmx   0.12540
gfz2014ande  -2.45810
gfz2014frdz   2.72660
gfz2014ftka   0.09980
gfz2014fusj   0.14000
gfz2014fvrg   0.69250
gfz2014gkgf  -0.36740
gfz2014glcu   0.57780
gfz2014gltx   0.42920
gfz2014jjhc   0.38540
gfz2014jpep  -0.38380
