# Nsamples: 126  MAD:  0.931  mean:  0.558  variance:  1.673
gfz2010bjeb  -1.20540
gfz2010bxxs  -0.04610
gfz2010cqwl   0.31080
gfz2010czps   2.05410
gfz2010ddzo   0.21190
gfz2010eaoy   1.63030
gfz2010ebhc   0.84860
gfz2010ebnn   0.51400
gfz2010ecnm  -2.12380
gfz2010ecua   1.00590
gfz2010edsn  -1.11380
gfz2010edyi   0.92330
gfz2010eefo   1.26080
gfz2010eisx  -0.20500
gfz2010eixj   0.19970
gfz2010ekyc  -0.53380
gfz2010excp   0.73000
gfz2010exdd   2.34250
gfz2010exdl   0.93200
gfz2010exno   0.15550
gfz2010ezck   0.68510
gfz2010ezxd  -0.58470
gfz2010fedq  -0.36640
gfz2010ffhq   1.48560
gfz2010ffjb   1.63020
gfz2010flha   1.79040
gfz2010fona  -5.66910
gfz2010gcrl  -3.56800
gfz2010iobp   1.33860
gfz2010iull   1.15760
gfz2010lfju   0.35930
gfz2010nqwo  -0.11270
gfz2010pexf  -2.85380
gfz2010pfyu   0.69150
gfz2010upfb  -2.02410
gfz2011aatr   0.96880
gfz2011adjs   2.11170
gfz2011bgrp   0.57510
gfz2011csju   0.69200
gfz2011cykd   0.48010
gfz2011dbev   0.85140
gfz2011dbig   1.36750
gfz2011dcqb   1.35590
gfz2011dpqx   0.57390
gfz2011enva   0.53770
gfz2011flgj   1.44330
gfz2011gkzt  -0.16210
gfz2011hlsa   1.28190
gfz2011lcxq   1.43490
gfz2011lzwj   0.77350
gfz2011rewa   1.02450
gfz2011toub   1.69540
gfz2011vrhg  -0.50650
gfz2011wxfs   1.15650
gfz2012bpkx  -0.05870
gfz2012enno   1.01180
gfz2012fzfa   2.01170
gfz2012hnul   1.67350
gfz2012jlox   1.20850
gfz2012jupx   1.05490
gfz2012kkup   1.38120
gfz2012klhx   1.96590
gfz2012ldxg  -0.27430
gfz2012vrgb   0.57580
gfz2012wklq  -0.33170
gfz2012yoie   1.17210
gfz2013lixa  -0.70170
gfz2013mvgr  -3.23440
gfz2013nkgj   1.13810
gfz2013nwdi   2.46690
gfz2013pfbx   0.04140
gfz2013svci   0.39020
gfz2013vjjc   1.09610
gfz2014ande   1.02470
gfz2014bwue   1.74810
gfz2014bzxy   0.00000
gfz2014fgvi   2.02670
gfz2014fhla   0.66500
gfz2014fkmr   0.97600
gfz2014ftka  -0.04960
gfz2014gkgf   1.07570
gfz2014gkgl   0.66840
gfz2014gkqf   1.27490
gfz2014gmge   1.73100
gfz2014gmhr   1.59810
gfz2014gmnb   2.10690
gfz2014goba   1.95500
gfz2014gwab  -1.40000
gfz2014gxvf   2.47420
gfz2014hasj   0.24330
gfz2014hgqo   1.03830
gfz2014hhfs   0.94590
gfz2014hocg   0.95330
gfz2014ieho  -2.32520
gfz2014jjhc   0.70190
gfz2014mxkr   0.28570
gfz2014qlvc   2.23240
gfz2014ssvz  -0.75130
gfz2014tqdo   0.93740
gfz2014watn  -0.87920
gfz2015chhn   0.30200
gfz2015cyjd  -1.34710
gfz2015fkgt   2.34040
gfz2015fsjj   0.90600
gfz2015gckd   0.92980
gfz2015hepg   0.06730
gfz2015jmlu   0.95890
gfz2015kfsu   0.49790
gfz2015lytv   0.47410
gfz2015sfdd   1.27710
gfz2015sfdy   1.57920
gfz2015sfno   2.77250
gfz2015sgdj   0.28580
gfz2015sghq   0.26990
gfz2015sgpu  -1.10560
gfz2015sjgk   2.44560
gfz2015sjoj   1.06290
gfz2015smym   0.15610
gfz2015snwh   1.15100
gfz2015soxc   1.97080
gfz2015sqyh   0.14050
gfz2015svwm   1.67650
gfz2015sxmh   0.47980
gfz2015szfq  -1.24080
gfz2015taml   0.04620
gfz2015tbje  -1.19580
