# Nsamples: 907  MAD:  0.668  mean:  1.026  variance:  1.071
gfz2010aerk   1.36370
gfz2010ahla   0.08320
gfz2010ahqi   0.84460
gfz2010bfzs   0.18920
gfz2010bgth   0.99030
gfz2010bifb  -0.94710
gfz2010bjeb   1.54710
gfz2010bowy   0.37770
gfz2010bxxs   0.33270
gfz2010caft   0.56220
gfz2010cbkg   0.85700
gfz2010cqwl   0.93450
gfz2010czps  -0.04960
gfz2010diqn   1.83110
gfz2010dlgc   1.04740
gfz2010eaoy   0.14770
gfz2010eapk   0.51250
gfz2010eapn  -0.74150
gfz2010eaqe   0.56820
gfz2010eaqx   1.71260
gfz2010eaqy   0.26870
gfz2010earu   0.08240
gfz2010easf   2.07720
gfz2010eask  -0.36020
gfz2010easo   0.55190
gfz2010easu   0.59910
gfz2010eati   0.74430
gfz2010eato   1.49380
gfz2010eatt  -0.97980
gfz2010eaty  -0.02870
gfz2010eaul   0.88510
gfz2010eavd   0.29410
gfz2010eavp  -0.71000
gfz2010eavs   0.19880
gfz2010eawb   1.18990
gfz2010eawu  -8.53030
gfz2010eaxa   1.25250
gfz2010eayd   1.28510
gfz2010eayp  -0.97880
gfz2010eaze  -0.05140
gfz2010eazu  -2.69480
gfz2010ebbd   0.81860
gfz2010ebbx  -0.14260
gfz2010ebby   2.14980
gfz2010ebdl   1.20090
gfz2010ebeh   1.04500
gfz2010ebfa   2.81960
gfz2010ebgj   1.60540
gfz2010ebhc   0.63260
gfz2010ebih   1.52600
gfz2010ebin   0.02020
gfz2010ebjy   1.27260
gfz2010ebkj   1.33010
gfz2010ebla   0.84730
gfz2010ebll   0.53040
gfz2010ebmb   1.62070
gfz2010ebnn   0.30310
gfz2010ebsv  -2.46160
gfz2010ebvm   1.38200
gfz2010ebvv   0.45050
gfz2010ebwp   1.39530
gfz2010ebxl   0.75450
gfz2010ebzk   1.39420
gfz2010ebzr   1.63000
gfz2010ecam   1.20770
gfz2010ecay   1.74920
gfz2010ecbi   0.51340
gfz2010eced   2.25520
gfz2010ecfx   1.25910
gfz2010echc   1.33240
gfz2010echt   1.65120
gfz2010echy   1.84710
gfz2010ecua   1.18310
gfz2010ecvt   1.11740
gfz2010edat   1.72380
gfz2010eday   2.32030
gfz2010edcp   1.28540
gfz2010edim   0.98680
gfz2010edkp   0.96910
gfz2010edvf   2.17230
gfz2010edyi  -0.06650
gfz2010edzb   1.84200
gfz2010eedu   0.80380
gfz2010eefh   0.95480
gfz2010eeia   1.75300
gfz2010eeij   0.97910
gfz2010eerh   0.54800
gfz2010eern   1.86690
gfz2010eevu   0.88960
gfz2010eexz   1.71880
gfz2010efkc   1.15800
gfz2010efsq   0.90610
gfz2010eghq   0.57270
gfz2010egld   1.00640
gfz2010egln   0.77500
gfz2010egmp   0.98660
gfz2010egqh   0.92540
gfz2010egsy   1.16160
gfz2010egyy   1.22920
gfz2010ehaj   2.62010
gfz2010ehft   0.39770
gfz2010ehsy   2.53570
gfz2010ehvj  -0.77840
gfz2010ehwg   2.72050
gfz2010ehxz   2.82730
gfz2010eioi   1.34940
gfz2010eisx  -0.73110
gfz2010eixj   1.23780
gfz2010ejjg   0.73230
gfz2010ekaw   1.34460
gfz2010ekoe   0.28080
gfz2010ekyc  -0.06930
gfz2010elhv   0.73880
gfz2010elin   0.86390
gfz2010eljf   2.40800
gfz2010eltf   1.03620
gfz2010elyc   0.57340
gfz2010elyo  -0.91850
gfz2010emyz   0.43730
gfz2010eoao   1.73930
gfz2010epxj   1.71120
gfz2010eqjg   1.17750
gfz2010eqmu   3.97600
gfz2010erdi   1.23460
gfz2010erkn   1.04530
gfz2010erna   1.20970
gfz2010erom   1.08330
gfz2010eruy   3.67660
gfz2010erwn   1.17820
gfz2010eryg   1.42320
gfz2010esid   2.15930
gfz2010eujm   1.09870
gfz2010euxe   2.15370
gfz2010evco  -0.03270
gfz2010ewvc  -0.55010
gfz2010excp   0.46230
gfz2010exdd   0.35020
gfz2010exdl   0.93330
gfz2010exed   0.89590
gfz2010exel  -0.42470
gfz2010exfb   0.86420
gfz2010exgb   0.92300
gfz2010exhd   1.50220
gfz2010exhw  -0.08120
gfz2010exmc   0.94690
gfz2010exno   1.06020
gfz2010exqu   0.96620
gfz2010exsg   0.68450
gfz2010exts   1.89170
gfz2010exyp   1.67570
gfz2010eyhh   1.52210
gfz2010eymr   0.85030
gfz2010eymx  -4.09810
gfz2010eyvq   1.19540
gfz2010eyxe   1.32440
gfz2010ezax   1.75260
gfz2010ezck   0.98360
gfz2010ezuj   1.06850
gfz2010ezvg   0.86670
gfz2010faeu   0.61020
gfz2010falm   1.07060
gfz2010fauz   0.99740
gfz2010fcax   0.57520
gfz2010fcnn   0.93190
gfz2010fcyj   1.14380
gfz2010fczt   0.94740
gfz2010fdab  -0.85630
gfz2010fedq   0.13550
gfz2010fefr   0.53580
gfz2010ffhq   0.00000
gfz2010ffjb   1.12380
gfz2010ffui   0.86510
gfz2010fihj   0.50390
gfz2010fixr   1.33220
gfz2010fjal   1.81120
gfz2010fjas   1.89780
gfz2010fjmu   0.55560
gfz2010fkvg   6.89330
gfz2010flha  -2.07550
gfz2010flrt   1.05150
gfz2010flxi   1.12720
gfz2010fmwb   3.22200
gfz2010fneu   1.14870
gfz2010fnrk   1.55540
gfz2010fpmv   1.11570
gfz2010fpqy   1.02190
gfz2010fqdu   0.36520
gfz2010fqtj   0.45110
gfz2010fser   1.78570
gfz2010ftlm   0.77640
gfz2010fupn   1.58330
gfz2010fuuy   0.12860
gfz2010fwkk  -0.03240
gfz2010fwpv   2.21320
gfz2010fync   0.49250
gfz2010fzoi   0.44390
gfz2010gcdn   1.46950
gfz2010gcrl   0.00000
gfz2010gcrp   0.04950
gfz2010gdld   1.08780
gfz2010gjia   1.20420
gfz2010glqr   1.05290
gfz2010glxl   0.81770
gfz2010gyqp   0.76990
gfz2010hbka   1.56980
gfz2010hjoc   0.93750
gfz2010hllj  -1.06190
gfz2010hlln   2.36200
gfz2010hlmq   0.58340
gfz2010hmhm   0.07020
gfz2010hndk   1.07920
gfz2010hnnf   0.99320
gfz2010hnzr   0.79930
gfz2010homc   0.71680
gfz2010hxbs   2.27680
gfz2010hxgv   1.29580
gfz2010hxhe   2.02210
gfz2010ibiy   1.48290
gfz2010iciq   1.75140
gfz2010icqq   1.59780
gfz2010iimu   0.94370
gfz2010imsh   2.24470
gfz2010iobp   0.69610
gfz2010iphd  -0.14430
gfz2010ipsg   0.93430
gfz2010iqep  -0.61730
gfz2010iqfm   1.17830
gfz2010iqnm   2.06220
gfz2010iull   0.69610
gfz2010jagd   2.02940
gfz2010jssh   1.13400
gfz2010jxbm   0.79800
gfz2010kcoo  -0.33850
gfz2010kdyc   1.91550
gfz2010kihf   2.97310
gfz2010lcoq   1.58580
gfz2010lepw   2.23190
gfz2010lfju  -1.41940
gfz2010lopz   0.87470
gfz2010mhjt   1.10850
gfz2010miil   1.33990
gfz2010miqn  -0.14540
gfz2010mkuu   1.34070
gfz2010mlkz   1.32020
gfz2010mlta   2.54430
gfz2010mncc   0.96160
gfz2010moyw   0.10350
gfz2010mpuy   2.65030
gfz2010msjj   0.86140
gfz2010mtab   1.65930
gfz2010mwdq   2.35190
gfz2010ncrl   0.58430
gfz2010nfsj   0.91840
gfz2010nmpc  -0.41540
gfz2010nqwf   1.26230
gfz2010nqwo  -0.37360
gfz2010nsck   1.94840
gfz2010nsdf  -2.50700
gfz2010nubk   0.94560
gfz2010nwef   1.53820
gfz2010nxsy   0.30480
gfz2010nxum   1.93580
gfz2010ocxq   1.32590
gfz2010oedn   1.18220
gfz2010onma   0.17010
gfz2010osjs   0.93980
gfz2010pbdz   1.99700
gfz2010pcxi   0.47100
gfz2010pdtk   3.85780
gfz2010pewa   0.12170
gfz2010pewx   0.39570
gfz2010pfyu   0.67460
gfz2010phvg  -0.85490
gfz2010pmqd   1.07270
gfz2010pqck   0.89980
gfz2010pxgh   1.51080
gfz2010qpvi   1.25900
gfz2010qwwx   1.69710
gfz2010rhas   4.93210
gfz2010rkfp   1.17370
gfz2010rqwj   0.24890
gfz2010rzsd   2.18600
gfz2010sfee   1.01050
gfz2010skve   1.05470
gfz2010srdb   1.16130
gfz2010suww  -0.02210
gfz2010svtn   1.04070
gfz2010swcy   0.66360
gfz2010sxfq   0.35230
gfz2010sxwt   0.94980
gfz2010szde   1.01310
gfz2010tcbr   1.10930
gfz2010tcrl   1.37800
gfz2010upfb   0.77180
gfz2010usho   1.07520
gfz2010ustq   1.00100
gfz2010utcg   1.26360
gfz2010utmc   1.74360
gfz2010uyhb   0.97330
gfz2010vbmd   1.42020
gfz2010vhuj   1.74210
gfz2010vtdg   1.37830
gfz2010wioh   1.30400
gfz2010wnty   1.86690
gfz2010wrxx   5.57000
gfz2010xbdv   1.19080
gfz2010xden   1.13860
gfz2010xjsj   1.36710
gfz2010xmpr   1.29440
gfz2010yjev   0.13490
gfz2010ymur   1.24880
gfz2011aatr   0.64710
gfz2011adjs  -0.12820
gfz2011ahfw   0.44910
gfz2011alip   1.00330
gfz2011alsa   1.98170
gfz2011aqxf   1.02600
gfz2011asru   1.19340
gfz2011aupi   0.54930
gfz2011bgrp   0.61460
gfz2011bhha  -0.30770
gfz2011blsi   0.66130
gfz2011ccpw   0.86000
gfz2011cndo   1.49830
gfz2011csju   0.55700
gfz2011cykd  -0.59310
gfz2011cynl   0.31800
gfz2011cyre  -0.08410
gfz2011cyuk  -1.26560
gfz2011czwj   1.28980
gfz2011dbev   0.40280
gfz2011dbig   0.43980
gfz2011dbon   0.98010
gfz2011dcqb   0.87590
gfz2011dcqf   0.16640
gfz2011dddh   1.43710
gfz2011deaf   0.71170
gfz2011dpqx   0.82190
gfz2011ecaj   1.67270
gfz2011edmm   1.27930
gfz2011eebc   0.94090
gfz2011ehzq   1.08210
gfz2011eltw   1.30170
gfz2011enva   0.56150
gfz2011etje   0.75590
gfz2011fgvr   1.03880
gfz2011fhag   2.14280
gfz2011gbmx   1.41230
gfz2011gcwb   0.87520
gfz2011ghky   1.54450
gfz2011gkzt   0.32700
gfz2011haid   7.60850
gfz2011hbex   0.97780
gfz2011hebt   1.68720
gfz2011hfkj  -0.67670
gfz2011hlqw   0.58400
gfz2011hlsa   0.52920
gfz2011hlth   1.97500
gfz2011hpqp   1.00760
gfz2011hvbu   1.29630
gfz2011ieie   1.88790
gfz2011iwte   2.17220
gfz2011izqa   0.60510
gfz2011jghb   0.02030
gfz2011jmbn   0.54630
gfz2011jplh   0.09970
gfz2011jxpl   2.90750
gfz2011kwid   1.33890
gfz2011kwjx   1.06880
gfz2011kwsz   1.38860
gfz2011kxzp   1.22620
gfz2011lcxq   0.99250
gfz2011lzwj   0.88900
gfz2011mdie   0.91830
gfz2011mepc   1.06260
gfz2011mpme   1.15020
gfz2011mprq   2.09580
gfz2011myia   1.66890
gfz2011nauw   1.00280
gfz2011nmnq   0.40090
gfz2011nrwc   1.86230
gfz2011ntkh   0.86050
gfz2011nudm   0.56550
gfz2011ogqk   1.72730
gfz2011ohcy   1.94190
gfz2011oiqe   1.54240
gfz2011oiwk   0.92740
gfz2011olkk   1.20660
gfz2011orgn   1.16690
gfz2011ornx   1.64430
gfz2011phms   1.67810
gfz2011pntf   1.34300
gfz2011qvae   1.41800
gfz2011rabm   1.00680
gfz2011rewa   0.00120
gfz2011rgwp   1.97950
gfz2011rsrh   0.98950
gfz2011sagt   1.23340
gfz2011shqm   1.97600
gfz2011tbas   1.29710
gfz2011tcij   1.34840
gfz2011tjue   1.46960
gfz2011tkfp   0.04930
gfz2011tkog   0.82990
gfz2011toub   1.07960
gfz2011ugzz   2.70540
gfz2011ujze   1.25080
gfz2011uphh   0.74810
gfz2011urxy   1.66030
gfz2011urzu   1.64760
gfz2011uzqv   1.62460
gfz2011vhfi   1.51440
gfz2011vnza   1.74910
gfz2011vrhg  -1.14150
gfz2011vxns   0.82390
gfz2011wcic   0.18390
gfz2011wjul   1.08530
gfz2011wwjs   0.96000
gfz2011wxfs   1.45280
gfz2011wxoj   0.52680
gfz2011wxtk   0.81900
gfz2011wype  -0.15940
gfz2011xcpv   0.83190
gfz2011xyxj   2.25190
gfz2011yfdx  -0.81020
gfz2011zklv   2.38300
gfz2011zqhh   0.49810
gfz2012ajtq   1.83390
gfz2012aqgp   1.14450
gfz2012aqtq   0.09670
gfz2012bfah   1.22650
gfz2012bpkx   0.46330
gfz2012bpnl   1.27170
gfz2012bpwl   1.63250
gfz2012bszs   1.65090
gfz2012byad   1.30190
gfz2012cgvr   1.38290
gfz2012cqnl   0.59550
gfz2012cxdn   0.71130
gfz2012czlw   2.10930
gfz2012dyyh   1.43210
gfz2012ekda   1.27910
gfz2012ekzf   2.10200
gfz2012emjg   2.25410
gfz2012enno   0.75280
gfz2012ewgo   1.70790
gfz2012fbfo   1.76050
gfz2012fwfo   0.94880
gfz2012fzfa   0.40660
gfz2012hnul   2.00650
gfz2012hyaa   0.80820
gfz2012icmv   2.61730
gfz2012jgvj   2.01860
gfz2012jjzc   1.72520
gfz2012jlox   0.53830
gfz2012jshk   1.43540
gfz2012jupx   1.50450
gfz2012keor   0.50140
gfz2012kkup   0.85390
gfz2012klhx   0.82560
gfz2012kuct   1.29730
gfz2012kudo   1.05210
gfz2012kwgo   1.36040
gfz2012lczo   0.71250
gfz2012lrsv   3.91710
gfz2012lxkv   0.23200
gfz2012minr   0.87410
gfz2012mvwr   1.41230
gfz2012mwij   3.04840
gfz2012naqz   2.72310
gfz2012nedn   0.72020
gfz2012nkdf  -0.68000
gfz2012nojx   1.92310
gfz2012nolo   0.86630
gfz2012nutf   1.18410
gfz2012nxog   3.04360
gfz2012oedb   1.39420
gfz2012pgcl   1.21670
gfz2012pkel   0.76550
gfz2012pqmu   1.18110
gfz2012rats   1.48200
gfz2012rcnj   1.10720
gfz2012ronz   2.14130
gfz2012rwov   0.24070
gfz2012rypu  -0.68760
gfz2012sphd   1.64510
gfz2012syvl   1.88880
gfz2012teic   1.31890
gfz2012tmop   0.92310
gfz2012tvmv   0.74700
gfz2012uafg   0.27920
gfz2012uciv   1.13890
gfz2012uhup   0.34450
gfz2012ulpd   1.13720
gfz2012uvqf   0.57450
gfz2012vrgb   1.00540
gfz2012whku   1.21150
gfz2012wklq  -0.64880
gfz2012wmsg   0.58210
gfz2012wpeq   1.49410
gfz2012wtkr   1.23200
gfz2012wvfl  -0.60030
gfz2012wxlg   0.64740
gfz2012wypz   1.36100
gfz2012xbjq   1.77590
gfz2012xkkv  -0.82540
gfz2012zitl   0.08480
gfz2012zjpv   1.76040
gfz2013aahq   1.19930
gfz2013bokp   1.29370
gfz2013bouj  -0.40940
gfz2013ccnr  -0.39550
gfz2013cdan   0.32230
gfz2013ciaf   0.83540
gfz2013cwpn   2.11010
gfz2013cwps   1.74860
gfz2013dkly   2.15580
gfz2013dofo   0.27290
gfz2013drxz  -0.07520
gfz2013dsrk  -0.51280
gfz2013dvyh   2.36570
gfz2013egni   0.23310
gfz2013egpu   0.62070
gfz2013fiud   1.19660
gfz2013fygc  -0.05260
gfz2013gbst   1.55580
gfz2013gcfx  -4.02300
gfz2013gdnq   2.61560
gfz2013ggtf   1.60610
gfz2013gngz   1.18010
gfz2013gock   2.16290
gfz2013hdnc  -0.25910
gfz2013hxcx   2.47910
gfz2013hydf   0.93160
gfz2013iayx   1.18600
gfz2013idbb   0.74600
gfz2013igmx  -1.15370
gfz2013ikgo   1.53430
gfz2013ilug  -0.10490
gfz2013jesk   1.80130
gfz2013jgij   0.34250
gfz2013jgip   1.85030
gfz2013jusj  -2.08530
gfz2013jwvc   1.07930
gfz2013kdeo   1.08100
gfz2013lbiu  -0.23300
gfz2013ldpc   1.14300
gfz2013ldqb   0.56890
gfz2013lgnl   2.20580
gfz2013lixa   0.91330
gfz2013lyko   1.19640
gfz2013mqmv   1.04400
gfz2013mwbh   1.80670
gfz2013ncjp   0.44260
gfz2013ndin   1.12440
gfz2013neuc   2.23910
gfz2013nixj   1.11580
gfz2013nkgj   0.74230
gfz2013nmac   1.33430
gfz2013nwdi   0.19180
gfz2013oejn   1.79610
gfz2013oqsc   0.67890
gfz2013ozrp   1.83580
gfz2013pfbx   1.31720
gfz2013pffm   1.52190
gfz2013pxsj   2.85350
gfz2013qali   1.57230
gfz2013qesa   2.36470
gfz2013qmer   1.39040
gfz2013qzdq   1.31840
gfz2013reym   1.00720
gfz2013roki   2.00600
gfz2013sdus   1.72360
gfz2013skkm   1.05400
gfz2013snbr   0.76860
gfz2013svci   0.67820
gfz2013tcbk   1.32110
gfz2013tcxc   0.86300
gfz2013tcxq   1.24570
gfz2013tdau  -1.65390
gfz2013tlaf   1.17990
gfz2013tpeb   1.46400
gfz2013tvmw   2.06050
gfz2013txij   0.90480
gfz2013txtb   0.79750
gfz2013ufxm   1.24110
gfz2013uqsp   1.29790
gfz2013vexx   1.32040
gfz2013vfyw   3.18320
gfz2013vfzp   1.75550
gfz2013vjjc  -1.08100
gfz2013vvrq   0.23040
gfz2013vzbo   0.51550
gfz2013wjmm   0.54710
gfz2013xizq   1.35900
gfz2013xmul   1.53480
gfz2013xsdt   1.89980
gfz2013xxxq   2.37290
gfz2013yctg   0.73870
gfz2013yhpk   0.93760
gfz2013yqkv   1.69470
gfz2013zjel   1.91310
gfz2014adoj   1.39890
gfz2014afmx  -0.12380
gfz2014ajlk   1.36530
gfz2014algk   0.99380
gfz2014alwz   0.89240
gfz2014ande   2.07480
gfz2014bagd   0.72610
gfz2014bezu   1.18090
gfz2014bfng  -0.04300
gfz2014bmta   0.75670
gfz2014bwue   1.33950
gfz2014bzxy   1.11650
gfz2014chdv   0.60780
gfz2014cvxx   1.67040
gfz2014czol   0.91320
gfz2014czqi   1.13920
gfz2014czua   2.40590
gfz2014dddc   0.51350
gfz2014dffd   0.17280
gfz2014dhxt   1.53460
gfz2014disp  -0.58460
gfz2014duqn   1.39470
gfz2014ehsf   2.04860
gfz2014ekcr   1.45310
gfz2014ekdn   0.91460
gfz2014enhi   0.75090
gfz2014femz   1.89850
gfz2014fgvi   1.63820
gfz2014fgyo   2.12400
gfz2014fhbd   1.56210
gfz2014fhdw   1.25230
gfz2014fhla   0.16560
gfz2014fhlh   1.63590
gfz2014fhrq   0.98000
gfz2014fhsg   1.38540
gfz2014fkmr   1.04240
gfz2014fknp   2.55290
gfz2014frdz   1.86640
gfz2014frez   2.54090
gfz2014ftka   0.51650
gfz2014ftoc   0.65860
gfz2014ftrk   1.47690
gfz2014furx   0.12310
gfz2014fusc   1.98830
gfz2014fval   1.31430
gfz2014fvgh   2.12900
gfz2014fvrg   1.52250
gfz2014gbcz  -0.11260
gfz2014gbdq   2.29510
gfz2014ghpe   1.31320
gfz2014gkgf   0.41900
gfz2014gkgs   0.88820
gfz2014gkhp   1.28260
gfz2014gkhy   2.20080
gfz2014gkjl  -1.83470
gfz2014gkob   2.63270
gfz2014gkqf   1.95210
gfz2014gktq   2.58370
gfz2014glcu   2.19430
gfz2014gltx   2.08710
gfz2014gmge   2.05780
gfz2014gmhr  -0.38890
gfz2014gmip   2.23730
gfz2014gmnb   2.21720
gfz2014gmnw   2.04850
gfz2014gmuk  -2.03540
gfz2014goba   1.11090
gfz2014goqw   1.52570
gfz2014gori   2.72100
gfz2014gphr   0.37860
gfz2014gpya   2.26820
gfz2014gqer   1.20940
gfz2014gqve   1.13950
gfz2014gsqs   1.35650
gfz2014gull   0.89980
gfz2014gulp   1.37270
gfz2014gvrd   1.42710
gfz2014gwab   1.84340
gfz2014gxxo   1.64430
gfz2014hasj   0.92210
gfz2014hbqb   1.48450
gfz2014hcmj   0.91000
gfz2014hfhl   0.76590
gfz2014hgqo   1.34180
gfz2014hhwx  -3.51590
gfz2014hjgh   1.89240
gfz2014hjgr   1.34870
gfz2014hkcf   1.36730
gfz2014hocg   0.81350
gfz2014hphw   1.22480
gfz2014hqxs   1.70550
gfz2014huaj   1.85350
gfz2014hzfw   0.01940
gfz2014imnn   1.46640
gfz2014iobd   2.03530
gfz2014itkw   1.57480
gfz2014itpj   1.43220
gfz2014jhra  -1.07050
gfz2014jjhc   0.75280
gfz2014jkxe   0.62660
gfz2014jnyv   0.88340
gfz2014jpep   1.87110
gfz2014jwmh   2.07030
gfz2014kbuk  -0.00000
gfz2014khlk   0.38570
gfz2014kmmt   0.69290
gfz2014kndc   1.55750
gfz2014knks   1.20290
gfz2014knxs   1.55130
gfz2014kyan   0.83300
gfz2014kytf   1.46130
gfz2014lddn  -0.14040
gfz2014lgqn   0.86610
gfz2014lkyf   1.63680
gfz2014lnqy   1.11820
gfz2014lxnc   1.52440
gfz2014lyhk   1.34150
gfz2014lyhp   1.02940
gfz2014macx   0.98220
gfz2014madw   1.33710
gfz2014mtum   1.40640
gfz2014ncub   0.97360
gfz2014nnxd   3.02090
gfz2014nowp   1.71590
gfz2014npeo   0.68240
gfz2014nphm   1.55070
gfz2014nqfm   1.22280
gfz2014nrie   1.10030
gfz2014nylm   0.88440
gfz2014oinz   1.01000
gfz2014owxc   0.92300
gfz2014oyly   1.18610
gfz2014pkll   1.08120
gfz2014ppzf   0.89220
gfz2014pvch   1.53820
gfz2014qlxd   0.91380
gfz2014qngj   0.88090
gfz2014qqhm   0.52630
gfz2014raau  -2.69230
gfz2014rdsn   0.56770
gfz2014riel   1.34320
gfz2014sptq  -1.20320
gfz2014ssmv   1.05250
gfz2014ssvz  -0.16710
gfz2014szzf   2.09100
gfz2014tovs   1.47410
gfz2014tqdo   0.97160
gfz2014tqsf   1.00640
gfz2014tzsd   0.62900
gfz2014ubwn   1.51940
gfz2014udgg   0.96120
gfz2014uohh   1.79420
gfz2014uvji   2.09580
gfz2014uvrk   0.43310
gfz2014vhld   1.22980
gfz2014vhms  -0.75360
gfz2014vjoz   0.87080
gfz2014watn   0.91330
gfz2014wjko  -0.86550
gfz2014wmsc  -2.78670
gfz2014xbyr   1.45930
gfz2014xhkc   1.03610
gfz2014xjri   2.20760
gfz2014xqqd   1.08150
gfz2014zlgp   0.88310
gfz2015apnk   1.45450
gfz2015arpd   0.63270
gfz2015aruz   0.85560
gfz2015atxv   1.37540
gfz2015bdyd  -2.47260
gfz2015berb   1.15130
gfz2015bfjm   1.65700
gfz2015bkbj   1.57510
gfz2015bsnl   1.45430
gfz2015byfn   1.34400
gfz2015byjd   0.23740
gfz2015chhn  -0.10260
gfz2015chqn   1.45550
gfz2015cxhx   1.95250
gfz2015cxxk   0.94660
gfz2015cyjd   0.80650
gfz2015dizn   0.54630
gfz2015djts   2.01750
gfz2015dskr   1.01240
gfz2015dvbn   0.33900
gfz2015egxq   1.25520
gfz2015eiky   2.02280
gfz2015elgy   0.74430
gfz2015esrj  -0.94100
gfz2015etai   0.79940
gfz2015fbew  -0.06170
gfz2015fcua   1.55760
gfz2015fjhk   1.69910
gfz2015fkgt   1.10700
gfz2015fkic   0.80470
gfz2015fpez   1.13270
gfz2015fsjj   1.28040
gfz2015fxdi   1.26400
gfz2015fyvk   0.90670
gfz2015gckd   1.11940
gfz2015ggjw   0.83320
gfz2015gzja  -1.68990
gfz2015hgbk   1.18660
gfz2015ixyy   1.37340
gfz2015jwgl   0.54130
gfz2015jxbx   0.89050
gfz2015jzcv   1.35180
gfz2015kakw   0.96880
gfz2015kcaa   1.38020
gfz2015kfsu   0.42730
gfz2015kkth   1.11020
gfz2015kphk   1.41710
gfz2015kquq   2.20060
gfz2015lhjy   1.32970
gfz2015ltii   1.34610
gfz2015lytv  -3.59230
gfz2015mddr   1.45360
gfz2015mpte   1.11770
gfz2015nerz   0.87660
gfz2015nqgf   1.12660
gfz2015nuxz   0.31410
gfz2015nwug   1.59840
gfz2015ocdz   1.58370
gfz2015okmq   1.51100
gfz2015oumn   0.23270
gfz2015oyfl   0.97390
gfz2015poni   0.90170
gfz2015prlr   2.41520
gfz2015qnho   0.91990
gfz2015quzo   3.62090
gfz2015rgrg   2.17840
gfz2015rkbq  -0.25670
gfz2015rkrg   0.74320
gfz2015rkzg   1.30700
gfz2015rpzn   0.12700
gfz2015rxmg   1.10680
gfz2015sevh   1.28510
gfz2015sfdd   0.28630
gfz2015sfdl   0.67670
gfz2015sfdy   1.04770
gfz2015sfeo   1.18400
gfz2015sffn   0.90230
gfz2015sfga   0.50930
gfz2015sfho   2.03280
gfz2015sfhz   0.78360
gfz2015sfiq   1.58430
gfz2015sfjf   1.67850
gfz2015sfnb  -0.89400
gfz2015sfno  -0.38430
gfz2015sfnv   1.41050
gfz2015sfoc   1.10700
gfz2015sfoq   2.40570
gfz2015sfqo   1.08400
gfz2015sfqr   1.35900
gfz2015sfrf   0.41610
gfz2015sftu   1.52130
gfz2015sfuz   1.44080
gfz2015sfxn   0.29070
gfz2015sgad  -0.04300
gfz2015sgdj  -1.18470
gfz2015sgdn   1.15370
gfz2015sggc   0.30720
gfz2015sghq   0.04030
gfz2015sglg   0.60280
gfz2015sgmr   1.56620
gfz2015sgna   0.59260
gfz2015sgpu   0.06080
gfz2015sguf   0.77490
gfz2015sgyd   1.35270
gfz2015shaq   0.94270
gfz2015shjn   0.75270
gfz2015shjo   0.38450
gfz2015shrg   0.96320
gfz2015shsz   0.58010
gfz2015sing   1.50110
gfz2015sitn   1.48170
gfz2015sjbx   1.23710
gfz2015sjfi   2.13990
gfz2015sjgk   0.92040
gfz2015sjne   1.07940
gfz2015sjoj   0.86910
gfz2015sjvu   1.07790
gfz2015sjwi   1.30280
gfz2015skgj   1.16190
gfz2015skuk   1.02210
gfz2015skxu   1.56300
gfz2015sldx   0.86690
gfz2015sljs   1.89320
gfz2015slun   0.47100
gfz2015smym   0.84340
gfz2015snmr   0.56240
gfz2015snsf   0.93460
gfz2015snwh   0.47700
gfz2015snyd   1.40920
gfz2015soat   1.53590
gfz2015soxc   0.34690
gfz2015sqmy   1.18140
gfz2015srat   1.49250
gfz2015sspn   0.78250
gfz2015stfy   1.71450
gfz2015subz   1.22920
gfz2015svwm   0.11070
gfz2015szcb   1.49290
gfz2015sztx   1.24470
gfz2015taml   1.44950
