# Nsamples: 1087  MAD:  0.700  mean: -1.354  variance:  0.773
gfz2010uyhb  -2.70810
gfz2010vbmd  -0.39260
gfz2010veri  -0.52870
gfz2010vhuj  -1.42540
gfz2010vppc  -2.09980
gfz2010vtdg  -1.31000
gfz2010wioh  -2.76430
gfz2010wntz   0.84190
gfz2010wofs  -1.78790
gfz2010wrxx  -2.36430
gfz2010xbdv  -2.06680
gfz2010xbgs  -1.15840
gfz2010xden  -1.53170
gfz2010xgfc  -0.74200
gfz2010xgzw  -1.18750
gfz2010xjck  -1.00280
gfz2010xjsj  -1.11900
gfz2010xmpr  -0.48700
gfz2010xnxk  -1.81090
gfz2010xxzn  -0.90290
gfz2010yjev  -2.86750
gfz2010ymfy  -3.45930
gfz2010ymur  -2.36820
gfz2010yosr  -3.58780
gfz2011jtlg  -2.63230
gfz2011juid  -0.90960
gfz2011jxpl  -2.09320
gfz2011udsq  -2.24280
gfz2011ugzz  -1.24040
gfz2011ujze  -1.68770
gfz2011ukmp  -1.59250
gfz2011uphh  -1.80370
gfz2011urxy  -1.66360
gfz2011urzu  -1.15150
gfz2011uzqv  -0.28740
gfz2011vclt  -2.27530
gfz2011vhfi  -1.30390
gfz2011vnza  -1.59850
gfz2011vqnr  -2.51760
gfz2011vqrj  -0.63430
gfz2011vxns  -1.42780
gfz2011wcic  -1.92740
gfz2011wfja  -2.64720
gfz2011wjkf  -1.93530
gfz2011wjul  -2.37390
gfz2011wtmq  -2.71870
gfz2011wwjs  -1.58750
gfz2011wxfs  -1.55500
gfz2011wxoj  -2.46170
gfz2011wxtk  -1.81430
gfz2011wype  -1.62990
gfz2011xaan  -2.01380
gfz2011xcpv  -1.24450
gfz2011xesx  -1.21780
gfz2011xqru   0.66740
gfz2011xyxj  -0.38450
gfz2011yfdx  -2.02640
gfz2011yhwz  -0.84260
gfz2011ytnu  -1.59480
gfz2011yybo  -3.65770
gfz2011zjap  -1.73950
gfz2011zklv  -0.09050
gfz2011zlfg  -0.18530
gfz2011zqhh  -2.08660
gfz2012ajtq  -0.88640
gfz2012aqgp  -1.41400
gfz2012aqtq  -1.01250
gfz2012bfah  -0.99020
gfz2012bfyn  -0.21700
gfz2012bngd  -0.60240
gfz2012bpkx  -1.76960
gfz2012bpnl  -1.18540
gfz2012bpwl  -0.75630
gfz2012bqeb  -1.20170
gfz2012brhv  -0.10100
gfz2012bszs  -2.08960
gfz2012byad  -2.65800
gfz2012cevz   0.21860
gfz2012cgvr  -1.60620
gfz2012ckxi  -0.22580
gfz2012cmfy  -1.01240
gfz2012cnod  -1.28570
gfz2012covm  -0.70960
gfz2012cqnl  -1.53720
gfz2012cxdn  -1.71620
gfz2012deri  -1.77070
gfz2012dfhq  -0.41880
gfz2012dimn   0.21270
gfz2012dinb  -1.66340
gfz2012djwi  -0.60050
gfz2012dyyh  -1.62040
gfz2012ekda  -1.27840
gfz2012ekzf  -1.53530
gfz2012elce  -1.49950
gfz2012emjg  -1.46280
gfz2012enno  -1.31080
gfz2012eskt  -1.44110
gfz2012ewgo  -1.54110
gfz2012fbfo  -1.33960
gfz2012fhnh  -0.99320
gfz2012fivh   0.32060
gfz2012gkvr  -1.02420
gfz2012glss  -0.03920
gfz2012gnvh  -0.35290
gfz2012gocc  -1.78730
gfz2012gomm  -1.61760
gfz2012gukw  -1.79300
gfz2012gwqb  -1.28760
gfz2012hdbm  -2.17400
gfz2012hnul  -0.33910
gfz2012hnuw  -0.90370
gfz2012hogg  -1.41930
gfz2012hwmz  -1.17030
gfz2012hyaa  -1.34890
gfz2012icmv  -2.67650
gfz2012ihdl  -1.02310
gfz2012iivw  -1.67210
gfz2012ilvn  -1.13340
gfz2012imay  -1.05700
gfz2012intn  -0.76600
gfz2012jgvj  -1.30200
gfz2012jlox  -2.33510
gfz2012jqvn  -1.64180
gfz2012jshk  -3.20080
gfz2012jupx  -2.36350
gfz2012kbjb  -0.26710
gfz2012kbzj  -2.14570
gfz2012kdmb  -0.64710
gfz2012keor  -2.47460
gfz2012kkup  -1.65530
gfz2012klba  -0.42930
gfz2012klhx  -1.76230
gfz2012kuct  -1.45940
gfz2012kudo  -2.57630
gfz2012kvzv  -1.80640
gfz2012kwgo  -1.78550
gfz2012lczo  -2.49910
gfz2012ldgs  -0.48900
gfz2012ldxg  -2.48950
gfz2012ldzj  -2.21680
gfz2012ledy  -0.59760
gfz2012lxkv  -1.47580
gfz2012lzmr  -0.86400
gfz2012minr  -2.23230
gfz2012mkpn  -0.97360
gfz2012mpvy  -1.80450
gfz2012mpyl  -1.80040
gfz2012mupa  -0.67090
gfz2012mvwr  -0.89470
gfz2012mwij   1.52890
gfz2012myqa  -0.08430
gfz2012naqz  -1.09950
gfz2012nedn  -1.09960
gfz2012ngic   0.10720
gfz2012njha  -0.41980
gfz2012nkdf  -1.67510
gfz2012nojx  -1.19230
gfz2012nqnk  -1.57040
gfz2012nsbz  -0.77520
gfz2012ntzv  -1.67530
gfz2012nutf  -0.34870
gfz2012nxyt  -0.31710
gfz2012oazn  -0.28730
gfz2012obgw  -1.25610
gfz2012oedb  -0.73270
gfz2012omvo  -0.06320
gfz2012oqmw   0.90920
gfz2012ostk  -0.73020
gfz2012pciw  -0.16450
gfz2012peex  -0.98490
gfz2012pgcl   0.14550
gfz2012pkel  -0.88570
gfz2012plea  -0.50100
gfz2012pqlt  -2.16700
gfz2012pqmu  -0.89810
gfz2012priv  -1.30720
gfz2012qurq  -0.33440
gfz2012qxcy  -0.79860
gfz2012rats  -0.73570
gfz2012rcnj  -0.19460
gfz2012repv  -0.72220
gfz2012rjsd  -0.86320
gfz2012royy  -1.38570
gfz2012rqlg  -1.01740
gfz2012tpzx  -0.54120
gfz2012ttoa  -1.79930
gfz2012tvmv  -0.85770
gfz2012tzgb   0.18530
gfz2012uafg  -1.64580
gfz2012uaqj  -1.80340
gfz2012uciv  -0.92650
gfz2012ueqo  -1.03500
gfz2012ufew   0.34480
gfz2012uhup  -2.01700
gfz2012ulpd  -1.23370
gfz2012usba  -1.19740
gfz2012uvqf  -1.30140
gfz2012uyxb  -1.03670
gfz2012vdbt  -0.11580
gfz2012vpza  -0.26180
gfz2012vrgb  -1.58460
gfz2012vrua  -0.44570
gfz2012wdyx  -2.33390
gfz2012whku  -1.30830
gfz2012wklq  -2.41330
gfz2012wmkd  -2.03760
gfz2012wmsg  -2.81380
gfz2012wrir  -1.45060
gfz2012wtkr  -1.28070
gfz2012wvfl  -1.00500
gfz2012wxer  -0.72870
gfz2012wxlg  -1.90650
gfz2012wxnu  -1.83790
gfz2012wybs  -2.59210
gfz2012wypz  -1.54130
gfz2012xbjq  -2.21340
gfz2012xeul  -6.21090
gfz2012xgqm  -0.43970
gfz2012xjyv  -1.81430
gfz2012xkkv  -1.06340
gfz2012xslk  -1.07180
gfz2012xwqa  -1.56590
gfz2012xyqp  -2.37200
gfz2012yfrp  -1.16790
gfz2012yoie  -1.51950
gfz2012yqjj  -3.09520
gfz2012yxxu  -1.88400
gfz2012yzod  -0.74570
gfz2012zemh  -1.71270
gfz2012zemz  -1.58070
gfz2012zfag  -0.87950
gfz2012ziml  -3.03350
gfz2012zitl  -1.86950
gfz2012zjpv  -1.32740
gfz2012zklq  -0.78350
gfz2012zmbp  -1.79250
gfz2012zmln  -0.33970
gfz2013aahq   0.44870
gfz2013aayj  -1.79500
gfz2013acag  -0.86280
gfz2013adey  -1.78110
gfz2013aknp   0.40150
gfz2013apmm  -2.35120
gfz2013aqaw  -1.58080
gfz2013bdpu  -1.71160
gfz2013bnxc  -4.32970
gfz2013bokp  -0.85940
gfz2013bouj   1.22740
gfz2013btjm  -2.54670
gfz2013cbsm  -1.47780
gfz2013ccnr  -2.05630
gfz2013cdan  -0.95360
gfz2013ciaf   0.48710
gfz2013cvqg  -1.75250
gfz2013cwpn  -0.70790
gfz2013cwps  -0.19240
gfz2013ddbh  -3.12200
gfz2013dkly  -1.51450
gfz2013dkmz  -1.05870
gfz2013dofo  -2.12380
gfz2013dojq  -0.90090
gfz2013drpk  -1.44130
gfz2013drxz  -2.46500
gfz2013dsog  -0.21150
gfz2013dspt  -1.86720
gfz2013dsrk  -0.21360
gfz2013dvyh  -2.30080
gfz2013egpu  -2.85430
gfz2013ekpm  -1.63680
gfz2013enbx  -4.22300
gfz2013ewbo  -1.53280
gfz2013fdoo  -0.59080
gfz2013feep  -2.90350
gfz2013figy  -0.34480
gfz2013fiud  -1.84050
gfz2013fkcl  -1.62180
gfz2013fkii   0.38990
gfz2013flox  -2.40760
gfz2013fwxa  -2.65830
gfz2013fygc  -2.24960
gfz2013gbst  -1.02360
gfz2013gcfx  -3.52780
gfz2013gdgf  -1.49100
gfz2013gdnq  -2.03490
gfz2013gelv  -0.66020
gfz2013gihf  -2.37000
gfz2013gmor  -1.69690
gfz2013gngz  -2.05700
gfz2013gnse  -0.73960
gfz2013gock  -2.13320
gfz2013goux  -0.53010
gfz2013gras  -1.78790
gfz2013gvex   0.10800
gfz2013gwrd  -0.11520
gfz2013gxsu  -3.60370
gfz2013hdnc  -0.36310
gfz2013hfmp  -1.60610
gfz2013hkja  -0.81530
gfz2013hmbc  -2.14570
gfz2013hsfw  -1.34770
gfz2013hxcx  -2.39850
gfz2013iayx  -2.10470
gfz2013ifpq  -1.07670
gfz2013igmx  -1.91320
gfz2013ijsr  -1.16710
gfz2013ikgo  -1.44050
gfz2013ilug  -2.20110
gfz2013inux  -1.64200
gfz2013ippu  -0.84890
gfz2013iunn  -1.67010
gfz2013jesk  -2.29690
gfz2013jgij  -2.69420
gfz2013jgip  -0.78710
gfz2013jkut  -1.64580
gfz2013json  -0.87260
gfz2013jusj  -1.26950
gfz2013jwvc  -1.50720
gfz2013kccc  -1.90240
gfz2013kdeo  -2.66290
gfz2013kheb  -0.76580
gfz2013khli  -1.49580
gfz2013kilx  -2.35530
gfz2013kqln   0.16470
gfz2013krei  -1.51070
gfz2013kvtk  -0.72610
gfz2013kwps  -0.85350
gfz2013lajn  -0.44120
gfz2013lbiu  -0.54340
gfz2013ldos  -0.87410
gfz2013ldpc  -2.07840
gfz2013ldqb  -2.42310
gfz2013lgnl  -1.13410
gfz2013lixa  -2.71540
gfz2013lmqe  -1.49280
gfz2013lmrs  -2.52630
gfz2013lsob  -1.76640
gfz2013lwbk  -2.17660
gfz2013lyko  -1.35980
gfz2013malg  -0.97420
gfz2013mded   0.84610
gfz2013mmwq  -2.34660
gfz2013mnei  -2.22680
gfz2013mqik  -1.59720
gfz2013mqmv  -3.16850
gfz2013mvgr  -1.49100
gfz2013mwbh  -2.03470
gfz2013mxee  -0.83770
gfz2013nabl  -2.22380
gfz2013ncjp  -2.44950
gfz2013ndin  -1.78860
gfz2013neuc   0.21840
gfz2013ngnt  -1.09770
gfz2013nixj  -2.00450
gfz2013nkgj  -2.10670
gfz2013nknw  -1.88090
gfz2013nmac  -1.23290
gfz2013nnzf  -1.54830
gfz2013nqgw  -2.76310
gfz2013nuor  -1.13100
gfz2013nuvi  -1.07800
gfz2013nvdj  -3.19820
gfz2013nwdi  -2.17250
gfz2013oejn  -1.70650
gfz2013ogde  -1.51080
gfz2013ojti  -0.06220
gfz2013oqsc  -1.28820
gfz2013orzn  -1.59360
gfz2013ozku  -0.76080
gfz2013ozqm   0.05250
gfz2013ozrf  -2.31180
gfz2013ozrp  -2.60610
gfz2013pcos  -2.55330
gfz2013pfbx  -1.61530
gfz2013pfeb  -1.09040
gfz2013phef  -1.68050
gfz2013pkbs  -1.17990
gfz2013puag  -1.64100
gfz2013pxsj   0.36280
gfz2013qali  -0.78710
gfz2013qfmm  -1.23710
gfz2013qmer  -1.31340
gfz2013qnxc  -3.03740
gfz2013qzdq  -1.22330
gfz2013rait  -1.26010
gfz2013rdoo  -1.10460
gfz2013reym  -1.44930
gfz2013roki  -0.80980
gfz2013rsnr  -0.88820
gfz2013ryxm  -0.18120
gfz2013sart  -1.18230
gfz2013sdus  -2.22610
gfz2013sfto  -2.58010
gfz2013shzy  -0.66240
gfz2013skkm  -1.78600
gfz2013snbr   1.29980
gfz2013snyf  -2.12390
gfz2013sred  -0.77820
gfz2013suvn  -1.54080
gfz2013svci  -1.96220
gfz2013tcbk  -1.78950
gfz2013tcxc  -1.60600
gfz2013tcxq  -1.55270
gfz2013tdau  -1.87080
gfz2013tjlx  -0.32010
gfz2013tlaf  -1.43290
gfz2013toxf  -2.01920
gfz2013tusd  -2.13800
gfz2013tvmw  -2.28300
gfz2013twwf   1.19270
gfz2013txev  -1.47970
gfz2013txij  -2.01420
gfz2013txtb  -0.97640
gfz2013tyas  -1.53430
gfz2013uauo  -0.11700
gfz2013ufxk  -4.06270
gfz2013ufxm  -1.40780
gfz2013uqsp  -1.06730
gfz2013uqvu  -1.42930
gfz2013utsh  -1.05930
gfz2013uuzn  -1.86290
gfz2013vexx  -1.34250
gfz2013vfyw   0.02080
gfz2013vfzp  -1.44470
gfz2013vgrk  -2.86320
gfz2013vhzu  -0.48350
gfz2013viul  -1.11370
gfz2013vjjc  -2.26980
gfz2013vnfj  -1.60800
gfz2013vqot  -1.30460
gfz2013vrmy  -0.89890
gfz2013vsbl  -0.93500
gfz2013vuja  -1.64690
gfz2013vvrq  -1.25490
gfz2013vzbo  -1.77790
gfz2013wjmm  -1.45210
gfz2013wmfd  -1.25480
gfz2013wpga  -0.54270
gfz2013wtzl  -3.00230
gfz2013wuon  -2.43390
gfz2013xatc  -4.22260
gfz2013xizq  -0.18180
gfz2013xklb  -0.85650
gfz2013xkwt  -1.32000
gfz2013xmul  -0.99910
gfz2013xpfa  -1.11080
gfz2013xqnn  -2.58930
gfz2013xsdt  -0.63820
gfz2013xvxf  -0.95360
gfz2013xwda  -2.49050
gfz2013xxwv  -1.01810
gfz2013xxxq  -0.98900
gfz2013xyzb  -0.82090
gfz2013yctg  -1.70850
gfz2013yghj  -1.64780
gfz2013yhbu  -1.45970
gfz2013yhpk  -1.82590
gfz2013yixl  -0.78200
gfz2013ylbx  -1.55250
gfz2013ymky  -0.81170
gfz2013ypdc  -1.35560
gfz2013yqkv  -1.16060
gfz2013yyhc  -1.27580
gfz2013ziyr   1.74180
gfz2013zmoc  -1.15260
gfz2013zmtb  -1.51390
gfz2014aawc  -1.16700
gfz2014abgd  -0.87650
gfz2014adoj  -0.95470
gfz2014afmx  -1.43270
gfz2014afyp  -0.21700
gfz2014ajlk  -2.04540
gfz2014algk  -2.17230
gfz2014alwz  -1.25720
gfz2014ande  -1.28140
gfz2014aqbk  -0.05470
gfz2014ared  -2.71710
gfz2014arpf  -0.62710
gfz2014arqr  -1.56630
gfz2014atgw  -1.15470
gfz2014azqs  -1.54700
gfz2014bagd  -2.17560
gfz2014bezu  -1.77130
gfz2014bfqo  -1.27240
gfz2014bhvd  -1.35890
gfz2014bmta  -2.29390
gfz2014bwue  -1.78750
gfz2014bzxy  -2.28240
gfz2014caop  -1.28810
gfz2014cgog  -0.17410
gfz2014chdv  -2.27940
gfz2014claq  -1.86650
gfz2014cmwb  -1.29620
gfz2014cqyo  -1.13610
gfz2014crpy  -2.88050
gfz2014ctot  -1.35380
gfz2014cvkm  -0.97520
gfz2014cvxx  -1.62720
gfz2014czno  -1.97390
gfz2014czol  -0.54380
gfz2014czqi  -1.81720
gfz2014czua  -0.00000
gfz2014dddc  -0.46440
gfz2014dffd  -2.01390
gfz2014dhxt  -0.58340
gfz2014disp  -1.52020
gfz2014dlri   0.15590
gfz2014duqn  -1.58910
gfz2014ebmc  -1.59320
gfz2014edfx  -0.08700
gfz2014eght  -0.74030
gfz2014egwu  -1.12230
gfz2014ehsf  -0.61560
gfz2014ejmt   0.80590
gfz2014ekcr  -1.82020
gfz2014ekdn  -0.88470
gfz2014ekdt  -0.07400
gfz2014emzb  -1.59010
gfz2014enhi  -1.08200
gfz2014etqa   0.00000
gfz2014ettc  -1.40120
gfz2014exxa  -0.54220
gfz2014fcms  -0.92380
gfz2014fedd  -1.32840
gfz2014femz  -0.49140
gfz2014fexu  -3.03250
gfz2014ffdc  -0.91660
gfz2014fgvi  -1.09750
gfz2014fgyo  -0.96880
gfz2014fgza  -1.74700
gfz2014fhbd  -1.60100
gfz2014fhdw  -1.69410
gfz2014fhla  -1.30340
gfz2014fhrq  -1.75980
gfz2014fhsg  -1.94830
gfz2014fhwx  -0.85150
gfz2014fimn  -0.62770
gfz2014fjpb  -0.75040
gfz2014fjzd  -1.45590
gfz2014fkmr  -2.00980
gfz2014flfa  -0.52120
gfz2014fnyg  -1.52000
gfz2014foio  -1.09370
gfz2014fqpz  -1.15190
gfz2014frdz  -1.27050
gfz2014frel  -1.28780
gfz2014frez  -1.49830
gfz2014frfl   0.14990
gfz2014frgm  -0.85880
gfz2014frwh  -1.31200
gfz2014ftka  -2.22420
gfz2014ftpw  -2.61250
gfz2014ftrk  -1.50360
gfz2014furx  -0.54250
gfz2014fusc  -0.97710
gfz2014fusj  -1.48690
gfz2014fusu  -0.46850
gfz2014fuub  -0.67950
gfz2014fvaa  -0.62010
gfz2014fval  -1.86730
gfz2014fvgh  -1.22290
gfz2014fvjl  -0.54990
gfz2014fvrg  -0.83340
gfz2014fwtt   0.42400
gfz2014gbcz  -2.09430
gfz2014gbdq  -0.26840
gfz2014geuy  -1.17680
gfz2014ghpe  -1.73300
gfz2014gkgf  -2.36390
gfz2014gkgs  -1.89600
gfz2014gkhy  -0.10690
gfz2014gkjl  -1.39620
gfz2014gkjt  -1.40870
gfz2014gkjy  -3.41410
gfz2014gkmm  -0.97240
gfz2014gkob  -1.61140
gfz2014gkok  -1.63290
gfz2014gkpd  -1.17040
gfz2014gkpj  -3.30010
gfz2014gkqf  -1.21640
gfz2014gkqu  -0.46010
gfz2014gksj  -0.80080
gfz2014gksu  -1.18290
gfz2014gktq  -0.91160
gfz2014gkxm  -3.54810
gfz2014glcu  -1.31620
gfz2014glcy  -1.39490
gfz2014glgo  -0.46770
gfz2014gltx  -1.04940
gfz2014gmci  -0.93660
gfz2014gmes   0.62530
gfz2014gmge  -2.22820
gfz2014gmhp  -1.32850
gfz2014gmhr  -2.26770
gfz2014gmip  -1.14670
gfz2014gmjo  -1.95030
gfz2014gmku  -2.12550
gfz2014gmlz  -1.31890
gfz2014gmmk  -0.86720
gfz2014gmmt  -0.87820
gfz2014gmnb  -1.92630
gfz2014gmnw  -1.75850
gfz2014gmor  -0.63910
gfz2014gmpy  -1.07700
gfz2014gmrj  -0.88820
gfz2014gmto   0.30750
gfz2014gmuk  -1.02070
gfz2014gmvr  -1.56930
gfz2014gmzl  -2.95680
gfz2014gndq   0.39610
gfz2014gnfd  -0.92550
gfz2014gnfs   2.20570
gfz2014gngg  -0.97710
gfz2014gnnt  -1.43770
gfz2014gnre  -1.13580
gfz2014gnxb  -0.03400
gfz2014goba  -1.96880
gfz2014gogv  -2.15560
gfz2014goqw  -1.85920
gfz2014gori   0.29320
gfz2014gpce  -0.95560
gfz2014gphr  -1.83230
gfz2014gpuk  -0.35300
gfz2014gpya   0.08990
gfz2014gqbj  -1.30960
gfz2014gqer  -1.04590
gfz2014gqgf  -2.95830
gfz2014gqve  -1.49660
gfz2014gsqs  -2.11720
gfz2014gufl   0.74250
gfz2014gull  -1.03120
gfz2014gumd  -0.64830
gfz2014gutm  -0.26440
gfz2014gvhw  -1.07530
gfz2014gvqj  -1.08380
gfz2014gvra  -1.21580
gfz2014gvrd  -1.97580
gfz2014gwab  -2.62440
gfz2014gxkh  -0.83030
gfz2014gxxo  -1.51730
gfz2014gzrm  -1.17120
gfz2014haos  -0.55320
gfz2014hasj  -2.61720
gfz2014hauo  -1.99960
gfz2014hbjm  -1.83430
gfz2014hbjz  -1.42390
gfz2014hbqb  -1.71880
gfz2014hcmj  -2.11470
gfz2014hetr  -3.04100
gfz2014heum  -0.87120
gfz2014heyq  -1.49020
gfz2014hfhl  -1.92940
gfz2014hgqo  -1.74520
gfz2014hhfs  -1.25620
gfz2014hjgh  -1.52620
gfz2014hjgr  -1.55690
gfz2014hjij  -1.46390
gfz2014hjlx  -2.02220
gfz2014hkcf  -1.33670
gfz2014hmrs  -3.05350
gfz2014hocg  -1.21930
gfz2014hphw  -2.18150
gfz2014hpqz  -1.71840
gfz2014hqxs  -2.69670
gfz2014hrft  -1.43570
gfz2014hriu  -2.79350
gfz2014hscz  -0.82800
gfz2014huaj  -1.29730
gfz2014hyal  -0.37120
gfz2014hyvq  -0.66770
gfz2014hzdy  -1.15890
gfz2014hzfw  -1.94800
gfz2014hzgn  -1.25040
gfz2014hzhe  -1.70020
gfz2014iava  -1.03030
gfz2014icqt  -0.79740
gfz2014ieho  -0.15920
gfz2014ifue  -1.46920
gfz2014ifzj  -1.68670
gfz2014ilwu  -1.67060
gfz2014imnn  -1.49850
gfz2014inbj  -0.79230
gfz2014iobd  -2.75940
gfz2014irci  -1.35530
gfz2014isub  -0.85410
gfz2014itab  -1.14580
gfz2014itbe  -1.44910
gfz2014itgh  -1.24830
gfz2014itjx  -0.85850
gfz2014itkw  -1.35450
gfz2014itpj  -1.42650
gfz2014iuhq  -1.26240
gfz2014iwnf   1.05470
gfz2014iwwl  -1.10360
gfz2014ixky  -3.34170
gfz2014iywt  -1.45100
gfz2014jatq  -0.71830
gfz2014jcjt  -1.04310
gfz2014jfis  -1.67750
gfz2014jggm  -1.81950
gfz2014jjhc  -2.19490
gfz2014jjln  -2.22730
gfz2014jkxe  -1.00580
gfz2014jnxm  -1.27710
gfz2014jnyv  -1.82270
gfz2014jomw  -1.69630
gfz2014jpep  -1.48390
gfz2014jpxs  -1.77020
gfz2014jwmh  -0.26050
gfz2014kara  -2.76600
gfz2014kbuk  -2.47020
gfz2014khan  -1.34590
gfz2014kitm  -0.29030
gfz2014kizt  -0.51190
gfz2014kjzb  -0.70620
gfz2014kkhh  -1.02290
gfz2014kmmt  -1.04110
gfz2014kndc  -1.95630
gfz2014knks  -1.82480
gfz2014knxs  -1.12570
gfz2014ksmz  -1.29150
gfz2014kwrg  -2.10920
gfz2014kxqf  -1.23670
gfz2014kyan  -1.66550
gfz2014kytf  -2.36780
gfz2014kzzm  -0.70800
gfz2014lbxn  -0.85130
gfz2014lddn  -1.36510
gfz2014ldhu  -0.02020
gfz2014lefs  -1.69770
gfz2014lgqn  -2.05750
gfz2014ljbr  -0.53430
gfz2014lkyf  -1.01220
gfz2014lpim  -1.87290
gfz2014lrzx  -1.63740
gfz2014lwom  -2.87040
gfz2014lxnc  -1.68660
gfz2014lyhk  -2.09890
gfz2014lyhp  -1.76870
gfz2014lynp  -0.83150
gfz2014lzal  -1.51090
gfz2014lzow  -1.77080
gfz2014macx  -1.76520
gfz2014madw  -1.38100
gfz2014mcno  -0.88560
gfz2014mcse  -0.21040
gfz2014mioi  -1.13830
gfz2014mlrr  -5.61290
gfz2014moaw  -2.06270
gfz2014mrbm  -1.40770
gfz2014mtum  -1.34060
gfz2014mwor  -1.72680
gfz2014mxkr  -1.94540
gfz2014ngnd  -1.26440
gfz2014nhyb  -2.01950
gfz2014niqj  -1.73530
gfz2014nkdx  -0.95260
gfz2014nnxd  -2.08240
gfz2014nowp  -0.55640
gfz2014npdk  -1.14610
gfz2014npeo  -1.02340
gfz2014nphm  -1.26280
gfz2014nqfm  -1.95290
gfz2014nrie  -2.03110
gfz2014nvdi  -0.88870
gfz2014nyeh  -1.95350
gfz2014nyfb  -1.47640
gfz2014nyko  -2.14560
gfz2014nylm  -1.39610
gfz2014odgv  -1.86100
gfz2014oinz  -1.94560
gfz2014okjw  -0.54410
gfz2014omyn  -1.01320
gfz2014oqhw  -0.41560
gfz2014oryw  -1.85950
gfz2014osvz  -1.86510
gfz2014owur  -1.08190
gfz2014oxcc  -0.32790
gfz2014oyly  -2.11940
gfz2014pjer  -1.79760
gfz2014pkll  -1.56810
gfz2014ppyi  -1.35580
gfz2014ppzf  -1.87210
gfz2014pqqp  -3.29530
gfz2014pqrc  -1.49780
gfz2014pvch  -1.40280
gfz2014pzni  -1.71950
gfz2014qjgp  -0.97180
gfz2014qlvc  -1.90480
gfz2014qlxd  -1.77120
gfz2014qngj  -1.07530
gfz2014qqhm  -2.21780
gfz2014raau  -1.17160
gfz2014rbpx  -0.80810
gfz2014rbsl  -0.89830
gfz2014rfeb  -2.22580
gfz2014rghp  -2.01550
gfz2014rhwq  -2.41440
gfz2014riel  -2.02180
gfz2014rkwl  -0.84650
gfz2014romy  -2.22510
gfz2014royq  -2.34110
gfz2014rtcu  -3.55070
gfz2014ryfb  -2.71910
gfz2014sadu  -1.15230
gfz2014sjqw  -0.95230
gfz2014sptq  -2.02690
gfz2014sryn  -2.24200
gfz2014ssds  -0.82900
gfz2014ssmv  -1.54580
gfz2014ssvz  -2.49800
gfz2014szzf  -0.82960
gfz2014tfgn  -2.90880
gfz2014tgcw   0.29740
gfz2014tovs  -1.16390
gfz2014tqdo  -1.93140
gfz2014tqsf  -2.28540
gfz2014tzsd  -2.47450
gfz2014ubwn  -1.37410
gfz2014udgg  -1.58890
gfz2014uohh  -1.22240
gfz2014utac  -1.40350
gfz2014uvji  -1.80380
gfz2014uvrk   0.05850
gfz2014vcev  -1.43720
gfz2014veit  -1.07090
gfz2014vhld  -1.65670
gfz2014vhms  -2.86940
gfz2014vjoz  -1.86360
gfz2014vpus  -1.12870
gfz2014waoo  -1.55560
gfz2014watn  -1.68310
gfz2014wjko  -1.69380
gfz2014wmsc  -1.14460
gfz2014wqcp  -1.35770
gfz2014wwib  -2.97590
gfz2014xbyr  -0.96660
gfz2014xhwk  -1.42660
gfz2014xjri  -2.52610
gfz2014xoji  -1.22000
gfz2014xqqd  -2.18300
gfz2014yhhm  -1.30370
gfz2014ynzy  -0.94320
gfz2014yppv  -0.84770
gfz2014yrug  -2.73270
gfz2014yula  -1.27180
gfz2014yyiy  -2.27430
gfz2014zcgo   0.03160
gfz2014zdtl  -0.77410
gfz2014zkys   0.48360
gfz2014zlgp  -0.79880
gfz2015abpw  -0.87250
gfz2015apnk  -1.61280
gfz2015aqbq  -0.64230
gfz2015arpd  -1.90680
gfz2015aruz  -1.75740
gfz2015azzp  -0.49370
gfz2015berb  -1.85110
gfz2015bfjm  -0.63110
gfz2015bkbj  -2.17700
gfz2015bphe  -1.22680
gfz2015bsnl  -1.22580
gfz2015bvsj  -0.89310
gfz2015byfn  -0.87650
gfz2015byjd  -0.92890
gfz2015chhn  -1.90880
gfz2015cxhx  -1.38380
gfz2015cxrc  -1.70850
gfz2015cxxk  -1.86990
gfz2015cyjd  -1.70780
gfz2015czfv  -1.77640
gfz2015ddhl   0.10650
gfz2015dizn  -1.23390
gfz2015djts  -1.15250
gfz2015dskr  -2.04930
gfz2015dvbn  -1.89130
gfz2015ecgq  -1.39860
gfz2015ednc  -0.95030
gfz2015eeyq  -1.14750
gfz2015eezy  -0.73600
gfz2015egxq  -0.87450
gfz2015ehpz  -1.12990
gfz2015eiky  -1.20820
gfz2015elgy  -1.78800
gfz2015eljz  -1.81210
gfz2015emtg  -0.81850
gfz2015enth  -1.53850
gfz2015etai  -1.33610
gfz2015evpl  -0.78470
gfz2015eyqs  -1.10210
gfz2015fbbk  -3.54560
gfz2015fbew  -3.06040
gfz2015fcua  -1.41870
gfz2015fjhk  -1.52970
gfz2015fkbc  -1.05710
gfz2015fkgt  -1.26450
gfz2015fkkd  -1.59350
gfz2015fkuu  -0.86480
gfz2015flis  -1.05130
gfz2015fpez  -1.35030
gfz2015fsjj  -1.38000
gfz2015fvoi  -3.43490
gfz2015fxbv  -0.92880
gfz2015fxdi  -1.11220
gfz2015fyvk  -0.42340
gfz2015gckd  -1.55960
gfz2015ggjw  -1.48060
gfz2015gjbr  -1.48690
gfz2015gkwa  -0.56880
gfz2015gmgf  -1.39780
gfz2015gnmy  -0.80170
gfz2015guhd  -1.52880
gfz2015gwao   0.35340
gfz2015gzja  -0.55680
gfz2015hdbn  -0.08460
gfz2015hdcp  -1.24090
gfz2015hepg  -1.99240
gfz2015hgbk  -1.58970
gfz2015hlfq  -8.32610
gfz2015hlqo  -0.85800
gfz2015hpmk  -1.16400
gfz2015hslo  -1.38520
gfz2015hvgs  -0.17670
gfz2015iele  -0.14550
gfz2015igsy  -0.70540
gfz2015imty  -1.96560
gfz2015imyp  -0.41290
gfz2015isim  -0.82370
gfz2015iwqk  -0.25350
gfz2015ixyy  -1.11830
gfz2015jkdw  -1.12160
gfz2015jmlu  -0.31190
gfz2015jpap  -3.57720
gfz2015jwgl  -0.95880
gfz2015jxbx  -1.51860
gfz2015jxjd  -0.48850
gfz2015kakw  -1.55720
gfz2015kalm  -1.59090
gfz2015kcaa  -1.32620
gfz2015kfsu  -2.70710
gfz2015kkqb  -1.79070
gfz2015kkth  -1.12300
gfz2015mpte  -2.23290
gfz2015nbdc   0.39970
gfz2015nerz  -3.06350
gfz2015nqgf  -0.97860
gfz2015nuxz  -1.82240
gfz2015nwug  -1.03810
gfz2015ocdz  -0.89900
gfz2015ofpd  -0.02500
gfz2015ofsr  -0.60560
gfz2015okmq  -1.77210
gfz2015okpu  -1.69520
gfz2015omab  -0.74910
gfz2015orkl  -0.62730
gfz2015oyfl  -1.28330
gfz2015pcvt  -0.97700
gfz2015pjgr  -2.88180
gfz2015plal  -2.63030
gfz2015poni  -1.16420
gfz2015puqp  -1.96010
gfz2015qafb  -1.47440
gfz2015qiit  -1.57990
gfz2015qisx  -2.39550
gfz2015qnho  -0.98460
gfz2015qnto  -4.20780
gfz2015qpvd  -3.14400
gfz2015quzo  -1.86870
gfz2015rgov   0.12510
gfz2015rgrg  -1.15530
gfz2015rkbq  -1.09600
gfz2015rkrg  -1.24450
gfz2015rkzg  -1.68590
gfz2015roac  -0.53300
gfz2015rpzn  -2.24600
gfz2015rxmg  -1.53790
gfz2015saet  -0.57520
gfz2015sdeo  -1.15690
gfz2015sevh  -1.92000
gfz2015sfdd  -1.37490
gfz2015sfdl  -0.88750
gfz2015sfdv   2.00850
gfz2015sfdy  -1.78500
gfz2015sfeo  -0.86900
gfz2015sffn  -1.27300
gfz2015sfga  -1.56380
gfz2015sfho  -0.84030
gfz2015sfhz  -1.18390
gfz2015sfiq  -1.95750
gfz2015sfkh  -1.03450
gfz2015sfko  -0.93020
gfz2015sfks  -0.84750
gfz2015sfkz  -1.12770
gfz2015sflf  -0.87430
gfz2015sfmd   1.53950
gfz2015sfnb  -1.80850
gfz2015sfno  -2.16990
gfz2015sfnv  -0.32400
gfz2015sfoc  -1.47250
gfz2015sfoh  -1.02020
gfz2015sfom  -0.64920
gfz2015sfpj  -0.23530
gfz2015sfps  -1.15150
gfz2015sfqo  -1.36390
gfz2015sfqr  -1.15570
gfz2015sfrf  -1.04020
gfz2015sfrv  -0.16330
gfz2015sfsi  -1.94010
gfz2015sfte  -1.62420
gfz2015sftu  -2.53060
gfz2015sfuc  -0.25650
gfz2015sfuz  -1.18250
gfz2015sfwf  -0.27700
gfz2015sfxn  -0.95140
gfz2015sfzm  -0.63560
gfz2015sgad  -0.59130
gfz2015sgmr   0.27580
gfz2015sgna  -0.78940
gfz2015sgxc  -1.78040
gfz2015sgyd  -0.78230
gfz2015shaq  -0.85910
gfz2015shel  -2.00160
gfz2015shhg  -0.24910
gfz2015shhu  -0.72970
gfz2015shjn  -1.42550
gfz2015shjo  -0.45350
gfz2015shlp  -1.62310
gfz2015shqc  -1.55240
gfz2015shrg  -1.91070
gfz2015sicf  -1.13520
gfz2015siem  -0.35400
gfz2015siky  -0.80620
gfz2015sing  -1.27650
gfz2015sist  -1.53490
gfz2015sitn  -0.47030
gfz2015sixi  -0.85910
gfz2015sixs  -0.57560
gfz2015siyy  -0.74080
gfz2015sjbx  -0.95230
gfz2015sjfi  -0.36840
gfz2015sjgk  -1.23250
gfz2015sjjb  -1.24910
gfz2015sjne  -1.38110
gfz2015sjoj  -0.63960
gfz2015sjpn  -1.11470
gfz2015sjvu  -0.73780
gfz2015sjwi  -0.62680
gfz2015skgj  -1.36430
gfz2015skhf  -0.82330
gfz2015sklu  -1.19200
gfz2015skpv  -0.81660
gfz2015skuk  -1.13880
gfz2015skxu  -0.66520
gfz2015sldx  -2.19450
gfz2015sljs  -2.34730
gfz2015slun  -1.10320
gfz2015smgj  -0.66120
gfz2015smym  -1.48300
gfz2015snhn  -0.94180
gfz2015snmr  -1.33560
gfz2015snsf  -1.22150
gfz2015snwh  -1.57320
gfz2015snyd  -0.89620
gfz2015soat  -0.87060
gfz2015sopc  -0.11950
gfz2015soxc  -1.40050
gfz2015sozw  -1.00690
gfz2015sqbg  -0.96590
gfz2015sqmy  -1.41360
gfz2015srat  -1.44430
gfz2015sspn  -1.48560
gfz2015stfy  -0.40420
gfz2015stso  -1.11470
gfz2015susq  -0.32430
gfz2015svjy  -0.54150
gfz2015svwm  -1.33460
gfz2015sxgd  -0.64400
gfz2015sxmh  -0.59970
gfz2015sxxu  -0.93150
gfz2015sydc  -1.01430
gfz2015szcb  -0.78490
gfz2015szfe  -0.58600
gfz2015szfq  -0.56430
gfz2015sztx  -1.05470
gfz2015taml  -2.49120
gfz2015tdbb  -1.32340
gfz2015tdcu  -1.01350
gfz2015teje  -1.18830
