# Nsamples: 532  MAD:  1.014  mean:  0.165  variance:  1.465
gfz2010aerk  -1.68040
gfz2010ahla   0.18460
gfz2010ahqi   0.70980
gfz2010aphp   0.15710
gfz2010awfi  -0.34440
gfz2010bfzs  -0.43120
gfz2010bgth  -0.22020
gfz2010bifb   2.13670
gfz2010bjeb   1.09700
gfz2010bjjx  -0.98850
gfz2010boxo   0.15910
gfz2010bpda   0.37970
gfz2010bxxs   0.76910
gfz2010caft   0.65540
gfz2010cdbt  -1.10200
gfz2010chnv  -0.37220
gfz2010ckzm  -0.13220
gfz2010cqwl  -0.24900
gfz2010czps   1.08840
gfz2010dejx   0.77370
gfz2010dfru  -0.67930
gfz2010diqn   1.37370
gfz2010dlgc   1.07690
gfz2010eaoy   2.37710
gfz2010ebhc   1.50430
gfz2010ebin  -0.11740
gfz2010ebiv   0.69080
gfz2010ebjg  -1.09720
gfz2010ebkj   0.45730
gfz2010ebll   1.75840
gfz2010ebmb   0.92500
gfz2010ebmi   0.64840
gfz2010ebnn   2.03930
gfz2010ebtk  -0.80800
gfz2010ebvm   0.70120
gfz2010ebwp   0.60290
gfz2010ebxl   1.39400
gfz2010ebzk   0.25920
gfz2010ebzr   1.59880
gfz2010eccq  -1.06720
gfz2010eced   0.51490
gfz2010echc  -0.77390
gfz2010ecns   0.01950
gfz2010ecps   0.43040
gfz2010ecsp   4.09440
gfz2010ecua  -0.04260
gfz2010ecvt  -1.86750
gfz2010edbz  -0.65870
gfz2010edcp  -1.69770
gfz2010edde  -1.75000
gfz2010edhv  -0.31500
gfz2010edkp  -0.36820
gfz2010edsy  -0.02170
gfz2010edvf   0.57970
gfz2010edyi  -0.63530
gfz2010eedz  -0.82780
gfz2010eeij  -0.04190
gfz2010eevu   0.55920
gfz2010efxf   1.74990
gfz2010egap  -3.00740
gfz2010egld   1.10330
gfz2010egmp   0.43980
gfz2010egqh  -1.61120
gfz2010egsy   0.67830
gfz2010ehaj   0.29240
gfz2010ehnm  -0.11030
gfz2010eisx   1.36520
gfz2010eixj   1.18640
gfz2010ejjg  -0.48090
gfz2010ekoe   0.30110
gfz2010ekrv  -0.50250
gfz2010ekyc  -0.30520
gfz2010elhv   0.26910
gfz2010eltf   0.85150
gfz2010elvp   1.29710
gfz2010eoao   4.16350
gfz2010epxj   0.77710
gfz2010eqjg   0.22080
gfz2010eqmu  -1.21750
gfz2010erkn   0.28990
gfz2010erom   0.08660
gfz2010eruy   4.77770
gfz2010eted   1.78480
gfz2010eujm  -0.68130
gfz2010excp   1.40190
gfz2010exdl   0.48530
gfz2010exel  -0.49190
gfz2010exhd  -0.12410
gfz2010exno   0.18450
gfz2010exsg   1.58210
gfz2010eyxe   1.13600
gfz2010ezck   0.56810
gfz2010ezwz  -1.04430
gfz2010fczt   1.06120
gfz2010fedq   0.32400
gfz2010ffhq   2.30610
gfz2010fjal   0.75410
gfz2010fkhd  -0.86310
gfz2010fknh   1.27260
gfz2010flha   1.34130
gfz2010flxi  -1.14040
gfz2010fnrk   1.17540
gfz2010fpqy   0.32030
gfz2010fqdu  -1.05640
gfz2010ftlm  -0.21840
gfz2010fuuy  -1.21310
gfz2010fwzd   0.36010
gfz2010fync   1.44970
gfz2010gcrl   1.18580
gfz2010gcrp   1.29710
gfz2010gdld  -1.34780
gfz2010ghyk  -1.61860
gfz2010glxl   1.42270
gfz2010gtzt  -0.91530
gfz2010gyqp  -0.23450
gfz2010gzxr   0.65720
gfz2010hbka  -1.00020
gfz2010hcio   1.55740
gfz2010hhls  -2.29530
gfz2010hjoc   0.11120
gfz2010hlvr  -1.74780
gfz2010hmhm  -0.16030
gfz2010homc   1.51740
gfz2010hptz  -0.67580
gfz2010hrkr  -0.70060
gfz2010hufk  -2.40520
gfz2010hxgv   0.64680
gfz2010hxhe   0.46530
gfz2010imsh  -0.18090
gfz2010iobp   0.55740
gfz2010iqnm   2.37620
gfz2010irvf  -0.66700
gfz2010iull   0.72420
gfz2010izzj  -3.31930
gfz2010jant   2.97430
gfz2010jucj  -0.13530
gfz2010jxbm  -0.76090
gfz2010kdyc   0.52180
gfz2010kyen   0.46600
gfz2010lczp  -0.04330
gfz2010lfju   0.12190
gfz2010lkcf  -1.06820
gfz2010lluj  -0.18210
gfz2010mdpq  -2.28710
gfz2010mkuu   0.25620
gfz2010mncc   0.08190
gfz2010moyw   1.24650
gfz2010ncrl   0.15360
gfz2010nmpc   1.53660
gfz2010nnny   0.09110
gfz2010nqwo   1.13620
gfz2010nrjo   1.55840
gfz2010nsck   0.41310
gfz2010nwef   0.70790
gfz2010onma   0.19250
gfz2010osqo  -0.99120
gfz2010pcxi   0.08170
gfz2010pewa   2.20370
gfz2010pewx   1.06170
gfz2010pfyu  -0.46350
gfz2010qpcq   0.70170
gfz2010qpvi   0.28620
gfz2010rqwj   1.96400
gfz2010sfee   0.31470
gfz2010tcrl   1.57000
gfz2010upfb   2.12630
gfz2010urlq  -1.19860
gfz2010usho  -0.42530
gfz2010ustq  -0.31210
gfz2010utcg   0.72480
gfz2010vbmd   2.22570
gfz2010xden  -0.29860
gfz2010xjsj  -0.06620
gfz2010xnxk  -1.40610
gfz2010ymfy  -0.05210
gfz2011aatr   1.86090
gfz2011adjs   1.89260
gfz2011aqxf   2.79760
gfz2011bgrp   0.79520
gfz2011bhha   0.83330
gfz2011blsi  -1.59260
gfz2011bpkd  -2.02380
gfz2011cndo   0.93300
gfz2011crdy  -1.54980
gfz2011csju   0.68670
gfz2011ctbn  -0.83320
gfz2011cvcg   0.01960
gfz2011cvfg   1.43140
gfz2011cykd   1.49580
gfz2011cynl  -1.05220
gfz2011cyre   0.26290
gfz2011cyuk   1.70470
gfz2011dbev   0.52300
gfz2011dbig   1.31190
gfz2011dbon  -0.14860
gfz2011dcqb   1.07110
gfz2011deaf  -0.63700
gfz2011dkyi  -0.81140
gfz2011dlyx  -0.35840
gfz2011dpqx   2.33510
gfz2011eayc  -0.21310
gfz2011ecaj   1.20180
gfz2011edmm  -0.85110
gfz2011efgv   0.42640
gfz2011ehzq   0.23230
gfz2011eltw  -0.13520
gfz2011enva  -0.36850
gfz2011fgvr   0.06530
gfz2011fhbm  -0.23330
gfz2011fkbn  -0.93180
gfz2011flgj  -0.59050
gfz2011flhp  -0.68690
gfz2011fnsw  -0.97600
gfz2011gbmx  -0.53240
gfz2011gjlx  -0.96320
gfz2011gkzt  -1.70600
gfz2011hbex  -0.24310
gfz2011hfkj  -0.19510
gfz2011hlqw   0.86620
gfz2011hlsa   1.00130
gfz2011hvbu   1.05030
gfz2011ieie   0.78820
gfz2011izqa  -0.13840
gfz2011jplh   1.73180
gfz2011jxpl   0.15770
gfz2011knoo   0.20510
gfz2011kqwo  -0.18770
gfz2011kxzp  -0.13950
gfz2011lcxq  -0.00000
gfz2011lgsg  -0.74490
gfz2011lhls  -0.23260
gfz2011mdie  -1.53490
gfz2011mjom  -0.21650
gfz2011mpme   1.44320
gfz2011nqpd  -0.07240
gfz2011nudm   0.32140
gfz2011olkk   0.11770
gfz2011ornx   0.36770
gfz2011owvz  -0.81250
gfz2011pdpt  -0.61450
gfz2011rewa   1.56910
gfz2011rgwp   1.11210
gfz2011rqui  -0.46420
gfz2011tjue   0.31830
gfz2011tkog   0.47530
gfz2011toub   2.24970
gfz2011ujze  -0.11610
gfz2011ukmp  -1.00990
gfz2011uphh   0.14760
gfz2011urxy   0.10820
gfz2011urzu   1.44310
gfz2011vhfi   0.86540
gfz2011vnza  -0.83430
gfz2011vqnr   1.19450
gfz2011vrhg  -0.19650
gfz2011vxns  -1.46150
gfz2011vxod  -1.02920
gfz2011wxfs   2.07960
gfz2011wxtk  -1.12180
gfz2011xqru   0.35000
gfz2011xyxj   1.43040
gfz2011zqhh   0.73850
gfz2012bfah  -0.78750
gfz2012bfyn   0.61610
gfz2012bpkx   0.05780
gfz2012brhv   0.14510
gfz2012byad   0.98870
gfz2012cnod   1.77370
gfz2012cxdn   1.03050
gfz2012czlw   0.91290
gfz2012dinb  -0.19710
gfz2012kkup   1.44000
gfz2012ldzj   1.31370
gfz2012ntzv   3.98100
gfz2013kvtk  -1.87600
gfz2013ldqb  -1.36160
gfz2013lixa  -1.81240
gfz2013lljw   0.61020
gfz2013lwao   0.49210
gfz2013mqmv   0.70830
gfz2013mtqd   0.22570
gfz2013mwbh  -0.43250
gfz2013nabl  -0.34240
gfz2013ncjp  -0.22320
gfz2013nixj   1.74810
gfz2013nkgj   0.55940
gfz2013nknw  -0.01430
gfz2013nwdi   0.84780
gfz2013ozrf  -1.01220
gfz2013pcos  -0.99250
gfz2013pfbx  -0.11940
gfz2013pffm   1.08370
gfz2013qfsq  -0.89690
gfz2013qmer   0.40970
gfz2013sdus   1.56010
gfz2013shzy   0.45700
gfz2013skkm   0.46890
gfz2013suvn  -0.86860
gfz2013svci   1.12020
gfz2013tcxc   1.48400
gfz2013toxf   1.00020
gfz2013tusd  -0.93600
gfz2013uauo   0.24020
gfz2013vfzp   3.24190
gfz2013viul   0.79830
gfz2013vjjc   3.30110
gfz2013vzbo  -0.00720
gfz2013wjmm   0.65060
gfz2013wkyk   0.89410
gfz2013wqhq   6.40290
gfz2013xmul  -1.41390
gfz2013xsdt   1.14890
gfz2013xxcc  -0.03050
gfz2013yaig   0.40510
gfz2013yctg   0.70250
gfz2013yghj  -0.94420
gfz2013yqkv   1.76990
gfz2014abgd   0.66740
gfz2014afmx   1.29890
gfz2014ajlk   1.27150
gfz2014algk  -0.08460
gfz2014bagd  -0.17830
gfz2014bjsy   0.63470
gfz2014bwue   1.93400
gfz2014caop  -5.12170
gfz2014cmwb  -0.15790
gfz2014cvxx  -0.27140
gfz2014czno  -0.87810
gfz2014czqi  -0.38650
gfz2014czua  -1.02120
gfz2014dffd  -0.03560
gfz2014egwu  -2.02360
gfz2014ehfp  -0.11640
gfz2014ehsf  -0.98030
gfz2014ekcr  -0.27650
gfz2014emrg   3.77280
gfz2014enhi   0.75560
gfz2014eqpl  -2.85160
gfz2014fedd   1.81950
gfz2014femz   0.00000
gfz2014ffdc  -0.85220
gfz2014fgvi   1.30740
gfz2014fgvz   0.79270
gfz2014fhdw   0.83040
gfz2014fhla  -1.61990
gfz2014fhlh  -1.40850
gfz2014fhwx  -0.58860
gfz2014fhxm   0.29430
gfz2014fimn   0.38980
gfz2014fjzd  -0.40440
gfz2014fkmr   0.32000
gfz2014fkmx  -0.76300
gfz2014fknp  -1.45800
gfz2014fnyg  -0.64770
gfz2014frdz  -0.31130
gfz2014frez   0.66430
gfz2014frwh  -0.14620
gfz2014ftka  -1.36870
gfz2014ftpw  -0.44820
gfz2014ftrk   1.34440
gfz2014furx   0.23600
gfz2014fusc  -0.94480
gfz2014fusj  -0.13290
gfz2014fuub  -3.33630
gfz2014fval   0.57960
gfz2014fvrg   0.64150
gfz2014fvve   0.03680
gfz2014gbcz  -0.26180
gfz2014gezs   0.13050
gfz2014ghpe  -0.79670
gfz2014gkgf   0.94900
gfz2014gkhp   2.54820
gfz2014gkhy   1.33280
gfz2014gkjt  -0.48140
gfz2014gkob  -0.03400
gfz2014gkpj  -1.58580
gfz2014gkqf   0.88260
gfz2014gkqu   0.99530
gfz2014gksu   0.00380
gfz2014gktq  -0.39800
gfz2014glcu   0.43810
gfz2014glcy  -0.02210
gfz2014glhs  -0.04990
gfz2014gltx   0.59990
gfz2014glvn   2.02880
gfz2014gmci   0.33130
gfz2014gmes  -0.43370
gfz2014gmge   1.58250
gfz2014gmhp  -0.76770
gfz2014gmhr  -0.15790
gfz2014gmip   1.88830
gfz2014gmjo  -0.24290
gfz2014gmku  -0.31990
gfz2014gmnb   0.40170
gfz2014gmnw   0.51400
gfz2014gmuw   1.56500
gfz2014gmzl   0.45680
gfz2014gnfd  -0.40820
gfz2014gnfs  -0.51350
gfz2014gngg  -0.45630
gfz2014gnom  -1.44540
gfz2014goba   0.60970
gfz2014gogv  -0.18680
gfz2014goqw   0.02160
gfz2014gori   0.96670
gfz2014gpce  -0.04280
gfz2014gpuk  -3.35870
gfz2014gqer   0.95690
gfz2014gqve  -2.79300
gfz2014gsgv  -3.68990
gfz2014gsqs  -1.51370
gfz2014gtwz  -2.92080
gfz2014gufl  -2.10030
gfz2014gull  -0.13200
gfz2014gutm  -0.13820
gfz2014gvqj  -1.01190
gfz2014gwab  -0.27310
gfz2014gxkh  -0.98810
gfz2014gxvf   0.19340
gfz2014gxxh  -1.39810
gfz2014gxxo   0.52330
gfz2014hcmj  -1.17430
gfz2014heum   0.52270
gfz2014hfhl  -1.93850
gfz2014hgqo  -0.13560
gfz2014hifp  -0.86380
gfz2014hjgh  -0.08460
gfz2014hjgr   0.69510
gfz2014hjij  -0.51140
gfz2014hocg   0.91030
gfz2014hphw  -0.17290
gfz2014hqxs   0.31230
gfz2014hriu  -0.98840
gfz2014huaj   0.45070
gfz2014icqt  -1.79610
gfz2014ieho   1.24290
gfz2014jwmh   0.97650
gfz2014kkhh   0.38190
gfz2014knks   0.95170
gfz2014kwrg   0.00000
gfz2014kyan  -0.59220
gfz2014kytf  -1.42830
gfz2014lbcq  -1.91410
gfz2014lpim  -4.04590
gfz2014lxnc   0.00830
gfz2014lyhk   0.89110
gfz2014lyhp  -0.25550
gfz2014macx   0.44960
gfz2014madw  -0.43710
gfz2014mxkr   0.05980
gfz2014oinz   0.90030
gfz2014owxc  -0.13420
gfz2014qlxd   1.45060
gfz2014qngj   0.09710
gfz2014qqhm   0.80190
gfz2014rdsn   0.04300
gfz2014riel  -1.49000
gfz2014ssvz  -0.41070
gfz2014szzf   0.71770
gfz2014tqdo   0.56310
gfz2014tqsf  -1.96050
gfz2014tzsd   0.92670
gfz2014ubwn  -1.32930
gfz2014vhld   1.17990
gfz2014wjko   0.90960
gfz2014wwib   0.20880
gfz2014xjri   0.26530
gfz2014xqby  -1.04710
gfz2014xqqd   0.41000
gfz2014yhhm  -0.33930
gfz2014yrug  -0.40350
gfz2015apnk   0.43720
gfz2015aruz   0.45150
gfz2015berb   1.49750
gfz2015bkbj  -0.48940
gfz2015bphe   0.57370
gfz2015bucr   1.04880
gfz2015chhn   0.29370
gfz2015chqn   2.06980
gfz2015cxxk  -0.43320
gfz2015cyjd  -0.68400
gfz2015dskr  -0.07940
gfz2015dvbn   0.83890
gfz2015egxq   0.45160
gfz2015eiky   0.21000
gfz2015emtg  -0.15500
gfz2015esrj   0.12370
gfz2015etai   0.02380
gfz2015fbbk  -1.23580
gfz2015fjhk   0.86320
gfz2015fkgt   1.74320
gfz2015fsjj  -0.09770
gfz2015gckd  -0.04930
gfz2015ggjw   0.19170
gfz2015gjbr   0.28260
gfz2015hgbk   0.95460
gfz2015jzcv   1.22050
gfz2015kfsu  -0.53850
gfz2015kkqb   0.99410
gfz2015kkth   1.22190
gfz2015lytv   1.02880
gfz2015mddr   0.29430
gfz2015mpte   0.43090
gfz2015nwug  -2.12880
gfz2015okmq   0.86060
gfz2015qiit  -0.91200
gfz2015qnho  -1.03520
gfz2015qnto  -0.22600
gfz2015qpvd  -1.47010
gfz2015rddx   1.74860
gfz2015sfdd   1.25570
gfz2015sfhz   1.12760
gfz2015sfiq   1.72310
gfz2015sfnb   1.69650
gfz2015sfps   0.79160
gfz2015sfqr   0.50780
gfz2015sfrc  -0.72590
gfz2015sgyd   2.37570
gfz2015shsz  -0.34960
gfz2015sjgk   1.35640
gfz2015sjoj   0.68130
gfz2015sjvu   0.44500
gfz2015skxu  -1.47250
gfz2015snsf  -1.06530
gfz2015snwh  -0.03240
gfz2015snyd   0.23440
gfz2015soat  -0.69560
gfz2015soxc   0.72520
gfz2015ssoe   0.62640
gfz2015subz   0.30360
gfz2015svwm   1.15450
gfz2015taml  -0.44210
