# Nsamples: 55  MAD:  0.510  mean: -0.400  variance:  0.878
gfz2010ahqi   0.18100
gfz2010bxxs  -0.03950
gfz2010ebhc  -0.93170
gfz2010ecua   0.68100
gfz2010grjd   0.11370
gfz2010iull  -0.56310
gfz2010nmpc  -0.92310
gfz2010usho  -1.67300
gfz2011aatr  -0.70460
gfz2011enva  -0.02620
gfz2011hlqw   2.70340
gfz2011hlsa   1.85570
gfz2011lcxq  -0.59940
gfz2011lzwj  -0.18880
gfz2011rewa   0.75720
gfz2011toub  -0.68200
gfz2011wxfs  -0.89570
gfz2012enno  -0.48300
gfz2012jlox  -1.15660
gfz2012kkup  -0.55170
gfz2012klhx  -0.32150
gfz2012kudo  -1.09990
gfz2012ldxg  -0.41320
gfz2012teic   2.43870
gfz2012vrgb  -0.71560
gfz2012wypz  -0.34140
gfz2013drxz  -0.33590
gfz2013jkut  -0.06240
gfz2013jphq  -0.45510
gfz2013ldqb   1.56350
gfz2013nwdi  -1.72780
gfz2013qmer   0.02980
gfz2013svci  -0.33520
gfz2014ande  -0.60960
gfz2014bwue  -0.99650
gfz2014fgvi   0.03270
gfz2014fhla   0.45450
gfz2014ftka  -0.61110
gfz2014gkgf  -0.68420
gfz2014gkqf  -0.40560
gfz2014gmnb  -0.34320
gfz2014goba  -1.39420
gfz2014hasj  -2.10610
gfz2014ifzj  -2.17980
gfz2014jjhc  -0.34750
gfz2014nqfm  -1.96470
gfz2014oinz  -1.28010
gfz2014qqhm  -0.29640
gfz2014ssvz  -0.73200
gfz2014ubwn  -0.55170
gfz2015cyjd  -0.26790
gfz2015gckd  -0.76500
gfz2015lhjy  -0.62480
gfz2015mpte  -0.69770
gfz2015taml  -0.71540
