# Nsamples: 37  MAD:  0.649  mean: -0.873  variance:  0.913
gfz2013nkgj  -1.46480
gfz2013nwdi  -0.71170
gfz2013svci  -0.48700
gfz2013vjjc   1.02650
gfz2014bwue  -0.65590
gfz2014fgvi  -0.05570
gfz2014fhla  -2.15530
gfz2014ftka  -1.07820
gfz2014gkgf  -0.59350
gfz2014gkqf  -0.26580
gfz2014gmge  -2.41540
gfz2014gmhr  -1.69220
gfz2014gmnb  -0.75960
gfz2014gmnw  -1.06980
gfz2014goba  -0.19170
gfz2014hasj  -1.26230
gfz2014jjhc  -0.61950
gfz2014jpep  -1.09260
gfz2014lxnc   1.96290
gfz2014lyhp  -1.15190
gfz2014nqfm  -2.77890
gfz2014oinz  -2.38400
gfz2014ssvz  -1.02690
gfz2015chhn  -1.38290
gfz2015cyjd   0.77170
gfz2015fjhk  -1.05050
gfz2015fsjj  -1.62880
gfz2015kxxs   0.00860
gfz2015mpte  -0.63920
gfz2015sfdd  -1.24630
gfz2015sfdy  -0.47230
gfz2015sfno  -1.90920
gfz2015smym  -0.59560
gfz2015snwh  -0.98110
gfz2015soxc  -1.60010
gfz2015svwm  -1.30800
gfz2015taml   0.65620
