# Nsamples: 89  MAD:  0.802  mean:  0.762  variance:  0.653
gfz2011gkzt   1.55880
gfz2011lcxq   1.65850
gfz2011lzwj   1.62490
gfz2011mdie   0.66900
gfz2011owvz   1.18270
gfz2011rewa   0.36090
gfz2011toub   1.01740
gfz2011vhfi   1.66500
gfz2011vrhg  -0.85530
gfz2011wxfs   1.88420
gfz2011xyxj   1.36460
gfz2012enno   0.62150
gfz2012hnul   1.35010
gfz2012jlox   1.22310
gfz2012jupx   1.59210
gfz2012kbjb  -0.24950
gfz2012kkup   0.17650
gfz2012klhx   0.22440
gfz2012kudo   0.71870
gfz2012ldxg   1.52350
gfz2012minr   0.76850
gfz2012sphd   0.79510
gfz2012teic   0.87240
gfz2012ttoa   0.70920
gfz2012tvmv   0.36760
gfz2012uafg   0.05480
gfz2012uaqj   0.34670
gfz2012vrgb   0.56110
gfz2012wxlg  -0.71750
gfz2012wypz   1.03220
gfz2013ccnr  -0.06070
gfz2013drxz   0.30740
gfz2013fygc  -1.50950
gfz2013jgip   2.37500
gfz2013ldqb   0.93280
gfz2013nkgj   1.57430
gfz2013nnzf   0.35850
gfz2013nwdi   1.08470
gfz2013pfbx   0.27950
gfz2013qmer   0.84140
gfz2013svci   1.96260
gfz2013vjjc  -0.05770
gfz2013yqkv   1.82410
gfz2014ande   1.17040
gfz2014bwue   0.91450
gfz2014fgvi   1.86740
gfz2014fhla   0.76530
gfz2014fhxm   0.91840
gfz2014ftka  -0.78250
gfz2014gbcz   0.02170
gfz2014gkgf   1.72570
gfz2014gmhr   0.93050
gfz2014gmnb   1.66370
gfz2014gull   0.51570
gfz2014hasj  -0.12740
gfz2014hocg   0.69140
gfz2014hqxs   0.13740
gfz2014inbj   0.61090
gfz2014jjhc   1.21620
gfz2014npeo   0.60380
gfz2014nqfm   1.01920
gfz2014nrie   2.11290
gfz2014oinz   0.85770
gfz2014qlxd  -0.43190
gfz2014qqhm   1.57630
gfz2014ssvz   1.29230
gfz2014wqcp   0.29320
gfz2014yula  -1.41030
gfz2015berb   0.05230
gfz2015chhn   0.25410
gfz2015cyjd   0.47420
gfz2015fkbc   1.91630
gfz2015fsjj   1.50850
gfz2015gckd   1.53590
gfz2015kxxs   1.84660
gfz2015lhjy   1.07830
gfz2015lytv  -1.12170
gfz2015mpte   2.02900
gfz2015sfdd   0.45100
gfz2015sfdy   1.16520
gfz2015sfnb   2.04250
gfz2015sfno   0.65730
gfz2015smym  -0.04710
gfz2015snwh   0.05510
gfz2015snyd   0.14360
gfz2015soat   0.30090
gfz2015soxc   0.11100
gfz2015svwm   0.57110
gfz2015taml   0.61090
