%!PS-Adobe-3.0
%%BoundingBox: 0 0 595 842
%%HiResBoundingBox: 0 0 595 842
%%Title: GMT v5.1.1 (r12968) [64-bit] Document from psbasemap
%%Creator: GMT5
%%For: nooshiri
%%DocumentNeededResources: font Helvetica
%%CreationDate: Wed Aug 26 09:08:07 2015
%%LanguageLevel: 2
%%DocumentData: Clean7Bit
%%Orientation: Landscape
%%Pages: 1
%%EndComments

%%BeginProlog
250 dict begin
/! {bind def} bind def
/# {load def}!
/A /setgray #
/B /setdash #
/C /setrgbcolor #
/D /rlineto #
/E {dup stringwidth pop}!
/F /fill #
/G /rmoveto #
/H /sethsbcolor #
/I /setpattern #
/K /setcmykcolor #
/L /lineto #
/M /moveto #
/N /newpath #
/P /closepath #
/R /rotate #
/S /stroke #
/T /translate #
/U /grestore #
/V /gsave #
/W /setlinewidth #
/Y {findfont exch scalefont setfont}!
/Z /show #
/FP {true charpath flattenpath}!
/MU {matrix setmatrix}!
/MS {/SMat matrix currentmatrix def}!
/MR {SMat setmatrix}!
/edef {exch def}!
/FS {/fc edef /fs {V fc F U} def}!
/FQ {/fs {} def}!
/O0 {/os {N} def}!
/O1 {/os {P S} def}!
/FO {fs os}!
/Sa {M MS dup 0 exch G 0.726542528 mul -72 R dup 0 D 4 {72 R dup 0 D -144 R dup 0 D} repeat pop MR FO}!
/Sb {M dup 0 D exch 0 exch D neg 0 D FO}!
/SB {MS T /BoxR edef /BoxW edef /BoxH edef BoxR 0 M
  BoxW 0 BoxW BoxH BoxR arct BoxW BoxH 0 BoxH BoxR arct 0 BoxH 0 0 BoxR arct 0 0 BoxW 0 BoxR arct MR FO}!
/Sc {N 3 -1 roll 0 360 arc FO}!
/Sd {M 4 {dup} repeat 0 G neg dup dup D exch D D FO}!
/Se {N MS T R scale 0 0 1 0 360 arc MR FO}!
/Sg {M MS 22.5 R dup 0 exch G -22.5 R 0.765366865 mul dup 0 D 6 {-45 R dup 0 D} repeat pop MR FO}!
/Sh {M MS dup 0 G -120 R dup 0 D 4 {-60 R dup 0 D} repeat pop MR FO}!
/Si {M MS dup neg 0 exch G 60 R 1.732050808 mul dup 0 D 120 R 0 D MR FO}!
/Sj {M MS R dup -2 div 2 index -2 div G dup 0 D exch 0 exch D neg 0 D MR FO}!
/Sn {M MS dup 0 exch G -36 R 1.175570505 mul dup 0 D 3 {-72 R dup 0 D} repeat pop MR FO}!
/Sp {N 3 -1 roll 0 360 arc fs N}!
/SP {M {D} repeat FO}!
/Sr {M dup -2 div 2 index -2 div G dup 0 D exch 0 exch D neg 0 D FO}!
/SR {MS T /BoxR edef /BoxW edef /BoxH edef BoxR BoxW -2 div BoxH -2 div T BoxR 0 M
  BoxW 0 BoxW BoxH BoxR arct BoxW BoxH 0 BoxH BoxR arct 0 BoxH 0 0 BoxR arct 0 0 BoxW 0 BoxR arct MR FO}!
/Ss {M 1.414213562 mul dup dup dup -2 div dup G 0 D 0 exch D neg 0 D FO}!
/St {M MS dup 0 exch G -60 R 1.732050808 mul dup 0 D -120 R 0 D MR FO}!
/SV {0 exch M 0 D D D D D 0 D FO}!
/Sv {0 0 M D D 0 D D D D D 0 D D FO}!
/Sw {2 copy M 5 2 roll arc FO}!
/Sx {M 1.414213562 mul 5 {dup} repeat -2 div dup G D neg 0 G neg D S}!
/Sy {M dup 0 exch G dup -2 mul dup 0 exch D S}!
/S+ {M dup 0 G dup -2 mul dup 0 D exch dup G 0 exch D S}!
/S- {M dup 0 G dup -2 mul dup 0 D S}!
/sw {stringwidth pop}!
/sh {V MU 0 0 M FP pathbbox N 4 1 roll pop pop pop U}!
/sd {V MU 0 0 M FP pathbbox N pop pop exch pop U}!
/sH {V MU 0 0 M FP pathbbox N exch pop exch sub exch pop U}!
/sb {E exch sh}!
/bl {}!
/bc {E -2 div 0 G}!
/br {E neg 0 G}!
/ml {dup 0 exch sh -2 div G}!
/mc {dup E -2 div exch sh -2 div G}!
/mr {dup E neg exch sh -2 div G}!
/tl {dup 0 exch sh neg G}!
/tc {dup E -2 div exch sh neg G}!
/tr {dup E neg exch sh neg G}!
/mx {2 copy lt {exch} if pop}!
/PSL_xorig 0 def /PSL_yorig 0 def
/TM {2 copy T PSL_yorig add /PSL_yorig edef PSL_xorig add /PSL_xorig edef}!
/PSL_reencode {findfont dup length dict begin
  {1 index /FID ne {def}{pop pop} ifelse} forall
  exch /Encoding edef currentdict end definefont pop
}!
/PSL_eps_begin {
  /PSL_eps_state save def
  /PSL_dict_count countdictstack def
  /PSL_op_count count 1 sub def
  userdict begin
  /showpage {} def
  0 setgray 0 setlinecap 1 setlinewidth
  0 setlinejoin 10 setmiterlimit [] 0 setdash newpath
  /languagelevel where
  {pop languagelevel 1 ne {false setstrokeadjust false setoverprint} if} if
}!
/PSL_eps_end {
  count PSL_op_count sub {pop} repeat
  countdictstack PSL_dict_count sub {end} repeat
  PSL_eps_state restore
}!
/PSL_transp {
  /.setopacityalpha where {pop .setblendmode .setopacityalpha}{
  /pdfmark where {pop [ /BM exch /CA exch dup /ca exch /SetTransparency pdfmark}
  {pop pop} ifelse} ifelse
}!
/ISOLatin1+_Encoding [
/.notdef	/.notdef	/.notdef	/.notdef	/.notdef	/.notdef	/.notdef	/.notdef
/.notdef	/.notdef	/.notdef	/.notdef	/.notdef	/.notdef	/.notdef	/.notdef
/.notdef	/.notdef	/.notdef	/.notdef	/.notdef	/.notdef	/.notdef	/.notdef
/.notdef	/bullet		/ellipsis	/trademark	/emdash		/endash		/fi		/zcaron
/space		/exclam		/quotedbl	/numbersign	/dollar		/percent	/ampersand	/quoteright
/parenleft	/parenright	/asterisk	/plus		/comma		/minus		/period		/slash
/zero		/one		/two		/three		/four		/five		/six		/seven
/eight		/nine		/colon		/semicolon	/less		/equal		/greater	/question
/at		/A		/B		/C		/D		/E		/F		/G
/H		/I		/J		/K		/L		/M		/N		/O
/P		/Q		/R		/S		/T		/U		/V		/W
/X		/Y		/Z		/bracketleft	/backslash	/bracketright	/asciicircum	/underscore
/quoteleft	/a		/b		/c 		/d		/e		/f		/g
/h		/i		/j		/k		/l		/m		/n		/o
/p		/q		/r		/s		/t		/u		/v		/w
/x		/y		/z		/braceleft	/bar		/braceright	/asciitilde	/scaron
/OE		/dagger		/daggerdbl	/Lslash		/fraction	/guilsinglleft	/Scaron		/guilsinglright
/oe		/Ydieresis	/Zcaron		/lslash		/perthousand	/quotedblbase	/quotedblleft	/quotedblright
/dotlessi	/grave		/acute		/circumflex	/tilde		/macron		/breve		/dotaccent
/dieresis	/quotesinglbase	/ring		/cedilla	/quotesingle	/hungarumlaut	/ogonek		/caron
/space		/exclamdown	/cent		/sterling	/currency	/yen		/brokenbar	/section
/dieresis	/copyright	/ordfeminine	/guillemotleft	/logicalnot	/hyphen		/registered	/macron
/degree		/plusminus	/twosuperior	/threesuperior	/acute		/mu		/paragraph	/periodcentered
/cedilla	/onesuperior	/ordmasculine	/guillemotright	/onequarter	/onehalf	/threequarters	/questiondown
/Agrave		/Aacute		/Acircumflex	/Atilde		/Adieresis	/Aring		/AE		/Ccedilla
/Egrave		/Eacute		/Ecircumflex	/Edieresis	/Igrave		/Iacute		/Icircumflex	/Idieresis
/Eth		/Ntilde		/Ograve		/Oacute		/Ocircumflex	/Otilde		/Odieresis	/multiply
/Oslash		/Ugrave		/Uacute		/Ucircumflex	/Udieresis	/Yacute		/Thorn		/germandbls
/agrave		/aacute		/acircumflex	/atilde		/adieresis	/aring		/ae		/ccedilla
/egrave		/eacute		/ecircumflex	/edieresis	/igrave		/iacute		/icircumflex	/idieresis
/eth		/ntilde		/ograve		/oacute		/ocircumflex	/otilde		/odieresis	/divide
/oslash		/ugrave		/uacute		/ucircumflex	/udieresis	/yacute		/thorn		/ydieresis
] def
/PSL_font_encode 0 0 0 0 0 0 0 0 0 0 0 0 0 0 0 0 0 0 0 0 0 0 0 0 0 0 0 0 0 0 0 0 0 0 0 0 0 0 0 39 array astore def
/F0 {/Helvetica Y}!
/F1 {/Helvetica-Bold Y}!
/F2 {/Helvetica-Oblique Y}!
/F3 {/Helvetica-BoldOblique Y}!
/F4 {/Times-Roman Y}!
/F5 {/Times-Bold Y}!
/F6 {/Times-Italic Y}!
/F7 {/Times-BoldItalic Y}!
/F8 {/Courier Y}!
/F9 {/Courier-Bold Y}!
/F10 {/Courier-Oblique Y}!
/F11 {/Courier-BoldOblique Y}!
/F12 {/Symbol Y}!
/F13 {/AvantGarde-Book Y}!
/F14 {/AvantGarde-BookOblique Y}!
/F15 {/AvantGarde-Demi Y}!
/F16 {/AvantGarde-DemiOblique Y}!
/F17 {/Bookman-Demi Y}!
/F18 {/Bookman-DemiItalic Y}!
/F19 {/Bookman-Light Y}!
/F20 {/Bookman-LightItalic Y}!
/F21 {/Helvetica-Narrow Y}!
/F22 {/Helvetica-Narrow-Bold Y}!
/F23 {/Helvetica-Narrow-Oblique Y}!
/F24 {/Helvetica-Narrow-BoldOblique Y}!
/F25 {/NewCenturySchlbk-Roman Y}!
/F26 {/NewCenturySchlbk-Italic Y}!
/F27 {/NewCenturySchlbk-Bold Y}!
/F28 {/NewCenturySchlbk-BoldItalic Y}!
/F29 {/Palatino-Roman Y}!
/F30 {/Palatino-Italic Y}!
/F31 {/Palatino-Bold Y}!
/F32 {/Palatino-BoldItalic Y}!
/F33 {/ZapfChancery-MediumItalic Y}!
/F34 {/ZapfDingbats Y}!
/F35 {/Ryumin-Light-EUC-H Y}!
/F36 {/Ryumin-Light-EUC-V Y}!
/F37 {/GothicBBB-Medium-EUC-H Y}!
/F38 {/GothicBBB-Medium-EUC-V Y}!
/PSL_pathtextdict 26 dict def
/PSL_pathtext
  {PSL_pathtextdict begin
    /textheight exch def
    /just exch def
    /offset exch def
    /str exch def
    /pathdist 0 def
    /setdist offset def
    /charcount 0 def
    /justy just 4 idiv textheight mul 2 div neg def
    V flattenpath
	{movetoproc} {linetoproc}
	{curvetoproc} {closepathproc}
	pathforall
    U N
    end
  } def
PSL_pathtextdict begin
/movetoproc
  { /newy exch def /newx exch def
    /firstx newx def /firsty newy def
    /ovr 0 def
    newx newy transform
    /cpy exch def /cpx exch def
  } def
/linetoproc
  { /oldx newx def /oldy newy def
    /newy exch def /newx exch def
    /dx newx oldx sub def
    /dy newy oldy sub def
    /dist dx dup mul dy dup mul add sqrt def
    dist 0 ne
    { /dsx dx dist div ovr mul def
      /dsy dy dist div ovr mul def
      oldx dsx add oldy dsy add transform
      /cpy exch def /cpx exch def
      /pathdist pathdist dist add def
      {setdist pathdist le
	  {charcount str length lt
	      {setchar} {exit} ifelse}
	  { /ovr setdist pathdist sub def
	    exit}
	  ifelse
      } loop
    } if
  } def
/curvetoproc
  { (ERROR: No curveto's after flattenpath!)
    print
  } def
/closepathproc
  {firstx firsty linetoproc
    firstx firsty movetoproc
  } def
/setchar
  { /char str charcount 1 getinterval def
    /charcount charcount 1 add def
    /charwidth char stringwidth pop def
    V cpx cpy itransform T
      dy dx atan R
      0 justy M
      char show
      0 justy neg G
      currentpoint transform
      /cpy exch def /cpx exch def
    U /setdist setdist charwidth add def
  } def
end
/PSL_curved_text_labels
{ /bits exch def
  /PSL_clippath bits 1 and 1 eq def
  /PSL_placetext bits 2 and 0 eq def
  /PSL_strokeline bits 4 and 4 eq def
  /PSL_firstcall bits 32 and 32 eq def
  /PSL_lastcall bits 64 and 64 eq def
  /PSL_fillbox bits 128 and 128 eq def
  /PSL_drawbox bits 256 and 256 eq def
  /PSL_n1 PSL_n 1 sub def
  /PSL_m1 PSL_m 1 sub def
  /PSL_usebox PSL_fillbox PSL_drawbox or def
  PSL_CT_calcstringwidth
  PSL_CT_calclinedist
  PSL_CT_addcutpoints
  PSL_clippath PSL_firstcall and
  {clipsave N clippath} if
  PSL_setlinepen
  /PSL_nn1 PSL_nn 1 sub def
  /n 0 def
  /k 0 def
  /j 0 def
  /PSL_seg 0 def
  /PSL_xp PSL_nn array def
  /PSL_yp PSL_nn array def
  PSL_xp 0 PSL_xx 0 get put
  PSL_yp 0 PSL_yy 0 get put
  1 1 PSL_nn1
  { /i exch def
    /node_type PSL_kind i get def
    /j j 1 add def
    PSL_xp j PSL_xx i get put
    PSL_yp j PSL_yy i get put
    node_type 1 eq
    {n 0 eq
      {PSL_CT_drawline}
      {	PSL_CT_reversepath
	PSL_CT_textline} ifelse
      /j 0 def
      PSL_xp j PSL_xx i get put
      PSL_yp j PSL_yy i get put
    } if
  } for
  n 0 eq {PSL_CT_drawline} if
  PSL_lastcall
  {PSL_clippath
    {PSL_clip} if N
  } if
} def
/PSL_CT_textline
{PSL_placetext
  {PSL_clippath
    {PSL_CT_clippath} {PSL_CT_placelabel} ifelse
  } if
  /n 0 def /k k 1 add def PSL_setlinepen
} def
/PSL_CT_calcstringwidth
{ /PSL_width PSL_m array def
  0 1 PSL_m1
  { /i exch def
    PSL_width i PSL_str i get stringwidth pop put
  } for
} def
/PSL_CT_calclinedist
{ /PSL_newx PSL_x 0 get def
  /PSL_newy PSL_y 0 get def
  /dist 0.0 def
  /PSL_dist PSL_n array def
  PSL_dist 0 0.0 put
  1 1 PSL_n1
  { /i exch def
    /PSL_oldx PSL_newx def
    /PSL_oldy PSL_newy def
    /PSL_newx PSL_x i get def
    /PSL_newy PSL_y i get def
    /dx PSL_newx PSL_oldx sub def
    /dy PSL_newy PSL_oldy sub def
    /dist dist dx dx mul dy dy mul add sqrt add def
    PSL_dist i dist put
  } for
} def
/PSL_CT_addcutpoints
{ /k 0 def
  /PSL_nc PSL_m 2 mul 1 add def
  /PSL_cuts PSL_nc array def
  /PSL_nc1 PSL_nc 1 sub def
  0 1 PSL_m1
  { /i exch def
    /dist PSL_dist PSL_node i get get def
    /halfwidth PSL_width i get 2 div PSL_gap_x add def
    PSL_cuts k dist halfwidth sub put
    /k k 1 add def
    PSL_cuts k dist halfwidth add put
    /k k 1 add def
  } for
  PSL_cuts k 100000.0 put
  /PSL_nn PSL_n PSL_m 2 mul add def
  /PSL_xx PSL_nn array def
  /PSL_yy PSL_nn array def
  /PSL_kind PSL_nn array def
  /j 0 def
  /k 0 def
  /dist 0.0 def
  0 1 PSL_n1
  { /i exch def
    /last_dist dist def
    /dist PSL_dist i get def
    k 1 PSL_nc1
    { /kk exch def
      /this_cut PSL_cuts kk get def
      dist this_cut gt
      { /ds dist last_dist sub def
	/f ds 0.0 eq {0.0} {dist this_cut sub ds div} ifelse def
	/i1 i 0 eq {0} {i 1 sub} ifelse def
	PSL_xx j PSL_x i get dup PSL_x i1 get sub f mul sub put
	PSL_yy j PSL_y i get dup PSL_y i1 get sub f mul sub put
	PSL_kind j 1 put
	/j j 1 add def
	/k k 1 add def
      } if
    } for
    dist PSL_cuts k get le
    {PSL_xx j PSL_x i get put PSL_yy j PSL_y i get put
      PSL_kind j 0 put
      /j j 1 add def
    } if
  } for
} def
/PSL_CT_reversepath
{PSL_xp j get PSL_xp 0 get lt
  {0 1 j 2 idiv
    { /left exch def
      /right j left sub def
      /tmp PSL_xp left get def
      PSL_xp left PSL_xp right get put
      PSL_xp right tmp put
      /tmp PSL_yp left get def
      PSL_yp left PSL_yp right get put
      PSL_yp right tmp put
    } for
  } if
} def
/PSL_CT_placelabel
{
  PSL_usebox
  {PSL_CT_clippath
    PSL_fillbox
    {V PSL_setboxrgb fill U} if
    PSL_drawbox
    {PSL_setboxpen S} if N
  } if
  PSL_settxtrgb PSL_CT_placeline PSL_str k get PSL_gap_x PSL_just PSL_height PSL_pathtext
} def
/PSL_CT_clippath
{
  /H PSL_height 2 div PSL_gap_y add def
  /xoff j 1 add array def
  /yoff j 1 add array def
  /angle 0 def
  0 1 j {
    /ii exch def
    /x PSL_xp ii get def
    /y PSL_yp ii get def
    ii 0 eq {
      /x1 PSL_xp 1 get def
      /y1 PSL_yp 1 get def
      /dx x1 x sub def
      /dy y1 y sub def
    }
    { /i1 ii 1 sub def
      /x1 PSL_xp i1 get def
      /y1 PSL_yp i1 get def
      /dx x x1 sub def
      /dy y y1 sub def
    } ifelse
    dx 0.0 ne dy 0.0 ne and
    { /angle dy dx atan 90 add def} if
    /sina angle sin def
    /cosa angle cos def
    xoff ii H cosa mul put
    yoff ii H sina mul put
  } for
  PSL_xp 0 get xoff 0 get add PSL_yp 0 get yoff 0 get add M
  1 1 j {
    /ii exch def
    PSL_xp ii get xoff ii get add PSL_yp ii get yoff ii get add L
  } for
  j -1 0 {
    /ii exch def
    PSL_xp ii get xoff ii get sub PSL_yp ii get yoff ii get sub L
  } for P
} def
/PSL_CT_drawline
{
  /str 20 string def
  PSL_strokeline
  {PSL_CT_placeline PSL_setlinepen S} if
  /PSL_seg PSL_seg 1 add def
  /n 1 def
} def
/PSL_CT_placeline
{PSL_xp 0 get PSL_yp 0 get M
  1 1 j { /ii exch def PSL_xp ii get PSL_yp ii get L} for
} def
/PSL_straight_text_labels
{
  /bits exch def
  /PSL_clippath bits 1 and 0 eq def
  /PSL_rounded bits 16 and 16 eq def
  /PSL_fillbox bits 128 and 128 eq def
  /PSL_drawbox bits 256 and 256 eq def
  /PSL_m1 PSL_m 1 sub def
  /PSL_justx PSL_just 4 mod 1 sub 2 div neg def
  /PSL_justy PSL_just 4 idiv PSL_height mul 2 div neg def
  /PSL_usebox PSL_fillbox PSL_drawbox or def
  PSL_clippath
  {PSL_ST_clippath}
  {PSL_usebox {PSL_ST_clippath} if
    PSL_ST_placelabel
  } ifelse
} def
/PSL_ST_placelabel
{PSL_settxtrgb
  0 1 PSL_m1
  { /k exch def
    /xp PSL_txt_x k get def
    /yp PSL_txt_y k get def
    V PSL_txt_x k get PSL_txt_y k get T
    PSL_angle k get R
    /BoxW PSL_str k get stringwidth pop def
    BoxW PSL_justx mul PSL_justy M
    PSL_str k get show
    U
  } for
} def
/PSL_ST_clippath
{N
  PSL_usebox not {clipsave clippath} if
  PSL_rounded {PSL_ST_clippath_round} {PSL_ST_clippath_rect} ifelse
  PSL_usebox
  {PSL_fillbox
    {V PSL_setboxrgb fill U} if
    PSL_drawbox
    {PSL_setboxpen S} if N
  }
  {PSL_clip
  } ifelse
  N
} def
/PSL_ST_clippath_rect
{
  /BoxH PSL_height PSL_gap_y 2 mul add def
  /DelY BoxH BoxH 0 3 array astore def
  0 1 PSL_m1
  { /k exch def
    /xp PSL_txt_x k get def
    /yp PSL_txt_y k get def
    /MAT PSL_angle k get matrix R def
    /BoxW PSL_str k get stringwidth pop PSL_gap_x 2 mul add def
    /x0 0 BoxW PSL_justx mul add def
    /y0 0 PSL_justy add PSL_gap_y sub def
    /DelX 0 BoxW BoxW 3 array astore def
    x0 y0 MAT transform
    /dy exch def /dx exch def
    xp dx add yp dy add M
    0 1 2
    {
      /ii exch def
      x0 DelX ii get add y0 DelY ii get add MAT transform
      /dy exch def /dx exch def
      xp dx add yp dy add L
    } for P
  } for
} def
/PSL_ST_clippath_round
{
  /PSL_justy2 PSL_just 4 idiv 2 div neg def
  /BoxR PSL_gap_x PSL_gap_y lt {PSL_gap_x} {PSL_gap_y} ifelse def
  /BoxH PSL_height PSL_gap_y 2 mul add def
  /y0 PSL_height PSL_gap_y 2 mul add PSL_justy2 mul def
  0 1 PSL_m1
  { /k exch def
    /xp PSL_txt_x k get def
    /yp PSL_txt_y k get def
    /BoxW PSL_str k get stringwidth pop PSL_gap_x 2 mul add def
    /x0 BoxW PSL_justx mul def
    xp yp T PSL_angle k get R x0 y0 T
    BoxR 0 M
    BoxW 0 BoxW BoxH BoxR arct BoxW BoxH 0 BoxH BoxR arct 0 BoxH 0 0 BoxR arct 0 0 BoxW 0 BoxR arct P
    x0 neg y0 neg T PSL_angle k get neg R xp neg yp neg T
  } for
} def
/PSL_nclip 0 def
/PSL_clip {clip /PSL_nclip PSL_nclip 1 add def} def
/PSL_eoclip {eoclip /PSL_nclip PSL_nclip 1 add def} def
/PSL_cliprestore {cliprestore /PSL_nclip PSL_nclip 1 sub def} def
%%EndProlog

%%BeginSetup
/PSLevel /languagelevel where {pop languagelevel} {1} ifelse def
PSLevel 1 gt { << /PageSize [595 842] /ImagingBBox null >> setpagedevice } if
%%EndSetup

%%Page: 1 1

%%BeginPageSetup
V 595 0 T 90 R 0.06 0.06 scale
%%EndPageSetup

/PSL_page_xsize 14033 def
/PSL_page_ysize 9917 def
0 A
FQ
O0
2400 6000 TM

% PostScript produced by:
%%GMT: psbasemap -R-75/-70/0/220 -JX8i/-2.5i -Bxa2.5+lLongitude [deg] -Bya20+lDepth [km] -BWeSn -X2i -Y5i -K
%%PROJ: xy -75.00000000 -70.00000000 0.00000000 220.00000000 -75.000 -70.000 220.000 -0.000 +xy +a=6378137.000 +b=6356752.314245
%%BeginObject PSL_Layer_1
0 setlinecap
0 setlinejoin
3.32551 setmiterlimit
2 setlinecap
/MM {neg exch M} def
/PSL_A0_y 83 def
/PSL_A1_y 0 def
25 W
0 3000 M 0 -3000 D S
8 W
0 3000 M -83 0 D S
0 2727 M -83 0 D S
0 2455 M -83 0 D S
0 2182 M -83 0 D S
0 1909 M -83 0 D S
0 1636 M -83 0 D S
0 1364 M -83 0 D S
0 1091 M -83 0 D S
0 818 M -83 0 D S
0 545 M -83 0 D S
0 273 M -83 0 D S
0 0 M -83 0 D S
/PSL_AH0 0
PSL_font_encode 0 get 0 eq {ISOLatin1+_Encoding /Helvetica /Helvetica PSL_reencode PSL_font_encode 0 1 put} if
200 F0
(0) sw mx
(20) sw mx
(40) sw mx
(60) sw mx
(80) sw mx
(100) sw mx
(120) sw mx
(140) sw mx
(160) sw mx
(180) sw mx
(200) sw mx
(220) sw mx
def
/PSL_A0_y PSL_A0_y 83 add def
3000 PSL_A0_y MM
(0) mr Z
2727 PSL_A0_y MM
(20) mr Z
2455 PSL_A0_y MM
(40) mr Z
2182 PSL_A0_y MM
(60) mr Z
1909 PSL_A0_y MM
(80) mr Z
1636 PSL_A0_y MM
(100) mr Z
1364 PSL_A0_y MM
(120) mr Z
1091 PSL_A0_y MM
(140) mr Z
818 PSL_A0_y MM
(160) mr Z
545 PSL_A0_y MM
(180) mr Z
273 PSL_A0_y MM
(200) mr Z
0 PSL_A0_y MM
(220) mr Z
/PSL_A0_y PSL_A0_y PSL_AH0 add def
/PSL_LH 267 F0
(M) sh def
/PSL_L_y PSL_A0_y PSL_A1_y mx 133 add def
1500 PSL_L_y MM
V 90 R (Depth \[km\]) bc Z U
9600 0 T
/MM {exch M} def
/PSL_A0_y 83 def
/PSL_A1_y 0 def
25 W
0 3000 M 0 -3000 D S
8 W
0 3000 M 83 0 D S
0 2727 M 83 0 D S
0 2455 M 83 0 D S
0 2182 M 83 0 D S
0 1909 M 83 0 D S
0 1636 M 83 0 D S
0 1364 M 83 0 D S
0 1091 M 83 0 D S
0 818 M 83 0 D S
0 545 M 83 0 D S
0 273 M 83 0 D S
0 0 M 83 0 D S
/PSL_LH 0 def /PSL_L_y PSL_A0_y PSL_A1_y mx def
-9600 0 T
/MM {neg M} def
/PSL_A0_y 83 def
/PSL_A1_y 0 def
25 W
0 0 M 9600 0 D S
8 W
0 0 M 0 -83 D S
4800 0 M 0 -83 D S
9600 0 M 0 -83 D S
/PSL_AH0 0
200 F0
(-75.0) sh mx
(-72.5) sh mx
(-70.0) sh mx
def
/PSL_A0_y PSL_A0_y 83 add PSL_AH0 add def
0 PSL_A0_y MM
(-75.0) bc Z
4800 PSL_A0_y MM
(-72.5) bc Z
9600 PSL_A0_y MM
(-70.0) bc Z
/PSL_LH 267 F0
(M) sh def
/PSL_L_y PSL_A0_y PSL_A1_y mx 133 add PSL_LH add def
4800 PSL_L_y MM
(Longitude \[deg\]) bc Z
0 3000 T
/MM {M} def
/PSL_A0_y 83 def
/PSL_A1_y 0 def
25 W
0 0 M 9600 0 D S
8 W
0 0 M 0 83 D S
4800 0 M 0 83 D S
9600 0 M 0 83 D S
/PSL_LH 0 def /PSL_L_y PSL_A0_y PSL_A1_y mx def
0 -3000 T
0 setlinecap
%%EndObject
0 A
FQ
O0
0 0 TM

% PostScript produced by:
%%GMT: psxy -R-75/-70/0/220 -JX8i/-2.5i -Wthinnest -N -O -K
%%PROJ: xy -75.00000000 -70.00000000 0.00000000 220.00000000 -75.000 -70.000 220.000 -0.000 +xy +a=6378137.000 +b=6356752.314245
%%BeginObject PSL_Layer_2
0 setlinecap
0 setlinejoin
3.32551 setmiterlimit
4 W
2334 2984 M
352 13 D
S
7861 2997 M
-246 2 D
S
7868 2841 M
-327 153 D
S
8198 2747 M
-232 230 D
S
8114 2592 M
-471 319 D
S
6377 2999 M
-309 0 D
S
7298 2592 M
-414 407 D
S
1983 2720 M
351 -301 D
S
5245 2539 M
113 -118 D
S
2306 2989 M
0 -405 D
S
6848 2997 M
-196 0 D
S
8121 2524 M
-520 357 D
S
8044 2605 M
-457 298 D
S
8578 2515 M
-429 180 D
S
7805 2997 M
-50 -142 D
S
8030 2736 M
-542 196 D
S
8058 2533 M
-556 428 D
S
8198 2747 M
-478 250 D
S
4373 2693 M
-239 302 D
S
7059 2355 M
239 536 D
S
6131 2989 M
183 8 D
S
8265 2942 M
-271 -103 D
S
3136 2992 M
-84 -53 D
S
2967 2603 M
-464 -206 D
S
1814 2731 M
-141 170 D
S
6033 2709 M
-253 288 D
S
3220 2528 M
-590 411 D
S
3530 2997 M
56 -730 D
S
5498 2677 M
29 320 D
S
2770 2683 M
-84 314 D
S
7327 2997 M
-345 2 D
S
8030 2640 M
-317 337 D
S
2545 2960 M
197 -363 D
S
8002 2837 M
-443 162 D
S
7861 2725 M
-352 270 D
S
8142 2587 M
-534 277 D
S
8297 2995 M
-225 0 D
S
7769 2951 M
-295 48 D
S
7720 2997 M
134 -534 D
S
7720 2859 M
-140 53 D
S
7819 2733 M
-429 226 D
S
1223 2997 M
-126 -2 D
S
5597 2995 M
-155 2 D
S
8255 2773 M
-366 224 D
S
4964 2624 M
-98 -24 D
S
3797 2877 M
0 118 D
S
8044 2947 M
-201 -233 D
S
7917 2827 M
-309 170 D
S
8093 2844 M
-320 62 D
S
7917 2827 M
-256 159 D
S
7017 2523 M
-450 474 D
S
7889 2501 M
-513 386 D
S
8058 2800 M
-317 199 D
S
7973 2757 M
-372 148 D
S
6061 2997 M
84 0 D
S
6314 2843 M
745 -2227 D
S
7017 2560 M
-119 439 D
S
7861 2507 M
-527 492 D
S
8002 2997 M
-306 2 D
S
7917 2581 M
-513 418 D
S
8536 2837 M
-105 -76 D
S
5948 2997 M
-1371 2 D
S
8198 2859 M
-457 33 D
S
2834 2999 M
28 0 D
S
7720 2805 M
-443 194 D
S
3572 2995 M
-324 2 D
S
8339 2389 M
-626 490 D
S
5752 2997 M
-275 2 D
S
4971 2999 M
-14 0 D
S
2011 2997 M
-225 0 D
S
7903 2739 M
-471 193 D
S
8072 2952 M
-443 -17 D
S
7369 2541 M
-155 456 D
S
6286 2997 M
-113 0 D
S
8198 2517 M
-569 468 D
S
9028 2995 M
-56 -459 D
S
8128 2995 M
-84 -70 D
S
2911 2795 M
-492 2 D
S
8480 2667 M
-338 160 D
S
8227 2619 M
-486 380 D
S
2939 2427 M
-647 570 D
S
8086 2949 M
-288 39 D
S
1828 2653 M
-14 344 D
S
8297 2451 M
-556 401 D
S
7552 2997 M
-162 2 D
S
2011 2923 M
-162 76 D
S
8255 2320 M
-703 677 D
S
5569 2883 M
-380 114 D
S
7833 2619 M
-531 303 D
S
7692 2672 M
-429 327 D
S
8859 2472 M
-492 173 D
S
8030 2997 M
140 0 D
S
6286 2693 M
-317 306 D
S
6370 2976 M
7 23 D
S
5639 2811 M
-394 85 D
S
5456 2989 M
-161 10 D
S
2939 2997 M
-169 -432 D
S
3262 2723 M
-14 -1038 D
S
7467 2379 M
-900 618 D
S
8135 2700 M
-492 216 D
S
7692 2704 M
-619 272 D
S
8030 2715 M
-443 212 D
S
3445 2181 M
-211 814 D
S
7805 2459 M
-464 440 D
S
8142 2939 M
-358 -63 D
S
8255 2672 M
-535 320 D
S
2067 2997 M
-183 -2 D
S
7284 2355 M
-977 644 D
S
7903 2653 M
-401 346 D
S
7748 2821 M
-457 178 D
S
8606 2520 M
-63 207 D
S
7763 2552 M
-387 420 D
S
5133 2907 M
-324 -392 D
S
8227 2485 M
-612 463 D
S
8227 2875 M
-373 124 D
S
8156 2541 M
-98 248 D
S
2447 2995 M
-56 -352 D
S
2602 2736 M
-99 -211 D
S
7777 2997 M
-345 -84 D
S
6567 2987 M
-91 12 D
S
7889 2837 M
-316 162 D
S
8086 2768 M
-478 224 D
S
8283 2997 M
-345 2 D
S
8058 2416 M
-577 467 D
S
8423 2464 M
-499 476 D
S
5273 2997 M
-393 0 D
S
7847 2472 M
-492 467 D
S
5878 2995 M
3722 -1096 D
S
7010 2292 M
-1118 705 D
S
5217 2864 M
-141 133 D
S
8170 2720 M
-330 124 D
S
8170 2875 M
-330 6 D
S
8339 2821 M
-415 175 D
S
1645 2997 M
141 -85 D
S
2672 2995 M
-28 -6 D
S
7861 2523 M
-584 476 D
S
5105 2832 M
-338 -107 D
S
1378 2685 M
-225 310 D
S
8170 2843 M
-513 102 D
S
3234 2995 M
-422 -16 D
S
7945 2661 M
-513 300 D
S
2236 2997 M
394 0 D
S
7903 2749 M
-373 175 D
S
8648 2560 M
-393 373 D
S
2714 2843 M
-70 -152 D
S
8002 2800 M
-443 199 D
S
6398 2384 M
-407 611 D
S
7221 2788 M
-84 211 D
S
8142 2549 M
-443 346 D
S
8142 2443 M
-351 210 D
S
6230 2709 M
-28 288 D
S
1941 2995 M
-57 0 D
S
7847 2781 M
-303 63 D
S
7734 2995 M
-316 -76 D
S
2756 2648 M
-647 304 D
S
8311 2859 M
-401 -44 D
S
8198 2784 M
-421 101 D
S
7720 2635 M
-499 364 D
S
7889 2459 M
-569 489 D
S
8170 2901 M
-330 98 D
S
7973 2864 M
-443 135 D
S
7805 2720 M
-429 164 D
S
1617 2997 M
-70 -472 D
S
7973 2784 M
-344 215 D
S
2236 2997 M
141 -16 D
S
8339 2491 M
-921 449 D
S
8002 2800 M
-282 197 D
S
7973 2917 M
-302 79 D
S
7748 2613 M
-428 346 D
S
6722 2973 M
-99 24 D
S
8367 2736 M
-443 255 D
S
8227 2053 M
-872 928 D
S
8142 2763 M
-56 0 D
S
6947 2995 M
-492 2 D
S
6455 2725 M
-225 -10 D
S
2897 2995 M
0 0 D
P S
6103 2952 M
-239 45 D
S
8311 2651 M
-218 164 D
S
2320 2907 M
-77 92 D
S
7284 2813 M
-35 186 D
S
7917 2635 M
-612 364 D
S
8128 2845 M
-464 78 D
S
1997 2643 M
-281 352 D
S
6736 2997 M
-204 2 D
S
8086 2432 M
-668 516 D
S
8227 2891 M
-169 106 D
S
3586 2997 M
-225 -501 D
S
5948 2997 M
-196 0 D
S
8128 2717 M
-436 190 D
S
5372 2813 M
112 182 D
S
4627 2464 M
-563 533 D
S
8114 2736 M
-401 164 D
S
8086 2747 M
-506 234 D
S
2067 2715 M
-126 -296 D
S
8873 2421 M
-386 343 D
S
2124 2864 M
-155 61 D
S
2095 2997 M
57 -69 D
S
2602 2811 M
-141 186 D
S
3417 2997 M
78 2 D
S
6834 2579 M
-358 420 D
S
8086 2741 M
-499 170 D
S
2222 2664 M
-394 160 D
S
3530 2997 M
337 0 D
S
8065 2673 M
-380 206 D
S
1631 2904 M
-323 67 D
S
5147 2995 M
-56 -534 D
S
8142 2587 M
-541 404 D
S
8227 2453 M
-443 370 D
S
4359 2664 M
-182 269 D
S
8198 2485 M
-668 468 D
S
8086 2763 M
-415 217 D
S
7945 2603 M
-562 394 D
S
1898 2981 M
-126 14 D
S
6230 2907 M
-253 90 D
S
7861 2837 M
-246 151 D
S
3361 2629 M
-134 370 D
S
6567 2997 M
-91 2 D
S
7903 2685 M
-443 298 D
S
8705 2443 M
-204 300 D
S
8227 2571 M
-155 -3 D
S
8149 2889 M
-362 110 D
S
7172 2995 M
830 -590 D
S
8304 2511 M
-352 192 D
S
5864 2933 M
-647 -533 D
S
8184 2600 M
-415 399 D
S
5189 2635 M
-281 362 D
S
5808 2976 M
-28 21 D
S
8163 2849 M
-274 122 D
S
7720 2800 M
-196 133 D
S
8086 2507 M
-584 492 D
S
8051 2751 M
-640 241 D
S
7889 2837 M
-373 162 D
S
8086 2832 M
-309 0 D
S
7777 2880 M
-394 85 D
S
2531 2776 M
-239 147 D
S
7144 2605 M
-190 394 D
S
7861 2768 M
-317 231 D
S
7973 2827 M
169 -635 D
S
8501 2761 M
-218 103 D
S
5428 2781 M
-337 214 D
S
8311 2864 M
267 67 D
S
5344 2477 M
-324 19 D
S
8086 2784 M
-682 188 D
S
8311 2997 M
162 -244 D
S
7847 2536 M
-499 412 D
S
7917 2917 M
-274 82 D
S
8283 2357 M
-788 640 D
S
8255 2528 M
-584 465 D
S
6173 2816 M
-365 181 D
S
7720 2981 M
-147 18 D
S
8170 2923 M
-492 -24 D
S
7158 2997 M
-253 0 D
S
7959 2792 M
-527 183 D
S
3220 2997 M
-168 0 D
S
8128 2749 M
-246 116 D
S
5555 2587 M
-366 410 D
S
7720 2661 M
-485 338 D
S
1814 2709 M
84 54 D
S
7819 2563 M
-514 436 D
S
8107 2655 M
-380 152 D
S
3656 2712 M
-323 285 D
S
2883 2997 M
-85 0 D
S
8170 2997 M
-232 2 D
S
8381 2627 M
-387 372 D
S
8121 2799 M
-225 -70 D
S
7966 2759 M
-351 192 D
S
7861 2757 M
-401 242 D
S
8002 2784 M
-345 175 D
S
8030 2651 M
-478 330 D
S
7636 2933 M
-387 66 D
S
3333 2997 M
-267 -429 D
S
1898 2773 M
-168 112 D
S
7748 2848 M
-320 115 D
S
7973 2752 M
-506 245 D
S
7791 2963 M
-247 -55 D
S
8241 2525 M
-261 466 D
S
7945 2795 M
-443 196 D
S
7945 2843 M
-379 141 D
S
7017 2875 M
-394 122 D
S
7973 2747 M
-471 246 D
S
5456 2499 M
-365 496 D
S
8733 2677 M
-169 -229 D
S
4514 2997 M
-56 0 D
S
2124 2763 M
-183 -248 D
S
8198 2997 M
-365 -37 D
S
6103 2557 M
-534 -186 D
S
6089 2853 M
-281 144 D
S
7284 2995 M
-872 -486 D
S
8339 2789 M
-598 116 D
S
5203 2749 M
-436 248 D
S
8114 2859 M
-190 105 D
S
8114 2928 M
-155 67 D
S
8002 2704 M
-387 295 D
S
2320 2997 M
-112 0 D
S
7973 2795 M
-429 148 D
S
1561 2997 M
197 0 D
S
2728 2739 M
-42 -147 D
S
1842 2752 M
-337 245 D
S
8058 2555 M
-429 340 D
S
5787 2879 M
-626 118 D
S
2081 2456 M
-422 539 D
S
7777 2555 M
-605 386 D
S
7102 2608 M
-310 384 D
S
1758 2997 M
-113 0 D
S
5724 2997 M
-254 0 D
S
2489 2800 M
-197 48 D
S
2391 2835 M
-225 -86 D
S
3895 2619 M
-337 378 D
S
8016 2739 M
-408 189 D
S
7777 2832 M
-401 161 D
S
%%EndObject
0 A
FQ
O0
0 0 TM

% PostScript produced by:
%%GMT: psxy -R-75/-70/0/220 -JX8i/-2.5i -Sc0.12 -GSEAGREEN -Wthinnest -O -K
%%PROJ: xy -75.00000000 -70.00000000 0.00000000 220.00000000 -75.000 -70.000 220.000 -0.000 +xy +a=6378137.000 +b=6356752.314245
%%BeginObject PSL_Layer_3
0 setlinecap
0 setlinejoin
3.32551 setmiterlimit
clipsave
0 0 M
9600 0 D
0 3000 D
-9600 0 D
PSL_eoclip N
4 W
V
{0.18 0.545 0.341 C} FS
O1
28 2334 2984 Sc
28 7861 2997 Sc
28 7868 2841 Sc
28 8198 2747 Sc
28 8114 2592 Sc
28 6377 2999 Sc
28 7298 2592 Sc
28 1983 2720 Sc
28 5245 2539 Sc
28 2306 2989 Sc
28 6848 2997 Sc
28 8121 2524 Sc
28 8044 2605 Sc
28 8578 2515 Sc
28 7805 2997 Sc
28 8030 2736 Sc
28 8058 2533 Sc
28 8198 2747 Sc
28 4373 2693 Sc
28 7059 2355 Sc
28 6131 2989 Sc
28 8265 2942 Sc
28 3136 2992 Sc
28 2967 2603 Sc
28 1814 2731 Sc
28 6033 2709 Sc
28 3220 2528 Sc
28 3530 2997 Sc
28 5498 2677 Sc
28 2770 2683 Sc
28 7327 2997 Sc
28 8030 2640 Sc
28 2545 2960 Sc
28 8002 2837 Sc
28 7861 2725 Sc
28 8142 2587 Sc
28 8297 2995 Sc
28 7769 2951 Sc
28 7720 2997 Sc
28 7720 2859 Sc
28 7819 2733 Sc
28 1223 2997 Sc
28 5597 2995 Sc
28 8255 2773 Sc
28 4964 2624 Sc
28 3797 2877 Sc
28 8044 2947 Sc
28 7917 2827 Sc
28 8093 2844 Sc
28 7917 2827 Sc
28 7017 2523 Sc
28 7889 2501 Sc
28 8058 2800 Sc
28 7973 2757 Sc
28 6061 2997 Sc
28 6314 2843 Sc
28 7017 2560 Sc
28 7861 2507 Sc
28 8002 2997 Sc
28 7917 2581 Sc
28 8536 2837 Sc
28 5948 2997 Sc
28 8198 2859 Sc
28 2834 2999 Sc
28 7720 2805 Sc
28 3572 2995 Sc
28 8339 2389 Sc
28 5752 2997 Sc
28 4971 2999 Sc
28 2011 2997 Sc
28 7903 2739 Sc
28 8072 2952 Sc
28 7369 2541 Sc
28 6286 2997 Sc
28 8198 2517 Sc
28 9028 2995 Sc
28 8128 2995 Sc
28 2911 2795 Sc
28 8480 2667 Sc
28 8227 2619 Sc
28 2939 2427 Sc
28 8086 2949 Sc
28 1828 2653 Sc
28 8297 2451 Sc
28 7552 2997 Sc
28 2011 2923 Sc
28 8255 2320 Sc
28 5569 2883 Sc
28 7833 2619 Sc
28 7692 2672 Sc
28 8859 2472 Sc
28 8030 2997 Sc
28 6286 2693 Sc
28 6370 2976 Sc
28 5639 2811 Sc
28 5456 2989 Sc
28 2939 2997 Sc
28 3262 2723 Sc
28 7467 2379 Sc
28 8135 2700 Sc
28 7692 2704 Sc
28 8030 2715 Sc
28 3445 2181 Sc
28 7805 2459 Sc
28 8142 2939 Sc
28 8255 2672 Sc
28 2067 2997 Sc
28 7284 2355 Sc
28 7903 2653 Sc
28 7748 2821 Sc
28 8606 2520 Sc
28 7763 2552 Sc
28 5133 2907 Sc
28 8227 2485 Sc
28 8227 2875 Sc
28 8156 2541 Sc
28 2447 2995 Sc
28 2602 2736 Sc
28 7777 2997 Sc
28 6567 2987 Sc
28 7889 2837 Sc
28 8086 2768 Sc
28 8283 2997 Sc
28 8058 2416 Sc
28 8423 2464 Sc
28 5273 2997 Sc
28 7847 2472 Sc
28 5878 2995 Sc
28 7010 2292 Sc
28 5217 2864 Sc
28 8170 2720 Sc
28 8170 2875 Sc
28 8339 2821 Sc
28 1645 2997 Sc
28 2672 2995 Sc
28 7861 2523 Sc
28 5105 2832 Sc
28 1378 2685 Sc
28 8170 2843 Sc
28 3234 2995 Sc
28 7945 2661 Sc
28 2236 2997 Sc
28 7903 2749 Sc
28 8648 2560 Sc
28 2714 2843 Sc
28 8002 2800 Sc
28 6398 2384 Sc
28 7221 2788 Sc
28 8142 2549 Sc
28 8142 2443 Sc
28 6230 2709 Sc
28 1941 2995 Sc
28 7847 2781 Sc
28 7734 2995 Sc
28 2756 2648 Sc
28 8311 2859 Sc
28 8198 2784 Sc
28 7720 2635 Sc
28 7889 2459 Sc
28 8170 2901 Sc
28 7973 2864 Sc
28 7805 2720 Sc
28 1617 2997 Sc
28 7973 2784 Sc
28 2236 2997 Sc
28 8339 2491 Sc
28 8002 2800 Sc
28 7973 2917 Sc
28 7748 2613 Sc
28 6722 2973 Sc
28 8367 2736 Sc
28 8227 2053 Sc
28 8142 2763 Sc
28 6947 2995 Sc
28 6455 2725 Sc
28 2897 2995 Sc
28 6103 2952 Sc
28 8311 2651 Sc
28 2320 2907 Sc
28 7284 2813 Sc
28 7917 2635 Sc
28 8128 2845 Sc
28 1997 2643 Sc
28 6736 2997 Sc
28 8086 2432 Sc
28 8227 2891 Sc
28 3586 2997 Sc
28 5948 2997 Sc
28 8128 2717 Sc
28 5372 2813 Sc
28 4627 2464 Sc
28 8114 2736 Sc
28 8086 2747 Sc
28 2067 2715 Sc
28 8873 2421 Sc
28 2124 2864 Sc
28 2095 2997 Sc
28 2602 2811 Sc
28 3417 2997 Sc
28 6834 2579 Sc
28 8086 2741 Sc
28 2222 2664 Sc
28 3530 2997 Sc
28 8065 2673 Sc
28 1631 2904 Sc
28 5147 2995 Sc
28 8142 2587 Sc
28 8227 2453 Sc
28 4359 2664 Sc
28 8198 2485 Sc
28 8086 2763 Sc
28 7945 2603 Sc
28 1898 2981 Sc
28 6230 2907 Sc
28 7861 2837 Sc
28 3361 2629 Sc
28 6567 2997 Sc
28 7903 2685 Sc
28 8705 2443 Sc
28 8227 2571 Sc
28 8149 2889 Sc
28 7172 2995 Sc
28 8304 2511 Sc
28 5864 2933 Sc
28 8184 2600 Sc
28 5189 2635 Sc
28 5808 2976 Sc
28 8163 2849 Sc
28 7720 2800 Sc
28 8086 2507 Sc
28 8051 2751 Sc
28 7889 2837 Sc
28 8086 2832 Sc
28 7777 2880 Sc
28 2531 2776 Sc
28 7144 2605 Sc
28 7861 2768 Sc
28 7973 2827 Sc
28 8501 2761 Sc
28 5428 2781 Sc
28 8311 2864 Sc
28 5344 2477 Sc
28 8086 2784 Sc
28 8311 2997 Sc
28 7847 2536 Sc
28 7917 2917 Sc
28 8283 2357 Sc
28 8255 2528 Sc
28 6173 2816 Sc
28 7720 2981 Sc
28 8170 2923 Sc
28 7158 2997 Sc
28 7959 2792 Sc
28 3220 2997 Sc
28 8128 2749 Sc
28 5555 2587 Sc
28 7720 2661 Sc
28 1814 2709 Sc
28 7819 2563 Sc
28 8107 2655 Sc
28 3656 2712 Sc
28 2883 2997 Sc
28 8170 2997 Sc
28 8381 2627 Sc
28 8121 2799 Sc
28 7966 2759 Sc
28 7861 2757 Sc
28 8002 2784 Sc
28 8030 2651 Sc
28 7636 2933 Sc
28 3333 2997 Sc
28 1898 2773 Sc
28 7748 2848 Sc
28 7973 2752 Sc
28 7791 2963 Sc
28 8241 2525 Sc
28 7945 2795 Sc
28 7945 2843 Sc
28 7017 2875 Sc
28 7973 2747 Sc
28 5456 2499 Sc
28 8733 2677 Sc
28 4514 2997 Sc
28 2124 2763 Sc
28 8198 2997 Sc
28 6103 2557 Sc
28 6089 2853 Sc
28 7284 2995 Sc
28 8339 2789 Sc
28 5203 2749 Sc
28 8114 2859 Sc
28 8114 2928 Sc
28 8002 2704 Sc
28 2320 2997 Sc
28 7973 2795 Sc
28 1561 2997 Sc
28 2728 2739 Sc
28 1842 2752 Sc
28 8058 2555 Sc
28 5787 2879 Sc
28 2081 2456 Sc
28 7777 2555 Sc
28 7102 2608 Sc
28 1758 2997 Sc
28 5724 2997 Sc
28 2489 2800 Sc
28 2391 2835 Sc
28 3895 2619 Sc
28 8016 2739 Sc
28 7777 2832 Sc
U
PSL_cliprestore
%%EndObject
0 A
FQ
O0
0 0 TM

% PostScript produced by:
%%GMT: psxy -R-75/-70/0/220 -JX8i/-2.5i -Sc0.12 -GGOLD -Wthinnest -O -K
%%PROJ: xy -75.00000000 -70.00000000 0.00000000 220.00000000 -75.000 -70.000 220.000 -0.000 +xy +a=6378137.000 +b=6356752.314245
%%BeginObject PSL_Layer_4
0 setlinecap
0 setlinejoin
3.32551 setmiterlimit
clipsave
0 0 M
9600 0 D
0 3000 D
-9600 0 D
PSL_eoclip N
4 W
V
{1 0.843 0 C} FS
O1
28 2686 2997 Sc
28 7615 2999 Sc
28 7541 2994 Sc
28 7966 2977 Sc
28 7643 2911 Sc
28 6068 2999 Sc
28 6884 2999 Sc
28 2334 2419 Sc
28 5358 2421 Sc
28 2306 2584 Sc
28 6652 2997 Sc
28 7601 2881 Sc
28 7587 2903 Sc
28 8149 2695 Sc
28 7755 2855 Sc
28 7488 2932 Sc
28 7502 2961 Sc
28 7720 2997 Sc
28 4134 2995 Sc
28 7298 2891 Sc
28 6314 2997 Sc
28 7994 2839 Sc
28 3052 2939 Sc
28 2503 2397 Sc
28 1673 2901 Sc
28 5780 2997 Sc
28 2630 2939 Sc
28 3586 2267 Sc
28 5527 2997 Sc
28 2686 2997 Sc
28 6982 2999 Sc
28 7713 2977 Sc
28 2742 2597 Sc
28 7559 2999 Sc
28 7509 2995 Sc
28 7608 2864 Sc
28 8072 2995 Sc
28 7474 2999 Sc
28 7854 2463 Sc
28 7580 2912 Sc
28 7390 2959 Sc
28 1097 2995 Sc
28 5442 2997 Sc
28 7889 2997 Sc
28 4866 2600 Sc
28 3797 2995 Sc
28 7843 2714 Sc
28 7608 2997 Sc
28 7773 2906 Sc
28 7661 2986 Sc
28 6567 2997 Sc
28 7376 2887 Sc
28 7741 2999 Sc
28 7601 2905 Sc
28 6145 2997 Sc
28 7059 616 Sc
28 6898 2999 Sc
28 7334 2999 Sc
28 7696 2999 Sc
28 7404 2999 Sc
28 8431 2761 Sc
28 4577 2999 Sc
28 7741 2892 Sc
28 2862 2999 Sc
28 7277 2999 Sc
28 3248 2997 Sc
28 7713 2879 Sc
28 5477 2999 Sc
28 4957 2999 Sc
28 1786 2997 Sc
28 7432 2932 Sc
28 7629 2935 Sc
28 7214 2997 Sc
28 6173 2997 Sc
28 7629 2985 Sc
28 8972 2536 Sc
28 8044 2925 Sc
28 2419 2797 Sc
28 8142 2827 Sc
28 7741 2999 Sc
28 2292 2997 Sc
28 7798 2988 Sc
28 1814 2997 Sc
28 7741 2852 Sc
28 7390 2999 Sc
28 1849 2999 Sc
28 7552 2997 Sc
28 5189 2997 Sc
28 7302 2922 Sc
28 7263 2999 Sc
28 8367 2645 Sc
28 8170 2997 Sc
28 5969 2999 Sc
28 6377 2999 Sc
28 5245 2896 Sc
28 5295 2999 Sc
28 2770 2565 Sc
28 3248 1685 Sc
28 6567 2997 Sc
28 7643 2916 Sc
28 7073 2976 Sc
28 7587 2927 Sc
28 3234 2995 Sc
28 7341 2899 Sc
28 7784 2876 Sc
28 7720 2992 Sc
28 1884 2995 Sc
28 6307 2999 Sc
28 7502 2999 Sc
28 7291 2999 Sc
28 8543 2727 Sc
28 7376 2972 Sc
28 4809 2515 Sc
28 7615 2948 Sc
28 7854 2999 Sc
28 8058 2789 Sc
28 2391 2643 Sc
28 2503 2525 Sc
28 7432 2913 Sc
28 6476 2999 Sc
28 7573 2999 Sc
28 7608 2992 Sc
28 7938 2999 Sc
28 7481 2883 Sc
28 7924 2940 Sc
28 4880 2997 Sc
28 7355 2939 Sc
28 5892 2997 Sc
28 5076 2997 Sc
28 7840 2844 Sc
28 7840 2881 Sc
28 7924 2996 Sc
28 1786 2912 Sc
28 2644 2989 Sc
28 7277 2999 Sc
28 4767 2725 Sc
28 1153 2995 Sc
28 7657 2945 Sc
28 2812 2979 Sc
28 7432 2961 Sc
28 2630 2997 Sc
28 7530 2924 Sc
28 8255 2933 Sc
28 2644 2691 Sc
28 7559 2999 Sc
28 5991 2995 Sc
28 7137 2999 Sc
28 7699 2895 Sc
28 7791 2653 Sc
28 6202 2997 Sc
28 1884 2995 Sc
28 7544 2844 Sc
28 7418 2919 Sc
28 2109 2952 Sc
28 7910 2815 Sc
28 7777 2885 Sc
28 7221 2999 Sc
28 7320 2948 Sc
28 7840 2999 Sc
28 7530 2999 Sc
28 7376 2884 Sc
28 1547 2525 Sc
28 7629 2999 Sc
28 2377 2981 Sc
28 7418 2940 Sc
28 7720 2997 Sc
28 7671 2996 Sc
28 7320 2959 Sc
28 6623 2997 Sc
28 7924 2991 Sc
28 7355 2981 Sc
28 8086 2763 Sc
28 6455 2997 Sc
28 6230 2715 Sc
28 2897 2995 Sc
28 5864 2997 Sc
28 8093 2815 Sc
28 2243 2999 Sc
28 7249 2999 Sc
28 7305 2999 Sc
28 7664 2923 Sc
28 1716 2995 Sc
28 6532 2999 Sc
28 7418 2948 Sc
28 8058 2997 Sc
28 3361 2496 Sc
28 5752 2997 Sc
28 7692 2907 Sc
28 5484 2995 Sc
28 4064 2997 Sc
28 7713 2900 Sc
28 7580 2981 Sc
28 1941 2419 Sc
28 8487 2764 Sc
28 1969 2925 Sc
28 2152 2928 Sc
28 2461 2997 Sc
28 3495 2999 Sc
28 6476 2999 Sc
28 7587 2911 Sc
28 1828 2824 Sc
28 3867 2997 Sc
28 7685 2879 Sc
28 1308 2971 Sc
28 5091 2461 Sc
28 7601 2991 Sc
28 7784 2823 Sc
28 4177 2933 Sc
28 7530 2953 Sc
28 7671 2980 Sc
28 7383 2997 Sc
28 1772 2995 Sc
28 5977 2997 Sc
28 7615 2988 Sc
28 3227 2999 Sc
28 6476 2999 Sc
28 7460 2983 Sc
28 8501 2743 Sc
28 8072 2568 Sc
28 7787 2999 Sc
28 8002 2405 Sc
28 7952 2703 Sc
28 5217 2400 Sc
28 7769 2999 Sc
28 4908 2997 Sc
28 5780 2997 Sc
28 7889 2971 Sc
28 7524 2933 Sc
28 7502 2999 Sc
28 7411 2992 Sc
28 7516 2999 Sc
28 7777 2832 Sc
28 7383 2965 Sc
28 2292 2923 Sc
28 6954 2999 Sc
28 7544 2999 Sc
28 8142 2192 Sc
28 8283 2864 Sc
28 5091 2995 Sc
28 8578 2931 Sc
28 5020 2496 Sc
28 7404 2972 Sc
28 8473 2753 Sc
28 7348 2948 Sc
28 7643 2999 Sc
28 7495 2997 Sc
28 7671 2993 Sc
28 5808 2997 Sc
28 7573 2999 Sc
28 7678 2899 Sc
28 6905 2997 Sc
28 7432 2975 Sc
28 3052 2997 Sc
28 7882 2865 Sc
28 5189 2997 Sc
28 7235 2999 Sc
28 1898 2763 Sc
28 7305 2999 Sc
28 7727 2807 Sc
28 3333 2997 Sc
28 2798 2997 Sc
28 7938 2999 Sc
28 7994 2999 Sc
28 7896 2729 Sc
28 7615 2951 Sc
28 7460 2999 Sc
28 7657 2959 Sc
28 7552 2981 Sc
28 7249 2999 Sc
28 3066 2568 Sc
28 1730 2885 Sc
28 7428 2963 Sc
28 7467 2997 Sc
28 7544 2908 Sc
28 7980 2991 Sc
28 7502 2991 Sc
28 7566 2984 Sc
28 6623 2997 Sc
28 7502 2993 Sc
28 5091 2995 Sc
28 8564 2448 Sc
28 4458 2997 Sc
28 1941 2515 Sc
28 7833 2960 Sc
28 5569 2371 Sc
28 5808 2997 Sc
28 6412 2509 Sc
28 7741 2905 Sc
28 4767 2997 Sc
28 7924 2964 Sc
28 7959 2995 Sc
28 7615 2999 Sc
28 2208 2997 Sc
28 7544 2943 Sc
28 1758 2997 Sc
28 2686 2592 Sc
28 1505 2997 Sc
28 7629 2895 Sc
28 5161 2997 Sc
28 1659 2995 Sc
28 7172 2941 Sc
28 6792 2992 Sc
28 1645 2997 Sc
28 5470 2997 Sc
28 2292 2848 Sc
28 2166 2749 Sc
28 3558 2997 Sc
28 7608 2928 Sc
28 7376 2993 Sc
U
PSL_cliprestore
%%EndObject
0 A
FQ
O0
0 -4800 TM

% PostScript produced by:
%%GMT: psbasemap -R-45/-14.5/0/220 -JX8i/-2.5i -Bxa2.5+lLatitude [deg] -Bya20+lDepth [km] -BWeSn -Y-4i -O -K
%%PROJ: xy -45.00000000 -14.50000000 0.00000000 220.00000000 -45.000 -14.500 220.000 -0.000 +xy +a=6378137.000 +b=6356752.314245
%%BeginObject PSL_Layer_5
0 setlinecap
0 setlinejoin
3.32551 setmiterlimit
2 setlinecap
/MM {neg exch M} def
/PSL_A0_y 83 def
/PSL_A1_y 0 def
25 W
0 3000 M 0 -3000 D S
8 W
0 3000 M -83 0 D S
0 2727 M -83 0 D S
0 2455 M -83 0 D S
0 2182 M -83 0 D S
0 1909 M -83 0 D S
0 1636 M -83 0 D S
0 1364 M -83 0 D S
0 1091 M -83 0 D S
0 818 M -83 0 D S
0 545 M -83 0 D S
0 273 M -83 0 D S
0 0 M -83 0 D S
/PSL_AH0 0
PSL_font_encode 0 get 0 eq {ISOLatin1+_Encoding /Helvetica /Helvetica PSL_reencode PSL_font_encode 0 1 put} if
200 F0
(0) sw mx
(20) sw mx
(40) sw mx
(60) sw mx
(80) sw mx
(100) sw mx
(120) sw mx
(140) sw mx
(160) sw mx
(180) sw mx
(200) sw mx
(220) sw mx
def
/PSL_A0_y PSL_A0_y 83 add def
3000 PSL_A0_y MM
(0) mr Z
2727 PSL_A0_y MM
(20) mr Z
2455 PSL_A0_y MM
(40) mr Z
2182 PSL_A0_y MM
(60) mr Z
1909 PSL_A0_y MM
(80) mr Z
1636 PSL_A0_y MM
(100) mr Z
1364 PSL_A0_y MM
(120) mr Z
1091 PSL_A0_y MM
(140) mr Z
818 PSL_A0_y MM
(160) mr Z
545 PSL_A0_y MM
(180) mr Z
273 PSL_A0_y MM
(200) mr Z
0 PSL_A0_y MM
(220) mr Z
/PSL_A0_y PSL_A0_y PSL_AH0 add def
/PSL_LH 267 F0
(M) sh def
/PSL_L_y PSL_A0_y PSL_A1_y mx 133 add def
1500 PSL_L_y MM
V 90 R (Depth \[km\]) bc Z U
9600 0 T
/MM {exch M} def
/PSL_A0_y 83 def
/PSL_A1_y 0 def
25 W
0 3000 M 0 -3000 D S
8 W
0 3000 M 83 0 D S
0 2727 M 83 0 D S
0 2455 M 83 0 D S
0 2182 M 83 0 D S
0 1909 M 83 0 D S
0 1636 M 83 0 D S
0 1364 M 83 0 D S
0 1091 M 83 0 D S
0 818 M 83 0 D S
0 545 M 83 0 D S
0 273 M 83 0 D S
0 0 M 83 0 D S
/PSL_LH 0 def /PSL_L_y PSL_A0_y PSL_A1_y mx def
-9600 0 T
/MM {neg M} def
/PSL_A0_y 83 def
/PSL_A1_y 0 def
25 W
0 0 M 9600 0 D S
8 W
0 0 M 0 -83 D S
787 0 M 0 -83 D S
1574 0 M 0 -83 D S
2361 0 M 0 -83 D S
3148 0 M 0 -83 D S
3934 0 M 0 -83 D S
4721 0 M 0 -83 D S
5508 0 M 0 -83 D S
6295 0 M 0 -83 D S
7082 0 M 0 -83 D S
7869 0 M 0 -83 D S
8656 0 M 0 -83 D S
9443 0 M 0 -83 D S
/PSL_AH0 0
200 F0
(-45.0) sh mx
(-42.5) sh mx
(-40.0) sh mx
(-37.5) sh mx
(-35.0) sh mx
(-32.5) sh mx
(-30.0) sh mx
(-27.5) sh mx
(-25.0) sh mx
(-22.5) sh mx
(-20.0) sh mx
(-17.5) sh mx
(-15.0) sh mx
def
/PSL_A0_y PSL_A0_y 83 add PSL_AH0 add def
0 PSL_A0_y MM
(-45.0) bc Z
787 PSL_A0_y MM
(-42.5) bc Z
1574 PSL_A0_y MM
(-40.0) bc Z
2361 PSL_A0_y MM
(-37.5) bc Z
3148 PSL_A0_y MM
(-35.0) bc Z
3934 PSL_A0_y MM
(-32.5) bc Z
4721 PSL_A0_y MM
(-30.0) bc Z
5508 PSL_A0_y MM
(-27.5) bc Z
6295 PSL_A0_y MM
(-25.0) bc Z
7082 PSL_A0_y MM
(-22.5) bc Z
7869 PSL_A0_y MM
(-20.0) bc Z
8656 PSL_A0_y MM
(-17.5) bc Z
9443 PSL_A0_y MM
(-15.0) bc Z
/PSL_LH 267 F0
(M) sh def
/PSL_L_y PSL_A0_y PSL_A1_y mx 133 add PSL_LH add def
4800 PSL_L_y MM
(Latitude \[deg\]) bc Z
0 3000 T
/MM {M} def
/PSL_A0_y 83 def
/PSL_A1_y 0 def
25 W
0 0 M 9600 0 D S
8 W
0 0 M 0 83 D S
787 0 M 0 83 D S
1574 0 M 0 83 D S
2361 0 M 0 83 D S
3148 0 M 0 83 D S
3934 0 M 0 83 D S
4721 0 M 0 83 D S
5508 0 M 0 83 D S
6295 0 M 0 83 D S
7082 0 M 0 83 D S
7869 0 M 0 83 D S
8656 0 M 0 83 D S
9443 0 M 0 83 D S
/PSL_LH 0 def /PSL_L_y PSL_A0_y PSL_A1_y mx def
0 -3000 T
0 setlinecap
%%EndObject
0 A
FQ
O0
0 0 TM

% PostScript produced by:
%%GMT: psxy -R-45/-14.5/0/220 -JX8i/-2.5i -Wthinnest -N -O -K
%%PROJ: xy -45.00000000 -14.50000000 0.00000000 220.00000000 -45.000 -14.500 220.000 -0.000 +xy +a=6378137.000 +b=6356752.314245
%%BeginObject PSL_Layer_6
0 setlinecap
0 setlinejoin
3.32551 setmiterlimit
4 W
2402 2984 M
-25 13 D
S
7951 2997 M
-24 2 D
S
7848 2841 M
-23 153 D
S
7684 2747 M
-25 230 D
S
7919 2592 M
-38 319 D
S
4808 2999 M
14 0 D
S
8444 2592 M
2 407 D
S
3345 2720 M
35 -301 D
S
3511 2539 M
-28 -118 D
S
2757 2989 M
-55 -405 D
S
9210 2997 M
4 0 D
S
7968 2524 M
-18 357 D
S
7903 2605 M
-34 298 D
S
7751 2515 M
-22 180 D
S
7919 2997 M
-36 -142 D
S
7983 2736 M
-33 196 D
S
7896 2533 M
-29 428 D
S
7873 2747 M
-28 250 D
S
3391 2693 M
-21 302 D
S
8793 2355 M
89 536 D
S
4435 2989 M
-20 8 D
S
8050 2942 M
-36 -103 D
S
3497 2992 M
-14 -53 D
S
2958 2603 M
-76 -206 D
S
2165 2731 M
-23 170 D
S
3954 2709 M
18 288 D
S
2815 2528 M
-32 411 D
S
2704 2997 M
55 -730 D
S
3502 2677 M
41 320 D
S
2912 2683 M
0 314 D
S
6139 2997 M
1 2 D
S
7919 2640 M
-8 337 D
S
2842 2960 M
-18 -363 D
S
7942 2837 M
-24 162 D
S
7753 2725 M
-39 270 D
S
7919 2587 M
-32 277 D
S
4726 2995 M
-19 0 D
S
7835 2951 M
-33 48 D
S
8108 2997 M
13 -534 D
S
7900 2859 M
-50 53 D
S
7903 2733 M
-31 226 D
S
3207 2997 M
-21 -2 D
S
4080 2995 M
-2 2 D
S
7688 2773 M
-23 224 D
S
3529 2624 M
-20 -24 D
S
3223 2877 M
9 118 D
S
6261 2947 M
49 -233 D
S
7725 2827 M
-27 170 D
S
7994 2844 M
-32 62 D
S
7836 2827 M
-10 159 D
S
5484 2523 M
10 474 D
S
8108 2501 M
-17 386 D
S
7850 2800 M
-36 199 D
S
7900 2757 M
-28 148 D
S
5973 2997 M
0 0 D
P S
3963 2843 M
210 -2227 D
S
5406 2560 M
29 439 D
S
7956 2507 M
-11 492 D
S
7956 2997 M
-41 2 D
S
7923 2581 M
-28 418 D
S
7863 2837 M
-42 -76 D
S
9233 2997 M
-73 2 D
S
8016 2859 M
-43 33 D
S
8572 2999 M
-9 0 D
S
7919 2805 M
-43 194 D
S
4127 2995 M
16 2 D
S
7873 2389 M
-20 490 D
S
4913 2997 M
8 2 D
S
5320 2999 M
23 0 D
S
2796 2997 M
-37 0 D
S
7999 2739 M
-26 193 D
S
7889 2952 M
-45 -17 D
S
5911 2541 M
25 456 D
S
5623 2997 M
-5 0 D
S
7933 2517 M
-25 468 D
S
9484 2995 M
-9 -459 D
S
7935 2995 M
23 -70 D
S
2833 2795 M
-39 2 D
S
7854 2667 M
-27 160 D
S
7827 2619 M
-20 380 D
S
2446 2427 M
-51 570 D
S
7790 2949 M
-34 39 D
S
3260 2653 M
7 344 D
S
7926 2451 M
-22 401 D
S
6324 2997 M
-4 2 D
S
2192 2923 M
-8 76 D
S
7928 2320 M
-9 677 D
S
3421 2883 M
-25 114 D
S
7919 2619 M
-17 303 D
S
8062 2672 M
-20 327 D
S
7861 2472 M
-25 173 D
S
7905 2997 M
46 0 D
S
8384 2693 M
-24 306 D
S
5199 2976 M
-15 23 D
S
3423 2811 M
-27 85 D
S
5837 2989 M
6 10 D
S
2981 2997 M
-46 -432 D
S
3486 2723 M
39 -1038 D
S
5397 2379 M
14 618 D
S
7955 2700 M
-28 216 D
S
7974 2704 M
-18 272 D
S
7965 2715 M
-8 212 D
S
3036 2181 M
-16 814 D
S
7914 2459 M
-7 440 D
S
8043 2939 M
-42 -63 D
S
7868 2672 M
-18 320 D
S
2515 2997 M
-48 -2 D
S
4910 2355 M
15 644 D
S
7732 2653 M
-36 346 D
S
8002 2821 M
-22 178 D
S
7681 2520 M
-38 207 D
S
7912 2552 M
-38 420 D
S
3599 2907 M
-44 -392 D
S
7900 2485 M
-24 463 D
S
7914 2875 M
-40 124 D
S
7737 2541 M
-35 248 D
S
2485 2995 M
-9 -352 D
S
2852 2736 M
-35 -211 D
S
7923 2997 M
-17 -84 D
S
8435 2987 M
-10 12 D
S
7721 2837 M
-27 162 D
S
7942 2768 M
-28 224 D
S
7647 2997 M
-43 2 D
S
7923 2416 M
-2 467 D
S
7831 2464 M
-24 476 D
S
3400 2997 M
-50 0 D
S
7926 2472 M
-12 467 D
S
3333 2995 M
-262 -2161 D
S
4785 2292 M
17 705 D
S
3506 2864 M
-32 133 D
S
7960 2720 M
-8 124 D
S
7836 2875 M
-27 6 D
S
7702 2821 M
-36 175 D
S
2478 2997 M
-27 -85 D
S
2513 2995 M
-32 -6 D
S
8076 2523 M
-18 476 D
S
3645 2832 M
-42 -107 D
S
3223 2685 M
9 310 D
S
8002 2843 M
-34 102 D
S
2457 2995 M
-4 -16 D
S
7905 2661 M
-36 300 D
S
2220 2997 M
-18 0 D
S
7917 2749 M
-34 175 D
S
7633 2560 M
-28 373 D
S
2783 2843 M
-26 -152 D
S
7937 2800 M
-26 199 D
S
3898 2384 M
44 611 D
S
5403 2788 M
11 211 D
S
7863 2549 M
-15 346 D
S
7882 2443 M
16 210 D
S
9270 2709 M
9 288 D
S
3121 2995 M
-9 0 D
S
7704 2781 M
-40 63 D
S
8018 2995 M
-24 -76 D
S
2628 2648 M
-23 304 D
S
8057 2859 M
-31 -44 D
S
7845 2784 M
-37 101 D
S
8071 2635 M
-15 364 D
S
7887 2459 M
-18 489 D
S
7905 2901 M
-31 98 D
S
7983 2864 M
-38 135 D
S
8122 2720 M
-27 164 D
S
2183 2997 M
-67 -472 D
S
7725 2784 M
-33 215 D
S
2727 2997 M
-9 -16 D
S
7910 2491 M
-34 449 D
S
7780 2800 M
-27 197 D
S
7785 2917 M
-31 79 D
S
8117 2613 M
-29 346 D
S
5298 2973 M
-16 24 D
S
7688 2736 M
-24 255 D
S
7928 2053 M
9 928 D
S
6549 2763 M
-9 0 D
S
5694 2995 M
53 2 D
S
3977 2725 M
-10 -10 D
S
1452 2995 M
-9 0 D
S
3914 2952 M
-30 45 D
S
7684 2651 M
-34 164 D
S
2211 2907 M
-4 92 D
S
6330 2813 M
-5 186 D
S
7928 2635 M
-24 364 D
S
7843 2845 M
-39 78 D
S
2467 2643 M
-28 352 D
S
7698 2997 M
-11 2 D
S
7956 2432 M
-11 516 D
S
7679 2891 M
-41 106 D
S
2746 2997 M
9 -501 D
S
6259 2997 M
-14 0 D
S
7834 2717 M
-30 190 D
S
3675 2813 M
-10 182 D
S
8693 2464 M
-23 533 D
S
7850 2736 M
-29 164 D
S
7960 2747 M
-23 234 D
S
2372 2715 M
-53 -296 D
S
7845 2421 M
-15 343 D
S
2331 2864 M
-16 61 D
S
2653 2997 M
0 -69 D
S
2852 2811 M
9 186 D
S
8670 2997 M
-10 2 D
S
5593 2579 M
8 420 D
S
7905 2741 M
-43 170 D
S
2236 2664 M
-37 160 D
S
2893 2997 M
-27 0 D
S
7895 2673 M
-21 206 D
S
3237 2904 M
-30 67 D
S
5390 2995 M
9 -534 D
S
7933 2587 M
-34 404 D
S
8011 2453 M
15 370 D
S
3324 2664 M
-20 269 D
S
7970 2485 M
-9 468 D
S
7836 2763 M
-29 217 D
S
7919 2603 M
-19 394 D
S
2119 2981 M
-21 14 D
S
3958 2907 M
0 90 D
S
7707 2837 M
-29 151 D
S
3055 2629 M
-4 370 D
S
7393 2997 M
-15 2 D
S
7926 2685 M
-24 298 D
S
7278 2443 M
-24 300 D
S
7716 2571 M
-21 -3 D
S
7890 2889 M
-28 110 D
S
5371 2995 M
-6 -590 D
S
7858 2511 M
-23 192 D
S
3935 2933 M
-37 -533 D
S
7824 2600 M
-31 399 D
S
3456 2635 M
-10 362 D
S
5613 2976 M
28 21 D
S
7911 2849 M
-29 122 D
S
7956 2800 M
-5 133 D
S
7919 2507 M
-13 492 D
S
6357 2751 M
-6 241 D
S
7928 2837 M
-31 162 D
S
8126 2832 M
-23 0 D
S
7905 2880 M
-28 85 D
S
2425 2776 M
-39 147 D
S
8382 2605 M
8 394 D
S
7707 2768 M
-15 231 D
S
7776 2827 M
-60 -635 D
S
7719 2761 M
-26 103 D
S
3453 2781 M
-9 214 D
S
7656 2864 M
-16 67 D
S
3458 2477 M
-21 19 D
S
7905 2784 M
-47 188 D
S
7970 2997 M
-39 -244 D
S
7926 2536 M
-24 412 D
S
7725 2917 M
-29 82 D
S
7914 2357 M
-14 640 D
S
8126 2528 M
-12 465 D
S
3917 2816 M
-19 181 D
S
7711 2981 M
-24 18 D
S
8048 2923 M
-49 -24 D
S
3299 2997 M
28 0 D
S
7926 2792 M
-27 183 D
S
2174 2997 M
-9 0 D
S
7769 2749 M
-27 116 D
S
3516 2587 M
-19 410 D
S
8062 2661 M
-6 338 D
S
2404 2709 M
-27 54 D
S
8069 2563 M
-22 436 D
S
7902 2655 M
-24 152 D
S
8917 2712 M
7 285 D
S
3506 2997 M
0 0 D
P S
8122 2997 M
-20 2 D
S
7608 2627 M
-29 372 D
S
7865 2799 M
-19 -70 D
S
7895 2759 M
-7 192 D
S
7900 2757 M
-33 242 D
S
8066 2784 M
-15 175 D
S
7905 2651 M
-28 330 D
S
8085 2933 M
-24 66 D
S
2921 2997 M
-58 -429 D
S
2262 2773 M
-19 112 D
S
7946 2848 M
-32 115 D
S
7951 2752 M
-28 245 D
S
7907 2963 M
-17 -55 D
S
7704 2525 M
-33 466 D
S
7730 2795 M
-29 196 D
S
7730 2843 M
-35 141 D
S
5913 2875 M
0 122 D
S
7744 2747 M
-36 246 D
S
3550 2499 M
5 496 D
S
8029 2677 M
-13 -229 D
S
5023 2997 M
23 0 D
S
2063 2763 M
-48 -248 D
S
7711 2997 M
-37 -37 D
S
3914 2557 M
-13 -186 D
S
3926 2853 M
0 144 D
S
5528 2995 M
23 -486 D
S
7983 2789 M
-26 116 D
S
3592 2749 M
7 248 D
S
7693 2859 M
-17 105 D
S
7734 2928 M
-39 67 D
S
7891 2704 M
-19 295 D
S
2736 2997 M
-9 0 D
S
7910 2795 M
-34 148 D
S
2451 2997 M
-5 0 D
S
3380 2739 M
-21 -147 D
S
2160 2752 M
-23 245 D
S
7928 2555 M
-26 340 D
S
4561 2879 M
20 118 D
S
2370 2456 M
-14 539 D
S
7965 2555 M
-12 386 D
S
5415 2608 M
-4 384 D
S
2497 2997 M
-28 0 D
S
4627 2997 M
-9 0 D
S
2792 2800 M
-5 48 D
S
2808 2835 M
-37 -86 D
S
3068 2619 M
-13 378 D
S
7815 2739 M
-35 189 D
S
7970 2832 M
-22 161 D
S
%%EndObject
0 A
FQ
O0
0 0 TM

% PostScript produced by:
%%GMT: psxy -R-45/-14.5/0/220 -JX8i/-2.5i -Sc0.12 -GSEAGREEN -Wthinnest -O -K
%%PROJ: xy -45.00000000 -14.50000000 0.00000000 220.00000000 -45.000 -14.500 220.000 -0.000 +xy +a=6378137.000 +b=6356752.314245
%%BeginObject PSL_Layer_7
0 setlinecap
0 setlinejoin
3.32551 setmiterlimit
clipsave
0 0 M
9600 0 D
0 3000 D
-9600 0 D
PSL_eoclip N
4 W
V
{0.18 0.545 0.341 C} FS
O1
28 2402 2984 Sc
28 7951 2997 Sc
28 7848 2841 Sc
28 7684 2747 Sc
28 7919 2592 Sc
28 4808 2999 Sc
28 8444 2592 Sc
28 3345 2720 Sc
28 3511 2539 Sc
28 2757 2989 Sc
28 9210 2997 Sc
28 7968 2524 Sc
28 7903 2605 Sc
28 7751 2515 Sc
28 7919 2997 Sc
28 7983 2736 Sc
28 7896 2533 Sc
28 7873 2747 Sc
28 3391 2693 Sc
28 8793 2355 Sc
28 4435 2989 Sc
28 8050 2942 Sc
28 3497 2992 Sc
28 2958 2603 Sc
28 2165 2731 Sc
28 3954 2709 Sc
28 2815 2528 Sc
28 2704 2997 Sc
28 3502 2677 Sc
28 2912 2683 Sc
28 6139 2997 Sc
28 7919 2640 Sc
28 2842 2960 Sc
28 7942 2837 Sc
28 7753 2725 Sc
28 7919 2587 Sc
28 4726 2995 Sc
28 7835 2951 Sc
28 8108 2997 Sc
28 7900 2859 Sc
28 7903 2733 Sc
28 3207 2997 Sc
28 4080 2995 Sc
28 7688 2773 Sc
28 3529 2624 Sc
28 3223 2877 Sc
28 6261 2947 Sc
28 7725 2827 Sc
28 7994 2844 Sc
28 7836 2827 Sc
28 5484 2523 Sc
28 8108 2501 Sc
28 7850 2800 Sc
28 7900 2757 Sc
28 5973 2997 Sc
28 3963 2843 Sc
28 5406 2560 Sc
28 7956 2507 Sc
28 7956 2997 Sc
28 7923 2581 Sc
28 7863 2837 Sc
28 9233 2997 Sc
28 8016 2859 Sc
28 8572 2999 Sc
28 7919 2805 Sc
28 4127 2995 Sc
28 7873 2389 Sc
28 4913 2997 Sc
28 5320 2999 Sc
28 2796 2997 Sc
28 7999 2739 Sc
28 7889 2952 Sc
28 5911 2541 Sc
28 5623 2997 Sc
28 7933 2517 Sc
28 9484 2995 Sc
28 7935 2995 Sc
28 2833 2795 Sc
28 7854 2667 Sc
28 7827 2619 Sc
28 2446 2427 Sc
28 7790 2949 Sc
28 3260 2653 Sc
28 7926 2451 Sc
28 6324 2997 Sc
28 2192 2923 Sc
28 7928 2320 Sc
28 3421 2883 Sc
28 7919 2619 Sc
28 8062 2672 Sc
28 7861 2472 Sc
28 7905 2997 Sc
28 8384 2693 Sc
28 5199 2976 Sc
28 3423 2811 Sc
28 5837 2989 Sc
28 2981 2997 Sc
28 3486 2723 Sc
28 5397 2379 Sc
28 7955 2700 Sc
28 7974 2704 Sc
28 7965 2715 Sc
28 3036 2181 Sc
28 7914 2459 Sc
28 8043 2939 Sc
28 7868 2672 Sc
28 2515 2997 Sc
28 4910 2355 Sc
28 7732 2653 Sc
28 8002 2821 Sc
28 7681 2520 Sc
28 7912 2552 Sc
28 3599 2907 Sc
28 7900 2485 Sc
28 7914 2875 Sc
28 7737 2541 Sc
28 2485 2995 Sc
28 2852 2736 Sc
28 7923 2997 Sc
28 8435 2987 Sc
28 7721 2837 Sc
28 7942 2768 Sc
28 7647 2997 Sc
28 7923 2416 Sc
28 7831 2464 Sc
28 3400 2997 Sc
28 7926 2472 Sc
28 3333 2995 Sc
28 4785 2292 Sc
28 3506 2864 Sc
28 7960 2720 Sc
28 7836 2875 Sc
28 7702 2821 Sc
28 2478 2997 Sc
28 2513 2995 Sc
28 8076 2523 Sc
28 3645 2832 Sc
28 3223 2685 Sc
28 8002 2843 Sc
28 2457 2995 Sc
28 7905 2661 Sc
28 2220 2997 Sc
28 7917 2749 Sc
28 7633 2560 Sc
28 2783 2843 Sc
28 7937 2800 Sc
28 3898 2384 Sc
28 5403 2788 Sc
28 7863 2549 Sc
28 7882 2443 Sc
28 9270 2709 Sc
28 3121 2995 Sc
28 7704 2781 Sc
28 8018 2995 Sc
28 2628 2648 Sc
28 8057 2859 Sc
28 7845 2784 Sc
28 8071 2635 Sc
28 7887 2459 Sc
28 7905 2901 Sc
28 7983 2864 Sc
28 8122 2720 Sc
28 2183 2997 Sc
28 7725 2784 Sc
28 2727 2997 Sc
28 7910 2491 Sc
28 7780 2800 Sc
28 7785 2917 Sc
28 8117 2613 Sc
28 5298 2973 Sc
28 7688 2736 Sc
28 7928 2053 Sc
28 6549 2763 Sc
28 5694 2995 Sc
28 3977 2725 Sc
28 1452 2995 Sc
28 3914 2952 Sc
28 7684 2651 Sc
28 2211 2907 Sc
28 6330 2813 Sc
28 7928 2635 Sc
28 7843 2845 Sc
28 2467 2643 Sc
28 7698 2997 Sc
28 7956 2432 Sc
28 7679 2891 Sc
28 2746 2997 Sc
28 6259 2997 Sc
28 7834 2717 Sc
28 3675 2813 Sc
28 8693 2464 Sc
28 7850 2736 Sc
28 7960 2747 Sc
28 2372 2715 Sc
28 7845 2421 Sc
28 2331 2864 Sc
28 2653 2997 Sc
28 2852 2811 Sc
28 8670 2997 Sc
28 5593 2579 Sc
28 7905 2741 Sc
28 2236 2664 Sc
28 2893 2997 Sc
28 7895 2673 Sc
28 3237 2904 Sc
28 5390 2995 Sc
28 7933 2587 Sc
28 8011 2453 Sc
28 3324 2664 Sc
28 7970 2485 Sc
28 7836 2763 Sc
28 7919 2603 Sc
28 2119 2981 Sc
28 3958 2907 Sc
28 7707 2837 Sc
28 3055 2629 Sc
28 7393 2997 Sc
28 7926 2685 Sc
28 7278 2443 Sc
28 7716 2571 Sc
28 7890 2889 Sc
28 5371 2995 Sc
28 7858 2511 Sc
28 3935 2933 Sc
28 7824 2600 Sc
28 3456 2635 Sc
28 5613 2976 Sc
28 7911 2849 Sc
28 7956 2800 Sc
28 7919 2507 Sc
28 6357 2751 Sc
28 7928 2837 Sc
28 8126 2832 Sc
28 7905 2880 Sc
28 2425 2776 Sc
28 8382 2605 Sc
28 7707 2768 Sc
28 7776 2827 Sc
28 7719 2761 Sc
28 3453 2781 Sc
28 7656 2864 Sc
28 3458 2477 Sc
28 7905 2784 Sc
28 7970 2997 Sc
28 7926 2536 Sc
28 7725 2917 Sc
28 7914 2357 Sc
28 8126 2528 Sc
28 3917 2816 Sc
28 7711 2981 Sc
28 8048 2923 Sc
28 3299 2997 Sc
28 7926 2792 Sc
28 2174 2997 Sc
28 7769 2749 Sc
28 3516 2587 Sc
28 8062 2661 Sc
28 2404 2709 Sc
28 8069 2563 Sc
28 7902 2655 Sc
28 8917 2712 Sc
28 3506 2997 Sc
28 8122 2997 Sc
28 7608 2627 Sc
28 7865 2799 Sc
28 7895 2759 Sc
28 7900 2757 Sc
28 8066 2784 Sc
28 7905 2651 Sc
28 8085 2933 Sc
28 2921 2997 Sc
28 2262 2773 Sc
28 7946 2848 Sc
28 7951 2752 Sc
28 7907 2963 Sc
28 7704 2525 Sc
28 7730 2795 Sc
28 7730 2843 Sc
28 5913 2875 Sc
28 7744 2747 Sc
28 3550 2499 Sc
28 8029 2677 Sc
28 5023 2997 Sc
28 2063 2763 Sc
28 7711 2997 Sc
28 3914 2557 Sc
28 3926 2853 Sc
28 5528 2995 Sc
28 7983 2789 Sc
28 3592 2749 Sc
28 7693 2859 Sc
28 7734 2928 Sc
28 7891 2704 Sc
28 2736 2997 Sc
28 7910 2795 Sc
28 2451 2997 Sc
28 3380 2739 Sc
28 2160 2752 Sc
28 7928 2555 Sc
28 4561 2879 Sc
28 2370 2456 Sc
28 7965 2555 Sc
28 5415 2608 Sc
28 2497 2997 Sc
28 4627 2997 Sc
28 2792 2800 Sc
28 2808 2835 Sc
28 3068 2619 Sc
28 7815 2739 Sc
28 7970 2832 Sc
U
PSL_cliprestore
%%EndObject
0 A
FQ
O0
0 0 TM

% PostScript produced by:
%%GMT: psxy -R-45/-14.5/0/220 -JX8i/-2.5i -Sc0.12 -GGOLD -Wthinnest -O -K
%%PROJ: xy -45.00000000 -14.50000000 0.00000000 220.00000000 -45.000 -14.500 220.000 -0.000 +xy +a=6378137.000 +b=6356752.314245
%%BeginObject PSL_Layer_8
0 setlinecap
0 setlinejoin
3.32551 setmiterlimit
clipsave
0 0 M
9600 0 D
0 3000 D
-9600 0 D
PSL_eoclip N
4 W
V
{1 0.843 0 C} FS
O1
28 2377 2997 Sc
28 7927 2999 Sc
28 7825 2994 Sc
28 7659 2977 Sc
28 7881 2911 Sc
28 4822 2999 Sc
28 8446 2999 Sc
28 3380 2419 Sc
28 3483 2421 Sc
28 2702 2584 Sc
28 9214 2997 Sc
28 7950 2881 Sc
28 7869 2903 Sc
28 7729 2695 Sc
28 7883 2855 Sc
28 7950 2932 Sc
28 7867 2961 Sc
28 7845 2997 Sc
28 3370 2995 Sc
28 8882 2891 Sc
28 4415 2997 Sc
28 8014 2839 Sc
28 3483 2939 Sc
28 2882 2397 Sc
28 2142 2901 Sc
28 3972 2997 Sc
28 2783 2939 Sc
28 2759 2267 Sc
28 3543 2997 Sc
28 2912 2997 Sc
28 6140 2999 Sc
28 7911 2977 Sc
28 2824 2597 Sc
28 7918 2999 Sc
28 7714 2995 Sc
28 7887 2864 Sc
28 4707 2995 Sc
28 7802 2999 Sc
28 8121 2463 Sc
28 7850 2912 Sc
28 7872 2959 Sc
28 3186 2995 Sc
28 4078 2997 Sc
28 7665 2997 Sc
28 3509 2600 Sc
28 3232 2995 Sc
28 6310 2714 Sc
28 7698 2997 Sc
28 7962 2906 Sc
28 7826 2986 Sc
28 5494 2997 Sc
28 8091 2887 Sc
28 7814 2999 Sc
28 7872 2905 Sc
28 5973 2997 Sc
28 4173 616 Sc
28 5435 2999 Sc
28 7945 2999 Sc
28 7915 2999 Sc
28 7895 2999 Sc
28 7821 2761 Sc
28 9160 2999 Sc
28 7973 2892 Sc
28 8563 2999 Sc
28 7876 2999 Sc
28 4143 2997 Sc
28 7853 2879 Sc
28 4921 2999 Sc
28 5343 2999 Sc
28 2759 2997 Sc
28 7973 2932 Sc
28 7844 2935 Sc
28 5936 2997 Sc
28 5618 2997 Sc
28 7908 2985 Sc
28 9475 2536 Sc
28 7958 2925 Sc
28 2794 2797 Sc
28 7827 2827 Sc
28 7807 2999 Sc
28 2395 2997 Sc
28 7756 2988 Sc
28 3267 2997 Sc
28 7904 2852 Sc
28 6320 2999 Sc
28 2184 2999 Sc
28 7919 2997 Sc
28 3396 2997 Sc
28 7902 2922 Sc
28 8042 2999 Sc
28 7836 2645 Sc
28 7951 2997 Sc
28 8360 2999 Sc
28 5184 2999 Sc
28 3396 2896 Sc
28 5843 2999 Sc
28 2935 2565 Sc
28 3525 1685 Sc
28 5411 2997 Sc
28 7927 2916 Sc
28 7956 2976 Sc
28 7957 2927 Sc
28 3020 2995 Sc
28 7907 2899 Sc
28 8001 2876 Sc
28 7850 2992 Sc
28 2467 2995 Sc
28 4925 2999 Sc
28 7696 2999 Sc
28 7980 2999 Sc
28 7643 2727 Sc
28 7874 2972 Sc
28 3555 2515 Sc
28 7876 2948 Sc
28 7874 2999 Sc
28 7702 2789 Sc
28 2476 2643 Sc
28 2817 2525 Sc
28 7906 2913 Sc
28 8425 2999 Sc
28 7694 2999 Sc
28 7914 2992 Sc
28 7604 2999 Sc
28 7921 2883 Sc
28 7807 2940 Sc
28 3350 2997 Sc
28 7914 2939 Sc
28 3071 834 Sc
28 4802 2997 Sc
28 3474 2997 Sc
28 7952 2844 Sc
28 7809 2881 Sc
28 7666 2996 Sc
28 2451 2912 Sc
28 2481 2989 Sc
28 8058 2999 Sc
28 3603 2725 Sc
28 3232 2995 Sc
28 7968 2945 Sc
28 2453 2979 Sc
28 7869 2961 Sc
28 2202 2997 Sc
28 7883 2924 Sc
28 7605 2933 Sc
28 2757 2691 Sc
28 7911 2999 Sc
28 3942 2995 Sc
28 5414 2999 Sc
28 7848 2895 Sc
28 7898 2653 Sc
28 9279 2997 Sc
28 3112 2995 Sc
28 7664 2844 Sc
28 7994 2919 Sc
28 2605 2952 Sc
28 8026 2815 Sc
28 7808 2885 Sc
28 8056 2999 Sc
28 7869 2948 Sc
28 7874 2999 Sc
28 7945 2999 Sc
28 8095 2884 Sc
28 2116 2525 Sc
28 7692 2999 Sc
28 2718 2981 Sc
28 7876 2940 Sc
28 7753 2997 Sc
28 7754 2996 Sc
28 8088 2959 Sc
28 5282 2997 Sc
28 7664 2991 Sc
28 7937 2981 Sc
28 6540 2763 Sc
28 5747 2997 Sc
28 3967 2715 Sc
28 1443 2995 Sc
28 3884 2997 Sc
28 7650 2815 Sc
28 2207 2999 Sc
28 6325 2999 Sc
28 7904 2999 Sc
28 7804 2923 Sc
28 2439 2995 Sc
28 7687 2999 Sc
28 7945 2948 Sc
28 7638 2997 Sc
28 2755 2496 Sc
28 6245 2997 Sc
28 7804 2907 Sc
28 3665 2995 Sc
28 8670 2997 Sc
28 7821 2900 Sc
28 7937 2981 Sc
28 2319 2419 Sc
28 7830 2764 Sc
28 2315 2925 Sc
28 2653 2928 Sc
28 2861 2997 Sc
28 8660 2999 Sc
28 5601 2999 Sc
28 7862 2911 Sc
28 2199 2824 Sc
28 2866 2997 Sc
28 7874 2879 Sc
28 3207 2971 Sc
28 5399 2461 Sc
28 7899 2991 Sc
28 8026 2823 Sc
28 3304 2933 Sc
28 7961 2953 Sc
28 7807 2980 Sc
28 7900 2997 Sc
28 2098 2995 Sc
28 3958 2997 Sc
28 7678 2988 Sc
28 3051 2999 Sc
28 7378 2999 Sc
28 7902 2983 Sc
28 7254 2743 Sc
28 7695 2568 Sc
28 7862 2999 Sc
28 5365 2405 Sc
28 7835 2703 Sc
28 3898 2400 Sc
28 7793 2999 Sc
28 3446 2997 Sc
28 5641 2997 Sc
28 7882 2971 Sc
28 7951 2933 Sc
28 7906 2999 Sc
28 6351 2992 Sc
28 7897 2999 Sc
28 8103 2832 Sc
28 7877 2965 Sc
28 2386 2923 Sc
28 8390 2999 Sc
28 7692 2999 Sc
28 7716 2192 Sc
28 7693 2864 Sc
28 3444 2995 Sc
28 7640 2931 Sc
28 3437 2496 Sc
28 7858 2972 Sc
28 7931 2753 Sc
28 7902 2948 Sc
28 7696 2999 Sc
28 7900 2997 Sc
28 8114 2993 Sc
28 3898 2997 Sc
28 7687 2999 Sc
28 7999 2899 Sc
28 3327 2997 Sc
28 7899 2975 Sc
28 2165 2997 Sc
28 7742 2865 Sc
28 3497 2997 Sc
28 8056 2999 Sc
28 2377 2763 Sc
28 8047 2999 Sc
28 7878 2807 Sc
28 8924 2997 Sc
28 3506 2997 Sc
28 8102 2999 Sc
28 7579 2999 Sc
28 7846 2729 Sc
28 7888 2951 Sc
28 7867 2999 Sc
28 8051 2959 Sc
28 7877 2981 Sc
28 8061 2999 Sc
28 2863 2568 Sc
28 2243 2885 Sc
28 7914 2963 Sc
28 7923 2997 Sc
28 7890 2908 Sc
28 7671 2991 Sc
28 7701 2991 Sc
28 7695 2984 Sc
28 5913 2997 Sc
28 7708 2993 Sc
28 3555 2995 Sc
28 8016 2448 Sc
28 5046 2997 Sc
28 2015 2515 Sc
28 7674 2960 Sc
28 3901 2371 Sc
28 3926 2997 Sc
28 5551 2509 Sc
28 7957 2905 Sc
28 3599 2997 Sc
28 7676 2964 Sc
28 7695 2995 Sc
28 7872 2999 Sc
28 2727 2997 Sc
28 7876 2943 Sc
28 2446 2997 Sc
28 3359 2592 Sc
28 2137 2997 Sc
28 7902 2895 Sc
28 4581 2997 Sc
28 2356 2995 Sc
28 7953 2941 Sc
28 5411 2992 Sc
28 2469 2997 Sc
28 4618 2997 Sc
28 2787 2848 Sc
28 2771 2749 Sc
28 3055 2997 Sc
28 7780 2928 Sc
28 7948 2993 Sc
U
PSL_cliprestore
%%EndObject
