# Nsamples: 753  MAD:  0.380  mean:  0.011  std:  0.632
gfz2010bkfi  -0.05357
gfz2010clbw   0.11777
gfz2010cnhd   0.12499
gfz2010csle   0.01629
gfz2010csqy   0.51903
gfz2010dmij   0.42654
gfz2010dumv  -1.00210
gfz2010eepd   0.50465
gfz2010ewyj  -1.31540
gfz2010extu  -0.65249
gfz2010faly  -0.16560
gfz2010fgbo  -0.22979
gfz2010fkff  -0.19062
gfz2010fopf  -0.20750
gfz2010fpvw  -0.42352
gfz2010fqzh   0.06227
gfz2010ftfq  -0.34941
gfz2010fxut  -1.67100
gfz2010gcqp  -0.02095
gfz2010hesh   0.24167
gfz2010iaay  -0.16139
gfz2010ifhd  -0.62316
gfz2010jcpq   0.96406
gfz2010jgwj  -0.10399
gfz2010ljol   0.70250
gfz2010onxm  -0.02465
gfz2010pclq  -0.30794
gfz2010pcya   0.32386
gfz2010qdqk  -0.34817
gfz2010qqqx  -0.27209
gfz2010qrix   0.23798
gfz2010qrta   0.11741
gfz2010qzvf   0.17713
gfz2010rdip  -0.71107
gfz2010rkuu  -0.50562
gfz2010rljv   0.01000
gfz2010rnwt  -0.10470
gfz2010rpbz  -1.75740
gfz2010rpjd  -1.24500
gfz2010shvn  -0.26008
gfz2010swqy   0.04065
gfz2010syqh  -0.36628
gfz2010tfar   0.15801
gfz2010tgmo   0.38358
gfz2010tzlz   0.53907
gfz2010tzma  -0.07469
gfz2010uidg   0.08476
gfz2010vgfu   0.25202
gfz2010vong   0.09718
gfz2010vxwv   1.37820
gfz2010vybx  -0.32544
gfz2010wakc   0.02948
gfz2010wtin   0.79543
gfz2010wwhf  -0.16499
gfz2010wwnq  -0.10588
gfz2010xamh  -0.50321
gfz2010xaxw  -0.50908
gfz2010xcdd  -0.79496
gfz2010xhqq  -0.54292
gfz2010xnbn   0.12960
gfz2010xpzq   0.25525
gfz2010xvev  -0.20357
gfz2010xytc  -0.26350
gfz2010xzah  -0.18740
gfz2010xzte  -0.88850
gfz2010yczp  -0.62959
gfz2010yfdr  -0.28545
gfz2010yhhj  -1.04070
gfz2010yilf  -0.47886
gfz2010ymih   0.28599
gfz2010yrex   1.38670
gfz2010ytzb  -0.09203
gfz2011bcvc   0.21016
gfz2011bffb   0.92727
gfz2011biin   0.24849
gfz2011bpqm   0.00428
gfz2011bqbx   0.30537
gfz2011bsvr   0.94372
gfz2011bwsm   0.37711
gfz2011bzio  -0.48254
gfz2011caca   0.06041
gfz2011cfyy  -0.37541
gfz2011chsa  -0.33455
gfz2011cjcv  -0.01969
gfz2011cjuz  -0.36646
gfz2011cwsm  -0.42006
gfz2011dabj   0.27456
gfz2011dhfg   0.25324
gfz2011dhqk   0.48501
gfz2011dpyu   0.51480
gfz2011drmu   0.41224
gfz2011duvm  -0.47748
gfz2011dwae  -0.22907
gfz2011edrq   0.18887
gfz2011ekty   0.12520
gfz2011emzr  -0.38256
gfz2011etkc   0.55766
gfz2011fnie  -0.20626
gfz2011fnuk  -0.32960
gfz2011fszl  -0.10071
gfz2011fxmf   2.35560
gfz2011fyfu  -0.18950
gfz2011fzcw  -1.30160
gfz2011gaax  -0.31276
gfz2011gcct  -0.07845
gfz2011gdli   0.20306
gfz2011gfer  -0.04643
gfz2011ggnl  -1.24070
gfz2011glpg   0.00338
gfz2011gnbk  -0.22592
gfz2011gzde  -0.43780
gfz2011haaa  -0.48197
gfz2011hatg  -0.35180
gfz2011hbqc   0.65927
gfz2011hffq   0.34919
gfz2011hibi   2.61140
gfz2011hjof  -0.03589
gfz2011hmnw   0.03272
gfz2011hqjs   0.07588
gfz2011hrgt   1.68910
gfz2011hvzo  -0.87337
gfz2011hwbn   2.55840
gfz2011hyct  -0.00468
gfz2011iamf  -0.19826
gfz2011ibew  -0.74552
gfz2011ifta   0.00000
gfz2011ioch  -0.98437
gfz2011iryz   0.05106
gfz2011itcv   0.57605
gfz2011ituo  -0.24616
gfz2011jdoz   0.06850
gfz2011jghq  -0.72658
gfz2011jpob  -0.26810
gfz2011jrgh   0.92514
gfz2011jryv   0.12219
gfz2011jtij  -0.02236
gfz2011kgvq  -0.21093
gfz2011kjzt  -0.55808
gfz2011kujo  -0.38964
gfz2011kylu   1.39660
gfz2011kymm  -2.94890
gfz2011kyzy  -0.38576
gfz2011ldgl  -0.51933
gfz2011lkkf   0.98125
gfz2011lmug  -0.14478
gfz2011lwmg   0.02051
gfz2011mdyq  -0.10965
gfz2011mjje  -0.29977
gfz2011mllb  -0.78349
gfz2011mntq   0.10783
gfz2011mror   0.96142
gfz2011mrpy   0.10006
gfz2011mryu  -0.11897
gfz2011mzvn  -0.50612
gfz2011nblt   1.51910
gfz2011ncyw   1.00190
gfz2011ndhh  -0.25187
gfz2011ndki  -0.57540
gfz2011ndlh   4.69890
gfz2011ndoe  -0.77931
gfz2011ndse  -0.21498
gfz2011ndtp   0.15392
gfz2011ndvj   0.46534
gfz2011ndyk  -0.69885
gfz2011neai   0.05966
gfz2011nejg   0.23894
gfz2011nerb  -0.31782
gfz2011nfcz   0.03095
gfz2011nfih   1.21750
gfz2011nfln  -0.52637
gfz2011nfww  -0.97782
gfz2011nhby   0.62755
gfz2011nhvt  -1.11990
gfz2011nhwf   0.58156
gfz2011nifi  -0.14437
gfz2011nihq   0.37028
gfz2011nijp   0.11151
gfz2011nilw   0.03226
gfz2011nimp  -0.14469
gfz2011nioi   0.53725
gfz2011nisj   0.74514
gfz2011niuw   0.10727
gfz2011nivw   0.46807
gfz2011nkda   2.03920
gfz2011nkou   1.93630
gfz2011nlmf   0.20324
gfz2011nlnl  -0.03195
gfz2011nlum   0.16015
gfz2011nmdz   0.45762
gfz2011npaf  -1.17980
gfz2011npeu   0.22669
gfz2011nsej   1.20180
gfz2011nsiy  -0.38848
gfz2011nsrx  -0.39427
gfz2011nssr  -0.29953
gfz2011nsyi   0.99380
gfz2011ntyd  -0.17625
gfz2011nuqo   0.32601
gfz2011nvty   0.51409
gfz2011nyzk  -0.06229
gfz2011oadm  -0.23972
gfz2011oazk  -0.06335
gfz2011ocif   0.74251
gfz2011oekz   0.75208
gfz2011oesd  -0.75815
gfz2011ofpj  -0.29683
gfz2011ohgj  -0.59795
gfz2011okza  -1.09650
gfz2011omxt  -0.10253
gfz2011oosp  -0.02151
gfz2011oqjl  -1.07760
gfz2011oslk   0.18550
gfz2011osmp  -0.21719
gfz2011ovvj  -0.31256
gfz2011owqa   0.79884
gfz2011paqj   0.02005
gfz2011pbgh   1.22150
gfz2011pbjh  -0.16119
gfz2011pdgq   0.03497
gfz2011pdsn  -0.32990
gfz2011pfls  -0.25452
gfz2011pfwq  -0.42445
gfz2011pgzk  -0.10671
gfz2011pimj  -0.07585
gfz2011pivq   0.54165
gfz2011plzc   0.51388
gfz2011pmuv   0.48476
gfz2011poug   0.02841
gfz2011prrq   0.19122
gfz2011ptgd   2.36670
gfz2011pwld  -0.14052
gfz2011qgvh   0.27489
gfz2011qklh  -0.57425
gfz2011qlkj   1.41670
gfz2011qtoy  -2.35000
gfz2011qukj  -0.83421
gfz2011rbuo  -0.10365
gfz2011rczb  -0.03237
gfz2011rkau   0.18434
gfz2011rkzx  -0.49685
gfz2011rnny   0.88665
gfz2011rnsp   0.13469
gfz2011rplo   1.91440
gfz2011scma   0.11805
gfz2011sdax  -0.52266
gfz2011sdpl   0.18039
gfz2011uowi   0.22636
gfz2011uqlz  -0.18815
gfz2011uqry  -0.29216
gfz2011vbxv  -0.00000
gfz2012dejg  -0.32342
gfz2012dleg   0.07547
gfz2012dnig  -0.24489
gfz2012dpnu  -0.48474
gfz2012dpwv  -0.10735
gfz2012dtlu   1.44630
gfz2012dttl  -0.26759
gfz2012dwwu  -0.17286
gfz2012dyck   0.03729
gfz2012dzjo  -0.69108
gfz2012dzot   0.01948
gfz2012eajr  -0.41482
gfz2012ebrr  -0.35265
gfz2012eeft   0.02035
gfz2012ekro  -0.22429
gfz2012fyny  -0.26316
gfz2012gbrs   4.31400
gfz2012gnow  -0.27553
gfz2012heih   0.13248
gfz2012iijk  -0.32782
gfz2012imuo  -0.59820
gfz2012ipdc  -0.23530
gfz2012iphs  -1.05760
gfz2012iroy   2.32260
gfz2012ivyg  -0.25819
gfz2012izke  -0.51574
gfz2012kadi  -0.33375
gfz2012kbub  -0.42919
gfz2012klpl  -0.14874
gfz2012kstg  -0.13103
gfz2012ldjj  -0.13537
gfz2012luzm  -0.33972
gfz2012lvlr  -0.32206
gfz2012lvwx  -2.15690
gfz2012lyyr  -0.15974
gfz2012mmiw   0.49942
gfz2012mowv   0.08473
gfz2012mrqk   0.45154
gfz2012mrwu   0.06185
gfz2012mtyn  -0.44614
gfz2012mvgu  -0.04093
gfz2012ndwt   0.57472
gfz2012nfos   0.30699
gfz2012nldz   0.92282
gfz2012nmja  -0.30002
gfz2012nnqu  -0.01048
gfz2012oehy   0.29952
gfz2012ofnx   1.07090
gfz2012pdav   0.01734
gfz2012pdjt  -2.18520
gfz2012phns  -0.38751
gfz2012pmuj   0.11714
gfz2012pmuq   1.38790
gfz2012pokk  -0.08993
gfz2012pryl  -0.21265
gfz2012pumy  -0.06352
gfz2012pvve  -0.34436
gfz2012qbbt   0.02593
gfz2012qfah   0.20570
gfz2012qhqp   1.56160
gfz2012qllj  -0.63432
gfz2012qmhz  -0.48480
gfz2012rmvx   0.60885
gfz2012roan  -0.69986
gfz2012rzwp  -0.50632
gfz2012sfao   0.52012
gfz2012sgfd  -0.28467
gfz2012sjdy  -0.42255
gfz2012smyn  -0.35424
gfz2012socz  -0.41732
gfz2012sopp  -0.18592
gfz2012sqsc  -0.50531
gfz2012ssnb  -1.85800
gfz2012ssvn   0.25193
gfz2012stxx  -0.21987
gfz2012suqd   0.10204
gfz2012swbz  -0.33946
gfz2012sxbo   0.57656
gfz2012sxzs   0.07041
gfz2012syum  -0.01188
gfz2012taph  -0.26711
gfz2012tisj  -0.42754
gfz2012touh  -0.38295
gfz2012tqjc  -0.57657
gfz2012trss   0.29109
gfz2012ttnf   0.03542
gfz2012twec  -0.11078
gfz2012tyoz  -0.06398
gfz2012uegq  -0.90341
gfz2012uhsx  -0.01556
gfz2012uhtc   0.00603
gfz2012umob  -0.13587
gfz2012uovh  -0.18118
gfz2012urtu   0.02041
gfz2012uvoa   0.29238
gfz2012uzww  -0.10824
gfz2012vcqw  -0.17039
gfz2012vgot   0.62543
gfz2012vile  -1.03040
gfz2012vioy  -0.33694
gfz2012vitw  -0.11574
gfz2012vkjw  -0.30241
gfz2012vlzv  -0.40019
gfz2012vnve   0.49697
gfz2012vqjw  -0.85675
gfz2012vqmq   0.32625
gfz2012vrqz  -0.28742
gfz2012vsav  -0.11348
gfz2012vurc  -0.20845
gfz2012wgdv  -0.49634
gfz2012wgmg  -0.76110
gfz2012wiyv   3.18510
gfz2012wkki   0.20861
gfz2012wmmw  -0.21390
gfz2012wowu   0.08348
gfz2012woxj   0.48105
gfz2012wpen  -0.52528
gfz2012wqfz  -0.07730
gfz2012wugc  -0.45596
gfz2012wysg  -0.03595
gfz2012xask  -0.26014
gfz2012xbna   0.68264
gfz2012xcsf   0.11536
gfz2012xfnu  -0.17134
gfz2012xfsk   0.16815
gfz2012xfsl  -0.06781
gfz2012xkln  -0.16830
gfz2012xkvu  -0.42616
gfz2012xlas   0.09390
gfz2012xlfo   1.01030
gfz2012xncm  -0.59821
gfz2012yytb  -0.84046
gfz2012zhyz  -0.19630
gfz2012zkhu   0.45844
gfz2012znou  -0.08989
gfz2012zqis   0.03411
gfz2013agbm  -0.86910
gfz2013aggr  -0.58922
gfz2013akkd  -0.17169
gfz2013atak   0.41699
gfz2013aymi   0.13556
gfz2013bqfc  -0.01196
gfz2013bwgw   0.13687
gfz2013byyy   0.21778
gfz2013bzwa   0.39758
gfz2013cinv  -0.27573
gfz2013cvve  -0.46868
gfz2013cyvx  -0.01914
gfz2013dbhl  -0.10228
gfz2013ddrx   0.28965
gfz2013delq   0.24278
gfz2013dftb   0.16870
gfz2013dfvx  -0.56167
gfz2013dksc   0.36676
gfz2013dmzh  -0.46497
gfz2013dngd   1.25690
gfz2013dnot  -0.01934
gfz2013dzvr   0.03006
gfz2013eavq   0.14968
gfz2013eazm   0.27084
gfz2013efct   0.24607
gfz2013eidd  -0.10172
gfz2013enjr  -0.84253
gfz2013enqo   0.42627
gfz2013eyyo   0.07712
gfz2013ffjt  -0.09030
gfz2013fmcd   0.66340
gfz2013fmcp   0.58838
gfz2013fndg   0.07287
gfz2013fnpa   0.08153
gfz2013foto  -0.15623
gfz2013frxd  -0.32528
gfz2013fskp   0.09702
gfz2013fthi  -0.58937
gfz2013fulo   0.33667
gfz2013fvht  -0.15058
gfz2013fvyr  -0.47713
gfz2013fxyr   0.00000
gfz2013fybd  -0.01346
gfz2013ghpd  -0.05595
gfz2013gkyn   0.26920
gfz2013glkq  -1.78070
gfz2013glpz  -0.10826
gfz2013gomv   0.22625
gfz2013grle  -1.61950
gfz2013gsnl   2.50400
gfz2013gugi  -0.09896
gfz2013gurk   0.10903
gfz2013gxye  -0.02235
gfz2013gyce  -1.52840
gfz2013gywl   0.46343
gfz2013hbmi   0.26898
gfz2013hbtm  -0.10801
gfz2013hdbp  -0.48048
gfz2013hduf  -0.19514
gfz2013hiam   0.46484
gfz2013hinw   0.28740
gfz2013hqaa  -0.25965
gfz2013hvkg  -1.16960
gfz2013hvzv   0.22525
gfz2013icgx  -0.05592
gfz2013icql   0.42432
gfz2013ikic   0.03395
gfz2013irme  -0.08790
gfz2013iuyv  -0.22954
gfz2013iwhc  -0.04554
gfz2013iwzn  -0.06106
gfz2013iybg  -0.15471
gfz2013iybv   0.71692
gfz2013jfcn   0.25393
gfz2013jhog   0.21638
gfz2013jlli   1.06800
gfz2013jrqf  -0.20029
gfz2013jtsg  -0.05015
gfz2013jzcf  -0.23523
gfz2013jzfz   0.01947
gfz2013kats   0.54819
gfz2013kbbg   0.00000
gfz2013kcdb   0.12603
gfz2013kdfy   0.00000
gfz2013kxlr  -0.09937
gfz2013lbod   0.42684
gfz2013lgvf   0.12403
gfz2013ljdu   0.21713
gfz2013ljwt   0.03509
gfz2013lnts  -0.06882
gfz2013lvxe   0.37811
gfz2013lxed   0.00000
gfz2013mdxj   0.07548
gfz2013phhi  -0.42351
gfz2013phly  -0.37492
gfz2013pizm  -0.00000
gfz2013pkmz   0.27436
gfz2013pqkp   0.31830
gfz2013pvsa   0.95436
gfz2013qaex  -0.37587
gfz2013qapj   0.56901
gfz2013qdks   0.00839
gfz2013qdno   0.06424
gfz2013qdpv   0.06050
gfz2013qear  -0.26936
gfz2013qigb   0.41173
gfz2013qmkt  -0.03517
gfz2013qnqr   0.00937
gfz2013qntl  -0.45771
gfz2013qoak   0.11036
gfz2013qogb   0.02494
gfz2013quwz  -0.49355
gfz2013quyn   0.24366
gfz2013qwnm   0.02507
gfz2013qxof  -0.28010
gfz2013rdmn  -0.50687
gfz2013rfik   0.43019
gfz2013rgcc  -0.12765
gfz2013rhbx   0.82045
gfz2013rhxf  -0.43340
gfz2013rnsa   0.19718
gfz2013rocs   0.18927
gfz2013rtvy  -0.04235
gfz2013rwkj  -0.08075
gfz2013rwog  -0.10930
gfz2013ryfc  -0.00000
gfz2013ryph   0.19322
gfz2013sbsl  -0.18114
gfz2013sbsp  -0.52116
gfz2013sdkg   0.05637
gfz2013sdym   0.56563
gfz2013skay  -0.24068
gfz2013skvq   0.25319
gfz2013stou  -0.03373
gfz2013stup  -0.91568
gfz2013swnj  -0.39826
gfz2013tcju  -0.00400
gfz2013tdsx  -0.37149
gfz2013tekq  -0.03119
gfz2013tert   0.98054
gfz2013tgia  -0.07663
gfz2013timw  -0.42435
gfz2013tjub   0.03416
gfz2013tkcg  -0.14380
gfz2013tmnf   0.02213
gfz2013tmyj  -0.04463
gfz2013tnrp  -0.00897
gfz2013trsq   0.08523
gfz2013ttmk   0.75692
gfz2013twbc   0.64721
gfz2013uafv   0.19884
gfz2013ubgt   0.69637
gfz2013udtw   0.32252
gfz2013uenl  -0.85096
gfz2013uepl  -0.29682
gfz2013uhio   0.60674
gfz2013ummt  -0.63167
gfz2013unuv   0.05691
gfz2013upqj   0.22766
gfz2013utqa   0.67539
gfz2013uugc  -0.00610
gfz2013uwjo   0.06853
gfz2013uwxi   0.34663
gfz2013uxzw  -0.99922
gfz2013uzmf   0.00246
gfz2013vcgd  -0.68474
gfz2013vdam  -0.00437
gfz2013veoz   0.24611
gfz2013veug  -0.38342
gfz2013vfix   0.06096
gfz2013vjrr  -0.33351
gfz2013vjsz  -0.17098
gfz2013vldx  -0.14327
gfz2013vmrv   0.49993
gfz2013vnwa   0.22302
gfz2013voai  -0.04711
gfz2013vojy   0.12156
gfz2013vsdd  -0.07640
gfz2013vvre  -0.75174
gfz2013vwkh   0.20651
gfz2013vxht   0.10419
gfz2013vzel   0.26463
gfz2013vzet  -0.27301
gfz2013wgwz   0.72801
gfz2013wigs   0.03524
gfz2013wpns  -0.23897
gfz2013wwee  -0.19284
gfz2013wyfl  -0.25337
gfz2013xacx  -0.03417
gfz2013xahp   0.17224
gfz2013xbdc  -0.81294
gfz2013xjmo   1.62080
gfz2013xjmy  -0.92502
gfz2013xlic   0.55810
gfz2013xmzw  -0.16028
gfz2013xodn   0.10673
gfz2013xofz  -0.25224
gfz2013xswc   0.05089
gfz2013xupg   0.25549
gfz2013xuxr  -0.12338
gfz2013xvps  -0.02738
gfz2013xxbf   0.42463
gfz2013xycz   0.11945
gfz2013xzxe  -0.16745
gfz2013yapz   0.49251
gfz2013ygsj  -1.10260
gfz2013yihv  -0.10453
gfz2013ykkf  -0.13381
gfz2013ykqw  -0.03892
gfz2013yktj  -0.23203
gfz2013ylxm  -0.15421
gfz2013ylxn  -0.02084
gfz2013ymhx   0.38091
gfz2013yodm  -0.22378
gfz2013yqkz   0.49698
gfz2013yqtu  -0.36953
gfz2013ytfm  -0.44478
gfz2013yvnj  -0.13975
gfz2013yxhf  -0.47630
gfz2013yxif   0.07399
gfz2013zbfb  -2.34040
gfz2013zeye  -0.50932
gfz2013zfbz  -0.18374
gfz2013zghn   0.15121
gfz2013zkta   1.02050
gfz2013zkzb  -0.16274
gfz2013zlak  -0.02723
gfz2013zlij   0.24841
gfz2013zpwk  -0.11552
gfz2013zqan   0.06147
gfz2014aapq   0.22229
gfz2014aedl   0.08613
gfz2014aejh   0.12955
gfz2014afbt   0.06716
gfz2014ajgi   0.11308
gfz2014amgk  -0.28368
gfz2014aqax  -0.43695
gfz2014arox  -0.52321
gfz2014ateb   0.07861
gfz2014azfu   0.20945
gfz2014befl   0.18877
gfz2014bgxe   0.95407
gfz2014bgyv   0.18085
gfz2014bkra   0.45425
gfz2014bmch  -0.26591
gfz2014bmqw  -1.28750
gfz2014bnea   0.60071
gfz2014bppg   0.20073
gfz2014bqpm   0.18587
gfz2014buyz  -0.15618
gfz2014bycg   0.26862
gfz2014byes  -0.67297
gfz2014bzus   0.13142
gfz2014cgoi   0.34927
gfz2014cjao   0.05312
gfz2014ckqv   0.03030
gfz2014cncl   0.79859
gfz2014cokw  -0.06120
gfz2014crac   0.43671
gfz2014ctdl  -0.10278
gfz2014dbqi  -0.26881
gfz2014dece   0.71596
gfz2014dggw   0.23618
gfz2014dihl  -0.62376
gfz2014djhi   0.37004
gfz2014djyj  -0.13969
gfz2014dmrw  -0.12849
gfz2014dpps   0.02474
gfz2014dsqr  -0.08478
gfz2014dtth  -0.02437
gfz2014dtto  -0.57571
gfz2014dutu   1.25020
gfz2014dwcp   0.14342
gfz2014edjm   0.02465
gfz2014edmd   1.05930
gfz2014eflc   0.59427
gfz2014egvg   0.65582
gfz2014eiav   0.32071
gfz2014eirs  -0.00649
gfz2014ejfx  -0.06987
gfz2014emlw  -0.00000
gfz2014eoay   0.14000
gfz2014epfm  -0.03962
gfz2014epnq   0.07075
gfz2014esez  -0.09115
gfz2014etgp   0.17002
gfz2014etqu   0.55843
gfz2014eunw   0.29546
gfz2014evgu   0.26985
gfz2014evhm   0.08876
gfz2014exxj  -0.07141
gfz2014eyne  -1.16730
gfz2014ezjq  -0.72367
gfz2014ezld   0.28012
gfz2014ezvj   0.58618
gfz2014fbef   0.24396
gfz2014fbli  -0.01583
gfz2014fbnr   0.12270
gfz2014fhki  -0.12289
gfz2014fjfz  -0.37336
gfz2014flxk   0.50511
gfz2014fsir   0.13890
gfz2014fsje   0.21696
gfz2014fskh   0.16781
gfz2014fsvc   0.30063
gfz2014fvza  -0.26423
gfz2014fwuf  -0.77658
gfz2014fwxt  -0.00911
gfz2014fxim  -0.16571
gfz2014fxte  -0.08513
gfz2014fxuy  -0.18326
gfz2014gasb   0.30270
gfz2014gbxg   0.01349
gfz2014gcgf   0.55414
gfz2014geln   0.07651
gfz2014ggie   0.05750
gfz2014gjfd   0.33348
gfz2014gnbw  -0.01248
gfz2014grwv   0.22511
gfz2014gsfc   0.42509
gfz2014gssz   0.09764
gfz2014gtee  -0.16056
gfz2014gtoj   0.62641
gfz2014gypw   0.54916
gfz2014hapg  -0.43342
gfz2014happ  -0.35657
gfz2014herz   0.26892
gfz2014hgjb   0.26946
gfz2014hhey   0.21348
gfz2014hhis  -0.04232
gfz2014hjmc   0.02437
gfz2014hkcw  -0.02479
gfz2014hotu  -0.31852
gfz2014hqhv  -0.12557
gfz2014huah  -0.07594
gfz2014huqh   0.21341
gfz2014hyea  -0.18791
gfz2014hzzf   0.09697
gfz2014iaqm   0.58092
gfz2014iayo  -0.53759
gfz2014icov  -0.11805
gfz2014igrp  -0.08425
gfz2014ijsa   1.16200
gfz2014iltl  -0.05146
gfz2014imqh  -0.03294
gfz2014ined   0.24841
gfz2014inrg   0.15356
gfz2014ipfu   0.38643
gfz2014ipwk   0.27695
gfz2014irlf   0.29292
gfz2014irln  -0.05905
gfz2014irly   0.22663
gfz2014isjg  -0.28149
gfz2014isov  -0.17246
gfz2014itlx   0.63278
gfz2014iusw   0.07762
gfz2014ivgm   0.43625
gfz2014ixlc   0.20017
gfz2014iyuc  -0.09922
gfz2014jarg   0.39112
gfz2014jaxy   0.10484
gfz2014jayh   0.33854
gfz2014jbfp  -0.04964
gfz2014jbgm   0.35558
gfz2014jcbj  -1.09070
gfz2014jckg  -0.17576
gfz2014jfmc  -0.67127
