# Nsamples: 277  MAD:  1.102  mean:  0.047  std:  1.861
gfz2010aggj  -0.14321
gfz2010aldp  -0.49485
gfz2010asxa   0.81600
gfz2010bqnk  -3.02750
gfz2010bukb  -0.15328
gfz2010bvit   1.03960
gfz2010ccse   0.63953
gfz2010crir   0.31966
gfz2010cvkn   0.52855
gfz2010cyid  -4.81060
gfz2010dask   0.63326
gfz2010depd  -0.77785
gfz2010drit  -1.24240
gfz2010dumv   0.12297
gfz2010dxhq   2.07460
gfz2010fgbo   0.94706
gfz2010fjme  -3.85560
gfz2010habf  -1.65510
gfz2010hllp  -0.78954
gfz2010hxan  -0.21937
gfz2010iaay  -2.54190
gfz2010kuzb   0.36115
gfz2010ljmp  -0.57062
gfz2010ljzf  -0.71810
gfz2010mdti   2.48400
gfz2010mqzz   0.90599
gfz2010msss   0.42714
gfz2010ncwu  -0.57020
gfz2010oibn  -1.22440
gfz2010pcya  -0.76900
gfz2010pzza  -0.16506
gfz2010rkuu   0.73217
gfz2010rljv   1.52050
gfz2010rnwt   1.89250
gfz2010rpbz  -0.23894
gfz2010rpjd   1.32660
gfz2010tpcj   0.14220
gfz2010ugws  -0.81379
gfz2010uogw  -7.48050
gfz2010uvpz  -0.50328
gfz2010vong  -0.06675
gfz2010wakc   0.06262
gfz2010wplk  -4.40710
gfz2010xcdd  -0.13784
gfz2010xnbn   0.70888
gfz2010xytc  -0.15943
gfz2010yfdr   0.14600
gfz2010yilf  -1.17370
gfz2010ymih  -0.14099
gfz2010ytzb   0.37037
gfz2010zhvj   3.98700
gfz2010zjun  -1.01550
gfz2011ahvh   0.38869
gfz2011ameb  -1.54310
gfz2011aqpp   3.20150
gfz2011awsv   0.64854
gfz2011bpqm  -0.96477
gfz2011bsvr   1.89200
gfz2011dabj  -0.00177
gfz2011dpyu  -0.31712
gfz2011emzr  -0.05119
gfz2011fyfu   1.77420
gfz2011fzcw   2.70670
gfz2011gnbk   0.65214
gfz2011gpyr   1.35040
gfz2011hibi   0.55956
gfz2011hjof   1.15930
gfz2011iryz  -0.91432
gfz2011ituo   0.27324
gfz2011kjzt   2.60120
gfz2011kjzv   0.73524
gfz2011kylu   2.32830
gfz2011kymm  -0.30016
gfz2011lkkf   0.07710
gfz2011mdyq   0.33306
gfz2011mjje   0.67444
gfz2011ndhh   4.40460
gfz2011nejg  -1.15560
gfz2011nfcz  -2.92890
gfz2011nijp   0.27746
gfz2011niuw  -3.48660
gfz2011nuqo  -0.26487
gfz2011oadm   1.22540
gfz2011ofpj   0.25880
gfz2011ohgj   5.07080
gfz2011oqjl   1.33660
gfz2011oslk   0.00502
gfz2011owqa  -2.19250
gfz2011paqj  -0.50871
gfz2011pivq   0.81825
gfz2011qenl  -0.08170
gfz2011rkau   0.32207
gfz2011rnny   2.53980
gfz2011scma   0.58228
gfz2011sdax   1.25150
gfz2011sqco   1.04210
gfz2011sxno   1.62390
gfz2011syvj  -2.46280
gfz2011syzr  -0.58046
gfz2011taqr  -2.34840
gfz2011tlwl  -0.08987
gfz2011tqgg   0.21492
gfz2011tsgl  -1.30220
gfz2011urwz  10.32900
gfz2011vahy   1.07620
gfz2011vemg  -1.16020
gfz2011wcvs  -2.35150
gfz2011wkyx   1.20760
gfz2011wnjg  -2.33080
gfz2011wqup  -0.48333
gfz2011wwze   0.41750
gfz2011xlod   0.10639
gfz2011xwum   1.87390
gfz2011yexx   0.22257
gfz2011ypfh   0.85832
gfz2011zcwn  -0.83457
gfz2011zhih  -0.44334
gfz2011ziyk   0.18886
gfz2012amvs   0.80323
gfz2012aqpa  -1.28620
gfz2012bjhl  -0.56500
gfz2012bqcf   0.06591
gfz2012cdju   0.02233
gfz2012cvfr   0.03197
gfz2012dejg   0.68852
gfz2012dleg   2.35050
gfz2012dpnu   0.65018
gfz2012dwwu   0.69373
gfz2012eeft   1.05370
gfz2012ekfp  -2.06280
gfz2012ekro  -1.47530
gfz2012enio  -1.18790
gfz2012fiiz   1.13150
gfz2012foih   1.41690
gfz2012ftks  -0.15105
gfz2012gbrs   1.83770
gfz2012gftg  -0.26302
gfz2012ghiv   0.02606
gfz2012gjdg   0.62470
gfz2012hvtu   2.80430
gfz2012hzur   0.04374
gfz2012iijk   1.77070
gfz2012iroy  -0.14220
gfz2012kmbo  -0.69447
gfz2012kmmz  -0.26486
gfz2012luzm  -0.69067
gfz2012mdzf   1.87060
gfz2012mmiw  -3.48810
gfz2012mtyn   1.48380
gfz2012mwhe   1.08930
gfz2012nnqu   0.76730
gfz2012nqvd   3.14310
gfz2012pdjt  -1.04250
gfz2012pira   0.51124
gfz2012pvve  -1.48260
gfz2012qllj   2.52440
gfz2012socz  -0.35332
gfz2012ssvn   0.08904
gfz2012svwz  -0.41778
gfz2012syum  -11.03600
gfz2012tgta  -1.39840
gfz2012uvoa   1.02410
gfz2012vdra   0.60633
gfz2012vlzv   1.84450
gfz2012vrqz  -0.85657
gfz2012wgmg   1.96410
gfz2012wmmw  -0.54348
gfz2012wowu  -1.06010
gfz2012woxj  -0.32202
gfz2012wpen  -0.41678
gfz2012xbna   0.30034
gfz2012xkln   0.52715
gfz2012xkvu   0.37757
gfz2012xncm   0.39168
gfz2012xrmq  -0.23308
gfz2012xwkx  -2.58840
gfz2012zhyz  -0.39078
gfz2013akkd  -0.87417
gfz2013aymi   0.19993
gfz2013cvve  -4.77860
gfz2013cyvx   0.36319
gfz2013delq   0.46054
gfz2013dftb   0.47111
gfz2013dzvr   0.19629
gfz2013eazm  -0.60386
gfz2013efct   0.24014
gfz2013enjr   0.16856
gfz2013enqo   5.55130
gfz2013fmcd  -4.60320
gfz2013fulo   1.38700
gfz2013fvht  -0.85589
gfz2013grle  -4.39460
gfz2013gugi   1.47850
gfz2013gywl  -0.59284
gfz2013hbwy   0.98333
gfz2013hqaa   1.77070
gfz2013icql   2.32390
gfz2013iuyv  -1.32780
gfz2013iwzn  -1.10830
gfz2013jfcn   0.79219
gfz2013jobl  -0.52017
gfz2013kats   1.30320
gfz2013kbbg   0.19936
gfz2013kcdb   0.41032
gfz2013kqab  -0.79993
gfz2013kuno   0.12822
gfz2013lbvl   0.64497
gfz2013lvxe  -0.19391
gfz2013ohnj   1.01610
gfz2013onvl   0.40506
gfz2013oywh  -0.67507
gfz2013phhi  -0.50349
gfz2013qigb   0.52792
gfz2013qoak   2.04830
gfz2013qogb   0.81219
gfz2013quwz   0.63156
gfz2013qxof   0.95540
gfz2013rdmn  -0.87270
gfz2013rocs  -1.06620
gfz2013rsyt   1.45620
gfz2013taeb  -0.76892
gfz2013timw   1.05220
gfz2013tmyj  -0.60357
gfz2013uafv  -0.03893
gfz2013ubgt   0.73660
gfz2013udtw   0.68271
gfz2013unuv  -0.46118
gfz2013upqj   1.28240
gfz2013utqa   0.49116
gfz2013uugc   0.38762
gfz2013uwjo   0.20411
gfz2013vfix   0.27068
gfz2013vmrv  -1.75840
gfz2013vnwa  -0.59505
gfz2013vvre   1.36180
gfz2013vwkh  -0.46925
gfz2013wyfl  -0.21274
gfz2013xacx  -4.66480
gfz2013xahp   0.10783
gfz2013xofz   1.72480
gfz2013xswc   0.03940
gfz2013xxbf  -0.59936
gfz2013yapz  -1.85890
gfz2013yqtu   0.30619
gfz2013yxhf   0.17820
gfz2013zedt   0.59166
gfz2013zfbz   0.43092
gfz2013ziix   0.52913
gfz2013zpwk  -0.93119
gfz2014ajgi   1.11030
gfz2014aqop   0.74741
gfz2014avzp   0.25790
gfz2014bgyv   1.85600
gfz2014bkra  -2.95680
gfz2014bmqw  -0.61875
gfz2014bnea  -0.01168
gfz2014djhi  -0.56005
gfz2014eirs  -7.21850
gfz2014fbli   0.75727
gfz2014fjfz   0.57688
gfz2014fsir   0.53013
gfz2014fwxt  -0.70367
gfz2014fxte   0.44617
gfz2014fxuy   0.08571
gfz2014gssz  -0.72949
gfz2014hzzf   3.28220
gfz2014icov   0.77465
gfz2014iltl  -0.06920
gfz2014imqh   3.82940
gfz2014ined   1.09190
gfz2014ipfu   1.04910
gfz2014irlf   0.18830
gfz2014irln   0.56595
gfz2014iyuc  -0.23177
gfz2014jarg  -0.34703
gfz2014jaxy  -0.12275
gfz2014jayh  -3.02350
