# Nsamples: 603  MAD:  0.578  mean:  0.038  std:  1.039
gfz2010abfc  -0.72544
gfz2010abvu  -0.13887
gfz2010aggj  -0.17260
gfz2010aldp   1.94190
gfz2010aseg  -0.91240
gfz2010asxa  -0.74315
gfz2010bkfi  -0.02951
gfz2010bklj  -0.79820
gfz2010bqnk  -0.20941
gfz2010brrm   0.37756
gfz2010btme  -0.19639
gfz2010bukb  -0.62851
gfz2010bvit   0.22238
gfz2010cbnp   0.10305
gfz2010ccse   0.72856
gfz2010crgy   0.33966
gfz2010crir  -0.03609
gfz2010csle  -0.46469
gfz2010cvkn   0.61387
gfz2010cyid  -0.61635
gfz2010dask  -0.24609
gfz2010djib   0.92845
gfz2010dmij  -0.18461
gfz2010drit   0.67728
gfz2010drml  -1.67770
gfz2010drmq  -1.67770
gfz2010drng   1.21560
gfz2010drpv   0.24887
gfz2010dumv   0.75603
gfz2010dwgy  -0.15758
gfz2010dxhq   1.29820
gfz2010extu   0.47571
gfz2010fgbo  -0.44995
gfz2010fjio  -0.13198
gfz2010fjme  -0.49581
gfz2010fkff   0.01549
gfz2010fnkr  -1.00690
gfz2010fqnn   0.35419
gfz2010ftfq  -0.37788
gfz2010fxhh   0.39021
gfz2010gonu  -0.21675
gfz2010gooc  -0.40617
gfz2010guwa  -0.02516
gfz2010habf   0.19886
gfz2010hllp   0.88221
gfz2010hsgv  -0.11966
gfz2010hueh  -0.74492
gfz2010hxan  -0.36317
gfz2010inbs   0.55854
gfz2010ioad   0.08985
gfz2010ixjl  -0.20939
gfz2010jcby   0.03726
gfz2010jkrp   0.10089
gfz2010jlvp   1.53040
gfz2010kcyz  -0.32382
gfz2010ljmp  -0.74500
gfz2010ljzf  -0.63511
gfz2010mdti   0.28614
gfz2010mjdl  -0.65941
gfz2010mqzz  -0.27804
gfz2010ncwu  -0.00000
gfz2010ngge   0.36538
gfz2010nlai   1.12860
gfz2010ocug   2.24020
gfz2010oguu  -0.12702
gfz2010oibn   1.48230
gfz2010okpc   0.46402
gfz2010okww   0.87557
gfz2010onxm  -0.17601
gfz2010ouvm  -0.07070
gfz2010pclq  -0.56830
gfz2010pcya   2.60560
gfz2010pgpo   0.25186
gfz2010pzza   1.56570
gfz2010qbcy   0.44955
gfz2010qdqk  -0.57965
gfz2010qrta  -0.05175
gfz2010qykh   0.29209
gfz2010qzvf  -0.46356
gfz2010rdip  -0.18188
gfz2010rkuu  -0.00934
gfz2010rljv  -0.49267
gfz2010rnwt   2.74590
gfz2010rpbz  -0.37762
gfz2010rpjd  -0.30200
gfz2010schp   0.11031
gfz2010scht  -0.02294
gfz2010sdfs  -0.05961
gfz2010shvn   0.40351
gfz2010tmba  -0.04056
gfz2010ugws   0.70013
gfz2010uhjy  -0.63153
gfz2010umxj  -0.44327
gfz2010umyp  -1.30220
gfz2010uogw   0.02982
gfz2010upod  -1.44460
gfz2010uraq  -0.43605
gfz2010vhzx  -0.35166
gfz2010vong   0.99275
gfz2010vxwv   0.34137
gfz2010vybx   0.02211
gfz2010wakc   0.42018
gfz2010wwnq   0.79192
gfz2010wyuj   0.11687
gfz2010xaxw  -0.48182
gfz2010xhqq  -0.70340
gfz2010xnbn  -0.76040
gfz2010xney  -0.17931
gfz2010xzte   0.06605
gfz2010yfdr  -0.34294
gfz2010zhvj  -0.45308
gfz2010zjun  -0.32338
gfz2011ahvh   0.22548
gfz2011ameb   0.34202
gfz2011amst   0.18128
gfz2011aqpp   3.96750
gfz2011awsv  -0.17113
gfz2011bpqm  -0.32835
gfz2011bqbx  -0.51736
gfz2011bsvr   1.35350
gfz2011bwsm  -1.30590
gfz2011bygs   1.20600
gfz2011bygu   0.24616
gfz2011cdge  -1.16180
gfz2011chsa  -0.43378
gfz2011cjcv   0.48292
gfz2011cjuz  -1.46620
gfz2011cwsm  -0.15220
gfz2011cxdj  -0.29545
gfz2011dabj   0.52274
gfz2011dpyu   0.19002
gfz2011drmu  -0.74925
gfz2011duvm  -0.22450
gfz2011dwae  -0.36963
gfz2011etkc   0.19574
gfz2011exxq   2.56830
gfz2011fnie  -0.21957
gfz2011fzcw   1.48760
gfz2011gdli  -0.21783
gfz2011gdrl  -0.81671
gfz2011ggnl  -0.28447
gfz2011glpg  -0.16592
gfz2011gnbk  -0.17567
gfz2011gpyr  -0.30318
gfz2011hatg   0.29397
gfz2011hffq  -1.56000
gfz2011hibi  -1.58280
gfz2011hjof   0.05062
gfz2011hqjs  -1.13680
gfz2011hrgt   1.97980
gfz2011hvzo   1.37830
gfz2011hyct  -0.22309
gfz2011hyuh   1.25240
gfz2011iamf  -0.45440
gfz2011ioch  -0.60830
gfz2011iryz   0.04324
gfz2011ituo   0.41443
gfz2011jphj   1.32010
gfz2011jpob  -0.41921
gfz2011jryv   0.36653
gfz2011jtij  -0.36702
gfz2011kjzt  -0.15679
gfz2011kjzv  -0.13914
gfz2011kylu  -1.63510
gfz2011kymm   0.43918
gfz2011kyzy   0.06097
gfz2011lkkf  -0.75974
gfz2011lmug   0.32929
gfz2011lykm  -0.69442
gfz2011mdyq  -0.03279
gfz2011mjje  -0.05291
gfz2011mrfm   0.02175
gfz2011mror   0.93174
gfz2011mrpy  -0.39502
gfz2011mryu  -0.56992
gfz2011ndhh  -1.01080
gfz2011nejg   1.08010
gfz2011nejw  -0.60610
gfz2011nfcz   0.34300
gfz2011nftw   0.94632
gfz2011nhby  -0.36648
gfz2011nhhd   0.17440
gfz2011nhvt  -1.21040
gfz2011nijp   1.04620
gfz2011nilw  -3.15440
gfz2011niuw  -0.13544
gfz2011nlmf   0.53139
gfz2011nlum   1.18180
gfz2011npaf  -0.27990
gfz2011nsiy  -0.76314
gfz2011nsrx  -0.33296
gfz2011nuqo  -0.45913
gfz2011oadm  -0.09181
gfz2011oazk   1.30310
gfz2011ofpj   1.80980
gfz2011okza  -0.42870
gfz2011oqjl   0.44984
gfz2011oslk   1.39980
gfz2011osmp   0.50323
gfz2011osuy   0.19296
gfz2011owqa   0.63622
gfz2011paqj   1.33920
gfz2011pdgq   1.32690
gfz2011pfwq   0.91523
gfz2011ppsc   1.37850
gfz2011ptgd   2.78850
gfz2011pwbw   1.39020
gfz2011pwld   1.80020
gfz2011qenl   1.72560
gfz2011qgea   3.54120
gfz2011qlkj   2.58120
gfz2011qukj   2.43670
gfz2011rkau   3.70950
gfz2011rnny  -0.64186
gfz2011scma  -1.34590
gfz2011sfmu   3.42050
gfz2011sfph  -4.11440
gfz2011sqco   3.51450
gfz2011sxno   5.31210
gfz2011syvj  -0.13949
gfz2011tarj   2.92060
gfz2011tdjj  -0.70115
gfz2011tjpv   5.57520
gfz2011tqgg  -1.39040
gfz2011tssv   6.75560
gfz2011tzcv   0.30457
gfz2011uqlz   0.28211
gfz2011vsag   1.42810
gfz2011vtdl  -0.30057
gfz2011vxek  -0.20482
gfz2011wbtc   0.00000
gfz2011wngi  -0.58188
gfz2011wnjg  -2.22270
gfz2011wtfn  -0.31144
gfz2011wucg  -0.37253
gfz2011wwze   0.31221
gfz2011wzss  -0.63046
gfz2011xgwy  -0.35453
gfz2011xlod   0.77200
gfz2011xnui   0.28911
gfz2011xpcq  -0.67999
gfz2011xxng   1.16230
gfz2011yexx  -0.72753
gfz2011ypfh   0.25748
gfz2011ytob   0.48971
gfz2011zcwn  -2.58410
gfz2011zghc  -0.59639
gfz2011zhih  -2.35830
gfz2011zkbt   0.37774
gfz2012ahac  -0.20756
gfz2012amjx   0.62759
gfz2012amvs  -0.23422
gfz2012aqpa  -0.49338
gfz2012bcvn   0.10491
gfz2012beae   0.29288
gfz2012bity  -0.06981
gfz2012bjhl  -0.66200
gfz2012bqcf  -0.19265
gfz2012byrq  -0.24632
gfz2012bysu   0.27233
gfz2012bytv  -0.18946
gfz2012byuk  -1.83470
gfz2012cdju  -0.14904
gfz2012cksh   0.33494
gfz2012crpb   0.79731
gfz2012cvfr  -0.03046
gfz2012dcjd  -0.37144
gfz2012dejg  -0.94294
gfz2012dleg   1.78680
gfz2012dnig   0.03709
gfz2012dpnu  -0.26213
gfz2012dwwu  -0.14483
gfz2012dyck  -0.41910
gfz2012dysu  -2.81770
gfz2012dzen   1.97600
gfz2012dzjo  -1.53330
gfz2012dzot   0.44153
gfz2012dzou  -1.09120
gfz2012dzva   4.23570
gfz2012eajr  -0.98593
gfz2012ebhf   0.45318
gfz2012eeft   0.22318
gfz2012ekfp  -0.03695
gfz2012ekro  -0.96209
gfz2012elek  -0.12567
gfz2012enio   0.09774
gfz2012enrg   0.44038
gfz2012erds   0.19559
gfz2012evxn  -0.42186
gfz2012fbgz  -0.61608
gfz2012fcyq  -0.22814
gfz2012fcyr  -0.19344
gfz2012fiiz   0.14881
gfz2012foih  -0.66514
gfz2012fpyo  -0.30875
gfz2012ftks   0.83443
gfz2012fyny   0.08199
gfz2012fyop   0.06399
gfz2012gbrs  -0.42634
gfz2012gczh   0.94777
gfz2012ghiv   1.17740
gfz2012gjdg  -0.20371
gfz2012gjtd  -0.19889
gfz2012gnow  -0.26129
gfz2012gubu  -2.71270
gfz2012hkxs  -0.63720
gfz2012hlya  -2.88040
gfz2012hmcv  -0.38584
gfz2012hvtu  -0.26878
gfz2012hwph   0.05280
gfz2012hzur  -0.72965
gfz2012iblo  -0.93280
gfz2012iijk   0.61207
gfz2012imsm   1.12290
gfz2012ipdc   0.00799
gfz2012iroy  -0.60585
gfz2012iyhs   0.05859
gfz2012iyoi   1.11820
gfz2012jbzr   0.88662
gfz2012kadi  -0.33742
gfz2012kbub  -0.92861
gfz2012kmbo  -0.64544
gfz2012kmmz  -0.50627
gfz2012kstg  -0.07771
gfz2012kwmx   0.12375
gfz2012kyhj   4.55340
gfz2012ldjj   0.11849
gfz2012mcrb  -0.20855
gfz2012mdzf  -0.45627
gfz2012mjuu   0.53365
gfz2012mmiw   0.28766
gfz2012mowv  -0.36977
gfz2012mpzo   0.31091
gfz2012mrqk  -0.22045
gfz2012mrwu   0.03645
gfz2012mtyn   1.36490
gfz2012mwhe  -0.14457
gfz2012ndwt   0.40379
gfz2012nfos  -0.48394
gfz2012nldz   1.29640
gfz2012nnqu  -0.16691
gfz2012nqvd  -0.69375
gfz2012nsxc  -0.09384
gfz2012oafg  -0.41308
gfz2012oehy  -0.20725
gfz2012ofnx  -0.55901
gfz2012ojmv  -0.77939
gfz2012oork  -0.64511
gfz2012pgmw  -0.58350
gfz2012phns  -0.53145
gfz2012pira   0.07745
gfz2012pmuj  -0.22794
gfz2012pokk  -0.61668
gfz2012pvve  -0.07268
gfz2012qfah  -0.23715
gfz2012qllj  -0.24408
gfz2012qmhz  -0.82774
gfz2012rknz  -0.26238
gfz2012roan  -0.04034
gfz2012rzwp  -2.63370
gfz2012smyn  -0.50332
gfz2012socz  -0.44233
gfz2012sopp  -0.10326
gfz2012sqsc   0.15628
gfz2012ssvn   0.71984
gfz2012suqd   0.35530
gfz2012svwz   0.08456
gfz2012swbz   0.27192
gfz2012sxbo  -2.33910
gfz2012tqjc   0.48673
gfz2012trss   1.03440
gfz2012ttnf   0.14414
gfz2012twec  -0.27496
gfz2012tyoz   0.65921
gfz2012udeo  -0.17483
gfz2012uegq  -0.43250
gfz2012uhsx  -0.15624
gfz2012ulei  -0.91806
gfz2012unxc   1.12320
gfz2012uvea  -0.56937
gfz2012uvoa  -2.19280
gfz2012vgot  -0.52323
gfz2012vioy  -0.25152
gfz2012vlzv   0.79824
gfz2012vqmq   0.20755
gfz2012vrqz   0.88042
gfz2012vurc   1.12220
gfz2012wgdv  -0.41154
gfz2012wgmg  -0.36777
gfz2012wkki  -0.29201
gfz2012wowu   1.14300
gfz2012woxj  -0.19513
gfz2012wpen   0.34445
gfz2012wysg  -0.19182
gfz2012wzja   0.95452
gfz2012xask  -0.43755
gfz2012xbna  -0.11785
gfz2012xkln  -0.12038
gfz2012xkvu   0.09542
gfz2012xlas  -0.33239
gfz2012xlfo  -0.51508
gfz2012xncm  -1.00830
gfz2012yihn  -1.41600
gfz2012yncm  -1.85930
gfz2012zhyz  -0.13307
gfz2012zido   0.17397
gfz2012znou  -0.86498
gfz2012zqis  -1.11170
gfz2013afzh   0.38389
gfz2013aggr   1.04050
gfz2013akkd   0.09807
gfz2013aymi   0.21645
gfz2013bqfc   1.10750
gfz2013byyy   0.39979
gfz2013cfls  -0.29410
gfz2013cvve   0.95531
gfz2013cyvx  -0.16727
gfz2013delq   0.28776
gfz2013dftb  -0.01773
gfz2013dfvx  -2.57260
gfz2013dnot  -0.85197
gfz2013dzvr  -0.13452
gfz2013eazm   0.29086
gfz2013egfv  -0.38771
gfz2013eidd  -1.20820
gfz2013enga  -0.67600
gfz2013enqo  -1.31640
gfz2013enrh   0.03974
gfz2013ewht  -0.02219
gfz2013ezmc  -0.45563
gfz2013ffjt  -0.40714
gfz2013fmcd  -0.92740
gfz2013fndg  -0.19341
gfz2013fnpa   0.28668
gfz2013foto   0.61139
gfz2013fulo  -0.18020
gfz2013fvht   0.00964
gfz2013fvyr   0.38829
gfz2013fxyr  -0.31017
gfz2013fybd   0.11089
gfz2013gkyn   0.70171
gfz2013gomv  -0.94712
gfz2013grle   1.55180
gfz2013gugi  -0.43188
gfz2013gxye  -0.57307
gfz2013gywl   0.47685
gfz2013hbtm   0.10014
gfz2013hbwy   1.65570
gfz2013hduf  -0.06695
gfz2013hvkg  -0.49198
gfz2013icql  -0.95095
gfz2013iuyv  -1.00490
gfz2013iwzn   0.30054
gfz2013jfcn  -0.25056
gfz2013jlli   0.19638
gfz2013jobl   0.01044
gfz2013jrqf   0.15528
gfz2013jtsg   0.56892
gfz2013kats  -0.10030
gfz2013kcdb  -0.10603
gfz2013kjgh   0.17872
gfz2013kqab  -0.14873
gfz2013kslp   0.40179
gfz2013kxlr  -0.18005
gfz2013lbod  -0.31751
gfz2013lbvl  -0.21456
gfz2013lgvf  -0.20403
gfz2013ljdu  -0.29001
gfz2013mdxj   0.17962
gfz2013mnux   0.46698
gfz2013mvgq  -0.17183
gfz2013mynb  -0.16172
gfz2013mzaw   0.04207
gfz2013nkgd   2.77080
gfz2013nkgt   0.46355
gfz2013ntfc  -0.22790
gfz2013ntiu  -0.56508
gfz2013ohnj  -0.27564
gfz2013oizq  -0.18671
gfz2013okxa   0.22802
gfz2013onvl  -0.54788
gfz2013oruq  -0.58018
gfz2013oywh  -0.61248
gfz2013phhi  -0.02001
gfz2013phly   2.01390
gfz2013qdks   0.27267
gfz2013qear   0.72033
gfz2013qigb   0.12950
gfz2013qoak  -0.45356
gfz2013qogb   0.19838
gfz2013quwz   0.13259
gfz2013qxof  -0.02836
gfz2013rdmn   0.63585
gfz2013rhbx  -0.62958
gfz2013rwkj   0.08372
gfz2013ryph  -0.29348
gfz2013sbsp   0.15966
gfz2013stou   0.04016
gfz2013stup  -0.50219
gfz2013swnj  -0.51077
gfz2013taeb  -0.48897
gfz2013tjub   2.50100
gfz2013tmyj  -0.01907
gfz2013tnff   0.34218
gfz2013tnrp  -0.01459
gfz2013uafv  -0.15811
gfz2013udtw  -0.35396
gfz2013uepl   0.13957
gfz2013unuv  -0.51687
gfz2013upqj   1.36330
gfz2013utqa   0.09284
gfz2013uwjo  -0.28702
gfz2013uzmf  -0.51922
gfz2013vldx   0.94149
gfz2013vmrv   0.00198
gfz2013vmsg   0.54462
gfz2013vnwa   1.69720
gfz2013voai  -0.01185
gfz2013vvre  -0.21136
gfz2013wgwz   0.86570
gfz2013wpns   0.08177
gfz2013wwee  -0.82028
gfz2013wyfl  -0.34387
gfz2013xahp   0.01368
gfz2013xbdc  -1.25460
gfz2013xmzw   0.21459
gfz2013xofz  -0.04482
gfz2013xswc  -0.53808
gfz2013xycz   0.05634
gfz2013yihv  -0.17267
gfz2013ykkf   1.56900
gfz2013yktj   0.01658
gfz2013ylxm  -1.59530
gfz2013yqkz  -0.10501
gfz2013yqtu  -0.82750
gfz2013yvnj  -0.31754
gfz2013yxhf  -0.03337
gfz2013zeye  -0.28296
gfz2013zfbz  -0.34345
gfz2013zlak   0.10920
gfz2014aedl  -0.31195
gfz2014ajgi   1.43850
gfz2014amgk  -0.01594
gfz2014aqax  -0.90321
gfz2014aqop  -1.34180
gfz2014ateb   0.07327
gfz2014avzp   0.20652
gfz2014bgyv  -0.33874
gfz2014bhch   3.79420
gfz2014bkra  -1.62760
gfz2014bnea   0.58073
gfz2014buyz   0.15985
gfz2014cbfo  -2.07760
gfz2014cokw   0.45410
gfz2014crac  -0.01158
gfz2014dmrw  -0.00000
gfz2014dwcp  -0.73036
gfz2014eflc   0.67774
gfz2014eiav  -0.32241
gfz2014eirs  -0.17076
gfz2014emlw  -0.72139
gfz2014eoay  -0.21176
gfz2014epfm  -0.30980
gfz2014epnq  -0.44724
gfz2014esez   0.48443
gfz2014eunw  -0.18240
gfz2014evhm  -1.01240
gfz2014ezjq   0.20103
gfz2014fbli  -0.20865
gfz2014fbnr  -0.31507
gfz2014fjfz  -0.51196
gfz2014fsir  -0.37219
gfz2014fwxt   0.75329
gfz2014fxte   0.83405
gfz2014fxuy  -0.85731
gfz2014geln  -0.13541
gfz2014ginr  -0.04757
gfz2014gjfd   0.00368
gfz2014gnbw  -0.14992
gfz2014gsfc  -0.34715
gfz2014gypw  -1.91860
gfz2014hhey  -0.85941
gfz2014hkcw  -0.36594
gfz2014hotu  -0.09008
gfz2014hyea  -0.05202
gfz2014hzzf   1.52710
gfz2014icov   0.46152
gfz2014igrp   0.02491
gfz2014ijsa   0.84773
gfz2014iltl   0.25007
gfz2014ined   0.76673
gfz2014ipfu  -0.25099
gfz2014irlf   0.03615
gfz2014irln   0.25472
gfz2014irly   0.17489
gfz2014itlx  -0.40119
gfz2014iyuc   0.11042
gfz2014jarg  -0.77506
gfz2014jaxy   1.25850
gfz2014jayh  -0.32195
gfz2014jcbj   1.15090
gfz2014jckg  -0.81878
gfz2014jfmc  -1.06550
