# Nsamples: 49  MAD:  0.387  mean: -0.246  std:  0.744
gfz2013aymi  -0.48971
gfz2013dngd  -0.13691
gfz2013eazm  -1.26910
gfz2013gqtl  -0.33159
gfz2013hjtt  -0.43530
gfz2013iuyv   1.08120
gfz2013jcnn  -0.28202
gfz2013jfcn  -0.10273
gfz2013kats   0.32350
gfz2013kcdb  -0.16615
gfz2013kqab   0.05743
gfz2013lbvl   2.18830
gfz2013mvgq  -0.72457
gfz2013mzaw  -0.87124
gfz2013njwj   0.49449
gfz2013ohnj   0.00943
gfz2013oizq   1.32970
gfz2013ojza  -0.20250
gfz2013okac  -0.66107
gfz2013onvl  -0.33262
gfz2013oywh  -0.53867
gfz2013phhi  -0.62181
gfz2013pkmz  -0.27627
gfz2013qoak   0.81666
gfz2013qxof  -0.23798
gfz2013rocs  -0.54290
gfz2013ryph  -0.15804
gfz2013ubgt  -0.20771
gfz2013udtw  -0.29640
gfz2013ujze  -0.50629
gfz2013unuv  -0.12512
gfz2013upqj  -0.55489
gfz2013uwjo  -0.26863
gfz2013uxzw  -0.02470
gfz2013uzmf  -0.86319
gfz2013veug  -0.74217
gfz2013vmrv  -1.37480
gfz2013wyfl   0.10986
gfz2013xmzw   0.04731
gfz2013xuxr  -0.79584
gfz2013yawe   0.89827
gfz2014bqpm  -0.07624
gfz2014fbli  -1.06180
gfz2014fsir  -0.52482
gfz2014gnbw  -0.45489
gfz2014icov  -0.54090
gfz2014imqh   0.53035
gfz2014iusw  -2.78380
gfz2014jarg  -0.37824
