# Nsamples: 7  MAD:  0.750  mean:  1.592  std:  1.487
gfz2011ahvh   3.09590
gfz2011dpyu   1.73780
gfz2011ndhh   2.71020
gfz2011uqry   2.24360
gfz2012ekfp   1.30670
gfz2012mjuu   1.49070
gfz2012mjzl  -1.44380
