# Nsamples: 128  MAD:  0.550  mean:  0.021  std:  1.021
gfz2011mjje   0.15742
gfz2011mllb   0.03630
gfz2011ndhh   0.50410
gfz2011ndki  -0.83859
gfz2011ndlh  -0.12069
gfz2011ndse  -1.94650
gfz2011neai  -0.19497
gfz2011nejg   0.32099
gfz2011nejw   0.10404
gfz2011nfgt  -2.62270
gfz2011nhjv   2.58020
gfz2011nhvt  -0.34093
gfz2011nhwf  -0.74395
gfz2011nilw   0.90140
gfz2011niuw   0.58939
gfz2011nkou   1.84930
gfz2011nlmf  -2.09850
gfz2011nlnl   3.30890
gfz2011nlum  -0.10424
gfz2011nsiy  -1.07310
gfz2011nssr   0.92146
gfz2011nsyi   1.14580
gfz2011nvty  -0.88041
gfz2011nyzk  -0.57019
gfz2011oadm  -0.08767
gfz2011ofpj   0.54873
gfz2011okza   0.55721
gfz2011oqjl  -0.23199
gfz2011paqj  -0.38287
gfz2011pdsn  -0.58260
gfz2011pfwq   0.14372
gfz2011plzc   0.94599
gfz2011pphc   0.42555
gfz2011qenl   1.18340
gfz2011qgea  -0.36847
gfz2011qklh  -1.43600
gfz2011rkau  -6.40190
gfz2011scma   0.88023
gfz2011tsgl  -1.23530
gfz2011twpz   0.14580
gfz2011txxs  -0.43793
gfz2011udxo  -0.42498
gfz2011ugbt   0.17329
gfz2011unud   0.42886
gfz2011uowi  -0.09313
gfz2011uqry  -0.07328
gfz2011vcyx   0.22228
gfz2011wfsk  -0.06447
gfz2011wgoa   0.18155
gfz2011wkyx   0.22980
gfz2011yexx  -0.17245
gfz2011ywtj  -0.39061
gfz2012alti   0.20957
gfz2012amjx   0.05175
gfz2012arlo  -0.12647
gfz2012avvc   0.68002
gfz2012bolx   0.53254
gfz2012byrq   0.49460
gfz2012bytv  -0.11940
gfz2012byuk   0.06927
gfz2012cdju  -0.30504
gfz2012cksh  -2.23360
gfz2012gjtd   0.09108
gfz2012gmsr  -0.94411
gfz2012hzur  -0.54979
gfz2012iotw   0.84678
gfz2012ivyg   2.47880
gfz2012kmbo   0.38425
gfz2012kmmz  -0.18665
gfz2012moul   1.90130
gfz2012mrqk   0.26990
gfz2012oehy   0.14155
gfz2012pifb  -0.29350
gfz2012pziw   0.08824
gfz2012qpoc  -0.11240
gfz2012rjlp  -0.00981
gfz2012sjdy   0.13609
gfz2012suqd  -0.40569
gfz2012syum   0.15100
gfz2012ulei  -0.46915
gfz2012uzww   0.36641
gfz2012wowu  -1.27170
gfz2012xlas  -0.62891
gfz2012xlfo   0.12055
gfz2012xncm  -0.12538
gfz2013adih   0.73644
gfz2013atec   0.80748
gfz2013bwgw  -0.20204
gfz2013byyy   0.15556
gfz2013cfls   0.94157
gfz2013cokc   0.27686
gfz2013cvve   0.19530
gfz2013dngd  -0.15830
gfz2013fnpa  -0.93464
gfz2013fwbm   1.00710
gfz2013hqaa  -0.20593
gfz2013kbbg   0.33285
gfz2013kcdb  -0.84688
gfz2013ljwt   1.08330
gfz2013mvgq  -0.07541
gfz2013oizq   0.07191
gfz2013pkmz   1.03700
gfz2013pqkp   0.25786
gfz2013qoak   1.35190
gfz2013rdmn  -0.08080
gfz2013stup  -0.23332
gfz2013taeb   0.61027
gfz2013tert  -0.22271
gfz2013unuv  -0.42816
gfz2013upqj   0.96815
gfz2013uwxb   0.33967
gfz2013veug  -0.28119
gfz2013vmsg  -1.24660
gfz2013vnwa  -0.04780
gfz2013vzel   0.15163
gfz2013xahp  -0.74102
gfz2013yawe   0.12607
gfz2014ayxf   0.74975
gfz2014bdju  -0.10324
gfz2014cncl  -0.02290
gfz2014cwti   0.39338
gfz2014flxk  -0.11612
gfz2014fxtv   0.88717
gfz2014gqxg  -0.82672
gfz2014gypw   1.43910
gfz2014hzzf  -0.66765
gfz2014imqh  -0.03562
gfz2014irly   0.43456
