# Nsamples: 56  MAD:  0.534  mean: -0.114  std:  0.940
gfz2010pgpo  -0.53079
gfz2011gpyr   0.98168
gfz2011haaa   0.45685
gfz2011hmnw   0.09607
gfz2011jryv   0.92258
gfz2012wgmg   0.92137
gfz2012wowu  -0.39280
gfz2013byyy  -0.22919
gfz2013cinv   0.35149
gfz2013cvve  -1.95600
gfz2013dzvr   0.36083
gfz2013fnpa  -0.74050
gfz2013fvyr  -0.86306
gfz2013fybd   0.27446
gfz2013icql  -0.31537
gfz2013iwhc  -0.16328
gfz2013iwzn  -0.40537
gfz2013jfcn   0.55995
gfz2013jobl   0.11060
gfz2013kats  -0.50723
gfz2013lbvl  -0.40360
gfz2013mzaw   0.35915
gfz2013oizq  -0.45462
gfz2013phhi   2.22240
gfz2013qoak   0.21380
gfz2013quwz   0.43186
gfz2013quyn  -0.28280
gfz2013qwnm   0.77799
gfz2013qxof  -0.03215
gfz2013ryph   0.27435
gfz2013syqp  -0.15595
gfz2013utqa   0.07828
gfz2013uwjo  -4.61050
gfz2013uwxb  -0.36867
gfz2013veug  -0.81556
gfz2013vjrr  -0.13917
gfz2013wyfl  -0.17811
gfz2013xahp  -0.63460
gfz2013xofz   1.64620
gfz2013xswc  -0.15329
gfz2013zlak  -0.27788
gfz2014cvnb   0.30723
gfz2014dwcp  -0.05878
gfz2014eoay  -0.30220
gfz2014eunw   0.03859
gfz2014fjfz  -2.27940
gfz2014fsir  -0.21403
gfz2014fwxt  -0.14271
gfz2014fxte   0.56556
gfz2014hhey  -0.42782
gfz2014hyea  -0.15404
gfz2014icov  -1.17960
gfz2014iltl   0.50085
gfz2014irlf   0.09885
gfz2014irln  -0.05061
gfz2014irly   0.51060
