# Nsamples: 864  MAD:  0.538  mean: -0.076  std:  0.896
gfz2010abfc  -0.07872
gfz2010abvu  -1.89770
gfz2010axdz  -0.14249
gfz2010bklj   1.05360
gfz2010bofe   0.24327
gfz2010brlc   0.30694
gfz2010btme  -0.05868
gfz2010bukb   0.79353
gfz2010ccye   0.34838
gfz2010crgy   0.24909
gfz2010crir  -0.20459
gfz2010cthm   0.22812
gfz2010djib   0.54109
gfz2010dslu   0.40415
gfz2010dtgc   0.44463
gfz2010dtyx   1.78090
gfz2010dumv  -0.16175
gfz2010dxhq   1.39470
gfz2010eqyj   1.33800
gfz2010ewyj   0.47104
gfz2010faly  -0.34259
gfz2010fgbo  -0.11043
gfz2010fjio   0.40804
gfz2010fopf  -0.32160
gfz2010fqnn   0.31396
gfz2010fqzh   0.54903
gfz2010fuky  -0.29626
gfz2010fvfz  -0.32238
gfz2010fxut  -0.82868
gfz2010gcrn   0.86689
gfz2010gooc  -0.42721
gfz2010gpjl   2.43110
gfz2010gxki  -2.48130
gfz2010habf   0.82199
gfz2010hdxn   0.81206
gfz2010hexh  -0.10201
gfz2010hnuo   0.32385
gfz2010hueh  -0.09683
gfz2010huzl  -0.14692
gfz2010iaay   0.28274
gfz2010ifhd   0.07855
gfz2010ihef   0.41154
gfz2010ioad   0.32240
gfz2010izag   0.86672
gfz2010izgb  -0.07523
gfz2010jcby   0.23887
gfz2010jcpq  -0.25841
gfz2010jgwj  -0.17311
gfz2010jlvp   0.86077
gfz2010jpkn  -0.48211
gfz2010jvsi  -0.47604
gfz2010kcdq   0.19264
gfz2010kzzm  -0.84592
gfz2010ljol  -0.01652
gfz2010lvnj   0.99752
gfz2010mdti   0.07476
gfz2010mnoc  -0.72141
gfz2010mpvc  -0.31486
gfz2010mqaj   0.06912
gfz2010msss  -0.57569
gfz2010mvmb  -0.98546
gfz2010mvtj  -0.20237
gfz2010mwmd   0.78546
gfz2010mzfb  -1.21080
gfz2010nbcr  -0.35978
gfz2010nccu  -0.03592
gfz2010ncwu   0.03989
gfz2010nteg  -0.06551
gfz2010nwbd   0.61294
gfz2010ogwn   0.05620
gfz2010oibn  -1.89040
gfz2010ojhe   0.34994
gfz2010okpc   0.82202
gfz2010osrl   0.11384
gfz2010pclq   0.20782
gfz2010pcya   0.05683
gfz2010pdip  -0.11726
gfz2010pgpo  -0.94368
gfz2010pgrf   0.26711
gfz2010pvnn   1.52180
gfz2010pxoi  -0.80175
gfz2010pzza  -0.75732
gfz2010qbcy   0.85192
gfz2010qdqk  -0.34310
gfz2010qqqx  -0.35607
gfz2010qrix  -0.64717
gfz2010qrta   0.04357
gfz2010qykh  -2.81070
gfz2010qylh   0.03716
gfz2010qzvf   1.12820
gfz2010rdep   0.30315
gfz2010rhvu  -0.88635
gfz2010rkuu  -0.36218
gfz2010rmua  -0.58478
gfz2010rnqa  -2.48180
gfz2010rnwt  -2.23310
gfz2010rpbz  -0.60873
gfz2010schp  -0.11685
gfz2010scht   0.19144
gfz2010sdfs  -1.09660
gfz2010sftm   0.01527
gfz2010shvn  -0.06379
gfz2010sook  -0.04877
gfz2010swqy  -0.01455
gfz2010syqh   0.31688
gfz2010szxo  -0.18239
gfz2010tcgh  -1.13640
gfz2010tgmo   0.40388
gfz2010tpcj   0.70738
gfz2010tqyo  -0.71626
gfz2010tvit   0.04372
gfz2010tzki   0.60966
gfz2010tzlz   0.96130
gfz2010tzma   1.85960
gfz2010ugws  -0.37056
gfz2010uhjy   0.27583
gfz2010uidg  -0.29820
gfz2010uogw  -1.17750
gfz2010upod  -0.34513
gfz2010uqba   0.57007
gfz2010uraq  -0.81776
gfz2010ussf   0.40293
gfz2010utsc  -0.35163
gfz2010uyng  -0.17557
gfz2010vdcf   0.39504
gfz2010vfyu   0.87073
gfz2010vgfu  -0.24020
gfz2010viyi   0.06468
gfz2010vong   1.12160
gfz2010vybx  -0.34562
gfz2010vyri   0.30335
gfz2010wakc   0.53174
gfz2010wigk   0.28200
gfz2010wplk  -0.31190
gfz2010wtin  -0.75284
gfz2010wwhf   0.42185
gfz2010wyuj  -0.87263
gfz2010xamh  -0.39157
gfz2010xjsv   0.68163
gfz2010xkbz  -0.45174
gfz2010xkku  -0.70263
gfz2010xnbn  -2.24600
gfz2010xpzq   0.40764
gfz2010yfdr   0.25525
gfz2010yilf  -0.05576
gfz2010ymih   0.83096
gfz2010ytzb  -0.66086
gfz2010zhvj  -0.32265
gfz2010zjun  -0.25130
gfz2011aqpp   1.41400
gfz2011bqbx  -0.57276
gfz2011bvog  -0.61054
gfz2011bwsm  -1.62260
gfz2011byec  -0.07867
gfz2011bygu  -0.85626
gfz2011cjuz   0.81960
gfz2011dabj   0.59560
gfz2011dpyu   0.69707
gfz2011fnie   0.50048
gfz2011fszl   0.39827
gfz2011fyfu   0.28802
gfz2011fzcw  -0.53178
gfz2011gaax   0.42714
gfz2011gcct   0.10269
gfz2011gfer   0.25740
gfz2011ggnl  -0.58179
gfz2011glpg  -0.27892
gfz2011gnbk  -0.37848
gfz2011gpyr  -0.00000
gfz2011grby  -0.61173
gfz2011gzde   0.21667
gfz2011hatg  -0.73113
gfz2011hbqc   1.43050
gfz2011hffq  -2.71700
gfz2011hibi   0.64127
gfz2011hjof   0.13926
gfz2011hmnw  -0.58972
gfz2011hqjs   0.04896
gfz2011hrgt   0.03556
gfz2011huon  -0.61397
gfz2011hvzo  -1.12100
gfz2011hwbn  -0.79089
gfz2011hyct  -0.17529
gfz2011hyuh  -1.06690
gfz2011iamf  -0.24478
gfz2011iryz  -0.36476
gfz2011itcv   0.94920
gfz2011ituo  -0.29546
gfz2011iybf  -0.25567
gfz2011jdoz   0.43944
gfz2011jeta  -0.26518
gfz2011jfyb  -0.75530
gfz2011jghq  -0.44366
gfz2011jphj  -0.02711
gfz2011jpob   0.26744
gfz2011jqyc  -0.46646
gfz2011jryv   1.96390
gfz2011kfch  -0.25602
gfz2011kgvq   0.31645
gfz2011kjzt   0.10688
gfz2011kjzv   1.06640
gfz2011kmge   0.18439
gfz2011kujo   0.02071
gfz2011kylu  -0.38362
gfz2011kymm  -1.69870
gfz2011kyzy  -0.06559
gfz2011lbnn   0.90011
gfz2011lkkf  -0.87345
gfz2011lmug  -0.30900
gfz2011lnzf   1.05690
gfz2011lrpv  -0.09670
gfz2011lwmg  -1.16370
gfz2011lxga  -0.40846
gfz2011lykm  -0.26735
gfz2011lywj   1.30720
gfz2011mdyq   0.29361
gfz2011melb   0.89831
gfz2011mimz  -0.24629
gfz2011mjje   0.07570
gfz2011mllb   0.07243
gfz2011mntq  -0.05402
gfz2011moob  -0.32052
gfz2011mrfm   0.35636
gfz2011mror   0.08357
gfz2011mrpy  -1.00690
gfz2011mryu   0.21671
gfz2011mzvn   0.60605
gfz2011nblt   0.15731
gfz2011ncyw   0.27997
gfz2011ndhh   0.83465
gfz2011ndki  -0.38815
gfz2011ndoe  -0.26289
gfz2011ndse  -0.02586
gfz2011ndtp   0.12030
gfz2011ndvj  -0.51726
gfz2011ndyk  -0.12822
gfz2011neai   0.31923
gfz2011nejg   0.40846
gfz2011nejw   0.56800
gfz2011nerb   1.27960
gfz2011nfcz   0.71628
gfz2011nfgt   2.11910
gfz2011nfih  -0.64761
gfz2011nfln  -1.40410
gfz2011nftw   0.73573
gfz2011nfwd  -0.14356
gfz2011nfww   0.36013
gfz2011nhby  -0.46870
gfz2011nhhd   0.30758
gfz2011nhjv  -0.42923
gfz2011nhvt  -0.21420
gfz2011nhwf   0.62479
gfz2011nifi  -0.34289
gfz2011nihq   2.30870
gfz2011nijp   0.38787
gfz2011nilw   0.72657
gfz2011nimp   0.22000
gfz2011nioi  -0.04944
gfz2011nisj   0.18031
gfz2011niuw  -6.15490
gfz2011nivw  -0.36094
gfz2011nkda  -0.69175
gfz2011nkou  -0.09421
gfz2011nlmf   0.93032
gfz2011nlnl   1.69640
gfz2011nlok   0.27037
gfz2011nlou  -0.50731
gfz2011nlum   0.80048
gfz2011nlyw  -0.67607
gfz2011nmdz   0.42910
gfz2011nmhg   1.11440
gfz2011nnda  -0.59966
gfz2011nnos  -0.85435
gfz2011npaf  -0.72527
gfz2011nsiy  -1.04380
gfz2011nsrx   0.24777
gfz2011nssr   1.00400
gfz2011nswi  -0.27897
gfz2011nsyi  -2.96140
gfz2011ntyd   0.40991
gfz2011nuqo   0.30154
gfz2011nvty   0.39455
gfz2011nyzk  -0.97630
gfz2011oadm  -0.34121
gfz2011oazk  -0.96489
gfz2011ocif   0.50861
gfz2011oekz   1.55340
gfz2011oesd  -1.04020
gfz2011ofpj  -1.04430
gfz2011ohgj  -0.67200
gfz2011okza   1.26130
gfz2011omxt  -0.41161
gfz2011oosp   1.16520
gfz2011oslk   0.25242
gfz2011osmp   0.63074
gfz2011osuy  -0.99089
gfz2011ovvj   0.17371
gfz2011paqj  -0.39394
gfz2011pbgh   3.42120
gfz2011pbjh   0.37780
gfz2011pcqr   0.35592
gfz2011pdgq  -0.02197
gfz2011pdsn  -0.73097
gfz2011pfls  -0.00798
gfz2011pfwq  -0.56639
gfz2011pimj   0.02899
gfz2011pivq  -0.98479
gfz2011pmuv   0.18451
gfz2011poug   0.00026
gfz2011pphc  -0.80481
gfz2011ppsc  -0.65751
gfz2011prrq  -0.24580
gfz2011ptgd  -1.03730
gfz2011pulu  -0.26202
gfz2011pwbw  -0.36715
gfz2011qasw  -0.29976
gfz2011qenl  -0.54409
gfz2011qgea  -0.96279
gfz2011qgvh  -0.19618
gfz2011qgvx  -0.05976
gfz2011qidi   0.96898
gfz2011qklh   0.83613
gfz2011qowe  -0.97659
gfz2011qtoy  -1.21140
gfz2011qukj  -0.24895
gfz2011rczb   0.01356
gfz2011rkau  -0.15798
gfz2011rnny   0.63480
gfz2011rplo   0.29753
gfz2011rqut   0.18875
gfz2011scma  -0.44664
gfz2011sdax  -0.75027
gfz2011sfmu   0.90026
gfz2011sqco   0.42073
gfz2011sqxp  -0.02221
gfz2011sskq   0.15290
gfz2011stzi  -0.29890
gfz2011swfp  -0.43700
gfz2011sxno  -0.18066
gfz2011sylg   0.73626
gfz2011syvj  -0.22716
gfz2011szau  -0.37595
gfz2011szcj  -1.09580
gfz2011szis   0.29150
gfz2011taqr   0.31967
gfz2011tarj   0.55502
gfz2011tdjj   1.64470
gfz2011tfor  -1.20140
gfz2011tgey  -9.04020
gfz2011tlwl  -0.48582
gfz2011tqgg  -0.34054
gfz2011tsgl   0.32432
gfz2011tssv  -0.18704
gfz2011tvuv  -0.82902
gfz2011twpz  -0.66361
gfz2011txdb   0.26974
gfz2011txxs   0.16694
gfz2011tzcv  -1.45820
gfz2011udxo  -1.27410
gfz2011ugbt  -0.68842
gfz2011unud   0.06558
gfz2011uqry   0.56980
gfz2011uvsi  -0.10620
gfz2011vahy  -0.00113
gfz2011vaoi   1.11180
gfz2011varl  -1.06990
gfz2011vbxv   0.25444
gfz2011vcyx  -0.57634
gfz2011vemg   1.15770
gfz2011vimn  -0.27130
gfz2011vsag  -0.20616
gfz2011vswj  -0.52258
gfz2011vxek  -0.85678
gfz2011wfsk  -0.34627
gfz2011wgoa   0.72958
gfz2011wgvh  -0.57945
gfz2011wkyx  -0.03006
gfz2011wngi  -0.23436
gfz2011wnvu  -0.03853
gfz2011wpzt  -0.00140
gfz2011wqup   0.06816
gfz2011wtfn   0.59877
gfz2011wucg   0.39012
gfz2011wyei  -0.17102
gfz2011wzss  -0.03641
gfz2011xawm  -0.05047
gfz2011xgwy   0.28991
gfz2011xkka   0.25855
gfz2011xlod   0.03998
gfz2011xnui  -0.08135
gfz2011xpcq  -0.10134
gfz2011xwdv   0.42967
gfz2011xxng  -0.17591
gfz2011yexx  -0.03267
gfz2011ykbd  -1.88850
gfz2011ymji  -0.95414
gfz2011zghc   1.07240
gfz2011ziyk  -0.54545
gfz2011zkbt  -0.35132
gfz2011zlga  -1.78950
gfz2012adja  -0.30134
gfz2012ahac  -0.12466
gfz2012ahkl  -0.45241
gfz2012alti  -0.03366
gfz2012amjx   0.65899
gfz2012amvs  -0.09534
gfz2012arlo  -0.09576
gfz2012atjr  -0.02714
gfz2012avvc   0.20222
gfz2012beae   0.39208
gfz2012bity  -0.29976
gfz2012bjhl  -0.01900
gfz2012bolx   0.10303
gfz2012bqcf  -0.60431
gfz2012byrq   0.01817
gfz2012cdju   0.49498
gfz2012cntu   0.87953
gfz2012cvfr  -0.48899
gfz2012dejg   0.45816
gfz2012dpwv  -0.02210
gfz2012dtdt  -0.31763
gfz2012dtvr   0.17751
gfz2012ebrr   0.08128
gfz2012ekfp   0.48590
gfz2012eyti  -0.77463
gfz2012fbgz   0.72601
gfz2012fhaf  -0.16209
gfz2012fiiz  -0.84193
gfz2012fjiu   0.79704
gfz2012foih  -0.29095
gfz2012fpyo  -0.25330
gfz2012ftks  -0.81381
gfz2012fuyd  -0.24107
gfz2012fxgc   0.25611
gfz2012fyny   0.08648
gfz2012ghiv   0.30981
gfz2012gjtd  -0.46114
gfz2012gmsr  -1.33900
gfz2012gnow  -0.24099
gfz2012gubu   1.59560
gfz2012gvxc   0.12399
gfz2012gzuk  -0.04510
gfz2012hdny   0.37790
gfz2012heih   0.02782
gfz2012hmcv  -0.44243
gfz2012hzur   0.33435
gfz2012iblo  -0.08033
gfz2012ibyd  -0.63652
gfz2012idxu  -0.36652
gfz2012ieln   0.20532
gfz2012iijk   0.14417
gfz2012imuo  -0.27926
gfz2012iotw  -0.76342
gfz2012ipdc  -0.43698
gfz2012iphs  -0.52903
gfz2012iroy  -0.42976
gfz2012ivyg  -1.05730
gfz2012iyoi  -6.18420
gfz2012jetp   0.96556
gfz2012jihg  -0.39116
gfz2012jjxm  -0.04263
gfz2012jksz   5.13060
gfz2012jlez  -0.58174
gfz2012jodg  -0.56971
gfz2012jopi  -0.44319
gfz2012jvei  -0.46216
gfz2012jyhb  -0.67557
gfz2012kadi   0.05083
gfz2012kmbo   0.26443
gfz2012kmmz  -0.45214
gfz2012kstg  -0.31091
gfz2012kvlx  -0.58321
gfz2012kwmx   0.61506
gfz2012lcca  -0.38188
gfz2012ldjj  -0.62872
gfz2012lngq  -0.97929
gfz2012lqhw  -0.42763
gfz2012lvlr  -0.12315
gfz2012lwha  -0.29639
gfz2012lyyr  -0.17673
gfz2012mdzf  -0.42235
gfz2012mekv   0.04337
gfz2012mhik   0.10005
gfz2012mjuu  -0.47511
gfz2012mjzl   0.72517
gfz2012mmiw   0.77018
gfz2012mnth  -0.24990
gfz2012moul  -1.51560
gfz2012mout  -0.17424
gfz2012movu  -0.23776
gfz2012movv   0.22904
gfz2012mowv   0.40211
gfz2012mpvl  -0.08892
gfz2012mpzo  -0.31997
gfz2012mrqk  -0.05477
gfz2012mrwu   0.34422
gfz2012mtyn  -1.08290
gfz2012mwhe   1.37560
gfz2012mxdk  -2.30840
gfz2012mxvk   0.12833
gfz2012mzqx   0.12322
gfz2012ndwt   0.23107
gfz2012nfos   1.00480
gfz2012nfzc  -0.47639
gfz2012nldz  -0.76993
gfz2012nlrb   0.19305
gfz2012nmja  -0.30414
gfz2012nnck  -0.27772
gfz2012nnqu  -0.49093
gfz2012nnsl  -0.06360
gfz2012nqvd  -0.28852
gfz2012nsxc  -0.79718
gfz2012oafg   0.13947
gfz2012oehy  -0.15639
gfz2012ofnx   1.54180
gfz2012ogqu   0.43441
gfz2012ogwe  -0.08891
gfz2012oieq   0.07662
gfz2012oiez   1.60980
gfz2012ojfv  -0.31405
gfz2012onhu   0.33226
gfz2012ooij  -0.27275
gfz2012oork   0.56969
gfz2012oozp  -0.81145
gfz2012ormy   0.54021
gfz2012oxnh  -0.30686
gfz2012oyja   0.14346
gfz2012pcui   0.95929
gfz2012pdjt   0.94808
gfz2012pgmw  -0.13200
gfz2012phns  -0.22977
gfz2012pira   0.03400
gfz2012pmuj  -0.70819
gfz2012pmuq  -1.12340
gfz2012pokk  -0.56766
gfz2012ppcq   0.23393
gfz2012ppsw   1.39460
gfz2012pryl  -0.19825
gfz2012pumy  -3.78930
gfz2012pvve  -0.06315
gfz2012pziw  -0.70609
gfz2012qbbt   0.56007
gfz2012qfah  -2.10120
gfz2012qfov  -0.44425
gfz2012qhqp   0.94717
gfz2012qibe   0.86367
gfz2012qmhz  -0.37408
gfz2012qpoc   1.26750
gfz2012qvwy  -0.23632
gfz2012rduv   4.34570
gfz2012rfhw  -0.43776
gfz2012rjlp   0.79152
gfz2012rknz  -0.41144
gfz2012rnbw   0.69593
gfz2012rnml  -0.09003
gfz2012rugl  -0.49693
gfz2012rzwp  -2.20370
gfz2012sbix   0.28844
gfz2012scuk   0.03280
gfz2012sgfd   0.01594
gfz2012sjdy  -0.98918
gfz2012sjox   0.85455
gfz2012slfd   1.05730
gfz2012smyn  -0.49164
gfz2012socz  -0.41719
gfz2012sopp   0.31445
gfz2012sqsc  -0.32822
gfz2012ssnb  -1.49950
gfz2012ssvn  -0.24058
gfz2012stxx   0.04767
gfz2012suqd   0.50997
gfz2012svwz   0.57617
gfz2012swbz  -0.22027
gfz2012sxbo  -0.18344
gfz2012sxpr  -0.16162
gfz2012sxzs  -0.07000
gfz2012syum   0.20870
gfz2012taph  -0.73986
gfz2012tbho  -1.19090
gfz2012tfij  -0.29255
gfz2012tgta  -0.22030
gfz2012thyh   0.00000
gfz2012tisj  -0.18054
gfz2012tjih   0.69795
gfz2012touh  -0.20318
gfz2012tqjc   0.12842
gfz2012trfq   0.35071
gfz2012trss   0.51243
gfz2012tsdz  -0.61327
gfz2012ttnf   0.09823
gfz2012tvgw  -0.04751
gfz2012twec  -0.04481
gfz2012udeo   0.23011
gfz2012udxg  -0.16597
gfz2012uegq   0.76553
gfz2012uhsx  -0.89680
gfz2012uhtc  -0.00441
gfz2012ukzg  -0.95372
gfz2012ulei   0.07487
gfz2012umob  -0.33573
gfz2012unxc  -0.16284
gfz2012uovh  -1.87700
gfz2012urtu   1.21500
gfz2012uvoa  -0.15315
gfz2012uzww  -0.65548
gfz2012vcqw  -0.75579
gfz2012vdsl   0.69744
gfz2012vgot  -0.12306
gfz2012vile  -1.11450
gfz2012vioy  -0.12111
gfz2012vitw   0.22654
gfz2012vlzv  -0.69858
gfz2012vnve   0.02065
gfz2012vqjw   1.77440
gfz2012vqmq   0.31036
gfz2012vrqz  -0.27434
gfz2012vurc   0.50486
gfz2012vzkm  -0.82996
gfz2012wdvt   0.43882
gfz2012wdxk  -0.21343
gfz2012wgdv  -0.81781
gfz2012wgmg  -1.78770
gfz2012wgmp   0.96053
gfz2012wiyv  -1.45300
gfz2012wjpf  -0.30016
gfz2012wjsi  -0.61102
gfz2012wjxc   0.20602
gfz2012wkki  -0.88438
gfz2012wmas  -0.12587
gfz2012wmmw  -0.02833
gfz2012wowu  -1.68990
gfz2012woxj  -0.37706
gfz2012wpen  -0.84654
gfz2012wysg  -0.34195
gfz2012xkln  -0.61019
gfz2012xkvu  -0.78326
gfz2012xlas  -0.36374
gfz2012xlfo  -1.14600
gfz2012xncm  -0.03980
gfz2012xqxw  -0.21053
gfz2012xrmq  -0.03302
gfz2012xtvu  -0.15382
gfz2012xwkx   0.05827
gfz2012xxdj  -0.30827
gfz2012yegw   0.07731
gfz2012yihn  -0.06075
gfz2012ylai   0.09105
gfz2012yncm  -0.84093
gfz2012yygz  -0.05415
gfz2012yytb  -0.34427
gfz2012zhyz   1.66630
gfz2012zido   1.97720
gfz2012zktj  -0.80802
gfz2012zmdf  -2.03700
gfz2012zmfc  -0.70215
gfz2012znou   0.17804
gfz2012zqis  -0.03567
gfz2013aclz  -0.10050
gfz2013adih  -0.72631
gfz2013agbm   0.36350
gfz2013agmt  -0.49101
gfz2013ajxz  -0.19892
gfz2013akkd  -0.56373
gfz2013ascz   0.94012
gfz2013atak  -0.65764
gfz2013aymi   0.12595
gfz2013bdvi   0.48799
gfz2013bwgw  -0.13968
gfz2013cinv   0.10796
gfz2013cokc  -1.14440
gfz2013cvve   0.23638
gfz2013cyvx   0.10480
gfz2013djfi   1.34780
gfz2013dngd  -0.18748
gfz2013dnot   0.39168
gfz2013dzvr   0.43071
gfz2013efct   0.23171
gfz2013egfv   1.23600
gfz2013eidd   0.25520
gfz2013enqo  -1.83190
gfz2013esef   0.01533
gfz2013evcl   0.19631
gfz2013exow   0.29384
gfz2013ezmc  -0.12825
gfz2013fhzy  -0.06650
gfz2013fmcp   0.45532
gfz2013fndg   0.27416
gfz2013fnpa  -0.22329
gfz2013foto   0.15671
gfz2013frxd   1.89400
gfz2013fskp  -0.73057
gfz2013fthi  -0.56575
gfz2013fulo   0.58911
gfz2013fvht  -0.65303
gfz2013fvyr   0.12223
gfz2013fwbm  -0.66434
gfz2013fybd  -0.13259
gfz2013gaqx   0.12651
gfz2013gbki  -0.65372
gfz2013gjmk  -0.08022
gfz2013gkcx  -0.20107
gfz2013gkyn   0.15212
gfz2013glpz   0.16121
gfz2013gomv  -0.18872
gfz2013gqtl   0.43994
gfz2013gsnl  -0.37916
gfz2013gurk   0.24136
gfz2013gxye  -0.14768
gfz2013gyce  -0.61418
gfz2013havw  -0.30637
gfz2013hbmi  -0.04648
gfz2013hbwy  -4.07080
gfz2013hdbp  -0.62840
gfz2013hduf  -0.18809
gfz2013hiam  -0.22527
gfz2013hinw   0.99439
gfz2013hjtt  -0.27722
gfz2013hqaa  -0.06890
gfz2013hwps  -0.26129
gfz2013icgx  -0.05111
gfz2013icql  -0.65560
gfz2013idqu  -0.72289
gfz2013ifag   0.02194
gfz2013ikic   0.21151
gfz2013irme  -0.59678
gfz2013iuyv  -0.85703
gfz2013ivvw   0.23321
gfz2013iwzn   0.10592
gfz2013jfcn   0.93816
gfz2013jhog   0.10908
gfz2013jjae  -0.35537
gfz2013jjfw  -0.51745
gfz2013jkqn   2.53930
gfz2013jlli  -0.27098
gfz2013jobl   0.62433
gfz2013jqsk   1.46160
gfz2013kats  -0.25603
gfz2013kbbg  -0.36949
gfz2013kbbn   0.19283
gfz2013kcdb  -0.13245
gfz2013kpes  -0.06639
gfz2013kqab   0.16641
gfz2013ksaz   0.10746
gfz2013kslp   0.33387
gfz2013kxlr  -0.58201
gfz2013kxof  -0.78776
gfz2013lbod   0.16967
gfz2013lbvl  -0.47744
gfz2013lcrk  -0.56604
gfz2013ljdu   0.84325
gfz2013ljwt  -0.09269
gfz2013lnne   0.42342
gfz2013lnts  -0.14856
gfz2013lqjj   0.98041
gfz2013lvxe   0.21044
gfz2013lwtr   0.06740
gfz2013lxed  -0.08411
gfz2013lxnd  -0.75886
gfz2013mbna  -0.07449
gfz2013mdnp  -0.24140
gfz2013mdxj  -0.01519
gfz2013mimp   0.22266
gfz2013mnux   2.06360
gfz2013mvgq  -0.85130
gfz2013mzaw  -0.25099
gfz2013nhkw   0.30352
gfz2013njck   0.61785
gfz2013njwj  -0.32425
gfz2013nkgd   2.07720
gfz2013nnai   0.04055
gfz2013noqf   0.61104
gfz2013ntfc  -0.32757
gfz2013ntiu  -0.26988
gfz2013ntxw  -0.40037
gfz2013obof  -0.85819
gfz2013ohdt  -0.39274
gfz2013ohnj  -0.16167
gfz2013xjmo  -0.94154
gfz2013xmzw   0.19562
gfz2013xodn   0.39124
gfz2013xswc  -0.14545
gfz2013xuxr  -0.63309
gfz2013xvps  -0.16687
gfz2013xycz  -0.07110
gfz2013xzxe  -0.03686
gfz2013ygsj   1.71160
gfz2013yihv   0.85903
gfz2013ylxn  -0.16654
gfz2013ymhx  -0.21354
gfz2013yodm  -0.21886
gfz2013yqtu  -0.32491
gfz2013ytfm  -0.16631
gfz2013yxhf   1.60550
gfz2013yxif  -0.07741
gfz2013zfbz   0.05280
gfz2013zkta   0.61056
gfz2013zlak  -0.02109
gfz2014aaae   0.11099
gfz2014aejh  -0.24131
gfz2014aqax   1.99490
gfz2014ateb  -0.16011
gfz2014avag   0.09001
gfz2014ayxf   0.13684
gfz2014bdju  -0.60380
gfz2014befl  -0.19089
gfz2014bkra   0.49663
gfz2014bmqw   1.07970
gfz2014bumr   0.00000
gfz2014eirs  -0.03845
gfz2014eoay   0.42402
gfz2014epnq  -0.10390
gfz2014epue   0.30687
gfz2014eunw  -0.08890
gfz2014eysf   0.14856
gfz2014fbli   0.31773
gfz2014fgbn  -0.56593
gfz2014fhki  -0.38120
gfz2014fjfz   0.40442
gfz2014flxk   0.13706
gfz2014fqas  -0.33669
gfz2014fsir  -0.65388
gfz2014fsje   0.09352
gfz2014fskh   0.05765
gfz2014fwxt   0.28729
gfz2014fxte  -0.67280
gfz2014fxuy  -0.23402
gfz2014gasb   0.80078
gfz2014gbxg  -0.53082
gfz2014ggie  -0.03392
gfz2014gnvp   0.18102
gfz2014gqxg  -0.14191
gfz2014grwv   0.07068
gfz2014gsfc  -0.00951
gfz2014gssz  -0.01893
gfz2014gutd  -5.23870
gfz2014gypw  -0.24876
gfz2014gzlm   0.22996
gfz2014hapg   0.99746
gfz2014happ  -0.98582
gfz2014herz  -0.78582
gfz2014hkcw  -0.08321
gfz2014hqhv   0.06993
gfz2014huah   0.61310
gfz2014huqh  -0.01620
gfz2014hyea  -0.05636
gfz2014hzzf   0.08207
gfz2014iaqm   0.17532
gfz2014iayo  -1.19300
gfz2014icov   1.47810
gfz2014igrp  -0.05594
gfz2014ijsa  -0.08332
gfz2014iltl  -0.65425
gfz2014ined  -0.04405
gfz2014inrg  -0.03586
gfz2014ipfu   0.29364
gfz2014irln   0.45306
gfz2014isjg  -0.13101
gfz2014isov   0.54695
gfz2014iusw   0.02295
gfz2014ivgm   0.31258
gfz2014jarg   0.00888
gfz2014jayh  -0.23919
gfz2014jbfp  -0.23558
gfz2014jbgm   0.80879
