# Nsamples: 282  MAD:  0.417  mean:  0.023  std:  0.550
gfz2010abfc  -0.44578
gfz2010abvu  -0.87128
gfz2010aggj  -0.33478
gfz2010aimm  -0.36757
gfz2010aseg   0.78716
gfz2010azji   0.32806
gfz2010brrm   0.04605
gfz2010bukb   0.82462
gfz2010ccse   1.40510
gfz2010ccwc  -0.02910
gfz2010ccye  -0.09089
gfz2010clbw  -0.51661
gfz2010cllh  -0.50064
gfz2010cphq   0.17286
gfz2010cqoq   1.90630
gfz2010crgy  -0.57068
gfz2010crir  -0.25592
gfz2010cthm  -0.42125
gfz2010cuzg   0.42313
gfz2010cvkn   0.41493
gfz2010cyid  -0.11968
gfz2010dask  -0.43395
gfz2010djib  -0.36871
gfz2010dmij  -0.12144
gfz2010drit   0.27776
gfz2010drml   0.16202
gfz2010drmq   0.16202
gfz2010drpv  -0.67691
gfz2010dumv  -0.37151
gfz2010dwgy   0.08105
gfz2010eibh   0.81531
gfz2010ekvl   0.04657
gfz2010extu  -0.67455
gfz2010faly  -0.08541
gfz2010fgbo  -0.12541
gfz2010fjio  -0.18076
gfz2010fjme   0.03551
gfz2010fkff   0.03444
gfz2010fqnn  -0.14681
gfz2010ftfq  -0.20134
gfz2010fvfz   0.53880
gfz2010fxhh   0.34338
gfz2010gnvp  -0.10580
gfz2010gonu  -0.05954
gfz2010gpjl  -1.26670
gfz2010habf  -0.16156
gfz2010hdxn  -0.01660
gfz2010hesh  -0.27814
gfz2010hllp   0.79793
gfz2010hsgv   0.29869
gfz2010hxan   0.47469
gfz2010iaay   0.81072
gfz2010iawy   1.71280
gfz2010inbs   0.33425
gfz2010ioad  -0.33522
gfz2010izag  -0.04888
gfz2010jcby   0.04856
gfz2010jdhk  -0.72118
gfz2010jkrp   0.64601
gfz2010jlvp   0.77517
gfz2011udjs   0.63906
gfz2011uqry  -0.30402
gfz2011vahy  -0.69091
gfz2011vbxv  -0.09468
gfz2011vcyx  -0.66898
gfz2011vimn  -0.01874
gfz2011vswj  -0.82521
gfz2011wwze   0.24004
gfz2011wzss   0.39819
gfz2011xgwy   0.02794
gfz2011xkka   1.01160
gfz2011xpcq   0.30189
gfz2011yexx  -0.19962
gfz2011ytob   0.16858
gfz2012cvfr  -0.42154
gfz2012dcjd   0.48528
gfz2012gnow  -0.47829
gfz2012gpcd   0.66803
gfz2012hvtu   1.15940
gfz2012hzur   0.55883
gfz2012imsm   2.78420
gfz2012ipdc  -0.38639
gfz2012qpoc  -1.59820
gfz2012rzwp  -1.00890
gfz2012sgfd   0.00221
gfz2012socz   0.83170
gfz2012sopp   1.22520
gfz2012ssnb  -0.40299
gfz2012suqd  -0.10267
gfz2012svwz  -0.04125
gfz2012swbz  -0.10671
gfz2012sxbo  -0.33581
gfz2012sxzs   0.63118
gfz2012syum   0.44489
gfz2012tisj  -0.06061
gfz2012tqjc   0.88461
gfz2012twec  -0.02245
gfz2012uhsx  -0.03719
gfz2012uhtc   0.22976
gfz2012ulei  -0.78290
gfz2012umob   0.08387
gfz2012uovh   1.96640
gfz2012uvoa   0.11296
gfz2012uzww  -0.11336
gfz2012vgot   0.13808
gfz2012vile  -1.10960
gfz2012vkjw  -0.47524
gfz2012vrqz   0.30996
gfz2012wgdv   0.04308
gfz2012wkki   0.56185
gfz2012wpen   0.00000
gfz2012wqfz   0.12239
gfz2012wysg  -0.14149
gfz2012xcsf  -0.36965
gfz2012xkln  -0.44292
gfz2012xlas  -0.09655
gfz2012xlfo  -0.17868
gfz2012xncm  -0.69925
gfz2012xqxw  -0.17950
gfz2012xrmq   0.46266
gfz2012ylai   0.05416
gfz2012yvwc   0.74714
gfz2012zhyz  -0.01342
gfz2012zktj  -1.07990
gfz2012zqis   0.39812
gfz2013akkd   1.30680
gfz2013bwgw  -0.36865
gfz2013byyy  -0.00682
gfz2013cinv   0.28560
gfz2013cvve  -0.45883
gfz2013cyvx  -0.32352
gfz2013delq  -0.28622
gfz2013dftb  -0.11243
gfz2013dngd  -0.00000
gfz2013dzvr  -0.05257
gfz2013efct  -0.14166
gfz2013eidd   0.13255
gfz2013enqo   1.04940
gfz2013fnpa   0.02860
gfz2013fulo   0.10399
gfz2013fvht   0.61175
gfz2013fybd   0.03368
gfz2013gkyn  -0.37214
gfz2013glpz   0.26478
gfz2013gsnl   0.92796
gfz2013gxye   0.20912
gfz2013gywl   0.71918
gfz2013hbmi   0.20262
gfz2013hbtm   0.25258
gfz2013hdbp  -0.35287
gfz2013hiam  -0.33669
gfz2013hvzv   0.27569
gfz2013icql  -0.22340
gfz2013iuyv   0.43890
gfz2013iwzn   0.32090
gfz2013jfcn   0.12545
gfz2013jhog  -0.26607
gfz2013jobl  -0.55637
gfz2013jzcf  -0.05022
gfz2013kats  -0.08957
gfz2013kbbg  -0.40132
gfz2013kcdb   1.02600
gfz2013kpcb  -0.35611
gfz2013kqab   0.03193
gfz2013kslp   0.44354
gfz2013lbod   1.05630
gfz2013lbvl  -0.35304
gfz2013lgvf   0.04662
gfz2013ljdu   0.35598
gfz2013ljwt   0.37018
gfz2013lqjj   0.09685
gfz2013mzaw   0.02244
gfz2013ntiu   1.36100
gfz2013oeni   0.06413
gfz2013oizq   0.39852
gfz2013okac  -0.20727
gfz2013oruq  -0.18305
gfz2013phhi   1.59670
gfz2013pkmz  -0.41910
gfz2013rwkj  -0.56038
gfz2013skvq   0.00000
gfz2013stou   0.67895
gfz2013swnj   0.21034
gfz2013taeb   0.63615
gfz2013tdsx   0.13272
gfz2013tjub   0.63693
gfz2013tkcg  -0.11243
gfz2013tnrp   0.02535
gfz2013trsq  -0.08220
gfz2013ubgt  -0.14759
gfz2013udtw   0.03029
gfz2013uepl  -0.28561
gfz2013unuv   0.08872
gfz2013utqa  -1.00140
gfz2013uwjo  -1.34370
gfz2013uxzw  -0.78910
gfz2013vdam   0.20375
gfz2013veug   0.04890
gfz2013vldx   0.48641
gfz2013vmrv   0.28225
gfz2013vmsg   1.20350
gfz2013vnwa   0.23931
gfz2013voai   0.02406
gfz2013vojy  -0.08134
gfz2013vvre   0.09650
gfz2013vwkh   0.04346
gfz2013vzel  -1.21410
gfz2013wigs   0.26530
gfz2013wwee   0.05881
gfz2013wyfl  -0.49859
gfz2013xacx   0.41039
gfz2013xahp  -0.15768
gfz2013xddu   0.45712
gfz2013xmzw  -0.34721
gfz2013xodn  -0.15594
gfz2013xswc  -0.13424
gfz2013xycz  -0.96057
gfz2013ylxn  -0.00172
gfz2013yqtu  -0.35640
gfz2013zfbz   0.01029
gfz2013zkzb  -0.08005
gfz2013zlak   0.17046
gfz2014aedl   0.16271
gfz2014ajgi   0.22639
gfz2014aqax  -0.57167
gfz2014aqop  -0.19282
gfz2014ayxf   0.25770
gfz2014azfu   0.15326
gfz2014bgxe  -0.02635
gfz2014bkra   0.58270
gfz2014bmdf   0.13243
gfz2014buyz   0.22690
gfz2014bzus   0.24666
gfz2014cjao   0.33953
gfz2014cncl  -0.27576
gfz2014cokw   0.07269
gfz2014crac  -0.32001
gfz2014ctdl  -0.05368
gfz2014cvnb   0.05610
gfz2014dbqi  -0.08779
gfz2014dece   0.52271
gfz2014dggw   0.05429
gfz2014dihl  -0.24273
gfz2014dtth   0.21796
gfz2014dwcp  -0.99827
gfz2014dykt  -0.29521
gfz2014eirs  -0.00208
gfz2014eoay  -0.39253
gfz2014epnq  -0.51315
gfz2014esez  -0.16790
gfz2014flxk  -0.18434
gfz2014fsir  -0.40404
gfz2014fsje  -0.53176
gfz2014fvza   0.08744
gfz2014fwuf   0.24210
gfz2014fwxt   0.30960
gfz2014fxuy  -0.23168
gfz2014gcgf   0.32668
gfz2014gnbw  -0.04583
gfz2014gsfc  -0.10863
gfz2014gtoj  -0.13761
gfz2014gypw  -0.44688
gfz2014hapg   0.04027
gfz2014hkcw  -0.59009
gfz2014hqhv  -0.63822
gfz2014huqh   0.24385
gfz2014hzzf   0.08370
gfz2014iaqm  -0.49880
gfz2014iayo  -0.67253
gfz2014icov  -0.50447
gfz2014igrp  -0.26606
gfz2014ijsa  -0.90979
gfz2014iltl   0.12990
gfz2014ined  -0.05531
gfz2014inrg  -1.08480
gfz2014irlf  -0.39899
gfz2014irln   0.13501
gfz2014irly  -0.34742
gfz2014iusw  -0.07223
gfz2014ixlc  -0.04486
gfz2014jarg  -0.27217
gfz2014jayh  -0.05575
