# Nsamples: 99  MAD:  0.587  mean:  0.107  std:  0.943
gfz2010aggj  -0.57188
gfz2010btme   1.04540
gfz2010clbw   0.50988
gfz2010cllh  -0.12964
gfz2010crgy  -0.51479
gfz2010crir  -1.07910
gfz2010dask  -0.84798
gfz2010djib  -0.58184
gfz2010drit   0.66790
gfz2010dxhq   0.71184
gfz2010fgbo  -0.15811
gfz2010fjme  -0.12524
gfz2010fxut  -0.25398
gfz2010gcqp  -0.75486
gfz2010habf  -0.20766
gfz2010hsgv   0.25674
gfz2010hueh   2.16630
gfz2010iawy  -0.29264
gfz2010izag  -0.41997
gfz2010ngge   0.42607
gfz2010okpc   3.60660
gfz2010rkuu   1.12440
gfz2010rljv   0.31241
gfz2010rnwt   2.64680
gfz2010tpcj  -0.17259
gfz2010tzlz   0.80197
gfz2010tzma  -0.04101
gfz2010xpzq   0.07232
gfz2011ahvh   0.24595
gfz2011amst  -0.83557
gfz2011gpyr  -0.15374
gfz2011hqjs  -0.49114
gfz2011kfch  -0.66563
gfz2011kjzt  -0.28717
gfz2011kjzv  -1.98450
gfz2011lkkf  -0.13146
gfz2011lwmg  -0.01645
gfz2011mjje   0.63093
gfz2011mntq   0.57441
gfz2011oslk  -0.40011
gfz2011owqa   1.52680
gfz2011pivq   0.09635
gfz2011pwbw   1.25140
gfz2011qenl   0.46457
gfz2011syzr   0.77887
gfz2011tqgg   0.36605
gfz2011uqry  -0.40222
gfz2011vahy  -0.37398
gfz2011wcvs  -1.37620
gfz2011wwze  -0.05649
gfz2012alti   0.62254
gfz2012arlo   1.16050
gfz2012cdju  -0.06045
gfz2012cksh   0.56527
gfz2012cvfr  -0.37392
gfz2012iijk   0.05940
gfz2012ldjj  -0.01377
gfz2012mdzf   0.02763
gfz2012mmiw  -0.91314
gfz2012nqvd  -0.10657
gfz2012oafg   0.44873
gfz2012oehy  -0.46256
gfz2012phns   1.13210
gfz2012pmuj   4.76890
gfz2012sgfd   0.07689
gfz2012suqd   1.19420
gfz2012svwz   0.67896
gfz2012sxzs  -0.29800
gfz2012tisj  -0.25396
gfz2012trfq  -0.21096
gfz2012uhtc  -0.03642
gfz2012ulei   0.26746
gfz2012uvoa  -0.30433
gfz2012vile  -0.14820
gfz2012vitw   0.07098
gfz2012xlas   0.49371
gfz2012xncm   0.90659
gfz2012xrmq   0.72913
gfz2013bwgw   0.13154
gfz2013byyy   0.10805
gfz2013cvve  -0.25972
gfz2013cyvx  -0.47768
gfz2013delq  -0.99340
gfz2013dftb  -0.44673
gfz2013dngd  -0.80489
gfz2013dzvr   0.43992
gfz2013fmcp  -0.14658
gfz2013fnpa  -0.25982
gfz2013fulo   0.04876
gfz2013fvht  -0.28870
gfz2013gsnl  -0.21861
gfz2013icql  -0.45616
gfz2013iuyv   1.06320
gfz2013iwzn  -0.01588
gfz2013jfcn  -0.18468
gfz2013jobl  -0.55098
gfz2013lbvl  -0.55580
gfz2013lgvf  -2.39810
gfz2013qwnm  -0.11970
