# Nsamples: 21  MAD:  0.911  mean:  1.391  std:  0.956
gfz2010cvam   1.38140
gfz2010cyid   0.70542
gfz2010dask   1.43770
gfz2010euue   1.20090
gfz2010ewyj   0.50534
gfz2010extu   0.53100
gfz2010faly   1.45670
gfz2010fgbo   1.66960
gfz2010fjio   1.08060
gfz2010fjme   0.82345
gfz2010fkff   1.46210
gfz2010fkpa   4.11390
gfz2010fnkr   2.07540
gfz2010fpvw   2.36670
gfz2010fqzh   1.59880
gfz2010ftfq   1.18880
gfz2010fxhh   1.50790
gfz2010fxut   2.09620
gfz2010gcrn   0.17889
gfz2010gpjl  -0.56887
gfz2010habf   2.40070
