# Nsamples: 59  MAD:  0.606  mean:  0.019  std:  0.820
gfz2010drit  -1.42800
gfz2010drun  -1.54160
gfz2010dtgc   1.81480
gfz2010fqnn  -1.10940
gfz2010fxut   0.77249
gfz2010huzl   1.10560
gfz2010izag   0.45606
gfz2010mqaj   1.55930
gfz2010rljv   0.34057
gfz2010tzma   0.30291
gfz2010wakc  -0.55276
gfz2010xpzq   0.17158
gfz2011bygs   0.60699
gfz2011dpyu  -0.62123
gfz2011fszl   0.07525
gfz2011gnbk   0.12056
gfz2011qenl   0.77109
gfz2011scma   0.70053
gfz2011taqr   0.45063
gfz2011tsgl   0.10867
gfz2011vtzv  -0.05289
gfz2011zghc   0.23358
gfz2012cvfr   0.27185
gfz2012ghiv   0.90507
gfz2012iijk   0.30192
gfz2012ldjj  -0.16110
gfz2012nnqu  -0.90656
gfz2012ofnx  -0.03586
gfz2012phns  -0.13355
gfz2012sgfd   1.19810
gfz2012suqd   0.86048
gfz2012uhtc  -0.14235
gfz2012uvoa  -0.35901
gfz2012wpen  -0.11239
gfz2012xncm  -0.35896
gfz2012xxdj  -0.19394
gfz2013akkd   0.38077
gfz2013byyy  -3.35310
gfz2013dzvr   0.39889
gfz2013efct  -0.18160
gfz2013fulo  -0.07983
gfz2013hbmi   0.48401
gfz2013iwzn   1.47420
gfz2013kbbg  -0.06388
gfz2013kbbn  -0.59992
gfz2013kcdb  -1.11860
gfz2013kpcb  -0.47489
gfz2013lbvl  -0.26578
gfz2013qigb  -0.35032
gfz2013qoak   0.13688
gfz2013quwz  -0.53013
gfz2013qxof   0.91522
gfz2013rwkj  -0.51778
gfz2013utqa  -0.65007
gfz2013wyfl   0.44760
gfz2013xahp  -0.24506
gfz2013xswc  -0.58855
gfz2013yqtu   0.27416
gfz2013zfbz   0.21647
