# Nsamples: 111  MAD:  0.504  mean:  0.104  std:  0.706
gfz2010fjme  -0.29061
gfz2010fkff   0.76417
gfz2010habf  -0.20924
gfz2010jcby   1.37280
gfz2010jlvp  -0.53779
gfz2010mqzz  -0.17502
gfz2010ngge  -0.29736
gfz2010pclq   2.42560
gfz2010pzza  -0.06437
gfz2010rkuu  -0.20746
gfz2010tcgh   0.93063
gfz2010tmba   0.29598
gfz2010ugws   0.38694
gfz2010uhjy  -0.58240
gfz2010umyp  -0.36280
gfz2010uogw  -0.26951
gfz2010zjun   0.05020
gfz2011ahvh   0.59990
gfz2011cdge   0.67231
gfz2011nejw   0.29708
gfz2011oadm   0.40950
gfz2011ofpj   0.19489
gfz2011ohgj  -0.74772
gfz2011oslk   0.02757
gfz2011pwbw   0.07436
gfz2011qenl   0.45957
gfz2011qukj  -0.64558
gfz2011sdax  -1.16690
gfz2011sqco   0.89979
gfz2011uqry  -0.66869
gfz2011vahy  -0.52584
gfz2011wucg   0.61026
gfz2011xkka   1.42990
gfz2011yexx   0.26693
gfz2011zghc   0.19327
gfz2011zkbt   0.23691
gfz2012amjx  -2.22020
gfz2012bqcf  -0.08776
gfz2012byrq   1.24480
gfz2012cvfr   0.03450
gfz2012dwwu   0.13648
gfz2012ekfp   2.69520
gfz2012iijk  -0.36149
gfz2012ldjj   0.79743
gfz2012lyyr   0.13228
gfz2012mdzf  -0.23589
gfz2012mjuu  -1.21020
gfz2012mmiw   0.95326
gfz2012mrwu  -0.06557
gfz2012nnqu   0.13056
gfz2012oafg   0.31993
gfz2012oehy   0.24465
gfz2012oozp   0.28142
gfz2012phns   0.16769
gfz2012qllj  -0.34632
gfz2012suqd  -0.45377
gfz2012sxzs   0.00553
gfz2012syum   1.44290
gfz2012tisj   0.09563
gfz2012uzww   0.05235
gfz2013mzaw   0.84857
gfz2013nkgt   0.07702
gfz2013oizq  -0.30452
gfz2013okac   0.28559
gfz2013opkx   0.29639
gfz2013phhi   0.92994
gfz2013qigb   0.26874
gfz2013qoak   0.36403
gfz2013quyn   0.05300
gfz2013rdmn  -1.16320
gfz2013rfik   0.58981
gfz2013rocs  -0.11660
gfz2013rwkj   0.68998
gfz2013tdsx   0.46578
gfz2013tekq   0.08668
gfz2013tnrp  -0.19084
gfz2013utqa  -0.65118
gfz2013uwjo  -1.34260
gfz2013vjrr  -0.15873
gfz2013vldx   0.23861
gfz2013vmrv  -0.64331
gfz2013vojy  -0.67415
gfz2013vvre   1.48460
gfz2013wyfl   0.30764
gfz2013xahp   0.03962
gfz2013xswc   0.40872
gfz2013yodm  -0.26583
gfz2013yqtu  -0.51111
gfz2013yxhf   0.82327
gfz2013zkta   0.76654
gfz2013zlak  -0.00786
gfz2014amgk   0.03188
gfz2014cokw   0.32433
gfz2014cwcj  -1.23920
gfz2014dihl   0.20403
gfz2014eoay  -0.19678
gfz2014etgp   0.54168
gfz2014fbli   0.46271
gfz2014flxk   1.40670
gfz2014fsir   0.14297
gfz2014fxte  -0.02746
gfz2014gnbw  -0.19846
gfz2014hhis  -0.82585
gfz2014hzzf  -0.79779
gfz2014icov   0.06751
gfz2014igrp   0.01021
gfz2014iltl   0.37907
gfz2014irlf  -0.29668
gfz2014irln  -0.48800
gfz2014iusw  -0.11746
gfz2014jarg  -0.45466
