# Nsamples: 210  MAD:  0.442  mean:  0.089  std:  0.881
gfz2010izag  -0.58834
gfz2010jdhk   0.07357
gfz2010jlvp   0.20234
gfz2010juke   2.67520
gfz2010jvsi   4.57270
gfz2010ljol   1.62810
gfz2010mdti  -0.53680
gfz2010mqaj   1.26740
gfz2010ncwu   0.39921
gfz2010ngge  -0.23971
gfz2010oguu  -0.38586
gfz2010pclq   0.80236
gfz2010pcya  -1.09310
gfz2010pgpo   0.32387
gfz2010pvnn   0.77782
gfz2010qdqk   0.98852
gfz2010qrta  -0.16844
gfz2010rkuu  -0.00929
gfz2010rljv  -0.44487
gfz2010rnwt  -0.29097
gfz2010rpjd   2.72750
gfz2010schp   0.97421
gfz2010tmba  -0.64449
gfz2010tzlz  -0.57774
gfz2010tzma   0.11701
gfz2010ugws  -1.73890
gfz2010uidg   0.83367
gfz2010vong  -0.54231
gfz2010wakc  -0.19462
gfz2010xezr  -0.40077
gfz2010xpzq  -0.02479
gfz2010yczp   1.80800
gfz2010yfdr   0.33838
gfz2010ymih  -0.07892
gfz2010zjun   0.66004
gfz2011ahvh   0.18032
gfz2011qenl  -0.04969
gfz2011qukj  -0.21607
gfz2011rbuo  -0.31970
gfz2011rkau   1.80720
gfz2011sdax   0.01564
gfz2011sdpl  -0.22502
gfz2011sxno   0.01207
gfz2011sylg  -2.76400
gfz2011taqr   0.82505
gfz2011tqgg   0.35247
gfz2011tsgl  -0.19924
gfz2011tvuv  -0.61230
gfz2011uowi   0.22366
gfz2011ytob   0.77713
gfz2011zcwn   0.20768
gfz2011zghc   0.03307
gfz2011zkbt  -0.61904
gfz2012adja  -0.44090
gfz2012ahac  -0.11699
gfz2012amjx   0.17255
gfz2012bity  -0.21846
gfz2012bqcf   0.12112
gfz2012byrq   0.20651
gfz2012cdju   0.11234
gfz2012cmww  -0.36668
gfz2012cvfr  -0.17280
gfz2012dcjd  -0.12035
gfz2012dnig   3.56180
gfz2012dttl  -0.34894
gfz2012duwm  -0.53766
gfz2012dwwu  -0.35001
gfz2012dyck  -0.46367
gfz2012dyfw  -0.52412
gfz2012dysu   1.17980
gfz2012dzou   1.01850
gfz2012ekfp   0.81731
gfz2012evxn   0.45179
gfz2012eyti  -0.88329
gfz2012gftg   0.07197
gfz2012gnow  -0.46971
gfz2012gpcd   0.18972
gfz2012hvtu   2.92170
gfz2012hzur   2.14720
gfz2012ipdc  -0.41986
gfz2012iphs   0.41789
gfz2012klpl   0.36624
gfz2012kmbo  -0.15313
gfz2012ldjj   0.00000
gfz2012lyyr  -0.34834
gfz2012mjuu  -0.16553
gfz2012mmiw  -0.49367
gfz2012mpzo   0.01730
gfz2012mrqk  -0.51356
gfz2012mrwu   0.14659
gfz2012mvgu  -0.67289
gfz2012nnqu  -0.23914
gfz2012nqvd   2.73230
gfz2012oafg  -0.28843
gfz2012oehy  -0.05580
gfz2012ofnx   0.34881
gfz2012pdav   0.46736
gfz2012pokk   0.20164
gfz2012pumy  -0.26268
gfz2012pvve  -0.04871
gfz2012qllj   0.18361
gfz2012qpoc   0.48493
gfz2012sgfd   0.98001
gfz2012socz   2.27480
gfz2012swbz  -0.04226
gfz2012syum  -0.68942
gfz2012taph  -0.40104
gfz2012tisj  -0.05598
gfz2012tqjc   0.73417
gfz2012uhtc  -0.14434
gfz2012ulei  -0.64451
gfz2012umob  -0.80273
gfz2012uvoa   0.30271
gfz2012vgot  -0.14942
gfz2012vitw  -0.51799
gfz2012vnve   0.65608
gfz2012vqmq  -1.25620
gfz2012vrqz   0.51976
gfz2012wkki  -0.19465
gfz2012wmmw   0.01997
gfz2012wysg  -0.48648
gfz2012xask  -0.49842
gfz2012xcsf  -0.30933
gfz2012xfsl   0.13609
gfz2012xkln  -0.61287
gfz2012xlas  -0.24553
gfz2012xlfo   2.51570
gfz2012xncm  -0.60447
gfz2012xqxw   0.17446
gfz2012xrmq  -0.08953
gfz2012yncm   3.75610
gfz2012zqis  -0.34472
gfz2013agbm  -0.13438
gfz2013aggr   0.49436
gfz2013bwgw   0.14290
gfz2013byyy   0.02575
gfz2013cinv  -0.23309
gfz2013cpjc  -0.25119
gfz2013cvve  -0.69241
gfz2013cyvx  -0.23146
gfz2013delq  -0.36841
gfz2013dftb  -0.30567
gfz2013eavq  -0.59282
gfz2013fndg   2.50910
gfz2013fnpa   0.16680
gfz2013fulo   0.02533
gfz2013fvht   0.45126
gfz2013fybd  -0.00550
gfz2013ghpd   0.41057
gfz2013gkyn   0.00597
gfz2013glpz  -0.35011
gfz2013gxye  -0.43210
gfz2013gywl   1.22250
gfz2013hbmi   0.18654
gfz2013hbtm   0.02313
gfz2013hinw   0.41141
gfz2013irme  -0.21958
gfz2013jfcn  -0.13240
gfz2013kxof  -0.43605
gfz2013lbod   0.43038
gfz2013lbvl  -0.09777
gfz2013lgvf  -0.28176
gfz2013ljdu  -0.28445
gfz2013ljwt  -0.31613
gfz2013mdxj   0.00152
gfz2013mimp  -0.55642
gfz2013mzaw  -0.35139
gfz2014emlw  -0.44595
gfz2014eoay  -0.07980
gfz2014esez  -0.21516
gfz2014etgp  -0.41780
gfz2014eunw  -0.14768
gfz2014evgu  -0.41423
gfz2014evhm   0.15672
gfz2014fbli  -0.33565
gfz2014fjfz  -0.49535
gfz2014flxk   0.91253
gfz2014fqas  -0.44074
gfz2014fsje  -0.28531
gfz2014fwuf  -0.25545
gfz2014fwxt  -0.18928
gfz2014fxim  -0.34095
gfz2014fxte  -0.14924
gfz2014fxuy  -0.12704
gfz2014gnbw  -0.37309
gfz2014grwv  -0.19148
gfz2014gsfc  -1.24350
gfz2014gtee  -0.34900
gfz2014gypw  -0.05116
gfz2014hapg  -0.40304
gfz2014happ  -1.27720
gfz2014hhey   0.43299
gfz2014hjmc  -0.46523
gfz2014hkcw  -0.25513
gfz2014hotu  -0.09831
gfz2014hqhv  -0.33962
gfz2014huqh  -0.10963
gfz2014hzzf  -0.34498
gfz2014icov  -0.63356
gfz2014igrp  -0.41215
gfz2014iltl   0.36347
gfz2014imqh   1.24200
gfz2014ined  -0.06557
gfz2014irlf   0.17455
gfz2014irln   0.47833
gfz2014irly   0.50779
gfz2014ivgm  -0.03337
gfz2014jarg  -0.32422
gfz2014jayh  -0.17561
gfz2014jckg  -0.57559
