# Nsamples: 162  MAD:  0.409  mean:  0.097  std:  0.731
gfz2010aseg   0.32696
gfz2010djib  -0.32989
gfz2010drit  -0.26913
gfz2010drml   1.52250
gfz2010drmq   1.52250
gfz2010fgbo  -0.04597
gfz2010fjme   0.18857
gfz2010fkff   0.09309
gfz2010izag  -0.58173
gfz2010jlvp  -0.07210
gfz2010pclq   0.82325
gfz2010pcya   1.84060
gfz2010pgpo   0.35932
gfz2010qdqk   1.76740
gfz2010xpzq  -0.25147
gfz2011ahvh   0.20834
gfz2011bsvr   0.94744
gfz2011bygs  -0.24258
gfz2011bygu   0.01739
gfz2011cdge  -0.37833
gfz2011cjuz   1.70390
gfz2011dabj  -0.36272
gfz2011dhfg  -0.30784
gfz2011dpyu  -0.05246
gfz2011fszl   0.09004
gfz2011gpyr  -0.02231
gfz2011hqjs  -0.08392
gfz2011jphj  -0.96918
gfz2011kjzt  -0.37709
gfz2011kjzv   0.02696
gfz2011kyzy   0.82343
gfz2011lkkf  -0.14181
gfz2011ndhh  -0.73073
gfz2011nejg  -0.65293
gfz2011nfgt   0.69441
gfz2011nuqo  -0.58402
gfz2011ofpj   1.16210
gfz2011paqj   0.72224
gfz2011ppsc  -0.07002
gfz2011qenl   0.80942
gfz2011rnny   0.77938
gfz2011sdax   0.20808
gfz2012cdju   0.22474
gfz2012cvfr   0.15420
gfz2012gftg  -0.30072
gfz2012gpcd   0.69479
gfz2012hzur  -2.06160
gfz2012kmbo  -0.06574
gfz2012ldjj   0.24179
gfz2012mjuu   0.33328
gfz2012mmiw  -0.36729
gfz2012mrqk  -0.00966
gfz2012mtyn  -1.61470
gfz2012nnqu   0.37923
gfz2012nqvd   0.13297
gfz2012oafg   0.15394
gfz2012oehy  -0.20471
gfz2012ofnx   3.08340
gfz2012phns  -0.58767
gfz2012qpoc  -0.18762
gfz2012rzwp   2.00070
gfz2012sgfd   0.65535
gfz2012svwz  -0.19059
gfz2012swbz   0.20453
gfz2012syum  -0.57668
gfz2012tisj   0.20261
gfz2012twec  -0.07463
gfz2012uhtc   0.36993
gfz2012uvoa   0.03638
gfz2012xncm  -0.47746
gfz2012xrmq  -0.38985
gfz2012ylai   0.24520
gfz2012zqis   0.13495
gfz2013bwgw  -0.20716
gfz2013byyy   0.00887
gfz2013cpjc   0.88655
gfz2013cvve  -0.82019
gfz2013cyvx  -0.14168
gfz2013delq  -0.54224
gfz2013dzvr   0.61474
gfz2013efct  -0.16998
gfz2013enqo   1.93370
gfz2013fmcd  -0.02675
gfz2013fnpa   0.22841
gfz2013fulo  -0.14345
gfz2013fvht   0.52029
gfz2013fybd  -0.23366
gfz2013gkyn   0.04294
gfz2013glpz  -0.14437
gfz2013gurk  -0.05834
gfz2013gxye   0.20091
gfz2013hbtm  -0.13734
gfz2013icql  -0.07551
gfz2013iwzn   0.53839
gfz2013jfcn  -0.07156
gfz2013jobl  -0.14034
gfz2013oizq   0.48457
gfz2013orot   0.05981
gfz2013pkmz   2.09370
gfz2013qapj   0.76980
gfz2013qigb   0.24418
gfz2013qoak  -0.74864
gfz2013quwz  -0.16863
gfz2013quyn   0.10383
gfz2013qxof  -1.34540
gfz2013rdmn  -0.44990
gfz2013rwkj   0.11045
gfz2013tnrp  -0.33326
gfz2013unuv   1.15770
gfz2013utqa  -0.37371
gfz2013uwjo  -0.14007
gfz2013uxzw   0.52709
gfz2013veoz  -0.06584
gfz2013vjrr  -0.00711
gfz2013vldx   1.07800
gfz2013vmrv   0.57291
gfz2013vojy  -0.57714
gfz2013vvre   0.66637
gfz2013wyfl  -0.36333
gfz2013xacx  -1.21640
gfz2013xmzw   0.12647
gfz2013xofz   1.42960
gfz2013xswc   0.18645
gfz2013yqtu   0.05599
gfz2013yxhf   0.26962
gfz2013zlak  -1.02150
gfz2014aedl  -0.11697
gfz2014amgk  -0.71214
gfz2014ayxf   0.44457
gfz2014bkra   2.58120
gfz2014cokw  -0.14368
gfz2014dbqi  -0.61345
gfz2014dihl  -0.43437
gfz2014dwcp  -0.22271
gfz2014dykt   0.18819
gfz2014emlw   0.46191
gfz2014eoay  -0.24953
gfz2014esez  -1.76810
gfz2014etgp   0.38867
gfz2014flxk  -0.27570
gfz2014fsir  -0.39101
gfz2014fxte  -0.43296
gfz2014fxuy  -0.16790
gfz2014gnbw  -0.18822
gfz2014grwv   0.03549
gfz2014gypw  -0.26263
gfz2014hkcw  -0.21773
gfz2014hotu  -0.16950
gfz2014hqhv   0.03920
gfz2014huqh   0.20953
gfz2014hzzf  -1.03650
gfz2014icov  -0.61925
gfz2014igrp  -0.41011
gfz2014iltl   0.14306
gfz2014ined   0.02943
gfz2014irlf  -0.11923
gfz2014irln   0.51022
gfz2014irly   0.21272
gfz2014iyuc   1.54670
gfz2014jarg  -0.28196
gfz2014jaxy   0.16788
gfz2014jayh   0.14179
