# Nsamples: 95  MAD:  0.628  mean:  0.081  std:  0.961
gfz2010abfc  -0.54622
gfz2010crgy   0.15879
gfz2010crir  -0.41998
gfz2010cyid   1.28330
gfz2010dask   0.06292
gfz2010diid  -0.79340
gfz2010djib  -0.46904
gfz2010fjme   0.38579
gfz2010habf   0.41847
gfz2010hdxn   0.24320
gfz2010hueh   2.12590
gfz2010izag  -1.21740
gfz2010jcpq  -1.68430
gfz2010jlvp  -0.89357
gfz2010mdti   0.58468
gfz2010mqaj   4.38250
gfz2010ngge  -0.12019
gfz2010pclq   0.29258
gfz2010pgpo   1.22600
gfz2010pgrf   2.60820
gfz2010rkuu   1.00400
gfz2010rljv   0.12783
gfz2010tmba   0.95369
gfz2010wakc  -0.29926
gfz2010xamh   0.35012
gfz2010xpzq  -0.09652
gfz2010yfdr   0.89120
gfz2010zjun   0.96996
gfz2011ahvh   0.23709
gfz2011bpqm   0.41474
gfz2011bsvr  -0.04546
gfz2011cjuz   1.05410
gfz2011dabj  -0.08370
gfz2011dpyu   0.01419
gfz2011fnuk  -0.08138
gfz2011mjje  -0.10458
gfz2011ndhh  -0.40377
gfz2011nijp  -0.96579
gfz2011nilw  -0.26232
gfz2011niuw  -0.82417
gfz2011nuqo  -0.51121
gfz2011oslk  -0.04136
gfz2011owqa  -2.88390
gfz2012suqd   0.09834
gfz2012swbz   0.25110
gfz2012sxbo  -1.38920
gfz2012syum  -0.53992
gfz2012wmmw  -1.77320
gfz2012wysg   0.70566
gfz2013byyy   0.19958
gfz2013cpjc  -0.81955
gfz2013cvve  -0.21876
gfz2013fulo   0.20292
gfz2013fybd  -0.33600
gfz2013hbmi   0.68869
gfz2013icql  -0.31490
gfz2013iuyv   0.73026
gfz2013iwzn   0.11654
gfz2013jfcn   0.00647
gfz2013jobl   0.07469
gfz2013kats   0.17072
gfz2013kcdb  -0.03290
gfz2013kpcb  -0.44973
gfz2013kqab   0.68908
gfz2013lbvl   0.61660
gfz2013mdxj   0.23941
gfz2013mzaw   0.83620
gfz2013oeni  -0.04584
gfz2013oizq   0.33088
gfz2013phhi   0.79994
gfz2013qigb   0.35977
gfz2013qoak  -0.58039
gfz2013quwz   0.02091
gfz2013tjub  -0.35488
gfz2013utqa  -0.34901
gfz2013uwjo  -1.55000
gfz2013vmrv   0.35272
gfz2013vvre   0.15479
gfz2013wpns  -0.24227
gfz2013wyfl   0.42855
gfz2013xahp   0.27478
gfz2013xmzw   1.09910
gfz2013xswc   0.73054
gfz2013yqtu  -0.52667
gfz2013yxhf   1.74250
gfz2013zlak  -0.80464
gfz2014ayxf   0.95091
gfz2014bgxe   0.01721
gfz2014bkra   0.45384
gfz2014byes  -2.77620
gfz2014djhi   1.08590
gfz2014esez   0.01408
gfz2014evyu  -0.17409
gfz2014flxk  -0.88466
gfz2014fsir   0.32731
