# Nsamples: 16  MAD:  0.409  mean:  0.201  std:  0.687
gfz2013cyvx   0.98106
gfz2013dzvr   0.10773
gfz2013udtw   0.09827
gfz2013utqa  -0.49295
gfz2013vjrr  -0.17727
gfz2013vldx   0.27223
gfz2013vmrv   0.00299
gfz2013vmsg   2.34760
gfz2013vnwa  -0.06957
gfz2013voai  -0.08495
gfz2013vojy  -0.44278
gfz2013yqtu   0.32808
gfz2013zeye  -0.32570
gfz2013zfbz   0.54445
gfz2013zlak   0.34326
gfz2014bppg  -0.22332
