# Nsamples: 9  MAD:  0.262  mean: -0.532  std:  0.328
gfz2010clbw  -0.73500
gfz2010cllh  -0.97727
gfz2010crgy  -0.50270
gfz2010crir  -0.67722
gfz2010dask  -0.84282
gfz2010djib  -0.55833
gfz2010drit   0.04345
gfz2010fgbo  -0.39303
gfz2010fjme  -0.14147
