# Nsamples: 154  MAD:  0.708  mean: -0.117  std:  0.721
gfz2010aseg   0.23006
gfz2010azji   0.69862
gfz2010bklj  -0.67937
gfz2010bqnk   0.24161
gfz2010btme   2.21000
gfz2010ccwc  -0.09285
gfz2010ccye  -0.13399
gfz2010clbw  -0.58472
gfz2010cllh  -0.28967
gfz2010cphq  -0.18395
gfz2010cpig   0.64347
gfz2010crgy  -1.00560
gfz2010crir  -0.42608
gfz2010csle   0.38068
gfz2010csqy   1.53160
gfz2010cyid   0.49119
gfz2010dask  -0.25404
gfz2010djib  -1.33940
gfz2010drit   0.20359
gfz2010drml   0.35237
gfz2010drmq   0.35237
gfz2010drun  -0.74612
gfz2010dslu   0.35160
gfz2010fqnn  -0.41903
gfz2010habf  -0.21005
gfz2010hueh   1.69010
gfz2010jvsi  -0.22424
gfz2010pcya  -1.64390
gfz2010rljv  -0.18311
gfz2010sdfs   0.51493
gfz2010tmba   0.25627
gfz2010tpcj  -1.66380
gfz2010tzma  -1.36420
gfz2010uhjy  -0.42225
gfz2011ahvh  -0.44076
gfz2011vahy  -0.02354
gfz2011vbxv  -0.19285
gfz2011vcyx   0.21917
gfz2011vtzv   0.22063
gfz2011wcvs  -0.82080
gfz2011zghc   0.69586
gfz2012arlo   0.96825
gfz2012dejg   0.46883
gfz2012dttl   0.39347
gfz2012dwwu   0.23532
gfz2012qfah   0.57344
gfz2012qpoc   0.41809
gfz2012sgfd   0.58839
gfz2012socz   0.16084
gfz2012sqsc  -0.06653
gfz2012suqd   0.46874
gfz2012svwz   0.07461
gfz2012syum  -0.87358
gfz2012tvgw   0.44363
gfz2012uegq  -0.09181
gfz2012uhtc   0.27092
gfz2012uvoa  -0.42252
gfz2012uzww   0.05393
gfz2012wgmg   0.50653
gfz2012wkki   0.34764
gfz2012wowu   0.15022
gfz2012wysg   0.48612
gfz2012xcsf   0.57301
gfz2012xkln   0.37647
gfz2012xlas  -1.06790
gfz2012xncm   0.41046
gfz2012xqxw  -0.05621
gfz2012xrmq   0.34046
gfz2012xxdj  -0.51100
gfz2013agmt   0.27830
gfz2013akkd   0.36231
gfz2013bwgw  -0.61283
gfz2013byyy  -0.10722
gfz2013cvve   0.16867
gfz2013cyvx  -0.61519
gfz2013delq  -0.71000
gfz2013dngd  -0.39528
gfz2013dzvr  -0.22588
gfz2013efct   0.00014
gfz2013fulo  -1.47170
gfz2013fvht   1.03020
gfz2013jfcn  -0.60900
gfz2013jobl   0.44915
gfz2013kats  -1.18510
gfz2013kcdb   0.28796
gfz2013kpcb  -1.10830
gfz2013kqab   0.26849
gfz2013lbvl  -1.08810
gfz2013mdxj   0.46188
gfz2013nkgd  -1.05650
gfz2013oizq  -0.79938
gfz2013olos  -0.44884
gfz2013orot   0.64165
gfz2013qigb  -0.94741
gfz2013qmkt  -0.22337
gfz2013qoak  -0.85741
gfz2013quwz  -1.33270
gfz2013qxof   0.04994
gfz2013skvq   0.13979
gfz2013tdsx  -0.07398
gfz2013tjub  -1.02360
gfz2013upqj   2.18750
gfz2013uwjo   0.81258
gfz2013uxzw  -0.18963
gfz2013vmsg  -0.24219
gfz2013vnwa  -0.10885
gfz2013vojy   0.56627
gfz2013vzel  -1.18060
gfz2013wyfl  -0.47581
gfz2013xahp  -0.23800
gfz2013xjmo  -0.36068
gfz2013xmzw   0.77819
gfz2013xswc  -0.50066
gfz2013ylxn   0.07335
gfz2013yqtu   1.20980
gfz2013zfbz  -0.15074
gfz2013zlak  -0.14297
gfz2014amgk   0.04195
gfz2014aqop  -1.67510
gfz2014ayxf   0.02334
gfz2014bdju  -0.16753
gfz2014bgxe  -1.16760
gfz2014bkra  -1.14830
gfz2014cokw   0.14962
gfz2014dggw  -0.09109
gfz2014dihl  -1.18360
gfz2014diuu   0.55310
gfz2014egvg   0.71759
gfz2014eirs  -0.57835
gfz2014eoay  -0.05449
gfz2014epnq  -0.83434
gfz2014esez   0.19827
gfz2014fbnr   1.65320
gfz2014fdhk   0.06165
gfz2014flxk  -0.18569
gfz2014fsir  -0.86825
gfz2014fsje  -0.95483
gfz2014fxte  -0.66828
gfz2014fxuy  -0.12569
gfz2014gnbw  -0.34889
gfz2014gypw   0.92632
gfz2014hkcw  -0.45219
gfz2014hqhv   0.05795
gfz2014huqh   0.64106
gfz2014hzzf  -0.93678
gfz2014igrp  -0.62780
gfz2014ijsa  -1.42200
gfz2014iltl  -0.94198
gfz2014irlf  -1.12760
gfz2014irln  -0.38548
gfz2014irly  -0.67948
gfz2014iusw  -0.31457
gfz2014jarg   0.37497
gfz2014jayh  -0.84929
