# Nsamples: 44  MAD:  0.742  mean:  1.094  std:  1.049
gfz2010ngge   2.20690
gfz2010rljv   2.52330
gfz2010uhjy   2.06500
gfz2011bpqm   1.03290
gfz2011dabj   0.63542
gfz2011dpyu   0.85293
gfz2011gnbk   1.81250
gfz2011jghq  -0.33768
gfz2011kjzt   1.62970
gfz2011kjzv  -0.24942
gfz2011ndhh   1.59370
gfz2011niuw  -0.65506
gfz2011nuqo   1.70210
gfz2011oslk   0.60227
gfz2011sdax   1.65640
gfz2011uqry   1.91960
gfz2011vahy   0.91410
gfz2011wcvs   1.58200
gfz2012cvfr   1.33330
gfz2012ekfp   2.24080
gfz2012suqd   2.20600
gfz2013cyvx   1.27930
gfz2013fulo   0.47842
gfz2013iwhc  -3.21020
gfz2013jfcn   1.67020
gfz2013kats   0.87228
gfz2013kpcb   1.82480
gfz2013lbvl   0.30110
gfz2013qigb   0.46730
gfz2013qoak   2.73410
gfz2013quwz   1.63510
gfz2013uwjo  -0.96779
gfz2013vzet   1.42850
gfz2013wyfl   1.61620
gfz2013xswc   0.70152
gfz2014dihl   1.19350
gfz2014flxk   2.07030
gfz2014fsir   1.15090
gfz2014fxte   1.35950
gfz2014hqhv   0.97656
gfz2014hzzf   0.30696
gfz2014iltl   0.85296
gfz2014irlf   1.14260
gfz2014irln   0.97282
