# Nsamples: 17  MAD:  0.381  mean:  1.345  std:  0.811
gfz2011kjzt   1.17180
gfz2011kjzv   0.69606
gfz2011ldgl   1.20870
gfz2011vahy   1.41970
gfz2011vcyx   1.53560
gfz2012bqcf   1.04790
gfz2012uzww   1.84040
gfz2012wgmg   1.30460
gfz2013pkmz   2.28480
gfz2013qigb   1.45660
gfz2013qoak   1.31640
gfz2013quwz   1.25210
gfz2013vcgd   0.93308
gfz2013vvre  -0.65180
gfz2013wyfl   2.88700
gfz2013xswc   0.55223
gfz2013yqtu   2.61610
