# Nsamples: 324  MAD:  0.383  mean:  0.025  std:  0.551
gfz2010abfc  -0.05343
gfz2010abvu   0.32099
gfz2010aggj   0.24436
gfz2010aseg   0.18157
gfz2010bgrt   0.33768
gfz2010byau   0.46040
gfz2010clbw   0.20061
gfz2010cllh   0.21693
gfz2010cphq   0.48699
gfz2010crgy   0.32431
gfz2010crir  -0.13071
gfz2010csle  -0.07863
gfz2010csqy  -0.06829
gfz2010cyid   0.70411
gfz2010dask   1.20320
gfz2010djib  -0.33885
gfz2010dmij  -3.45230
gfz2010drit   1.11980
gfz2010drml   0.20266
gfz2010drmq   0.20266
gfz2010drun   0.23809
gfz2010dumv   0.57540
gfz2010dwgy  -0.17344
gfz2010dxhq  -0.25709
gfz2010faly   0.07807
gfz2010fgbo   0.13604
gfz2010fjme   0.22019
gfz2010fkff  -0.09261
gfz2010fkpa  -0.66052
gfz2010fnkr   1.49590
gfz2010fqnn  -0.12476
gfz2010fxhh  -0.09117
gfz2010fxut   0.42026
gfz2010gcqp  -0.07511
gfz2010gonu   0.20611
gfz2010guwa  -0.07972
gfz2010habf  -0.09451
gfz2010hdxn  -0.57367
gfz2010hllp  -0.22681
gfz2010hsgv  -0.14597
gfz2010hueh  -0.64475
gfz2010hxan   0.18196
gfz2010iaay   0.80895
gfz2010ifhd  -0.73631
gfz2010ixjl   0.17784
gfz2010izag   0.26571
gfz2010jlvp   0.05989
gfz2010kcdq   0.10806
gfz2010kwks  -0.54855
gfz2010ljol   0.45717
gfz2010ljzf  -0.67589
gfz2010mdti  -0.02725
gfz2010mpvc  -0.18767
gfz2010mqaj  -2.97780
gfz2010ncwu  -0.34768
gfz2010ngge  -0.21993
gfz2010nwyk  -0.16679
gfz2010pclq  -0.11421
gfz2010pcya  -1.02590
gfz2010pgpo   0.10644
gfz2010pvnn  -0.00000
gfz2010qbcy  -0.81954
gfz2010qdqk  -1.07080
gfz2010vdcf  -0.15300
gfz2010vong   0.44493
gfz2010wakc  -0.12498
gfz2010xamh  -0.44336
gfz2010xnbn   0.47823
gfz2010xpzq   0.10457
gfz2010yfdr   0.05582
gfz2010ytzb   0.01938
gfz2010zjun   0.30421
gfz2011afyc   0.18931
gfz2011ahvh  -0.27298
gfz2011amst  -0.30751
gfz2011awsv   0.33977
gfz2011bpqm  -0.14364
gfz2011bsvr  -0.58582
gfz2011bygs  -0.10933
gfz2011bygu  -0.08604
gfz2011bzio  -0.20018
gfz2011caca  -0.79539
gfz2011cdge   0.00154
gfz2011cfyy  -0.52551
gfz2011cjuz   0.11788
gfz2011dabj   0.03373
gfz2011dhfg  -0.00543
gfz2011dpyu   0.36326
gfz2011emzr   0.03219
gfz2011exxq  -1.53180
gfz2011fnie  -0.27164
gfz2011fnuk  -0.29684
gfz2011fszl  -0.18667
gfz2011fzcw  -0.66956
gfz2011gfer   0.07191
gfz2011gnbk  -0.19548
gfz2011gpyr  -0.14451
gfz2011hqjs   0.00000
gfz2011jghq  -0.48443
gfz2011jphj  -1.22850
gfz2011kfch   0.22141
gfz2011kjzt  -0.24790
gfz2011kjzv  -0.22589
gfz2011ldgl   0.20048
gfz2011lkkf  -0.16925
gfz2011lmug  -0.23397
gfz2011lwmg  -0.00143
gfz2011mjje   0.34445
gfz2011ndhh   0.52231
gfz2011ndlh   0.69399
gfz2011neai   1.08000
gfz2011nejg  -1.94230
gfz2011nejw   0.00000
gfz2011nerb   0.84723
gfz2011nfcz  -0.01269
gfz2011nftw   0.27554
gfz2011nhby   0.35517
gfz2011nijp  -0.02497
gfz2011nilw   0.21827
gfz2011nisj   0.85573
gfz2011niuw  -0.27440
gfz2011nkda  -1.76920
gfz2011nkou   0.82746
gfz2011nlmf   0.83072
gfz2011nlnl  -0.42379
gfz2011nlum  -0.31347
gfz2011nsiy   0.87691
gfz2011nsrx  -0.11126
gfz2011nuqo  -0.33703
gfz2011oadm   0.06728
gfz2011oazk  -0.34241
gfz2011ocif  -0.65131
gfz2011ofpj   0.01014
gfz2011ohgj  -0.51303
gfz2011oslk   0.09674
gfz2011owqa   1.79360
gfz2011paqj  -0.49814
gfz2011pivq   1.20170
gfz2011pmuv   0.60543
gfz2011poug  -0.39572
gfz2011ppsc  -0.12101
gfz2011pwbw   0.00451
gfz2011qenl  -0.26718
gfz2011qukj  -0.50279
gfz2011rbuo   0.05979
gfz2011rczb  -0.17608
gfz2011rkau   0.28233
gfz2011rnny   0.43074
gfz2011rnsp   0.13175
gfz2011rqut   0.42554
gfz2011scma   0.35063
gfz2011sdax  -0.50113
gfz2011sdpl  -0.62604
gfz2011tozo   0.31861
gfz2011tqgg  -0.02906
gfz2011tsgl  -1.14520
gfz2011txdb  -0.99850
gfz2011uqry   0.81572
gfz2011vahy  -0.12093
gfz2011vbxv   0.24653
gfz2011vcyx  -0.36624
gfz2011vsag   0.35330
gfz2011vtzv   0.14369
gfz2011wcvs  -0.34069
gfz2011wkja   0.09940
gfz2011wucg   0.04786
gfz2011wwze  -0.03986
gfz2011wzss   0.29837
gfz2011xawm  -0.00000
gfz2011xgbc   0.15747
gfz2011xkka   0.36185
gfz2011yexx   0.55500
gfz2011ypfh   0.22793
gfz2011ytob   0.37371
gfz2011zghc   0.79447
gfz2012ahac   0.09336
gfz2012amjx   0.34919
gfz2012arlo   0.89514
gfz2012bcvn   0.35453
gfz2012bqcf   0.10128
gfz2012byrq   0.55320
gfz2012bysu   0.02733
gfz2012bytv  -0.38112
gfz2012byuk  -0.03194
gfz2012cdju   0.03158
gfz2012cksh   0.34829
gfz2012cntu  -0.13630
gfz2012crpb   0.08439
gfz2012cvfr  -0.06452
gfz2012dejg   0.08041
gfz2012dnig   0.29525
gfz2012dttl   0.22673
gfz2012dwwu  -0.06187
gfz2012dzou   0.63634
gfz2012ekfp   0.22161
gfz2012evxn   0.09421
gfz2012fuyd   0.99292
gfz2012gdye  -0.01985
gfz2012ghiv  -0.07926
gfz2012gjdg  -0.13120
gfz2012gnow  -0.19932
gfz2012gpcd   0.37700
gfz2012hvtu   0.71889
gfz2012hzur  -0.55407
gfz2012iblo  -0.46570
gfz2012iijk  -0.20645
gfz2012imuo   0.58362
gfz2012jodg   0.99952
gfz2012kmbo  -0.13555
gfz2012ldjj  -0.38370
gfz2012lyyr  -0.01319
gfz2012mdzf  -0.35448
gfz2012mjuu   0.09688
gfz2012mrqk   1.19590
gfz2012mtyn   0.02653
gfz2012nnqu  -0.59168
gfz2012nqvd  -0.26190
gfz2012oafg   0.14528
gfz2012oehy   0.04185
gfz2012ofnx  -0.39953
gfz2012phns   0.16754
gfz2012qllj   0.01172
gfz2012qpoc  -0.20356
gfz2012rzwp  -1.21920
gfz2012sgfd  -0.34217
gfz2012socz   0.14588
gfz2012suqd   0.82531
gfz2012swbz   0.32661
gfz2012sxbo   0.31461
gfz2012syum   0.34791
gfz2012tisj  -0.45893
gfz2012trfq   0.32037
gfz2012uegq   0.72950
gfz2012uhtc  -0.04304
gfz2012ulei   0.75689
gfz2012uvoa   0.13883
gfz2012uzww  -0.31011
gfz2012vdra   0.53071
gfz2012vile  -0.19542
gfz2012vitw   0.01740
gfz2012vrqz  -0.11827
gfz2012wgdv   0.06814
gfz2012wkki   0.34512
gfz2012wpen  -0.32772
gfz2012wysg   0.08741
gfz2012xask  -0.22896
gfz2012xcsf  -0.20976
gfz2012xkln  -0.01908
gfz2012xlas   0.87416
gfz2012xlfo   0.12177
gfz2012xncm   0.65614
gfz2012xqxw   0.02807
gfz2012xrmq  -0.04182
gfz2012xxdj  -0.15998
gfz2012yncm   1.72300
gfz2012zhyz  -0.20258
gfz2013agmt   0.24789
gfz2013akkd   0.08931
gfz2013bwgw  -0.02429
gfz2013byyy   0.04151
gfz2013ntiu  -0.09419
gfz2013otuj   0.19728
gfz2013oywh  -0.48749
gfz2013pkmz   0.14559
gfz2013qigb   0.61236
gfz2013qoak  -0.09447
gfz2013qogb   0.80177
gfz2013quwz   0.28837
gfz2013rdmn   0.33712
gfz2013rfik   0.09494
gfz2013rtvy  -0.16583
gfz2013rwkj   0.22484
gfz2013skvq   0.43002
gfz2013taeb   0.56248
gfz2013tdsx   0.10886
gfz2013tjub   0.41629
gfz2013tkcg  -0.15597
gfz2013tnrp   0.02513
gfz2013twbc   1.24770
gfz2013uafv   0.47797
gfz2013udtw  -0.20403
gfz2013upqj   0.16771
gfz2013utqa  -0.31511
gfz2013uwjo  -0.36671
gfz2013uxzw  -1.00540
gfz2013vdam   0.15231
gfz2013veoz  -0.09143
gfz2013veug   0.42852
gfz2013vjrr   0.07740
gfz2013vldx  -0.44830
gfz2013vmrv  -0.63227
gfz2013voai  -0.30059
gfz2013vojy  -0.10487
gfz2013vvre  -0.77501
gfz2013vzel   0.01607
gfz2013vzet   0.46387
gfz2013wyfl  -0.48149
gfz2013xahp  -0.02783
gfz2013xjmo  -0.42118
gfz2013xlic  -0.02179
gfz2013xmzw  -0.13519
gfz2013xofz   0.55621
gfz2013xswc  -0.11479
gfz2013yodm  -0.64996
gfz2013yqtu  -0.63874
gfz2013yxhf   0.28632
gfz2013zfbz  -0.02527
gfz2013zlak   0.29264
gfz2014amgk  -0.27889
gfz2014aqop   0.18605
gfz2014ayxf   0.28929
gfz2014bdju   0.13169
gfz2014bkra   0.58570
gfz2014cgoi  -0.06616
gfz2014cokw  -0.01110
gfz2014crac  -0.36044
gfz2014cvnb   0.32272
gfz2014cwcj   0.24093
gfz2014dihl   0.54070
gfz2014djhi   0.62969
gfz2014dtth  -0.06265
gfz2014dwcp  -0.11064
gfz2014ecor   1.30090
gfz2014epnq   0.41921
