# Nsamples: 243  MAD:  0.617  mean:  0.085  std:  0.941
gfz2010aggj  -0.55237
gfz2010ccye  -0.73388
gfz2010crgy  -0.52110
gfz2010crir  -0.26904
gfz2010dask  -0.08753
gfz2010djib  -0.09542
gfz2010drit  -0.14720
gfz2010drml  -0.16796
gfz2010drmq  -0.16796
gfz2010dumv  -0.80963
gfz2010dxhq  -0.06358
gfz2010fjme   0.46331
gfz2010fqnn   4.71300
gfz2010gonu   0.30686
gfz2010habf   0.71391
gfz2010hllp   0.77448
gfz2010iawy  -0.12548
gfz2010jlvp   0.27232
gfz2010jpkn  -2.60420
gfz2010mdti   1.44160
gfz2010mqaj   3.03880
gfz2010ncwu   1.35340
gfz2010ngge  -0.89272
gfz2010okpc  -0.99833
gfz2010pclq  -0.13236
gfz2010pcya   3.17290
gfz2010pngv   1.35960
gfz2010qdqk   0.95388
gfz2010qrta   0.21366
gfz2010rkuu   0.96057
gfz2010rljv   0.30344
gfz2010rnwt  -1.56540
gfz2010rpjd   2.44260
gfz2010schp   1.73770
gfz2010tcgh   0.82087
gfz2010tmba  -0.41912
gfz2010tpcj  -1.57570
gfz2010tzma  -0.03465
gfz2010uhjy  -0.19194
gfz2010uidg   0.29025
gfz2010vong  -0.20350
gfz2010wakc  -0.06400
gfz2010xpzq  -0.24637
gfz2010yfdr   0.49420
gfz2010zjun   0.12393
gfz2011ahvh  -1.61160
gfz2011amst   0.74615
gfz2011awsv  -0.31265
gfz2011bpqm   1.18230
gfz2011bsvr  -0.08354
gfz2011bygs  -0.08679
gfz2011bygu  -0.18399
gfz2011cdge   0.35062
gfz2011cjuz  -0.27489
gfz2011dabj   0.06703
gfz2011dpyu  -1.02610
gfz2011emzr   0.45281
gfz2011fnie  -0.20994
gfz2011fzcw   2.07240
gfz2011gfer   0.32439
gfz2011ggnl  -0.57705
gfz2011gnbk  -0.08406
gfz2011gpyr  -0.01458
gfz2011hqjs   0.20409
gfz2011jphj  -0.09329
gfz2011kfch  -1.32110
gfz2011kjzt  -0.48220
gfz2011lkkf   0.75366
gfz2011mllb   0.44120
gfz2011mror  -1.12090
gfz2011ndhh  -0.29944
gfz2011neai   0.21051
gfz2011nejg   1.94330
gfz2011nerb  -0.52193
gfz2011nfcz  -0.56880
gfz2011nftw   0.48629
gfz2011nhby   0.15822
gfz2011nijp  -0.21309
gfz2011nilw   0.26228
gfz2011nimp  -2.37090
gfz2011nisj   0.15395
gfz2011niuw  -0.07101
gfz2011nlmf  -0.27937
gfz2011nlnl  -1.71120
gfz2011nlum  -0.10233
gfz2011npaf   2.33890
gfz2011nsiy   0.00421
gfz2011nuqo   0.08593
gfz2011oadm   1.40490
gfz2011oazk  -0.49264
gfz2011ofpj  -0.20712
gfz2011ohgj  -0.26066
gfz2011oslk  -0.83961
gfz2011pivq   0.66612
gfz2011ppsc   0.05653
gfz2011prrq  -0.70111
gfz2011pwbw   0.22606
gfz2011qenl   0.18269
gfz2011qukj   2.45500
gfz2011rczb   0.30339
gfz2011rkau  -0.43520
gfz2011rnsp   0.09289
gfz2011scma   0.47112
gfz2011sdax  -0.12400
gfz2011sqco   1.87240
gfz2011sxno  -0.09329
gfz2011syvj   0.26508
gfz2011taqr  -1.16840
gfz2011tdjj  -0.61268
gfz2011tqgg  -1.61090
gfz2011tsgl   0.70301
gfz2011unud   1.54020
gfz2011uqry  -0.11557
gfz2011vahy  -0.27243
gfz2011vcyx   0.23754
gfz2011wcvs  -0.35920
gfz2011wucg   0.27251
gfz2011xgwy   0.72510
gfz2011yexx  -0.21951
gfz2011ytob   0.97900
gfz2011zghc  -0.50478
gfz2012ahac  -0.56495
gfz2012amjx  -1.08400
gfz2012arlo  -0.66722
gfz2012bqcf  -1.11090
gfz2012byrq   0.41049
gfz2012bytv   0.25057
gfz2012byuk  -0.60131
gfz2012cdju   0.01900
gfz2012cntu   1.40180
gfz2012crpb  -0.22919
gfz2012cvfr   0.00033
gfz2012dwwu  -0.96625
gfz2012dysu   0.02106
gfz2012ekfp   0.76765
gfz2012enio   1.23740
gfz2012gdye   0.84214
gfz2012hvtu   2.61290
gfz2012kmbo   0.80282
gfz2012ldjj   0.25865
gfz2012lyyr   2.13550
gfz2012mdzf  -0.11940
gfz2012mjuu   0.51028
gfz2012mrqk  -0.54127
gfz2012mrwu  -0.53241
gfz2012mtyn  -0.32117
gfz2012oafg   0.13530
gfz2012oehy  -0.39760
gfz2012ofnx  -0.41191
gfz2012phns   0.20902
gfz2012pmuj  -2.72490
gfz2012qpoc   1.05570
gfz2012sgfd  -0.72936
gfz2012suqd  -0.51451
gfz2012svwz   0.15287
gfz2012swbz  -0.70875
gfz2012sxbo  -0.03525
gfz2012sxzs  -0.24441
gfz2012syum   0.56468
gfz2012uegq  -1.07730
gfz2012uhtc  -0.24897
gfz2012vdra  -0.33206
gfz2012xkln   0.00821
gfz2012xlas   0.98918
gfz2012xlfo   2.13900
gfz2012xncm   0.01941
gfz2012xrmq  -0.40704
gfz2013agmt  -0.58371
gfz2013akkd   1.40890
gfz2013bwgw  -0.66620
gfz2013byyy  -0.07832
gfz2013cvve  -0.54239
gfz2013cyvx  -0.14722
gfz2013delq  -0.34617
gfz2013efct  -0.39676
gfz2013enqo   0.43624
gfz2013fmcd  -0.20097
gfz2013fnpa   0.54712
gfz2013hvkg   0.18729
gfz2013hvzv  -0.96266
gfz2013icql  -0.73836
gfz2013iuyv   0.14207
gfz2013iwzn   0.36246
gfz2013jfcn  -0.20751
gfz2013jobl  -0.32706
gfz2013kats  -0.05619
gfz2013kbbg  -0.38712
gfz2013kcdb   0.88470
gfz2013kjgh  -0.74280
gfz2013kpcb   0.48697
gfz2013kqab   0.57191
gfz2013kslp   0.04124
gfz2013lbod   0.05578
gfz2013lbvl  -0.37681
gfz2013mdxj   0.38532
gfz2013mvgq  -0.08799
gfz2013mzaw   0.19890
gfz2013nkgd   2.50600
gfz2013nkgt   0.64556
gfz2013oeni  -0.14983
gfz2013oizq   0.72210
gfz2013orot  -0.20103
gfz2013oywh   2.85870
gfz2013phhi  -0.87776
gfz2013pkmz   2.59180
gfz2013rwkj   0.10573
gfz2013skvq  -0.15237
gfz2013tjub   0.00000
gfz2013tnrp  -0.14090
gfz2013udtw   0.21220
gfz2013utqa   0.07580
gfz2013uwjo  -1.57420
gfz2013vmrv   0.73642
gfz2013vojy  -0.55370
gfz2013vvre   0.40901
gfz2013vzel  -0.41763
gfz2013xmzw  -0.49263
gfz2013xswc  -0.48006
gfz2013zfbz   0.73032
gfz2013zlak  -0.56722
gfz2014amgk  -0.61947
gfz2014ayxf   0.62281
gfz2014bgxe   0.11398
gfz2014bkra   0.92915
gfz2014cokw   0.23332
gfz2014dihl   0.47098
gfz2014djhi  -0.48112
gfz2014eirs  -0.01233
gfz2014esez  -0.42209
gfz2014flxk  -0.14020
gfz2014hhis  -1.19100
gfz2014hkcw   0.10901
gfz2014huqh   0.08743
gfz2014hzzf  -0.23859
gfz2014icov   0.07021
gfz2014igrp   0.11396
gfz2014iltl   0.08479
gfz2014irlf  -0.90412
gfz2014irln  -0.13830
gfz2014irly  -0.61160
gfz2014iusw  -0.56537
gfz2014jarg  -0.23110
gfz2014jayh   0.15287
