# Nsamples: 125  MAD:  0.687  mean: -0.084  std:  0.798
gfz2010vong   0.13822
gfz2010wakc  -1.15300
gfz2010xpzq   0.24297
gfz2010yspe   0.66218
gfz2010zjun   0.56227
gfz2011ahvh   0.16302
gfz2011amst  -1.83220
gfz2011bcvc  -0.83905
gfz2011bsvr  -1.47570
gfz2011bygs   0.00853
gfz2011bygu   0.39021
gfz2011cdge  -0.32230
gfz2011cjuz   0.63486
gfz2011dabj  -0.58777
gfz2011dpyu  -0.96621
gfz2011mjje  -0.97073
gfz2011nfcz   0.34186
gfz2011nfgt   0.05808
gfz2011nhby   0.08729
gfz2011nijp  -0.68961
gfz2011nilw  -1.46700
gfz2011niuw  -1.05510
gfz2011nnos   1.24630
gfz2011nuqo   0.45506
gfz2011oekz   0.35574
gfz2011owqa  -1.50730
gfz2011pdsn  -1.51430
gfz2011pgzk   0.37584
gfz2011sqco   2.20290
gfz2011tsgl   0.53038
gfz2011vahy  -0.26945
gfz2011vbxv  -0.38362
gfz2011vtzv  -0.19078
gfz2011wyei   0.45172
gfz2011wzss   0.78674
gfz2012cdju  -0.41719
gfz2012evxn   0.65559
gfz2012fpyo  -0.46346
gfz2012gnow  -0.19204
gfz2012iphs   0.75429
gfz2012mmiw  -1.16500
gfz2012mpzo  -0.30671
gfz2012pmuj  -0.66293
gfz2012pvve  -0.49765
gfz2012qhqp  -0.11402
gfz2012suqd   0.46258
gfz2012swbz   0.25317
gfz2012trfq   0.32550
gfz2012tvgw   0.82795
gfz2012vgot  -0.19593
gfz2012vitw  -0.04768
gfz2012wysg  -0.10203
gfz2012xask  -0.50332
gfz2012zqis  -0.39926
gfz2013agbm   1.81420
gfz2013agmt   0.75817
gfz2013cinv  -0.09864
gfz2013efct   0.41687
gfz2013fnpa  -0.05003
gfz2013fthi   0.63297
gfz2013fulo  -0.79222
gfz2013gkyn  -0.18189
gfz2013hbmi   0.32614
gfz2013hbtm   0.10802
gfz2013icql   0.48561
gfz2013jobl  -0.57208
gfz2013kcdb   0.27295
gfz2013lbvl   0.01808
gfz2013lxed   0.06877
gfz2013mimp  -0.39877
gfz2013mzaw   0.50462
gfz2013nkgd  -1.27430
gfz2013nnai   0.99387
gfz2013ntiu   0.61337
gfz2013oizq  -0.35551
gfz2013olos  -0.99353
gfz2013qigb  -0.13470
gfz2013qmkt   0.93016
gfz2013qnqr   0.21287
gfz2013qoak   0.29716
gfz2013quwz  -1.04880
gfz2013qxof   0.14117
gfz2013tjub  -0.76329
gfz2013uxzw  -0.38264
gfz2013vdam  -0.19411
gfz2013vmsg   0.40936
gfz2013xahp   2.28260
gfz2013xmzw   2.42400
gfz2013xofz   2.70880
gfz2013yodm  -0.83747
gfz2013yqtu   0.26301
gfz2013yxhf  -0.35592
gfz2013zfbz  -0.38881
gfz2013ziix  -0.89152
gfz2014aqop   0.24774
gfz2014ayxf   0.92094
gfz2014bdju   0.04755
gfz2014bkra  -1.11540
gfz2014bqpm  -0.10676
gfz2014byes   0.22347
gfz2014cjao   0.14730
gfz2014cokw  -1.02500
gfz2014cvnb  -0.00322
gfz2014dihl   0.58361
gfz2014dpps   0.30723
gfz2014dykt  -0.22409
gfz2014egvg  -0.60574
gfz2014eirs  -0.91617
gfz2014eoay  -0.10892
gfz2014epnq  -1.45680
gfz2014faex   0.35472
gfz2014flxk  -0.26407
gfz2014fsir  -0.31856
gfz2014fsje  -0.40170
gfz2014fwxt  -0.15002
gfz2014fxte  -0.07787
gfz2014fxuy  -0.60491
gfz2014gnbw  -1.11980
gfz2014hkcw  -0.53916
gfz2014iaqm  -0.96765
gfz2014igrp  -0.18993
gfz2014irln  -1.13750
gfz2014irly  -0.99866
gfz2014iusw  -0.31967
gfz2014jayh  -0.32159
