# Nsamples: 12  MAD:  0.449  mean:  0.523  std:  1.180
gfz2013jfcn   1.43230
gfz2013jobl   0.88250
gfz2013kats   0.60956
gfz2013kbbg   0.96680
gfz2013lbvl   0.64216
gfz2013phhi   0.31599
gfz2013qoak   0.70830
gfz2013rdmn   0.06781
gfz2013wyfl   2.04080
gfz2013yqtu   0.99003
gfz2013zfbz   0.46687
gfz2014bzus  -2.84460
