# Nsamples: 15  MAD:  0.805  mean: -0.219  std:  0.778
gfz2010tgmo  -1.00070
gfz2010uhjy  -0.03587
gfz2011ndhh  -0.98155
gfz2011niuw  -0.90540
gfz2011nuqo  -0.36275
gfz2011ofpj   1.44700
gfz2011uqry  -0.07693
gfz2013cyvx   0.65371
gfz2013mdxj  -0.09141
gfz2013ubgt   0.84248
gfz2014fsir  -0.56371
gfz2014fxte   0.45640
gfz2014iltl  -1.17820
gfz2014irlf  -0.71939
gfz2014irln  -0.77109
