# Nsamples: 272  MAD:  0.400  mean:  0.073  std:  0.675
gfz2010aseg   0.50551
gfz2010clbw  -0.07129
gfz2010cllh  -0.78899
gfz2010cnhd  -0.15449
gfz2010cphq  -0.89628
gfz2010crgy   0.03765
gfz2010crir  -0.20102
gfz2010cyid   0.31607
gfz2010dask  -0.53289
gfz2010djib  -0.45256
gfz2010dmij  -0.28957
gfz2010drit   0.11816
gfz2010drml   0.30380
gfz2010drmq   0.30380
gfz2010drun   0.21840
gfz2010dxhq  -1.19170
gfz2010fgbo   0.09617
gfz2010fjme   0.40511
gfz2010fkff   0.17085
gfz2010fxut   1.06340
gfz2010gcqp   0.04778
gfz2010gonu  -0.01222
gfz2010habf   0.48611
gfz2010hesh  -0.09761
gfz2010hsgv   0.03771
gfz2010huzl  -1.20550
gfz2010hxan  -0.87223
gfz2010iawy   1.52010
gfz2010ljzf   0.31900
gfz2010pclq   0.24341
gfz2010pgpo   0.21588
gfz2010qdqk   1.48710
gfz2010qqqx   2.61630
gfz2010qrix  -1.18210
gfz2010rkuu  -0.10557
gfz2010rljv   0.08031
gfz2010rnwt   1.14900
gfz2010rpjd   2.71910
gfz2010schp   0.87735
gfz2010tcgh   2.81340
gfz2010tfar  -0.17250
gfz2010tmba   0.00000
gfz2010ugws   2.26580
gfz2010uhjy   0.02109
gfz2010vong  -0.48728
gfz2010wakc   0.23828
gfz2010xamh   0.88342
gfz2010xnbn   0.27133
gfz2010xpzq   0.73494
gfz2010yfdr   0.33410
gfz2010zjun   0.56681
gfz2011ahvh   0.11628
gfz2011bffb   0.61912
gfz2011bpqm   0.27045
gfz2011bsvr   0.56487
gfz2011bygs   0.49160
gfz2011bygu   0.24901
gfz2011cdge  -0.66578
gfz2011cjuz   0.04906
gfz2011dabj  -0.64318
gfz2011dpyu   0.79657
gfz2011fnie  -0.65725
gfz2011fnuk  -0.69045
gfz2011gfer  -0.47306
gfz2011ggnl   0.11166
gfz2011gnbk   0.13606
gfz2011gpyr   0.08822
gfz2011hqjs   0.07651
gfz2011ndhh   0.16051
gfz2011nejg  -0.21759
gfz2011nejw  -0.07052
gfz2011nerb   1.31410
gfz2011nfgt  -0.63273
gfz2011nftw   0.23422
gfz2011nhby   0.11654
gfz2011nhvt   0.90450
gfz2011nijp  -0.34674
gfz2011nilw  -0.22270
gfz2011nimp   0.81103
gfz2011niuw  -0.97945
gfz2011nlnl  -0.12466
gfz2011nlum  -0.39559
gfz2011oadm  -0.06199
gfz2011oazk  -0.14031
gfz2011oekz  -0.96882
gfz2011qenl   0.08900
gfz2011qukj   0.27700
gfz2011rkau  -0.95682
gfz2011rnsp   0.51032
gfz2011sdax  -0.12255
gfz2011sdpl   0.04405
gfz2011sqco   1.18580
gfz2012hvtu   2.14660
gfz2012hzur   1.16890
gfz2012iijk  -0.57798
gfz2012imuo  -0.23907
gfz2012kmbo  -0.23633
gfz2012lyyr  -0.20363
gfz2012mjuu   0.06974
gfz2012mmiw  -0.26626
gfz2012mrqk  -0.54842
gfz2012mrwu  -0.11958
gfz2012nnqu   0.99808
gfz2012nqvd  -0.38516
gfz2012oafg   0.22802
gfz2012oehy  -0.06240
gfz2012ofnx   1.38890
gfz2012pmuj  -0.50065
gfz2012rzwp   0.84718
gfz2012sgfd  -0.59362
gfz2012socz   2.21670
gfz2012suqd   1.06270
gfz2012svwz  -0.07561
gfz2012swbz   0.00000
gfz2012tisj  -0.74153
gfz2012uzww  -0.22714
gfz2012vitw  -0.01751
gfz2012vnve   0.80910
gfz2012vrqz   0.05155
gfz2012wkki   0.20094
gfz2012wpen  -0.12504
gfz2012wugc  -0.34972
gfz2012wysg   0.19111
gfz2012xask  -0.32403
gfz2012xkln  -0.40809
gfz2012xlas  -0.22933
gfz2012xncm   0.09482
gfz2012xrmq   0.50185
gfz2012yihn   0.13483
gfz2012ylai  -0.13799
gfz2012zqis   0.10953
gfz2013aggr   1.55160
gfz2013byyy  -0.04881
gfz2013cinv  -0.16305
gfz2013cvve   0.17041
gfz2013cyvx   0.09618
gfz2013delq  -0.19019
gfz2013dzvr   0.49131
gfz2013fmcd   0.91086
gfz2013fmcp   0.08511
gfz2013fnpa   0.24476
gfz2013gkyn  -0.18686
gfz2013glpz   0.09750
gfz2013gsnl  -0.70994
gfz2013gurk  -0.27595
gfz2013havw  -0.12078
gfz2013hbtm   0.16916
gfz2013hinw   0.37037
gfz2013icql   0.13800
gfz2013iuyv   0.56779
gfz2013iwzn   0.27385
gfz2013jfcn   0.51520
gfz2013jobl   0.08619
gfz2013jzcf   0.07171
gfz2013kats   0.20883
gfz2013kbbg   0.32923
gfz2013kbbn  -1.11120
gfz2013kcdb   0.41763
gfz2013kpcb  -0.10688
gfz2013kqab   0.66890
gfz2013kslp   0.16455
gfz2013ljwt  -1.26910
gfz2013lvxe  -0.21097
gfz2013mvgq  -0.77391
gfz2013mzaw   0.30233
gfz2013ntiu   1.16110
gfz2013oeni   0.15154
gfz2013oizq   0.64444
gfz2013oywh   0.10511
gfz2013qigb   0.32449
gfz2013qoak   0.35358
gfz2013quwz  -0.35301
gfz2013quyn  -0.34644
gfz2013qxof  -0.00938
gfz2013rdmn  -0.12617
gfz2013rhbx   0.21127
gfz2013rtvy  -0.08371
gfz2013rwkj  -0.01343
gfz2013sdkg  -0.39779
gfz2013skvq  -0.10260
gfz2013swnj  -0.55447
gfz2013tdsx   2.36670
gfz2013tekq  -0.24491
gfz2013tjub   0.48112
gfz2013tnrp  -0.37576
gfz2013ubgt  -0.45039
gfz2013ujze   0.28944
gfz2013ummt  -0.15823
gfz2013unuv   0.00789
gfz2013utqa  -0.01037
gfz2013uwjo   0.22216
gfz2013uxzw  -1.01950
gfz2013vcgd  -0.32584
gfz2013vdam  -0.27431
gfz2013vjrr   0.47991
gfz2013vldx  -0.29841
gfz2013vmrv  -0.22142
gfz2013voai  -0.00693
gfz2013vojy  -0.38065
gfz2013wyfl  -0.58719
gfz2013xacx  -0.88826
gfz2013xodn   0.11969
gfz2013xofz   0.81218
gfz2013xswc  -0.05869
gfz2013xvps  -0.40041
gfz2013xycz   0.09951
gfz2013yodm  -0.13732
gfz2013yqkz   0.11282
gfz2013yqtu  -0.86597
gfz2013zfbz  -0.07346
gfz2013zlak  -0.19406
gfz2014aedl  -0.13262
gfz2014amgk  -2.01110
gfz2014ayxf  -0.57408
gfz2014bdju  -0.28157
gfz2014bgxe   0.33678
gfz2014bzus  -0.22264
gfz2014cjao  -0.05558
gfz2014cokw   0.42411
gfz2014ctdl  -0.31598
gfz2014cvnb   0.10339
gfz2014dbqi  -0.15801
gfz2014dihl  -0.09408
gfz2014dtth  -0.04970
gfz2014dwcp  -0.07519
gfz2014dykt   0.71812
gfz2014ecor   0.62394
gfz2014edjm   0.05664
gfz2014eirs  -0.04629
gfz2014ejfx  -0.38675
gfz2014eoay   0.11163
gfz2014epnq   0.22405
gfz2014esez   0.21236
gfz2014etgp   0.30842
gfz2014eunw  -0.44838
gfz2014evgu  -0.28601
gfz2014evhm   0.87953
gfz2014fbli   0.02434
gfz2014fdhk  -2.01190
gfz2014ffqg  -1.83690
gfz2014fjfz   0.14602
gfz2014flxk   0.00000
gfz2014fsir  -0.19641
gfz2014fsje  -0.18909
gfz2014fwxt   0.33380
gfz2014fxte  -0.11629
gfz2014fxuy   0.64584
gfz2014geln   0.09421
gfz2014grwv   0.11613
gfz2014gsfc  -0.68786
gfz2014gtoj  -0.53631
gfz2014gypw   0.58364
gfz2014hapg  -0.55543
gfz2014happ  -0.56290
gfz2014hkcw   0.03655
gfz2014hqhv  -0.05668
gfz2014hzzf   0.22438
gfz2014iaqm  -0.61885
gfz2014icov  -0.36098
gfz2014igrp  -0.10330
gfz2014iltl   0.19490
gfz2014ined   0.47410
gfz2014inrg   2.35180
gfz2014irlf  -0.11762
gfz2014irln   0.43865
gfz2014irly   0.16867
gfz2014isjg  -0.37732
gfz2014iusw   0.01215
gfz2014ixlc  -0.23091
gfz2014jarg   0.35009
gfz2014jayh   0.05381
gfz2014jfmc   0.18044
