# Nsamples: 147  MAD:  0.442  mean: -0.026  std:  0.748
gfz2010drit   0.01819
gfz2010ekvl  -0.89120
gfz2010fgbo  -0.12743
gfz2010fjio   1.25260
gfz2010fjme  -0.17418
gfz2010fkff   0.20047
gfz2010fvfz   0.10898
gfz2010gonu   0.00000
gfz2010habf   0.07876
gfz2010hdxn   0.53309
gfz2010hllp  -0.82807
gfz2010izag  -0.12301
gfz2010mdti  -0.14696
gfz2010ncwu   0.22452
gfz2010ngge  -0.32670
gfz2010qdqk   0.41116
gfz2010rpjd  -1.78770
gfz2010tcgh   0.51319
gfz2010tgmo  -0.18603
gfz2010tmba  -0.52714
gfz2010xnbn  -1.25190
gfz2010xpzq  -0.22050
gfz2010yfdr  -0.04530
gfz2011ahvh   0.02574
gfz2011amst   1.03750
gfz2011bygs   0.05425
gfz2011bygu   0.40330
gfz2011bzio   1.25330
gfz2011cdge  -0.69959
gfz2011dhfg  -0.27782
gfz2011fszl  -0.22369
gfz2011yexx   0.19321
gfz2011zghc   0.40317
gfz2011zkbt  -0.35636
gfz2012bity  -0.35024
gfz2012bqcf  -0.01374
gfz2012cdju  -0.23624
gfz2012cfdw   1.08230
gfz2012cksh  -0.66005
gfz2012cntu   0.02339
gfz2012cvfr  -0.24004
gfz2012dwwu   0.00537
gfz2012dyck  -0.57326
gfz2012dysu   0.09822
gfz2012ekfp   0.68090
gfz2012evxn  -0.03861
gfz2012gftg  -0.78704
gfz2012ghiv  -0.55801
gfz2012gpcd  -0.22570
gfz2012hvtu   1.24450
gfz2012klpl   0.50873
gfz2012lvlr   1.60200
gfz2012lyyr   1.72190
gfz2012mdzf  -0.16205
gfz2012mjuu  -0.71684
gfz2012mmiw  -0.55475
gfz2012mrqk  -0.34788
gfz2012mrwu   0.02102
gfz2012nldz   1.40850
gfz2012nnqu  -0.45203
gfz2012nqvd   0.09311
gfz2012oafg   0.01818
gfz2012oehy  -0.56752
gfz2012pdav  -0.17468
gfz2012phns  -0.35659
gfz2012pmuj  -0.81326
gfz2012rzwp  -2.28840
gfz2012sgfd  -1.75650
gfz2012socz   3.92380
gfz2012sqsc   1.81040
gfz2012suqd  -0.25236
gfz2012svwz   0.02846
gfz2012swbz  -0.25838
gfz2012syum  -0.44882
gfz2012taph  -0.29016
gfz2012tisj   1.03460
gfz2012uzww  -0.42360
gfz2012vdra  -0.25499
gfz2012vile  -0.99667
gfz2012vrqz   0.42256
gfz2012wgdv   0.04048
gfz2012wgmg   0.08277
gfz2012wkki   0.22135
gfz2012wmmw   0.69709
gfz2012wpen   1.67080
gfz2012xfsl  -0.09252
gfz2012xkln   0.11199
gfz2012xncm   0.35002
gfz2012xrmq  -0.43587
gfz2012xxdj  -0.39161
gfz2012ylai  -0.71653
gfz2013gxye  -0.54717
gfz2013kxlr  -0.38542
gfz2013lbod  -0.38710
gfz2013lbvl  -0.05615
gfz2013mdxj  -0.23100
gfz2013mvgq  -0.26741
gfz2013mzaw  -0.19305
gfz2013oeni  -0.17286
gfz2013oizq   0.02954
gfz2013orot   0.43379
gfz2013oywh   0.39136
gfz2013phhi  -1.89780
gfz2013qigb   0.28165
gfz2013qoak  -0.79463
gfz2013qogb   0.12936
gfz2013quwz   0.42321
gfz2013rocs  -1.04310
gfz2013rwkj  -0.35183
gfz2013taeb  -0.48207
gfz2013tkcg   0.69242
gfz2013tnrp   0.19854
gfz2013ubgt  -0.31833
gfz2013vvre   1.49970
gfz2013wwee   0.34337
gfz2013wyfl  -0.51456
gfz2013xahp  -0.34937
gfz2014eirs   0.19582
gfz2014emlw   0.12652
gfz2014eoay  -0.51412
gfz2014esez   0.22068
gfz2014fsje  -0.38485
gfz2014fwxt   0.41726
gfz2014fxte  -0.21466
gfz2014fxuy  -0.06208
gfz2014gnbw  -0.09963
gfz2014gnvp  -0.49186
gfz2014gtoj  -0.30841
gfz2014gypw   0.09225
gfz2014hapg  -0.64316
gfz2014hkcw   0.10144
gfz2014hqhv  -0.24177
gfz2014huqh  -0.31781
gfz2014hyea  -0.12831
gfz2014hzzf  -0.82622
gfz2014icov  -0.88945
gfz2014igrp  -0.09584
gfz2014iltl   0.23987
gfz2014ined   0.03130
gfz2014inrg   0.29075
gfz2014irlf   0.09985
gfz2014irln   0.48622
gfz2014irly   0.06724
gfz2014isov   2.21990
gfz2014iusw  -0.48701
gfz2014jarg   0.22988
gfz2014jayh  -0.31079
