# Nsamples: 135  MAD:  0.419  mean:  0.083  std:  0.565
gfz2010aggj  -0.09422
gfz2010bqnk  -0.40945
gfz2010clbw  -0.36469
gfz2010cllh  -0.31290
gfz2010cphq   0.16383
gfz2010csle  -0.46309
gfz2010dask   0.55719
gfz2010djib  -0.85124
gfz2010drit   0.27562
gfz2010drml  -0.52547
gfz2010drmq  -0.52547
gfz2010dtyx   0.33679
gfz2010dumv   0.02993
gfz2010dxhq   0.56473
gfz2010fgbo   0.31675
gfz2010hueh   0.31878
gfz2010izag  -0.31500
gfz2010mqzz  -0.45698
gfz2010okpc   0.15569
gfz2010pclq   0.06190
gfz2010rhvu  -0.05580
gfz2010rljv   0.19261
gfz2010rnqa  -0.40840
gfz2010rnwt   2.57560
gfz2010sdfs  -0.13885
gfz2010swqy   0.25766
gfz2010tzma   0.25248
gfz2010xaxw   0.24863
gfz2010xjsv  -0.52838
gfz2010xkbz   0.07355
gfz2010xpzq  -0.35378
gfz2010yczp   0.00000
gfz2010zjun  -0.18799
gfz2011aqpp   0.30192
gfz2011bqbx   2.36510
gfz2011bvog  -0.54939
gfz2011bygs  -0.09043
gfz2011bzio   0.97253
gfz2011cdge   0.00766
gfz2011cjuz   0.10569
gfz2011cwzi  -0.53996
gfz2011duvm  -0.42844
gfz2011exxq  -0.27931
gfz2011fszl   0.25464
gfz2011fzcw   0.60661
gfz2011ggnl   0.33440
gfz2011gnbk   0.14377
gfz2011gpyr   1.03290
gfz2011hibi   0.87799
gfz2011hjof   0.07096
gfz2011hmnw  -0.03980
gfz2011hqjs   0.24224
gfz2011hyct   0.24128
gfz2011iryz   0.10121
gfz2011ituo   0.35290
gfz2011jeta   0.51206
gfz2011kylu   1.13040
gfz2011lkkf  -0.88277
gfz2011lnzf   1.89120
gfz2011mllb   0.00597
gfz2011ncyw   0.97918
gfz2011nnda   0.16793
gfz2011ofpj  -0.07191
gfz2011owqa   0.15000
gfz2011paqj   0.71644
gfz2011qenl  -0.34224
gfz2011rkau   0.17770
gfz2011sqco  -0.90501
gfz2011tsgl  -0.40074
gfz2011vahy  -0.18442
gfz2011wcvs  -0.32633
gfz2011wkyx   0.17486
gfz2011zgxn  -0.27939
gfz2012arlo   0.91620
gfz2012cntu  -0.22257
gfz2012dbgt   0.44264
gfz2012dejg   0.26141
gfz2012dtdt  -0.05958
gfz2012ebff   0.52740
gfz2012ebrr  -0.22774
gfz2012fhaf   0.26405
gfz2012fyny   0.10350
gfz2012ghiv   0.20354
gfz2012kmbo  -1.27320
gfz2012nqvd   0.41147
gfz2012phns   0.19613
gfz2012qfah   1.03630
gfz2012qfov  -0.31751
gfz2012suqd   0.55261
gfz2012svwz  -0.07111
gfz2012uhtc   0.11079
gfz2012uzww   0.07928
gfz2012wgmg   0.29489
gfz2012wowu   0.12492
gfz2012woxj   0.16386
gfz2012xncm   0.38481
gfz2012xxdj  -0.09277
gfz2012zhyz  -0.19548
gfz2012zkhu  -0.58133
gfz2013bwgw  -0.30170
gfz2013cqee   0.09536
gfz2013cvve  -0.41181
gfz2013dngd  -0.41044
gfz2013dzvr   0.04763
gfz2013fvyr   0.71930
gfz2013hjtt  -0.05368
gfz2013irme  -0.03527
gfz2013iuyv   0.54731
gfz2013jobl   0.04915
gfz2013kpcb   0.58845
gfz2013kqab  -0.90660
gfz2013onvl   0.86843
gfz2013oywh   0.33901
gfz2013phhi   0.15813
gfz2013qigb  -0.90529
gfz2013taeb   0.05154
gfz2013trsq  -0.49312
gfz2013vdam  -1.20960
gfz2013vjrr   0.41747
gfz2013xahp  -0.20035
gfz2013xmzw   0.20839
gfz2013ylxm   0.93604
gfz2013zfbz  -0.37923
gfz2014aqop   0.57319
gfz2014ayxf  -0.48454
gfz2014bdju  -0.11134
gfz2014bkra   0.54831
gfz2014cokw  -0.21624
gfz2014eoay  -0.22069
gfz2014fsir   0.03700
gfz2014fsje   0.04934
gfz2014gypw  -0.30724
gfz2014iayo   0.02437
gfz2014iusw  -0.03831
gfz2014jayh  -0.41990
