# Nsamples: 18  MAD:  1.938  mean:  1.163  std:  1.773
gfz2010djib  -1.31480
gfz2010hdxn   0.83613
gfz2010pclq  -0.78710
gfz2010rnwt   3.06510
gfz2011fzcw   3.76260
gfz2011hyct   2.30960
gfz2011ibew   1.00830
gfz2011owqa  -0.02396
gfz2011paqj   1.06900
gfz2011sqco   3.09810
gfz2011tjpv   4.30180
gfz2012qfah   0.41032
gfz2012rzwp  -1.58180
gfz2012ssnb   3.08480
gfz2013fvht  -0.30469
gfz2013xofz  -0.22505
gfz2013yxhf   0.49840
gfz2014aqax   1.73540
