# Nsamples: 447  MAD:  0.427  mean: -0.028  std:  0.692
gfz2010aggj   0.27760
gfz2010bgrt   0.07892
gfz2010bqnk   0.21927
gfz2010ccye  -0.07735
gfz2010clbw  -0.19916
gfz2010cllh  -0.43209
gfz2010cnyi  -0.00000
gfz2010cphq   1.08520
gfz2010crir   0.40234
gfz2010csle   0.04702
gfz2010csmw  -0.31266
gfz2010cwrk  -0.41663
gfz2010dask  -0.31241
gfz2010ddan  -1.15270
gfz2010djib   0.20200
gfz2010drit   0.32828
gfz2010drml  -0.30132
gfz2010drmq  -0.30132
gfz2010dumv   0.50249
gfz2010dxhq   0.25161
gfz2010fgbo  -0.21895
gfz2010fkff   0.09699
gfz2010fpvw  -1.45180
gfz2010habf   0.25631
gfz2010hueh   0.61008
gfz2010izag  -0.14279
gfz2010jlvp  -0.15473
gfz2010mjdl  -0.85698
gfz2010mqzz  -0.71471
gfz2010msss   2.34190
gfz2010nteg   0.21817
gfz2010okpc   0.41060
gfz2010pclq  -1.52790
gfz2010pcya  -0.07052
gfz2010pdip  -0.33448
gfz2010qrta  -0.01379
gfz2010qylh   0.57910
gfz2010qzvf   0.52753
gfz2010rhvu  -0.15810
gfz2010rljv   0.14454
gfz2010rnqa   0.27158
gfz2010rnwt  -0.56703
gfz2010schp   0.42884
gfz2010sdfs  -0.49102
gfz2010swqy  -0.17670
gfz2010tfar   0.23640
gfz2010tmba   0.24761
gfz2010tmne  -0.11336
gfz2010tpcj  -0.24394
gfz2010tqyo  -0.47735
gfz2010tzlz  -0.49180
gfz2010tzma   0.09869
gfz2010uidg   0.57762
gfz2010vong   0.07755
gfz2010wplk   0.35867
gfz2010wwhf   0.59021
gfz2010wyuj  -0.47319
gfz2010xaxw   0.42656
gfz2010xkbz   0.67213
gfz2010xpzq  -0.27917
gfz2010xvev   0.03544
gfz2010yczp  -0.19572
gfz2010yfdr   0.44172
gfz2010yhdn   0.12749
gfz2010yhhj  -0.57513
gfz2010zjun  -0.38306
gfz2011amst   0.86881
gfz2011aqpp  -0.08962
gfz2011bpqm  -0.32188
gfz2011bqbx   4.55180
gfz2011bsvr  -1.09620
gfz2011bygs  -0.22158
gfz2011bzio  -0.45937
gfz2011cdge  -0.44256
gfz2011chsa  -0.61895
gfz2011cjuz   0.67835
gfz2011cwzi   0.09501
gfz2011dabj  -0.55326
gfz2011dhfg  -0.01590
gfz2011dhqk   1.80910
gfz2011dmdv   0.92767
gfz2011dpyu  -0.26538
gfz2011duvm  -0.25737
gfz2011dwae   0.09456
gfz2011ffdh  -0.13406
gfz2011fnie  -0.38655
gfz2011fszl   0.00142
gfz2011fyfu   0.39048
gfz2011fzcw  -0.08698
gfz2011gaax   0.52626
gfz2011gfer   0.03438
gfz2011ggnl   0.99239
gfz2011glpg  -0.16327
gfz2011gnbk  -0.26385
gfz2011gpyr  -0.35463
gfz2011haaa   0.04573
gfz2011hatg  -0.24708
gfz2011hibi   1.99610
gfz2011hjof   0.24180
gfz2011hmnw  -0.18588
gfz2011hqjs   0.05823
gfz2011hrgt   1.34790
gfz2011hvzo   0.14870
gfz2011hyct  -0.22280
gfz2011iamf   0.39065
gfz2011ibew  -0.13115
gfz2011iryz  -0.21992
gfz2011ituo  -0.08407
gfz2011jdoz  -0.03208
gfz2011jeta   0.47143
gfz2011jghq  -0.13597
gfz2011jpob  -0.35979
gfz2011jryv  -0.05831
gfz2011kbzo   0.50676
gfz2011kylu  -0.29014
gfz2011kyzy  -0.08032
gfz2011lkkf   0.35658
gfz2011lmug  -0.22336
gfz2011lwmg   0.25581
gfz2011lxga  -0.52437
gfz2011mdyq   0.03304
gfz2011mjje  -0.42662
gfz2011mllb  -0.17035
gfz2011mrfm   0.86924
gfz2011mzvn  -0.80567
gfz2011ndse  -0.23976
gfz2011neai   0.64038
gfz2011nejg  -0.75430
gfz2011nejw  -0.65379
gfz2011nerb   0.47205
gfz2011nftw  -0.00836
gfz2011nhhd  -0.04519
gfz2011nhvt  -0.31894
gfz2011nihq   3.70220
gfz2011nijp   0.85498
gfz2011nilw  -0.34172
gfz2011nioi  -0.25912
gfz2011nisj   0.44033
gfz2011niuw   0.44887
gfz2011nlmf   0.50650
gfz2011nnda  -0.78452
gfz2011npeu   0.39676
gfz2011nsiy   0.04329
gfz2011oadm  -0.11146
gfz2011oazk  -0.35920
gfz2011ofpj   0.05384
gfz2011okza  -0.73701
gfz2011omxt  -0.24851
gfz2011osmp   0.23609
gfz2011ovvj   0.58259
gfz2011owqa  -0.28682
gfz2011paqj  -0.23747
gfz2011pbgh   4.23070
gfz2011pdsn  -1.50520
gfz2011pfls   0.58436
gfz2011pfwq   1.13870
gfz2011ppsc  -0.07326
gfz2011prrq  -0.58850
gfz2011pwbw  -0.12988
gfz2011sdax   0.15337
gfz2011sdpl   0.31770
gfz2011sqco  -0.40036
gfz2011sskq  -0.56759
gfz2011sxno   0.58373
gfz2011tsgl  -0.84465
gfz2011ugbt  -0.62809
gfz2011unud  -0.99590
gfz2011urwz  -0.46304
gfz2011vahy  -0.11354
gfz2011vsag  -0.37563
gfz2011vtdl  -0.94941
gfz2011wcvs  -1.24350
gfz2011wkyx  -0.39852
gfz2011wtfn   0.19519
gfz2011wwze   0.28391
gfz2011wyei   0.03844
gfz2011xgwy   1.51510
gfz2011xkka  -0.40191
gfz2011xnui  -0.27300
gfz2011yexx   0.01625
gfz2011zghc  -0.79943
gfz2011zgxn  -0.40903
gfz2011zkbt  -0.79922
gfz2012amjx  -0.26117
gfz2012aqpa  -1.01210
gfz2012arlo   0.36455
gfz2012atjr  -0.87376
gfz2012byrq   0.37390
gfz2012byuk   0.33199
gfz2012cdju   0.28880
gfz2012cntu  -0.11703
gfz2012cvfr   0.29401
gfz2012cwhl  -0.79669
gfz2012czvh  -0.25590
gfz2012dbgt   0.03851
gfz2012dejg  -0.11398
gfz2012dleg  -0.26109
gfz2012dpnu   0.14771
gfz2012drak   0.05034
gfz2012dtdt   0.11622
gfz2012dtvr  -0.66626
gfz2012duwm   0.12496
gfz2012dwwu   0.15565
gfz2012dzot   1.06180
gfz2012ebff  -0.11846
gfz2012ebrr  -0.10404
gfz2012elek  -0.30018
gfz2012emin  -0.73386
gfz2012erds   0.41014
gfz2012fbgz  -0.15835
gfz2012fcyq   0.13326
gfz2012fcyr   0.09950
gfz2012fhaf   0.06007
gfz2012ftks   0.95806
gfz2012fyny  -0.28569
gfz2012gjdg  -0.13464
gfz2012gjtd  -0.25620
gfz2012gnow  -0.29710
gfz2012gubu   2.11440
gfz2012gvxc   1.18510
gfz2012hdny  -0.73095
gfz2012hhlx   0.09273
gfz2012hwph   0.29501
gfz2012hyqh  -0.23082
gfz2012hzur  -0.72582
gfz2012ibyd  -0.38612
gfz2012icjo  -0.36575
gfz2012idxu   0.40227
gfz2012iijk  -0.14017
gfz2012imuo  -0.53149
gfz2012iotw  -0.15938
gfz2012iphs   0.30954
gfz2012iroy   0.50706
gfz2012ivyg   0.14608
gfz2012jaun  -0.25504
gfz2012jopi  -0.20611
gfz2012kmbo  -0.08070
gfz2012kmmz   0.15967
gfz2012krcm   0.03172
gfz2012kstg  -0.26217
gfz2012mhik  -0.53314
gfz2012mmiw  -0.17896
gfz2012mzco  -0.34572
gfz2012ndwt  -0.38224
gfz2012nldz  -1.19210
gfz2012nmja  -0.35527
gfz2012nqvd  -0.37968
gfz2012oafg   0.15921
gfz2012oieq  -0.44278
gfz2012ojmv  -0.60301
gfz2012oork   2.16820
gfz2012oozp  -1.35320
gfz2012phns   0.21297
gfz2012pmws  -0.03725
gfz2012ppcq   0.63431
gfz2012qbbt   0.50697
gfz2012qfah   2.91600
gfz2012qfov   0.07844
gfz2012qpoc  -0.31665
gfz2012qvwy  -0.15363
gfz2012rzwp  -0.21646
gfz2012smyn  -0.03464
gfz2012sqsc  -0.36433
gfz2012suqd   0.21677
gfz2012svwz  -0.11072
gfz2012sxpr   0.09072
gfz2012syum   0.05746
gfz2012taph  -0.34991
gfz2012tisj  -0.56439
gfz2012tyoz  -0.04180
gfz2012udxg  -0.62198
gfz2012uhtc  -0.05439
gfz2012unxc   0.23692
gfz2012uovh  -0.45749
gfz2012uzww  -0.22838
gfz2012vitw  -0.40416
gfz2012vrqz  -1.09870
gfz2012wbeu  -0.41967
gfz2012wgmg  -0.42171
gfz2012wiyv   1.46100
gfz2012wjpf   0.82550
gfz2012wowu  -0.18198
gfz2012woxj  -0.11415
gfz2012wysg   0.30310
gfz2012xcsf  -0.19335
gfz2012xkln   0.23885
gfz2012xlas  -0.21132
gfz2012xncm   0.13987
gfz2012xqxw  -0.17595
gfz2012xtvu   0.17330
gfz2012xxdj   0.09254
gfz2012yytb  -0.46982
gfz2012zhyz   0.09541
gfz2012zido  -0.07788
gfz2012zmfc   0.42366
gfz2013akkd  -0.63162
gfz2013atak  -0.56749
gfz2013bdvi  -0.21461
gfz2013bwgw  -1.28200
gfz2013byyy   0.00434
gfz2013cfls   0.69272
gfz2013cinv  -0.12134
gfz2013cvve   0.04921
gfz2013cyvx  -0.06839
gfz2013djfi  -0.40249
gfz2013dngd  -0.17398
gfz2013dzvr  -0.32194
gfz2013efct   0.51364
gfz2013ezmc  -0.11381
gfz2013frxd   0.04453
gfz2013fulo   0.52226
gfz2013fvht  -0.81530
gfz2013fvyr  -0.33668
gfz2013gbki  -0.27077
gfz2013gjmk  -0.25808
gfz2013gkcx  -0.22741
gfz2013hbmi  -0.15356
gfz2013hdbp  -1.47680
gfz2013hduf  -0.45589
gfz2013hqaa   0.19537
gfz2013hwps  -0.14634
gfz2013icql  -0.42660
gfz2013irme  -0.19510
gfz2013iuyv  -1.18820
gfz2013iwzn  -1.08990
gfz2013jfcn   0.21238
gfz2013jhog  -0.01777
gfz2013jlli  -0.11706
gfz2013jobl  -0.14987
gfz2013jtsg  -0.04082
gfz2013kats  -0.04673
gfz2013kdfy   0.07370
gfz2013kjgh   1.25020
gfz2013kpcb  -0.29968
gfz2013kqab  -1.01090
gfz2013kruh  -0.14743
gfz2013kxlr   0.43625
gfz2013lcrk   0.10619
gfz2013lqjj   0.59861
gfz2013mdxj   0.37932
gfz2013mimp   0.62668
gfz2013mktp   0.20177
gfz2013mzaw   0.39456
gfz2013oeni   0.08548
gfz2013oizq  -0.50448
gfz2013olos  -0.54323
gfz2013onvl  -0.41089
gfz2013orot  -0.33420
gfz2013oywh   0.58496
gfz2013phhi  -0.92022
gfz2013pkmz  -0.42886
gfz2013pqkp  -0.51464
gfz2013qaov   2.01120
gfz2013qigb  -0.81372
gfz2013qmkt  -0.30259
gfz2013qoak   0.83296
gfz2013quwz  -0.62590
gfz2013quyn   0.03050
gfz2013rgcc  -0.28048
gfz2013rocs  -0.15533
gfz2013rwkj   0.13110
gfz2013ryph  -0.10553
gfz2013skvq   0.36104
gfz2013stup   0.35645
gfz2013tdsx   0.19880
gfz2013tert   0.41240
gfz2013tgyb  -0.29031
gfz2013tjub   0.80389
gfz2013tkcg  -0.48761
gfz2013tmyj   0.45721
gfz2013ubgt  -0.12951
gfz2013udtw  -0.11832
gfz2013unuv  -0.34594
gfz2013upqj   0.28449
gfz2013vdam  -0.16434
gfz2013vjrr  -0.17291
gfz2013vldx  -0.47865
gfz2013vmrv  -0.37116
gfz2013vmsg  -0.32617
gfz2013vojy  -0.51126
gfz2013vzel   0.26961
gfz2013xahp  -0.03824
gfz2013xjmo  -0.18086
gfz2013xmzw  -0.07935
gfz2013xodn  -0.30089
gfz2013xofz   0.26072
gfz2013yihv   0.12998
gfz2013ylxm  -0.14958
gfz2013yodm   0.45723
gfz2013yxhf  -0.14583
gfz2013zedt  -0.11651
gfz2013zfbz  -0.11916
gfz2014ajgi  -4.40150
gfz2014aqop   0.19718
gfz2014ayxf  -0.43724
gfz2014bdju  -0.05663
gfz2014bkra   0.04531
gfz2014bppg   0.07419
gfz2014bqpm   0.28789
gfz2014cgoi  -0.04153
gfz2014cgxj  -0.26648
gfz2014club   0.07260
gfz2014cokw  -0.44442
gfz2014ctdl   0.29075
gfz2014cvnb   0.28857
gfz2014dbqi  -0.06751
gfz2014egvg  -0.90589
gfz2014eirs   0.52014
gfz2014eoay  -0.08117
gfz2014evyu   0.50140
gfz2014exxj   0.16693
gfz2014ezld  -0.12402
gfz2014faex   0.23307
gfz2014fbli   0.15307
gfz2014fbnr   0.97436
gfz2014fdhk  -0.58327
gfz2014ffqg   0.11709
gfz2014fgbn   0.91509
gfz2014fjfz  -0.22215
gfz2014fsir  -0.09093
gfz2014fsje   0.07335
gfz2014fskh  -0.03572
gfz2014fwxt   0.20350
gfz2014fxte  -0.67287
gfz2014fxuy   0.24970
gfz2014gasb   0.82172
gfz2014gnvp   0.29061
gfz2014grwv  -1.21950
gfz2014gsfc  -0.58340
gfz2014gssz   0.08902
gfz2014gutd  -0.32948
gfz2014gypw  -0.08153
gfz2014hapg  -0.62066
gfz2014happ   0.52070
gfz2014hkcw  -0.22323
gfz2014hqhv  -0.64870
gfz2014huah  -0.03186
gfz2014huqh  -0.21859
gfz2014icov  -0.41428
gfz2014ijov  -0.02707
gfz2014ijsa  -0.05012
gfz2014ined  -2.66670
gfz2014irly   0.02482
gfz2014iusw   0.22396
gfz2014ixlc  -0.03945
gfz2014jayh  -0.02152
gfz2014jbfp   0.19825
