# Nsamples: 59  MAD:  0.833  mean:  0.179  std:  1.220
gfz2010aseg  -0.38315
gfz2010btme  -0.30430
gfz2010cphq  -0.07045
gfz2010cthm   0.08867
gfz2010ewyj   1.69690
gfz2010hnuo   0.52714
gfz2010hueh  -1.64230
gfz2010huzl  -0.28961
gfz2010iaay   0.11027
gfz2010kzzm   1.91950
gfz2010okpc  -1.24740
gfz2010qzvf   0.80129
gfz2010rhvu  -0.01664
gfz2010sdfs  -0.01570
gfz2011afyc   0.48361
gfz2011bvog  -0.66617
gfz2011cdge   0.30478
gfz2011cjuz   0.84936
gfz2011fbsl   0.88417
gfz2011ggnl  -0.86681
gfz2011hibi  -0.64788
gfz2011hjof  -0.01880
gfz2011kfch   0.04344
gfz2011rkau  -1.65370
gfz2011scma  -1.03150
gfz2011sqco  -0.36500
gfz2011ykbd   0.81378
gfz2012ahkl   1.08440
gfz2012arlo   0.48213
gfz2012auqr   0.20939
gfz2012cksh  -0.14463
gfz2012dbgt  -0.04326
gfz2012dleg   0.26414
gfz2012dpem  -0.62989
gfz2012duvf   5.72890
gfz2012foih   3.45480
gfz2012gmsr   0.82899
gfz2012wowu   0.08093
gfz2013bwgw  -0.74358
gfz2013cokc  -0.41016
gfz2013dngd   0.91226
gfz2013dwsp   2.13550
gfz2013hjtt  -0.36195
gfz2013mvgq  -1.16290
gfz2013ntiu   1.47640
gfz2013oywh  -0.84848
gfz2013taeb  -0.35370
gfz2013vmsg   1.48330
gfz2013vnwa   0.49874
gfz2013wyho  -0.39032
gfz2013xuxr  -1.02400
gfz2013yawe   0.54513
gfz2014ayxf  -0.25896
gfz2014bkra  -0.20649
gfz2014etqu  -0.56831
gfz2014eysf   0.16149
gfz2014fmdc   1.53110
gfz2014gsfc  -1.65350
gfz2014gypw  -0.80819
