# Nsamples: 1059  MAD:  0.422  mean: -0.020  std:  0.659
gfz2010abfc  -0.21658
gfz2010afyi  -0.49978
gfz2010aggj   0.43365
gfz2010aseg   0.44779
gfz2010asxa  -0.23427
gfz2010axdz  -0.21045
gfz2010azji   0.61126
gfz2010bklj  -0.35620
gfz2010bnbr   0.69477
gfz2010bofe   0.98186
gfz2010bqnk   0.01578
gfz2010brlc  -0.54788
gfz2010btme   0.57591
gfz2010bukb   0.12906
gfz2010bvit  -0.38190
gfz2010byau  -0.35723
gfz2010cbnp  -0.14986
gfz2010ccwc  -0.24861
gfz2010ccye   0.07832
gfz2010cdnv   0.29560
gfz2010ckoc   0.13367
gfz2010clbw  -0.05030
gfz2010cllh   1.31000
gfz2010cnyi  -0.40181
gfz2010colm  -0.05228
gfz2010cphq   0.72691
gfz2010cpig   0.07564
gfz2010cqoq   0.11370
gfz2010crgy   0.27860
gfz2010crir   0.00857
gfz2010csle   0.03861
gfz2010ctak   0.67936
gfz2010cthm   1.12330
gfz2010cvam   0.91891
gfz2010dask  -0.25171
gfz2010ddan   0.76866
gfz2010depd   0.45918
gfz2010djib   0.67030
gfz2010dmij   0.07241
gfz2010dmkd  -0.68809
gfz2010drit   0.23753
gfz2010drml  -0.99853
gfz2010drmq  -0.99853
gfz2010drng  -0.49542
gfz2010drpv   0.16953
gfz2010drun  -0.01741
gfz2010dsjq  -0.18783
gfz2010dtgc  -0.29630
gfz2010dtyx   0.59747
gfz2010dumv   0.02030
gfz2010dwgy  -0.04429
gfz2010dxhq   0.06172
gfz2010eibh   0.02254
gfz2010elge  -1.50020
gfz2010eqyj  -0.66677
gfz2010euue   0.13695
gfz2010ewyj   0.24059
gfz2010extu   0.22753
gfz2010faly  -0.17486
gfz2010fgbo  -0.26055
gfz2010fjio  -0.30729
gfz2010fkpa   0.40729
gfz2010fopf   0.10115
gfz2010fqzh   0.02615
gfz2010fvfz   0.50570
gfz2010fxut  -0.14987
gfz2010gonu  -0.26994
gfz2010gooc   0.00000
gfz2010gpjl  -1.25850
gfz2010gxki  -1.13120
gfz2010habf  -0.04634
gfz2010hesh  -0.10428
gfz2010hexh  -0.18724
gfz2010hnuo   0.75373
gfz2010hsgv   0.29588
gfz2010hueh  -0.39840
gfz2010huzl   0.14142
gfz2010hxan   0.12058
gfz2010iaay  -0.23033
gfz2010ihef  -0.83632
gfz2010inbs   0.05673
gfz2010ioad  -0.25094
gfz2010izag  -0.21816
gfz2010izgb  -0.12048
gfz2010jcby   0.03105
gfz2010jgwj   0.07349
gfz2010jkrp   0.70552
gfz2010jlvp   0.32063
gfz2010jvsi   0.16148
gfz2010kcdq  -0.09766
gfz2010kcyz  -0.51545
gfz2010kzzm  -1.31470
gfz2010lvnj   0.20793
gfz2010mjdl   0.39454
gfz2010mqaj   0.12571
gfz2010mvmb  -1.07320
gfz2010mwmd  -0.76741
gfz2010nteg   0.17052
gfz2010ogwn   0.09409
gfz2010okpc   0.25367
gfz2010osrl  -0.19087
gfz2010ovvg  -0.46747
gfz2010pngv   1.26650
gfz2010qdqk  -1.91470
gfz2010qrix   0.11694
gfz2010qrta  -0.04077
gfz2010qykh  -0.22134
gfz2010qzvf  -0.00856
gfz2010rdep  -0.19531
gfz2010rhvu  -0.78924
gfz2010rkuu  -0.10530
gfz2010rljv  -0.22047
gfz2010rmua  -0.11202
gfz2010rnqa   1.35920
gfz2010schp   0.06628
gfz2010scht  -0.02882
gfz2010sdfs  -0.75563
gfz2010sftm   0.36629
gfz2010sook  -0.51038
gfz2010swqy  -0.22179
gfz2010sylk   0.02914
gfz2010tcgh  -0.63145
gfz2010tgmo  -0.31623
gfz2010tmba   0.08246
gfz2010tmne  -0.19366
gfz2010tpcj  -0.05185
gfz2010tqyo  -0.02301
gfz2010tvit   0.00000
gfz2010tzlz   1.03470
gfz2010tzma   0.58949
gfz2010ugws  -0.16252
gfz2010uhjy   0.42652
gfz2010uidg   0.37651
gfz2010umxj   1.19360
gfz2010umyp   0.82324
gfz2010uogw  -0.78726
gfz2010uopf  -0.12126
gfz2010upod   0.00000
gfz2010uqba  -0.29921
gfz2010uraq   1.11220
gfz2010ussf  -0.50544
gfz2010uyng  -0.27838
gfz2010vhzx  -0.28869
gfz2010viyi  -0.05945
gfz2010vjac  -0.18196
gfz2010vong   0.38355
gfz2010vybx   0.31153
gfz2010vyri   1.55350
gfz2010wakc   0.02429
gfz2010wigk  -0.02186
gfz2010wplk   0.11207
gfz2010wtin  -0.49985
gfz2010wwhf   0.26253
gfz2010wwnq  -0.22468
gfz2010wyuj  -0.24801
gfz2010xamh  -0.02575
gfz2010xaxw  -0.26102
gfz2010xezr   0.93815
gfz2010xjsv   1.93890
gfz2010xkbz  -0.20470
gfz2010xnbn  -0.29993
gfz2010xnwf   0.02184
gfz2010xpzq   0.16501
gfz2010xytc   2.69980
gfz2010xzah   0.58361
gfz2010xzte   1.08230
gfz2010yczp  -0.19106
gfz2010yfdr  -0.74447
gfz2010ygrd   1.21650
gfz2010yhdn  -0.07357
gfz2010yhhj   0.18747
gfz2010yrex  -0.40567
gfz2010yspe  -0.32627
gfz2010zaxv  -0.42253
gfz2010zhvj  -0.53077
gfz2010zjun  -0.27005
gfz2010zkle  -0.94839
gfz2011afyc   0.63675
gfz2011ahvh  -0.45536
gfz2011amst  -0.19375
gfz2011aqpp  -0.22398
gfz2011awsv   0.45218
gfz2011bazz  -0.52260
gfz2011bcvc   0.67450
gfz2011bffb  -0.23852
gfz2011biin   0.06499
gfz2011bpqm   0.17844
gfz2011bqbx  -2.00460
gfz2011bsvr  -0.29763
gfz2011bwsm  -0.31470
gfz2011byec  -0.20552
gfz2011bygs  -0.21333
gfz2011bygu   0.16882
gfz2011cdge  -1.21690
gfz2011cfyy  -0.47158
gfz2011cjcv   0.19328
gfz2011cjuz   0.60989
gfz2011cwsm   1.01020
gfz2011cwzi  -0.32085
gfz2011cxbw  -7.54490
gfz2011cxdj  -0.16499
gfz2011dabj   1.00740
gfz2011dhqk  -0.39560
gfz2011dtcb   0.26980
gfz2011duvm  -0.34018
gfz2011dwae  -0.41531
gfz2011dzmf  -0.15449
gfz2011ecce  -0.63227
gfz2011edrq  -0.44589
gfz2011fnie  -0.52100
gfz2011fnuk  -0.29295
gfz2011fnxz   0.04820
gfz2011fszl   0.07010
gfz2011fxmf   0.81880
gfz2011fyfu  -0.35930
gfz2011fzcw  -0.17903
gfz2011gaax  -0.21411
gfz2011gcct   0.16098
gfz2011gfer  -0.08930
gfz2011ggnl   1.24960
gfz2011ggsz  -0.13230
gfz2011gkdx  -0.16119
gfz2011glpg   0.82959
gfz2011gpyr  -0.57075
gfz2011grby  -5.62710
gfz2011gzde  -0.15035
gfz2011haaa   0.08214
gfz2011hatg   1.48690
gfz2011hffq  -0.28552
gfz2011hibi  -0.58075
gfz2011hjof   0.13131
gfz2011hmnw  -0.12958
gfz2011hqjs  -0.07907
gfz2011huon  -0.52720
gfz2011hvzo  -1.24460
gfz2011hwbn  -0.11019
gfz2011hyct  -0.72077
gfz2011hyuh  -0.50976
gfz2011iamf  -0.55764
gfz2011ibew   0.21283
gfz2011ifta  -0.34533
gfz2011inan  -0.09666
gfz2011ioch   1.38510
gfz2011iryz   0.15093
gfz2011ituo  -0.25825
gfz2011ixpj  -0.10429
gfz2011jdoz  -0.36673
gfz2011jeta   0.58824
gfz2011jphj   0.17673
gfz2011jpob   0.62185
gfz2011jqyc   1.23960
gfz2011jrgh  -0.04074
gfz2011jryv   0.95439
gfz2011kbzo  -0.51550
gfz2011kfch   0.01508
gfz2011kjzt  -0.23899
gfz2011kmge   0.06558
gfz2011knht   0.35444
gfz2011kylu   0.88723
gfz2011kymm   0.06231
gfz2011kyzy   0.05958
gfz2011ldgl  -0.15128
gfz2011lkkf   0.28878
gfz2011lmug  -0.53973
gfz2011lnzf   1.96290
gfz2011lrpv  -0.12927
gfz2011lwmg   0.20168
gfz2011lxga   0.55812
gfz2011lykm   0.12264
gfz2011lywj   0.47580
gfz2011mdyq  -0.27936
gfz2011melb  -0.81500
gfz2011mimz  -0.02137
gfz2011mjje   0.05074
gfz2011mllb   0.00000
gfz2011mntq  -0.59296
gfz2011moob  -0.11187
gfz2011mrfm  -0.47323
gfz2011mror   0.08269
gfz2011mzvn  -0.02511
gfz2011nblt  -0.09896
gfz2011ncyw   0.29424
gfz2011ndki  -0.53252
gfz2011ndlh  -0.22557
gfz2011ndoe  -0.36452
gfz2011ndse  -0.58513
gfz2011ndvj  -0.36183
gfz2011ndyk  -0.40500
gfz2011neai   0.00446
gfz2011nejg  -0.64560
gfz2011nejw   0.17178
gfz2011nerb  -0.19992
gfz2011nfcz  -0.16417
gfz2011nfgt   2.29850
gfz2011nfih   0.18681
gfz2011nfln   0.33352
gfz2011nftw   0.41839
gfz2011nfwd   0.48198
gfz2011nfww   0.10719
gfz2011nhby   0.11885
gfz2011nhhd  -0.30844
gfz2011nhjv  -0.89065
gfz2011nhvt   0.80058
gfz2011nhwf   0.61253
gfz2011nifi  -0.12444
gfz2011nihq  -0.45487
gfz2011nijp   0.09367
gfz2011nilw   0.20332
gfz2011nioi  -1.51570
gfz2011nivw  -0.32091
gfz2011nkda   0.09110
gfz2011nkou  -1.15120
gfz2011nlmf   0.73294
gfz2011nlnl  -0.66278
gfz2011nlok  -0.72775
gfz2011nlou   0.61211
gfz2011nlum   0.26167
gfz2011nlyw  -0.42017
gfz2011nmdz   0.21397
gfz2011nmhg   0.73293
gfz2011nnos  -0.63189
gfz2011npaf   0.72100
gfz2011nsiy  -0.50100
gfz2011nsrx  -0.09532
gfz2011nssr  -0.62303
gfz2011nswi  -0.41271
gfz2011ntyd  -0.51989
gfz2011nuqo   0.16586
gfz2011nvty  -1.09820
gfz2011nyzk   0.07000
gfz2011oadm  -0.70014
gfz2011ocif   0.19416
gfz2011oesd   1.37730
gfz2011ofpj   0.08511
gfz2011okza   0.46541
gfz2011omxt  -0.26406
gfz2011oqjl  -0.21919
gfz2011osmp  -0.41439
gfz2011ovvj   0.51988
gfz2011owqa   0.07445
gfz2011paqj  -0.57604
gfz2011pbgh  -1.33830
gfz2011pbjh  -0.00432
gfz2011pdgq  -0.22887
gfz2011pdsn  -0.35283
gfz2011pfls   0.27776
gfz2011pfwq   0.39132
gfz2011pgzk  -0.17605
gfz2011pivq   0.35217
gfz2011plzc  -0.05185
gfz2011pmuv   0.02334
gfz2011poug   0.32341
gfz2011pphc  -0.54982
gfz2011ppsc   0.25326
gfz2011prrq  -0.03073
gfz2011ptgd  -0.04642
gfz2011pulu   0.02174
gfz2011pwbw  -0.00942
gfz2011pwld   0.16245
gfz2011qasw   0.42429
gfz2011qenl   0.00000
gfz2011qgea  -0.86207
gfz2011qgvh   0.06838
gfz2011qgvx  -1.27120
gfz2011qhjw  -0.50258
gfz2011qidi   0.32271
gfz2011qowe  -0.66776
gfz2011qtoy  -0.15004
gfz2011qukj  -0.22596
gfz2011rkau  -0.76399
gfz2011rnny   0.24472
gfz2011rnsp   0.21461
gfz2011rplo  -2.44880
gfz2011rqut  -0.22442
gfz2011scma  -0.31306
gfz2011sdpl   0.17572
gfz2011sfmu   1.49030
gfz2011sfph   0.38739
gfz2011sqco  -0.08991
gfz2011sqxp  -0.65205
gfz2011sskq  -0.17215
gfz2011swfp  -0.32898
gfz2011sxno  -0.51677
gfz2011syvj  -0.58127
gfz2011szis   0.15415
gfz2011taqr  -0.32628
gfz2011tfor  -0.54543
gfz2011tgon  -0.08060
gfz2011tjpv   0.09422
gfz2011tozo   2.23340
gfz2011tsgl   0.27996
gfz2011tssv   1.81600
gfz2011twpz  -0.46262
gfz2011txdb   0.26750
gfz2011txxs  -0.08202
gfz2011tzcv   0.19099
gfz2011udjs   0.23695
gfz2011udxo  -0.10769
gfz2011ugbt  -0.07860
gfz2011uowi  -0.30661
gfz2011urwz  -0.46247
gfz2011uvsi  -0.20600
gfz2011vahy   0.40856
gfz2011vaoi   0.10467
gfz2011varl   0.30815
gfz2011vcyx  -0.44960
gfz2011vsag  -0.06182
gfz2011vtzv   0.12752
gfz2011wbtc  -0.33309
gfz2011wkja   0.17731
gfz2011wkyx  -0.06377
gfz2011wngi   0.36032
gfz2011wnvu   0.37943
gfz2011wqth   1.86170
gfz2011wtfn  -0.97568
gfz2011wucg   0.63906
gfz2011wwze  -0.19891
gfz2011wyei   0.38957
gfz2011wzss  -0.43268
gfz2011xagc  -0.05112
gfz2011xawm  -0.35289
gfz2011xgbc  -0.34355
gfz2011xgwy   0.05860
gfz2011xkka  -0.10488
gfz2011xlod   0.80687
gfz2011xwdv  -0.84717
gfz2011yeck   0.06876
gfz2011yexx  -0.58485
gfz2011ykbd  -0.59292
gfz2011yntu  -1.76130
gfz2011ytwk   1.21910
gfz2011ywtj  -0.05185
gfz2011zdyf  -0.49651
gfz2011zghc   0.57029
gfz2011zgxn  -0.16850
gfz2011ziyk   0.30137
gfz2011zkbt   0.42648
gfz2011znyq  -0.62281
gfz2012agwh   0.18804
gfz2012ahac  -0.04054
gfz2012ahkl  -1.53200
gfz2012aioo  -0.08087
gfz2012alti   0.38318
gfz2012amjx  -0.06474
gfz2012amvs  -0.19083
gfz2012aqpa  -0.64256
gfz2012arlo  -1.02020
gfz2012asin  -0.91805
gfz2012atjr   0.18718
gfz2012auqr  -0.97292
gfz2012avvc   0.33601
gfz2012azel   1.27700
gfz2012bcvn   0.79105
gfz2012beae   0.40468
gfz2012bjhl  -0.28499
gfz2012bnwa   0.15079
gfz2012bolx  -0.22015
gfz2012bovy  -0.24434
gfz2012brrg  -0.17528
gfz2012byrq  -0.05274
gfz2012bysu  -0.30993
gfz2012bytv  -0.36944
gfz2012byuk   0.18069
gfz2012cdju   0.22907
gfz2012cfdw   0.25135
gfz2012cksh   0.54183
gfz2012cmww  -0.23136
gfz2012cntu  -0.23399
gfz2012dbgt   0.31237
gfz2012dejg  -0.22604
gfz2012dleg  -0.23008
gfz2012dluf   0.41923
gfz2012dnig   0.14335
gfz2012dpem  -0.29187
gfz2012dpnu  -0.35032
gfz2012dpwv   0.18319
gfz2012drak  -0.18084
gfz2012drld   0.05968
gfz2012dsei   1.47250
gfz2012dtdt  -0.24183
gfz2012dtlu   0.43295
gfz2012dtvr  -0.33376
gfz2012duvf  -1.47190
gfz2012duwm   0.10612
gfz2012dwwu   0.02616
gfz2012dyck   0.17575
gfz2012dyfw   0.39285
gfz2012dysj   0.70981
gfz2012dysu   0.30570
gfz2012dyua   0.14383
gfz2012dzat  -1.44280
gfz2012dzen  -0.64143
gfz2012dzjo  -0.66271
gfz2012dzoh  -0.42382
gfz2012dzot  -0.56045
gfz2012dzou  -0.73344
gfz2012dzul  -0.35044
gfz2012dzva  -0.66127
gfz2012eajr   0.64424
gfz2012eary  -1.05140
gfz2012ebff   0.07150
gfz2012ebgo  -0.63264
gfz2012ebhf   0.11892
gfz2012ebrr   0.08562
gfz2012eeft  -0.58331
gfz2012emin   1.68210
gfz2012enrg   0.70026
gfz2012erds  -1.13260
gfz2012evav   0.09079
gfz2012evxn  -0.44866
gfz2012eyti   0.76430
gfz2012fcyq  -0.27114
gfz2012fcyr  -0.28408
gfz2012fhaf  -0.23123
gfz2012fjiu  -0.00000
gfz2012flqf  -0.36490
gfz2012foih   0.81104
gfz2012fpyo   0.41118
gfz2012fuyd   0.20292
gfz2012fxgc  -0.29940
gfz2012fyny  -0.44667
gfz2012fyop   0.05932
gfz2012gczh   0.50345
gfz2012gdye   0.18165
gfz2012ghiv  -0.43261
gfz2012ghyd  -2.14780
gfz2012gjdg  -0.27106
gfz2012gjtd   0.25563
gfz2012gmsr  -0.93626
gfz2012grmf  -0.48508
gfz2012gubu   1.23510
gfz2012gvxc  -0.30946
gfz2012gzuk  -0.33944
gfz2012hdny   1.28210
gfz2012heih  -0.04471
gfz2012hmcv   0.35267
gfz2012hnyy  -0.05014
gfz2012hvjc  -0.28790
gfz2012hwph   0.27426
gfz2012hyqh  -0.10887
gfz2012hzhn   0.24924
gfz2012hzur  -0.73455
gfz2012ibyd   2.65430
gfz2012icjo   0.00755
gfz2012idxu   0.47932
gfz2012iedy   0.09325
gfz2012iijk  -0.18162
gfz2012ikke   1.11850
gfz2012imuo  -0.90543
gfz2012inns   0.65615
gfz2012iotw  -0.44544
gfz2012ipdc   0.50301
gfz2012iphs  -0.05357
gfz2012iroy  -0.21366
gfz2012itxz   0.57099
gfz2012ivyg  -0.49251
gfz2012iyhs   0.14807
gfz2012iyoi  -0.36596
gfz2012izke   0.15110
gfz2012jaun   0.04084
gfz2012jbzr  -0.31696
gfz2012jetp   0.52260
gfz2012jihg   0.56735
gfz2012jjxm   0.95015
gfz2012jksz  -0.92805
gfz2012jlez  -0.40523
gfz2012jodg   0.36140
gfz2012jopi   0.13614
gfz2012jxnm   0.40295
gfz2012jxxe  -0.06291
gfz2012jyhb   0.14892
gfz2012kadi  -0.04677
gfz2012kjzx  -0.18326
gfz2012kmbo   0.09848
gfz2012kmmz  -0.30962
gfz2012krcm   0.25825
gfz2012kstg  -0.00278
gfz2012kvlx  -0.24978
gfz2012kwmx   0.23898
gfz2012kyhj  -2.34200
gfz2012lcca   0.60066
gfz2012lcro  -0.55602
gfz2012ldjj  -0.46678
gfz2012lngq   0.18544
gfz2012lqhw  -0.29382
gfz2012lvlr   0.18304
gfz2012lvxx   0.43776
gfz2012lwha  -0.21219
gfz2012lyqs   1.19410
gfz2012lyyr  -0.32117
gfz2012mdzf  -0.32238
gfz2012mekv  -0.07402
gfz2012mhik  -0.20700
gfz2012mjuu  -0.30640
gfz2012mjzl  -0.26114
gfz2012mmiw  -0.27899
gfz2012mnth  -0.07078
gfz2012moul  -0.00000
gfz2012mout  -0.65250
gfz2012movu  -0.41626
gfz2012movv   0.26291
gfz2012mowv  -0.29364
gfz2012mrqk   0.33270
gfz2012mrwu   0.39902
gfz2012mwhe  -0.52007
gfz2012mxvk   0.49459
gfz2012mzco  -0.50872
gfz2012mzqx   0.21784
gfz2012ndsk  -0.07098
gfz2012ndwt   0.14731
gfz2012nldz  -1.19540
gfz2012nlrb  -0.19066
gfz2012nmja   1.24430
gfz2012nnck  -0.68959
gfz2012nnqu  -0.54059
gfz2012nqvd  -0.59225
gfz2012nsxc  -0.18257
gfz2012oehy  -0.01043
gfz2012ofnx   0.22999
gfz2012ogqu   1.30730
gfz2012ogwe   1.83260
gfz2012ohgd  -0.33716
gfz2012oieq  -0.25500
gfz2012ojfv   1.62440
gfz2012onfs  -0.37520
gfz2012onhu   0.40259
gfz2012ooij  -0.20114
gfz2012oork  -0.39448
gfz2012oozp   0.41944
gfz2012ormy   0.06389
gfz2012oxnh   0.18932
gfz2012oyja   0.31375
gfz2012pcui  -0.09746
gfz2012pdav  -0.01629
gfz2012pdfi  -3.32780
gfz2012pdjt  -0.98450
gfz2012phns  -0.35276
gfz2012pifb  -0.20756
gfz2012pmuj   0.47120
gfz2012pmws   0.68993
gfz2012prke   0.20314
gfz2012pvve  -0.22979
gfz2012pziw   0.21394
gfz2012qbbt  -0.23803
gfz2012qfah   0.29841
gfz2012qfov  -0.03124
gfz2012qhqp  -0.34735
gfz2012qibe   1.15340
gfz2012qmhz   0.02115
gfz2012qpoc   0.24002
gfz2012qvwy   0.20097
gfz2012rfhw  -0.94801
gfz2012rknz  -0.25536
gfz2012rnbw   0.57537
gfz2012rnml   0.07059
gfz2012rnyn  -0.16814
gfz2012roan  -0.00000
gfz2012rslf   0.22361
gfz2012rugl   0.41411
gfz2012rzwp  -1.16760
gfz2012sbix  -0.05731
gfz2012scuk  -0.26268
gfz2012sfao   0.71892
gfz2012sgfd   0.37815
gfz2012sjox   0.12614
gfz2012slfd   1.48070
gfz2012smyn   0.19491
gfz2012socz  -0.41027
gfz2012sopp  -0.06372
gfz2012sqsc  -0.29365
gfz2012ssnb  -0.35045
gfz2012stxx   0.07981
gfz2012suqd  -0.39990
gfz2012svwz   0.12914
gfz2012sxpr  -0.31916
gfz2012sxzs  -0.41107
gfz2012syum   0.73267
gfz2012tisj  -0.25208
gfz2012tjih   0.32592
gfz2012tqjc   0.07674
gfz2012trfq  -0.05414
gfz2012trss   0.23494
gfz2012tsdz  -0.07795
gfz2012tvgw  -0.76328
gfz2012twec  -0.08451
gfz2012udxg   0.15138
gfz2012uegq   0.41048
gfz2012uhsx   0.46352
gfz2012uhtc   0.13732
gfz2012ukzg   0.72011
gfz2012ulei  -0.38220
gfz2012umob  -0.05978
gfz2012unxc  -0.02911
gfz2012uovh  -0.65270
gfz2012utdu  -0.17939
gfz2012uwne  -0.33018
gfz2012uzww  -0.19439
gfz2012vaqd  -0.16749
gfz2012vcqw  -0.12077
gfz2012vile   0.49912
gfz2012vitw   0.09029
gfz2012vkjw  -0.06355
gfz2012vnve   0.76366
gfz2012vqjw  -0.08131
gfz2012vqmq  -0.53012
gfz2012vurc   0.00000
gfz2012wbeu   1.90400
gfz2012wgdv  -0.39334
gfz2012wgmg  -0.40493
gfz2012wiyv  -0.84117
gfz2012wjpf  -0.30796
gfz2012wjsi   0.60240
gfz2012wjxc  -0.40353
gfz2012wkki   0.18607
gfz2012wowu  -0.51814
gfz2012woxj   0.01550
gfz2012wysg   0.27728
gfz2012xcsf  -0.20770
gfz2012xfnu  -0.46072
gfz2012xjgb  -1.15330
gfz2012xkln   0.29481
gfz2012xlas  -0.00935
gfz2012xlfo  -0.72066
gfz2012xmwt  -0.07694
gfz2012xncm   0.15530
gfz2012xppl   0.39888
gfz2012xqxw  -0.03520
gfz2012xrmq  -0.01213
gfz2012xtvu   0.21188
gfz2012xwgb   0.31973
gfz2012xwkx   0.08527
gfz2012xxdj  -0.47828
gfz2012yegw  -0.13223
gfz2012yihn   0.07644
gfz2012ylai   0.41927
gfz2012yncm   0.65678
gfz2012ywei   0.40722
gfz2012yygz  -0.12241
gfz2012yzcf   0.55533
gfz2012zhyz  -0.13209
gfz2012zido  -0.26731
gfz2012zkhu  -0.67895
gfz2012zmfc  -0.82442
gfz2012znou  -0.08085
gfz2013aclz   3.14310
gfz2013adih  -0.12070
gfz2013afzh   0.32910
gfz2013agbm   0.56720
gfz2013aggr  -0.27105
gfz2013agmt   0.66453
gfz2013ajxz  -0.32423
gfz2013ascz   0.19568
gfz2013atak  -0.19932
gfz2013atec   0.60506
gfz2013aymi   0.23782
gfz2013bdvi  -0.17695
gfz2013bqfc   0.17288
gfz2013bwgw  -0.10818
gfz2013byyy  -0.06500
gfz2013ccng   0.00717
gfz2013cfls  -0.11865
gfz2013cinv  -0.29266
gfz2013cokc   0.32995
gfz2013cqak  -0.94206
gfz2013cqee  -0.95009
gfz2013cvve  -0.22689
gfz2013ddrx  -0.25589
gfz2013delq   0.45133
gfz2013dftb  -0.16253
gfz2013dfvx  -0.26856
gfz2013djfi   0.10963
gfz2013dksc   0.63032
gfz2013dngd   0.12666
gfz2013dtjl   0.28861
gfz2013dvub  -0.15508
gfz2013dwsp  -1.91090
gfz2013dznt  -0.93352
gfz2013dzvr  -0.72784
gfz2013efct  -0.14126
gfz2013efys  -0.29238
gfz2013eidd  -0.20346
gfz2013ektd  -0.45323
gfz2013enga  -0.42491
gfz2013esef  -0.46218
gfz2013evcl  -2.16510
gfz2013ewht   0.14800
gfz2013exow   0.47747
gfz2013ezmc   0.57369
gfz2013ffjt  -0.22073
gfz2013fhzy  -0.46509
gfz2013fmcp  -0.59867
gfz2013fndg  -0.20099
gfz2013fnpa   0.33878
gfz2013foto   0.37412
gfz2013frxd  -1.73780
gfz2013fthi  -0.69598
gfz2013fvyr  -0.36238
gfz2013fvzv   0.13021
gfz2013fwbm  -0.79079
gfz2013fybd  -0.07644
gfz2013gaqx   0.81676
gfz2013gbki   0.34439
gfz2013gbma  -1.11710
gfz2013gffe   0.43631
gfz2013gjmk   0.18878
gfz2013glkq  -1.46560
gfz2013gqtl   0.55971
gfz2013gsnl   0.02851
gfz2013gugi  -0.02218
gfz2013gurk  -0.22800
gfz2013gyce   0.66272
gfz2013havw   0.40244
gfz2013hbwy   1.52140
gfz2013hdbp  -1.13980
gfz2013hduf  -0.49270
gfz2013hinw  -0.02634
gfz2013hjtt  -0.16540
gfz2013hqaa  -0.06763
gfz2013hqcd   0.02476
gfz2013hvzv  -0.28905
gfz2013hwps  -0.79449
gfz2013icgx  -0.04730
gfz2013idqu   0.50446
gfz2013ifag   0.17308
gfz2013ikic   0.82868
gfz2013irme  -0.30074
gfz2013isqh  -0.18923
gfz2013iuyv   0.34452
gfz2013iwzn  -0.96000
gfz2013iybv   0.82742
gfz2013jcnn   0.12222
gfz2013jdwo   1.39200
gfz2013jfcn  -0.20692
gfz2013jhog   0.08978
gfz2013jjae   0.03692
gfz2013jkqn   0.71204
gfz2013jlli   0.15739
gfz2013jobl   0.09232
gfz2013jpir  -0.16412
gfz2013jqsk   1.28550
gfz2013jtsg  -0.08327
gfz2013kbbg   0.07819
gfz2013kbbn   0.18221
gfz2013kbkp   0.02175
gfz2013kcdb  -0.70985
gfz2013kjgh  -0.18657
gfz2013kpcb   0.19755
gfz2013kqab  -0.30069
gfz2013kslp   0.27268
gfz2013kxlr   0.30671
gfz2013kxof   0.78355
gfz2013lbod   0.59953
gfz2013lcrk   1.50250
gfz2013lgvf   0.30983
gfz2013ljdu   0.09242
gfz2013lnne  -0.80268
gfz2013lnts   0.26475
gfz2013lrkp   0.20876
gfz2013lwtr   0.10934
gfz2013lxed   0.03490
gfz2013lxnd   0.10054
gfz2013mbna  -0.64531
gfz2013mdnp  -0.79604
gfz2013mimp   0.09669
gfz2013mktp   0.37418
gfz2013mvgq  -0.47684
gfz2013mynb  -0.48497
gfz2013mzaw  -0.26368
gfz2013nhkw  -1.22550
gfz2013njjh  -0.14719
gfz2013njwj   1.09890
gfz2013nkgd   0.62688
gfz2013ntfc  -0.00434
gfz2013obof   0.56237
gfz2013oeni  -0.05455
gfz2013ohdt  -0.10978
gfz2013ohnj  -0.22829
gfz2013oizq  -0.62749
gfz2013ojza  -0.20922
gfz2013okxa  -0.20878
gfz2013olos   0.40166
gfz2013onvl  -0.42367
gfz2013opkx  -0.35489
gfz2013orot   0.70548
gfz2013ortl   0.05119
gfz2013oruq  -0.23693
gfz2013osmj   0.67096
gfz2013otuj  -0.12458
gfz2013oywh  -0.30923
gfz2013pegj   0.25208
gfz2013phly  -0.73209
gfz2013pizm   0.04109
gfz2013pkmz  -0.60686
gfz2013pqkp  -0.28972
gfz2013pvsa  -0.19428
gfz2013qigb  -0.23491
gfz2013qmkt   0.24363
gfz2013qntl   0.26128
gfz2013quyn  -0.09914
gfz2013qxof  -0.51784
gfz2013rdmn  -0.14726
gfz2013rfik   0.05315
gfz2013rgcc   0.57744
gfz2013rnsa  -0.13706
gfz2013rofg   0.20828
gfz2013rsyt   0.30152
gfz2013ryph  -0.23967
gfz2013sbsp  -0.30461
gfz2013sdkg  -0.01114
gfz2013stup  -0.21798
gfz2013taeb  -0.62661
gfz2013tdsx  -0.48171
gfz2013tert  -0.50925
gfz2013tgyb  -0.15699
gfz2013tnrp   0.11978
gfz2013tpwl  -0.55853
gfz2013trsq  -0.21644
gfz2013ttmk  -0.12698
gfz2013ubgt   2.22750
gfz2013udtw   0.05649
gfz2013ujze  -0.25428
gfz2013unuv  -0.34085
gfz2013upqj  -0.00000
gfz2013uwxb   0.52296
gfz2013uxzw   0.48672
gfz2013uzmf   0.18703
gfz2013vdam  -0.12518
gfz2013veoz   0.09190
gfz2013veug  -0.07164
gfz2013vjrr  -0.47482
gfz2013vldx   0.51053
gfz2013vmrv   0.28285
gfz2013vmsg  -1.04660
gfz2013vmsn   0.57179
gfz2013vnwa   0.12664
gfz2013voai  -0.04456
gfz2013vojy  -0.41284
gfz2013vsdd   0.06466
gfz2013vvre   0.18814
gfz2013vwkh  -0.19891
gfz2013vzel   0.35692
gfz2013wpns   0.25271
gfz2013wyfl  -0.39159
gfz2013xahp  -0.37518
gfz2013xjmo   0.19174
gfz2013xlic  -1.04680
gfz2013xmzw  -0.30738
gfz2013xodn   0.22640
gfz2013xofz   0.15276
gfz2013xuxr  -0.09770
gfz2013xvps   0.11881
gfz2013xzxe   0.57388
gfz2013yawe   0.56544
gfz2013yihv   0.44839
gfz2013yktj   0.06227
gfz2013ylxm  -0.65653
gfz2013ymhx  -0.36102
gfz2013yodm   0.12553
gfz2013yqtu  -0.43291
gfz2013ytfm   0.30365
gfz2013yvpn  -0.05103
gfz2013yywh  -0.38368
gfz2013zedt   0.12119
gfz2013zfbz  -0.07653
gfz2013zkta  -0.00000
gfz2013zlak   0.10637
gfz2013zpse   0.23412
gfz2013zpwk   0.15670
gfz2014aaae  -0.08332
gfz2014aedl   0.74305
gfz2014afbt  -0.31221
gfz2014ajgi   0.03830
gfz2014aluc   0.09936
gfz2014aqop   0.45886
gfz2014avmd   0.28222
gfz2014avzp  -0.31403
gfz2014ayxf  -1.02640
gfz2014bdju   0.49814
gfz2014befl  -0.63745
gfz2014bkra  -0.23455
gfz2014bmqw   0.43489
gfz2014bnea   0.12341
gfz2014bqpm  -0.04744
gfz2014bumr   0.02654
gfz2014bycg  -0.10630
gfz2014bztn  -0.07502
gfz2014bzus   0.59001
gfz2014cgxj   0.63424
gfz2014cjao   0.15036
gfz2014club  -0.31996
gfz2014cncl   0.31507
gfz2014cokw   0.45138
gfz2014cwcj   0.27218
gfz2014dbmu   0.46653
gfz2014dggw   0.00281
gfz2014dihl   0.41905
gfz2014diuu   0.62604
gfz2014dmrw   0.10006
gfz2014dpps  -0.55758
gfz2014dtto   0.34552
gfz2014dudd  -0.20989
gfz2014dutu  -0.73567
gfz2014dwcp   0.58652
gfz2014dykt   0.55037
gfz2014ecor  -0.46865
gfz2014eglj   0.07772
gfz2014egvg   0.96313
gfz2014eirs  -0.04889
gfz2014eoay  -0.10789
gfz2014epfm   0.37425
gfz2014epnq   0.19456
gfz2014epue   0.54518
gfz2014esez   0.42073
gfz2014etqu   0.26681
gfz2014evyu   0.15568
gfz2014exxj   0.21211
gfz2014eysf   0.59205
gfz2014ezjq   0.29846
gfz2014ezld  -0.90631
gfz2014faex  -0.01861
gfz2014fbef  -0.29545
gfz2014fbli  -0.03784
gfz2014fdhk   0.20500
gfz2014ffqg   0.24363
gfz2014fgbn   2.54860
gfz2014flxk   0.11982
gfz2014fmdc  -0.44331
gfz2014fsir  -0.05569
gfz2014fsje   0.01672
gfz2014fskh   0.36016
gfz2014fxtv   0.13712
gfz2014fxuy  -0.24531
gfz2014gbxg   1.18710
gfz2014gnbw   0.00707
gfz2014gnvp   0.01280
gfz2014gqxg  -0.19205
gfz2014grwv  -0.02248
gfz2014gsfc  -0.22200
gfz2014gssz  -0.06581
gfz2014gypw  -0.00000
gfz2014hapg   0.87801
gfz2014hgjb   0.32762
gfz2014hhis   0.07685
gfz2014hqhv   0.16035
gfz2014huqh   0.18659
gfz2014hyea   0.04293
gfz2014hzzf  -0.16318
gfz2014iaqm   0.44862
gfz2014ijsa  -0.21590
gfz2014inrg   0.52623
gfz2014ipfu  -0.35510
gfz2014irly   0.12140
gfz2014isjg   0.27580
gfz2014isov   0.35721
gfz2014itlx   0.41378
gfz2014iusw   0.29806
gfz2014jayh  -0.17003
gfz2014jbgm   0.43938
gfz2014jffe  -0.61951
