# Nsamples: 1336  MAD:  0.468  mean:  0.004  std:  0.719
gfz2010abfc   0.44355
gfz2010abvu   0.10625
gfz2010aggj   0.28960
gfz2010aimm  -0.20500
gfz2010aldp  -1.20140
gfz2010aseg   0.35872
gfz2010asxa   0.16917
gfz2010azji   0.63359
gfz2010bgrt  -1.02310
gfz2010bkfi  -0.23665
gfz2010bklj  -0.23134
gfz2010bofe  -0.33828
gfz2010bqnk   0.64044
gfz2010brlc   0.14093
gfz2010brrm  -0.81312
gfz2010btme  -1.38480
gfz2010bukb  -0.42481
gfz2010bvit   0.07073
gfz2010byau   0.00998
gfz2010bytu   0.11253
gfz2010cbnp   0.53178
gfz2010ccse  -0.96249
gfz2010ccwc   0.36750
gfz2010ccye   0.00000
gfz2010ckoc   0.38372
gfz2010clbw   0.13276
gfz2010cllh  -0.17412
gfz2010cngg  -0.07430
gfz2010cnhd   0.22084
gfz2010cnyi  -0.02950
gfz2010cphq   1.59060
gfz2010cqoq   1.20740
gfz2010crgy   0.52663
gfz2010crir  -0.10815
gfz2010csle   0.65244
gfz2010csmw   0.37961
gfz2010csqg  -0.33721
gfz2010csqy   0.16611
gfz2010cuzg  -0.35539
gfz2010cvam  -0.02209
gfz2010cwrk   0.66616
gfz2010cyid   0.35723
gfz2010dask  -0.11206
gfz2010ddan   0.21859
gfz2010diid  -0.41275
gfz2010djib   0.33050
gfz2010dmij   1.07190
gfz2010drit   0.30010
gfz2010drml  -1.24680
gfz2010drmq  -1.24680
gfz2010drng  -0.62122
gfz2010drpv   0.32005
gfz2010drun   0.32618
gfz2010dsjq  -0.52445
gfz2010dslu  -0.68396
gfz2010dtgc  -0.52099
gfz2010dumv   0.56298
gfz2010dwgy  -0.21937
gfz2010dxhq  -0.34108
gfz2010eepd  -0.37620
gfz2010eibh  -0.21810
gfz2010ekvl   0.20427
gfz2010elge  -0.34890
gfz2010eqyj  -0.28666
gfz2010ethu   0.18532
gfz2010euue  -0.05952
gfz2010ewyj  -0.42948
gfz2010extu  -0.06615
gfz2010fgbo  -0.19670
gfz2010fjio  -0.13001
gfz2010fjme  -0.37563
gfz2010fkff   0.61783
gfz2010fnkr   0.69529
gfz2010fpvw   0.59716
gfz2010fqnn  -0.10981
gfz2010fqzh   0.31697
gfz2010ftfq  -0.53626
gfz2010fxut  -0.51579
gfz2010gcqp  -0.03129
gfz2010gcrn  -1.07120
gfz2010gnvp   0.02989
gfz2010gonu  -0.18853
gfz2010gooc  -0.21998
gfz2010guwa  -0.20195
gfz2010gxki  -0.59932
gfz2010habf   0.12070
gfz2010hdgr   0.30368
gfz2010hdxn  -0.15348
gfz2010hesh  -0.23077
gfz2010hexh  -0.15379
gfz2010hllp   0.30635
gfz2010hsgv   0.38703
gfz2010hueh  -2.06990
gfz2010hxan  -0.19837
gfz2010iawy   0.89899
gfz2010ifhd  -0.05790
gfz2010ifru   0.53447
gfz2010inbs   0.08020
gfz2010ioad  -0.13583
gfz2010ixjl   0.09717
gfz2010izag  -0.53758
gfz2010izgb   1.57770
gfz2010jcby  -0.07552
gfz2010jdhk  -0.81194
gfz2010jgwj  -0.05063
gfz2010jkrp  -0.45271
gfz2010jlvp   1.29370
gfz2010jpkn   0.15232
gfz2010juke  -0.60783
gfz2010jvsi   0.23209
gfz2010kcdq  -1.16890
gfz2010kcyz  -0.37011
gfz2010kwks  -0.70938
gfz2010ljmp  -0.11690
gfz2010ljol   0.34334
gfz2010ljzf   0.55091
gfz2010lvnj   1.06400
gfz2010mdti  -0.08505
gfz2010mjdl  -0.96041
gfz2010mnoc  -0.41066
gfz2010mpvc  -0.97834
gfz2010mqaj  -2.19500
gfz2010mqzz  -0.44299
gfz2010mvmb   5.55440
gfz2010mvtj  -0.84494
gfz2010mwmd  -0.86668
gfz2010myqg  -0.13379
gfz2010nbcr   0.29873
gfz2010ncwu   0.73182
gfz2010ngge  -0.72880
gfz2010nkrw  -0.65018
gfz2010nlai  -0.30699
gfz2010novb  -0.59199
gfz2010nteg   0.58528
gfz2010nwbd  -0.23501
gfz2010ocug   0.18752
gfz2010oguu  -0.40783
gfz2010ojhe  -0.34369
gfz2010okpc  -1.62300
gfz2010okww  -0.15637
gfz2010onxm   0.29113
gfz2010osaq   1.03350
gfz2010ouvm  -1.10420
gfz2010ovvg  -0.29896
gfz2010pclq  -0.69928
gfz2010pcya   0.11854
gfz2010pdip   0.81061
gfz2010pgpo  -0.04803
gfz2010prnw  -0.33085
gfz2010pvnn  -0.26236
gfz2010pzza  -0.05520
gfz2010qbcy  -0.59147
gfz2010qdqk  -1.19390
gfz2010qloa  -0.87736
gfz2010qqqx   3.10560
gfz2010qrix  -1.04710
gfz2010qrta  -0.81574
gfz2010qylh  -0.60959
gfz2010qzvf  -0.60193
gfz2010rdip  -0.23962
gfz2010rhvu  -1.58750
gfz2010rkuu  -0.85234
gfz2010rljv  -0.48363
gfz2010rmua  -0.69713
gfz2010rnqa  -2.64210
gfz2010rnwt   0.12116
gfz2010rpbz  -3.50120
gfz2010rpjd  -1.10020
gfz2010schp  -0.98752
gfz2010scht  -0.43949
gfz2010sdfs  -0.69356
gfz2010shvn  -0.52919
gfz2010sylk  -0.74308
gfz2010syqh   0.15211
gfz2010szxo  -1.20820
gfz2010tcgh  -1.81700
gfz2010tfar   0.36382
gfz2010tgmo   0.18151
gfz2010tmba  -0.71426
gfz2010tmne  -0.68429
gfz2010tpcj  -0.79966
gfz2010tqyo  -0.76529
gfz2010tzki  -0.48392
gfz2010tzlz  -0.44872
gfz2010tzma   0.16740
gfz2010umxj  -0.61955
gfz2010upod   0.01399
gfz2010utsc  -1.19470
gfz2010uveo  -0.57571
gfz2010uvpz   1.13360
gfz2010uyng  -0.41828
gfz2010vdcf  -0.54349
gfz2010vfyu  -0.18329
gfz2010vgfu  -0.45813
gfz2010vhzx  -0.33333
gfz2010vkca  -0.07775
gfz2010vong  -0.27783
gfz2010vybx   0.12415
gfz2010wakc   0.31894
gfz2010wwhf   0.23063
gfz2010wwnq   0.06796
gfz2010xamh  -0.23834
gfz2010xaxw   0.77185
gfz2010xhqq  -0.49142
gfz2010xjsv   0.17431
gfz2010xkbz   5.81450
gfz2010xkku   0.04364
gfz2010xnbn   0.63261
gfz2010xney   0.20591
gfz2010xnwf  -0.09616
gfz2010xpzq  -0.00477
gfz2010xvev  -0.14381
gfz2010xytc  -0.07302
gfz2010xzah  -0.73523
gfz2010xzte  -0.53551
gfz2010yczp  -0.56853
gfz2010yfdr  -0.17916
gfz2010ygrd  -0.33688
gfz2010yhdn  -0.25354
gfz2010yhhj  -0.06613
gfz2010yilf  -0.45969
gfz2010ymih   0.09189
gfz2010yrex  -0.33830
gfz2010ytzb  -0.24135
gfz2010zaxv   0.76399
gfz2010zhvj  -0.56918
gfz2010zjun  -0.19611
gfz2010zkle   0.15444
gfz2011ahvh  -0.58133
gfz2011ameb  -1.43600
gfz2011amst  -0.61721
gfz2011aqpp  -0.24587
gfz2011awsv  -0.17129
gfz2011bcvc   0.35141
gfz2011bffb  -0.44393
gfz2011biin   0.27550
gfz2011boaz   0.46105
gfz2011bpqm   1.23850
gfz2011bqbx  -1.48510
gfz2011bsvr  -0.21808
gfz2011bwsm  -0.21851
gfz2011bygs  -0.41078
gfz2011bygu  -0.03464
gfz2011bzio   0.17404
gfz2011caca  -0.67268
gfz2011cdge  -0.13553
gfz2011cfyy  -0.13407
gfz2011chsa   0.35155
gfz2011cjuz   1.38920
gfz2011cwhx  -0.41975
gfz2011cwsm  -0.06888
gfz2011cwzi   0.61989
gfz2011cxdj   0.16712
gfz2011dabj   1.23470
gfz2011dbzc   0.02594
gfz2011dhfg  -0.00326
gfz2011dhqk  -0.22060
gfz2011dmdv  -0.24121
gfz2011dpyu   0.56785
gfz2011drmu   1.42030
gfz2011dtcb  -0.44970
gfz2011duvm   0.27650
gfz2011dwae   0.25542
gfz2011edrq  -0.61370
gfz2011ekty  -0.37265
gfz2011emzr  -0.23628
gfz2011etkc   0.14952
gfz2011exxq   1.32250
gfz2011fbsl  -0.09499
gfz2011ffdh   0.18149
gfz2011fges   0.22615
gfz2011fnie   0.27934
gfz2011fnuk   0.19904
gfz2011fnxz  -0.28854
gfz2011fszl  -0.23842
gfz2011fxmf  -0.12329
gfz2011fyfu  -0.41011
gfz2011fzcw  -0.19451
gfz2011gaax  -0.10620
gfz2011gdli   0.09174
gfz2011gdrl  -0.21949
gfz2011gfer   0.00000
gfz2011ggnl   0.87946
gfz2011ggsz   0.91375
gfz2011glpg  -0.12198
gfz2011gnbk  -0.00338
gfz2011gpyr  -0.21212
gfz2011gzde   0.33083
gfz2011haaa  -0.33044
gfz2011hatg  -0.29389
gfz2011hbqc   0.22026
gfz2011hffq  -0.39090
gfz2011hibi  -0.79200
gfz2011hjof  -0.34721
gfz2011hmnw   0.05456
gfz2011hqjs   0.47016
gfz2011hrgt  -0.35974
gfz2011huon  -0.15957
gfz2011hvzo  -1.51770
gfz2011hwbn  -0.66948
gfz2011hyct   0.42539
gfz2011iamf  -0.05866
gfz2011ibew   4.35930
gfz2011ifta   0.27983
gfz2011jphj  -0.79265
gfz2011jpob  -0.85497
gfz2011jrgh   0.91235
gfz2011jryv   0.19275
gfz2011jtij  -0.29206
gfz2011kfch   1.16410
gfz2011kgvq   0.29405
gfz2011kjzt  -0.15375
gfz2011kjzv  -0.17313
gfz2011knht  -0.39151
gfz2011kujo  -0.20794
gfz2011kylu  -0.11040
gfz2011kymm  -1.76810
gfz2011kyzy  -0.09330
gfz2011lbnn   0.62091
gfz2011ldgl   0.25839
gfz2011lkkf   0.54275
gfz2011lmug  -0.06848
gfz2011lrpv   0.29277
gfz2011lwmg   0.09352
gfz2011lxga   0.27856
gfz2011lykm  -0.04621
gfz2011mdyq  -0.25437
gfz2011mjje   0.45828
gfz2011mllb   0.18883
gfz2011mntq   1.13140
gfz2011mror   1.59800
gfz2011mrpy   0.53751
gfz2011mzvn   0.31508
gfz2011nblt  -0.45416
gfz2011ncyw  -2.18720
gfz2011ndhh   0.18544
gfz2011ndki  -0.56263
gfz2011ndlh  -1.88000
gfz2011ndoe  -0.37106
gfz2011ndse  -0.12513
gfz2011ndtp  -0.60466
gfz2011ndvj   0.46277
gfz2011neai   1.08830
gfz2011nejg   0.41102
gfz2011nejw   0.41582
gfz2011nerb  -0.18533
gfz2011nfcz   0.02182
gfz2011nfgt   0.58269
gfz2011nfih   0.56917
gfz2011nfln   0.14345
gfz2011nftw  -0.44127
gfz2011nhby   0.17154
gfz2011nhhd   0.09514
gfz2011nhjv  -0.61582
gfz2011nhvt   1.46300
gfz2011nhwf  -3.71620
gfz2011nifi  -0.39213
gfz2011nijp   0.22619
gfz2011nilw  -0.33328
gfz2011nimp  -0.58605
gfz2011nioi   0.02060
gfz2011nisj   0.15491
gfz2011niuw   0.42649
gfz2011nivw   0.05635
gfz2011nkda  -0.86278
gfz2011nkou   1.48210
gfz2011nlmf   0.61050
gfz2011nlnl   0.08509
gfz2011nlok  -0.61585
gfz2011nlum   0.66338
gfz2011nlyw  -0.34835
gfz2011nmdz  -0.56428
gfz2011nnda  -0.21536
gfz2011nnos  -1.07490
gfz2011nsej   0.18009
gfz2011nsiy   0.61582
gfz2011nsrx  -0.08909
gfz2011nssr   6.63610
gfz2011nswi   0.06902
gfz2011nsyi   0.47578
gfz2011ntyd   0.62130
gfz2011nuqo   0.41825
gfz2011nvty  -0.58438
gfz2011nyzk   0.45768
gfz2011oadm  -0.25488
gfz2011oazk   0.00000
gfz2011ocif   1.14440
gfz2011oekz   0.14904
gfz2011oesd   0.11050
gfz2011ofpj  -0.27662
gfz2011ohgj  -0.24562
gfz2011okza   0.56580
gfz2011omxt  -0.26925
gfz2011oosp   0.00000
gfz2011oslk   0.62887
gfz2011osmp   0.00000
gfz2011osuy  -0.37951
gfz2011ovvj   0.01206
gfz2011owqa   0.65023
gfz2011paqj  -0.15950
gfz2011pbgh   0.98119
gfz2011pbjh   0.00000
gfz2011pcqr  -0.10983
gfz2011pdgq   0.14520
gfz2011pdsn  -0.08974
gfz2011pfls  -0.12595
gfz2011pfwq   0.47297
gfz2011pgzk  -0.23983
gfz2011pivq   1.15510
gfz2011plzc  -0.54034
gfz2011pmuv   0.08218
gfz2011poug   0.00000
gfz2011ppsc  -0.05986
gfz2011prrq   0.44759
gfz2011ptgd  -0.22610
gfz2011pwbw  -0.17229
gfz2011pwld  -0.64835
gfz2011qasw   0.42399
gfz2011qenl  -0.70668
gfz2011qgea  -1.78170
gfz2011qgvh  -0.11786
gfz2011qgvx  -1.52660
gfz2011qhjw  -0.30276
gfz2011qlkj   0.08538
gfz2011qtoy  -0.98721
gfz2011qukj  -0.48314
gfz2011rbuo  -0.11320
gfz2011rczb   0.08964
gfz2011rkau   0.56865
gfz2011rkzx  -0.33642
gfz2011rnny  -0.05259
gfz2011rnsp  -0.01341
gfz2011rpoo  -0.20558
gfz2011rqut   0.79937
gfz2011scma   0.30495
gfz2011sdax   0.57021
gfz2011sfmu  -0.23805
gfz2011sfph   0.19797
gfz2011sqco  -0.95423
gfz2011sskq   0.60450
gfz2011stzi  -0.12663
gfz2011swfp  -1.59420
gfz2011sxno  -0.35630
gfz2011sylg   1.04510
gfz2011syvj   0.45321
gfz2011syzr  -0.00000
gfz2011szau   0.00000
gfz2011szbb   0.00000
gfz2011szcj   0.37238
gfz2011taqr  -0.19789
gfz2011tarj  -0.59875
gfz2011tdjj   0.77313
gfz2011tfor  -0.46564
gfz2011tgon  -0.18354
gfz2011tjpv  -0.56590
gfz2011tlwl  -0.27399
gfz2011tozo   0.86996
gfz2011tqgg  -0.16682
gfz2011tsgl   0.54771
gfz2011tssv  -0.04560
gfz2011tvuv  -0.15831
gfz2011twpz  -0.37605
gfz2011txdb  -0.96383
gfz2011txxs   0.07096
gfz2011tzcv   0.30627
gfz2011udjs   0.98872
gfz2011ugbt  -0.24028
gfz2011uowi   0.51755
gfz2011uqlz   0.17409
gfz2011uqry   0.34738
gfz2011urwz   0.13572
gfz2011uvsi   1.15960
gfz2011vahy   0.25057
gfz2011vbxv   0.47185
gfz2011vcyx   0.17331
gfz2011vemg   0.78671
gfz2011vimn   0.32382
gfz2011vsag   0.03607
gfz2011vswj   0.06475
gfz2011vtdl   0.44865
gfz2011vtzv   0.29349
gfz2011vxek   0.29509
gfz2011wbtc   0.05122
gfz2011wcvs  -1.08610
gfz2011wfsk  -1.52710
gfz2011wgoa  -0.48619
gfz2011wgvh  -0.96776
gfz2011wkja   0.19914
gfz2011wkyx   0.32161
gfz2011wngi  -0.17059
gfz2011wnjg   3.02230
gfz2011wpzt   0.16642
gfz2011wqup  -0.17867
gfz2011wtfn   0.32301
gfz2011wucg   0.09081
gfz2011wwze   0.15262
gfz2011wyei  -1.28110
gfz2011wzss  -0.06992
gfz2011xagc  -0.06414
gfz2011xgbc  -0.13622
gfz2011xgwy  -0.21847
gfz2011xkka   0.22009
gfz2011xlod   0.14541
gfz2011xnui  -0.24279
gfz2011xpcq   0.35105
gfz2011xxng   0.79684
gfz2011yeck   0.09583
gfz2011yexx   0.24437
gfz2011yjtx   0.56989
gfz2011ykbd  -0.27332
gfz2011ymji   0.56302
gfz2011yntu   0.64860
gfz2011ypfh  -0.72554
gfz2011yrfa  -0.00000
gfz2011ytob  -0.33694
gfz2011ywtj   0.04179
gfz2011zcwn  -0.52170
gfz2011zdyf   1.07650
gfz2011zghc   0.51927
gfz2011zgxn  -0.14736
gfz2011ziyk   0.18674
gfz2011zkbt  -0.19278
gfz2011zlga   0.56811
gfz2012adja   0.05947
gfz2012ahac   0.15357
gfz2012ahkl  -0.91624
gfz2012aioo   0.20747
gfz2012aisj  -0.13543
gfz2012alti   0.18407
gfz2012amjx   0.11318
gfz2012amvs   0.03581
gfz2012aqpa   1.05230
gfz2012arlo  -1.38780
gfz2012asld  -0.07021
gfz2012atjr   0.37815
gfz2012auqr  -0.19342
gfz2012avvc   0.08851
gfz2012bcvn   0.10213
gfz2012beae  -0.09436
gfz2012bity   0.05199
gfz2012bjhl   0.35481
gfz2012bnwa  -0.12364
gfz2012bolx   0.50266
gfz2012bovy   0.32323
gfz2012bqcf   0.83843
gfz2012btbq  -0.19121
gfz2012byrq   0.04515
gfz2012bysu   0.48898
gfz2012bytv   0.33820
gfz2012byuk   0.66084
gfz2012cdju   0.38648
gfz2012cfdw   0.00000
gfz2012cksh  -0.38115
gfz2012cmww   0.31225
gfz2012cntu  -0.37495
gfz2012crpb  -0.58148
gfz2012cvfr   0.04070
gfz2012cwhl  -1.32850
gfz2012cxhw  -0.74201
gfz2012czvh  -0.37257
gfz2012dbgt  -0.38662
gfz2012dcjd   0.24181
gfz2012dejg  -0.23143
gfz2012dgfk  -0.02442
gfz2012dkdy  -0.19977
gfz2012dleg   1.21320
gfz2012dluf  -0.41791
gfz2012dnig  -0.07556
gfz2012dpem  -1.82850
gfz2012dpnu  -0.54559
gfz2012dpwv   0.63403
gfz2012drak  -0.19692
gfz2012drld  -0.04728
gfz2012drqd   0.65695
gfz2012dtdt  -0.44599
gfz2012dtlu   0.33895
gfz2012dttl  -0.22629
gfz2012dtvr   0.02760
gfz2012duwm   0.14118
gfz2012dwwu  -0.05185
gfz2012dyck   0.42169
gfz2012dyfw   0.88465
gfz2012dysj   0.32676
gfz2012dysu   1.25100
gfz2012dyua   1.00500
gfz2012dzat   1.55030
gfz2012dzen  -0.92054
gfz2012dzjo  -0.76012
gfz2012dzoh  -3.36410
gfz2012dzot  -0.04208
gfz2012dzou  -1.98910
gfz2012dzul   0.77510
gfz2012dzva  -0.02454
gfz2012eajr   0.01999
gfz2012eary   1.17980
gfz2012ebff   0.03893
gfz2012ebgo  -0.99802
gfz2012ebhf  -0.68533
gfz2012ebrr  -0.03697
gfz2012eeft  -0.09177
gfz2012ekfp  -0.44463
gfz2012ekro   0.52086
gfz2012elek  -0.20562
gfz2012emin   0.00000
gfz2012enio  -0.06511
gfz2012enrg  -1.11700
gfz2012erds  -0.11636
gfz2012evav   0.25476
gfz2012evxn   0.35193
gfz2012eyti  -0.01163
gfz2012fcyq  -0.34930
gfz2012fcyr  -0.37187
gfz2012fhaf  -0.15961
gfz2012flqf   0.37626
gfz2012foih  -1.07320
gfz2012fpyo  -0.11333
gfz2012ftks   0.22148
gfz2012fuyd   1.47450
gfz2012fyny  -0.15909
gfz2012fyop   0.16389
gfz2012gdye   0.17691
gfz2012gftg   0.83514
gfz2012ghiv  -0.23248
gfz2012gjdg  -0.08948
gfz2012gjtd   0.87475
gfz2012gmsr  -0.38841
gfz2012gnow  -0.07809
gfz2012gpcd   0.37519
gfz2012grmf   0.24041
gfz2012gubu  -0.56784
gfz2012gvxc  -0.24456
gfz2012gzuk   0.97955
gfz2012heih   0.23046
gfz2012hhlx   0.31937
gfz2012hkxs   0.13208
gfz2012hmcv  -0.02219
gfz2012hqlo   0.51610
gfz2012hvfw   0.02569
gfz2012hvjc  -0.53421
gfz2012hvtu   0.38209
gfz2012hwph  -0.43660
gfz2012hyqh  -0.42286
gfz2012hysb  -1.21580
gfz2012hzai   0.02197
gfz2012hzhn   0.37334
gfz2012hzur  -0.79574
gfz2012iabn  -0.32863
gfz2012iblo  -0.18241
gfz2012ibyd  -0.04787
gfz2012icjo  -0.67575
gfz2012idxu  -0.17642
gfz2012iedy   0.29278
gfz2012ieln  -0.23257
gfz2012iijk   0.18626
gfz2012ikke  -1.07790
gfz2012imsm  -0.55725
gfz2012inns  -0.00000
gfz2012iotw  -0.65123
gfz2012iphs  -0.51680
gfz2012iroy  -0.16491
gfz2012itxz  -0.74897
gfz2012ivyg   1.69940
gfz2012iyhs  -0.29918
gfz2012jbzr   0.74990
gfz2012jihg   0.76036
gfz2012jjxm  -0.12046
gfz2012jlez  -0.15148
gfz2012jodg   1.17960
gfz2012jopi   0.25598
gfz2012juem  -1.03950
gfz2012jvei   0.16246
gfz2012kadi   0.05948
gfz2012kbub  -1.09190
gfz2012klpl   0.52331
gfz2012kmbo  -0.02517
gfz2012kmmz  -0.16395
gfz2012kqjb   0.84334
gfz2012kstg  -0.13439
gfz2012kwmx   0.04185
gfz2012kyhj  -2.56130
gfz2012lcca   1.71520
gfz2012lcro  -0.58226
gfz2012ldjj  -0.49936
gfz2012lops  -0.08557
gfz2012lqhw  -0.01120
gfz2012luzm   0.12575
gfz2012lvlr  -0.79691
gfz2012lvwx   0.22133
gfz2012lwha  -0.29307
gfz2012lyyr  -0.24882
gfz2012mcrb   0.00000
gfz2012mdzf  -0.31214
gfz2012mekv  -0.72368
gfz2012mhik  -0.08808
gfz2012mjuu   0.38563
gfz2012mmiw   0.29392
gfz2012mowv   0.01514
gfz2012mpzo   0.58495
gfz2012mrqk  -0.45527
gfz2012mrwu   0.22149
gfz2012mtyn  -0.27595
gfz2012mvgu   0.21712
gfz2012mwhe  -0.14341
gfz2012mzco  -0.01206
gfz2012mzqx  -0.20110
gfz2012ndwt   0.12788
gfz2012nfos  -0.31984
gfz2012nldz  -0.02029
gfz2012nmja   0.15378
gfz2012nnqu   0.57859
gfz2012nqvd  -0.15698
gfz2012nsxc   0.69769
gfz2012oafg  -0.22152
gfz2012oehy   0.02671
gfz2012ofaj  -0.10731
gfz2012ofnx   0.45996
gfz2012ogwe   0.46814
gfz2012ohgd   0.13887
gfz2012oieq  -0.21987
gfz2012oiez  -0.77531
gfz2012ojmv   0.40192
gfz2012onhu  -0.48405
gfz2012ooij  -0.15672
gfz2012oork  -1.14980
gfz2012oozp   0.44479
gfz2012ormy  -2.99690
gfz2012oxnh   0.04696
gfz2012oyja   0.25162
gfz2012pdav   0.90585
gfz2012pdfi  -0.35579
gfz2012pdjt   1.25010
gfz2012pekf  -0.12958
gfz2012pgmw   0.50527
gfz2012phns  -0.38093
gfz2012pira   0.45637
gfz2012pmuj   1.45520
gfz2012pokk   0.19638
gfz2012ppcq   0.22868
gfz2012prke  -0.06620
gfz2012pryl   0.14397
gfz2012pumy   0.08464
gfz2012pvve   0.04855
gfz2012pziw  -0.33447
gfz2012qbbt  -0.47937
gfz2012qfah   0.40097
gfz2012qfov   2.88880
gfz2012qllj  -0.27700
gfz2012qmhz   0.06681
gfz2012qmxz   0.16329
gfz2012qoev  -0.18093
gfz2012qpoc   1.24040
gfz2012rjlp   1.99570
gfz2012rmvx  -0.55056
gfz2012rnml  -0.04877
gfz2012rnyn  -0.15106
gfz2012roan  -0.01732
gfz2012rugl  -0.16181
gfz2012rzwp   2.86690
gfz2012sbix   0.18619
gfz2012sgfd   0.18959
gfz2012sjdy   0.21344
gfz2012slfd   0.31718
gfz2012smyn  -0.67169
gfz2012socz  -0.44626
gfz2012sopp  -0.46611
gfz2012sqsc  -0.31939
gfz2012ssnb  -1.97970
gfz2012ssvn  -0.40926
gfz2012stxx  -0.42668
gfz2012suqd  -1.52810
gfz2012svwz   0.47301
gfz2012swbz   0.03191
gfz2012sxbo   0.73011
gfz2012sxpr  -0.52013
gfz2012sxzs   0.14483
gfz2012syum   0.52720
gfz2012taph   0.02700
gfz2012tbho  -0.37350
gfz2012tgta   0.26614
gfz2012thyh  -0.05448
gfz2012tisj   0.02014
gfz2012touh   1.04540
gfz2012tqjc   0.56516
gfz2012trfq   0.00156
gfz2012trss  -0.10116
gfz2012tsdz   0.83448
gfz2012ttnf   0.11930
gfz2012twec   0.22672
gfz2012tyoz  -0.04728
gfz2012uegq   1.51420
gfz2012uhsx   0.49148
gfz2012uhtc   0.10629
gfz2012ulei   0.21535
gfz2012umob  -0.25040
gfz2012unxc  -0.34907
gfz2012urtu   0.25458
gfz2012utdu  -0.40152
gfz2012uvea   0.15617
gfz2012uvoa   0.07574
gfz2012uzuu  -0.08317
gfz2012uzww  -0.24848
gfz2012vaqd  -0.82266
gfz2012vcqw  -0.10708
gfz2012vdra   0.45177
gfz2012vgot   0.36915
gfz2012vile  -0.12659
gfz2012vioy  -0.02091
gfz2012vitw   0.22378
gfz2012vkjw   0.16054
gfz2012vlzv  -0.87682
gfz2012vnve  -0.41114
gfz2012vqmq   0.23358
gfz2012vrqz   0.20861
gfz2012vsav  -0.32606
gfz2012vurc   0.22659
gfz2012vzkm  -1.12470
gfz2012wbeu  -0.10121
gfz2012wdvt  -0.10859
gfz2012wgdv  -0.04574
gfz2012wgmg  -0.07726
gfz2012wgxf  -0.20634
gfz2012wiyv   0.02212
gfz2012wkki  -0.04811
gfz2012wmas   0.24830
gfz2012wmmw  -0.45802
gfz2012wmrf  -0.12151
gfz2012wowu   0.12990
gfz2012wpen  -0.40110
gfz2012wqfz   0.36408
gfz2012wugc   0.07554
gfz2012wysg   0.08996
gfz2012xask   0.25106
gfz2012xbna   0.22670
gfz2012xcsf   0.20490
gfz2012xfnu  -0.41488
gfz2012xfsk   0.12995
gfz2012xfsl   0.25037
gfz2012xlas   0.39269
gfz2012xlfo  -0.09020
gfz2012xmwt  -0.42488
gfz2012xncm  -0.04479
gfz2012xqxw  -0.13191
gfz2012xrmq   0.21581
gfz2012xtvu  -0.04299
gfz2012xxdj  -0.05549
gfz2012yihn  -0.96165
gfz2012ylai  -0.11554
gfz2012yncm  -1.31420
gfz2012yvwc   0.22599
gfz2012yytb   0.74882
gfz2012yzih  -0.14152
gfz2012zhyz  -0.05037
gfz2012zido  -0.23185
gfz2012zkhu   1.27820
gfz2012zktj   1.78670
gfz2012zmdf  -1.09550
gfz2012zmfc  -0.08866
gfz2012znou   0.49698
gfz2012zqis  -0.07638
gfz2013aclz  -0.12383
gfz2013adih   0.18704
gfz2013afzh  -0.99233
gfz2013agbm   0.41900
gfz2013aggr  -0.33026
gfz2013agmt   0.68826
gfz2013akkd  -0.34745
gfz2013ascz   0.29151
gfz2013atak   0.32295
gfz2013atec   1.09070
gfz2013auew   0.18506
gfz2013aymi  -0.14584
gfz2013bdvi  -0.65438
gfz2013bgyg  -0.38822
gfz2013bwgw   0.92959
gfz2013byyy   0.18589
gfz2013bzwa  -0.08477
gfz2013ccng  -0.20521
gfz2013cfls  -0.56958
gfz2013cinv   0.11098
gfz2013ciof   0.72368
gfz2013cpjc  -0.03735
gfz2013cqak  -0.17717
gfz2013cqee  -1.18900
gfz2013cvve  -0.19435
gfz2013cyvx  -0.06098
gfz2013dbhl   0.35243
gfz2013ddrx  -0.48052
gfz2013delq   0.32216
gfz2013dftb   0.24911
gfz2013dfvx  -2.39370
gfz2013djfi   0.07785
gfz2013dksc   0.58133
gfz2013dmzh  -0.83737
gfz2013dngd  -0.71118
gfz2013dnot   0.20928
gfz2013dtjl  -0.15655
gfz2013dvub   0.02501
gfz2013dwsp   0.60852
gfz2013dzvr  -0.00329
gfz2013eavq   0.54814
gfz2013eazm  -0.35476
gfz2013efct   0.27732
gfz2013efys  -0.56996
gfz2013egfv  -0.95240
gfz2013eidd   0.32203
gfz2013ektd  -0.36826
gfz2013enga   0.34359
gfz2013enqo  -1.33260
gfz2013ewht  -0.18651
gfz2013eyyo  -2.96910
gfz2013ezmc  -0.20298
gfz2013ffjt  -0.42715
gfz2013fhzy  -0.17207
gfz2013fmcd  -3.04290
gfz2013fmcp  -0.85573
gfz2013fndg   0.57581
gfz2013fnpa   0.30681
gfz2013foto  -0.18028
gfz2013fskp   0.26442
gfz2013fulo   0.08801
gfz2013fvht   0.62880
gfz2013fvyr  -0.06803
gfz2013fvzv   0.15637
gfz2013fxyr  -0.14678
gfz2013fybd   0.25869
gfz2013gaqx  -0.84185
gfz2013gbki  -0.10529
gfz2013gbma   0.67181
gfz2013ghpd  -0.18810
gfz2013gjmk  -0.53784
gfz2013gkcx  -0.22117
gfz2013gkyn  -0.06108
gfz2013glkq   0.45574
gfz2013glpz   0.35950
gfz2013gomv   0.22743
gfz2013gsnl   0.24764
gfz2013gugi  -0.18676
gfz2013gurk   0.30164
gfz2013gxye  -0.00896
gfz2013hbmi   0.17431
gfz2013hbtm  -0.00459
gfz2013hdbp   0.49172
gfz2013hduf   0.16702
gfz2013hiam   0.22782
gfz2013hinw   0.98900
gfz2013hqaa  -0.11853
gfz2013hqcd   0.73046
gfz2013hvkg  -1.33420
gfz2013hvzv   0.19206
gfz2013hwps  -1.22880
gfz2013icgx  -0.42038
gfz2013icql   0.90569
gfz2013ikic   0.61982
gfz2013irme   0.29956
gfz2013iuyv   0.78578
gfz2013ivvw  -0.13201
gfz2013iwhc   0.13462
gfz2013iwzn  -0.57857
gfz2013iybg   0.05947
gfz2013jfcn  -0.28777
gfz2013jhog   0.44944
gfz2013jjae  -0.57955
gfz2013jjfw  -0.24553
gfz2013jkqn   0.73792
gfz2013jlli  -0.85645
gfz2013jobl   0.34388
gfz2013jrqf  -0.20460
gfz2013jtsg  -0.53628
gfz2013jzcf   0.40287
gfz2013jzfz  -0.44063
gfz2013kats   0.74652
gfz2013kbbg   0.76897
gfz2013kbbn   0.57510
gfz2013kbkp  -0.47849
gfz2013kcdb  -0.00000
gfz2013kdfy  -0.38242
gfz2013kjgh   1.11050
gfz2013kpes   0.94706
gfz2013kqab  -0.08665
gfz2013kruh  -0.40023
gfz2013ksaz  -0.14817
gfz2013kslp  -0.05559
gfz2013kxlr   0.42780
gfz2013lbod   0.52873
gfz2013lbvl   0.82282
gfz2013lcrk  -0.62870
gfz2013lgvf   0.47944
gfz2013ljdu   0.27346
gfz2013ljwt   0.21362
gfz2013lnne   0.56146
gfz2013lqjj   0.15009
gfz2013lvxe   0.19539
gfz2013lxed   0.36588
gfz2013mdxj   0.07067
gfz2013mimp   0.13406
gfz2013mktp  -0.41104
gfz2013mnux   0.26569
gfz2013msmy   0.30622
gfz2013muqm   0.07970
gfz2013mvgq   0.25828
gfz2013mynb  -0.31578
gfz2013mzaw   0.39195
gfz2013njck  -0.01918
gfz2013njwj  -0.57199
gfz2013nkgd   1.90010
gfz2013nkgt   1.14270
gfz2013nnai  -0.41367
gfz2013noqf  -0.25656
gfz2013ntfc   0.11170
gfz2013ntiu   0.24839
gfz2013obof  -0.32307
gfz2013oeni  -0.11696
gfz2013ohdt   0.21795
gfz2013ohnj   0.17058
gfz2013oizq   0.18759
gfz2013ojza   0.32778
gfz2013okac   0.24459
gfz2013okxa  -0.14018
gfz2013olos  -1.18450
gfz2013onvl  -0.03314
gfz2013orot  -0.82942
gfz2013oruq  -0.35470
gfz2013osmj  -0.26798
gfz2013otuj  -0.10901
gfz2013otxp   0.13190
gfz2013oywh   0.19069
gfz2013pegj  -0.91322
gfz2013phhi  -0.90336
gfz2013phly  -0.87001
gfz2013pizm  -0.18448
gfz2013pkmz  -0.49272
gfz2013pqkp  -0.25896
gfz2013pvsa  -0.31729
gfz2013pwsm   0.22664
gfz2013qaex   0.45068
gfz2013qaov   0.40916
gfz2013qapj   0.08810
gfz2013qdzg  -0.68237
gfz2013qear  -1.17890
gfz2013qigb  -0.07359
gfz2013qmkt   0.88875
gfz2013qntl  -0.06006
gfz2013qogb   1.36830
gfz2013quwz   0.19578
gfz2013quyn   0.21895
gfz2013qwnm  -0.12913
gfz2013qxof   0.09110
gfz2013rdmn   0.71948
gfz2013rfik   0.35424
gfz2013rgcc   0.12224
gfz2013rhbx  -0.33899
gfz2013rnsa   0.03022
gfz2013rocs   0.24937
gfz2013rsyt  -1.44140
gfz2013rtvy   0.07183
gfz2013rwkj   0.01113
gfz2013rwog  -0.12770
gfz2013ryfc  -0.48179
gfz2013ryph   0.42512
gfz2013sbsl   0.05938
gfz2013sbsp  -0.59089
gfz2013sdkg  -0.01310
gfz2013sdym  -0.56577
gfz2013skay  -0.38264
gfz2013skvq   0.10299
gfz2013stou  -0.32457
gfz2013stup  -0.94608
gfz2013suck  -0.02206
gfz2013swnj  -0.10416
gfz2013syqp  -0.00000
gfz2013syqv  -0.28005
gfz2013taeb  -0.21906
gfz2013tcju  -0.19490
gfz2013tdsx  -0.12977
gfz2013tekq   0.18877
gfz2013tert   0.48107
gfz2013tgia   0.33671
gfz2013tgyb   0.16870
gfz2013timw  -0.48567
gfz2013tjub   0.39918
gfz2013tkcg   0.24593
gfz2013tmnf   0.14268
gfz2013tmyj   0.12660
gfz2013tnff  -0.96065
gfz2013tnrp   0.07574
gfz2013tpwl   1.93500
gfz2013trsq   0.21317
gfz2013ttmk  -0.06786
gfz2013twbc  -0.04750
gfz2013uafv  -0.73998
gfz2013ubgt   0.82601
gfz2013udtw   0.42956
gfz2013uenl  -0.78731
gfz2013uepl  -0.25494
gfz2013ujze  -0.19250
gfz2013unuv   0.40100
gfz2013upqj   0.25703
gfz2013utqa   0.53614
gfz2013uugc   0.15671
gfz2013uwjo  -0.92057
gfz2013uwxi   0.58119
gfz2013uxzw  -0.96963
gfz2013uzmf   0.16849
gfz2013vcgd   0.45746
gfz2013vdam   0.10625
gfz2013veoz   0.89793
gfz2013veug  -0.57699
gfz2013vgfb   0.28523
gfz2013vjrr  -0.05322
gfz2013vjsz  -0.40534
gfz2013vldx  -0.08079
gfz2013vmrv   0.29077
gfz2013vmsg   1.45800
gfz2013vmsn   0.35738
gfz2013vnwa   1.06800
gfz2013voai   0.11752
gfz2013vojy   0.16586
gfz2013vsdd   0.69808
gfz2013vvre   0.90449
gfz2013vwkh   0.44515
gfz2013vxht   0.30045
gfz2013vzel   0.50428
gfz2013vzet  -2.21510
gfz2013wegs  -0.44794
gfz2013wgwz   1.31540
gfz2013wigs  -0.34031
gfz2013wpns   0.21959
gfz2013wwee  -0.03727
gfz2013wyfl  -0.07682
gfz2013xacx  -0.35534
gfz2013xahp   0.09310
gfz2013xbdc  -0.38219
gfz2013xddu  -0.44854
gfz2013xjmo  -0.65097
gfz2013xjmy  -1.02000
gfz2013xlic   0.77552
gfz2013xmzw  -0.05260
gfz2013xodn  -0.15172
gfz2013xofz  -0.03849
gfz2013xswc  -0.03097
gfz2013xupg   0.88604
gfz2013xuxr  -0.59826
gfz2013xvps   0.20510
gfz2013xxbf   0.56015
gfz2013xycz   0.36746
gfz2013xzxe   0.44136
gfz2013yfwz   1.20320
gfz2013ygsj  -1.45120
gfz2013yihv  -0.42156
gfz2013ykkf   0.00809
gfz2013ykqw  -0.22255
gfz2013yktj   0.26304
gfz2013ylxm  -0.42372
gfz2013ylxn   0.49752
gfz2013ymhx   0.21994
gfz2013yodm  -0.00816
gfz2013yqkz   0.77756
gfz2013yqtu   0.14473
gfz2013ytfm  -0.31058
gfz2013yvnj  -0.12370
gfz2013yxhf  -0.11458
gfz2013yxif  -0.12654
gfz2013yywh   1.13040
gfz2013zbfb  -0.57409
gfz2013zeye  -0.46596
gfz2013zfbz  -0.08640
gfz2013zghn  -0.16746
gfz2013ziix  -0.37962
gfz2013zkgm   0.06395
gfz2013zkta   0.70996
gfz2013zkzb   0.00938
gfz2013zlak  -0.48458
gfz2013zlij   0.10756
gfz2013zpwk   0.44425
gfz2013zqan   0.20058
gfz2014aaae  -0.16307
gfz2014aapq  -0.06076
gfz2014aedl   0.02322
gfz2014aejh  -0.05412
gfz2014afbt  -0.47972
gfz2014ajgi   2.55990
gfz2014aluc   1.55950
gfz2014alzg   0.29479
gfz2014amgk  -0.39425
gfz2014aqax  -0.45072
gfz2014aqop   0.25570
gfz2014ateb  -0.33626
gfz2014avag  -1.06920
gfz2014avzp   0.37702
gfz2014ayxf  -0.08475
gfz2014azfu   0.61156
gfz2014bdju   0.19156
gfz2014befl   0.23342
gfz2014bfjb   0.06709
gfz2014bgxe  -0.76430
gfz2014bgyv   0.22267
gfz2014bhch  -0.67560
gfz2014bkra  -0.30935
gfz2014bmch  -0.58021
gfz2014bmdf  -0.51876
gfz2014bmqw  -0.41503
gfz2014bnea   0.66131
gfz2014bppg   0.32112
gfz2014bqpm  -0.22331
gfz2014brkk   0.20899
gfz2014buyz   0.19418
gfz2014bycg  -0.14736
gfz2014byes   0.28982
gfz2014bzus  -0.09162
gfz2014cbfo  -0.04311
gfz2014cgoi   0.02772
gfz2014cgxj   0.22253
gfz2014cjao  -0.25388
gfz2014ckqv  -0.16783
gfz2014cncl   0.26493
gfz2014cokw   0.29849
gfz2014crac   0.64877
gfz2014ctdl   0.00094
gfz2014cvnb   0.19675
gfz2014cwti  -0.43321
gfz2014dbmu  -0.40558
gfz2014dbqi  -0.08592
gfz2014dece   0.31106
gfz2014dggw   0.43794
gfz2014dihl  -0.91568
gfz2014diuu  -0.00204
gfz2014djhi  -0.07923
gfz2014djyj  -0.19389
gfz2014dmrw   0.19572
gfz2014dpny   0.37663
gfz2014dpps  -0.24339
gfz2014dsqr  -0.50300
gfz2014dtth   0.11014
gfz2014dtto  -0.44134
gfz2014dwcp   0.17433
gfz2014edjm  -0.13357
gfz2014edmd   0.22202
gfz2014eglj   0.93144
gfz2014eirs   0.26052
gfz2014ejfx  -0.05093
gfz2014emlw  -0.44906
gfz2014eoay   0.29170
gfz2014epnq   0.99079
gfz2014epue  -0.93911
gfz2014esez   0.27752
gfz2014etgp   0.17448
gfz2014etqu   0.46528
gfz2014eunw   0.46019
gfz2014evyu  -0.22165
gfz2014exxj   0.16519
gfz2014ezjq   0.15571
gfz2014ezld  -0.00883
gfz2014ezvd   0.52310
gfz2014faex  -0.18434
gfz2014fbef   0.51341
gfz2014fbli  -0.07687
gfz2014fbnr   0.27294
gfz2014fdhk   0.23699
gfz2014ffqg   0.71687
gfz2014fgbn   0.83507
gfz2014fhki  -0.25910
gfz2014fjfz  -0.35431
gfz2014flxk  -0.18103
gfz2014fmdc   2.20830
gfz2014fqas   0.17733
gfz2014fsir   0.52669
gfz2014fsje   0.45370
gfz2014fskh   0.29930
gfz2014fsvc   1.10390
gfz2014fvza   0.07012
gfz2014fwuf   1.02180
gfz2014fwxt  -0.91127
gfz2014fxim   0.18862
gfz2014fxte   0.11060
gfz2014fxtv  -0.00000
gfz2014fxuy   0.23732
gfz2014gasb   0.41393
gfz2014gbxg  -0.33487
gfz2014gcgf   0.27275
gfz2014gcia   0.11423
gfz2014geln   0.40878
gfz2014ggie  -0.08025
gfz2014ginr  -0.44407
gfz2014gjfd  -0.07737
gfz2014gnbw   0.11815
gfz2014gnvp   0.12657
gfz2014gpnr   1.58510
gfz2014grwv   0.49084
gfz2014gsfc   0.50353
gfz2014gtee   0.38159
gfz2014gtoj  -0.45263
gfz2014gutd  -0.85884
gfz2014gypw   0.81094
gfz2014gzlm   0.77396
gfz2014hapg   0.53164
gfz2014happ   0.45670
gfz2014herz   0.62230
gfz2014hhey  -0.51590
gfz2014hhis   0.27844
gfz2014hjmc   0.17847
gfz2014hkcw   0.17002
gfz2014hotu  -0.04845
gfz2014hqhv   0.22498
gfz2014huqh   0.57494
gfz2014hyea   0.26220
gfz2014hzzf   1.61410
gfz2014iayo   0.79509
gfz2014icov   0.25880
gfz2014igrp   0.11123
gfz2014ijov   0.55785
gfz2014ijsa   0.42201
gfz2014ikvw   0.77893
gfz2014iltl  -0.15174
gfz2014imqh  -0.43218
gfz2014ined   0.23163
gfz2014inrg   0.00000
gfz2014ipfu   0.51502
gfz2014ipwk   1.67750
gfz2014irlf   0.56009
gfz2014irln   0.17993
gfz2014irly   0.26665
gfz2014isjg   0.24647
gfz2014isov   0.26727
gfz2014itlx   0.09778
gfz2014iusw   0.17607
gfz2014ivgm   0.19994
gfz2014ixlc   0.08582
gfz2014iyuc  -0.06289
gfz2014jarg   0.14066
gfz2014jaxy   0.09005
gfz2014jayh   0.39227
gfz2014jbfp   0.18336
gfz2014jcbj   1.39220
gfz2014jckg  -0.20147
gfz2014jffe  -0.92948
gfz2014jfmc  -1.15950
