# Nsamples: 58  MAD:  0.574  mean: -0.320  std:  1.133
gfz2010aggj   0.16783
gfz2010clbw  -0.40756
gfz2010cphq  -0.81829
gfz2010crgy   0.01836
gfz2010crir   0.12039
gfz2010djib  -0.24024
gfz2010drit   0.56447
gfz2010gcqp   0.20004
gfz2010habf  -0.32414
gfz2010hueh  -0.65764
gfz2010jlvp  -0.48303
gfz2010mqzz   0.06254
gfz2010oguu  -0.34062
gfz2013jobl  -0.44352
gfz2013jtsg  -0.34256
gfz2013kats  -0.26364
gfz2013kcdb  -0.71611
gfz2013kslp  -0.01360
gfz2013lbvl   0.11375
gfz2013mimp  -0.75546
gfz2013mvgq   0.55439
gfz2013mzaw  -0.01976
gfz2013opkx  -0.56163
gfz2013oywh  -0.71076
gfz2013phhi   0.75419
gfz2013pifg  -0.80604
gfz2013pvsa   0.57690
gfz2013quwz   0.17517
gfz2013stou   0.16954
gfz2013udtw  -0.25251
gfz2013unuv   0.02591
gfz2013veug  -0.49832
gfz2013vmrv  -1.52210
gfz2013vnwa  -2.05030
gfz2013wyfl  -0.61416
gfz2013xahp  -0.31773
gfz2013xofz   0.98305
gfz2013xswc   0.02832
gfz2013yawe   0.16419
gfz2013zlak  -2.49410
gfz2014bkra   1.05060
gfz2014cgoi  -0.24848
gfz2014ctdl  -0.54349
gfz2014dmrw   0.43739
gfz2014epnq  -0.07183
gfz2014ezvd  -7.05040
gfz2014fsir   0.35417
gfz2014fwxt   0.59948
gfz2014fxte   0.09533
gfz2014fxuy   0.37265
gfz2014icov  -1.59210
gfz2014ikvw  -0.71184
gfz2014iltl   0.79376
gfz2014inrg  -0.05057
gfz2014irlf   0.83505
gfz2014irln  -0.19700
gfz2014irly  -1.29340
gfz2014iusw  -0.35891
