# Nsamples: 867  MAD:  0.725  mean: -0.047  std:  1.289
gfz2010abfc   1.47950
gfz2010abvu  -0.71521
gfz2010aggj   0.51935
gfz2010aimm  -3.25490
gfz2010aldp  -0.00000
gfz2010asxa   0.73139
gfz2010bgrt   0.37862
gfz2010bkfi   0.76270
gfz2010bofe   0.70756
gfz2010bqnk   0.14742
gfz2010brlc   0.37438
gfz2010btme   0.91083
gfz2010bukb   0.27350
gfz2010bvit  -0.29258
gfz2010ccse   0.10279
gfz2010ccwc  -0.62614
gfz2010ccye   0.10271
gfz2010clbw  -0.27800
gfz2010cllh   0.09374
gfz2010cngg   0.37727
gfz2010cnhd   0.65983
gfz2010cphq   0.85415
gfz2010crgy   0.45658
gfz2010crir   0.39215
gfz2010csmw  -0.00397
gfz2010ctak   0.34966
gfz2010cthm   1.03790
gfz2010cvkn   0.92637
gfz2010cyid  -1.90620
gfz2010dask  -2.33830
gfz2010diid  -0.98665
gfz2010djib   1.33450
gfz2010dmij  -1.11410
gfz2010dpgt  -0.91869
gfz2010drit  -0.41177
gfz2010drun  -1.83980
gfz2010dwgy   0.43303
gfz2010eepd  -0.02403
gfz2010eibh  -5.12610
gfz2010ethu   0.02368
gfz2010ewyj   1.53830
gfz2010faly   0.46053
gfz2010fgbo   0.41591
gfz2010fjio   0.31017
gfz2010fjme  -0.03609
gfz2010fkff  -0.44208
gfz2010fopf   0.26028
gfz2010fqnn  -0.29859
gfz2010ftfq   0.32895
gfz2010fvfz  -0.24597
gfz2010gonu   0.14235
gfz2010gooc   0.33510
gfz2010gpjl   3.39160
gfz2010guwa   0.38892
gfz2010habf  -0.02605
gfz2010hexh   0.75629
gfz2010hllp   0.03527
gfz2010hnuo   1.02810
gfz2010hueh  -2.45070
gfz2010hxan   0.46046
gfz2010iaay  -1.39490
gfz2010iawy  -0.14834
gfz2010ifhd  -0.32854
gfz2010inbs   1.00840
gfz2010ioad   0.17399
gfz2010izgb   2.14980
gfz2010jlvp  -3.21250
gfz2010jyvd   0.13770
gfz2010kcyz  -0.58517
gfz2010ljmp  -0.80040
gfz2010mdti   0.06370
gfz2010mguv  -0.34920
gfz2010mnoc  -0.21503
gfz2010mqzz   0.53504
gfz2010mvmb  -0.75252
gfz2010mwmd  -0.81699
gfz2010ncwu   1.61620
gfz2010nkrw  -7.41610
gfz2010nwbd   0.19012
gfz2010oibn  -1.48160
gfz2010okpc  -0.98689
gfz2010osrl   1.15960
gfz2010ouvm  -0.07984
gfz2010pgpo  -0.76868
gfz2010prnw   0.53172
gfz2010pzza  -0.27948
gfz2010qdqk   0.00191
gfz2010qloa   0.78317
gfz2010qrix  -0.98577
gfz2010qzvf   0.54484
gfz2010rdip   0.56048
gfz2010rhvu   0.66707
gfz2010rkuu  -0.22720
gfz2010rljv  -0.06874
gfz2010rnqa   1.65920
gfz2010rnwt  -1.43620
gfz2010rpbz  -0.41232
gfz2010rpjd  -0.02070
gfz2010schp   1.49770
gfz2010scht   0.02968
gfz2010shvn   1.19450
gfz2010swqy  -0.31163
gfz2010sylk   0.46237
gfz2010tcgh  -0.48805
gfz2010tmba   4.07040
gfz2010tpcj   0.49113
gfz2010tqyo  -0.17732
gfz2010tzma  -1.21570
gfz2010ugws  -0.02719
gfz2010uhjy  -1.16360
gfz2010upod   1.35800
gfz2010ussf  -0.42351
gfz2010utsc   1.00050
gfz2010uveo   0.48434
gfz2010uvpz  -0.08257
gfz2010uyng  -0.93132
gfz2010vdcf  -1.60510
gfz2010vong  -0.15325
gfz2010vxwv   0.51035
gfz2010vybx   0.08749
gfz2010wakc  -2.15910
gfz2010wigk   0.58661
gfz2010xamh  -0.22634
gfz2010xhqq  -0.65806
gfz2010xkbz   0.40995
gfz2010xkku  -0.83837
gfz2010xnbn   0.45975
gfz2010xpzq  -0.59446
gfz2010xytc  -0.83740
gfz2010xzah  -0.37172
gfz2010yczp  -0.09519
gfz2010yfdr  -0.82699
gfz2010ygrd   0.59953
gfz2010yhhj   1.20050
gfz2010yilf  -1.05820
gfz2010ymih   0.95847
gfz2010yspe  -3.27300
gfz2010ytzb  -0.66637
gfz2010zaxv   0.55556
gfz2010zjun   0.05460
gfz2011afyc   0.70036
gfz2011ahvh  -0.11776
gfz2011ameb   2.38030
gfz2011aqpp  -0.59451
gfz2011awsv  -0.17593
gfz2011bcvc  -1.53530
gfz2011bffb   0.86854
gfz2011biin   1.26460
gfz2011bpqm   0.63709
gfz2011bqbx   1.17210
gfz2011bvog   1.21700
gfz2011bygs  -0.36364
gfz2011bygu   0.18801
gfz2011cdge  -0.84379
gfz2011cfyy  -0.57490
gfz2011chsa  -0.50765
gfz2011cjcv   0.09941
gfz2011cjuz   1.44890
gfz2011clwu   0.05818
gfz2011cwsm   1.53370
gfz2011cwzi   0.16155
gfz2011cxdj  -0.63427
gfz2011dabj   0.47175
gfz2011dbzc   0.22095
gfz2011dhfg  -1.10000
gfz2011dpyu   0.17451
gfz2011duvm   3.19890
gfz2011dwae   0.26205
gfz2011dzmf   0.28606
gfz2011ecce   0.95111
gfz2011edrq  -0.58887
gfz2011emzr  -0.67174
gfz2011etkc   1.47500
gfz2011exxq   0.15550
gfz2011fbsl   3.10560
gfz2011fges  -0.15009
gfz2011fyfu  -0.16680
gfz2011fzcw  -1.74770
gfz2011gaax  -0.39127
gfz2011gdrl   0.51591
gfz2011ggsz  -0.00000
gfz2011glpg   0.13075
gfz2011gnbk   0.65790
gfz2011gpyr   1.22380
gfz2011gzde  -1.96890
gfz2011haaa  -0.33324
gfz2011hatg  -0.11501
gfz2011hbqc   2.71220
gfz2011hffq   0.50850
gfz2011hibi   0.04605
gfz2011hjof   0.16434
gfz2011hmnw   0.04065
gfz2011hqjs  -1.56580
gfz2011hrgt  -0.91246
gfz2011hyct  -0.40178
gfz2011iamf   0.84333
gfz2011iryz  -0.39679
gfz2011ituo  -1.77250
gfz2011jfyb   0.47295
gfz2011jghq  -0.02178
gfz2011kbzo  -0.15709
gfz2011kfch  -0.97661
gfz2011kgvq   0.07766
gfz2011kjzt   1.30530
gfz2011kjzv   1.19630
gfz2011kmge  -0.88449
gfz2011knht  -1.83170
gfz2011ksxc  -1.79440
gfz2011kylu   1.77970
gfz2011kymm  -1.12350
gfz2011kyzy  -0.31843
gfz2011ldgl   0.34294
gfz2011lmug   0.63486
gfz2011lrpv   0.31974
gfz2011lykm  -0.34678
gfz2011mjje   1.24350
gfz2011mllb   1.32040
gfz2011mntq   0.66204
gfz2011nblt  -6.16760
gfz2011ndhh   1.76010
gfz2011ndki   2.16050
gfz2011ndse  -1.05470
gfz2011ndvj   0.05187
gfz2011nejg  -2.07000
gfz2011nejw  -0.85880
gfz2011nfcz  -0.70799
gfz2011nfln   1.74000
gfz2011nftw   0.61433
gfz2011nfwd   0.82137
gfz2011nhby  -0.09337
gfz2011nifi   0.37935
gfz2011nilw  -0.46017
gfz2011nisj   2.06440
gfz2011nlmf   0.17594
gfz2011nlnl   0.11499
gfz2011npaf   0.59464
gfz2011nssr  19.45500
gfz2011nswi   0.29892
gfz2011nsyi  -0.76716
gfz2011nvty  -3.25530
gfz2011nyzk  -7.90140
gfz2011oadm   0.53804
gfz2011oazk  -0.31104
gfz2011ocif  -1.83510
gfz2011ofpj  -0.13884
gfz2011ohgj   0.26995
gfz2011omxt  -0.08497
gfz2011oqjl  -0.82012
gfz2011oslk   1.02810
gfz2011osmp  -0.44853
gfz2011osuy  -0.18135
gfz2011ovvj  -0.01076
gfz2011owqa  -0.31232
gfz2011paqj   0.19062
gfz2011pbgh   0.82200
gfz2011pfwq   0.33346
gfz2011pgzk   0.46299
gfz2011pphc   2.73670
gfz2011ppsc   0.01826
gfz2011pwbw   0.00796
gfz2011qenl  -0.14144
gfz2011qgvh   0.39625
gfz2011qgvx  -1.70540
gfz2011qidi   0.69767
gfz2011qklh  -1.28970
gfz2011qowe  -1.76930
gfz2011qtoy   2.73510
gfz2011qukj   0.22838
gfz2011rbuo  -0.31260
gfz2011rczb  -0.15475
gfz2011rkau  -1.56910
gfz2011rkzx  -0.33039
gfz2011rnny   2.59100
gfz2011rnsp  -0.22578
gfz2011rqut  -1.92710
gfz2011scma   0.21779
gfz2011sdax   0.50386
gfz2011sfmu  -0.32654
gfz2011sqco   0.70450
gfz2011sskq  -1.58610
gfz2011stzi   1.57760
gfz2011swfp  -0.95133
gfz2011sxno   0.02206
gfz2011szis   1.33210
gfz2011taqr  -0.00331
gfz2011tarj  -0.07712
gfz2011tjpv  -0.03422
gfz2011tozo   0.32021
gfz2011tqgg  -0.22476
gfz2011tsgl  -0.83376
gfz2011tssv   0.76964
gfz2011tvuv  -0.23998
gfz2011txxs   0.32139
gfz2011tzcv  -0.59940
gfz2011udxo   3.14860
gfz2011ugbt   0.43758
gfz2011unud  -0.39934
gfz2011uowi  -0.05399
gfz2011uqry   3.17130
gfz2011urwz   0.28994
gfz2011uvsi   0.37393
gfz2011vahy  -0.28284
gfz2011varl   0.25317
gfz2011vbxv   0.46497
gfz2011vemg   2.84800
gfz2011vsag   0.94847
gfz2011vswj  -0.25142
gfz2011wbtc  -1.38480
gfz2011wcvs  -0.26172
gfz2011wgoa  -2.27820
gfz2011wgvh  -1.15640
gfz2011wkja  -0.04264
gfz2011wkyx  -0.55784
gfz2011wngi  -1.49860
gfz2011wnjg  -1.88480
gfz2011wnvu  -0.11340
gfz2011wpzt  -0.03036
gfz2011wqup   0.98940
gfz2011wwze   0.01195
gfz2011xgbc  -1.27020
gfz2011xgwy  -0.41461
gfz2011xkka  -0.92549
gfz2011xlod  -0.03492
gfz2011ymji  -2.51990
gfz2011yrfa  -0.85642
gfz2011ytob   0.39815
gfz2011zcwn  -1.80190
gfz2011zdyf  -0.23883
gfz2011zghc  -1.40710
gfz2011zgxn  -0.41420
gfz2011zhih  -0.66741
gfz2011zkbt  -0.07095
gfz2011znyq  -0.11621
gfz2012adja  -0.53518
gfz2012ahac   0.23128
gfz2012ahkl   1.68930
gfz2012aisj   0.80102
gfz2012amjx   1.05120
gfz2012amvs   0.27087
gfz2012aqpa  -1.32480
gfz2012arlo   0.44314
gfz2012asld   2.02110
gfz2012auqr  -0.13704
gfz2012axrp   0.36246
gfz2012azel   1.79460
gfz2012beae   0.58431
gfz2012bity  -1.06060
gfz2012bjhl   0.04960
gfz2012bolx   0.17757
gfz2012bovy  -0.13751
gfz2012bqcf   0.30122
gfz2012brrg   0.14358
gfz2012byrq  -0.37853
gfz2012bysu  -0.10175
gfz2012bytv   0.19179
gfz2012byuk   0.73482
gfz2012cdju   0.44414
gfz2012cfdw  -1.42030
gfz2012cksh  -0.41127
gfz2012cmww   0.19502
gfz2012cntu   0.17545
gfz2012crpb   1.06450
gfz2012cvfr  -0.50773
gfz2012cwhl  -2.47810
gfz2012cxhw   0.03101
gfz2012dbgt  -0.29522
gfz2012dejg  -0.92411
gfz2012dgfk  -0.13631
gfz2012dkdy   0.37278
gfz2012dleg   0.09578
gfz2012dnig   1.14710
gfz2012dpem   0.52205
gfz2012dpnu  -0.00074
gfz2012dpwv   1.24120
gfz2012dtdt  -0.48853
gfz2012dtlu   0.04705
gfz2012dtvr  -0.16435
gfz2012dugf  -1.30590
gfz2012dwwu  -0.96607
gfz2012dyck   0.03411
gfz2012dysj   0.30605
gfz2012dysu   0.84754
gfz2012dyua   0.77130
gfz2012dzat   0.04452
gfz2012dzen  -0.49026
gfz2012dzjo   1.07480
gfz2012dzoh   1.07930
gfz2012dzot   0.76498
gfz2012dzou  -1.17180
gfz2012dzul   0.29361
gfz2012dzva   0.23409
gfz2012eajr  -1.14310
gfz2012eary  -0.47671
gfz2012ebgo  -1.77230
gfz2012ebhf  -0.97458
gfz2012ebrr  -0.76715
gfz2012eeft   0.03537
gfz2012ekfp  -0.39595
gfz2012evxn   0.24328
gfz2012fbgz   0.14880
gfz2012fhaf   0.58737
gfz2012ftks  -2.19400
gfz2012fuyd  -1.22030
gfz2012fyny   0.19350
gfz2012gczh   0.80262
gfz2012gdye  -0.23245
gfz2012ghiv  -0.14025
gfz2012gjdg  -0.45791
gfz2012gjtd   0.73895
gfz2012gzuk   1.41020
gfz2012heih  -0.85011
gfz2012hmcv   0.24719
gfz2012hzur  -2.10100
gfz2012ibyd   0.04675
gfz2012ieln  -0.23912
gfz2012iijk   0.62004
gfz2012ikke   0.83736
gfz2012ipdc   1.45010
gfz2012iroy  -0.27670
gfz2012izke   0.40069
gfz2012jbzr   0.72069
gfz2012jetp  -0.33719
gfz2012jlez   0.38049
gfz2012jnlt   0.44046
gfz2012jxnm  -0.04017
gfz2012jxxe   0.18157
gfz2012kadi   0.93970
gfz2012klpl   0.08971
gfz2012kmbo  -0.19726
gfz2012kmmz  -0.92614
gfz2012kwmx   0.02596
gfz2012kyhj  -0.16818
gfz2012ldjj   1.09420
gfz2012lqhw  -0.16900
gfz2012luzm   0.09619
gfz2012lvlr  -0.70120
gfz2012lwha   0.91622
gfz2012lyyr  -0.43124
gfz2012mdzf  -0.24784
gfz2012mekv   3.30600
gfz2012mjuu  -5.13860
gfz2012mmiw   0.43931
gfz2012movu   0.44768
gfz2012mowv   0.08416
gfz2012mpzo   0.38088
gfz2012mrwu  -0.44940
gfz2012mtyn  -0.22413
gfz2012mvgu  -0.54643
gfz2012mwhe  -0.39812
gfz2012mzco   0.19940
gfz2012ndwt  -0.48148
gfz2012nfos   0.62768
gfz2012nfzc   1.29710
gfz2012nldz  -1.23770
gfz2012nlrb  -0.95644
gfz2012nmja  -0.06665
gfz2012nnqu  -0.78149
gfz2012nqvd  -0.57790
gfz2012nsxc   0.32793
gfz2012oafg  -1.04830
gfz2012oehy   0.00797
gfz2012ofnx  -0.03326
gfz2012oxnh  -0.00000
gfz2012oyja   1.08890
gfz2012pcui  -0.34787
gfz2012pdav  -0.79643
gfz2012pekf  -0.17118
gfz2012pgmw   0.67597
gfz2012phns   0.00000
gfz2012pifb  -2.35580
gfz2012pmuj   1.34960
gfz2012pokk  -0.20958
gfz2012ppcq   0.66666
gfz2012ppsw  -1.20450
gfz2012pvve   0.20674
gfz2012pziw   1.23100
gfz2012qbbt  -0.14666
gfz2012qfah   0.92683
gfz2012qfov   1.38350
gfz2012qmxz  -1.82490
gfz2012qoev   0.66571
gfz2012rknz  -0.70868
gfz2012rnml   0.09343
gfz2012rnyn  -0.92354
gfz2012roan  -0.03121
gfz2012rzwp  -1.23450
gfz2012scuk   0.03238
gfz2012sjdy  -0.06615
gfz2012sjox  -0.52556
gfz2012slfd  -0.18863
gfz2012smyn   0.03690
gfz2012socz  -0.46842
gfz2012sopp  -0.02935
gfz2012sqsc   1.23180
gfz2012ssvn   1.47350
gfz2012svwz  -0.08855
gfz2012swbz   0.56630
gfz2012tgta   0.35244
gfz2012thyh  -0.15197
gfz2012tisj  -3.48110
gfz2012twec   0.72862
gfz2012tyoz  -1.29210
gfz2012uegq   0.32948
gfz2012uhsx   0.16804
gfz2012uhtc   0.50444
gfz2012ulei   0.43543
gfz2012umob   0.07040
gfz2012uvoa  -0.68346
gfz2012uzww  -0.05673
gfz2012vcqw   0.26443
gfz2012vgot   0.63168
gfz2012wdvt   0.19081
gfz2012wdxk   1.98740
gfz2012wgdv   0.38633
gfz2012wgmg  -0.67198
gfz2012wgmp  -0.83893
gfz2012wiyv   2.85490
gfz2012wmas  -0.54508
gfz2012wowu   0.82865
gfz2012woxj  -0.00000
gfz2012wqfz  -0.66637
gfz2012wysg   0.52343
gfz2012wzja  -0.97059
gfz2012xask   0.02083
gfz2012xbna  -0.09936
gfz2012xcsf   0.23245
gfz2012xfnu  -0.49275
gfz2012xfsk  -1.35840
gfz2012xjgb  -1.58330
gfz2012xkln  -1.05590
gfz2012xkvu   0.77109
gfz2012xlas   0.65451
gfz2012xlfo   1.02570
gfz2012xncm  -1.28270
gfz2012xtvu  -0.21891
gfz2012xxdj  -0.21524
gfz2012yegw  -0.21375
gfz2012yihn  -0.83775
gfz2012ylai   0.58581
gfz2012yncm  -0.17274
gfz2012yvwc  -0.99126
gfz2012yzcf  -0.09634
gfz2012zhyz  -0.36160
gfz2012zido  -1.15150
gfz2012zkhu  -0.45277
gfz2012zmdf  -7.34360
gfz2012zmfc  -1.31150
gfz2013aclz   1.96030
gfz2013adih  -0.94346
gfz2013afzh   0.48341
gfz2013akkd  -0.37473
gfz2013ascz  -1.08380
gfz2013atak  -0.78440
gfz2013atec  -1.35880
gfz2013auew  -0.02198
gfz2013aymi   1.01640
gfz2013bqfc  -2.99610
gfz2013bwgw   0.15041
gfz2013byyy   0.60978
gfz2013cinv   0.11549
gfz2013cpjc  -0.95196
gfz2013cqee  -1.07900
gfz2013cvve  -0.08327
gfz2013cyvx  -0.31723
gfz2013dbhl  -0.18607
gfz2013delq   0.55514
gfz2013dftb  -0.17632
gfz2013dfvx   0.49174
gfz2013djfi  -0.81912
gfz2013dksc   0.66455
gfz2013dngd  -0.82422
gfz2013dnot   0.08816
gfz2013dzvr  -0.11281
gfz2013eazm   1.01870
gfz2013efct   0.22863
gfz2013eidd   0.03954
gfz2013enga  -0.49732
gfz2013evcl  -0.72865
gfz2013ewht   1.11550
gfz2013ezmc  -0.26147
gfz2013fhzy  -0.05795
gfz2013fmcd  -1.77050
gfz2013fmcp  -0.49924
gfz2013fnpa   0.10037
gfz2013foto  -0.05127
gfz2013fulo  -0.40962
gfz2013fvht   0.82881
gfz2013fwbm  -0.60206
gfz2013fxyr  -0.12083
gfz2013fybd   0.21530
gfz2013gglk  -0.00000
gfz2013gjmk  -0.71854
gfz2013gkcx  -1.07770
gfz2013gkyn  -0.03623
gfz2013glpz  -0.05083
gfz2013gomv  -0.29260
gfz2013gqtl  -0.90255
gfz2013gurk  -0.39079
gfz2013gxye  -0.44686
gfz2013gyce   0.81039
gfz2013havw   0.91690
gfz2013hbmi  -0.77689
gfz2013hbtm   0.15028
gfz2013hdbp   0.79652
gfz2013hduf  -0.35258
gfz2013hjtt  -0.70133
gfz2013hqaa   0.82325
gfz2013hwps   0.75666
gfz2013icgx   0.63668
gfz2013icql   1.09870
gfz2013iwzn  -1.92310
gfz2013iybg   0.35064
gfz2013jfcn  -0.84043
gfz2013jhog  -0.10360
gfz2013jjae   1.26570
gfz2013jlli   1.15260
gfz2013jobl  -0.07809
gfz2013jpir   0.15197
gfz2013jrqf   0.72708
gfz2013jzcf  -0.17372
gfz2013kats   0.88520
gfz2013kbbg  -0.54967
gfz2013kbbn   0.14048
gfz2013kbkp  -0.26611
gfz2013kcdb  -2.45520
gfz2013kpcb   0.51163
gfz2013kpes   2.15810
gfz2013kqab   1.30970
gfz2013kruh   0.30938
gfz2013kslp  -0.25253
gfz2013lbod   1.73070
gfz2013lbvl   0.56635
gfz2013lgvf  -1.64030
gfz2013ljdu   0.10703
gfz2013ljwt   0.13811
gfz2013lnts   0.61645
gfz2013lvxe  -0.18251
gfz2013lwtr  -0.90549
gfz2013lxed  -0.09052
gfz2013mbna  -1.51520
gfz2013mdxj   0.23643
gfz2013mimp  -0.45306
gfz2013mktp  -0.13669
gfz2013msmy  -0.20356
gfz2013mvgq  -0.95938
gfz2013mzaw  -0.05932
gfz2013nhkw  -1.41430
gfz2013njwj  -0.34539
gfz2013nkgd   0.06139
gfz2013nkgt   0.05371
gfz2013noqf   0.19480
gfz2013ntfc  -4.19090
gfz2013obof   0.07512
gfz2013oeni  -0.44337
gfz2013ohdt   0.11481
gfz2013ohnj   0.07634
gfz2013oizq   0.93865
gfz2013okxa   0.14519
gfz2013olos  -1.22220
gfz2013onvl   0.07745
gfz2013opkx  -2.68610
gfz2013orot  -0.90080
gfz2013ortl  -0.00000
gfz2013oruq  -0.12412
gfz2013oywh   0.37767
gfz2013phhi   0.07158
gfz2013phly  -0.18134
gfz2013pifg   0.45892
gfz2013pizm   0.12971
gfz2013pkmz  -0.46127
gfz2013pqkp   0.06216
gfz2013pvsa   0.58090
gfz2013qboo  -0.50429
gfz2013qdks   0.43784
gfz2013qdno   0.72865
gfz2013qdpv  -0.22190
gfz2013qdzg   0.21887
gfz2013qear   0.50252
gfz2013qigb   0.33927
gfz2013qnqr  -0.08359
gfz2013qoak   0.07653
gfz2013qqyo  -0.34610
gfz2013quwz  -0.39746
gfz2013quyn   0.40426
gfz2013qwnm   0.09978
gfz2013qxof   0.49974
gfz2013rsyt   2.18670
gfz2013rwkj   0.56156
gfz2013rwog   0.38844
gfz2013taeb  -2.34650
gfz2013tert  -0.86488
gfz2013tgia   0.50809
gfz2013timw  -0.74424
gfz2013tjub  -1.82100
gfz2013tkcg  -0.66277
gfz2013tmnf   0.55593
gfz2013tmyj   0.53524
gfz2013tnff  -0.75776
gfz2013tnrp  -0.12935
gfz2013trsq   0.58321
gfz2013twbc   0.11756
gfz2013uafv  -1.21630
gfz2013udtw   0.50896
gfz2013uenl   0.08113
gfz2013uepl   0.19739
gfz2013umay   0.08939
gfz2013ummt  -0.39415
gfz2013unuv   0.15543
gfz2013upqj   0.02107
gfz2013utqa   0.09767
gfz2013uugc   0.20695
gfz2013uwjo  -0.08393
gfz2013uwxb   0.54515
gfz2013uxzw   0.98568
gfz2013vcgd   0.41222
gfz2013vdam  -0.55415
gfz2013veoz   1.19910
gfz2013veug  -0.50310
gfz2013vfix   0.31155
gfz2013vgfb  -0.79164
gfz2013vmrv   0.46716
gfz2013vmsg  -0.49412
gfz2013vnwa   0.97835
gfz2013voai  -0.38583
gfz2013vojy  -0.96800
gfz2013vvre   0.06897
gfz2013vwkh  -0.03613
gfz2013vzel   0.63669
gfz2013vzet  -0.47650
gfz2013wegs  -0.07250
gfz2013wgwz   0.51672
gfz2013wigs  -0.05270
gfz2013wpns   0.85036
gfz2013wwee  -0.26427
gfz2013wyfl   0.13001
gfz2013xacx   0.21014
gfz2013xahp  -0.16934
gfz2013xbdc  -0.59359
gfz2013xddu  -1.14520
gfz2013xjmo  -0.85804
gfz2013xmzw  -0.33202
gfz2013xofz   0.13219
gfz2013xswc   0.70081
gfz2013xuxr   0.46814
gfz2013xycz   0.06559
gfz2013xzxe  -0.43675
gfz2013yapz   1.00420
gfz2013yfwz   1.04790
gfz2013ygsj  -1.64600
gfz2013yihv   1.72690
gfz2013ylxm   0.34629
gfz2013ylxn  -0.85508
gfz2013yodm   0.30305
gfz2013yqkz  -0.17032
gfz2013yqtu  -0.65969
gfz2013ytfm  -0.00787
gfz2013yvpn   0.42272
gfz2013yxhf   0.07630
gfz2013zfbz  -1.41370
gfz2013ziix  -0.96849
gfz2013zlij  -0.21562
gfz2013zpse   0.25377
gfz2013zpwk   0.30266
gfz2013zqan  -0.57281
gfz2014aapq  -0.01074
gfz2014aedl  -0.24214
gfz2014aejh   0.45484
gfz2014ajgi  -1.01680
gfz2014amgk  -1.84540
gfz2014amsy   0.72340
gfz2014aqax   0.89643
gfz2014aqop   0.99060
gfz2014ascp   0.01068
gfz2014ateb   0.18973
gfz2014avmd   0.28171
gfz2014avux   0.01919
gfz2014avzp   0.31546
gfz2014ayxf   0.67980
gfz2014befl   0.57981
gfz2014bfjb  -0.17734
gfz2014bgxe  -0.56175
gfz2014bgyv   0.01488
gfz2014bhch  -0.51404
gfz2014bnea  -0.75236
gfz2014bppg   0.37150
gfz2014bqpm   0.07998
gfz2014byes   0.64941
gfz2014cgoi  -0.52002
gfz2014cgxj   0.31906
gfz2014cjao   0.51187
gfz2014club  -0.02387
gfz2014dwcp   0.15670
gfz2014dykt   0.73093
gfz2014edmd   1.06430
gfz2014eglj  -0.31695
gfz2014eirs   0.27950
gfz2014ejfx   0.35952
gfz2014eoay  -0.35196
gfz2014epfm  -0.39499
gfz2014epnq   1.30970
gfz2014esez   0.52854
gfz2014etgp  -0.03881
gfz2014etqu  -0.00000
gfz2014evhm  -0.20632
gfz2014eyne  -0.13200
gfz2014eysf  -0.10666
gfz2014fbli   0.13503
gfz2014ffqg   0.47313
gfz2014fgbn   2.18400
gfz2014fjfz   0.31823
gfz2014fsir  -0.01287
gfz2014fsje   0.27345
gfz2014fskh  -1.06960
gfz2014fvza  -0.87354
gfz2014fwuf   1.45150
gfz2014fwxt   0.86198
gfz2014fxim   0.38929
gfz2014fxte   0.54630
gfz2014fxtv   0.39352
gfz2014fxuy   0.57853
gfz2014gbxg  -5.68530
gfz2014gcgf  -0.33790
gfz2014gdbh   0.60935
gfz2014geln  -0.16064
gfz2014ggie   0.17028
gfz2014ginr  -0.46557
gfz2014gnbw  -1.40460
gfz2014gnvp   0.10520
gfz2014grwv  -0.59296
gfz2014gsfc   0.55998
gfz2014gssz   0.07412
gfz2014gypw  -0.63622
gfz2014gzlm  -0.42928
gfz2014hapg   0.26054
gfz2014hjmc  -0.44422
gfz2014hotu  -0.60010
gfz2014hqhv  -0.05177
gfz2014hyea   0.09909
gfz2014hzzf   1.96020
gfz2014iaqm  -1.62370
gfz2014iayo  -0.88203
gfz2014icov   0.03623
gfz2014igrp  -0.31305
gfz2014ikvw  -0.44813
gfz2014iltl  -1.03290
gfz2014imqh  -0.19882
gfz2014ined  -2.47030
gfz2014inrg  -1.05530
gfz2014iolv  -2.03800
gfz2014ipfu   0.04764
gfz2014ipwk   0.03972
gfz2014irlf   0.73182
gfz2014irln  -0.13255
gfz2014irly  -0.38385
gfz2014isjg   0.70396
gfz2014itlx   0.70765
gfz2014iusw  -0.18908
gfz2014ivgm   0.19662
gfz2014ixlc   0.63916
gfz2014iyuc  -0.30842
gfz2014jarg  -0.67330
gfz2014jaxy  -0.45537
gfz2014jayh   0.75308
gfz2014jbfp   1.21380
gfz2014jckg  -0.29559
gfz2014jffe  -1.20960
gfz2014jfmc  -1.14840
