# Nsamples: 55  MAD:  0.670  mean: -0.019  std:  1.035
gfz2010clbw  -0.25079
gfz2010cllh   0.16636
gfz2010crgy  -0.80768
gfz2010csle   0.41660
gfz2010cyid   0.83530
gfz2010dask   0.54966
gfz2010dmij  -1.55110
gfz2010drml   0.17816
gfz2010drmq   0.17816
gfz2010drpv   0.10479
gfz2010dumv  -0.14746
gfz2010pgpo   0.38647
gfz2010pzza  -0.30925
gfz2010rljv   0.92136
gfz2010uhjy   0.41095
gfz2010wakc  -1.41860
gfz2010xnbn  -4.06620
gfz2010zjun  -0.08379
gfz2011ahvh  -0.81659
gfz2011cdge  -1.54090
gfz2011dabj  -1.17560
gfz2011fnie   0.54691
gfz2011ggnl   1.18260
gfz2011gnbk  -0.31857
gfz2011hjof   0.53967
gfz2011hmnw   1.18670
gfz2011hvzo   3.45730
gfz2011hyct   1.02400
gfz2011jryv  -0.16810
gfz2011kjzt   0.11250
gfz2011mror   0.08743
gfz2011mzvn   1.25500
gfz2011nijp  -0.69705
gfz2011nuqo   0.25124
gfz2011ofpj   0.18168
gfz2011owqa  -0.35161
gfz2011pgzk  -2.07720
gfz2011qenl   0.59482
gfz2011vahy  -0.31447
gfz2012cntu   0.05731
gfz2012fyny  -0.81301
gfz2012iblo  -0.43986
gfz2012mdzf  -0.86409
gfz2012socz   0.51160
gfz2012tisj   1.19000
gfz2012ulei   0.85582
gfz2012uzww  -0.04936
gfz2012xcsf  -0.49110
gfz2012xncm   0.53075
gfz2013dngd   0.81335
gfz2013efct  -0.19977
gfz2013fnpa   0.13559
gfz2013fulo  -0.44374
gfz2013fvht  -0.32760
gfz2013fvyr  -0.00000
