# Nsamples: 519  MAD:  0.555  mean: -0.032  std:  0.933
gfz2010afyi  -0.84803
gfz2010aggj  -1.22390
gfz2010aseg   0.42376
gfz2010axdz   0.30718
gfz2010bgrt   2.11290
gfz2010bnbr   0.12476
gfz2010bofe  -0.99396
gfz2010bqnk  -0.66667
gfz2010btme   0.84849
gfz2010bukb   0.00548
gfz2010bvit   0.39320
gfz2010ccye  -1.88420
gfz2010cllh  -0.38570
gfz2010colm   0.27930
gfz2010cphq   0.72829
gfz2010cpig  -0.89401
gfz2010crgy  -0.26015
gfz2010crir   0.05127
gfz2010ctak  -1.06930
gfz2010cthm   1.41830
gfz2010cwrk  -0.63563
gfz2010dask  -0.99914
gfz2010depd  -1.71170
gfz2010djib   0.07943
gfz2010dmkd   0.22344
gfz2010drit  -0.43359
gfz2010dtyx  -0.34221
gfz2010dumv   1.10120
gfz2010dxhq   0.21941
gfz2010elge   0.96352
gfz2010ewyj  -0.02021
gfz2010faly   0.50081
gfz2010fgbo  -0.11443
gfz2010fopf   0.32156
gfz2010fvfz   0.31507
gfz2010fxut  -0.17490
gfz2010gonu   0.36299
gfz2010gpjl   0.65631
gfz2010gxki  -0.17863
gfz2010habf   0.35884
gfz2010hnuo   1.27910
gfz2010hueh  -0.46120
gfz2010huzl  -0.25138
gfz2010iaay  -0.14158
gfz2010jkrp   0.98392
gfz2010jlvp  -0.08908
gfz2010jyvd  -0.90799
gfz2010kcdq   1.39680
gfz2010kcyz   0.48399
gfz2010kzzm   4.80270
gfz2010mguv   0.22339
gfz2010mnoc   1.16520
gfz2010mpvc   0.00000
gfz2010mqaj  -0.63425
gfz2010mqzz  -0.46940
gfz2010msss   2.66780
gfz2010mzfb   1.72360
gfz2010nccu   0.00000
gfz2010ngge   0.19887
gfz2010nlai   1.41710
gfz2010novb   0.35360
gfz2010nwyk  -0.05077
gfz2010ogwn   0.06150
gfz2010okpc  -0.41175
gfz2010osrl   1.08440
gfz2010pdip  -0.48446
gfz2010pgpo   0.10745
gfz2010pxoi   1.30990
gfz2010qdqk  -1.45060
gfz2010qloa   0.07322
gfz2010qqqx  -0.03973
gfz2010qrta  -0.10830
gfz2010qykh  -0.16761
gfz2010qzvf   0.13741
gfz2010rdep   0.31608
gfz2010rhvu  -0.75668
gfz2010rkuu  -0.32572
gfz2010rljv   4.93290
gfz2010rnqa   0.48717
gfz2010rnwt   0.89402
gfz2010sdfs  -0.38949
gfz2010sftm   0.09647
gfz2010swqy   1.53230
gfz2010tcgh  -0.48902
gfz2010tgmo  -0.44592
gfz2010tmne  -0.73424
gfz2010tpcj  -0.74505
gfz2010tzlz   0.06987
gfz2010tzma  -0.37067
gfz2010ugws  -0.33752
gfz2010uhjy   0.26669
gfz2010uyng   0.18694
gfz2010vhzx  -0.00000
gfz2010viyi   0.32397
gfz2010vjac  -0.17618
gfz2010vong  -0.19021
gfz2010vyri   0.24293
gfz2010wakc  -1.37640
gfz2010wwnq   3.04940
gfz2010xamh   0.87453
gfz2010xjsv   1.87510
gfz2010xkbz  -0.33399
gfz2010xnbn   0.07803
gfz2010xpzq  -0.71062
gfz2010yczp  -0.42164
gfz2010yfdr  -0.64687
gfz2010yhhj  -0.21900
gfz2010zjun  -0.82319
gfz2010zkle   0.36926
gfz2011amst   0.04188
gfz2011aqpp  -0.38986
gfz2011bpqm   0.12601
gfz2011bqbx   5.96190
gfz2011bsvr  -0.71345
gfz2011bvog  -1.12610
gfz2011bwsm  -0.10363
gfz2011byec   0.21710
gfz2011bygs  -1.28320
gfz2011bygu  -1.02010
gfz2011cdge  -1.09810
gfz2011cjuz  -2.10800
gfz2011cwzi  -0.21956
gfz2011dabj   0.16895
gfz2011duvm  -0.52917
gfz2011dzmf   0.08685
gfz2011ecce   0.02188
gfz2011fnie  -0.83262
gfz2011fnxz   0.96623
gfz2011fszl  -0.93160
gfz2011fzcw  -0.88239
gfz2011gaax  -0.29130
gfz2011ggnl   2.15850
gfz2011gkdx   0.89447
gfz2011gnbk  -0.04488
gfz2011gpyr  -0.22400
gfz2011haaa   0.57851
gfz2011hibi  -0.85240
gfz2011hjof  -0.25837
gfz2011hqjs  -0.80472
gfz2011hvzo   0.02154
gfz2011hwbn   0.96415
gfz2011hyct   0.09117
gfz2011hyuh  -0.58321
gfz2011iamf   0.37851
gfz2011ibew   0.54734
gfz2011inan   0.20875
gfz2011ioch  -0.03623
gfz2011kjzt   0.44776
gfz2011kylu  -0.27949
gfz2011kymm  -0.25463
gfz2011lkkf   0.44741
gfz2011lnzf   2.78900
gfz2011lykm   0.75513
gfz2011lywj   1.46310
gfz2011mdyq  -1.32860
gfz2011melb  -1.07010
gfz2011mjje  -0.00287
gfz2011mllb  -0.27129
gfz2011mntq  -0.75765
gfz2011nblt   0.96284
gfz2011ncyw   3.22420
gfz2011ndki  -1.08360
gfz2011neai  -0.27315
gfz2011nejg  -0.72785
gfz2011nejw  -0.27530
gfz2011nfcz  -0.37465
gfz2011nhvt  -0.63088
gfz2011nhwf   0.49809
gfz2011nijp   0.07107
gfz2011nilw  -0.56729
gfz2011niuw   2.85710
gfz2011nkou  -2.02430
gfz2011nlnl   0.55460
gfz2011nlum  -1.47440
gfz2011nmhg   0.16268
gfz2011nnos  -0.92434
gfz2011npaf  -0.36986
gfz2011nsiy  -0.51081
gfz2011nsrx   0.25949
gfz2011nuqo  -1.05340
gfz2011oadm  -0.10807
gfz2011oazk   0.63984
gfz2011okza   0.07532
gfz2011osmp  -0.38485
gfz2011owqa   0.48352
gfz2011paqj  -0.38830
gfz2011pbgh  -0.81277
gfz2011pfls  -0.22205
gfz2011prrq  -0.08884
gfz2011ptgd   1.49830
gfz2011pulu  -0.03132
gfz2011qenl  -0.15672
gfz2011qgea   2.70230
gfz2011qgvx  -0.52862
gfz2011qklh   0.05465
gfz2011qowe  -0.65470
gfz2011qtoy   0.27106
gfz2011qukj  -0.24116
gfz2011rkau  -0.99000
gfz2011rnny   0.18734
gfz2011rnsp  -0.17645
gfz2011rplo  -0.02347
gfz2011rqut  -0.22189
gfz2011scma  -0.43246
gfz2011sqco   0.23591
gfz2011sqxp   2.29200
gfz2011sskq  -0.18366
gfz2011swfp   0.00125
gfz2011sxno  -0.11709
gfz2011szis   0.38052
gfz2011tfor   0.03674
gfz2011tgon   0.13577
gfz2011tsgl   0.04714
gfz2011twpz   0.00859
gfz2011udjs  -0.69218
gfz2011udxo   0.24861
gfz2011ugbt   0.56842
gfz2011uowi  -0.68482
gfz2011urwz  -0.45217
gfz2011vahy  -0.14774
gfz2011vcyx  -0.39625
gfz2011wkja   0.11674
gfz2011wkyx  -0.30370
gfz2011wqth  -1.56550
gfz2011wzss  -0.25251
gfz2011xgwy  -0.03698
gfz2011xkka  -0.57561
gfz2011xwdv   0.43282
gfz2011yexx  -0.47632
gfz2011ykbd  -0.43981
gfz2011zdyf   0.39164
gfz2011zghc  -0.09135
gfz2011zgxn   0.98994
gfz2012agwh  -1.25120
gfz2012ahkl  -0.50064
gfz2012amjx   0.56097
gfz2012amvs  -0.28068
gfz2012arlo  -0.29194
gfz2012asin  -1.23410
gfz2012auqr   0.40590
gfz2012avvc  -0.30297
gfz2012beae  -0.43451
gfz2012bolx  -0.97707
gfz2012byrq  -1.36820
gfz2012byuk   0.12865
gfz2012cdju  -0.97836
gfz2012cfdw   0.29674
gfz2012cksh   0.58838
gfz2012cntu  -0.51941
gfz2012cvfr  -0.53993
gfz2012dbgt  -0.06808
gfz2012dejg   0.11392
gfz2012dleg   0.02638
gfz2012dpem  -0.50990
gfz2012dtdt   1.43400
gfz2012duvf  -2.38630
gfz2012dwwu  -0.04151
gfz2012dysu  -1.28300
gfz2012dzot  -0.32711
gfz2012erds   0.82886
gfz2012eyti   0.40313
gfz2012fcyq   0.24464
gfz2012fcyr   0.21958
gfz2012fhaf   1.04320
gfz2012foih   0.86123
gfz2012fyny  -0.32994
gfz2012ghiv   1.59140
gfz2012gjdg   0.25571
gfz2012gjtd  -0.37952
gfz2012gmsr  -0.72344
gfz2012grmf  -0.16674
gfz2012hnyy   0.73987
gfz2012hzur  -0.96823
gfz2012icjo  -0.34128
gfz2012iijk  -0.75998
gfz2012ipdc  -0.43279
gfz2012iroy   0.01996
gfz2012iyoi  -0.18603
gfz2012jlez  -0.51226
gfz2012jopi   0.87394
gfz2012jxxe   0.30445
gfz2012kmbo  -0.35093
gfz2012kmmz  -1.23830
gfz2012lcro   0.44326
gfz2012ldjj  -0.17288
gfz2012lqhw  -0.35263
gfz2012lvxx   0.50781
gfz2012lwha  -0.01679
gfz2012mdzf   1.37320
gfz2012mnth   0.81289
gfz2012moul   0.44810
gfz2012mout  -0.48880
gfz2012movu   0.25046
gfz2012movv   1.58560
gfz2012mrwu   0.03842
gfz2012mxvk   0.65184
gfz2012ndsk   0.23141
gfz2012nldz  -0.28937
gfz2012nnck   5.19700
gfz2012nnqu   0.65297
gfz2012nqvd  -0.69070
gfz2012nsxc   0.03530
gfz2012oafg  -0.99438
gfz2012oehy  -0.41633
gfz2012ofnx   0.64326
gfz2012ogqu  -0.16292
gfz2012oieq  -0.08811
gfz2012onfs  -0.16479
gfz2012onhu  -0.18348
gfz2012oork  -0.26204
gfz2012oozp   0.11711
gfz2012oxnh   0.58572
gfz2012pcui  -0.07999
gfz2012phns  -0.86172
gfz2012pifb  -0.10309
gfz2012pmuj  -0.12980
gfz2012pmuq  -0.17026
gfz2012pmws   0.10031
gfz2012ppsw   0.11886
gfz2012pziw   0.20541
gfz2012qbbt  -0.46900
gfz2012qfah  -0.71712
gfz2012qfov  -0.23212
gfz2012qmhz  -0.91571
gfz2012qpoc   0.61478
gfz2012rjlp   1.14560
gfz2012rnbw  -0.20618
gfz2012rzwp  -0.71099
gfz2012sbix   0.11116
gfz2012smyn   1.40980
gfz2012socz  -0.89190
gfz2012sopp  -0.22663
gfz2012sqsc  -0.13710
gfz2012ssnb  -0.83464
gfz2012suqd  -1.62590
gfz2012svwz   0.21522
gfz2012sxpr  -0.13573
gfz2012tisj  -0.62249
gfz2012tjih  -0.73093
gfz2012tsdz   0.26127
gfz2012uegq  -0.51539
gfz2012uhtc  -0.39841
gfz2012ukzg   0.63963
gfz2012ulei  -1.19700
gfz2012uvoa   0.04029
gfz2012vcqw   0.02623
gfz2012vile  -0.32189
gfz2012vurc   2.27230
gfz2012wgmg  -0.41572
gfz2012wiyv  -0.35404
gfz2012wjpf  -0.07930
gfz2012wjxc  -0.02166
gfz2012wkki   0.16471
gfz2012wmas  -0.50566
gfz2012wowu  -0.83186
gfz2012xjgb   0.15909
gfz2012xlfo  -0.47555
gfz2012xncm  -0.90117
gfz2012xqxw  -0.40355
gfz2012xwgb  -2.09050
gfz2012xwkx   0.92197
gfz2012xxdj   0.84720
gfz2012yegw  -0.34793
gfz2012yncm  -1.53260
gfz2012yytb   0.09622
gfz2012yzcf  -0.03892
gfz2012zkhu  -0.90498
gfz2012zktj   1.34270
gfz2012zmfc   0.79064
gfz2013agmt  -0.27485
gfz2013ascz   0.61637
gfz2013atak  -0.25212
gfz2013bqfc  -0.21999
gfz2013bwgw   0.18285
gfz2013cfls  -0.17963
gfz2013cokc  -0.26982
gfz2013cqee  -0.37282
gfz2013cyvx  -0.28884
gfz2013ddrx   0.02827
gfz2013delq  -0.64809
gfz2013dftb  -0.30800
gfz2013dfvx  -0.85282
gfz2013dksc   0.12426
gfz2013dngd  -0.01636
gfz2013dwsp  -1.44570
gfz2013dzvr  -0.26509
gfz2013eidd   0.12321
gfz2013enga   0.22543
gfz2013esef   1.05170
gfz2013ffjt   0.60694
gfz2013fmcp   0.48924
gfz2013fnpa  -0.95347
gfz2013fulo  -0.10225
gfz2013fwbm  -0.50186
gfz2013fybd  -0.27337
gfz2013gsnl  -0.80754
gfz2013gugi  -0.25904
gfz2013gurk   2.04890
gfz2013gyce   0.44371
gfz2013hdbp   0.20627
gfz2013hduf   0.50644
gfz2013hjtt  -0.20421
gfz2013hwps   1.56080
gfz2013irme  -0.16958
gfz2013isqh   0.08837
gfz2013iuyv  -1.70530
gfz2013iwzn  -0.44665
gfz2013iybv  -0.18385
gfz2013jfcn  -0.48515
gfz2013jhog  -0.22308
gfz2013kats   0.27452
gfz2013kbbg  -0.03570
gfz2013kcdb  -0.13877
gfz2013kjgh   0.09797
gfz2013kpcb  -0.27459
gfz2013kqab   0.08073
gfz2013kslp  -0.74449
gfz2013lbvl  -0.37790
gfz2013lnne   1.29910
gfz2013mbna   0.33266
gfz2013mdnp   0.31426
gfz2013mimp  -0.72081
gfz2013mvgq  -0.06519
gfz2013mynb   0.91114
gfz2013mzaw  -0.34330
gfz2013nhkw   0.13419
gfz2013njjh  -0.92145
gfz2013ohdt  -0.09080
gfz2013oizq  -0.33462
gfz2013onvl  -0.54299
gfz2013opkx   0.03952
gfz2013orot   0.28844
gfz2013osmj  -0.72265
gfz2013oywh  -0.40244
gfz2013phhi  -0.32286
gfz2013pkmz  -0.20977
gfz2013pqkp   0.10679
gfz2013pvsa   0.01146
gfz2013qaov   0.97557
gfz2013qigb  -0.01295
gfz2013qoak  -1.43850
gfz2013qxof  -0.57153
gfz2013rdmn  -1.02730
gfz2013rofg  -0.16020
gfz2013ryph  -0.13524
gfz2013sbsp   0.51200
gfz2013taeb  -0.50526
gfz2013tert  -0.40310
gfz2013tgyb  -0.39414
gfz2013twbc  -2.55620
gfz2013ubgt  -1.32880
gfz2013udtw  -0.41732
gfz2013unuv  -0.13715
gfz2013upqj   0.05298
gfz2013urla   0.03910
gfz2013uwxb   0.19649
gfz2013uxzw  -0.42452
gfz2013uzmf  -0.44644
gfz2013vjrr   1.47370
gfz2013vmrv  -1.20780
gfz2013vmsg  -0.95409
gfz2013vmsn  -0.02236
gfz2013vnwa  -0.77844
gfz2013vojy   0.48003
gfz2013vsdd  -0.46689
gfz2013vvre   1.05110
gfz2013vzel   0.33242
gfz2013wyfl  -0.32266
gfz2013xahp   2.08180
gfz2013xmzw  -0.39980
gfz2013xofz  -0.57033
gfz2013xswc  -0.39496
gfz2013yawe   0.72003
gfz2013yihv  -0.09695
gfz2013yqtu  -1.04080
gfz2013zedt  -0.21679
gfz2013zfbz   0.26823
gfz2013zlak  -0.84138
gfz2013zpse   0.40357
gfz2014aedl  -0.15271
gfz2014afbt  -0.19130
gfz2014ajgi   0.51354
gfz2014avmd  -0.10838
gfz2014avzp   0.12395
gfz2014ayxf   0.04120
gfz2014bkra  -0.27778
gfz2014bmqw   0.29002
gfz2014bnea   0.02096
gfz2014bumr  -0.88589
gfz2014cgxj   0.10593
gfz2014cjao  -1.11860
gfz2014dbmu  -0.00120
gfz2014dggw  -0.24885
gfz2014diuu  -0.20763
gfz2014dutu  -0.12759
gfz2014dykt  -1.92890
gfz2014eglj   3.36320
gfz2014eirs  -0.34419
gfz2014epfm  -0.06349
gfz2014epnq  -0.69943
gfz2014etqu   0.08819
gfz2014eysf   0.70568
gfz2014flxk  -1.31400
gfz2014fsir  -1.62730
gfz2014fxuy   0.15328
gfz2014gnbw  -0.18543
gfz2014gqxg   0.27699
gfz2014gypw  -0.03396
gfz2014hapg  -0.60113
gfz2014huqh  -0.46585
gfz2014hyea   0.24968
gfz2014hzzf  -0.92613
gfz2014iaqm   0.12878
gfz2014iayo   1.11840
gfz2014ijsa  -3.69970
gfz2014inrg  -0.50613
gfz2014iusw  -1.78750
gfz2014jarg  -0.18657
gfz2014jayh  -0.60950
