# Nsamples: 956  MAD:  0.421  mean: -0.022  std:  0.704
gfz2010afyi  -0.14168
gfz2010aggj   0.33713
gfz2010aseg   0.31469
gfz2010asxa   0.61309
gfz2010axdz   0.33364
gfz2010azji  -0.00881
gfz2010bgrt   3.62050
gfz2010bkfi   0.28993
gfz2010bmls   0.16343
gfz2010bnbr   0.23388
gfz2010bqnk   0.14912
gfz2010btme   0.35842
gfz2010bukb  -0.01980
gfz2010bvit  -0.57596
gfz2010byau  -0.04161
gfz2010cbnp  -0.20334
gfz2010ccwc  -0.24198
gfz2010ccye   0.19098
gfz2010cdnv   0.92262
gfz2010clbw   0.33695
gfz2010cllh   0.67472
gfz2010colm   0.00655
gfz2010cphq   0.38234
gfz2010cpig   0.51737
gfz2010crgy   0.01803
gfz2010crir  -0.06464
gfz2010csle   0.53621
gfz2010ctak   0.80017
gfz2010cthm  -0.63700
gfz2010cwrk   0.10944
gfz2010cyid   0.94556
gfz2010dask  -0.25877
gfz2010depd   2.27240
gfz2010djib   0.63360
gfz2010dmij  -0.76614
gfz2010dmkd  -0.04491
gfz2010drit   0.15587
gfz2010drml  -0.79293
gfz2010drmq  -0.79293
gfz2010drng  -0.36277
gfz2010drpv   0.36825
gfz2010drun  -0.55009
gfz2010dsjq  -0.52639
gfz2010dtgc   0.15504
gfz2010dtyx   0.09776
gfz2010dwgy   0.13272
gfz2010dxhq  -2.65800
gfz2010eibh   0.13320
gfz2010eqyj  -0.51022
gfz2010ewyj  -0.30552
gfz2010fgbo  -0.16047
gfz2010fjio   0.28779
gfz2010fjme   0.17824
gfz2010fkpa   0.11128
gfz2010fopf   0.08433
gfz2010fvfz   0.46122
gfz2010fxut   0.87108
gfz2010gonu  -0.01235
gfz2010gooc   0.45890
gfz2010guwa   0.03282
gfz2010gxki  -0.16961
gfz2010habf   0.22352
gfz2010hesh   0.20265
gfz2010hexh  -0.14535
gfz2010hnuo  -0.28841
gfz2010hsgv   0.07981
gfz2010hueh  -0.63280
gfz2010huzl  -0.86419
gfz2010hxan  -0.22164
gfz2010iaay  -0.19788
gfz2010iawy  -0.85834
gfz2010ioad   0.81799
gfz2010izgb   3.82270
gfz2010jcby   0.05493
gfz2010jkrp  -0.41720
gfz2010jlvp   0.03068
gfz2010jpkn   0.27227
gfz2010kcdq  -0.04421
gfz2010kcyz  -0.20657
gfz2010kzzm   4.46460
gfz2010ljmp   0.68171
gfz2010lswe  -0.78363
gfz2010lvnj  -0.31867
gfz2010mguv   0.39907
gfz2010mnoc  -0.44754
gfz2010mpvc  -0.07997
gfz2010mqaj   0.71535
gfz2010mqzz   0.24748
gfz2010msss  -0.61188
gfz2010mvmb   1.00580
gfz2010mvtj   0.18595
gfz2010mwmd  -0.13731
gfz2010mzfb   1.56490
gfz2010nbcr  -0.16885
gfz2010ncwu   0.05577
gfz2010ngge  -0.39786
gfz2010nlai  -0.01810
gfz2010novb  -0.47207
gfz2010nteg   0.84363
gfz2010nwbd  -0.34278
gfz2010nwyk  -0.51927
gfz2010oguu  -0.17227
gfz2010ogwn   0.21984
gfz2010ojhe  -0.14381
gfz2010okpc  -0.10303
gfz2010okww  -0.04975
gfz2010osrl   0.26888
gfz2010ouvm  -0.16783
gfz2010ovvg   0.07505
gfz2010pclq  -0.82992
gfz2010pdip  -0.30900
gfz2010pgpo  -0.44803
gfz2010pgrf   0.34112
gfz2010pngv  -0.40558
gfz2010pvnn  -0.33822
gfz2010pxoi  -0.29555
gfz2010qdqk  -1.01390
gfz2010qloa  -0.26565
gfz2010qqqx  -0.08079
gfz2010qrix  -0.57130
gfz2010qrta   0.20676
gfz2010qykh  -0.19881
gfz2010qylh  -0.29953
gfz2010qzvf   0.09189
gfz2010rdep  -0.21003
gfz2010rhvu  -0.73714
gfz2010rkuu   0.02347
gfz2010rljv  -0.34539
gfz2010rmua  -0.32906
gfz2010rnqa  -0.17372
gfz2010rnwt  -1.93310
gfz2010rpjd  -0.09507
gfz2010schp   0.25104
gfz2010scht   0.63280
gfz2010sdfs  -0.16067
gfz2010sftm  -0.03157
gfz2010sook  -0.11585
gfz2010swqy   0.08254
gfz2010sylk   0.06396
gfz2010syqh  -1.18050
gfz2010tcgh  -0.74601
gfz2010tmba  -0.08088
gfz2010tmne  -0.22283
gfz2010tpcj  -0.16342
gfz2010tqyo   0.43202
gfz2010tvit   0.35568
gfz2010tzlz  -0.23732
gfz2010tzma   0.91697
gfz2010ugws  -0.45955
gfz2010uhjy   0.73332
gfz2010uidg   1.35710
gfz2010upod  -0.13187
gfz2010uqba   0.77466
gfz2010uraq  -1.29850
gfz2010ussf   0.10119
gfz2010uyng   0.16848
gfz2010vhzx  -0.04324
gfz2010viyi  -0.20696
gfz2010vjac  -0.24261
gfz2010vong  -0.60850
gfz2010vxwv   0.30987
gfz2010vybx  -0.60078
gfz2010vyri  -0.07520
gfz2010wakc  -0.10263
gfz2010wigk   0.16729
gfz2010wtin   0.13252
gfz2010wwnq  -0.35642
gfz2010wyuj   1.74490
gfz2010xamh  -0.16025
gfz2010xaxw   0.01282
gfz2010xezr   0.10586
gfz2010xjsv   0.35974
gfz2010xkbz  -0.21739
gfz2010xnbn   0.67697
gfz2010xnwf   0.05702
gfz2010xpzq   0.36980
gfz2010xvev  -0.11873
gfz2010xzte   0.15831
gfz2010yczp  -0.11726
gfz2010yfdr  -0.43463
gfz2010ygrd  -0.32526
gfz2010yhdn  -0.13344
gfz2010yhhj   0.10539
gfz2010yrex  -0.51522
gfz2010zaxv  -0.49425
gfz2010zhvj  -0.27664
gfz2010zjun  -0.31584
gfz2010zkle  -1.03600
gfz2011amst  -0.17565
gfz2011aqpp   0.15212
gfz2011bpqm   0.30643
gfz2011bqbx   3.61410
gfz2011bvog  -1.46610
gfz2011bwsm  -0.57694
gfz2011byec   0.34303
gfz2011bygs  -0.32476
gfz2011bygu   0.06474
gfz2011bzio  -0.21463
gfz2011cdge  -0.29813
gfz2011cjcv   0.37442
gfz2011cjuz   0.13839
gfz2011cxbw  -7.78320
gfz2011cxdj  -0.08046
gfz2011dabj   0.39656
gfz2011dhqk   0.02212
gfz2011dtcb   0.10533
gfz2011duvm  -0.14761
gfz2011dwae  -0.29444
gfz2011dzmf  -0.02192
gfz2011ecce   0.62701
gfz2011emzr  -0.87228
gfz2011exxq   0.42403
gfz2011fnie  -0.61737
gfz2011fnuk   0.28701
gfz2011fnxz  -0.42337
gfz2011fszl   0.08478
gfz2011fxmf  -0.53818
gfz2011fyfu  -0.24363
gfz2011fzcw  -0.28046
gfz2011gaax   0.02551
gfz2011gcct   0.30601
gfz2011gfer   0.80545
gfz2011ggnl   0.86934
gfz2011ggsz  -0.42416
gfz2011gkdx  -0.22248
gfz2011gnbk  -0.27750
gfz2011gpyr  -0.33401
gfz2011gzde   0.33645
gfz2011haaa   0.56900
gfz2011hffq  -0.32527
gfz2011hibi  -1.14960
gfz2011hjof   0.23421
gfz2011hmnw  -0.15895
gfz2011hqjs  -0.05450
gfz2011hvzo  -0.87000
gfz2011hwbn   0.04461
gfz2011hyct  -0.34641
gfz2011hyuh  -0.56677
gfz2011iamf  -0.45198
gfz2011ibew   0.18477
gfz2011ifta  -0.33522
gfz2011inan  -0.47053
gfz2011ioch  -1.01190
gfz2011kjzt  -0.10556
gfz2011kjzv  -1.57550
gfz2011kylu  -0.39037
gfz2011kymm   1.13250
gfz2011lkkf   0.33322
gfz2011lmug   0.64179
gfz2011lnzf   0.89348
gfz2011lrpv   0.08541
gfz2011lxga   0.48357
gfz2011lykm   0.10334
gfz2011lywj  -0.04225
gfz2011mdyq  -0.37112
gfz2011melb  -1.40680
gfz2011mimz  -0.25384
gfz2011mjje  -0.08601
gfz2011mllb  -0.08700
gfz2011mntq  -0.39916
gfz2011moob   3.96680
gfz2011mror  -0.10462
gfz2011mrpy   1.60480
gfz2011mryu   0.65924
gfz2011mzvn  -0.22315
gfz2011nblt  -0.42656
gfz2011ndki  -0.30435
gfz2011ndlh  -0.00000
gfz2011ndoe  -0.98637
gfz2011ndse   0.38417
gfz2011ndvj  -0.02144
gfz2011neai   0.46164
gfz2011nejg  -0.19664
gfz2011nejw   0.24937
gfz2011nfcz   0.14683
gfz2011nfln   0.10130
gfz2011nftw   0.88407
gfz2011nhby   0.28340
gfz2011nhhd  -0.09619
gfz2011nhjv   3.97520
gfz2011nhvt   0.82155
gfz2011nhwf   0.64907
gfz2011nifi  -0.03692
gfz2011nihq   0.54104
gfz2011nijp   0.47255
gfz2011nilw  -0.78877
gfz2011niuw  -0.13443
gfz2011nivw   0.06673
gfz2011nkou  -0.44827
gfz2011nlmf  -2.43650
gfz2011nlnl  -0.86538
gfz2011nlok   0.84355
gfz2011nlum   0.58844
gfz2011nlyw  -3.61280
gfz2011nmdz  -0.16173
gfz2011nmhg   0.35493
gfz2011nnda   0.47563
gfz2011nnos  -1.22230
gfz2011nsiy  -0.20516
gfz2011nsrx   0.13035
gfz2011nuqo  -0.60837
gfz2011nvty   0.08017
gfz2011nyzk   0.34660
gfz2011oadm  -0.12591
gfz2011oazk  -0.16222
gfz2011ocif   1.00780
gfz2011ofpj  -0.16741
gfz2011okza   0.13359
gfz2011omxt  -0.26592
gfz2011oqjl  -0.15785
gfz2011osmp  -0.30850
gfz2011owqa   0.55221
gfz2011paqj  -0.10615
gfz2011pbgh  -0.78715
gfz2011pdgq  -0.31720
gfz2011pdsn   1.15440
gfz2011pfls  -0.05578
gfz2011pfwq  -0.16577
gfz2011pgzk  -0.00448
gfz2011pivq   0.29231
gfz2011plzc   0.01998
gfz2011pmuv  -0.03382
gfz2011poug   0.06140
gfz2011pphc  -0.34323
gfz2011ppsc  -0.02684
gfz2011prrq   0.20639
gfz2011ptgd  -0.21995
gfz2011pulu   0.53827
gfz2011pwbw   0.03273
gfz2011pwld  -0.07032
gfz2011qasw  -0.18951
gfz2011qenl  -0.19562
gfz2011qgea   0.37720
gfz2011qgvh  -0.25325
gfz2011qgvx  -2.68630
gfz2011qhjw  -0.38765
gfz2011qidi  -0.10872
gfz2011qklh  -0.98622
gfz2011qowe  -1.07630
gfz2011qtoy   0.00000
gfz2011qukj  -0.20130
gfz2011rkau  -0.84815
gfz2011rnny   0.09097
gfz2011rnsp  -0.07955
gfz2011rplo   0.43512
gfz2011rpoo   0.51683
gfz2011rqut  -0.17933
gfz2011scma  -0.31556
gfz2011sdax  -0.23732
gfz2011sdpl  -0.12317
gfz2011sfmu   0.27403
gfz2011sfph   0.30591
gfz2011sqco   0.03379
gfz2011sqxp  -0.80933
gfz2011sskq  -0.42120
gfz2011swfp  -0.16145
gfz2011sxno  -0.21488
gfz2011sylg   0.13130
gfz2011syvj   0.13883
gfz2011szis  -0.31378
gfz2011taqr   0.24962
gfz2011tarj   0.02240
gfz2011tdjj   0.01354
gfz2011tfor  -0.29215
gfz2011tgon  -0.00000
gfz2011tjpv  -0.06319
gfz2011tqgg  -0.24059
gfz2011tsgl   0.10258
gfz2011tssv  -0.45074
gfz2011tvuv   0.22618
gfz2011twpz  -0.10125
gfz2011txxs  -0.52893
gfz2011udjs  -0.19244
gfz2011udxo  -0.33046
gfz2011ugbt  -0.54770
gfz2011unud   0.19650
gfz2011uowi  -0.33875
gfz2011urwz  -0.36352
gfz2011vahy   0.14909
gfz2011vaoi  -0.34194
gfz2011vcyx  -0.58060
gfz2011vimn   0.36331
gfz2011vsag   0.64457
gfz2011vtdl  -0.12589
gfz2011vtzv  -0.38444
gfz2011vxek  -0.17100
gfz2011wbtc   0.25383
gfz2011wkja   0.52235
gfz2011wkyx  -0.05652
gfz2011wngi  -0.00000
gfz2011wtfn   0.51185
gfz2011wucg  -0.16759
gfz2011wwze   0.15449
gfz2011wyei   0.45275
gfz2011xdox   3.00190
gfz2011xgbc   1.06220
gfz2011xgwy   0.01817
gfz2011xkka   0.29999
gfz2011xlod   0.67309
gfz2011xnui   0.02649
gfz2011xpcq  -0.06852
gfz2011xwdv   0.24658
gfz2011yeck   0.07013
gfz2011yexx  -0.29622
gfz2011ykbd   0.18448
gfz2011ymji  -1.04240
gfz2011ytwk   0.33936
gfz2011zghc  -0.10383
gfz2011zgxn  -0.30159
gfz2011zkbt   0.86299
gfz2012agwh  -0.73001
gfz2012ahac  -0.20901
gfz2012ahkl  -0.44277
gfz2012alti  -0.17619
gfz2012amjx   0.06846
gfz2012amvs   0.42973
gfz2012aqpa   0.25883
gfz2012arlo  -0.16836
gfz2012asin  -1.78030
gfz2012atjr  -0.24295
gfz2012auqr  -0.73595
gfz2012avvc   0.75739
gfz2012axrp  -0.18064
gfz2012beae   0.31893
gfz2012bjhl  -0.10159
gfz2012bnwa   0.31827
gfz2012bolx   0.00783
gfz2012bovy   0.05552
gfz2012brrg   0.03238
gfz2012byrq  -0.45190
gfz2012bysu  -0.42429
gfz2012bytv   0.85421
gfz2012byuk   1.09520
gfz2012cdju  -0.16490
gfz2012cfdw   0.36159
gfz2012cksh   0.35181
gfz2012cmww  -0.36183
gfz2012cntu  -0.20112
gfz2012cvfr  -0.10506
gfz2012dbgt  -0.18224
gfz2012dejg   0.13722
gfz2012dgfk  -0.23273
gfz2012dleg   0.12431
gfz2012dluf   0.88408
gfz2012dnig  -0.02103
gfz2012dpem  -0.39394
gfz2012dpnu   0.11495
gfz2012dpwv   0.51622
gfz2012drak  -0.09617
gfz2012drld   0.01043
gfz2012dttl   0.27078
gfz2012dtvr  -0.87491
gfz2012dugf   0.41494
gfz2012duvf   1.93370
gfz2012duwm  -0.00000
gfz2012dwwu  -0.08143
gfz2012dyck   0.18521
gfz2012dysj   0.69144
gfz2012dysu   0.75708
gfz2012dzen  -0.15654
gfz2012dzjo   0.09826
gfz2012dzot  -0.70472
gfz2012eajr  -2.31450
gfz2012eary   1.64320
gfz2012ebff   0.00000
gfz2012ebgo  -0.79040
gfz2012ebhf  -0.47020
gfz2012ebrr  -0.08482
gfz2012eeft   0.36320
gfz2012enrg   0.13619
gfz2012erds  -0.44417
gfz2012evav   0.07157
gfz2012evxn   0.91231
gfz2012eyti  -0.18281
gfz2012fcyq   0.30842
gfz2012fcyr   0.29609
gfz2012fhaf  -0.29089
gfz2012flqf   0.20058
gfz2012foih   0.75470
gfz2012fuyd   0.40739
gfz2012fxgc  -0.52247
gfz2012fyny  -0.15619
gfz2012gdye   0.50318
gfz2012ghiv  -0.03714
gfz2012gjdg  -0.02804
gfz2012gmsr  -0.36286
gfz2012gnow  -0.31775
gfz2012grmf   0.33871
gfz2012gvxc  -0.40599
gfz2012hdny  -0.27261
gfz2012heih   0.10895
gfz2012hmcv   0.12968
gfz2012hvjc   0.88104
gfz2012hwph  -0.23066
gfz2012hyqh   0.12641
gfz2012hzhn   0.25867
gfz2012hzur  -0.88548
gfz2012iblc  -0.30600
gfz2012iblo   0.94261
gfz2012ibyd   0.49297
gfz2012icjo   0.33391
gfz2012iedy   0.29883
gfz2012ieln   0.00008
gfz2012iijk  -0.44107
gfz2012iotw   0.37002
gfz2012ipdc   0.84979
gfz2012iroy   0.03589
gfz2012ivyg  -0.84435
gfz2012iyhs   0.29731
gfz2012iyoi  -0.67559
gfz2012izke  -0.15049
gfz2012jaun  -0.43334
gfz2012jetp  -0.08343
gfz2012jihg   0.51209
gfz2012jjxm   0.33854
gfz2012jlez  -0.33674
gfz2012jnlt   0.21123
gfz2012jodg   0.16101
gfz2012jopi  -0.11605
gfz2012jqxx  -0.78154
gfz2012jxnm   0.62494
gfz2012jxxe  -0.03826
gfz2012jyhb  -0.22046
gfz2012kmbo  -0.02829
gfz2012kmmz  -0.40795
gfz2012kstg  -0.24985
gfz2012kwmx   0.12594
gfz2012lcro  -0.28016
gfz2012ldjj  -0.22998
gfz2012lqhw  -0.31398
gfz2012lvlr   0.13839
gfz2012lwha   0.00000
gfz2012mdzf   0.32054
gfz2012mjuu   0.29031
gfz2012mnth  -0.20095
gfz2012moul   0.02956
gfz2012mout   3.32210
gfz2012movu  -0.32525
gfz2012movv  -0.81818
gfz2012mowv  -0.09195
gfz2012mpvl   0.93194
gfz2012mrqk  -0.06809
gfz2012mrwu   0.15724
gfz2012mtyn   0.53118
gfz2012mwhe  -0.27421
gfz2012mxdk  -0.98725
gfz2012mxvk  -2.05270
gfz2012mzco  -0.47058
gfz2012mzqx   0.16171
gfz2012ndsk   0.59797
gfz2012ndwt  -0.06915
gfz2012nfzc  -0.54625
gfz2012nldz   0.52270
gfz2012nmja   0.95754
gfz2012nnck   0.20870
gfz2012nnqu  -0.09644
gfz2012nqvd  -0.19050
gfz2012nsxc   0.03325
gfz2012oafg   0.33467
gfz2012oehy   0.38768
gfz2012ofnx  -0.84390
gfz2012ogqu  -0.77745
gfz2012ohgd   0.15522
gfz2012oieq   0.21943
gfz2012onfs  -0.28069
gfz2012onhu   0.28751
gfz2012ooij  -0.04373
gfz2012oork  -0.27937
gfz2012oozp   0.41415
gfz2012oxnh   0.10265
gfz2012pcui  -0.15090
gfz2012pdfi  -0.59574
gfz2012pdjt   0.22573
gfz2012phns  -0.12207
gfz2012pifb  -0.08901
gfz2012pmuj   0.12326
gfz2012pmuq  -0.74939
gfz2012pmws  -0.67858
gfz2012ppcq   0.20424
gfz2012ppsw  -0.90442
gfz2012prke   0.01170
gfz2012pumy  -0.15066
gfz2012pvve   0.17946
gfz2012pziw   0.18687
gfz2012qbbt  -0.23067
gfz2012qfah   1.92610
gfz2012qfov   1.56840
gfz2012qibe  -1.88290
gfz2012qmhz  -0.60854
gfz2012qmxz  -0.19556
gfz2012rfhw   0.66536
gfz2012rjlp   0.56838
gfz2012rknz   0.00228
gfz2012rnbw   0.09367
gfz2012rnml   0.29948
gfz2012roan  -0.21337
gfz2012rzwp  -0.93473
gfz2012sbix  -0.12981
gfz2012scuk   0.30225
gfz2012sgfd  -0.02149
gfz2012sjox  -0.44467
gfz2012slfd  -0.82652
gfz2012smyn  -0.14890
gfz2012socz  -0.53656
gfz2012sopp   0.01426
gfz2012sqsc  -0.32154
gfz2012ssnb  -0.40034
gfz2012stxx   0.15473
gfz2012suqd  -0.47777
gfz2012svwz   0.04688
gfz2012sxpr   0.02212
gfz2012syum  -0.36525
gfz2012tfij  -1.85490
gfz2012tisj  -0.67889
gfz2012tjih   0.48661
gfz2012trfq  -0.67423
gfz2012trss  -0.16092
gfz2012tsdz   0.19399
gfz2012twec  -0.38315
gfz2012udxg   1.60010
gfz2012uhsx  -0.00247
gfz2012uhtc   0.08505
gfz2012ukzg   0.29213
gfz2012ulei  -0.84603
gfz2012umob   0.13519
gfz2012unxc  -0.03614
gfz2012uovh  -0.30795
gfz2012utdu  -0.02736
gfz2012uwne   0.23972
gfz2012uzww  -0.34498
gfz2012vaqd  -0.31541
gfz2012vcqw  -0.22121
gfz2012vile  -0.07641
gfz2012vitw  -0.02063
gfz2012vkjw   0.54053
gfz2012vqmq  -0.58852
gfz2012vrqz   0.11601
gfz2012vurc  -0.10966
gfz2012wbeu   0.22385
gfz2012wgdv  -0.17328
gfz2012wgmg  -0.66274
gfz2012wiyv  -1.28250
gfz2012wjpf   0.04199
gfz2012wjsi   0.84866
gfz2012wjxc   0.69460
gfz2012wkki   0.12127
gfz2012wmas  -0.81607
gfz2012wowu  -0.98427
gfz2012woxj  -0.27417
gfz2012wpen   1.52580
gfz2012wysg   0.28285
gfz2012wzja   0.48162
gfz2012xask   0.00642
gfz2012xcsf  -0.12778
gfz2012xfnu  -0.47485
gfz2012xjgb  -0.52138
gfz2012xkln   0.87677
gfz2012xlas  -0.17459
gfz2012xlfo  -0.34491
gfz2012xmwt  -0.28045
gfz2012xncm  -0.63021
gfz2012xtvu  -0.24005
gfz2012xwkx  -0.89959
gfz2012xxdj  -0.44529
gfz2012yegw  -0.35454
gfz2012ylai   0.34668
gfz2012yncm   1.64880
gfz2012yvwc   0.29807
gfz2012ywei  -0.10138
gfz2012yytb   0.09360
gfz2012yzcf  -0.36230
gfz2012yzih  -0.16156
gfz2012zhyz  -0.01806
gfz2012zkhu  -0.92208
gfz2012zktj   1.39080
gfz2012zmdf  -0.02193
gfz2012zmfc  -0.29767
gfz2012znou  -0.86924
gfz2013aclz   1.10070
gfz2013agbm  -1.10150
gfz2013agmt  -0.39657
gfz2013ajxz   0.42179
gfz2013ascz   0.62629
gfz2013atak   0.46913
gfz2013aymi   0.25940
gfz2013bdvi  -0.16437
gfz2013bqfc   1.16350
gfz2013bwgw  -0.07680
gfz2013byyy  -0.51270
gfz2013ccng  -0.11410
gfz2013cfls  -0.35242
gfz2013ciof  -0.06439
gfz2013cokc   0.43821
gfz2013cqee  -0.26481
gfz2013cyvx  -0.11956
gfz2013ddrx  -0.35761
gfz2013delq   0.07171
gfz2013dftb   0.29581
gfz2013dfvx   0.32725
gfz2013djfi  -0.15998
gfz2013dksc  -0.34995
gfz2013dngd   0.01477
gfz2013dwsp  -1.07600
gfz2013dznt   2.26320
gfz2013dzvr  -0.47919
gfz2013eazm   0.40589
gfz2013efct  -0.08851
gfz2013efys  -0.38634
gfz2013eidd  -0.31527
gfz2013ektd  -0.34798
gfz2013enga  -0.06088
gfz2013esef  -0.41916
gfz2013evcl   0.32038
gfz2013ewht  -0.44855
gfz2013exow  -0.08487
gfz2013ezmc  -0.43093
gfz2013ffjt  -0.35041
gfz2013fmcp   0.40495
gfz2013fndg   0.55148
gfz2013fnpa  -0.19704
gfz2013fthi   0.10006
gfz2013fulo   0.22339
gfz2013fvyr   0.06719
gfz2013fvzv  -0.06103
gfz2013fwbm  -0.85999
gfz2013fxyr   0.21535
gfz2013fybd   0.10067
gfz2013gbki   0.27916
gfz2013gffe   0.36879
gfz2013gjmk  -0.12424
gfz2013gkyn  -0.12646
gfz2013glkq  -0.56325
gfz2013gomv   0.02347
gfz2013gsnl  -0.19414
gfz2013gyce   0.18696
gfz2013hdbp  -0.34283
gfz2013hduf  -0.30425
gfz2013hinw  -1.17930
gfz2013hjtt  -0.22393
gfz2013hqaa  -0.28031
gfz2013hqcd   0.79565
gfz2013hvzv   0.13551
gfz2013hwps  -0.63759
gfz2013idqu   0.10710
gfz2013ifag  -0.58647
gfz2013irme  -0.16539
gfz2013iuyv   0.57468
gfz2013iwzn  -0.27472
gfz2013iybv  -0.18958
gfz2013jcnn  -0.42436
gfz2013jfcn  -0.30073
gfz2013jhog   0.35890
gfz2013jlli   0.66858
gfz2013jobl  -0.32550
gfz2013jpir  -0.24878
gfz2013jqsk  -0.01373
gfz2013jtsg  -0.58503
gfz2013kats   0.42387
gfz2013kbbg   0.49402
gfz2013kbbn  -0.15612
gfz2013kbkp  -0.29920
gfz2013kjgh  -0.27871
gfz2013kpcb  -0.22320
gfz2013kqab  -0.39678
gfz2013ksaz  -0.01383
gfz2013kslp  -0.03866
gfz2013kxof   0.91768
gfz2013lbod  -0.10406
gfz2013lbvl  -0.03029
gfz2013lgvf   0.13129
gfz2013ljdu   0.17565
gfz2013lqjj   0.49070
gfz2013lrkp   0.30510
gfz2013mbna  -0.54653
gfz2013mdnp   0.05625
gfz2013mdxj  -0.66652
gfz2013mimp   0.25299
gfz2013mktp   0.09655
gfz2013mnux  -1.17140
gfz2013mvgq  -0.04314
gfz2013mzaw   0.36064
gfz2013nhkw   0.43613
gfz2013njjh  -0.08185
gfz2013nkgd   0.47003
gfz2013ntfc   0.19855
gfz2013ntiu  -0.68887
gfz2013ntxw  -0.79734
gfz2013oeni   0.23141
gfz2013ohdt  -0.05508
gfz2013ohnj  -0.09699
gfz2013oizq  -0.44185
gfz2013ojza  -0.80185
gfz2013okac  -0.21908
gfz2013olos   0.02917
gfz2013onvl  -0.24940
gfz2013opkx   0.34036
gfz2013orot  -2.29500
gfz2013ortl  -0.14890
gfz2013oruq   0.12822
gfz2013osmj   0.41559
gfz2013otuj  -0.07042
gfz2013oywh  -0.40662
gfz2013phhi   0.25632
gfz2013phly  -0.17520
gfz2013pizm   0.55790
gfz2013pqkp  -0.50750
gfz2013puiy  -0.80337
gfz2013pvsa  -0.09306
gfz2013qaov  -0.31112
gfz2013qapj   0.06466
gfz2013qdno   0.09951
gfz2013qdpv   0.26807
gfz2013qigb   0.66183
gfz2013qmkt   0.95750
gfz2013qntl   0.03235
gfz2013qoak  -0.70650
gfz2013qogb   0.05041
gfz2013qxof  -0.41650
gfz2013rdmn   0.58631
gfz2013rfik   0.32352
gfz2013rgcc   0.32801
gfz2013rnsa   0.20391
gfz2013rocs   0.26538
gfz2013rofg  -0.29503
gfz2013rsyt  -0.44824
gfz2013rtvy   0.08278
gfz2013rwkj   0.16569
gfz2013rwog   1.04210
gfz2013ryph   0.13490
gfz2013sbsp  -0.36255
gfz2013sdkg  -0.41173
gfz2013suck   0.31458
gfz2013taeb  -0.59922
gfz2013tert  -0.41800
gfz2013tgyb  -0.27016
gfz2013wigs  -0.22832
gfz2013wpns   0.16380
gfz2013wyfl  -0.45591
gfz2013xahp  -0.30197
gfz2013xjmo  -0.11940
gfz2013xlic   0.08248
gfz2013xmzw  -0.23680
gfz2013xodn  -0.09807
gfz2013xofz  -0.64078
gfz2013xswc  -0.38181
gfz2013xuxr  -0.57017
gfz2013xvps   0.15812
gfz2013yawe   0.44808
gfz2013yihv  -0.23690
gfz2013ykqw   0.18946
gfz2013yktj   0.24915
gfz2013ymhx   0.08539
gfz2013yqtu  -0.69199
gfz2013ytfm  -0.70565
gfz2013yvnj   0.12322
gfz2013yvpn   0.04582
gfz2013yywh  -0.63334
gfz2013zedt   0.08002
gfz2013zfbz   0.04982
gfz2013zlak   0.09699
gfz2013zpwk   0.26360
gfz2014aaae   0.20319
gfz2014aedl   0.76978
gfz2014afbt   0.61191
gfz2014ajgi   0.39015
gfz2014alzg   1.04210
gfz2014aqax   0.46812
gfz2014aqop   0.67541
gfz2014avmd   0.34120
gfz2014avzp   0.10080
gfz2014ayxf  -0.00885
gfz2014bdju   0.30750
gfz2014bfjb   0.26682
gfz2014bhch   0.36266
gfz2014bkra  -0.35842
gfz2014bmqw  -0.30833
gfz2014bnea   0.31257
gfz2014bqpm   0.06977
gfz2014bumr  -0.10457
gfz2014bycg  -0.00000
gfz2014bzus   0.11943
gfz2014cgxj   0.11104
gfz2014cjao   0.45698
gfz2014club  -0.01660
gfz2014cncl   0.48734
gfz2014cokw   0.24311
gfz2014ctdl   0.47036
gfz2014cwcj  -0.79491
gfz2014cwti   0.15092
gfz2014dbmu   0.31876
gfz2014dggw  -2.53730
gfz2014diuu  -0.38115
gfz2014dpps  -0.46198
gfz2014dtth  -0.06858
gfz2014dtto  -0.03704
gfz2014dutu   0.15553
gfz2014dykt  -0.57798
gfz2014edjm   0.44063
gfz2014egvg   0.94178
gfz2014eirs   0.21333
gfz2014eoay   0.41141
gfz2014epnq  -0.28834
gfz2014epue  -0.15354
gfz2014esez  -0.03798
gfz2014etgp   0.23252
gfz2014etqu   0.30292
gfz2014eysf  -0.18713
gfz2014ezjq  -0.15658
gfz2014ezld   0.56319
gfz2014faex  -0.11937
gfz2014fbef  -0.11096
gfz2014fbli   0.04327
gfz2014fbnr  -0.99332
gfz2014ffqg   0.17083
gfz2014fgbn  -0.33640
gfz2014flxk   0.31411
gfz2014fmdc  -0.06255
gfz2014fsir  -0.11956
gfz2014fsje   0.13759
gfz2014fskh  -0.18458
gfz2014fwuf   0.18436
gfz2014fxtv  -0.04293
gfz2014fxuy  -0.21420
gfz2014gbxg  -1.12120
gfz2014gdbh  -0.36885
gfz2014ginr   0.10984
gfz2014gnbw   0.23260
gfz2014gnvp   0.20536
gfz2014gqxg   0.52340
gfz2014grwv   0.23970
gfz2014gssz  -0.19849
gfz2014gutd   0.36610
gfz2014gypw  -0.21202
gfz2014hapg  -1.09040
gfz2014happ   0.39635
gfz2014hgjb  -0.01115
gfz2014hhis  -0.02114
gfz2014hkcw   0.47816
gfz2014huah  -0.13142
gfz2014huqh   0.12780
gfz2014hyea   0.08233
gfz2014hzzf  -0.70989
gfz2014iaqm   0.48185
gfz2014iayo   0.70291
gfz2014icov   0.54783
gfz2014igrp  -0.12913
gfz2014ijsa  -0.29177
gfz2014ined  -0.20928
gfz2014inrg   0.62007
gfz2014irly  -0.15169
gfz2014iusw   0.41947
gfz2014iyuc  -1.01790
gfz2014jarg   0.22574
gfz2014jayh   0.23442
gfz2014jbfp  -3.00260
gfz2014jffe  -0.89506
