# Nsamples: 792  MAD:  0.554  mean: -0.026  std:  0.766
gfz2010abfc   0.89162
gfz2010aggj   0.23443
gfz2010aimm  -0.09249
gfz2010amec  -0.59765
gfz2010aseg  -0.85632
gfz2010asxa   0.15977
gfz2010azji  -0.16960
gfz2010bkfi   0.06415
gfz2010bklj  -0.99137
gfz2010bnqr   0.23088
gfz2010bqnk   0.12282
gfz2010brrm   1.14040
gfz2010btme   0.61283
gfz2010bukb  -0.11738
gfz2010bvit   0.09546
gfz2010byau   1.63660
gfz2010cbnp   0.91083
gfz2010ccse  -0.96219
gfz2010ccwc  -0.62844
gfz2010ccye   0.63045
gfz2010clbw   0.00767
gfz2010cpig  -0.27998
gfz2010crgy   0.42596
gfz2010crir  -0.05128
gfz2010csle   0.72513
gfz2010csmw   0.34149
gfz2010csqy   0.67956
gfz2010cthm  -0.84378
gfz2010cvkn   0.55423
gfz2010dask  -1.13440
gfz2010dmij  -0.86168
gfz2010dmkd  -0.80766
gfz2010drit   0.11850
gfz2010drml   0.18033
gfz2010drmq   0.18033
gfz2010dtyx  -1.30450
gfz2010dumv   0.12547
gfz2010eibh  -0.23589
gfz2010elge  -0.01993
gfz2010fgbo  -0.28074
gfz2010jgwj  -0.11738
gfz2010jkrp   0.46140
gfz2010jlvp   0.06384
gfz2010jpkn  -0.31308
gfz2010kcyz  -0.41722
gfz2010kwks   0.17364
gfz2010ljmp   0.18939
gfz2010mdti  -0.04006
gfz2010mqzz   0.35348
gfz2010mzfb   0.43263
gfz2010ncwu   0.76554
gfz2010nlai   1.02830
gfz2010nteg  -1.47800
gfz2010oguu  -0.23727
gfz2010ogwn  -1.04550
gfz2010okpc   0.00310
gfz2010okww  -0.03998
gfz2010osaq  -0.27737
gfz2010ouvm   0.23117
gfz2010ovvg   0.83029
gfz2010pcya   1.01830
gfz2010pgpo   0.29990
gfz2010prnw   0.64904
gfz2010pzza   0.35698
gfz2010qbcy   0.12757
gfz2010qdqk   0.19873
gfz2010qrix  -0.76869
gfz2010qrta   0.10289
gfz2010qykh  -4.71580
gfz2010qzvf  -0.45309
gfz2010rdip   0.30635
gfz2010rkuu  -0.31650
gfz2010rljv  -0.67654
gfz2010rnqa  -2.94270
gfz2010rnwt   1.32420
gfz2010rpbz  -0.63357
gfz2010rpjd  -0.57627
gfz2010scht   0.96297
gfz2010sdfs  -0.87670
gfz2010shvn  -0.00000
gfz2010tcgh  -1.20360
gfz2010tfar   0.52172
gfz2010tmba  -0.14438
gfz2010tpcj  -0.41333
gfz2010tvit  -0.20196
gfz2010tzlz  -0.27836
gfz2010tzma  -0.84105
gfz2010ugws  -0.28285
gfz2010uhjy  -0.50044
gfz2010umxj  -0.84245
gfz2010umyp  -0.62196
gfz2010uogw  -0.99013
gfz2010upod  -1.24650
gfz2010uqba  -1.52360
gfz2010uraq  -0.23347
gfz2010uveo  -0.77093
gfz2010vhzx   0.03710
gfz2010vong  -0.59822
gfz2010vybx  -0.07033
gfz2010wakc   1.66910
gfz2010wigk  -2.75080
gfz2010wtin   1.56170
gfz2010wwhf   0.08043
gfz2010wwnq   0.42073
gfz2010wyuj  -0.82932
gfz2010xamh  -0.19493
gfz2010xaxw  -0.83362
gfz2010xhqq  -0.12028
gfz2010xnbn   0.33539
gfz2010xney   0.60752
gfz2010xpzq  -0.62387
gfz2010xzte  -0.25578
gfz2010yfdr   0.28469
gfz2010yhdn  -0.43659
gfz2010yhhj   0.55448
gfz2010yilf  -0.94115
gfz2010yrex   0.35951
gfz2010ytzb   0.08784
gfz2010zhvj  -1.11490
gfz2010zjun  -0.25547
gfz2010zkle  -0.92820
gfz2011afyc   0.19995
gfz2011ahvh   0.22385
gfz2011aksu  -0.97725
gfz2011ameb   0.86960
gfz2011amst  -0.96931
gfz2011aqpp   0.04616
gfz2011awsv  -0.15968
gfz2011bazz  -0.87769
gfz2011bcvc   1.59390
gfz2011bffb  -0.60134
gfz2011biin   0.51060
gfz2011bpqm  -0.43798
gfz2011bsvr   1.74990
gfz2011bvog  -0.87529
gfz2011bwsm   1.11530
gfz2011bygs   0.17503
gfz2011bygu   0.03238
gfz2011bzio  -0.58880
gfz2011cdge  -1.47140
gfz2011cfyy  -1.34960
gfz2011chsa  -0.12011
gfz2011cjcv   0.14490
gfz2011cjuz  -0.05706
gfz2011cwsm  -0.51384
gfz2011cwzi  -0.89246
gfz2011cxdj  -0.31003
gfz2011dabj  -0.46461
gfz2011dhfg  -0.01390
gfz2011dhqk  -0.40582
gfz2011dpyu   0.59222
gfz2011drmu  -0.91127
gfz2011duvm  -1.63060
gfz2011dwae  -0.15222
gfz2011emzr   0.24208
gfz2011etkc  -0.21670
gfz2011exxq  -1.56910
gfz2011fbsl  -1.61100
gfz2011ffdh  -0.42163
gfz2011fges   0.08510
gfz2011fnie  -0.43213
gfz2011fnuk  -0.41395
gfz2011fszl  -0.14309
gfz2011fxmf   0.19077
gfz2011fyfu  -0.56248
gfz2011fzcw  -0.36998
gfz2011gaax  -0.37064
gfz2011gcct  -1.26380
gfz2011gdrl   0.36051
gfz2011ggnl   0.24038
gfz2011glpg  -0.04775
gfz2011gnbk   0.09074
gfz2011gpyr  -0.31781
gfz2011hatg   0.55733
gfz2011hibi  -1.60900
gfz2011hjof  -1.00300
gfz2011hmnw  -0.37962
gfz2011hqjs   0.73606
gfz2011hrgt  -0.97609
gfz2011hvzo   0.12486
gfz2011hyct  -0.16667
gfz2011hyuh   0.30853
gfz2011iamf  -0.07534
gfz2011ibew  -0.55444
gfz2011ifta  -0.09412
gfz2011ioch  -1.87350
gfz2011iryz  -0.09339
gfz2011ituo  -0.03050
gfz2011ixpj   0.59555
gfz2011jphj  -1.36150
gfz2011jpob  -0.18606
gfz2011jryv   0.30613
gfz2011jtij   0.26698
gfz2011kfch  -0.46607
gfz2011kjzt   0.35195
gfz2011kjzv   0.61892
gfz2011kmge  -1.01730
gfz2011ksxc  -1.28340
gfz2011kylu  -0.11548
gfz2011kyzy   0.41403
gfz2011lkkf   0.84101
gfz2011lmug  -0.27289
gfz2011lrpv   0.20442
gfz2011mdyq  -0.00000
gfz2011mjje   0.68274
gfz2011mllb  -1.45940
gfz2011mntq  -1.29080
gfz2011mror  -0.05302
gfz2011ndhh   0.19328
gfz2011nejg   0.94596
gfz2011nejw  -0.16813
gfz2011nerb   1.25800
gfz2011nfcz   0.32578
gfz2011nftw   1.44290
gfz2011nhby  -0.85795
gfz2011nhhd  -0.32508
gfz2011nhvt   0.86523
gfz2011nhwf  -0.07632
gfz2011nijp   1.92880
gfz2011nilw   0.59288
gfz2011niuw   1.97670
gfz2011nlmf   1.38970
gfz2011nlnl   0.86953
gfz2011nlum  -0.38493
gfz2011nnda   0.27960
gfz2011nsiy  -1.07950
gfz2011nsrx  -0.36403
gfz2011nssr   0.10183
gfz2011nsyi   1.44980
gfz2011nuqo  -0.16002
gfz2011oadm   0.04884
gfz2011oazk   0.60760
gfz2011ocif   0.62711
gfz2011ofpj  -0.37636
gfz2011ohgj  -0.39478
gfz2011okza  -0.32357
gfz2011omxt   0.31905
gfz2011oqjl   2.50070
gfz2011oslk   0.47605
gfz2011osmp   0.03283
gfz2011osuy   0.20639
gfz2011owqa   0.39882
gfz2011paqj  -0.63052
gfz2011pbjh  -0.07565
gfz2011pdsn   0.68302
gfz2011pfwq  -0.35626
gfz2011pgzk   0.14913
gfz2011pimj   0.57093
gfz2011pivq   0.95289
gfz2011pmuv  -0.04702
gfz2011pphc  -1.53360
gfz2011ppsc  -0.02903
gfz2011prrq  -0.94972
gfz2011ptgd   2.51950
gfz2011pulu  -1.56960
gfz2011pwbw  -0.35125
gfz2011pwld  -0.49634
gfz2011qenl  -0.61967
gfz2011qgea  -0.29874
gfz2011qgvh   0.09333
gfz2011qgvx   0.09253
gfz2011qidi  -0.92570
gfz2011qklh  -1.24580
gfz2011qukj  -0.10378
gfz2011rczb  -0.21695
gfz2011rkau  -0.01978
gfz2011rnny   0.04350
gfz2011rqut   0.31768
gfz2011scma   0.33306
gfz2011sdax   0.53210
gfz2011sfmu  -0.21035
gfz2011sfph   0.20290
gfz2011sqco  -0.35316
gfz2011sskq   0.08510
gfz2011swfp  -1.61630
gfz2011sxno  -0.25074
gfz2011sylg   0.03979
gfz2011tgon  -0.19554
gfz2011tjpv  -0.25058
gfz2011tozo   0.86228
gfz2011tqgg   1.11010
gfz2011tsgl   0.30685
gfz2011tssv   0.16312
gfz2011tzcv   1.04230
gfz2011uowi   0.51193
gfz2011uqlz  -1.07440
gfz2011uqry   0.65001
gfz2011urwz   0.37250
gfz2011vahy   0.21512
gfz2011vaoi   0.67616
gfz2011varl   0.23070
gfz2011vcyx   0.58307
gfz2011vimn  -0.01992
gfz2011vsag   0.70623
gfz2011vtdl   0.34211
gfz2011vxek   0.84530
gfz2011wngi   0.12585
gfz2011wnjg  -0.33882
gfz2011wpzt   0.30437
gfz2011wqup  -0.02807
gfz2011wucg   0.00000
gfz2011wwze  -0.55563
gfz2011wzss  -0.64724
gfz2011xagc   0.51798
gfz2011xgbc  -0.98297
gfz2011xgwy  -0.00314
gfz2011xlod   1.26130
gfz2011xnui  -0.05916
gfz2011xpcq   0.36763
gfz2011xxng  -0.55010
gfz2011yjtx   0.18302
gfz2011ymji   0.38255
gfz2011ypfh   0.16356
gfz2011ywtj  -0.21673
gfz2011zcwn   1.10460
gfz2011zghc  -1.08810
gfz2011zgxn   0.84490
gfz2011ziyk  -0.01584
gfz2011zkbt   0.37483
gfz2012adja  -0.00000
gfz2012ahac  -0.06232
gfz2012alti  -0.25549
gfz2012amjx   1.17060
gfz2012amvs  -0.02599
gfz2012aqpa   1.04280
gfz2012avvc  -2.17570
gfz2012axrp  -0.31565
gfz2012beae  -0.31078
gfz2012bity   0.20030
gfz2012bjhl  -0.24463
gfz2012bolx  -0.37803
gfz2012bovy   0.32422
gfz2012bqcf   0.59982
gfz2012byrq   0.01645
gfz2012bysu  -0.11129
gfz2012bytv   0.74665
gfz2012byuk   1.44850
gfz2012cdju   0.37899
gfz2012cksh  -1.19020
gfz2012cmww   0.37593
gfz2012cntu   0.17408
gfz2012crpb  -0.27227
gfz2012cvfr   0.07272
gfz2012cwhl   0.45556
gfz2012cxhw  -1.06810
gfz2012dcjd   0.28915
gfz2012dejg  -1.01530
gfz2012dgfk   1.20210
gfz2012dleg  -2.31420
gfz2012dnig  -0.05099
gfz2012dpnu  -0.55997
gfz2012dpwv  -1.28100
gfz2012drqd  -2.00660
gfz2012dttl  -0.19181
gfz2012dtvr  -0.02335
gfz2012dwwu   0.24093
gfz2012dyck   0.13108
gfz2012dysu  -0.94018
gfz2012dzen  -0.59966
gfz2012dzjo  -1.01710
gfz2012dzoh  -0.57394
gfz2012dzot  -0.29293
gfz2012eajr  -2.03680
gfz2012ebgo  -2.45570
gfz2012ebrr  -0.17863
gfz2012eeft   0.61679
gfz2012ekfp  -0.83760
gfz2012elek  -0.16824
gfz2012enrg   1.23780
gfz2012erds  -0.19453
gfz2012evxn  -0.07515
gfz2012eyti   1.28290
gfz2012fbgz  -0.33961
gfz2012fcyq  -0.42088
gfz2012fcyr  -0.35873
gfz2012fhaf  -0.04207
gfz2012foih  -1.42860
gfz2012gczh   0.08283
gfz2012gdye  -0.05190
gfz2012ghiv   0.11514
gfz2012gjdg   0.34798
gfz2012gmsr  -1.46980
gfz2012gnow   0.22936
gfz2012gpcd   0.51327
gfz2012heih   0.29167
gfz2012hhlx  -0.47532
gfz2012hkxs  -0.31757
gfz2012hmcv  -0.06530
gfz2012hvtu   3.66360
gfz2012hwph   0.36650
gfz2012hzhn   0.42062
gfz2012hzur   1.36460
gfz2012iijk  -0.34635
gfz2012imsm  -2.14110
gfz2012ipdc   0.67280
gfz2012iroy  -0.02179
gfz2012ivyg  -0.62011
gfz2012izke  -0.37191
gfz2012jbzr   0.14896
gfz2012jlez  -0.83870
gfz2012jnlt   1.49790
gfz2012jxnm   0.58443
gfz2012kadi   0.44839
gfz2012kbub   0.05484
gfz2012kmbo  -0.67883
gfz2012kmmz  -0.35572
gfz2012kstg  -0.48334
gfz2012lcro   0.60544
gfz2012ldjj  -0.43817
gfz2012lqhw   0.35202
gfz2012lwha  -1.37990
gfz2012lyyr  -0.33620
gfz2012mcrb   0.37087
gfz2012mdzf  -0.14239
gfz2012mjuu   0.60107
gfz2012mmiw   0.14713
gfz2012mrqk   0.38907
gfz2012mrwu   0.07846
gfz2012mwhe  -0.31873
gfz2012mzqx   0.13200
gfz2012ndwt  -0.12167
gfz2012nfos   0.15117
gfz2012nldz   0.50661
gfz2012nlrb   0.41758
gfz2012nmja   0.05368
gfz2012nnqu  -0.49996
gfz2012nqvd   0.04916
gfz2012oafg  -0.04654
gfz2012oehy  -0.19247
gfz2012ofnx   2.36500
gfz2012oieq  -0.52069
gfz2012oork   0.31959
gfz2012oozp  -0.46102
gfz2012oyja   0.34230
gfz2012pcui   1.63980
gfz2012pdav  -0.47684
gfz2012pgmw   0.07202
gfz2012phns  -0.22681
gfz2012pira   0.94164
gfz2012ppcq  -0.13652
gfz2012pryl   0.08213
gfz2012pumy  -0.83044
gfz2012qfah   0.32696
gfz2012qfov  -0.95844
gfz2012qllj  -0.09103
gfz2012qmhz  -0.42360
gfz2012rknz  -0.21487
gfz2012roan   0.23581
gfz2012rzwp   1.61360
gfz2012sfao   0.55856
gfz2012sgfd  -0.57230
gfz2012sjox  -0.69448
gfz2012smyn  -0.50131
gfz2012socz  -0.33486
gfz2012sopp   0.21429
gfz2012sqsc  -1.46090
gfz2012suqd  -1.18530
gfz2012svwz  -0.59420
gfz2012swbz   0.26813
gfz2012sxbo  -1.42740
gfz2012thyh   0.23554
gfz2012tisj  -0.73757
gfz2012touh   0.09415
gfz2012tqjc   0.04258
gfz2012trfq  -0.75573
gfz2012trss  -0.47485
gfz2012ttnf  -0.14831
gfz2012tvgw  -0.92856
gfz2012twec   0.31910
gfz2012uhtc   0.43698
gfz2012ulei   1.46200
gfz2012unxc  -0.17583
gfz2012uovh   0.27059
gfz2012uvea   0.28131
gfz2012uvoa   0.39722
gfz2012uzuu   0.89983
gfz2012uzww   0.11467
gfz2012vcqw  -0.10000
gfz2012vdsl  -0.26890
gfz2012vgot   0.30020
gfz2012vitw   0.17609
gfz2012vkjw  -0.05770
gfz2012vlzv  -0.35576
gfz2012vqjw  -0.59399
gfz2012vqmq   0.89906
gfz2012vurc   0.57890
gfz2012wdxk  -0.23817
gfz2012wgdv  -0.13858
gfz2012wgmg  -0.06548
gfz2012wiyv  -2.37370
gfz2012wjsi   1.09120
gfz2012wkki   0.20670
gfz2012wowu  -1.10830
gfz2012woxj   0.21029
gfz2012wpen   0.47489
gfz2012wqfz  -0.31695
gfz2012wugc  -0.28137
gfz2012wysg   0.13540
gfz2012wzja  -0.65339
gfz2012xask   0.17797
gfz2012xbna   0.01852
gfz2012xfnu  -0.11347
gfz2012xfsl   0.05603
gfz2012xkln  -0.21057
gfz2012xkvu   0.87997
gfz2012xlas   0.64035
gfz2012xlfo  -0.11074
gfz2012xncm  -0.75592
gfz2012xrmq   0.02023
gfz2012xtvu   0.63658
gfz2012xxdj  -0.03145
gfz2012yegw  -0.89364
gfz2012yihn   2.02620
gfz2012ylai   0.18344
gfz2012yncm   0.73147
gfz2012zhyz  -0.62013
gfz2012zido   0.48685
gfz2012zkhu   0.37465
gfz2012zqis  -0.80602
gfz2013adih   1.46190
gfz2013afzh   0.86269
gfz2013aggr   1.97680
gfz2013agmt  -1.13820
gfz2013akkd   0.75696
gfz2013ascz   1.98700
gfz2013atak  -0.10923
gfz2013aymi  -0.33655
gfz2013bwgw  -1.54260
gfz2013byyy   0.43479
gfz2013cfls   0.15859
gfz2013cinv  -0.72136
gfz2013ciof  -0.05271
gfz2013cvve   0.13867
gfz2013cyvx   0.01760
gfz2013delq  -1.51930
gfz2013dftb   0.31226
gfz2013dfvx  -0.00996
gfz2013dmzh   0.28967
gfz2013dngd   0.44722
gfz2013dnot  -0.19426
gfz2013dzvr  -0.18968
gfz2013eavq   0.47868
gfz2013efct   0.39101
gfz2013egfv   1.85480
gfz2013eidd   0.20170
gfz2013ektd   0.30586
gfz2013enga  -0.43604
gfz2013enqo   0.25286
gfz2013esef  -1.42510
gfz2013evcl   0.85681
gfz2013ffjt   0.07386
gfz2013fmcd   0.90194
gfz2013fmcp  -0.18976
gfz2013fnpa   0.36692
gfz2013frxd   1.12160
gfz2013fulo   0.15765
gfz2013fvht   0.09571
gfz2013fvyr  -0.09003
gfz2013fxyr  -0.10274
gfz2013fybd   0.42955
gfz2013gbma   0.97641
gfz2013gkyn   0.73250
gfz2013glpz  -0.41530
gfz2013gomv   0.29934
gfz2013gugi   0.11915
gfz2013gurk   0.12627
gfz2013gxye   0.13671
gfz2013gyce  -0.16100
gfz2013gywl   1.30490
gfz2013hbmi  -0.51847
gfz2013hbtm   0.27337
gfz2013hbwy   1.33030
gfz2013hduf  -0.16229
gfz2013hqaa  -0.02274
gfz2013hvzv  -0.62568
gfz2013icgx   0.08004
gfz2013icql   0.70933
gfz2013ivvw  -0.17460
gfz2013iwzn   0.16030
gfz2013jfcn  -0.16394
gfz2013jhog  -0.06840
gfz2013jobl   0.30624
gfz2013jrqf   0.45478
gfz2013jzcf  -0.10402
gfz2013kats  -0.39698
gfz2013kbbn  -0.97641
gfz2013kcdb  -0.02470
gfz2013kdfy  -0.18292
gfz2013kpes   0.28739
gfz2013kqab  -0.27626
gfz2013kruh  -0.19929
gfz2013ksaz   0.27042
gfz2013kslp   0.40567
gfz2013kxlr  -0.10096
gfz2013lbvl   0.24638
gfz2013lgvf   0.35061
gfz2013ljdu   0.46178
gfz2013lvxe   0.62554
gfz2013lxed   0.42366
gfz2013mdxj   0.24943
gfz2013mimp   0.12986
gfz2013mktp  -0.21442
gfz2013msmy  -0.50057
gfz2013muqm   0.38303
gfz2013mvgq  -1.31860
gfz2013mynb   0.07920
gfz2013mzaw  -0.15948
gfz2013njwj   0.73723
gfz2013nkgd   0.74277
gfz2013nkgt   0.66245
gfz2013noqf  -0.13141
gfz2013ntfc   0.86023
gfz2013ntiu  -1.52040
gfz2013oeni  -0.09539
gfz2013ohdt   0.15927
gfz2013ohnj   0.27128
gfz2013oizq  -0.89654
gfz2013okac   0.15396
gfz2013olos   1.13050
gfz2013onvl  -0.13722
gfz2013oruq   0.00000
gfz2013otuj  -0.45295
gfz2013oywh  -1.16790
gfz2013phhi   0.09518
gfz2013pkmz   0.07055
gfz2013pqkp   2.55410
gfz2013qdks   1.56450
gfz2013qdno   0.83439
gfz2013qdpv   0.43427
gfz2013qigb   0.20384
gfz2013qoak  -0.33628
gfz2013qogb  -0.47672
gfz2013quwz   0.54970
gfz2013qxof   0.08530
gfz2013rdmn   0.72620
gfz2013rfik  -0.59188
gfz2013rhbx  -0.20367
gfz2013rhxf  -0.30484
gfz2013rnsa   0.11114
gfz2013rocs  -0.02435
gfz2013rtvy   0.03760
gfz2013rwkj   0.38201
gfz2013ryfc   0.01989
gfz2013ryph   0.13212
gfz2013sbsp   0.44759
gfz2013skvq   0.06084
gfz2013stou  -0.05924
gfz2013stup  -0.01158
gfz2013swnj  -0.33199
gfz2013taeb  -1.11670
gfz2013tcju  -0.09562
gfz2013tdsx  -0.38346
gfz2013timw   0.49163
gfz2013tjub   0.35540
gfz2013tmyj   0.31430
gfz2013tnrp  -0.00000
gfz2013trsq   0.85513
gfz2013uafv   1.56230
gfz2013ubgt  -0.77914
gfz2013udtw   0.34571
gfz2013uepl   0.21753
gfz2013unuv   0.32537
gfz2013upqj  -0.51578
gfz2013utqa   0.32188
gfz2013uugc   0.39259
gfz2013uwjo  -0.81650
gfz2013uxzw   1.60210
gfz2013uzmf   0.24100
gfz2013vcgd  -0.24610
gfz2013vdam   0.17570
gfz2013veug   2.38220
gfz2013vfix  -0.13544
gfz2013vjrr  -0.44431
gfz2013vldx  -0.40417
gfz2013vmrv  -0.30844
gfz2013vmsg  -0.62899
gfz2013vnwa  -0.41709
gfz2013voai   0.03885
gfz2013vojy  -0.72432
gfz2013vvre  -0.01700
gfz2013vwkh   0.22441
gfz2013vxht   0.24999
gfz2013vzel   1.60370
gfz2013wgwz  -0.49909
gfz2013wpns   0.48875
gfz2013wwee   0.45746
gfz2013wyfl  -0.36913
gfz2013xahp   0.12194
gfz2013xbdc  -1.26260
gfz2013xjmo   0.65537
gfz2013xlic  -0.46309
gfz2013xmzw  -0.31636
gfz2013xodn   0.18112
gfz2013xofz   0.16112
gfz2013xswc   0.60777
gfz2013xupg  -0.41913
gfz2013xvps   0.05610
gfz2013xycz   0.11371
gfz2013yodm   0.08014
gfz2013yqkz   0.68292
gfz2013yqtu   0.21747
gfz2013ytfm  -0.73822
gfz2013yvnj  -0.26253
gfz2013yxhf   1.02420
gfz2013zedt  -0.20763
gfz2013zeye  -0.10346
gfz2013zfbz  -0.39296
gfz2013ziix   0.90194
gfz2013zpwk  -0.15310
gfz2014aapq  -0.45385
gfz2014aedl  -0.72325
gfz2014amgk  -0.81813
gfz2014aqop  -0.83139
gfz2014ateb   0.39987
gfz2014avmd  -0.45504
gfz2014avzp   0.34240
gfz2014ayxf  -1.95960
gfz2014azfu   0.43159
gfz2014bdju  -0.20743
gfz2014befl  -0.14794
gfz2014bfjb  -0.39648
gfz2014bgyv   0.14285
gfz2014bkra  -2.36910
gfz2014bmch  -0.23435
gfz2014bmqw   0.24053
gfz2014bnea   0.98093
gfz2014bppg   0.50557
gfz2014bqpm  -0.65216
gfz2014cvnb  -0.34468
gfz2014cwti  -0.26820
gfz2014etgp  -0.19393
gfz2014etqu  -0.71650
gfz2014eunw   0.55238
gfz2014evgu   0.57795
gfz2014evhm   0.34298
gfz2014fbli   0.21364
gfz2014fbnr  -0.45438
gfz2014fjfz   0.03745
gfz2014flxk   0.74382
gfz2014fmdc  -0.01942
gfz2014fsir  -0.01819
gfz2014fsje   0.26878
gfz2014fskh   0.25535
gfz2014fsvc  -0.06142
gfz2014fvza   0.11045
gfz2014fwxt   1.08360
gfz2014fxte   0.87251
gfz2014fxtv   0.29235
gfz2014fxuy   0.29833
gfz2014gasb   0.47382
gfz2014gbxg   0.93849
gfz2014gcia  -0.25090
gfz2014gdbh   0.31042
gfz2014geln   0.02895
gfz2014gjfd   0.58597
gfz2014gnbw  -0.11496
gfz2014gpnr  -0.28994
gfz2014grwv  -0.24430
gfz2014gsfc  -1.23080
gfz2014gtee  -0.29508
gfz2014gtoj  -0.38677
gfz2014gypw  -0.62584
gfz2014herz   0.05842
gfz2014hgjb   0.34583
gfz2014hhey  -0.04652
gfz2014hhis  -1.03000
gfz2014hjmc  -0.43930
gfz2014hkcw  -0.60635
gfz2014hotu  -0.13375
gfz2014hqhv  -0.82058
gfz2014huqh  -0.94327
gfz2014hyea   0.20304
gfz2014hzzf   0.25107
gfz2014icov  -0.82402
gfz2014igrp   0.10498
gfz2014ijsa  -2.50100
gfz2014iltl   0.34730
gfz2014ined   0.57562
gfz2014ipfu  -1.83180
gfz2014irlf   0.47858
gfz2014irln   1.14130
gfz2014irly   1.04500
gfz2014isjg   0.08078
gfz2014itlx   0.38160
gfz2014iusw   0.18540
gfz2014ivgm   0.16333
gfz2014ixlc   0.43760
gfz2014jarg  -0.90942
gfz2014jayh   0.11035
gfz2014jbfp  -0.43496
gfz2014jckg  -0.56644
gfz2014jfmc  -0.59223
