# Nsamples: 1068  MAD:  0.653  mean: -0.056  std:  0.834
gfz2010abfc  -0.29716
gfz2010afyi  -0.55059
gfz2010aggj   0.86793
gfz2010aimm   0.40049
gfz2010amec  -1.88080
gfz2010aseg  -0.08567
gfz2010asxa   0.02014
gfz2010azji   0.57697
gfz2010bgrt  -2.03280
gfz2010bkfi   0.34927
gfz2010bklj  -0.78303
gfz2010bmls   1.05200
gfz2010bnqr   0.00000
gfz2010bofe  -0.82296
gfz2010bqnk   0.41473
gfz2010brlc   0.05280
gfz2010brrm   0.39483
gfz2010btme   0.67106
gfz2010bukb   0.45490
gfz2010bvit   0.31499
gfz2010byau   1.82450
gfz2010bytu  -0.36488
gfz2010cbnp  -0.47363
gfz2010ccse  -0.30819
gfz2010ccwc  -0.05825
gfz2010ccye   0.46556
gfz2010clbw   0.42140
gfz2010cnhd   1.08030
gfz2010cphq  -1.25920
gfz2010cpig  -0.50573
gfz2010cqoq   0.64946
gfz2010crgy   0.51766
gfz2010crir  -0.40613
gfz2010csle  -0.52746
gfz2010csmw   0.43070
gfz2010csqy   0.40021
gfz2010ctak  -0.34689
gfz2010cthm  -0.33367
gfz2010cyid  -0.90480
gfz2010dask  -0.73002
gfz2010depd   0.22398
gfz2010djib   0.71838
gfz2010dmij  -1.09290
gfz2010dmkd  -0.39601
gfz2010dpgt   1.01970
gfz2010drit  -0.66519
gfz2010drml  -2.11780
gfz2010drmq  -2.11780
gfz2010drpv   0.19052
gfz2010drun  -0.51067
gfz2010dslu  -2.01300
gfz2010dtgc   0.80965
gfz2010dumv  -0.25659
gfz2010dwgy  -0.10776
gfz2010dxhq  -0.57377
gfz2010ehgf  -1.16850
gfz2010eibh   0.29752
gfz2010ekvl  -0.53262
gfz2010elge  -1.22180
gfz2010ethu  -0.24974
gfz2010ewyj  -0.66136
gfz2010fgbo   0.10122
gfz2010fjio  -0.00787
gfz2010fjme  -0.79196
gfz2010fkff  -0.10688
gfz2010fnkr   0.15828
gfz2010fopf   0.36144
gfz2010fqnn  -0.24829
gfz2010fqzh   0.44773
gfz2010ftfq  -0.04314
gfz2010fvfz   0.58979
gfz2010fxhh  -0.27439
gfz2010fxut  -1.98010
gfz2010gcqp   0.26026
gfz2010gnvp   0.78137
gfz2010gonu  -0.34133
gfz2010gooc  -0.48319
gfz2010guwa  -0.52344
gfz2010habf  -0.10532
gfz2010hesh   0.27807
gfz2010hexh   0.03948
gfz2010hllp   0.23214
gfz2010hnuo  -0.45044
gfz2010hsgv   0.55637
gfz2010hueh  -2.21980
gfz2010huzl  -0.21728
gfz2010hxan   0.07695
gfz2010iaay  -0.22442
gfz2010ifhd   0.50653
gfz2010ifru  -0.12387
gfz2010inbs   0.56860
gfz2010inkz   0.04092
gfz2010ioad   0.80362
gfz2010izag   0.17112
gfz2010izgb   0.51778
gfz2010jcby   0.42629
gfz2010jcpq   1.33760
gfz2010jgwj   0.21142
gfz2010jlvp  -0.04560
gfz2010jpkn  -0.43668
gfz2010juke   0.00000
gfz2010jyvd  -0.41847
gfz2010kuzb   0.81330
gfz2010kwks  -0.30166
gfz2010ljmp   0.23015
gfz2010ljzf  -0.68041
gfz2010mdti   0.32845
gfz2010mjdl  -1.67110
gfz2010mqzz   0.29249
gfz2010mvmb  -2.04940
gfz2010myqg  -0.18945
gfz2010ncwu   0.04581
gfz2010nlai   0.91141
gfz2010nwbd   0.21338
gfz2010nwyk  -0.16024
gfz2010oguu   0.51697
gfz2010ogwn  -0.76759
gfz2010oibn   0.92399
gfz2010ojhe  -0.09682
gfz2010okpc  -1.82480
gfz2010okww  -0.13790
gfz2010osaq   1.36960
gfz2010ouvm  -0.41601
gfz2010ovvg  -0.05502
gfz2010pclq   0.16409
gfz2010pcya  -1.17470
gfz2010pgrf  -0.41532
gfz2010prnw   0.47499
gfz2010pvnn  -0.89037
gfz2010qbcy  -0.29104
gfz2010qdqk  -0.93564
gfz2010qrix  -1.30850
gfz2010qrta   0.39931
gfz2010qzvf  -0.61586
gfz2010rdip   0.51495
gfz2010rkuu  -0.58452
gfz2010rljv  -0.06893
gfz2010rnqa   2.12740
gfz2010rnwt  -0.04022
gfz2010rpbz  -1.35170
gfz2010rpjd  -0.35010
gfz2010schp  -0.09569
gfz2010scht  -0.02362
gfz2010sdfs  -0.46693
gfz2010shvn   0.15558
gfz2010swqy   0.17228
gfz2010tcgh  -1.09640
gfz2010tfar  -0.07609
gfz2010tmba  -0.31526
gfz2010tmne  -0.22712
gfz2010tpcj  -1.01460
gfz2010tqyo   1.14060
gfz2010tzlz  -1.20150
gfz2010tzma   0.09594
gfz2010ugws  -0.52687
gfz2010uhjy  -1.03930
gfz2010ujqn   0.17099
gfz2010uogw  -1.25410
gfz2010uopf   0.46443
gfz2010upod  -2.25120
gfz2010utsc  -0.68755
gfz2010uveo  -0.53915
gfz2010uyng   0.98302
gfz2010vhzx  -0.45513
gfz2010vong  -0.61002
gfz2010vxwv  -0.31772
gfz2010vybx   0.11823
gfz2010wakc   0.66241
gfz2010wigk  -1.57640
gfz2010wwhf   0.23294
gfz2010wwnq   0.21540
gfz2010wyso   0.56823
gfz2010xamh  -0.67658
gfz2010xaxw  -0.87404
gfz2010xhqq  -0.56980
gfz2010xkbz  -1.09420
gfz2010xnbn   1.01330
gfz2010xney  -0.11728
gfz2010xpzq   0.10288
gfz2010xvev   0.32596
gfz2010xzah  -0.89582
gfz2010xzte  -0.04403
gfz2010yczp   0.26352
gfz2010yfdr   0.02485
gfz2010yhdn   0.05608
gfz2010yhhj  -1.05470
gfz2010yilf  -0.36389
gfz2010ymih  -0.64043
gfz2010yrex   0.31785
gfz2010ytzb   0.59839
gfz2010zhvj  -1.05440
gfz2010zjun  -0.53525
gfz2010zkle  -1.04040
gfz2011afyc  -1.42510
gfz2011ahvh   0.44965
gfz2011aksu  -1.06740
gfz2011ameb   0.24219
gfz2011amst  -0.46499
gfz2011aqpp  -0.45247
gfz2011awsv  -0.37309
gfz2011bazz  -0.06661
gfz2011bcvc  -1.17690
gfz2011bffb  -0.35569
gfz2011biin  -0.18327
gfz2011bpqm  -0.32109
gfz2011bqbx  -0.72812
gfz2011bsvr   0.57268
gfz2011bvog  -0.74167
gfz2011bwsm   0.57490
gfz2011bygu   0.41585
gfz2011bzio  -0.18868
gfz2011cdge  -1.94960
gfz2011cfyy  -0.03171
gfz2011chsa  -0.45487
gfz2011cjuz  -0.79368
gfz2011cwsm  -0.43319
gfz2011cwzi  -0.10254
gfz2011cxdj  -0.21041
gfz2011dabj  -0.30664
gfz2011dhfg   0.35503
gfz2011dhqk  -0.46742
gfz2011dmdv   0.17363
gfz2011dpyu   0.29592
gfz2011drmu  -1.06870
gfz2011duvm  -0.98393
gfz2011dwae   0.15360
gfz2011dzmf  -0.57412
gfz2011emzr  -0.34785
gfz2011etkc   0.06676
gfz2011exxq  -0.77405
gfz2011fbsl  -1.06240
gfz2011ffdh   1.65900
gfz2011fges   0.42568
gfz2011fnie  -0.66390
gfz2011fnuk   0.28988
gfz2011fszl   0.07753
gfz2011fxmf   0.06589
gfz2011fyfu  -0.28718
gfz2011fzcw  -1.14490
gfz2011gaax  -0.52792
gfz2011gdrl   0.44311
gfz2011gfer   0.44007
gfz2011ggnl   1.60170
gfz2011ggsz   0.32256
gfz2011glpg  -0.37473
gfz2011gnbk   0.30996
gfz2011gpyr   0.02400
gfz2011hatg   0.37497
gfz2011hffq   0.47807
gfz2011hibi  -1.28070
gfz2011hjof  -0.41402
gfz2011hmnw   0.10259
gfz2011hqjs   0.25136
gfz2011hrgt  -0.53164
gfz2011hvzo   1.72060
gfz2011hyct  -0.09577
gfz2011hyuh   3.88740
gfz2011iamf   0.22785
gfz2011ibew  -0.29001
gfz2011ifta   0.22080
gfz2011ioch  -0.34868
gfz2011iryz   0.14966
gfz2011itcv  -0.55547
gfz2011ituo  -0.87222
gfz2011ixpj   0.12904
gfz2011jdoz  -0.20805
gfz2011jphj  -0.76413
gfz2011jryv   0.03037
gfz2011jtij  -0.28843
gfz2011kfch   0.90404
gfz2011kgvq   0.62340
gfz2011kjzt  -0.72555
gfz2011kjzv  -0.84821
gfz2011kmge   0.06164
gfz2011kujo  -0.47739
gfz2011kylu   0.57117
gfz2011kyzy  -0.29521
gfz2011lbnn   1.29270
gfz2011lkkf   0.77234
gfz2011lmug   0.23006
gfz2011lrpv   0.59488
gfz2011lwmg  -0.00806
gfz2011lxga   0.44226
gfz2011mdyq  -0.14231
gfz2011mjje  -0.03604
gfz2011mllb  -0.47715
gfz2011mntq   0.18832
gfz2011mror  -2.91550
gfz2011ndhh  -0.04710
gfz2011ndki   0.03543
gfz2011nejg  -1.50720
gfz2011nejw  -0.44337
gfz2011nerb  -0.82531
gfz2011nfcz   0.49392
gfz2011nfgt  -0.02059
gfz2011nftw   0.20281
gfz2011nfww   0.20200
gfz2011nhby   0.43943
gfz2011nhhd  -0.04429
gfz2011nhvt  -1.77400
gfz2011nhwf  -1.22330
gfz2011nifi  -0.57799
gfz2011nihq  -0.65109
gfz2011nijp  -0.64488
gfz2011nilw   0.62945
gfz2011nimp  -0.09600
gfz2011nioi  -0.68172
gfz2011nisj  -0.73283
gfz2011niuw   0.77052
gfz2011nlmf   0.55350
gfz2011nlnl   1.18390
gfz2011nlum  -1.13400
gfz2011nlyw  -0.93219
gfz2011nmdz   0.00000
gfz2011nnda   0.39571
gfz2011nnos  -0.31882
gfz2011npaf  -0.32833
gfz2011npeu  -2.62120
gfz2011nsrx  -0.77075
gfz2011nssr  -0.73448
gfz2011nsyi   0.86547
gfz2011ntyd  -0.70492
gfz2011nuqo  -1.51990
gfz2011nyzk  -1.19420
gfz2011oadm  -0.19985
gfz2011oazk  -0.02385
gfz2011ocif   0.13554
gfz2011oekz  -0.50237
gfz2011oesd  -1.26250
gfz2011ofpj  -0.32448
gfz2011ohgj  -0.69894
gfz2011okza  -1.85960
gfz2011omxt   0.16475
gfz2011oqjl  -0.48318
gfz2011oslk   0.36885
gfz2011osmp  -0.31612
gfz2011osuy  -0.32724
gfz2011owqa  -0.13599
gfz2011paqj   0.70875
gfz2011pbgh   2.00200
gfz2011pbjh   0.16948
gfz2011pcqr   0.46767
gfz2011pdgq   0.56687
gfz2011pdsn   0.60795
gfz2011pfls  -0.27519
gfz2011pgzk   0.70384
gfz2011pivq   0.45757
gfz2011pmuv   0.76424
gfz2011poug   0.44435
gfz2011pphc  -1.22310
gfz2011ppsc  -0.41799
gfz2011prrq  -0.82670
gfz2011ptgd  -1.82110
gfz2011pulu   0.07404
gfz2011pwbw  -0.30699
gfz2011pwld   0.49953
gfz2011qasw   0.92412
gfz2011qenl  -0.87926
gfz2011qgea   0.10892
gfz2011qgvh   0.11790
gfz2011qgvx  -0.32335
gfz2011qidi  -0.50519
gfz2011qklh   0.87563
gfz2011qlkj   0.20159
gfz2011qtoy  -0.55562
gfz2011qukj  -0.50574
gfz2011rczb   0.18136
gfz2011rkau   0.01413
gfz2011rnny  -0.92082
gfz2011rnsp   0.90840
gfz2011rqut   0.87894
gfz2011scma   0.34915
gfz2011sdax   0.17468
gfz2011sdpl   0.60119
gfz2011sfmu   0.42204
gfz2011sfph   0.68537
gfz2011sqco  -0.99182
gfz2011sskq  -0.49624
gfz2011stzi   0.63438
gfz2011swfp  -0.15552
gfz2011sxno   0.04535
gfz2011sylg   0.32250
gfz2011syvj   0.76700
gfz2011syzr  -0.64090
gfz2011szau  -0.30662
gfz2011szbb   2.10190
gfz2011szcj   2.41510
gfz2011taqr   3.65710
gfz2011tfor  -0.62736
gfz2011tgon  -0.70099
gfz2011tjpv  -0.69407
gfz2011tozo   0.70437
gfz2011tqgg   1.71930
gfz2011tsgl   0.31021
gfz2011tssv   0.30834
gfz2011tvuv  -0.52733
gfz2011twpz  -0.56777
gfz2011txxs  -0.46353
gfz2011tzcv   0.64496
gfz2011ugbt  -1.51610
gfz2011uowi   0.11269
gfz2011uqlz  -1.12850
gfz2011uqry  -0.33484
gfz2011urwz   0.32668
gfz2011vahy   0.74471
gfz2011varl   0.25627
gfz2011vcyx   0.71030
gfz2011vimn  -0.02984
gfz2011vsag   0.72523
gfz2011vtzv   0.06046
gfz2011vxek   0.26907
gfz2011wbtc   0.13436
gfz2011wcvs  -1.82770
gfz2011wfsk  -0.68120
gfz2011wgoa   0.43511
gfz2011wgvh  -1.70050
gfz2011wkja  -0.03973
gfz2011wkyx  -0.20376
gfz2011wngi   0.54121
gfz2011wnjg  -0.74289
gfz2011wpzt   0.75976
gfz2011wqup   0.19381
gfz2011wucg  -0.32235
gfz2011wwze   0.45989
gfz2011wzss   0.14593
gfz2011xawm   0.11508
gfz2011xdox  -0.21977
gfz2011xgbc  -0.95321
gfz2011xgwy  -0.58171
gfz2011xlod   0.56960
gfz2011xnui   0.37821
gfz2011xpcq   0.77326
gfz2011xxng  -0.57810
gfz2011yexx   0.02186
gfz2011ytob   0.78257
gfz2011zdyf   0.01970
gfz2011zghc  -0.20968
gfz2011zgxn   1.26020
gfz2011ziyk   0.51881
gfz2011zkbt  -0.04889
gfz2012adja   0.50128
gfz2012ahac  -0.05385
gfz2012alti  -0.61738
gfz2012amjx   0.37872
gfz2012amvs   0.58818
gfz2012arlo  -0.81648
gfz2012avvc  -0.75012
gfz2012bcvn  -0.61627
gfz2012beae   0.52367
gfz2012bity   0.77495
gfz2012bjhl  -0.29910
gfz2012bnwa   0.73396
gfz2012bolx   0.66953
gfz2012bovy  -0.09978
gfz2012bqcf   0.35060
gfz2012byrq  -0.82834
gfz2012bysu   0.37102
gfz2012bytv   0.05151
gfz2012byuk   0.87309
gfz2012cdju   0.50126
gfz2012cksh  -0.95701
gfz2012cmww   0.35453
gfz2012cntu   0.15832
gfz2012crpb  -0.54308
gfz2012cvfr   0.32597
gfz2012cwhl  -0.45417
gfz2012cxhw  -1.23170
gfz2012dcjd   0.09638
gfz2012dejg  -0.40813
gfz2012dleg   0.66214
gfz2012dnig   0.14625
gfz2012dpnu  -0.09002
gfz2012dpwv  -0.84134
gfz2012drld   0.03710
gfz2012drqd   1.28880
gfz2012dtlu   0.36486
gfz2012dttl   0.46267
gfz2012dwwu  -0.47213
gfz2012dyck   0.66515
gfz2012dysu   1.47640
gfz2012dzot   0.11037
gfz2012eajr   1.29640
gfz2012eeft   0.82846
gfz2012ekfp  -1.07420
gfz2012ekro   0.27791
gfz2012elek   0.21580
gfz2012enio  -0.26939
gfz2012enrg   0.61695
gfz2012erds  -0.82292
gfz2012evav   0.58392
gfz2012evxn  -0.51702
gfz2012eyti  -0.68231
gfz2012facv   1.13760
gfz2012fbgz  -0.15072
gfz2012fhaf   0.06295
gfz2012fiiz   1.66280
gfz2012flqf   0.70011
gfz2012foih   3.82360
gfz2012fuyd   0.48430
gfz2012fyny   0.10432
gfz2012gbrs  -0.33750
gfz2012gdye   0.15959
gfz2012gjdg  -0.13453
gfz2012gjtd   3.01510
gfz2012gmsr  -0.00000
gfz2012gnow   0.48138
gfz2012gpcd  -0.60782
gfz2012gubu  -1.44950
gfz2012hdny  -0.34999
gfz2012heih   0.81833
gfz2012hlya   0.52997
gfz2012hmcv  -0.50013
gfz2012hnyy  -0.07624
gfz2012hvfw   0.21506
gfz2012hvtu   3.51630
gfz2012hzur   0.98153
gfz2012iblo  -1.85600
gfz2012ibyd   0.37376
gfz2012icjo  -0.09648
gfz2012iijk  -0.77937
gfz2012imsm  -1.97320
gfz2012ipdc   0.70448
gfz2012iroy  -0.21833
gfz2012ivyg  -1.14010
gfz2012iyoi   2.05670
gfz2012izke  -0.39999
gfz2012jlez  -0.78558
gfz2012jnlt   0.12262
gfz2012juem   0.27062
gfz2012kadi  -0.22471
gfz2012kbub  -0.60725
gfz2012klpl  -0.12759
gfz2012kmbo  -1.05930
gfz2012kmmz  -0.25586
gfz2012kqjb  -0.87326
gfz2012kstg  -0.04188
gfz2012kwmx   0.20693
gfz2012ldjj  -0.38492
gfz2012lqhw   0.47096
gfz2012luzm   0.43768
gfz2012lvwx  -0.95418
gfz2012lwha  -1.26050
gfz2012lyqs  -2.42760
gfz2012lyyr  -0.09546
gfz2012mdzf   0.24706
gfz2012mjuu  -0.29059
gfz2012mjzl   0.12696
gfz2012mmiw  -0.20831
gfz2012movv   0.64808
gfz2012mowv   0.16907
gfz2012mpzo   0.98082
gfz2012mrqk  -0.76715
gfz2012mrwu  -0.20743
gfz2012mvgu   0.67118
gfz2012mwhe  -0.04433
gfz2012mxdk   0.10951
gfz2012mxvk  -1.67680
gfz2012mzqx   0.76670
gfz2012ndwt   0.11396
gfz2012nfos   0.66069
gfz2012nfzc  -0.62853
gfz2012nldz   1.58530
gfz2012nmja  -0.08488
gfz2012nnqu  -1.44700
gfz2012nqvd   1.19510
gfz2012nsxc   0.78228
gfz2012oafg   0.06913
gfz2012oehy   0.45845
gfz2012ofnx   0.92185
gfz2012ohgd   0.21408
gfz2012ojmv  -1.86240
gfz2012oork  -0.29662
gfz2012oozp  -0.38605
gfz2012oyja  -0.00000
gfz2012pdav  -0.57469
gfz2012pgmw   0.83818
gfz2012phns  -0.05847
gfz2012pira   0.44891
gfz2012pmuj  -1.55810
gfz2012pokk   0.06572
gfz2012ppcq   0.08616
gfz2012prke   0.53907
gfz2012pryl  -0.12888
gfz2012pumy   0.27850
gfz2012pvve   0.35978
gfz2012qfah   0.90831
gfz2012qfov  -1.72680
gfz2012qhqp  -2.36860
gfz2012roan   0.16858
gfz2012rzwp   1.14760
gfz2012sfao   1.02140
gfz2012sjdy   0.22367
gfz2012sjox   0.39670
gfz2012smyn  -0.32285
gfz2012socz  -0.34406
gfz2012sopp  -0.29649
gfz2012sqsc  -1.13920
gfz2012stxx   0.46168
gfz2012suqd  -1.09630
gfz2012svwz   0.07531
gfz2012swbz  -0.02597
gfz2012sxbo  -1.96160
gfz2012sxzs  -0.45942
gfz2012syum  -0.92656
gfz2012taph  -0.52398
gfz2012tisj  -0.98288
gfz2012touh  -1.35190
gfz2012tqjc  -1.01720
gfz2012trfq   0.04056
gfz2012trss  -1.16290
gfz2012tsdz  -1.02480
gfz2012ttnf   0.26258
gfz2012tvgw  -0.80783
gfz2012twec  -0.24252
gfz2012tyoz  -0.13391
gfz2012udeo   3.23980
gfz2012uegq  -1.17530
gfz2012uhsx  -0.09381
gfz2012uhtc   0.25267
gfz2012ukzg  -1.62090
gfz2012ulei  -2.20810
gfz2012unxc   0.00000
gfz2012uovh   0.21488
gfz2012urtu   0.27232
gfz2012uvoa   0.47078
gfz2012uzww   0.28436
gfz2012vcqw  -0.16816
gfz2012vdsl  -3.02300
gfz2012vgot   0.04048
gfz2012vile  -0.97618
gfz2012vioy  -0.91981
gfz2012vitw   0.52797
gfz2012vlzv  -0.37540
gfz2012vnve   1.21740
gfz2012vqjw   0.07310
gfz2012vqmq  -0.19852
gfz2012vrqz   0.77708
gfz2012vurc   0.34062
gfz2012wdvt   0.78852
gfz2012wdxk   0.22569
gfz2012wgdv  -0.40290
gfz2012wgmg  -0.50081
gfz2012wjsi  -0.74781
gfz2012wkki   0.09027
gfz2012wmmw  -0.16184
gfz2012wowu  -0.83868
gfz2012woxj  -0.08526
gfz2012wpen   0.14276
gfz2012wqfz  -0.40438
gfz2012wugc   0.02252
gfz2012wysg   0.30537
gfz2012xask   0.40324
gfz2012xbna  -0.96036
gfz2012xfsl   0.02010
gfz2012xkln   0.03570
gfz2012xlas  -0.48703
gfz2012xlfo  -0.58926
gfz2012xncm  -0.95112
gfz2012xrmq   0.02748
gfz2012xtvu   0.19900
gfz2012xxdj   0.15323
gfz2012yegw  -0.46467
gfz2012yihn   0.32839
gfz2012ylai   0.53156
gfz2012yncm  -1.77840
gfz2012zhyz  -0.20907
gfz2012zido  -0.00219
gfz2012zkhu  -1.28340
gfz2012zktj   1.39270
gfz2012zmdf   1.06340
gfz2012znou  -0.75924
gfz2012zqis  -0.92478
gfz2013adih   0.39147
gfz2013agbm   0.03749
gfz2013aggr   0.48167
gfz2013agmt   0.12427
gfz2013ajxz  -0.12907
gfz2013akkd   0.16795
gfz2013ascz   0.14567
gfz2013atak   0.06447
gfz2013atec  -0.62657
gfz2013aymi  -0.90450
gfz2013bqfc   0.65663
gfz2013bwgw  -0.63227
gfz2013byyy   0.18560
gfz2013cinv   0.34057
gfz2013ciof   0.48417
gfz2013cqak  -0.66340
gfz2013cvve  -0.93545
gfz2013cyvx   0.44287
gfz2013ddrx  -1.03120
gfz2013delq  -0.57421
gfz2013dftb   0.85649
gfz2013dfvx  -0.32772
gfz2013djfi   0.15892
gfz2013dksc   0.76298
gfz2013dmzh   0.67084
gfz2013dngd   0.02170
gfz2013dnot   0.51853
gfz2013dzvr  -0.06633
gfz2013eavq   0.90242
gfz2013eazm  -0.13898
gfz2013efct   0.22100
gfz2013egfv  -2.03210
gfz2013eidd  -0.13420
gfz2013ektd  -0.13697
gfz2013enga  -0.83911
gfz2013enjr   2.31330
gfz2013enqo   0.58680
gfz2013enrh   0.72668
gfz2013evcl   1.31930
gfz2013eyyo  -1.35370
gfz2013fhzy   0.24653
gfz2013fmcd   0.81349
gfz2013fnpa   0.37896
gfz2013frxd   0.18444
gfz2013fskp  -0.08674
gfz2013fthi   0.19131
gfz2013fulo   0.37852
gfz2013fvht   1.19650
gfz2013fvyr  -0.25019
gfz2013fxyr   1.36050
gfz2013fybd  -0.00678
gfz2013gaqx  -1.27950
gfz2013gkyn   0.37109
gfz2013glkq   0.42874
gfz2013glpz   0.55118
gfz2013gomv   0.04303
gfz2013grle   1.65370
gfz2013gugi  -0.45595
gfz2013gurk   0.32677
gfz2013gxye   0.49619
gfz2013gyce   0.06963
gfz2013gywl  -0.84471
gfz2013havw   0.29700
gfz2013hbmi   0.50619
gfz2013hbtm   0.94388
gfz2013hbwy  -5.04940
gfz2013hduf   0.10007
gfz2013hiam  -0.85926
gfz2013hinw  -0.13951
gfz2013hqaa   0.07112
gfz2013hvzv   0.67835
gfz2013hwps  -0.29984
gfz2013icgx   0.63054
gfz2013icql   0.22798
gfz2013ikic  -0.54268
gfz2013ivvw  -0.02128
gfz2013iwzn  -0.05418
gfz2013iybg  -0.23419
gfz2013jfcn   0.34940
gfz2013jhog   0.47673
gfz2013jjfw  -0.08838
gfz2013jobl   0.45648
gfz2013jrqf  -0.56110
gfz2013jzcf   0.58885
gfz2013kats  -0.46753
gfz2013kbbg  -0.93692
gfz2013kbbn  -0.66022
gfz2013kcdb  -1.33570
gfz2013kdfy  -0.18342
gfz2013kqab  -0.44406
gfz2013ksaz   0.50345
gfz2013kslp   0.12739
gfz2013kxlr  -0.07359
gfz2013kxof  -0.53149
gfz2013lbod  -1.19930
gfz2013lbvl   0.07903
gfz2013lgvf  -0.26733
gfz2013ljdu   0.39743
gfz2013ljwt   0.34257
gfz2013lnts  -0.28183
gfz2013lqjj   0.03610
gfz2013lvxe   0.27344
gfz2013lwtr  -1.23020
gfz2013lxed  -0.15055
gfz2013mdxj   0.63441
gfz2013mimp   0.01990
gfz2013muqm  -0.24268
gfz2013mvgq   0.05309
gfz2013mzaw   0.55550
gfz2013nkgd   0.94931
gfz2013nkgt  -0.06226
gfz2013nnai  -0.72740
gfz2013noqf   0.20142
gfz2013ntfc   0.93993
gfz2013ntiu  -1.32400
gfz2013oeni  -0.43151
gfz2013ohdt  -0.15926
gfz2013ohnj   0.19061
gfz2013oizq  -0.65154
gfz2013ojza  -0.18425
gfz2013okac   0.71580
gfz2013okxa   0.14684
gfz2013olos  -0.43012
gfz2013onvl  -0.30869
gfz2013orot   0.40517
gfz2013ortl   0.38553
gfz2013oruq   0.13149
gfz2013osmj   0.17185
gfz2013otuj   0.75130
gfz2013oywh  -0.54290
gfz2013pegj   0.29139
gfz2013phhi  -0.04280
gfz2013phly  -0.37506
gfz2013pizm   0.89684
gfz2013pkmz  -0.81040
gfz2013puiy  -1.22980
gfz2013qdks   0.73082
gfz2013qdno   0.63624
gfz2013qdpv   0.78692
gfz2013qdzg  -1.62950
gfz2013qigb  -0.02180
gfz2013qmkt  -2.93670
gfz2013qnqr   0.46105
gfz2013qntl  -0.61736
gfz2013qoak  -1.31980
gfz2013qogb   0.39968
gfz2013quwz  -0.46774
gfz2013quyn   0.54277
gfz2013qwnm   0.85241
gfz2013qxof   0.63850
gfz2013rdmn   0.55052
gfz2013rfik   0.44686
gfz2013rhbx   0.54360
gfz2013rhxf  -0.33880
gfz2013rnsa   0.52570
gfz2013rocs   0.03188
gfz2013rtvy  -0.37363
gfz2013rwkj  -0.24892
gfz2013rwog   0.22325
gfz2013ryfc   0.57859
gfz2013ryph   0.41433
gfz2013sdkg   0.24417
gfz2013sdym  -1.54570
gfz2013skay  -0.05529
gfz2013skvq   0.29793
gfz2013stou   0.45853
gfz2013stup  -0.31474
gfz2013swnj  -0.29370
gfz2013syqp   0.51202
gfz2013taeb  -0.83992
gfz2013tcju  -0.19895
gfz2013tdsx  -0.11985
gfz2013tekq   0.42799
gfz2013tgia   0.40942
gfz2013tgyb   0.46776
gfz2013timw   0.72855
gfz2013tjub   0.65193
gfz2013tkcg   0.19852
gfz2013tmnf   0.14763
gfz2013tmyj   0.68958
gfz2013tnff  -0.50790
gfz2013tnrp   0.23264
gfz2013trsq   0.58903
gfz2013ubgt   1.15720
gfz2013udtw   0.86422
gfz2013uenl   2.42120
gfz2013uepl  -0.10650
gfz2013ummt  -2.25940
gfz2013unuv   0.22710
gfz2013upqj   0.69962
gfz2013utqa  -0.63653
gfz2013uugc   0.34450
gfz2013uwjo  -0.30182
gfz2013uxzw   1.81980
gfz2013uzmf   0.74455
gfz2013vcgd   0.39440
gfz2013vdam   0.32525
gfz2013veoz  -0.46252
gfz2013veug   0.12591
gfz2013vfix   0.37801
gfz2013vjrr  -0.29093
gfz2013vjsz   0.21338
gfz2013vldx  -0.00000
gfz2013vmrv  -0.27624
gfz2013vmsg   2.32520
gfz2013vnwa  -0.70540
gfz2013voai   0.50965
gfz2013vojy   0.03758
gfz2013vsdd  -0.46384
gfz2013vvre   0.69280
gfz2013vwkh   0.24211
gfz2013vxht   0.48639
gfz2013vzel  -0.21618
gfz2013vzet  -0.32450
gfz2013wgwz   0.18329
gfz2013wigs   1.45060
gfz2013wpns   0.06787
gfz2013wwee  -0.21282
gfz2013wyfl  -0.14426
gfz2013xahp   0.24071
gfz2013xbdc  -1.24640
gfz2013xjmo   0.28203
gfz2013xmzw   0.05933
gfz2013xodn   0.61373
gfz2013xofz   0.37887
gfz2013xswc   0.06126
gfz2013xupg  -0.15014
gfz2013xuxr  -0.67168
gfz2013xvps  -0.09264
gfz2013xxbf   0.61873
gfz2013xycz  -0.25967
gfz2013xzxe  -0.20071
gfz2013yfwz  -1.98550
gfz2013yihv  -0.24749
gfz2013ykkf  -0.64876
gfz2013ykqw  -1.83590
gfz2013yktj   0.42481
gfz2013ylxm  -1.37950
gfz2013ylxn   0.28121
gfz2013ymhx  -0.47161
gfz2013yodm   0.18510
gfz2013yqkz  -0.06564
gfz2013yqtu   0.03468
gfz2013ytfm   0.35786
gfz2013yvnj   0.57930
gfz2013yxhf   1.01320
gfz2013yxif   0.74879
gfz2013yywh   0.42377
gfz2013zedt   0.35998
gfz2013zeye  -0.48623
gfz2013zfbz   0.28367
gfz2013zkgm   0.15177
gfz2013zkzb   0.28901
gfz2013zlak  -1.01750
gfz2013zlij   0.40189
gfz2013zpwk   0.15313
gfz2013zqan   0.27858
gfz2014aapq   0.47408
gfz2014aedl   0.60196
gfz2014aejh   0.18512
gfz2014ajgi   0.07975
gfz2014aluc  -4.07530
gfz2014amgk  -0.79608
gfz2014aqax  -0.49704
gfz2014aqop  -0.53078
gfz2014ascp   0.35365
gfz2014ateb   0.66740
gfz2014avag   0.33231
gfz2014avmd  -0.16545
gfz2014avux  -1.91490
gfz2014avzp  -0.25959
gfz2014ayxf  -1.38350
gfz2014azfu  -0.06804
gfz2014bdju   0.07462
gfz2014befl   0.03937
gfz2014bgyv   0.26891
gfz2014bkra  -0.03791
gfz2014bmch   0.23999
gfz2014bmqw   4.46820
gfz2014bnea  -0.18188
gfz2014bppg  -0.35627
gfz2014bqpm   0.28248
gfz2014brkk   0.27859
gfz2014bumr   0.18379
gfz2014buyz  -0.25083
gfz2014byes  -0.37940
gfz2014bzus   0.02046
gfz2014cbfo   1.37150
gfz2014cgoi   0.29603
gfz2014cjao   0.61371
gfz2014ckqv   0.32542
gfz2014club   0.74996
gfz2014cncl  -1.57710
gfz2014cokw  -0.07945
gfz2014crac   0.03519
gfz2014ctdl   0.24597
gfz2014cvnb   0.52752
gfz2014cwti   0.34044
gfz2014dbqi   0.18500
gfz2014dece  -0.54783
gfz2014dggw  -0.34275
gfz2014dihl  -1.32870
gfz2014diuu  -1.20260
gfz2014djyj   0.52072
gfz2014dmrw  -0.13537
gfz2014dpps   0.68515
gfz2014dsqr   0.57548
gfz2014dtth  -0.11969
gfz2014dtto  -0.64545
gfz2014dudd  -1.21370
gfz2014dutu   0.28032
gfz2014dwcp   0.73824
gfz2014dykt  -0.51771
gfz2014edjm   0.33236
gfz2014edmd  -0.96953
gfz2014eflc   0.94925
gfz2014eiav   0.62179
gfz2014eirs   0.56022
gfz2014ejfx  -0.12822
gfz2014emlw   0.10427
gfz2014eoay   0.38399
gfz2014epfm   0.08396
gfz2014epnq   0.35709
gfz2014epue   2.43290
gfz2014esez   0.18056
gfz2014etgp   0.24303
gfz2014eunw  -0.33919
gfz2014evgu   0.76634
gfz2014evhm  -0.37245
gfz2014exxj  -0.35695
gfz2014eysf   0.17328
gfz2014ezvj   0.94494
gfz2014fbli   0.71205
gfz2014fbnr  -1.28120
gfz2014fjfz   0.51667
gfz2014flxk   0.42741
gfz2014fmdc  -0.04121
gfz2014fqas   0.62887
gfz2014fsir   0.58164
gfz2014fsje   0.58796
gfz2014fskh   0.49849
gfz2014fsvc  -0.71021
gfz2014fvza   0.42880
gfz2014fwuf   0.11254
gfz2014fwxt   0.69283
gfz2014fxte   0.41466
gfz2014fxtv   0.00000
gfz2014fxuy  -0.07249
gfz2014gbxg  -1.10810
gfz2014gdbh   0.62002
gfz2014geln  -0.38931
gfz2014gnbw   0.49643
gfz2014grwv   0.32580
gfz2014gsfc  -0.19885
gfz2014gtee   0.03197
gfz2014gtoj   0.19169
gfz2014gutd  -2.06420
gfz2014gypw   0.16442
gfz2014gzlm   0.38367
gfz2014hapg  -1.47190
gfz2014happ  -0.84997
gfz2014herz   0.58218
gfz2014hgjb  -0.08019
gfz2014hhey  -0.40246
gfz2014hhis  -0.29659
gfz2014hjmc  -0.92014
gfz2014hkcw   0.16580
gfz2014hotu  -1.00430
gfz2014hqhv   0.38918
gfz2014huqh  -1.06450
gfz2014hyea  -0.00518
gfz2014hzzf   0.26109
gfz2014iaqm  -0.66960
gfz2014iayo  -0.82257
gfz2014icov  -1.10270
gfz2014igrp   0.52084
gfz2014ijsa  -0.22594
gfz2014iltl   0.91876
gfz2014ined  -1.52920
gfz2014ipfu   0.39665
gfz2014irlf   0.28015
gfz2014irly   0.35146
gfz2014isjg   0.48313
gfz2014isov  -0.52966
gfz2014itlx   0.36354
gfz2014iusw   0.42134
gfz2014ivgm  -0.08514
gfz2014ixlc   0.45756
gfz2014iyuc   0.65167
gfz2014jarg  -0.19981
gfz2014jaxy   0.04438
gfz2014jayh   0.69340
gfz2014jbfp  -0.11779
gfz2014jckg  -0.63906
gfz2014jffe  -3.19420
gfz2014jfmc  -1.06740
