# Nsamples: 1152  MAD:  0.628  mean: -0.064  std:  0.879
gfz2010abfc   0.60569
gfz2010abvu  -1.02280
gfz2010axdz  -2.92930
gfz2010azji   0.57892
gfz2010bgrt  -3.33010
gfz2010bkfi   0.31648
gfz2010bklj  -0.60560
gfz2010bmls  -1.93030
gfz2010bnbr   0.18424
gfz2010bnqr  -0.16415
gfz2010bofe  -1.57540
gfz2010bqnk   0.25101
gfz2010brlc   0.85765
gfz2010brrm   0.59476
gfz2010btme  -0.71898
gfz2010bukb   0.03574
gfz2010bvit   0.05757
gfz2010cbnp   0.14874
gfz2010ccse  -0.44535
gfz2010ccwc   0.46179
gfz2010ccye   0.30616
gfz2010clbw   0.45411
gfz2010cllh  -1.42630
gfz2010cngg   0.50119
gfz2010cnyi  -0.01994
gfz2010colm   0.21939
gfz2010cphq  -0.98718
gfz2010cpig  -0.53489
gfz2010cqoq   0.60403
gfz2010crgy   0.83255
gfz2010crir   0.09503
gfz2010csle  -0.71765
gfz2010csmw   0.02030
gfz2010csqg  -2.63150
gfz2010csqy   0.53188
gfz2010ctak  -0.98112
gfz2010cthm  -0.87647
gfz2010cvam   0.22382
gfz2010cvkn   1.00230
gfz2010cwrk   0.02049
gfz2010cyid  -0.83720
gfz2010dask  -0.42351
gfz2010depd  -1.96240
gfz2010diid  -0.09055
gfz2010djib   1.54900
gfz2010dmij  -0.41136
gfz2010dmkd  -0.29884
gfz2010dpgt  -0.10972
gfz2010drit  -0.66041
gfz2010drml  -2.46720
gfz2010drmq  -2.46720
gfz2010drng   0.18063
gfz2010drpv   0.20139
gfz2010drun   0.85031
gfz2010dslu  -1.89600
gfz2010dtgc  -0.61117
gfz2010dtyx  -2.47590
gfz2010dumv  -0.24934
gfz2010dwgy   0.03776
gfz2010dxhq  -0.52941
gfz2010eepd   1.17600
gfz2010ehgf  -0.67775
gfz2010eibh  -0.31317
gfz2010ekvl  -0.45238
gfz2010elge   0.80893
gfz2010euue  -0.06612
gfz2010ewyj  -0.75791
gfz2010extu  -0.73151
gfz2010faly   0.08924
gfz2010fgbo  -0.06340
gfz2010hdxn   0.72678
gfz2010hesh   0.27376
gfz2010hexh   0.71909
gfz2010hllp  -0.55202
gfz2010hnuo  -0.56287
gfz2010hsgv   0.53076
gfz2010hueh  -2.28330
gfz2010huzl  -0.64921
gfz2010hxan   0.19735
gfz2010iaay  -1.49400
gfz2010iawy   0.10177
gfz2010ifhd   0.50632
gfz2010ifru  -0.16544
gfz2010inbs   0.34983
gfz2010inkz  -0.08532
gfz2010ioad   0.22651
gfz2010ixjl  -0.06333
gfz2010izag   0.15484
gfz2010izgb   0.07678
gfz2010jcby   0.37333
gfz2010jcpq   1.03620
gfz2010jdhk  -0.30199
gfz2010jgwj  -0.15232
gfz2010jkrp   1.49300
gfz2010jlvp   0.00234
gfz2010jpkn  -0.12388
gfz2010juke   0.15315
gfz2010jvsi  -2.00110
gfz2010jyvd  -0.60896
gfz2010kcyz  -0.11122
gfz2010kuzb   1.68130
gfz2010kwks  -0.03463
gfz2010kzzm  -0.65193
gfz2010ljmp   0.24296
gfz2010ljol  -0.28729
gfz2010ljzf  -0.61049
gfz2010mqzz  -0.05625
gfz2010nccu   0.06601
gfz2010ncwu  -0.53053
gfz2010nkrw   0.96867
gfz2010nlai   0.61194
gfz2010novb   0.24839
gfz2010nwbd  -0.02900
gfz2010nwyk   0.91385
gfz2010ocug   1.71780
gfz2010onxm  -0.55954
gfz2010pngv  -1.03060
gfz2010qdqk  -0.52081
gfz2010qrix   0.26994
gfz2010qrta   0.16598
gfz2010qykh  -1.84920
gfz2010qylh  -0.16254
gfz2010qzvf  -0.77812
gfz2010rdep  -0.63028
gfz2010rdip   0.10749
gfz2010rkuu  -0.29000
gfz2010rljv  -0.19116
gfz2010rmua   0.87044
gfz2010rnqa  -2.29560
gfz2010rnwt   0.54892
gfz2010rpbz   0.19847
gfz2010rpjd  -0.07300
gfz2010xezr  -0.26891
gfz2010xhqq  -0.34831
gfz2010xpzq   0.02523
gfz2010xvev   0.16282
gfz2010xytc   0.57284
gfz2010xzah  -0.79748
gfz2010xzte  -0.21361
gfz2010yczp   0.44919
gfz2010yfdr   0.06238
gfz2010ygrd  -0.08634
gfz2010yhdn  -0.16225
gfz2010yhhj  -0.20606
gfz2010yilf  -0.39154
gfz2010ymih  -0.27559
gfz2010yrex   0.20304
gfz2010ytzb   0.56605
gfz2010zaxv  -1.41290
gfz2011awsv   0.02526
gfz2011bazz  -0.41039
gfz2011bcvc  -0.57226
gfz2011bffb  -0.56142
gfz2011biin  -0.81894
gfz2011boaz  -0.92345
gfz2011bpqm  -0.00000
gfz2011bqbx  -2.35460
gfz2011bsvr   1.25370
gfz2011bvog  -1.25760
gfz2011bwsm  -2.52690
gfz2011bygs  -0.00192
gfz2011bygu   0.48704
gfz2011bzio  -0.18085
gfz2011cdge  -1.67670
gfz2011cfyy  -0.51020
gfz2011chsa  -0.03844
gfz2011cjcv   0.21172
gfz2011cjuz  -0.68162
gfz2011clwu   0.10607
gfz2011cwsm  -0.37111
gfz2011cwzi  -0.06778
gfz2011cxdj  -0.12095
gfz2011dabj   0.25641
gfz2011dbzc   0.13040
gfz2011dhfg   0.39828
gfz2011dhqk  -0.34148
gfz2011dmdv  -0.10429
gfz2011dpyu   0.76267
gfz2011drmu   0.33229
gfz2011duvm  -1.02930
gfz2011dwae   0.15130
gfz2011dzmf  -1.06340
gfz2011ecce   1.74860
gfz2011edrq   0.33477
gfz2011emzr   0.05743
gfz2011etkc  -0.12231
gfz2011exxq  -2.35320
gfz2011fbsl  -1.20250
gfz2011ffdh  -0.28152
gfz2011fges   0.50883
gfz2011fnie  -0.62098
gfz2011fnuk   0.26115
gfz2011fnxz   0.28200
gfz2011fszl  -0.08903
gfz2011fxmf   0.13646
gfz2011fyfu  -0.33999
gfz2011fzcw  -3.21610
gfz2011gaax  -0.09285
gfz2011gcct  -1.59370
gfz2011gdli   0.08489
gfz2011gdrl   0.48084
gfz2011gfer  -0.04873
gfz2011ggnl   0.98773
gfz2011ggsz   0.03959
gfz2011gkdx  -0.49697
gfz2011glpg  -0.05500
gfz2011gnbk   0.12808
gfz2011gpyr   0.00762
gfz2011grby  -1.74710
gfz2011haaa   0.41234
gfz2011hatg   0.29321
gfz2011hbqc  -0.17044
gfz2011hffq   1.89830
gfz2011hibi  -1.62960
gfz2011hjof  -0.63476
gfz2011hmnw   0.20480
gfz2011hqjs   0.35245
gfz2011hrgt  -0.79587
gfz2011hvzo  -1.35220
gfz2011hyct  -0.20552
gfz2011hyuh   0.23018
gfz2011iamf  -0.04206
gfz2011ibew  -0.83410
gfz2011ifta   0.26279
gfz2011inan  -2.54400
gfz2011ioch  -1.63690
gfz2011iryz   0.17513
gfz2011itcv  -0.75230
gfz2011ituo  -0.22850
gfz2011ixpj  -0.05432
gfz2011iybf   0.45031
gfz2011jdoz  -0.38061
gfz2011jfyb   0.16022
gfz2011jphj  -0.50076
gfz2011jpob   0.02523
gfz2011jqyc   0.02147
gfz2011jryv  -0.02072
gfz2011jtij  -0.32606
gfz2011kfch  -0.99602
gfz2011kgvq   0.68204
gfz2011kjzt  -0.10299
gfz2011kjzv   0.15957
gfz2011kmge  -0.51037
gfz2011ksxc  -0.88765
gfz2011kujo  -0.06568
gfz2011kylu   0.07340
gfz2011kymm  -1.14030
gfz2011kyzy  -0.03267
gfz2011lbnn   0.51973
gfz2011ldgl   0.26520
gfz2011lkkf   0.63791
gfz2011lmug   0.11235
gfz2011lnzf   0.04156
gfz2011lrpv   0.70226
gfz2011lwmg  -0.15538
gfz2011lxga   0.73077
gfz2011lykm   0.53962
gfz2011mdyq  -0.11124
gfz2011melb  -2.62920
gfz2011mjje   0.49754
gfz2011mllb  -0.70518
gfz2011mntq   0.55901
gfz2011moob  -1.43660
gfz2011mror   0.50550
gfz2011mrpy  -1.04850
gfz2011nblt   0.29627
gfz2011ncyw  -0.51468
gfz2011ndhh   0.76667
gfz2011ndki   0.24503
gfz2011ndlh   0.16264
gfz2011ndse   0.04070
gfz2011ndtp  -0.46634
gfz2011ndvj  -0.14418
gfz2011ndyk  -1.30880
gfz2011neai   0.70788
gfz2011nejg  -0.09446
gfz2011nejw   0.75642
gfz2011nerb   1.02970
gfz2011nfcz   0.45066
gfz2011nfgt  -0.46666
gfz2011nfih   0.13640
gfz2011nfln   0.38419
gfz2011nftw  -0.15040
gfz2011nfww  -0.17870
gfz2011nhby   0.22119
gfz2011nhhd  -0.06634
gfz2011nhjv  -0.80121
gfz2011nhvt   0.29639
gfz2011nhwf  -0.66065
gfz2011nifi   1.58170
gfz2011nihq  -0.94925
gfz2011nijp   1.10050
gfz2011nilw   0.75917
gfz2011nimp  -0.77499
gfz2011nioi   0.34290
gfz2011nisj  -0.58515
gfz2011niuw   2.31570
gfz2011nivw  -0.09538
gfz2011nkda  -0.19882
gfz2011nkou  -1.52400
gfz2011nlmf  -0.59362
gfz2011nlnl   0.49295
gfz2011nlok   1.31030
gfz2011nlou  -0.88742
gfz2011nlum  -1.47870
gfz2011nlyw  -1.70190
gfz2011nmdz   0.14822
gfz2011nnda   0.09117
gfz2011nnos  -0.54857
gfz2011npaf  -0.11259
gfz2011npeu  -2.38570
gfz2011nsej  -0.58046
gfz2011nsiy  -1.16220
gfz2011nsrx  -0.36063
gfz2011nssr  -1.04210
gfz2011nsyi   1.56280
gfz2011ntyd  -0.69428
gfz2011nuqo  -1.68180
gfz2011nvty   0.85832
gfz2011nyzk  -1.25330
gfz2011oadm   0.02482
gfz2011oazk   0.52080
gfz2011ocif   0.02066
gfz2011oekz  -1.07590
gfz2011oesd  -0.77250
gfz2011ofpj  -0.04740
gfz2011ohgj  -0.16505
gfz2011omxt   0.28145
gfz2011oosp   0.01260
gfz2011oqjl   1.08780
gfz2011oslk   1.00570
gfz2011osmp   0.05545
gfz2011osuy   0.11012
gfz2011owqa   0.17978
gfz2011paqj   0.41412
gfz2011pbgh  -3.90580
gfz2011pbjh  -0.04591
gfz2011pcqr  -0.26794
gfz2011pdgq   0.17733
gfz2011pdsn   2.00850
gfz2011pfls  -0.17443
gfz2011pfwq   0.06062
gfz2011pgzk   0.66244
gfz2011pimj   0.07994
gfz2011pivq   1.05370
gfz2011plzc   0.49916
gfz2011pmuv   1.19240
gfz2011poug  -0.11061
gfz2011pphc  -1.62630
gfz2011ppsc  -0.06465
gfz2011prrq  -0.14329
gfz2011ptgd  -1.18550
gfz2011pulu  -0.64009
gfz2011pwbw   0.05071
gfz2011pwld  -0.42950
gfz2011qasw   0.56706
gfz2011qenl  -0.80834
gfz2011qgea  -0.96580
gfz2011qgvh   0.17126
gfz2011qgvx   0.19992
gfz2011qidi  -0.54428
gfz2011qklh  -1.28860
gfz2011qlkj   0.17785
gfz2011qowe  -0.53476
gfz2011qtoy  -1.29850
gfz2011qukj  -0.28148
gfz2011rbuo   0.45910
gfz2011rczb   0.10883
gfz2011rkau   0.10231
gfz2011rkzx  -0.38343
gfz2011rnny   0.08779
gfz2011rnsp   0.25170
gfz2011rplo  -0.12746
gfz2011rpoo   0.01334
gfz2011rqut   0.27280
gfz2011scma   0.41293
gfz2011sdax   0.06933
gfz2011sdpl   0.66184
gfz2011sfmu   1.02750
gfz2011sfph   0.58514
gfz2011sqco  -0.11294
gfz2011sqxp  -1.34640
gfz2011sskq  -0.84749
gfz2011stzi   0.45164
gfz2011swfp  -1.30380
gfz2011sxno  -0.02131
gfz2011sylg  -0.82865
gfz2011syvj   2.08900
gfz2011syzr   0.86412
gfz2011szau  -0.04398
gfz2011szcj  -0.55343
gfz2011szis  -1.11440
gfz2011taqr   1.19190
gfz2011tdjj  -0.11909
gfz2011tfor  -0.93245
gfz2011tgon  -0.47036
gfz2011tjpv  -0.32853
gfz2011tlwl   0.91458
gfz2011tozo   0.61676
gfz2011txxs  -0.12794
gfz2011tzcv   1.90650
gfz2011unud  -0.84046
gfz2011uqlz  -0.50381
gfz2011uqry   0.52066
gfz2011urwz  -0.57272
gfz2011uvsi   0.62870
gfz2011vahy   0.33333
gfz2011vaoi  -0.46318
gfz2011varl   1.24250
gfz2011vbxv   1.14040
gfz2011vcyx  -0.01620
gfz2011vimn   0.52367
gfz2011vsag   0.37063
gfz2011vswj   0.55583
gfz2011vtdl   0.31876
gfz2011vtzv  -0.14289
gfz2011vxek   0.36804
gfz2011wbtc   0.36110
gfz2011wcvs  -2.32910
gfz2011wfsk   0.70573
gfz2011wgoa  -0.04520
gfz2011wgvh  -2.12560
gfz2011wkja   0.52538
gfz2011wkyx  -1.12990
gfz2011wngi   0.60054
gfz2011wnjg  -1.66350
gfz2011wpzt   0.75088
gfz2011wqth   0.67475
gfz2011wqup   0.08806
gfz2011wucg  -0.56645
gfz2011wwze   0.27083
gfz2011wzss  -0.25441
gfz2011xagc   0.13666
gfz2011xawm  -1.33280
gfz2011xdox   0.63316
gfz2011xgbc  -0.57162
gfz2011xgwy  -0.19914
gfz2011xlod   0.45291
gfz2011xnui   0.17662
gfz2011xpcq   0.57928
gfz2011xxng  -1.03190
gfz2011yeck   0.00000
gfz2011yjtx   0.96166
gfz2011ymji   0.27476
gfz2011yrfa   0.33583
gfz2011ytob   0.47791
gfz2011ytwk   1.11160
gfz2011ywtj   0.71560
gfz2011zcwn   0.69497
gfz2011zdyf  -1.13410
gfz2011zghc  -0.41560
gfz2011zgxn   0.01003
gfz2011ziyk   0.85635
gfz2011zkbt   0.02365
gfz2012adja   0.50133
gfz2012agwh  -1.73480
gfz2012ahac   0.42658
gfz2012aisj   1.24550
gfz2012alti  -0.27997
gfz2012amjx   1.12570
gfz2012amvs   0.61524
gfz2012aqpa   0.16011
gfz2012arlo  -1.41740
gfz2012asld  -0.16757
gfz2012atjr  -1.39390
gfz2012avvc  -0.42280
gfz2012axrp  -0.70756
gfz2012bcvn  -0.69164
gfz2012beae   0.10997
gfz2012bity   0.29305
gfz2012bjhl   0.31871
gfz2012bnwa   0.47677
gfz2012bqcf   0.94302
gfz2012byrq   0.61681
gfz2012bysu   0.12702
gfz2012bytv   0.01177
gfz2012byuk   0.73229
gfz2012cdju   0.75046
gfz2012cfdw   0.71308
gfz2012cksh  -1.29880
gfz2012cmww   0.67086
gfz2012cntu   0.13450
gfz2012crpb  -0.01609
gfz2012cvfr   0.33855
gfz2012cwhl   0.22704
gfz2012cxhw  -1.18720
gfz2012czvh  -0.91336
gfz2012dcjd   0.49127
gfz2012dejg  -0.51463
gfz2012dgfk   0.38591
gfz2012dkdy  -0.46548
gfz2012dleg  -3.34120
gfz2012dnig   0.21115
gfz2012dpnu  -0.21644
gfz2012dpwv  -1.14380
gfz2012drak  -0.03336
gfz2012drld  -0.04274
gfz2012drqd  -0.86747
gfz2012dttl   0.56744
gfz2012dtvr   0.42235
gfz2012dugf  -0.58863
gfz2012eeft   0.94556
gfz2012ekfp  -1.13480
gfz2012ekro   0.80906
gfz2012elek   0.16020
gfz2012enio  -0.48331
gfz2012enrg   0.39478
gfz2012erds  -0.61031
gfz2012evav   0.27503
gfz2012evxn   0.37453
gfz2012eyti   0.02419
gfz2012facv   1.04310
gfz2012fbgz   0.75440
gfz2012fcyq  -0.54712
gfz2012fcyr  -0.50131
gfz2012fhaf   0.04157
gfz2012fiiz   0.81049
gfz2012flqf   0.84146
gfz2012fuyd  -0.18131
gfz2012fxgc  -0.76106
gfz2012fyny  -0.15323
gfz2012fyop  -0.24599
gfz2012gbrs  -0.77528
gfz2012gczh   0.40898
gfz2012gdye   0.30719
gfz2012ghiv   0.41866
gfz2012ghyd  -3.70320
gfz2012gjdg   0.13343
gfz2012gjtd  -0.89154
gfz2012gmsr  -0.81093
gfz2012gnow   0.49246
gfz2012gpcd   0.01284
gfz2012grmf   1.05820
gfz2012gubu  -1.89150
gfz2012gvxc  -0.23838
gfz2012gzuk  -0.57649
gfz2012hdny  -0.72701
gfz2012heih   0.57093
gfz2012hhlx  -0.44935
gfz2012hkxs  -0.22018
gfz2012hlya  -5.73820
gfz2012hmcv  -0.10418
gfz2012hnyy  -1.94250
gfz2012hvfw   0.70056
gfz2012hvjc  -0.43507
gfz2012hvtu   0.07983
gfz2012hwph   0.16527
gfz2012hyba   0.59320
gfz2012hyqh   0.06509
gfz2012hysb  -1.29100
gfz2012hzhn  -0.69759
gfz2012hzur   1.12640
gfz2012iblc   0.23605
gfz2012iblo  -0.72113
gfz2012ibyd   0.38910
gfz2012icjo  -1.21720
gfz2012iedy  -0.89794
gfz2012iijk  -0.71845
gfz2012imsm  -1.94490
gfz2012imuo  -1.14000
gfz2012iotw   0.35344
gfz2012ipdc   0.93735
gfz2012iroy  -0.03355
gfz2012ivyg  -1.78060
gfz2012iyhs   0.21670
gfz2012iyoi  -0.30434
gfz2012izke  -0.95152
gfz2012jawj   0.23529
gfz2012jksz  -1.03730
gfz2012jlez  -0.86751
gfz2012jnlt   0.90327
gfz2012jqxx   0.10323
gfz2012juem   0.13322
gfz2012jxnm   0.85524
gfz2012jxxe   0.96520
gfz2012kadi   0.26984
gfz2012kbub   0.96974
gfz2012klpl   0.03802
gfz2012kmbo  -0.88700
gfz2012kmmz  -0.01133
gfz2012kstg  -0.11960
gfz2012kwmx   0.73845
gfz2012lcro  -1.11570
gfz2012ldjj  -0.79571
gfz2012lqhw   0.34022
gfz2012luzm   0.31757
gfz2012lvlr   1.14680
gfz2012lvwx  -0.06283
gfz2012lwha  -1.67690
gfz2012lyqs  -2.82530
gfz2012lyyr  -0.13507
gfz2012mcrb   0.21618
gfz2012mmiw   0.05175
gfz2012movv  -1.16330
gfz2012mowv   0.33472
gfz2012mpzo   0.88745
gfz2012mrqk   0.50810
gfz2012mrwu   0.35185
gfz2012mtyn   0.84852
gfz2012mvgu   0.57404
gfz2012mwhe  -0.09697
gfz2012mxdk  -0.19480
gfz2012mxvk   0.86589
gfz2012mzco   0.07212
gfz2012ndsk  -0.87503
gfz2012ndwt  -0.02195
gfz2012nfos   0.64938
gfz2012nfzc   0.21111
gfz2012nldz   0.22574
gfz2012nlrb  -0.18351
gfz2012nmja   0.00000
gfz2012nnsl   0.00000
gfz2012nqvd   0.46940
gfz2012nsxc  -0.19716
gfz2012oafg   0.09329
gfz2012oehy   0.47309
gfz2012ofaj  -0.20320
gfz2012ofnx   0.32885
gfz2012ohgd   0.21614
gfz2012oieq   1.00790
gfz2012oiez  -1.05930
gfz2012onhu  -1.33400
gfz2012oork   0.08780
gfz2012oozp  -1.23760
gfz2012oyja   0.60628
gfz2012pcui  -0.44917
gfz2012pdav  -0.24538
gfz2012pdfi  -0.32917
gfz2012pdjt   0.10982
gfz2012pekf  -0.04476
gfz2012pgmw   0.96321
gfz2012phns   0.56297
gfz2012pira   0.11601
gfz2012pmuj   1.31020
gfz2012pmuq  -1.42360
gfz2012pmws  -0.53106
gfz2012qmhz  -1.31600
gfz2012qoev  -0.26812
gfz2012rduv  -1.10500
gfz2012rfhw  -1.00540
gfz2012rknz   0.31161
gfz2012rnbw   0.64421
gfz2012roan  -0.26693
gfz2012sfao   0.37067
gfz2012sgfd  -0.88605
gfz2012sjdy   0.51801
gfz2012sjox   0.16538
gfz2012slfd  -0.28365
gfz2012smyn  -0.85438
gfz2012socz  -0.28594
gfz2012sopp   0.00000
gfz2012sqsc  -1.65490
gfz2012ssnb  -1.12980
gfz2012ssvn   0.12870
gfz2012stxx   0.46060
gfz2012suqd  -1.00660
gfz2012svwz  -0.12159
gfz2012swbz   0.47865
gfz2012sxbo  -1.43710
gfz2012sxpr  -1.89570
gfz2012syum  -0.62815
gfz2012taph  -0.07620
gfz2012tisj  -0.86249
gfz2012touh   0.18565
gfz2012tqjc  -0.16845
gfz2012trfq   0.06939
gfz2012trss  -1.17770
gfz2012tsdz  -1.43870
gfz2012ttnf   0.35406
gfz2012tvgw  -0.39018
gfz2012twec   0.42199
gfz2012tyoz   0.67080
gfz2012udeo   0.36479
gfz2012uegq  -0.84803
gfz2012uhsx   0.08541
gfz2012uhtc   0.29683
gfz2012ukzg   0.21896
gfz2012ulei  -0.77922
gfz2012umob   0.27996
gfz2012unxc   0.09531
gfz2012uovh  -0.13314
gfz2012urtu  -0.07796
gfz2012utdu   0.07919
gfz2012uvea   0.29134
gfz2012uvoa   0.63097
gfz2012uwne   0.25561
gfz2012uzuu   0.14928
gfz2012uzww   0.27619
gfz2012vaqd   0.21571
gfz2012vcqw   0.09708
gfz2012vdsl   0.57127
gfz2012vgot   0.47273
gfz2012vile  -0.73898
gfz2012vioy   0.50142
gfz2012vitw   0.75866
gfz2012vkjw   0.61380
gfz2012vlzv  -0.33224
gfz2012vqjw   0.10026
gfz2012vqmq   0.04023
gfz2012vrqz   0.78488
gfz2012vurc   0.61655
gfz2012wdvt   0.49946
gfz2012wdxk  -0.07389
gfz2012wgdv   0.01147
gfz2012wgmg  -0.12337
gfz2012wgxf   0.03103
gfz2012wiyv  -1.34950
gfz2012wjsi  -1.27030
gfz2012wkki   0.01544
gfz2012wmmw  -0.00000
gfz2012wowu  -1.49210
gfz2012woxj   0.05036
gfz2012wpen   0.10960
gfz2012wqfz  -1.07970
gfz2012wugc   0.38627
gfz2012wysg   0.46347
gfz2012wzja   2.41680
gfz2012xask   0.43015
gfz2012xbna  -0.15854
gfz2012xcsf   0.67477
gfz2012xfnu  -0.09578
gfz2012xfsl   0.28450
gfz2012xkln  -0.00235
gfz2012xkvu   0.96220
gfz2012xlas   0.48209
gfz2012xlfo  -0.54537
gfz2012xncm  -0.13486
gfz2012xrmq   0.17213
gfz2012xtvu   0.26950
gfz2012yegw  -0.80266
gfz2012yihn   0.95169
gfz2012ylai   0.42370
gfz2012yncm  -0.85150
gfz2012yzih   0.47617
gfz2012zhyz  -0.18300
gfz2012zido   0.18130
gfz2012zkhu  -1.94350
gfz2012zmdf   0.64588
gfz2012zmfc   0.17904
gfz2012znou  -0.21593
gfz2012zqis  -0.71306
gfz2013aclz   0.82019
gfz2013adih   0.48018
gfz2013afzh   0.54765
gfz2013agbm  -0.41665
gfz2013aggr   0.78494
gfz2013agmt  -0.89163
gfz2013ajxz  -0.08585
gfz2013akkd   0.36230
gfz2013ascz   0.03173
gfz2013atak  -0.26886
gfz2013aymi  -0.20537
gfz2013bqfc   1.44790
gfz2013bwgw  -0.67606
gfz2013byyy   0.49264
gfz2013bzwa  -1.79050
gfz2013ccng  -0.02006
gfz2013cfls  -0.24309
gfz2013cinv   0.65334
gfz2013ciof  -0.98660
gfz2013cqak  -0.17421
gfz2013cvve  -0.94069
gfz2013cyvx   0.34735
gfz2013dbhl  -0.07736
gfz2013ddrx  -0.75868
gfz2013delq  -0.31377
gfz2013dftb   0.88760
gfz2013dfvx  -0.20773
gfz2013dksc   0.16248
gfz2013dmzh  -0.04236
gfz2013dngd  -0.45335
gfz2013dnot   0.45346
gfz2013dtjl   1.07140
gfz2013dwsp  -1.18440
gfz2013dznt  -1.17690
gfz2013dzvr   0.03846
gfz2013eavq   1.13810
gfz2013eazm   0.09567
gfz2013efct   0.63098
gfz2013efys  -0.00000
gfz2013egfv  -3.08490
gfz2013eidd   0.54434
gfz2013ektd   0.15481
gfz2013enga  -0.38178
gfz2013enqo   0.06533
gfz2013enrh   0.29931
gfz2013esef  -2.23280
gfz2013evcl   0.88514
gfz2013ewht   0.15462
gfz2013eyyo  -0.63730
gfz2013ezmc   0.27948
gfz2013ffjt  -0.22270
gfz2013fhzy  -0.04009
gfz2013fmcd   0.66979
gfz2013fmcp  -0.00780
gfz2013fndg  -0.19801
gfz2013fnpa   0.69581
gfz2013foto   0.41246
gfz2013frxd   0.14678
gfz2013fskp   0.64913
gfz2013fthi   0.07133
gfz2013fulo   0.42500
gfz2013fvht   0.39317
gfz2013fvyr  -0.41051
gfz2013fvzv   0.14067
gfz2013fxyr   1.12670
gfz2013fybd  -1.16530
gfz2013gaqx  -0.63248
gfz2013gbma   0.57221
gfz2013gglk   2.60900
gfz2013gkyn   0.44051
gfz2013glkq   0.68855
gfz2013glpz  -0.20303
gfz2013gomv   0.45801
gfz2013grle   0.59733
gfz2013gugi  -0.23039
gfz2013gurk   0.67141
gfz2013gxye   0.26724
gfz2013gyce   0.09452
gfz2013gywl   0.19603
gfz2013havw   0.29317
gfz2013hbmi   0.26792
gfz2013hbtm   0.76826
gfz2013hbwy  -6.69210
gfz2013hdbp  -0.60827
gfz2013hduf   0.02235
gfz2013hiam   0.54646
gfz2013hjtt  -0.56031
gfz2013hqaa   0.18952
gfz2013hvkg   0.13766
gfz2013hvzv   0.55920
gfz2013hwps  -0.42037
gfz2013icgx   0.71241
gfz2013icql   0.84788
gfz2013idqu   0.45271
gfz2013ikic   0.10567
gfz2013irme   0.48596
gfz2013iuyv  -1.19440
gfz2013ivvw  -0.07594
gfz2013iwhc  -0.07482
gfz2013iwzn  -0.18355
gfz2013iybg   0.50274
gfz2013jcnn   0.06696
gfz2013jfcn   0.19839
gfz2013jhog   0.38932
gfz2013jjfw   0.07850
gfz2013jkqn  -1.41180
gfz2013jlli   1.87750
gfz2013jobl   0.86432
gfz2013jpir  -0.11711
gfz2013jqsk  -0.41029
gfz2013jrqf   0.26161
gfz2013jzcf   0.29958
gfz2013jzfz  -3.62660
gfz2013kats   0.18397
gfz2013kbbn  -0.65315
gfz2013kbkp   0.23570
gfz2013kcdb  -0.43671
gfz2013kdfy  -0.15477
gfz2013kpcb   1.76310
gfz2013kpes   1.29800
gfz2013kqab  -0.14812
gfz2013kruh  -0.32161
gfz2013ksaz   0.47903
gfz2013kslp   0.38095
gfz2013kuno   1.56280
gfz2013kxlr   0.46695
gfz2013lbod  -0.25406
gfz2013lbvl   0.86123
gfz2013lcrk  -0.21451
gfz2013lgvf   0.34544
gfz2013ljdu   1.10850
gfz2013ljwt   0.41582
gfz2013lnts   0.32074
gfz2013lqjj   0.21871
gfz2013lvxe   0.47537
gfz2013lwtr  -1.11220
gfz2013lxed   0.29260
gfz2013mdxj   0.60971
gfz2013mimp   0.35074
gfz2013mktp   0.05930
gfz2013mnux   3.17060
gfz2013msmy   1.40720
gfz2013mvgq  -0.39789
gfz2013mynb   0.02226
gfz2013mzaw   0.59735
gfz2013nhkw  -3.13900
gfz2013njck   1.51300
gfz2013njwj   0.33118
gfz2013nkgd   2.17050
gfz2013nkgt   0.87677
gfz2013nnai   0.27100
gfz2013ntfc   0.87468
gfz2013ntiu  -1.97250
gfz2013ntxw  -0.34276
gfz2013oeni   0.23449
gfz2013ohdt   0.01947
gfz2013ohnj   0.30084
gfz2013oizq  -0.28507
gfz2013ojza   0.04773
gfz2013okac   0.70419
gfz2013okxa   0.71553
gfz2013olos   1.12530
gfz2013onvl   0.05023
gfz2013opkx  -0.94890
gfz2013orot   0.13992
gfz2013ortl   0.24618
gfz2013oruq   0.39531
gfz2013osmj  -0.87821
gfz2013otuj   0.19318
gfz2013otxp  -0.84593
gfz2013oywh  -0.63713
gfz2013pegj   0.30688
gfz2013phhi  -0.12576
gfz2013phly   2.13720
gfz2013pizm   0.74315
gfz2013pkmz  -0.69299
gfz2013pqkp  -0.18308
gfz2013pvsa  -0.69713
gfz2013pzdr   0.70196
gfz2013qapj   0.36071
gfz2013qdks   0.47705
gfz2013qdno   0.40173
gfz2013qdpv   0.79246
gfz2013qdzg  -1.86410
gfz2013qear   0.04254
gfz2013qigb  -0.04000
gfz2013qmkt  -1.37150
gfz2013qnqr   0.56969
gfz2013qntl  -0.01322
gfz2013qoak  -0.86000
gfz2013qogb   0.36183
gfz2013qqyo   0.44370
gfz2013quwz   0.03641
gfz2013quyn   1.01930
gfz2013qwnm   0.69112
gfz2013qxof   0.64996
gfz2013rdmn   0.29173
gfz2013rfik   0.40905
gfz2013rhbx   0.18907
gfz2013rhxf  -0.19268
gfz2013rnsa   0.61014
gfz2013rocs   0.08178
gfz2013rsyt  -0.36045
gfz2013rtvy   0.21528
gfz2013rwkj   0.59263
gfz2013rwog   0.40975
gfz2013ryfc   0.35375
gfz2013ryph   0.54288
gfz2013sbsl   0.56442
gfz2013sbsp  -0.06736
gfz2013sdkg   0.27145
gfz2013sdym   0.31011
gfz2013skay  -0.17333
gfz2013skvq   0.35521
gfz2013stou   0.45565
gfz2013stup   0.78737
gfz2013suck   0.67019
gfz2013swnj  -0.03040
gfz2013syqp   0.30405
gfz2013taeb  -1.11920
gfz2013tcju   0.33719
gfz2013tdsx  -0.18676
gfz2013tekq   0.52401
gfz2013tert  -1.34370
gfz2013tgia   0.45173
gfz2013tgyb   0.64510
gfz2013timw  -0.16153
gfz2013tjub   0.89308
gfz2013tkcg   0.88967
gfz2013tmyj   0.74613
gfz2013tnff  -0.61050
gfz2013tnrp   0.50724
gfz2013trsq   0.58004
gfz2013uafv   0.72519
gfz2013ubgt   1.44520
gfz2013udtw   0.92656
gfz2013uepl   0.19422
gfz2013unuv   0.65830
gfz2013upqj  -0.30465
gfz2013utqa   0.36549
gfz2013uugc   0.46923
gfz2013uwjo  -0.62810
gfz2013uxzw  -0.38746
gfz2013uzmf   0.49447
gfz2013vcgd   0.43185
gfz2013vdam   0.16292
gfz2013veoz   1.02620
gfz2013veug  -0.10405
gfz2013vfix   0.02156
gfz2013vgfb   0.31181
gfz2013vjrr  -0.16223
gfz2013vjsz   0.73329
gfz2013vldx   0.11656
gfz2013vmrv  -0.58001
gfz2013vmsg  -1.34870
gfz2013vmsn  -0.18155
gfz2013vnwa  -0.79353
gfz2013voai   0.33906
gfz2013vojy   0.19538
gfz2013vvre  -0.61593
gfz2013vwkh   0.63537
gfz2013vxht   0.56944
gfz2013vzel   0.63019
gfz2013vzet  -2.58070
gfz2013wgwz  -0.13542
gfz2013wigs   0.44066
gfz2013wpns   0.52092
gfz2013wwee   0.17256
gfz2013wyfl  -0.25914
gfz2013wyho  -2.78360
gfz2013xacx   0.72795
gfz2013xahp   0.27545
gfz2013xbdc  -1.27730
gfz2013xjmo  -0.58620
gfz2013xmzw  -0.25016
gfz2013xodn   0.52838
gfz2013xofz   0.22867
gfz2013xswc   0.31209
gfz2013xupg  -0.03938
gfz2013xvps   0.35317
gfz2013xxbf  -0.56833
gfz2013xycz   0.43984
gfz2013xzxe  -0.07789
gfz2014bkra  -0.67357
gfz2014bmch   0.56914
gfz2014bmdf  -2.25870
gfz2014bmqw  -0.98409
gfz2014bnea   0.29214
gfz2014bppg   0.07877
gfz2014bqpm   0.49272
gfz2014brkk  -0.11555
gfz2014bumr   0.56104
gfz2014buyz  -0.34049
gfz2014bycg   0.35393
gfz2014byes   0.20902
gfz2014bzus   0.75107
gfz2014cbfo   1.26950
gfz2014cgoi   0.47578
gfz2014cjao   0.69368
gfz2014ckqv   0.27497
gfz2014club   0.72341
gfz2014cncl  -0.89437
gfz2014cokw   0.29448
gfz2014crac   0.70419
gfz2014cvnb   0.66096
gfz2014cwti  -0.45326
gfz2014dbmu  -0.40175
gfz2014dbqi   0.16981
gfz2014dece  -0.32927
gfz2014dggw  -0.41374
gfz2014dihl  -0.17467
gfz2014diuu  -1.87620
gfz2014djhi  -0.10691
gfz2014djyj   0.45599
gfz2014dpny   0.17800
gfz2014dpps   0.57396
gfz2014dsqr  -0.14614
gfz2014dtth   0.19436
gfz2014dtto  -0.39121
gfz2014dudd  -0.27972
gfz2014dutu  -0.92042
gfz2014dwcp   0.77040
gfz2014dykt  -0.83685
gfz2014ecor  -2.45410
gfz2014edjm   0.36363
gfz2014edmd   0.15291
gfz2014eflc   0.51888
gfz2014eglj  -0.25180
gfz2014egvg  -1.54080
gfz2014eiav   0.56670
gfz2014eirs   0.56458
gfz2014ejfx  -0.12612
gfz2014emlw   0.05168
gfz2014eoay   0.67299
gfz2014epfm   0.35763
gfz2014epue  -0.04854
gfz2014esez   0.63537
gfz2014etgp   0.36153
gfz2014etqu  -0.04776
gfz2014eunw   0.73397
gfz2014evgu   0.92188
gfz2014evhm  -0.16583
gfz2014exxj   0.19395
gfz2014eysf  -1.90770
gfz2014ezjq  -1.31620
gfz2014ezld  -4.11650
gfz2014ezvj   0.90809
gfz2014faex   0.36349
gfz2014fbli   0.78078
gfz2014fbnr  -0.83742
gfz2014fjfz   0.43054
gfz2014flxk   0.77754
gfz2014fmdc   0.24665
gfz2014fqas   1.01000
gfz2014fsir   0.65100
gfz2014fsje   0.57094
gfz2014fskh   0.46442
gfz2014fsvc  -0.36212
gfz2014fvza   0.48098
gfz2014fwuf   0.14274
gfz2014fwxt   1.35320
gfz2014fxim  -0.95261
gfz2014fxte   0.66095
gfz2014fxtv   0.12376
gfz2014fxuy   0.65604
gfz2014gasb   0.43071
gfz2014gbxg  -1.23810
gfz2014gcgf   0.31186
gfz2014gcia   0.61147
gfz2014gdbh   0.40000
gfz2014geln   0.26393
gfz2014ggie  -3.90090
gfz2014ginr   1.01280
gfz2014gjfd   0.30903
gfz2014gnbw   0.56271
gfz2014gpnr   1.81510
gfz2014gqxg  -0.61467
gfz2014grwv   0.36515
gfz2014gsfc  -0.53291
gfz2014gssz  -0.05444
gfz2014gtee   0.01604
gfz2014gtoj   0.40039
gfz2014gutd  -0.26676
gfz2014gypw  -0.16107
gfz2014hapg  -0.97941
gfz2014happ  -0.08536
gfz2014hhey  -0.09695
gfz2014hhis  -0.20897
gfz2014hjmc  -0.52220
gfz2014igrp   0.48089
gfz2014ijsa   0.32071
gfz2014ikvw  -0.47797
gfz2014iltl   0.99042
gfz2014imqh   0.49045
gfz2014ined   0.51776
gfz2014inrg   0.13265
gfz2014iolv  -0.52500
gfz2014ipfu   0.60093
gfz2014irlf   0.65141
gfz2014irln   0.45714
gfz2014irly   0.77678
gfz2014isjg   0.62555
gfz2014isov  -0.16653
gfz2014itlx   0.27184
gfz2014ivgm   0.45918
gfz2014ixlc  -0.07917
gfz2014iyuc  -0.02053
gfz2014jarg  -0.12852
gfz2014jaxy   0.19358
gfz2014jayh   0.77807
gfz2014jfmc  -0.45290
