# Nsamples: 107  MAD:  0.499  mean: -0.020  std:  0.742
gfz2012ssvn   0.06336
gfz2012stxx  -0.45429
gfz2012suqd  -0.31141
gfz2012wmmw   0.63320
gfz2012wysg  -0.22698
gfz2012xqxw   0.05272
gfz2012znou   0.10244
gfz2012zqis   0.37696
gfz2013aclz  -0.21675
gfz2013adih  -0.26623
gfz2013aggr   2.27560
gfz2013agmt   1.83990
gfz2013bwgw   1.16380
gfz2013cpjc   0.02006
gfz2013dftb   0.14362
gfz2013eazm  -0.83377
gfz2013efct  -0.38640
gfz2013fnpa  -1.12530
gfz2013gkyn  -0.72889
gfz2013gomv  -0.48656
gfz2013gurk   0.04440
gfz2013gyce   0.94790
gfz2013gywl   0.29042
gfz2013hbmi   0.44471
gfz2013hdbp  -0.50030
gfz2013hinw  -0.84144
gfz2013jobl  -0.37429
gfz2013kats  -0.19049
gfz2013kcdb  -0.93695
gfz2013kslp  -0.16386
gfz2013kuno   0.24391
gfz2013lbod  -0.21347
gfz2013lgvf  -0.65919
gfz2013ljwt  -1.12820
gfz2013lqjj  -0.44163
gfz2013lvxe  -0.69656
gfz2013lxed  -0.19459
gfz2013mdxj   0.12298
gfz2013puiy   0.64809
gfz2013qmkt   0.60088
gfz2013qnqr   0.18360
gfz2013qntl  -0.22722
gfz2013qoak  -0.43510
gfz2013qogb  -0.62325
gfz2013rfik  -0.23611
gfz2013rhbx   0.18297
gfz2013rocs  -0.11499
gfz2013rtvy  -0.13147
gfz2013rwog  -1.88450
gfz2013ryph  -0.32647
gfz2013sdkg   0.24129
gfz2013skay   0.24512
gfz2013tgia  -0.80531
gfz2013tgyb  -0.80386
gfz2013tmyj  -0.23588
gfz2013tnrp  -0.22034
gfz2013ttmk  -0.64970
gfz2013uafv  -0.32209
gfz2013udtw  -0.23363
gfz2013uepl   0.26271
gfz2013ujze   0.14151
gfz2013unuv  -0.91096
gfz2013vcgd  -0.81489
gfz2013vdam  -0.11915
gfz2013veoz   0.03472
gfz2013voai  -0.31256
gfz2013vxht   0.56504
gfz2013vzet  -0.60336
gfz2013wgwz   1.08030
gfz2013wpns  -0.41774
gfz2013wyho   0.49632
gfz2013xddu   1.34190
gfz2013xjmo   0.21772
gfz2013xlic  -0.02678
gfz2013xodn   0.10065
gfz2013xupg   0.67536
gfz2013xuxr  -0.36344
gfz2013xvps  -0.41070
gfz2013xycz   0.01567
gfz2013ykkf   0.10220
gfz2013ylxm   3.18540
gfz2013ylxn   0.27306
gfz2013yodm  -0.56106
gfz2013zbfb   1.53030
gfz2013zpwk  -0.36295
gfz2014byes   0.39524
gfz2014bztn   0.90786
gfz2014cjao  -0.40581
gfz2014ctdl  -0.14972
gfz2014dbmu  -0.27680
gfz2014djhi  -0.32842
gfz2014dpps   0.41623
gfz2014dtth  -0.40438
gfz2014dykt   0.57043
gfz2014eflc  -0.86423
gfz2014epnq   0.09267
gfz2014etgp  -0.27262
gfz2014exxj   0.06523
gfz2014eysf   0.44035
gfz2014fbef  -0.07751
gfz2014fbnr   2.70900
gfz2014fjfz  -0.52983
gfz2014flxk  -0.15039
gfz2014fqas   0.14442
gfz2014fwxt  -0.72477
gfz2014fxtv  -0.50296
gfz2014imqh  -0.56629
