# Nsamples: 32  MAD:  0.668  mean:  0.881  std:  1.053
gfz2012suqd   0.34994
gfz2012syum   0.23492
gfz2012uvoa   1.30530
gfz2012uzww   1.69470
gfz2012xfsl   0.06085
gfz2012xlas   0.03420
gfz2012xlfo   1.32020
gfz2012xncm  -0.04202
gfz2012zkhu   1.07870
gfz2013dngd   0.98414
gfz2013dzvr   2.03800
gfz2013icql   0.56355
gfz2013jhog   0.71534
gfz2013kats   1.16850
gfz2013kbbg   2.17620
gfz2013kcdb   0.60479
gfz2013oizq   1.48290
gfz2013quwz   1.17050
gfz2013qxof   1.32360
gfz2013rdmn   0.38783
gfz2013ryph   0.82534
gfz2013stup   1.14480
gfz2013unuv   1.48120
gfz2013vzel   0.60029
gfz2013xofz   0.63821
gfz2013ykqw  -3.42400
gfz2013zlak   1.95570
gfz2014fmdc  -0.52167
gfz2014fxim   1.02790
gfz2014gypw   1.90150
gfz2014hzzf   1.42960
gfz2014icov   2.47350
