# Nsamples: 42  MAD:  0.682  mean:  1.350  std:  0.903
gfz2012vile   1.80650
gfz2012xlas   0.56633
gfz2012xlfo   1.11640
gfz2012xncm   1.61020
gfz2013jfcn   4.21370
gfz2013kats   1.42330
gfz2013kbbg   1.82830
gfz2013kcdb   1.40220
gfz2013kxlr   1.63710
gfz2013mvgq   2.29830
gfz2013oizq   0.72528
gfz2013oywh   2.60780
gfz2013phhi   1.70920
gfz2013qoak   0.04415
gfz2013quwz   1.07120
gfz2013quyn   1.19130
gfz2013qxof   1.08390
gfz2013rdmn   1.57560
gfz2013unuv   1.29190
gfz2013veug   0.71712
gfz2013vmrv   1.55770
gfz2013vmsg   0.44865
gfz2013vnwa   1.94820
gfz2013vvre   1.90490
gfz2013vzel   0.58995
gfz2013xahp   0.90841
gfz2013xofz   0.55560
gfz2013yawe   0.65261
gfz2014bdju   1.32540
gfz2014fsir   0.99835
gfz2014fxte   1.94680
gfz2014gnvp   2.26500
gfz2014gsfc   0.33697
gfz2014gypw   1.99790
gfz2014hyea   1.07560
gfz2014hzzf   1.00670
gfz2014icov   2.67300
gfz2014irln   1.56490
gfz2014iyuc   0.91175
gfz2014jarg   2.12050
gfz2014jayh   1.72530
gfz2014jbgm  -1.73400
