# Nsamples: 184  MAD:  0.500  mean: -0.273  std:  0.773
gfz2012xxdj  -1.00970
gfz2012yegw   0.20475
gfz2012ylai  -0.55405
gfz2012yncm   1.99190
gfz2012yytb   0.68748
gfz2012yzih  -0.48612
gfz2012zhyz  -0.66598
gfz2012zkhu  -0.47187
gfz2013adih   0.06129
gfz2013agbm   0.12246
gfz2013agmt  -0.78920
gfz2013atak  -0.32469
gfz2013bwgw  -0.39943
gfz2013cinv  -1.15740
gfz2013cokc   0.45129
gfz2013cvve  -0.54729
gfz2013ddrx  -0.24125
gfz2013dftb  -0.76217
gfz2013dfvx  -0.27287
gfz2013djfi  -0.91596
gfz2013dksc  -1.21820
gfz2013dngd  -0.25284
gfz2013dwsp   2.18380
gfz2013eavq  -0.47359
gfz2013efct  -0.72946
gfz2013esef  -0.09067
gfz2013evcl   0.26243
gfz2013ezmc  -0.84362
gfz2013fhzy  -0.67640
gfz2013fmcp   0.04606
gfz2013fnpa  -0.82938
gfz2013fskp  -0.07234
gfz2013fthi   0.13027
gfz2013fvyr  -1.21290
gfz2013fwbm  -1.01940
gfz2013fxyr  -0.31360
gfz2013gjmk   0.93958
gfz2013gqtl   0.38430
gfz2013gsnl  -0.63541
gfz2013gxye  -0.19079
gfz2013gyce   0.54985
gfz2013havw  -0.80157
gfz2013hbmi  -0.33219
gfz2013hdbp   1.29030
gfz2013hduf  -1.12390
gfz2013hjtt  -0.75519
gfz2013hqaa  -0.86342
gfz2013hvzv  -0.61625
gfz2013ikic  -0.62165
gfz2013irme  -0.91201
gfz2013iuyv   0.56788
gfz2013iwzn  -1.07170
gfz2013iybv   0.40979
gfz2013jcnn  -0.70318
gfz2013jhog  -0.78931
gfz2013jjae  -0.29580
gfz2013jkqn  -0.87878
gfz2013jpir   0.73930
gfz2013jqsk  -0.75928
gfz2013kbbg   0.12299
gfz2013kbbn  -0.58593
gfz2013kdfy  -0.35976
gfz2013kjgh  -0.05511
gfz2013kqab  -0.10754
gfz2013lcrk  -0.22088
gfz2013ljdu  -0.37280
gfz2013lnne   1.68890
gfz2013lqjj  -0.69009
gfz2013lrkp  -0.22977
gfz2013lwtr   0.33475
gfz2013lxnd   0.66366
gfz2013mbna   1.49250
gfz2013mdnp   0.76588
gfz2013mimp  -1.08520
gfz2013mvgq  -0.51685
gfz2013mzaw  -0.70435
gfz2013ntiu  -1.03860
gfz2013ohnj  -0.69938
gfz2013okac  -0.01583
gfz2013onvl  -0.71916
gfz2013ortl  -0.67465
gfz2013oruq  -0.68779
gfz2013otuj  -0.26157
gfz2013oywh  -0.07024
gfz2013pizm  -0.12746
gfz2013pkmz  -0.44746
gfz2013qdno  -0.75150
gfz2013qdpv  -0.63494
gfz2013qnqr  -0.37525
gfz2013qxof  -0.86771
gfz2013rocs  -0.72934
gfz2013ryph   0.14735
gfz2013taeb  -0.74443
gfz2013tgyb  -0.36925
gfz2013tmnf  -0.65826
gfz2013ubgt  -0.89974
gfz2013udtw  -0.49480
gfz2013upqj   1.03540
gfz2013uxzw   0.86701
gfz2013uzmf  -0.47389
gfz2013veug  -0.68145
gfz2013vjrr  -1.05600
gfz2013vmsg  -1.31040
gfz2013vmsn   0.15464
gfz2013vnwa  -0.07132
gfz2013voai  -0.32940
gfz2013vojy  -0.47547
gfz2013vsdd   0.15463
gfz2013vxht  -0.01975
gfz2013wgwz  -1.39560
gfz2013xahp  -0.65263
gfz2013xmzw  -0.90906
gfz2013xofz  -1.06240
gfz2013xuxr  -0.42609
gfz2013xvps  -0.52857
gfz2013xzxe  -0.59475
gfz2013yawe   0.62089
gfz2013yihv  -0.72185
gfz2013yktj  -0.61118
gfz2013yodm  -0.62819
gfz2013yvpn  -0.24921
gfz2013zedt   0.09498
gfz2013zfbz  -2.80380
gfz2013zpse   0.43369
gfz2014aedl  -0.18235
gfz2014ajgi  -0.26368
gfz2014alzg  -0.57004
gfz2014aqax  -0.89546
gfz2014aqop  -0.69253
gfz2014ateb  -0.57532
gfz2014ayxf  -0.26299
gfz2014bdju  -0.23932
gfz2014bkra   0.07501
gfz2014bmqw   3.13570
gfz2014bnea  -0.45226
gfz2014bqpm  -0.57948
gfz2014bumr   0.48807
gfz2014club  -0.73181
gfz2014cncl   0.53684
gfz2014cokw   1.30930
gfz2014cvnb  -0.51050
gfz2014dbmu  -0.06018
gfz2014dggw   0.02487
gfz2014dihl   0.36401
gfz2014diuu  -0.51254
gfz2014dmrw  -0.51055
gfz2014dpps  -1.17630
gfz2014dtth  -0.22889
gfz2014dtto  -0.49610
gfz2014dykt   0.01983
gfz2014ecor  -1.28690
gfz2014eglj  -1.41160
gfz2014egvg  -0.05347
gfz2014eirs  -0.60721
gfz2014eoay  -0.81899
gfz2014etgp  -0.28494
gfz2014etqu  -0.56152
gfz2014exxj  -0.22330
gfz2014eysf   0.65274
gfz2014fbli  -0.54168
gfz2014ffqg  -0.79957
gfz2014fjfz  -0.12739
gfz2014flxk   0.51825
gfz2014fmdc  -0.38674
gfz2014fsje  -0.92064
gfz2014fskh  -0.44494
gfz2014gbxg   0.31805
gfz2014gnbw  -0.55278
gfz2014gnvp  -0.54892
gfz2014gsfc  -0.45988
gfz2014gssz  -0.54202
gfz2014gypw  -0.80577
gfz2014hapg  -0.02228
gfz2014happ  -1.09620
gfz2014hkcw  -0.25717
gfz2014huqh   1.46740
gfz2014iaqm   0.11889
gfz2014inrg  -0.00837
gfz2014ipfu  -0.77554
gfz2014irly   4.04470
gfz2014iusw  -0.51828
gfz2014jayh  -0.80434
gfz2014jbfp  -0.45458
gfz2014jffe   0.14970
