# Nsamples: 16  MAD:  1.268  mean:  2.069  std:  1.078
gfz2012gjtd   3.19930
gfz2012gmsr   1.44500
gfz2012hzur   0.55613
gfz2012ldjj   3.51020
gfz2012suqd   2.06130
gfz2012syum   0.92637
gfz2012ulei   1.02910
gfz2012xlas   0.86902
gfz2012xlfo   2.24000
gfz2012xncm   3.35430
gfz2013glkq   3.75230
gfz2013kbbg   2.91750
gfz2013kcdb   1.39570
gfz2013mvgq   1.44310
gfz2014flxk   1.34560
gfz2014huqh   3.05270
