# Nsamples: 128  MAD:  0.905  mean:  0.271  std:  1.111
gfz2011mjje   0.20888
gfz2011mllb   1.51290
gfz2011ndhh  -0.27682
gfz2011ndki  -1.25130
gfz2011ndlh  -0.53023
gfz2011ndse  -2.01540
gfz2011neai  -0.34428
gfz2011nejg   0.07055
gfz2011nejw   0.15145
gfz2011nfgt  -3.07810
gfz2011nhjv   3.06020
gfz2011nhvt  -0.35054
gfz2011nhwf  -0.82935
gfz2011nilw   1.01550
gfz2011niuw   1.12850
gfz2011nkou   2.53200
gfz2011nlmf  -1.56930
gfz2011nlnl   2.94330
gfz2011nlum   0.00000
gfz2011nsiy  -1.22950
gfz2011nssr   1.06200
gfz2011nsyi   1.09410
gfz2011nvty  -0.70435
gfz2011nyzk  -0.82413
gfz2011oadm   0.06968
gfz2011ofpj   0.59836
gfz2011okza   0.90782
gfz2011oqjl  -0.17469
gfz2011paqj  -0.26232
gfz2011pdsn   0.00808
gfz2011pfwq   0.06125
gfz2011plzc   1.07940
gfz2011pphc   1.87610
gfz2011qenl   1.08390
gfz2011qgea  -0.38661
gfz2011qklh  -1.18600
gfz2011rkau  -4.96960
gfz2011scma   0.88153
gfz2011tsgl  -0.82166
gfz2011twpz  -0.48649
gfz2011txxs  -1.11870
gfz2011udxo  -1.46980
gfz2011ugbt   0.35960
gfz2011unud   0.38546
gfz2011uowi   0.30771
gfz2011uqry  -0.52562
gfz2011vcyx  -0.05191
gfz2011wfsk  -0.57266
gfz2011wgoa  -0.05932
gfz2011wkyx   1.19730
gfz2011yexx   0.10116
gfz2011ywtj   0.03168
gfz2012alti   0.83398
gfz2012amjx  -0.33547
gfz2012arlo   0.43021
gfz2012avvc   1.68950
gfz2012bolx   0.70842
gfz2012byrq   0.39853
gfz2012bytv   0.42526
gfz2012byuk   0.62003
gfz2012cdju   0.00441
gfz2012cksh  -2.09400
gfz2012gjtd   0.43202
gfz2012gmsr   0.23628
gfz2012hzur  -0.68512
gfz2012iotw   0.75345
gfz2012ivyg   1.88290
gfz2012kmbo   1.04380
gfz2012kmmz   0.15121
gfz2012moul   2.96760
gfz2012mrqk   0.02491
gfz2012oehy   0.18081
gfz2012pifb   0.91446
gfz2012pziw   1.45140
gfz2012qpoc  -0.20544
gfz2012rjlp   0.02910
gfz2012sjdy   0.47077
gfz2012suqd  -0.36899
gfz2012syum  -0.08182
gfz2012ulei   0.10613
gfz2012uzww   0.36922
gfz2012wowu  -0.53530
gfz2012xlas  -0.46841
gfz2012xlfo   0.37611
gfz2012xncm   0.56496
gfz2013adih   1.70460
gfz2013atec   2.17580
gfz2013bwgw   1.19630
gfz2013byyy   0.44124
gfz2013cfls   0.91886
gfz2013cokc   0.71327
gfz2013cvve   0.86730
gfz2013dngd   0.70624
gfz2013fnpa  -0.49939
gfz2013fwbm   2.10410
gfz2013hqaa  -0.03485
gfz2013kbbg   0.64487
gfz2013kcdb  -0.89553
gfz2013ljwt   1.48820
gfz2013mvgq   1.15310
gfz2013oizq   0.13090
gfz2013pkmz   1.48110
gfz2013pqkp   0.50818
gfz2013qoak   1.10770
gfz2013rdmn  -0.67844
gfz2013stup  -0.34752
gfz2013taeb   2.41410
gfz2013tert  -0.06246
gfz2013unuv  -0.25224
gfz2013upqj   0.87875
gfz2013uwxb   1.65660
gfz2013veug  -0.26607
gfz2013vmsg  -0.65248
gfz2013vnwa   0.69367
gfz2013vzel   0.13541
gfz2013xahp  -0.64234
gfz2013yawe   0.37829
gfz2014ayxf   1.80300
gfz2014bdju   0.08537
gfz2014cncl  -0.23836
gfz2014cwti   0.30157
gfz2014flxk   0.05045
gfz2014fxtv   0.93896
gfz2014gqxg   0.30143
gfz2014gypw   1.40660
gfz2014hzzf  -0.61650
gfz2014imqh   0.09513
gfz2014irly   0.51269
