# Nsamples: 45  MAD:  0.572  mean:  1.563  std:  0.981
gfz2010crgy   1.98140
gfz2010habf   2.22160
gfz2010ngge   1.90920
gfz2010pzza   2.10010
gfz2010rljv   2.46560
gfz2010tzma   1.45210
gfz2010uhjy   1.84930
gfz2010vong   1.62780
gfz2010xnbn   1.33560
gfz2011ahvh   2.81570
gfz2011bpqm   1.71950
gfz2011dabj   1.60220
gfz2011dpyu   1.27550
gfz2011gnbk   2.35270
gfz2011ndhh   1.43950
gfz2011nuqo   1.05720
gfz2011oslk   1.51070
gfz2011tsgl   1.71400
gfz2011zghc   1.01040
gfz2012bqcf   2.06420
gfz2012cvfr   2.25800
gfz2012ekfp   1.96490
gfz2012iijk   2.16050
gfz2012touh  -3.23010
gfz2012uzww   2.52200
gfz2013fulo   1.56580
gfz2013gqtl  -0.04523
gfz2013icql   0.94358
gfz2013iuyv   1.35470
gfz2013jfcn   2.16520
gfz2013jobl   1.63260
gfz2013kats   1.50700
gfz2013phhi   0.38541
gfz2013utqa   0.40317
gfz2013wyfl   2.72530
gfz2013xmzw   2.28400
gfz2014flxk   0.78298
gfz2014fsir   1.83270
gfz2014fxte   1.59830
gfz2014icov   1.45020
gfz2014iltl   2.09790
gfz2014irlf   2.21970
gfz2014irln   2.14330
gfz2014jarg   2.06350
gfz2014jayh   0.02941
