# Nsamples: 711  MAD:  0.857  mean:  0.025  std:  0.964
gfz2010abfc  -0.36383
gfz2010abvu  -0.14700
gfz2010aggj  -0.35004
gfz2010aimm   0.43004
gfz2010aseg   1.71170
gfz2010azji   0.61893
gfz2010bmls   3.92950
gfz2010bukb   0.11628
gfz2010ccse  -0.44136
gfz2010ccwc   0.09492
gfz2010ccye  -0.32893
gfz2010cdnv  -2.44100
gfz2010clbw  -0.14295
gfz2010cllh  -0.89370
gfz2010cphq  -1.95850
gfz2010crgy  -0.94986
gfz2010crir  -0.82863
gfz2010dask  -0.55800
gfz2010djib  -0.52722
gfz2010drit  -0.62510
gfz2010drml   0.75613
gfz2010drmq   0.75613
gfz2010drun  -1.51360
gfz2010dwgy   0.25298
gfz2010ethu  -0.48178
gfz2010fgbo   0.73048
gfz2010fjme  -1.18800
gfz2010fkff  -0.63624
gfz2010fnkr   0.62817
gfz2010fqnn  -0.41834
gfz2010fqzh   0.23892
gfz2010ftfq   1.24830
gfz2010gnvp   0.20088
gfz2010gonu  -0.61679
gfz2010gpjl   5.46480
gfz2010habf   0.44405
gfz2010hdxn  -0.49708
gfz2010hexh   0.20641
gfz2010hsgv   0.64332
gfz2010hueh   0.56895
gfz2010hxan  -0.13787
gfz2010iaay  -0.53177
gfz2010iawy  -0.69890
gfz2010ifhd  -0.14576
gfz2010ifru   1.13850
gfz2010izag   1.19310
gfz2010izgb   1.18030
gfz2010jcby   0.50446
gfz2010jdhk   0.49863
gfz2010jlvp  -0.20065
gfz2010jpkn  -0.18851
gfz2010kcdq   1.11690
gfz2010kwks  -0.89248
gfz2010ljmp   1.69260
gfz2010mdti   0.54584
gfz2010mguv   0.51177
gfz2010mqaj   0.49945
gfz2010mqzz  -0.88356
gfz2010mvtj  -0.41256
gfz2010ncwu  -0.44872
gfz2010ngge  -0.97248
gfz2010nlai   0.42254
gfz2010novb  -0.60762
gfz2010nwyk   0.31601
gfz2010oguu   0.96526
gfz2010ojhe   1.17910
gfz2010okpc  -0.16859
gfz2010okww   0.72395
gfz2010osaq   0.78566
gfz2010ouvm  -1.30310
gfz2010ovvg  -1.14880
gfz2010pcya  -2.51570
gfz2010pgpo  -0.17996
gfz2010pgrf   0.51531
gfz2010prnw   0.18719
gfz2010pvnn  -0.29832
gfz2010pzza  -0.46104
gfz2010qdqk  -0.65327
gfz2010qrix   0.91202
gfz2010qrta   0.42432
gfz2010qylh   0.74139
gfz2010qzvf   1.54190
gfz2010rdip   1.14880
gfz2010rhvu   0.63978
gfz2010rkuu  -1.18210
gfz2010rljv   1.65610
gfz2010rmua  -0.11534
gfz2010rnqa   0.54135
gfz2010rnwt  -0.94738
gfz2010rpbz   1.51480
gfz2010rpjd  -2.60090
gfz2010schp  -0.60060
gfz2010sdfs   1.73310
gfz2010shvn   0.60292
gfz2010sook   0.68422
gfz2010swqy  -0.10079
gfz2010sylk  -0.37191
gfz2010szxo   1.80670
gfz2010tmba  -0.12456
gfz2010tmne   1.69940
gfz2010tpcj   0.36756
gfz2010tqyo  -0.39567
gfz2010tzlz   0.20535
gfz2010tzma  -0.46514
gfz2010ugws  -0.55249
gfz2010uhjy  -0.21867
gfz2010ujqn   0.23224
gfz2010umxj   0.17317
gfz2010umyp  -0.03166
gfz2010uogw   0.04638
gfz2010uopf  -0.33400
gfz2010uqba  -1.47280
gfz2010uraq  -0.69424
gfz2010uvpz   0.48406
gfz2010vhzx  -0.87830
gfz2010vjac   0.91554
gfz2010vong  -0.11345
gfz2010vybx   0.58167
gfz2010wigk   3.54820
gfz2010wtin  -0.26452
gfz2010wwhf   1.27820
gfz2010wwnq   0.19690
gfz2010wyuj  -1.31060
gfz2010xamh  -0.91722
gfz2010xaxw   0.68890
gfz2010xnbn  -0.30157
gfz2010xzte  -0.58031
gfz2010yfdr  -0.37245
gfz2010yhdn  -0.83739
gfz2010yhhj  -0.28402
gfz2010yrex   0.67168
gfz2010ytzb   0.47926
gfz2010zhvj   0.38190
gfz2010zjun  -0.59937
gfz2010zkle  -0.43150
gfz2011ahvh  -0.41770
gfz2011amst   0.20216
gfz2011aqpp   0.35224
gfz2011awsv  -0.90413
gfz2011bazz   5.05140
gfz2011bcvc  -1.11150
gfz2011bffb   1.45420
gfz2011biin   0.70115
gfz2011boaz  -0.29070
gfz2011bpqm   0.92152
gfz2011bqbx   1.76710
gfz2011bsvr   0.08140
gfz2011bygs  -0.20024
gfz2011bygu   0.13118
gfz2011bzio   1.21150
gfz2011cdge   0.10252
gfz2011cfyy   1.16730
gfz2011chsa  -0.88115
gfz2011cjuz   0.94581
gfz2011clwu   0.25009
gfz2011cwhx  -0.61425
gfz2011cwzi   0.52295
gfz2011dabj   0.78253
gfz2011dbzc   0.71329
gfz2011dhfg  -0.06496
gfz2011dmdv   2.00740
gfz2011dpyu  -0.66193
gfz2011duvm   2.61520
gfz2011dwae   0.59513
gfz2011dzmf   1.29430
gfz2011etkc  -0.04104
gfz2011exxq   7.37890
gfz2011ffdh  -0.00407
gfz2011fges   0.06039
gfz2011fnie   0.63517
gfz2011fnxz   0.58202
gfz2011fszl   0.18441
gfz2011fxmf   0.24498
gfz2011fyfu   0.68079
gfz2011fzcw   0.52129
gfz2011gaax  -0.44603
gfz2011gcct   0.57059
gfz2011gdli  -0.58790
gfz2011gdrl   0.27359
gfz2011gfer  -0.31714
gfz2011ggnl  -1.00260
gfz2011glpg  -0.83599
gfz2011gnbk   0.13169
gfz2011gpyr   0.46463
gfz2011haaa  -0.82240
gfz2011hatg   0.48950
gfz2011hqjs  -0.44750
gfz2011hrgt   0.27956
gfz2011ifta   0.64706
gfz2011iryz  -0.32044
gfz2011ituo  -1.33490
gfz2011ixpj   1.02930
gfz2011iybf   0.09275
gfz2011jdoz   0.32087
gfz2011jfyb  -0.70446
gfz2011jghq  -0.11872
gfz2011jphj  -0.36273
gfz2011jryv  -1.72260
gfz2011kbzo  -0.35648
gfz2011kfch  -0.74159
gfz2011kjzt  -1.14530
gfz2011kujo  -0.68263
gfz2011kylu  -2.16310
gfz2011kyzy  -0.72649
gfz2011lkkf  -0.59778
gfz2011lmug   0.40642
gfz2011lwmg   0.99945
gfz2011mdyq   0.01234
gfz2011mjje  -0.90019
gfz2011mllb   1.24770
gfz2011mntq   0.33491
gfz2011mror  -0.66228
gfz2011nblt  -0.26345
gfz2011ndhh  -1.10770
gfz2011nejg  -0.92699
gfz2011nejw  -1.27390
gfz2011nfcz   0.55173
gfz2011nhby   0.77954
gfz2011nhhd   1.89040
gfz2011nhvt  -1.10660
gfz2011nhwf   1.26890
gfz2011nifi  -0.79316
gfz2011nilw  -1.47380
gfz2011nisj  -1.73120
gfz2011niuw  -3.57280
gfz2011nlum  -1.16970
gfz2011nnda   0.52372
gfz2011nsej   0.34437
gfz2011nsrx  -0.42507
gfz2011nswi   0.29332
gfz2011nuqo  -0.40151
gfz2011oadm  -0.66840
gfz2011oazk  -0.58578
gfz2011ofpj   0.33723
gfz2011ohgj  -1.13240
gfz2011omxt   0.38603
gfz2011oslk  -0.35914
gfz2011osmp  -0.10260
gfz2011owqa  -1.29690
gfz2011paqj  -1.14870
gfz2011pbjh   0.29087
gfz2011pdgq   0.64573
gfz2011pfls   0.98504
gfz2011pimj  -0.23420
gfz2011pivq   0.21086
gfz2011pmuv   0.41886
gfz2011poug   1.49290
gfz2011ppsc  -0.84956
gfz2011prrq   0.30910
gfz2011pulu   0.58760
gfz2011pwbw  -1.07610
gfz2011pwld  -0.77469
gfz2011qasw   0.04431
gfz2011qenl   0.13583
gfz2011qgea  -0.38407
gfz2011qgvh   0.18280
gfz2011qhjw  -0.68746
gfz2011qlkj   0.49222
gfz2011qukj  -1.06840
gfz2011rbuo  -0.71385
gfz2011rczb  -0.57183
gfz2011rkau   0.72068
gfz2011rkzx  -0.79403
gfz2011rnny  -0.61643
gfz2011rnsp   0.77976
gfz2011rqut   2.49080
gfz2011scma   0.35688
gfz2011sdax   0.01336
gfz2011sdpl   0.39498
gfz2011sfmu   0.02676
gfz2011sqco   1.11180
gfz2011sskq   0.32994
gfz2011stzi   0.24489
gfz2011sxno   0.31613
gfz2011syvj  -0.44272
gfz2011taqr  -0.51678
gfz2011tarj  -0.04247
gfz2011tdjj  -0.12280
gfz2011tfor   1.05950
gfz2011tgey   1.39850
gfz2011tgon   1.76050
gfz2011tlwl   1.05580
gfz2011tqgg   0.17066
gfz2011tsgl   0.05778
gfz2011tssv   0.65117
gfz2011udjs  -0.37228
gfz2011uowi  -0.48137
gfz2011uqry  -1.77870
gfz2011urwz  -0.64475
gfz2011vcyx  -1.31030
gfz2011vswj   1.26610
gfz2011vtzv  -0.34054
gfz2011wbtc   0.02398
gfz2011wkja  -0.87586
gfz2011wpzt   0.07910
gfz2011wwze   0.59276
gfz2011wzss   0.56844
gfz2011xagc  -0.66593
gfz2011xgbc  -1.15890
gfz2011xgwy  -0.91336
gfz2011xkka   0.82381
gfz2011xnui   0.53244
gfz2011xpcq  -0.78717
gfz2011yeck  -0.44922
gfz2011yexx  -0.43784
gfz2011ypfh   0.78196
gfz2011yrfa  -0.69675
gfz2011zghc  -0.32804
gfz2011zgxn   0.21516
gfz2011zkbt   0.04581
gfz2012ahac  -0.26276
gfz2012aioo   1.02670
gfz2012aisj  -0.58060
gfz2012alti   1.33040
gfz2012amjx   0.92732
gfz2012amvs   0.10187
gfz2012arlo  -0.73303
gfz2012bnwa  -0.06782
gfz2012bqcf  -0.28428
gfz2012byrq  -1.07520
gfz2012bytv  -0.70843
gfz2012byuk  -1.50010
gfz2012cdju  -0.25324
gfz2012cksh  -0.48003
gfz2012cmww  -0.08326
gfz2012cntu   0.22519
gfz2012cvfr   0.47008
gfz2012cxhw  -0.09144
gfz2012dejg   0.53031
gfz2012dkdy   0.02234
gfz2012dleg   1.14190
gfz2012dluf   0.46893
gfz2012dnig   0.89373
gfz2012dpnu   0.12168
gfz2012drak   1.52360
gfz2012drqd  -1.72840
gfz2012dtdt   0.03820
gfz2012dttl   0.10563
gfz2012duwm  -0.39810
gfz2012dwwu  -0.80992
gfz2012dyck   0.96387
gfz2012dysu  -0.12540
gfz2012dzjo   0.79189
gfz2012dzot   0.47498
gfz2012eajr  -0.30601
gfz2012ebrr  -0.07483
gfz2012ekfp  -1.03060
gfz2012elek   0.87590
gfz2012erds   0.70874
gfz2012fbgz   0.83402
gfz2012fcyq  -0.74155
gfz2012fcyr  -0.77752
gfz2012fyny   0.81794
gfz2012gdye   0.31043
gfz2012ghiv  -0.24771
gfz2012gjdg   0.00416
gfz2012gjtd   0.47746
gfz2012gnow   0.12258
gfz2012gpcd  -1.26870
gfz2012hhlx   0.35040
gfz2012hlya  -4.73990
gfz2012hmcv  -0.74157
gfz2012hvtu  -0.73773
gfz2012hwph   1.89360
gfz2012hyba   1.15140
gfz2012hzur   1.15940
gfz2012iabn  -0.97809
gfz2012iblo  -2.39170
gfz2012ibyd   0.65104
gfz2012icjo  -0.36395
gfz2012ieln   0.13269
gfz2012iijk  -0.11313
gfz2012imsm  -1.52620
gfz2012ivyg   0.10030
gfz2012iyhs  -0.61908
gfz2012izke   0.34497
gfz2012jawj  -0.09980
gfz2012jetp   0.16478
gfz2012jjxm  -0.02208
gfz2012jlez   1.03420
gfz2012jodg  -1.40120
gfz2012jvei  -1.47250
gfz2012kmbo  -0.02440
gfz2012kmmz   0.00398
gfz2012krcm  -0.34662
gfz2012kstg   0.46000
gfz2012lcca  -1.29930
gfz2012lcro  -1.68660
gfz2012ldjj   0.06628
gfz2012lvlr  -1.39830
gfz2012lvwx   0.38773
gfz2012lwha  -1.19900
gfz2012mcrb  -1.00380
gfz2012mdzf   0.59149
gfz2012mhik  -0.66839
gfz2012mjuu  -0.14879
gfz2012mpzo   1.34180
gfz2012mrwu  -0.66359
gfz2012mtyn  -0.49455
gfz2012mvgu   0.30237
gfz2012mwhe   0.98279
gfz2012mxvk  -0.24922
gfz2012mzqx   0.66928
gfz2012ndwt   0.66875
gfz2012nfzc  -2.02820
gfz2012nmja  -1.03360
gfz2012nnqu  -0.61261
gfz2012nqvd   0.17333
gfz2012nsxc   1.00070
gfz2012oafg  -0.13996
gfz2012oehy  -0.04318
gfz2012ofnx   0.72864
gfz2012ogwe  -0.24337
gfz2012oieq   0.87375
gfz2012oork  -0.66219
gfz2012pdav   0.42160
gfz2012pdfi   0.55095
gfz2012phns  -0.58546
gfz2012pmuj   0.71974
gfz2012ppcq   0.56245
gfz2012pvve   0.97465
gfz2012qbbt   0.28997
gfz2012qllj  -0.59358
gfz2012qmhz  -0.27625
gfz2012qmxz  -0.93176
gfz2012rmvx   0.86665
gfz2012rnyn  -0.29047
gfz2012roan  -0.93788
gfz2012rugl  -0.39269
gfz2012rzwp  -1.16080
gfz2012sbix   1.36050
gfz2012sgfd   0.28536
gfz2012smyn  -0.07159
gfz2012socz  -0.20390
gfz2012ssnb  -0.62238
gfz2012suqd  -0.47131
gfz2012svwz   0.61774
gfz2012swbz  -0.60512
gfz2012sxbo  -0.64624
gfz2012sxzs   0.54256
gfz2012syum  -1.20340
gfz2012taph  -1.13940
gfz2012tgta  -0.42212
gfz2012thyh  -0.77818
gfz2012tisj   0.19713
gfz2012uegq  -0.53112
gfz2012uhsx   0.23583
gfz2012uhtc  -0.03397
gfz2012ulei   1.62680
gfz2012umob   0.05849
gfz2012uovh   0.80754
gfz2012uzww  -0.00893
gfz2012vcqw  -0.02806
gfz2012vgot  -0.95479
gfz2012vitw   0.69877
gfz2012vkjw   0.58319
gfz2012vlzv   0.15732
gfz2012vqjw   0.34700
gfz2012vqmq  -0.87571
gfz2012vrqz  -0.24209
gfz2012vurc  -0.28341
gfz2012wdvt   0.37886
gfz2012wgdv  -1.92760
gfz2012wgmg  -0.93876
gfz2012wkki   0.29297
gfz2012wmas  -1.19860
gfz2012wmmw   1.08020
gfz2012wowu   2.33970
gfz2012woxj   0.02214
gfz2012wpen  -0.21149
gfz2012wysg   0.94867
gfz2012xask   0.60395
gfz2012xcsf  -0.24946
gfz2012xfnu   0.06729
gfz2012xkln   0.23238
gfz2012xlfo   0.73176
gfz2012xmwt   0.13794
gfz2012xncm   0.30858
gfz2012xqxw   0.23945
gfz2012xrmq   0.12419
gfz2012xxdj   0.26601
gfz2012yegw   1.00020
gfz2012ylai   0.09866
gfz2012yzih  -0.32288
gfz2012zhyz   0.06623
gfz2012zqis   0.40204
gfz2013afzh   1.95160
gfz2013agmt  -0.14342
gfz2013akkd   0.61877
gfz2013atak   3.50860
gfz2013auew  -0.29598
gfz2013bwgw  -0.04156
gfz2013byyy  -0.43592
gfz2013cfls  -0.38385
gfz2013cvve   0.65122
gfz2013cyvx   0.88754
gfz2013delq  -0.24972
gfz2013dftb   0.66070
gfz2013dfvx  -0.39908
gfz2013djfi   0.05138
gfz2013dmzh   0.47379
gfz2013dngd   0.08057
gfz2013dzvr  -0.72251
gfz2013eazm   0.06375
gfz2013efct  -0.55598
gfz2013eidd  -0.25689
gfz2013ektd  -0.51123
gfz2013enqo  -1.63310
gfz2013ewht   0.92952
gfz2013fhzy   0.16609
gfz2013fmcd  -0.16793
gfz2013fmcp   0.66998
gfz2013fndg   0.90849
gfz2013fnpa  -0.22999
gfz2013fulo  -0.15961
gfz2013fvht   0.03489
gfz2013fvyr   0.20133
gfz2013gglk  -0.75787
gfz2013gkcx   0.27116
gfz2013gkyn  -0.17326
gfz2013glpz  -0.06361
gfz2013gurk  -0.02521
gfz2013gxye   0.04179
gfz2013hbmi   0.28069
gfz2013hbtm   0.78659
gfz2013hdbp   0.32935
gfz2013hduf   1.14690
gfz2013hqaa  -0.30164
gfz2013hvzv   0.61509
gfz2013icql  -0.43667
gfz2013ikic   1.15430
gfz2013irme   0.71201
gfz2013iuyv  -0.07064
gfz2013ivvw  -0.49599
gfz2013iwzn  -0.15692
gfz2013jfcn  -0.02939
gfz2013jobl  -0.71418
gfz2013jrqf  -1.15900
gfz2013jzcf   1.16750
gfz2013kats   0.01533
gfz2013kbbg   0.32076
gfz2013kbbn   0.29475
gfz2013kbkp  -0.77146
gfz2013kcdb  -1.02790
gfz2013kdfy   0.39511
gfz2013kjgh   1.43750
gfz2013kpes   0.31487
gfz2013kqab  -0.97130
gfz2013kruh  -0.55714
gfz2013kslp  -0.81898
gfz2013kxlr  -0.76143
gfz2013lbod  -1.38050
gfz2013lbvl  -0.45561
gfz2013lcrk  -0.40707
gfz2013ljdu   0.08851
gfz2013ljwt  -0.83537
gfz2013lxnd  -0.99277
gfz2013mdxj   0.64856
gfz2013mktp   0.62986
gfz2013mynb  -1.04320
gfz2013mzaw   0.71448
gfz2013nkgd   1.71110
gfz2013ntiu  -0.33469
gfz2013oeni  -0.70941
gfz2013ohnj   1.05550
gfz2013oizq  -0.61640
gfz2013okac   0.19533
gfz2013olos  -1.19780
gfz2013orot  -0.63937
gfz2013oruq   0.54525
gfz2013otuj   0.63507
gfz2013oywh   0.36614
gfz2013phhi   0.69871
gfz2013phly   1.67650
gfz2013pkmz  -0.08846
gfz2013pqkp  -0.68263
gfz2013qaov  -0.46542
gfz2013qapj  -1.06500
gfz2013qigb  -0.19054
gfz2013qmkt  -0.45025
gfz2013qoak  -0.43550
gfz2013qogb   0.33273
gfz2013qqyo  -0.39684
gfz2013quwz  -0.26656
gfz2013qxof   0.20628
gfz2013rdmn   0.36070
gfz2013rfik  -0.12811
gfz2013rgcc   0.18501
gfz2013rhbx   0.74741
gfz2013rocs   0.24728
gfz2013rsyt   0.46450
gfz2013rwkj  -0.62927
gfz2013ryfc   0.14698
gfz2013sbsp  -0.94954
gfz2013skvq   0.63321
gfz2013stup   0.83411
gfz2013swnj   0.40137
gfz2013syqp  -1.89540
gfz2013syqv  -0.34120
gfz2013taeb   1.69170
gfz2013tdsx  -0.09703
gfz2013tekq   0.14925
gfz2013tert   1.53760
gfz2013tnrp  -0.07412
gfz2013ubgt   0.85014
gfz2013udtw   0.87979
gfz2013upqj   0.13105
gfz2013utqa  -1.00210
gfz2013uugc  -0.26417
gfz2013uwjo  -0.83839
gfz2013uxzw  -0.66663
gfz2013uzmf   0.82737
gfz2013vdam   0.60727
gfz2013veug   0.24365
gfz2013vfix   0.83999
gfz2013vjrr   0.12967
gfz2013vmrv  -1.04420
gfz2013vnwa   0.58462
gfz2013voai   1.52280
gfz2013vojy   0.16691
gfz2013vvre  -1.34880
gfz2013vzel   1.45630
gfz2013wigs  -1.34570
gfz2013wpns  -1.16260
gfz2013xacx   0.20595
gfz2013xahp  -0.09714
gfz2013xodn  -0.80261
gfz2013xofz   0.25615
gfz2013xswc  -0.45580
gfz2013ylxm   1.48570
gfz2013yodm   0.38569
gfz2013yqtu  -0.02194
gfz2013yxhf   0.19417
gfz2013zedt   1.13620
gfz2013zfbz   0.89948
gfz2013ziix  -0.97886
gfz2013zlak   1.01550
gfz2014ajgi  -0.63863
gfz2014amgk  -1.03320
gfz2014aqax   0.54489
gfz2014aqop  -0.02796
gfz2014arox   3.83850
gfz2014avag   0.63427
gfz2014ayxf   0.95696
gfz2014bdju   0.10590
gfz2014befl   0.07981
gfz2014bgxe  -0.41414
gfz2014bhch  -0.63186
gfz2014bkra   0.75816
gfz2014bnea   1.10810
gfz2014cgoi  -0.12781
gfz2014cgxj  -1.22400
gfz2014cjao   0.89048
gfz2014cncl  -0.72204
gfz2014crac  -0.74940
gfz2014ctdl  -0.48172
gfz2014cvnb   0.57972
gfz2014dbmu   0.35967
gfz2014dbqi  -0.61662
gfz2014dggw   1.40140
gfz2014dihl  -0.76596
gfz2014djhi  -0.72468
gfz2014djyj   0.23052
gfz2014dtth   0.54454
gfz2014dtto   0.20749
gfz2014edmd   1.30010
gfz2014eirs  -0.67835
gfz2014eoay  -0.01946
gfz2014esez  -1.04690
gfz2014exxj  -0.44963
gfz2014ezjq  -1.68550
gfz2014fbef   0.27687
gfz2014fbli   1.01180
gfz2014fhki  -0.58177
gfz2014fjfz   0.62830
gfz2014flxk   0.60232
gfz2014fsir   0.12993
gfz2014fsje  -0.37767
gfz2014fwuf   1.20740
gfz2014fwxt  -1.53150
gfz2014fxte  -0.62778
gfz2014fxtv  -0.94455
gfz2014fxuy  -0.88347
gfz2014gasb  -0.95418
gfz2014gcgf   1.06920
gfz2014geln  -0.65299
gfz2014gnbw   0.30000
gfz2014gnvp  -2.06600
gfz2014grwv   0.38367
gfz2014gtoj   0.16083
gfz2014hkcw   0.28668
gfz2014hqhv   0.31184
gfz2014huah  -1.88290
gfz2014hyea  -0.94703
gfz2014hzzf  -0.73229
gfz2014icov   0.06195
gfz2014igrp   0.42231
gfz2014iltl  -0.06736
gfz2014imqh  -0.46685
gfz2014ined  -0.15955
gfz2014inrg   0.99937
gfz2014ipfu   1.19320
gfz2014irlf  -0.41401
gfz2014irln  -0.47375
gfz2014irly  -0.65043
gfz2014isjg   0.20759
gfz2014iusw   0.02018
gfz2014ixlc  -0.21673
gfz2014jarg  -0.23251
gfz2014jayh   0.17911
gfz2014jbfp   0.18280
