# Nsamples: 879  MAD:  0.710  mean:  0.019  std:  0.863
gfz2010abfc   0.44433
gfz2010abvu  -0.62482
gfz2010aggj  -0.05378
gfz2010aimm   0.50762
gfz2010amec  -1.14140
gfz2010aseg   1.67080
gfz2010asxa   1.00180
gfz2010bkfi   0.98990
gfz2010bqnk   1.60120
gfz2010brlc  -0.36312
gfz2010brrm   2.03090
gfz2010btme  -1.04140
gfz2010bukb   0.34907
gfz2010bvit   0.96155
gfz2010byau  -1.07790
gfz2010bytu  -0.00116
gfz2010ccwc  -1.05400
gfz2010ccye  -0.30349
gfz2010cdnv   0.94784
gfz2010clbw  -0.31560
gfz2010cllh  -1.54850
gfz2010cngg  -0.89088
gfz2010cphq  -2.02330
gfz2010cpig  -1.31870
gfz2010cqoq   0.20414
gfz2010crgy   0.09849
gfz2010crir  -0.30396
gfz2010csle  -1.89080
gfz2010csmw   0.57776
gfz2010csqg   1.56170
gfz2010csqy  -0.17538
gfz2010cthm  -1.38000
gfz2010cuzg   0.51581
gfz2010cvam  -0.68404
gfz2010cvkn  -0.39941
gfz2010cwrk  -0.21556
gfz2010cyid  -1.57730
gfz2010dask  -0.54118
gfz2010depd   0.41728
gfz2010diid  -0.42820
gfz2010djib   0.58030
gfz2010dmij   0.84834
gfz2010dpgt   0.46615
gfz2010drit  -0.78868
gfz2010drml  -0.88553
gfz2010drmq  -0.88553
gfz2010drng  -1.92420
gfz2010drun  -1.17490
gfz2010dsjq   0.53956
gfz2010dslu  -0.86351
gfz2010dtgc  -1.14890
gfz2010dwgy  -0.26743
gfz2010dxhq  -1.40300
gfz2010eepd  -0.33716
gfz2010eibh   1.40070
gfz2010ethu  -0.38240
gfz2010euue  -0.68346
gfz2010fgbo   0.33088
gfz2010fjme  -0.70373
gfz2010fkff  -0.23541
gfz2010fnkr   0.16940
gfz2010fqnn   0.23541
gfz2010fqzh  -0.15732
gfz2010ftfq   0.37423
gfz2010fvfz  -0.96743
gfz2010gcrn  -0.58844
gfz2010gnvp   0.57153
gfz2010gonu  -0.46232
gfz2010gooc   0.14364
gfz2010habf   0.39581
gfz2010hdxn  -0.81529
gfz2010jlvp   0.63743
gfz2010jpkn  -0.23950
gfz2010kcdq   0.34057
gfz2010kcyz  -0.05826
gfz2010kwks  -0.49234
gfz2010ljmp   1.03170
gfz2010ljol  -1.96380
gfz2010mdti   0.55520
gfz2010mjdl  -1.06150
gfz2010mnoc  -0.43056
gfz2010mqzz  -0.31173
gfz2010mvtj  -0.56347
gfz2010mwmd   2.80350
gfz2010ngge  -0.26783
gfz2010nkrw   0.14857
gfz2010nlai   0.63143
gfz2010novb  -0.29535
gfz2010nwyk   0.87519
gfz2010oguu   0.65583
gfz2010ojhe   0.66312
gfz2010okpc  -2.29510
gfz2010onxm  -0.67657
gfz2010ouvm  -0.90082
gfz2010ovvg  -0.81971
gfz2010pclq  -0.99550
gfz2010pcya  -0.25617
gfz2010pgpo  -0.14712
gfz2010prnw  -0.09452
gfz2010pvnn   0.22024
gfz2010pzza   0.81179
gfz2010qdqk  -0.00000
gfz2010qloa  -1.06700
gfz2010qqqx   0.97828
gfz2010qrix   0.02011
gfz2010qrta  -0.07470
gfz2010qzvf   2.44620
gfz2010rdip   0.95099
gfz2010rhvu   0.89850
gfz2010rkuu  -0.62026
gfz2010rljv   1.74070
gfz2010rmua   0.09052
gfz2010rnwt  -0.54490
gfz2010rpbz   4.32660
gfz2010rpjd  -1.13630
gfz2010schp  -0.11921
gfz2010scht  -0.00000
gfz2010sdfs   1.06580
gfz2010shvn   0.70400
gfz2010sook   0.74439
gfz2010swqy  -0.21362
gfz2010sylk  -0.45494
gfz2010tcgh   1.26800
gfz2010tmba  -0.44640
gfz2010tmne   0.65631
gfz2010tpcj  -0.74941
gfz2010tqyo   0.17583
gfz2010tzlz  -0.30089
gfz2010tzma  -2.10740
gfz2010ugws  -0.89931
gfz2010uhjy  -0.95165
gfz2010uidg   0.40294
gfz2010ujqn   0.73466
gfz2010umxj   0.08026
gfz2010umyp  -0.29270
gfz2010uogw   0.17993
gfz2010upod  -1.01260
gfz2010uqba  -1.23850
gfz2010uraq  -0.43056
gfz2010uyng  -0.68821
gfz2010vfyu  -0.05193
gfz2010vgfu  -0.84524
gfz2010vhzx  -0.43267
gfz2010vkca  -1.42270
gfz2010vong  -0.38771
gfz2010vybx   0.38961
gfz2010wigk  -0.48669
gfz2010wwhf   0.69123
gfz2010wwnq   0.19920
gfz2010wyuj  -1.34360
gfz2010xamh   0.16363
gfz2010xaxw   0.07881
gfz2010xhqq  -0.21647
gfz2010xjsv   0.33736
gfz2010xkbz   0.02156
gfz2010xkku  -0.73209
gfz2010xnbn  -0.40789
gfz2010xnwf  -0.69724
gfz2010xpzq   0.00000
gfz2010xvev   0.49120
gfz2010xytc  -0.29979
gfz2010xzah  -0.45219
gfz2010xzte   0.20741
gfz2010yfdr  -0.39409
gfz2010yhdn  -0.46997
gfz2010yhhj   0.02222
gfz2010yilf   1.61670
gfz2010yrex   0.37242
gfz2010yspe  -4.91870
gfz2010ytzb   0.63354
gfz2010zhvj  -0.81057
gfz2010zjun   0.05709
gfz2010zkle  -1.06970
gfz2011afyc   0.67391
gfz2011ahvh  -0.47682
gfz2011ameb  -0.66205
gfz2011amst  -0.45526
gfz2011aqpp   0.59777
gfz2011awsv  -0.70671
gfz2011bcvc  -0.65988
gfz2011bffb   1.30480
gfz2011biin   0.51490
gfz2011boaz  -0.39892
gfz2011bpqm   0.86508
gfz2011bqbx  -0.30883
gfz2011bsvr   0.48042
gfz2011bwsm  -0.06673
gfz2011bygs  -0.56923
gfz2011bygu   0.15877
gfz2011bzio   0.53139
gfz2011cdge  -0.04764
gfz2011cfyy   0.98319
gfz2011chsa  -0.36016
gfz2011cjcv   1.94150
gfz2011cjuz   0.10855
gfz2011clwu  -0.13138
gfz2011cwhx  -0.48132
gfz2011cwsm  -0.31461
gfz2011cwzi   0.84706
gfz2011cxdj  -0.16539
gfz2011dabj   1.27930
gfz2011dbzc   0.07637
gfz2011dhfg  -0.35400
gfz2011dhqk  -0.26546
gfz2011dmdv   1.17640
gfz2011dpyu   0.07323
gfz2011drmu  -0.75071
gfz2011dtcb   0.10915
gfz2011duvm   0.36558
gfz2011dwae   0.67497
gfz2011dzmf   0.80038
gfz2011edrq   0.04011
gfz2011emzr  -0.39041
gfz2011etkc  -0.71998
gfz2011exxq   1.23590
gfz2011ffdh   0.00000
gfz2011fges   0.59999
gfz2011fnie   0.48668
gfz2011fnuk   0.61250
gfz2011fnxz  -0.47742
gfz2011fszl  -0.25357
gfz2011fxmf   0.06786
gfz2011fzcw   0.45569
gfz2011gaax  -0.12180
gfz2011gdli  -0.45650
gfz2011gdrl  -0.27991
gfz2011gfer  -0.22076
gfz2011ggnl  -0.62159
gfz2011ggsz   1.73470
gfz2011glpg  -0.40362
gfz2011gnbk   0.51544
gfz2011gpyr   0.39564
gfz2011haaa  -0.28624
gfz2011hatg   0.33422
gfz2011hibi   1.45010
gfz2011hjof  -0.17880
gfz2011hmnw   0.24473
gfz2011hqjs   0.14973
gfz2011hrgt  -0.68381
gfz2011hvzo  -2.10910
gfz2011hwbn  -0.15605
gfz2011hyct   0.95511
gfz2011hyuh  -1.07880
gfz2011iamf   0.85063
gfz2011ibew   0.60950
gfz2011ifta   0.63734
gfz2011ioch   0.41116
gfz2011iryz  -0.19272
gfz2011ituo  -0.32420
gfz2011ixpj   0.64755
gfz2011iybf  -0.27802
gfz2011jdoz  -0.28039
gfz2011jghq  -0.12115
gfz2011jphj  -0.65777
gfz2011jryv  -1.94190
gfz2011kbzo   0.15175
gfz2011kjzt   0.13043
gfz2011ksxc  -1.07270
gfz2011kylu   1.36620
gfz2011kyzy  -0.33277
gfz2011ldgl   0.63926
gfz2011lkkf   1.22070
gfz2011lmug   0.33337
gfz2011lwmg   0.92784
gfz2011mdyq  -0.24096
gfz2011mjje   0.41374
gfz2011mror   0.31293
gfz2011mrpy   0.12744
gfz2011mzvn  -1.03840
gfz2011nblt  -0.40653
gfz2011ndhh  -0.43674
gfz2011nejg  -0.31342
gfz2011nfcz   0.61264
gfz2011nhby   1.11230
gfz2011nhvt  -2.19740
gfz2011nhwf   1.00530
gfz2011nilw   2.36060
gfz2011niuw  -0.14637
gfz2011nivw  -0.35773
gfz2011nkou  -0.06379
gfz2011nlum  -1.05140
gfz2011nnda   0.87169
gfz2011nsej  -0.37607
gfz2011nsiy  -0.42559
gfz2011nsrx   0.19282
gfz2011nswi   0.03305
gfz2011nuqo  -0.24294
gfz2011oadm  -0.20603
gfz2011oazk   0.59517
gfz2011oekz  -0.47732
gfz2011ofpj   0.12882
gfz2011ohgj  -0.40449
gfz2011okza  -1.40370
gfz2011omxt   0.13598
gfz2011oosp   0.31703
gfz2011oslk   0.47601
gfz2011osmp  -0.17835
gfz2011owqa   0.56680
gfz2011paqj   0.95038
gfz2011pbjh   1.28150
gfz2011pdsn  -0.62076
gfz2011pfls   0.51498
gfz2011pimj   0.18712
gfz2011pivq   0.20641
gfz2011pmuv   0.32741
gfz2011poug   0.83311
gfz2011pphc   0.52884
gfz2011ppsc  -0.23432
gfz2011prrq   0.49313
gfz2011ptgd  -1.28880
gfz2011pwbw  -0.15050
gfz2011pwld  -0.29521
gfz2011qasw  -0.52712
gfz2011qenl   0.52980
gfz2011qgea  -0.39309
gfz2011qgvx  -0.89761
gfz2011qhjw  -0.56180
gfz2011qlkj   0.82335
gfz2011qukj  -0.57128
gfz2011rbuo   0.08676
gfz2011rkau   1.31680
gfz2011rnsp   0.74489
gfz2011rpoo   0.20784
gfz2011scma   1.26920
gfz2011sdax   0.36928
gfz2011sfph   0.75978
gfz2011sqco   0.35645
gfz2011sskq   1.40350
gfz2011stzi   0.27158
gfz2011sxno   0.71531
gfz2011sylg  -1.96550
gfz2011syzr  -0.28643
gfz2011taqr  -0.13623
gfz2011tdjj  -0.83367
gfz2011tfor   0.74179
gfz2011tgon  -0.37403
gfz2011tlwl  -0.23220
gfz2011tqgg   0.11705
gfz2011tsgl  -1.81280
gfz2011tssv   0.48262
gfz2011tvuv   0.21472
gfz2011tzcv  -0.35521
gfz2011ugbt  -0.99903
gfz2011uowi  -0.38298
gfz2011uqlz  -1.03470
gfz2011uqry  -0.42060
gfz2011urwz   0.31493
gfz2011vahy   0.70276
gfz2011vbxv   0.62222
gfz2011vcyx   0.52357
gfz2011vimn  -0.24469
gfz2011vswj   0.94702
gfz2011vtdl   0.40324
gfz2011vtzv   0.43471
gfz2011vxek  -0.37557
gfz2011wbtc  -0.07568
gfz2011wcvs  -2.54110
gfz2011wkja  -0.01115
gfz2011wngi   0.60880
gfz2011wpzt   0.28900
gfz2011wtfn  -0.12486
gfz2011wucg  -0.20031
gfz2011wwze   1.23450
gfz2011wzss   0.53731
gfz2011xawm   3.40140
gfz2011xgbc   1.18800
gfz2011xgwy  -0.33374
gfz2011xkka   0.60584
gfz2011xlod  -0.35480
gfz2011xnui   0.22059
gfz2011xpcq   0.88787
gfz2011xwdv  -0.34795
gfz2011xxng  -0.81248
gfz2011yeck  -0.15474
gfz2011yexx   0.18895
gfz2011ykbd  -0.74511
gfz2011yrfa  -0.66897
gfz2011zdyf   0.56958
gfz2011zghc   0.13775
gfz2011zgxn   0.35575
gfz2011ziyk   0.70552
gfz2011zkbt  -0.12846
gfz2012ahac   0.15668
gfz2012aioo   0.88397
gfz2012aisj  -0.74913
gfz2012alti   1.06800
gfz2012amjx   0.38934
gfz2012amvs   0.90605
gfz2012aqpa   0.11322
gfz2012arlo  -2.65750
gfz2012asld   0.78589
gfz2012auqr  -0.04200
gfz2012avvc  -0.95122
gfz2012azel  -0.18007
gfz2012bity   0.54204
gfz2012bjhl  -0.47376
gfz2012bnwa  -0.13185
gfz2012bolx   0.58262
gfz2012bovy  -0.12870
gfz2012bqcf   0.53491
gfz2012brrg  -0.28351
gfz2012byrq  -0.87465
gfz2012byuk   1.38820
gfz2012cdju   0.16448
gfz2012cvfr   0.96689
gfz2012cxhw  -0.73544
gfz2012dbgt  -0.37502
gfz2012dcjd  -0.05146
gfz2012dejg   0.22113
gfz2012dgfk  -1.43260
gfz2012dkdy   0.17737
gfz2012dleg  -1.82010
gfz2012dnig   0.77281
gfz2012dpnu   0.03804
gfz2012drak   1.05020
gfz2012drld   0.89957
gfz2012dtdt  -0.32756
gfz2012dtlu  -0.03440
gfz2012dttl   0.37739
gfz2012duwm   0.19044
gfz2012dwwu  -0.10589
gfz2012dyck   1.17990
gfz2012dyfw  -0.78136
gfz2012dysj  -0.22659
gfz2012dysu   1.00080
gfz2012dyua   2.76310
gfz2012dzat   0.41291
gfz2012dzen  -1.60840
gfz2012dzjo  -2.38700
gfz2012dzoh  -1.13390
gfz2012dzot   0.29643
gfz2012dzou  -2.47250
gfz2012dzul  -2.54710
gfz2012dzva  -1.30270
gfz2012eajr  -0.68772
gfz2012eary  -0.28914
gfz2012ebff   0.53641
gfz2012ebgo  -1.26130
gfz2012ebhf  -1.73090
gfz2012ebrr  -0.29577
gfz2012eeft   0.64587
gfz2012ekfp   0.00800
gfz2012elek   0.79272
gfz2012enio   2.56860
gfz2012enrg  -1.17340
gfz2012erds   0.50211
gfz2012evav   0.46758
gfz2012evxn  -0.75473
gfz2012eyti   0.54535
gfz2012fbgz   0.78600
gfz2012fcyq  -0.48152
gfz2012fcyr  -0.52211
gfz2012fhaf  -0.15096
gfz2012fyny   0.19525
gfz2012fyop   0.61308
gfz2012gdye   0.69184
gfz2012ghiv  -0.42463
gfz2012gjdg  -0.30364
gfz2012gjtd   0.99995
gfz2012gmsr   3.72120
gfz2012gnow   0.16477
gfz2012gpcd  -0.80992
gfz2012gubu  -2.56470
gfz2012gvxc  -0.16003
gfz2012gzuk  -1.15890
gfz2012hdny   0.45297
gfz2012heih   0.33657
gfz2012hmcv  -0.30507
gfz2012hqlo   0.10885
gfz2012hvfw   0.44166
gfz2012hvtu  -1.10120
gfz2012hyqh  -1.65840
gfz2012hzai   0.53413
gfz2012hzhn  -0.70643
gfz2012iabn  -0.31287
gfz2012iblo  -1.13410
gfz2012ibyd   0.86431
gfz2012icjo  -0.56734
gfz2012idxu  -1.00090
gfz2012iedy  -2.00670
gfz2012ieln   0.36144
gfz2012iijk  -0.38817
gfz2012ikke  -1.75490
gfz2012imsm  -1.43690
gfz2012ipdc  -0.09198
gfz2012iphs  -1.73370
gfz2012iroy  -0.39106
gfz2012ivyg   0.51604
gfz2012iyhs  -0.28715
gfz2012izke   0.31421
gfz2012jawj   0.81100
gfz2012jjxm   0.10554
gfz2012jlez   0.45357
gfz2012jodg  -0.82306
gfz2012jopi  -1.64970
gfz2012jqxx   1.17120
gfz2012kjzx  -0.12198
gfz2012kmbo  -0.07127
gfz2012kmmz   0.04033
gfz2012kqjb  -0.63472
gfz2012kstg   0.77345
gfz2012kwmx  -0.21874
gfz2012lcro  -0.43935
gfz2012ldjj   0.10049
gfz2012lqhw   0.13938
gfz2012luzm  -0.13079
gfz2012lvlr   0.98985
gfz2012lwha  -0.23946
gfz2012lyyr  -0.00942
gfz2012mcrb   0.47139
gfz2012mdzf   0.67143
gfz2012mhik  -0.27483
gfz2012mmiw   0.47190
gfz2012mowv  -0.52433
gfz2012mpzo   1.53670
gfz2012mrqk   0.71263
gfz2012mrwu   0.23992
gfz2012mtyn  -0.13837
gfz2012mvgu   0.06284
gfz2012mwhe   0.73579
gfz2012mzco   1.83600
gfz2012mzqx  -0.03176
gfz2012ndwt   0.86955
gfz2012oxnh   0.19364
gfz2012oyja   0.84953
gfz2012pgmw   0.66526
gfz2012phns  -0.02317
gfz2012pokk  -0.17010
gfz2012ppcq   1.00750
gfz2012ppsw  -1.87700
gfz2012prke   0.94079
gfz2012pryl  -0.16620
gfz2012pumy   0.08173
gfz2012pvve   0.87272
gfz2012qbbt   0.30936
gfz2012qfah  -1.32130
gfz2012qllj  -0.72467
gfz2012qmhz  -0.30600
gfz2012qmxz   0.45368
gfz2012qpoc   1.00810
gfz2012rmvx  -0.05057
gfz2012roan  -0.04306
gfz2012sbix   1.36180
gfz2012sgfd  -0.34536
gfz2012smyn  -0.06024
gfz2012socz  -0.06362
gfz2012sqsc  -1.11910
gfz2012ssnb  -0.52195
gfz2012ssvn   0.72042
gfz2012suqd  -0.85413
gfz2012svwz   0.92988
gfz2012swbz  -0.25199
gfz2012sxbo  -1.08970
gfz2012sxpr  -0.47377
gfz2012sxzs   0.82168
gfz2012syum  -0.02231
gfz2012tgta   0.19821
gfz2012thyh  -0.24848
gfz2012tisj   0.21284
gfz2012tjih  -2.69020
gfz2012touh   0.40407
gfz2012ttnf  -0.28093
gfz2012tvgw  -0.20089
gfz2012twec  -0.29846
gfz2012wkki   0.78989
gfz2012wowu  -1.19810
gfz2012woxj  -0.32841
gfz2012wpen  -0.27101
gfz2012wqfz  -0.21569
gfz2012wugc   0.30759
gfz2012wysg   0.74025
gfz2012xask   1.23250
gfz2012xcsf   0.13348
gfz2012xfnu  -0.43246
gfz2012xfsl  -0.34200
gfz2012xkln   0.12351
gfz2012xlfo  -0.03056
gfz2012xncm   0.00445
gfz2012xqxw  -0.66531
gfz2012xrmq   0.10452
gfz2012yihn   1.32450
gfz2012yvwc   0.36614
gfz2012yytb  -2.10340
gfz2012yzih  -0.43996
gfz2012zhyz   0.10553
gfz2012zido  -0.90007
gfz2012zkhu   0.16217
gfz2012zqis   0.12963
gfz2013adih   0.01470
gfz2013afzh   1.01870
gfz2013agmt  -1.29640
gfz2013akkd   0.38358
gfz2013ascz   0.81760
gfz2013atak   0.83447
gfz2013auew  -0.69454
gfz2013bwgw   0.62792
gfz2013byyy  -0.10207
gfz2013bzwa  -0.23981
gfz2013fndg  -0.08843
gfz2013fnpa   0.03972
gfz2013foto  -0.38153
gfz2013frxd   0.32998
gfz2013fthi  -1.60220
gfz2013fulo   0.51736
gfz2013fvht   0.05365
gfz2013fvyr   0.60725
gfz2013fvzv   0.66899
gfz2013fxyr   0.63679
gfz2013fybd  -0.54808
gfz2013gbki  -2.23550
gfz2013gbma   1.03740
gfz2013gglk   1.55400
gfz2013ghpd   0.08599
gfz2013gjmk  -0.66001
gfz2013gkcx   0.19719
gfz2013gkyn  -0.16961
gfz2013glpz   0.19770
gfz2013gugi  -0.33635
gfz2013gurk  -0.01529
gfz2013gxye   0.02252
gfz2013gyce   3.11890
gfz2013havw   1.27150
gfz2013hbmi   1.13510
gfz2013hbtm   0.94231
gfz2013hdbp   1.56480
gfz2013hduf   1.22130
gfz2013hiam  -0.09327
gfz2013hinw   0.52786
gfz2013hqaa  -0.22273
gfz2013hvzv   0.87610
gfz2013icgx   0.44525
gfz2013icql  -0.56801
gfz2013ikic   0.41374
gfz2013irme   1.91300
gfz2013iuyv   0.28055
gfz2013ivvw  -0.36167
gfz2013iwzn   0.83608
gfz2013jfcn   0.45290
gfz2013jhog   0.26422
gfz2013jlli   1.72500
gfz2013jobl   0.01470
gfz2013jqsk   0.24613
gfz2013jzcf   1.86060
gfz2013kats   1.25360
gfz2013kbbg   0.32492
gfz2013kbbn  -0.09917
gfz2013kbkp  -0.41448
gfz2013kcdb  -1.51020
gfz2013kdfy   0.43268
gfz2013kqab  -0.20208
gfz2013kslp  -0.36897
gfz2013kxlr   0.04890
gfz2013lbod   0.67572
gfz2013lbvl   0.49255
gfz2013lcrk  -0.33789
gfz2013lgvf   0.21691
gfz2013ljwt  -0.03131
gfz2013lqjj   0.18257
gfz2013lvxe  -0.81236
gfz2013lxed  -0.53618
gfz2013mdxj   1.18060
gfz2013mktp   0.81063
gfz2013mynb  -0.69679
gfz2013mzaw   1.05630
gfz2013noqf  -0.08850
gfz2013ntiu  -0.06628
gfz2013obof  -0.39379
gfz2013oeni   0.26651
gfz2013ohdt  -0.66716
gfz2013ohnj   0.81389
gfz2013oizq   0.37022
gfz2013ojza   0.00000
gfz2013okac   0.17002
gfz2013onvl   0.28013
gfz2013orot  -0.02738
gfz2013oruq   0.55046
gfz2013otuj   1.00970
gfz2013oywh   0.75965
gfz2013phhi   1.03330
gfz2013pkmz  -0.04090
gfz2013pwsm  -0.82205
gfz2013qaov  -0.66006
gfz2013qapj  -0.29473
gfz2013qigb  -0.13519
gfz2013qmkt  -0.71119
gfz2013quwz   0.81852
gfz2013quyn   0.29093
gfz2013qwnm   0.70155
gfz2013qxof   0.22444
gfz2013rfik   0.17780
gfz2013rnsa   1.11030
gfz2013rocs  -0.18594
gfz2013rtvy  -0.08532
gfz2013sbsp  -0.91248
gfz2013skvq   0.34049
gfz2013stou   0.60495
gfz2013stup  -1.94550
gfz2013swnj   0.45619
gfz2013taeb  -0.05108
gfz2013tcju  -0.08661
gfz2013tekq   0.60174
gfz2013tert   0.37820
gfz2013tgyb   1.10920
gfz2013tkcg   0.22121
gfz2013tmnf   0.13090
gfz2013tnrp   0.13142
gfz2013trsq   0.15947
gfz2013uafv  -0.77819
gfz2013ubgt  -0.05451
gfz2013udtw   0.83496
gfz2013uepl  -0.91767
gfz2013umay  -0.09319
gfz2013unuv   0.14038
gfz2013upqj  -0.73259
gfz2013utqa   0.34289
gfz2013uugc   0.09300
gfz2013uwjo  -0.44925
gfz2013uwxi   0.62438
gfz2013uxzw  -0.73647
gfz2013uzmf   1.07320
gfz2013vdam   0.06276
gfz2013veug  -0.10125
gfz2013vjrr  -0.04705
gfz2013vldx   0.88680
gfz2013vmrv  -1.58410
gfz2013vmsg  -0.22799
gfz2013vmsn  -0.15684
gfz2013vnwa  -0.72482
gfz2013voai   0.36537
gfz2013vojy   1.61480
gfz2013vsdd   0.84980
gfz2013vvre  -0.65277
gfz2013vwkh  -0.11625
gfz2013vzel   1.01270
gfz2013wegs  -0.31021
gfz2013wigs   2.63020
gfz2013wyfl   0.08307
gfz2013xacx  -0.48346
gfz2013xahp  -0.01882
gfz2013xddu  -0.40274
gfz2013xmzw   0.72157
gfz2013xofz   0.26107
gfz2013xswc  -0.33796
gfz2013xvps  -0.23263
gfz2013xxbf   0.21754
gfz2013xycz  -0.03905
gfz2013yfwz   1.28450
gfz2013yihv   0.68252
gfz2013ykqw   0.82936
gfz2013ylxm   1.14900
gfz2013ymhx  -0.02987
gfz2013yodm   0.30067
gfz2013yqkz  -0.17646
gfz2013yqtu  -0.07586
gfz2013yvnj   0.57333
gfz2013yxhf  -0.21692
gfz2013yxif   0.58762
gfz2013zedt   0.35637
gfz2013zfbz   0.78208
gfz2013ziix   0.47564
gfz2013zkgm   0.30247
gfz2013zkta  -0.85241
gfz2013zkzb  -0.48122
gfz2013zlak  -0.25679
gfz2013zpwk   0.31335
gfz2014aaae  -0.37669
gfz2014aapq   0.38437
gfz2014aedl   0.98061
gfz2014aejh  -0.41716
gfz2014afbt   0.44250
gfz2014ajgi   3.40960
gfz2014amgk  -1.03710
gfz2014aqax   0.51196
gfz2014aqop  -0.08954
gfz2014ateb  -0.53131
gfz2014avag   0.57607
gfz2014avmd   0.65463
gfz2014avzp   0.12459
gfz2014ayxf   0.29016
gfz2014azfu   0.49895
gfz2014bdju   0.32078
gfz2014befl  -0.03605
gfz2014bfjb  -0.45874
gfz2014bkra  -0.72011
gfz2014bmch   1.02730
gfz2014bppg  -0.27782
gfz2014bqpm   0.31745
gfz2014brkk  -1.25520
gfz2014buyz  -0.68737
gfz2014bycg   0.23603
gfz2014byes  -0.48881
gfz2014bzus  -0.02041
gfz2014cgoi  -0.33181
gfz2014cgxj  -1.10230
gfz2014cjao   0.51981
gfz2014ckqv   1.04760
gfz2014cncl  -0.49749
gfz2014cokw  -0.15474
gfz2014crac   0.25002
gfz2014ctdl  -0.51658
gfz2014cvnb   1.02780
gfz2014dbmu   0.49321
gfz2014dbqi  -1.22720
gfz2014dggw   0.77262
gfz2014dihl  -1.85990
gfz2014djhi  -0.87730
gfz2014djyj   0.67921
gfz2014dmrw  -0.15835
gfz2014dpps   0.78177
gfz2014dsqr  -0.58556
gfz2014dtth   0.16706
gfz2014dtto   0.27762
gfz2014edjm   0.77934
gfz2014egvg  -0.94592
gfz2014eirs   0.79224
gfz2014eoay  -0.06247
gfz2014ezld  -1.70890
gfz2014faex  -0.47462
gfz2014fbef  -0.13193
gfz2014fbli   0.40835
gfz2014fbnr  -0.00000
gfz2014fdhk  -1.76400
gfz2014ffqg  -0.19816
gfz2014fhki  -1.45830
gfz2014flxk   0.73712
gfz2014fqas   0.57155
gfz2014fsir   0.13704
gfz2014fsje   0.24070
gfz2014fskh   0.10294
gfz2014fsvc  -0.27361
gfz2014fvza   0.49316
gfz2014fwuf   1.36170
gfz2014fwxt  -0.09086
gfz2014fxim  -1.19220
gfz2014fxte  -0.04680
gfz2014fxtv   0.09278
gfz2014fxuy  -0.14432
gfz2014gasb   0.08844
gfz2014geln   0.05007
gfz2014ginr   0.89665
gfz2014gnvp   0.39716
gfz2014gqxg   0.93606
gfz2014grwv   0.48663
gfz2014gsfc   0.33090
gfz2014gssz  -0.22620
gfz2014gtoj   1.19170
gfz2014happ  -0.71486
gfz2014herz   0.62126
gfz2014hhey  -0.75637
gfz2014hjmc  -0.41923
gfz2014hkcw   0.82425
gfz2014hotu  -0.45707
gfz2014hqhv   0.76739
gfz2014huah  -1.31910
gfz2014huqh  -1.46910
gfz2014hyea  -0.09952
gfz2014hzzf   0.88673
gfz2014icov   0.35234
gfz2014igrp  -0.78376
gfz2014ijsa   0.26482
gfz2014ikvw   1.06670
gfz2014iltl   0.25720
gfz2014ined  -0.10067
gfz2014inrg  -0.53382
gfz2014ipfu   0.80436
gfz2014ipwk  -0.85157
gfz2014irlf   0.36747
gfz2014irln   0.36805
gfz2014irly   0.13289
gfz2014isjg   0.08701
gfz2014isov  -1.14460
gfz2014iusw   0.13895
gfz2014ivgm  -1.10680
gfz2014ixlc  -0.02691
gfz2014iyuc  -0.59631
gfz2014jarg   0.13359
gfz2014jayh   0.75821
gfz2014jbgm   0.22944
gfz2014jfmc  -1.71800
