# Nsamples: 1143  MAD:  0.490  mean:  0.005  std:  0.874
gfz2010abfc   0.06787
gfz2010abvu  -0.24722
gfz2010aggj   0.33832
gfz2010aimm  -0.35372
gfz2010amec  -0.81127
gfz2010azji   0.25381
gfz2010bkfi  -0.24155
gfz2010bklj  -0.32791
gfz2010bnqr   0.11903
gfz2010bqnk   0.36740
gfz2010brlc   0.01034
gfz2010brrm  -0.44277
gfz2010btme   0.92951
gfz2010bukb  -0.08768
gfz2010bvit   4.43860
gfz2010bytu   0.54536
gfz2010ccwc   0.05418
gfz2010ccye  -0.18098
gfz2010clbw   0.24747
gfz2010cllh  -0.28431
gfz2010cnyi  -0.36410
gfz2010cphq   0.37805
gfz2010cpig  -0.83581
gfz2010cqoq   0.70836
gfz2010crgy   0.41530
gfz2010crir  -0.10139
gfz2010csle  -2.26140
gfz2010csmw  -0.16806
gfz2010csqy  -0.36945
gfz2010ctak  -1.34480
gfz2010cthm   0.97220
gfz2010cvam  -0.19758
gfz2010cyid  -1.96140
gfz2010dask  -0.33754
gfz2010diid  -0.12048
gfz2010dmij   0.48529
gfz2010dmkd  -0.34861
gfz2010drit  -0.12478
gfz2010drml  -1.15130
gfz2010drmq  -1.15130
gfz2010drng  -0.93736
gfz2010dumv  -1.17590
gfz2010dxhq  -1.29670
gfz2010eepd  -0.16952
gfz2010ehgf   0.90619
gfz2010ekvl   0.56862
gfz2010elge   0.44532
gfz2010ethu   0.00000
gfz2010euue  -0.61593
gfz2010ewyj  -0.57014
gfz2010extu   0.28050
gfz2010faly  -0.15916
gfz2010fgbo   0.10569
gfz2010fjio  -0.51403
gfz2010fjme  -0.49625
gfz2010fkff  -0.29848
gfz2010fnkr  -0.03242
gfz2010fopf   0.57392
gfz2010fpvw   0.70988
gfz2010fqzh   0.27968
gfz2010ftfq  -0.42064
gfz2010fuky   0.11203
gfz2010fvfz   0.02137
gfz2010fxhh   0.59130
gfz2010fxut   0.23702
gfz2010gcqp   1.01020
gfz2010gcrn  -1.29060
gfz2010gnvp  -0.40448
gfz2010gonu  -0.07233
gfz2010gooc   0.48611
gfz2010gpjl  -0.88753
gfz2010gxki  -3.54160
gfz2010habf   0.07347
gfz2010hdgr   0.20590
gfz2010hesh  -0.41877
gfz2010hexh  -0.14302
gfz2010hllp  -0.97551
gfz2010hsgv   0.14961
gfz2010hueh  -0.92353
gfz2010hxan   0.23030
gfz2010iaay  -0.10533
gfz2010iawy  -0.44531
gfz2010ifhd   0.50630
gfz2010ifru   0.10018
gfz2010izag   0.66085
gfz2010jcby   0.21644
gfz2010jcpq   0.45809
gfz2010jdhk   0.39452
gfz2010jlvp   0.22020
gfz2010juke  -0.05716
gfz2010jvsi  -0.39678
gfz2010kcdq  -0.11924
gfz2010kcyz   0.08289
gfz2010kwks   5.81260
gfz2010ljmp   0.63948
gfz2010ljol   0.87494
gfz2010lswe   0.72086
gfz2010mdti  -0.04388
gfz2010mnoc   0.10129
gfz2010mqaj  -1.41930
gfz2010mqzz   0.35112
gfz2010myqg   0.65051
gfz2010mzfb   2.03130
gfz2010nbcr  -0.18812
gfz2010ncwu   0.08062
gfz2010nlai   0.26729
gfz2010novb  -0.16771
gfz2010nwbd  -0.35045
gfz2010nwyk   1.80830
gfz2010ojhe   0.10585
gfz2010okpc  -0.36940
gfz2010okww   0.39227
gfz2010ouvm  -0.76449
gfz2010ovvg  -1.09260
gfz2010pclq   1.74380
gfz2010pcya   1.13210
gfz2010pgpo   0.17527
gfz2010pvnn   0.11984
gfz2010pxoi   0.10522
gfz2010pzza  -0.15766
gfz2010qbcy   0.25943
gfz2010qdqk  -0.19199
gfz2010qqqx  -1.58630
gfz2010qrix  -2.00100
gfz2010qrta   0.15664
gfz2010qykh   0.46264
gfz2010qylh   0.38797
gfz2010qzvf   0.31059
gfz2010rdip   0.02100
gfz2010rhvu  -0.98701
gfz2010rkuu  -0.24903
gfz2010rljv   0.00000
gfz2010rmua  -0.59066
gfz2010rnqa   0.69755
gfz2010rnwt  -0.59885
gfz2010rpbz   4.71440
gfz2010rpjd   2.09350
gfz2010schp   0.22998
gfz2010scht  -0.01741
gfz2010sdfs  -0.33311
gfz2010sftm   0.22537
gfz2010shvn   0.05674
gfz2010sook   0.84735
gfz2010swqy  -0.09689
gfz2010sylk  -0.28188
gfz2010syqh  -0.68981
gfz2010tcgh  -0.67937
gfz2010tfar  -0.13502
gfz2010tgmo  -0.80114
gfz2010tmba  -0.20336
gfz2010tmne  -0.74558
gfz2010tpcj  -1.04550
gfz2010tqyo  -0.39867
gfz2010tzki  -0.33780
gfz2010tzlz   0.30877
gfz2010tzma  -1.27560
gfz2010ugws  -0.31276
gfz2010uhjy  -0.46641
gfz2010uidg  -0.27376
gfz2010ujqn  -0.02421
gfz2010umxj   0.31340
gfz2010umyp   0.03374
gfz2010uogw  -0.53135
gfz2010uopf  -0.03535
gfz2010uqba  -0.76149
gfz2010uraq  -0.59193
gfz2010ussf   0.22078
gfz2010utsc   0.28699
gfz2010uveo  -0.28719
gfz2010uyng  -0.05698
gfz2010vdcf  -0.28195
gfz2010vgfu   0.56668
gfz2010vhzx  -0.02226
gfz2010vkca   0.09848
gfz2010vong  -0.02432
gfz2010vybx  -0.26880
gfz2010wakc  -0.65742
gfz2010wigk  -1.24370
gfz2010wtin  -0.09148
gfz2010wwhf  -0.04686
gfz2010wwnq  -0.25586
gfz2010wyso   1.17590
gfz2010wyuj  -1.23990
gfz2010xamh  -0.34164
gfz2010xaxw   0.18915
gfz2010xhqq  -0.60061
gfz2010xjsv  -0.52959
gfz2010xkbz  -0.14786
gfz2010xnbn  -0.41043
gfz2010xnwf   0.22898
gfz2010xpzq   0.11584
gfz2010xvev  -0.32709
gfz2010xytc   0.19861
gfz2010xzah  -0.43292
gfz2010xzte  -0.94830
gfz2010yczp  -0.08997
gfz2010yfdr  -0.26688
gfz2010yhhj   0.49681
gfz2010yilf   0.20519
gfz2010yrex   0.19551
gfz2010ytzb   0.21252
gfz2010zhvj  -0.56780
gfz2010zjun   0.10308
gfz2010zkle  -0.49529
gfz2011afyc  -0.35813
gfz2011ahvh  -0.21172
gfz2011aksu   1.92890
gfz2011amst  -0.50560
gfz2011aqpp  -0.02448
gfz2011awsv   0.21646
gfz2011bazz   1.20060
gfz2011bcvc  -0.21939
gfz2011bffb   0.09151
gfz2011biin   0.32334
gfz2011boaz   0.49362
gfz2011bpqm   0.44826
gfz2011bqbx  -0.27662
gfz2011bsvr  -0.11967
gfz2011bvog   1.65050
gfz2011bwsm  -0.61188
gfz2011bygs  -0.11182
gfz2011bygu   0.17550
gfz2011bzio  -0.15050
gfz2011caca   0.20334
gfz2011cdge  -0.60326
gfz2011cfyy   0.20837
gfz2011chsa  -0.18905
gfz2011cjcv  -1.11640
gfz2011cjuz  -0.96503
gfz2011clwu  -0.16360
gfz2011cwhx  -0.44562
gfz2011cwsm  -0.48404
gfz2011cwzi  -0.04419
gfz2011cxbw   2.94150
gfz2011cxdj  -0.25582
gfz2011dabj   0.26591
gfz2011dhfg   0.07327
gfz2011dhqk  -0.09163
gfz2011dmdv  -0.02199
gfz2011dpyu   0.31289
gfz2011duvm   0.03451
gfz2011dwae   0.21554
gfz2011dzmf   1.16840
gfz2011edrq   0.24100
gfz2011ekty   0.48667
gfz2011etkc   0.43624
gfz2011exxq  -0.89298
gfz2011ffdh  -0.09879
gfz2011fnie  -0.19993
gfz2011fnuk   0.21648
gfz2011fnxz  -0.28049
gfz2011fszl  -0.07212
gfz2011fxmf  -0.31713
gfz2011fyfu   4.43970
gfz2011fzcw  -2.47310
gfz2011gaax   0.09963
gfz2011gcct   0.35345
gfz2011gdli  -0.08637
gfz2011gdrl   0.34928
gfz2011gfer  -0.00784
gfz2011ggnl   0.56551
gfz2011ggsz   0.94119
gfz2011glpg   0.60875
gfz2011gnbk   0.14916
gfz2011gpyr  -0.10278
gfz2011grby  -1.08880
gfz2011haaa  -0.13969
gfz2011hatg  -0.24176
gfz2011hqjs   0.32827
gfz2011hrgt   0.18326
gfz2011ifta   0.00370
gfz2011inan   0.51702
gfz2011ioch  -0.59630
gfz2011iryz  -0.02949
gfz2011itcv  -0.17888
gfz2011ituo   0.67122
gfz2011ixpj   0.06331
gfz2011iybf  -0.28341
gfz2011jdoz  -0.17056
gfz2011jfyb  -0.35560
gfz2011jghq  -0.38560
gfz2011jryv  -0.15898
gfz2011kfch   1.18370
gfz2011kgvq   0.46036
gfz2011kjzt  -0.30913
gfz2011kjzv  -1.85220
gfz2011ksxc  -0.49879
gfz2011kujo   0.05514
gfz2011kylu   0.99648
gfz2011kymm   1.52900
gfz2011kyzy   0.19913
gfz2011lbnn   1.61760
gfz2011ldgl  -0.10089
gfz2011lkkf   0.87702
gfz2011lmug   0.01396
gfz2011lwmg   0.04514
gfz2011lykm   2.68570
gfz2011mdyq   0.23161
gfz2011mjje   0.11267
gfz2011mllb   0.23665
gfz2011mntq  -0.30338
gfz2011mrfm   4.59110
gfz2011mror  -0.14164
gfz2011mrpy  -0.14536
gfz2011mryu   0.29528
gfz2011mzvn  -0.90138
gfz2011nblt   0.46675
gfz2011ncyw  -1.86490
gfz2011ndhh  -0.61741
gfz2011nejg   1.05600
gfz2011nejw  -0.41348
gfz2011nerb  -0.06779
gfz2011nfcz   0.25353
gfz2011nfln  -0.26220
gfz2011nftw  -0.03083
gfz2011nhby   0.70002
gfz2011nhhd   0.74690
gfz2011nhvt  -1.91220
gfz2011nhwf   1.28280
gfz2011nijp  -0.98471
gfz2011nilw  -1.52950
gfz2011niuw  -0.45873
gfz2011nivw   1.24030
gfz2011nkou   2.82660
gfz2011nlmf  -0.43531
gfz2011nlnl  -0.57609
gfz2011nlum  -0.16123
gfz2011nlyw  -1.52080
gfz2011nmdz  -0.04739
gfz2011nnda   0.13622
gfz2011npaf   0.04091
gfz2011npeu  -1.31900
gfz2011nsej  -0.33243
gfz2011nsiy  -0.21010
gfz2011nsrx   0.00000
gfz2011nswi   0.51310
gfz2011nuqo  -0.52689
gfz2011oadm  -0.14905
gfz2011oazk   0.33734
gfz2011ocif  -1.27070
gfz2011oekz  -0.69889
gfz2011ofpj  -0.15696
gfz2011ohgj  -0.31918
gfz2011okza   0.10655
gfz2011omxt   0.17153
gfz2011oosp  -0.00000
gfz2011oqjl   1.27520
gfz2011oslk   0.38578
gfz2011osmp   0.11373
gfz2011osuy   0.56488
gfz2011ovvj  -0.57232
gfz2011owqa   0.36229
gfz2011paqj  -0.33361
gfz2011pbgh  -1.28720
gfz2011pbjh  -0.03433
gfz2011pcqr   3.84530
gfz2011pdgq   0.11547
gfz2011pfls   0.12176
gfz2011pfwq  -2.17720
gfz2011pimj  -0.17437
gfz2011pivq   0.71305
gfz2011plzc  -2.09740
gfz2011pmuv   0.36008
gfz2011poug   0.17751
gfz2011pphc   0.43229
gfz2011ppsc  -0.03069
gfz2011prrq   0.12550
gfz2011ptgd   4.13870
gfz2011pulu  -1.09450
gfz2011pwbw  -0.12507
gfz2011pwld   4.69550
gfz2011qasw  -0.68425
gfz2011qenl   0.07578
gfz2011qgea  -0.47675
gfz2011qgvh   0.07682
gfz2011qgvx   1.91390
gfz2011qhjw   2.69140
gfz2011qidi   2.81150
gfz2011qlkj   0.36368
gfz2011qukj  -0.36590
gfz2011rbuo   0.13880
gfz2011rczb   0.18635
gfz2011rkau   0.18308
gfz2011rkzx  -0.33461
gfz2011rnsp   0.29167
gfz2011scma   0.53019
gfz2011sdax  -0.25730
gfz2011sdpl  -0.60955
gfz2011sfph   0.43185
gfz2011sqco   0.75593
gfz2011sqxp   1.40340
gfz2011sskq   0.45498
gfz2011stzi   0.24411
gfz2011swfp   0.46448
gfz2011sxno  -0.02356
gfz2011sylg  -1.48610
gfz2011syvj   0.42953
gfz2011szau  -0.24343
gfz2011szis  -0.76224
gfz2011taqr  -0.22002
gfz2011tdjj  -0.27901
gfz2011tfor   0.31211
gfz2011tgey   0.21819
gfz2011tgon  -0.02214
gfz2011tjpv   5.25270
gfz2011tqgg   0.46871
gfz2011tsgl   0.32368
gfz2011tssv   0.02645
gfz2011tvuv   0.35729
gfz2011txdb  -0.94798
gfz2011tzcv  -0.42256
gfz2011udjs  -0.40156
gfz2011ugbt   0.43721
gfz2011uowi  -0.16686
gfz2011uqry  -0.22198
gfz2011urwz   0.11650
gfz2011vahy   0.26219
gfz2011vaoi   2.11860
gfz2011varl  -1.29530
gfz2011vbxv  -0.00000
gfz2011vcyx  -0.05242
gfz2011vimn   0.37081
gfz2011vsag  -1.07080
gfz2011vswj   0.00000
gfz2011vtdl  -0.16777
gfz2011vtzv   0.01706
gfz2011wcvs  -1.17210
gfz2011wgoa  -1.21760
gfz2011wgvh  -0.23300
gfz2011wkja  -0.01209
gfz2011wnvu   1.42890
gfz2011wpzt  -0.00000
gfz2011wqup  -0.27544
gfz2011wtfn  -0.19813
gfz2011wucg   0.02751
gfz2011wwze   0.76307
gfz2011wyei  -1.20450
gfz2011wzss   0.29389
gfz2011xagc  -0.75792
gfz2011xawm  -0.39082
gfz2011xgbc  -0.06256
gfz2011xgwy  -0.17255
gfz2011xkka   0.23770
gfz2011xnui  -0.23547
gfz2011xpcq   0.28320
gfz2011xwdv   0.04038
gfz2011xxng  -0.38683
gfz2011yeck   0.25434
gfz2011yexx   0.20410
gfz2011ykbd  -0.30410
gfz2011ymji  -0.36265
gfz2011ypfh   0.26946
gfz2011yrfa  -0.14747
gfz2011ytob  -0.22637
gfz2011ytwk   0.24231
gfz2011zghc   0.11855
gfz2011zgxn   0.16718
gfz2011zkbt   0.37146
gfz2011zlga  -0.37353
gfz2012adja   0.51322
gfz2012agwh   1.10320
gfz2012ahac   0.09006
gfz2012aioo   0.04587
gfz2012aisj   0.07502
gfz2012alti   0.01592
gfz2012amjx  -0.70135
gfz2012amvs   0.41213
gfz2012aqpa  -0.30627
gfz2012arlo  -0.03090
gfz2012asld   0.64772
gfz2012atjr   0.41937
gfz2012auqr   1.16150
gfz2012avvc   1.22310
gfz2012axrp   0.70867
gfz2012bcvn   0.02148
gfz2012bity   0.35490
gfz2012bnwa   0.36468
gfz2012bovy   0.19941
gfz2012bqcf   0.57853
gfz2012btbq   0.08477
gfz2012byrq  -0.65689
gfz2012bytv  -0.88939
gfz2012byuk  -0.49170
gfz2012cdju   0.45688
gfz2012cfdw   0.12675
gfz2012cksh  -0.35713
gfz2012cmww  -0.07776
gfz2012cntu   0.03359
gfz2012cvfr   0.15036
gfz2012cwhl  -1.12190
gfz2012cxhw  -0.53625
gfz2012czvh   0.15371
gfz2012dbgt  -0.64949
gfz2012dcjd   0.29765
gfz2012dejg   0.22474
gfz2012dgfk   0.72863
gfz2012dkdy  -0.22842
gfz2012dleg  -0.51646
gfz2012dluf  -0.62357
gfz2012dnig   0.11606
gfz2012dpnu  -0.29644
gfz2012dpwv   0.61759
gfz2012drak   0.58921
gfz2012drld   0.07011
gfz2012drqd   0.53862
gfz2012dsei  -0.97792
gfz2012dtdt  -0.06721
gfz2012dtlu   0.37104
gfz2012dttl   0.36772
gfz2012dtvr   0.31848
gfz2012duvf  -0.38700
gfz2012dwwu  -0.08027
gfz2012dyck   0.15237
gfz2012dysu   1.20450
gfz2012dyua  -0.27599
gfz2012dzat   2.18270
gfz2012dzen  -0.67279
gfz2012dzjo  -3.30790
gfz2012dzoh  -1.60980
gfz2012dzot  -0.43270
gfz2012dzul  -0.47657
gfz2012dzva  -0.46787
gfz2012eajr  -0.66953
gfz2012eary  -2.73610
gfz2012ebff   0.07042
gfz2012ebhf  -0.32663
gfz2012ebrr  -0.35621
gfz2012ekfp  -0.02495
gfz2012ekro   0.10936
gfz2012elek   0.02211
gfz2012emin  -1.30650
gfz2012enio   0.71931
gfz2012erds   0.24074
gfz2012evav  -0.23035
gfz2012evxn   0.03819
gfz2012fcyq   0.12682
gfz2012fcyr   0.13501
gfz2012foih  -0.08658
gfz2012fpyo  -1.64470
gfz2012ftcq  -0.32634
gfz2012ftks   0.39688
gfz2012fuyd   1.25470
gfz2012fyny   0.09707
gfz2012fyop  -0.04479
gfz2012gdye   0.18813
gfz2012gftg  -0.42608
gfz2012ghiv  -0.17760
gfz2012ghyd  -1.77460
gfz2012gjdg  -0.40382
gfz2012gjtd  -0.46583
gfz2012gmsr   0.13417
gfz2012gnow   0.10363
gfz2012gpcd  -0.40364
gfz2012gubu   3.56640
gfz2012gvxc  -0.14419
gfz2012hdny  -0.90127
gfz2012heih   0.29671
gfz2012hhlx   0.22887
gfz2012hkxs   0.55275
gfz2012hmcv   0.09375
gfz2012hqlo   0.50229
gfz2012hvfw   0.15030
gfz2012hvtu   1.58120
gfz2012hwph   0.72244
gfz2012hyba   0.49338
gfz2012hysb  -0.92376
gfz2012hzhn  -1.21000
gfz2012hzur   0.63781
gfz2012iabn  -0.13810
gfz2012iblc  -0.04381
gfz2012iblo   0.78403
gfz2012ibyd  -0.00000
gfz2012icjo  -0.52379
gfz2012ieln   0.05439
gfz2012iijk  -0.46462
gfz2012ikke   2.02520
gfz2012imsm  -1.60640
gfz2012iphs  -1.93770
gfz2012ivyg   0.02372
gfz2012izke   0.09930
gfz2012jjxm   0.79560
gfz2012jksz   2.38730
gfz2012jlez   1.32800
gfz2012jqxx   0.61285
gfz2012jvei   1.89590
gfz2012jxnm   0.09759
gfz2012kjzx  -0.05383
gfz2012kmbo  -0.24672
gfz2012kmmz   0.31545
gfz2012kqjb  -1.49970
gfz2012krcm  -0.26730
gfz2012kstg   0.26695
gfz2012kwmx   0.18924
gfz2012kyhj  -0.24755
gfz2012lcro  -0.41715
gfz2012ldjj   0.29909
gfz2012lngq  -1.02400
gfz2012lops   0.15511
gfz2012lqhw   0.23271
gfz2012luzm  -0.10733
gfz2012lvlr  -0.80141
gfz2012lvwx  -1.32590
gfz2012lwha  -0.37002
gfz2012lyyr  -0.00536
gfz2012mcrb  -0.35150
gfz2012mdzf  -0.20159
gfz2012mekv  -0.76225
gfz2012mhik  -0.03388
gfz2012mjuu   0.19383
gfz2012mmiw   0.33374
gfz2012moul   2.34360
gfz2012mowv  -0.15113
gfz2012mpvl   0.04703
gfz2012mpzo  -1.51240
gfz2012mrqk  -1.50650
gfz2012mrwu   0.34143
gfz2012mtyn   0.20042
gfz2012mvgu  -0.34570
gfz2012mwhe   0.38193
gfz2012ndwt   0.19627
gfz2012nldz  -0.60413
gfz2012nlrb   0.01665
gfz2012nmja  -0.16455
gfz2012nnck  -3.17230
gfz2012nnqu  -0.24899
gfz2012nnsl   0.62254
gfz2012nqvd  -0.21771
gfz2012nsxc   0.06476
gfz2012oafg   0.16983
gfz2012oehy   0.47374
gfz2012ofaj  -0.06483
gfz2012ofnx  -0.28824
gfz2012ogwe   0.36934
gfz2012oieq   3.10360
gfz2012ojmv  -0.59667
gfz2012onfs  -0.33336
gfz2012onhu  -3.71090
gfz2012oork  -0.10528
gfz2012pdfi  -0.82464
gfz2012pmuj  -0.39351
gfz2012pmws   0.65778
gfz2012ppcq   0.30325
gfz2012pryl  -0.49073
gfz2012pumy  -0.21889
gfz2012pvve   0.26296
gfz2012pziw  -0.69993
gfz2012qbbt   0.19833
gfz2012qfah  -0.83587
gfz2012qfov  -1.09770
gfz2012qhqp  -0.15271
gfz2012qibe   1.08420
gfz2012qllj  -0.28350
gfz2012qmhz  -0.52365
gfz2012qoev   0.49303
gfz2012qpoc   0.29655
gfz2012rfhw  -1.08930
gfz2012rjlp  -1.55560
gfz2012rmvx   0.61361
gfz2012rnml   0.48587
gfz2012rnyn  -0.02232
gfz2012roan  -0.57649
gfz2012rugl  -0.42972
gfz2012rzwp   0.35733
gfz2012sbix  -0.40628
gfz2012sfao  -4.15880
gfz2012sgfd  -0.52502
gfz2012smyn   0.21151
gfz2012socz  -0.11360
gfz2012sopp  -0.01175
gfz2012sqsc  -0.94920
gfz2012stxx   0.61158
gfz2012suqd  -0.30156
gfz2012svwz   0.37093
gfz2012swbz   0.27250
gfz2012sxbo  -0.63627
gfz2012sxpr  -1.28700
gfz2012sxzs   0.07190
gfz2012syum   0.42064
gfz2012taph  -0.58155
gfz2012tbho   1.75360
gfz2012tfij  -1.16280
gfz2012thyh  -0.38347
gfz2012tisj  -0.45200
gfz2012tjih  -1.14710
gfz2012tjwg  -0.92318
gfz2012tqjc  -0.08704
gfz2012trfq   0.10662
gfz2012tvgw  -0.09728
gfz2012twec  -0.02373
gfz2012udxg   0.70298
gfz2012uegq   0.35587
gfz2012uhsx   0.03712
gfz2012uhtc   0.07890
gfz2012ukzg   1.64430
gfz2012ulei  -0.31055
gfz2012umob  -0.11676
gfz2012unxc  -0.12958
gfz2012uovh   0.00000
gfz2012urtu  -0.72653
gfz2012uvea  -0.12089
gfz2012uvoa  -0.31459
gfz2012uzuu  -0.09864
gfz2012uzww   0.00238
gfz2012vaqd   0.13818
gfz2012vcqw  -0.00000
gfz2012vdsl   0.68607
gfz2012vile  -0.50244
gfz2012vioy  -0.47239
gfz2012vitw   0.47444
gfz2012vkjw  -0.12759
gfz2012vlzv  -0.33221
gfz2012vnve   0.93340
gfz2012vqjw   0.52207
gfz2012vqmq  -0.01924
gfz2012vrqz  -0.38202
gfz2012vurc  -0.16560
gfz2012wbeu   0.27783
gfz2012wdvt   3.78510
gfz2012wdxk   0.04472
gfz2012wgdv  -0.06715
gfz2012wgmg  -0.38129
gfz2012wgmp   0.57560
gfz2012wgxf   0.38789
gfz2012wiyv  -0.71572
gfz2012wjpf  -1.63420
gfz2012wjxc   0.14505
gfz2012wkki   0.20899
gfz2012wmmw   0.41372
gfz2012wowu  -0.21672
gfz2012woxj  -0.06982
gfz2012wpen  -0.22415
gfz2012wqfz  -0.10465
gfz2012wugc  -0.06306
gfz2012wysg   0.09731
gfz2012xask   0.67675
gfz2012xcsf   0.15761
gfz2012xfnu  -0.14882
gfz2012xfsk  -0.41754
gfz2012xkln  -0.09354
gfz2012xlas   0.02808
gfz2012xlfo  -0.35487
gfz2012xmwt  -0.54103
gfz2012xncm   0.15654
gfz2012xppl  -2.20200
gfz2012xqxw  -0.41708
gfz2012xrmq   0.04753
gfz2012xtvu  -0.09355
gfz2012xwkx   0.72069
gfz2012xxdj  -0.04786
gfz2012yegw  -0.01002
gfz2012ylai   0.27399
gfz2012yvwc   0.23073
gfz2012ywei  -0.41179
gfz2012yygz  -1.74760
gfz2012yytb  -1.97300
gfz2012yzih   1.17190
gfz2012zhyz  -0.01255
gfz2012zido   0.33360
gfz2012zkhu  -1.18850
gfz2012zmfc  -0.59675
gfz2012zqis   0.01073
gfz2013adih   0.50974
gfz2013afzh  -0.19761
gfz2013agbm   0.76662
gfz2013agmt   0.21956
gfz2013akkd   0.45326
gfz2013ascz   0.11030
gfz2013atak   0.25534
gfz2013auew  -0.11436
gfz2013bdvi  -1.47550
gfz2013bqfc   0.29923
gfz2013bwgw  -0.07821
gfz2013byyy   0.14179
gfz2013bzwa   0.30789
gfz2013ccng  -0.16862
gfz2013cfls  -0.90051
gfz2013cinv   0.40768
gfz2013cokc  -0.51257
gfz2013cqee   1.33150
gfz2013cvve  -0.80449
gfz2013cyvx   0.02630
gfz2013delq  -0.04206
gfz2013dftb   0.46444
gfz2013dfvx   1.67140
gfz2013djfi   0.33336
gfz2013dksc   0.53781
gfz2013dmzh   0.00000
gfz2013dngd   0.24255
gfz2013dzvr   0.13080
gfz2013efct   0.35835
gfz2013eidd  -0.08821
gfz2013ektd   0.41228
gfz2013enga   2.28450
gfz2013enqo  -2.30520
gfz2013esef  -0.85821
gfz2013ewht  -0.06431
gfz2013exow   1.64720
gfz2013ezmc   0.55482
gfz2013ffjt   1.40140
gfz2013fmcd   0.79051
gfz2013fmcp   0.46329
gfz2013fndg  -0.19113
gfz2013fnpa  -0.13752
gfz2013foto  -0.12165
gfz2013frxd   1.25580
gfz2013fthi   0.63762
gfz2013fulo   0.22387
gfz2013fvht  -0.10016
gfz2013fvyr  -0.16006
gfz2013fvzv  -0.07278
gfz2013fwbm  -0.63376
gfz2013fybd   0.52166
gfz2013gbki  -2.08830
gfz2013gbma  -0.29837
gfz2013gffe  -0.27764
gfz2013ghpd   0.43130
gfz2013gjmk  -0.01834
gfz2013gkcx   0.01682
gfz2013gkyn   0.09666
gfz2013glpz   0.49034
gfz2013gugi   0.49467
gfz2013gurk   0.23385
gfz2013gxye  -1.60080
gfz2013hbmi   0.72666
gfz2013hbtm   0.59784
gfz2013hbwy   0.80924
gfz2013hdbp  -1.51400
gfz2013hduf   0.51174
gfz2013hiam   0.29351
gfz2013hinw  -1.82440
gfz2013hqaa   0.13553
gfz2013hvzv   0.47265
gfz2013hwps   1.06960
gfz2013icgx   0.08161
gfz2013icql   0.30149
gfz2013ikic   0.27466
gfz2013irme   0.23235
gfz2013iuyv   0.79716
gfz2013ivvw   0.48359
gfz2013iwzn   1.79680
gfz2013jcnn   0.44925
gfz2013jfcn   0.12091
gfz2013jhog   0.22547
gfz2013jjae  -0.38868
gfz2013jlli  -0.61607
gfz2013jobl   0.47253
gfz2013jpir   0.11662
gfz2013jrqf  -0.32425
gfz2013jtsg  -0.29458
gfz2013jzcf   0.01021
gfz2013kats   0.42935
gfz2013kbbg   0.09839
gfz2013kbbn  -0.05460
gfz2013kbkp   2.23020
gfz2013kcdb  -0.55198
gfz2013kdfy   0.04991
gfz2013kjgh  -0.15786
gfz2013kpcb   0.11765
gfz2013kpes  -0.40765
gfz2013kqab  -0.13653
gfz2013kruh   0.73586
gfz2013kslp  -0.55897
gfz2013kxlr   0.72731
gfz2013lbod   0.51616
gfz2013lbvl   0.45897
gfz2013lcrk  -0.18432
gfz2013ljdu   0.58101
gfz2013ljwt   0.17397
gfz2013lnne  -2.35610
gfz2013lqjj   0.67942
gfz2013lvxe  -0.89373
gfz2013mdxj   0.44720
gfz2013mktp  -0.20298
gfz2013mvgq   0.02850
gfz2013mynb   0.13392
gfz2013mzaw   0.31589
gfz2013nhkw  -1.50320
gfz2013nnai  -0.35704
gfz2013ntiu  -1.04950
gfz2013oeni   0.41758
gfz2013ohnj   0.18102
gfz2013oizq   0.07799
gfz2013okac   0.22506
gfz2013onvl   0.00000
gfz2013orot  -0.16940
gfz2013oruq   0.12127
gfz2013osmj  -0.54284
gfz2013otuj   0.45345
gfz2013oywh  -0.50317
gfz2013phhi  -0.35503
gfz2013pifg  -1.31060
gfz2013pkmz  -0.12438
gfz2013pqkp   0.22870
gfz2013pvsa   0.53201
gfz2013pwsm  -0.26730
gfz2013pzdr   0.83595
gfz2013qaov   2.24270
gfz2013qapj  -2.07670
gfz2013qdno   0.15777
gfz2013qdzg  -1.21330
gfz2013qear   0.02191
gfz2013qigb  -0.12640
gfz2013qmkt  -1.30490
gfz2013qoak  -0.13334
gfz2013qqyo   0.60521
gfz2013quwz  -0.06551
gfz2013quyn   0.25373
gfz2013qxof  -0.21439
gfz2013rdmn   0.46801
gfz2013rfik   0.39742
gfz2013rgcc  -0.22411
gfz2013rhbx   0.70718
gfz2013rhxf  -0.06632
gfz2013rocs   0.40245
gfz2013rwkj   0.00000
gfz2013ryfc   0.09251
gfz2013ryph  -0.04891
gfz2013sbsl   0.10642
gfz2013sbsp   1.03450
gfz2013sdkg   0.03933
gfz2013skay   0.25407
gfz2013skvq   0.19788
gfz2013stou   0.23257
gfz2013stup  -0.90905
gfz2013swnj  -0.13967
gfz2013syqp   0.46521
gfz2013syqv   0.33048
gfz2013taeb  -0.24655
gfz2013tcju  -0.12594
gfz2013tdsx  -0.07767
gfz2013tekq   0.28673
gfz2013tert   0.33784
gfz2013timw   0.40606
gfz2013tkcg  -0.02011
gfz2013tmnf  -0.00417
gfz2013tnrp   0.15561
gfz2013tpwl  -2.64520
gfz2013trsq   0.30631
gfz2013ubgt   0.45044
gfz2013udtw   0.29200
gfz2013uhio  -1.06960
gfz2013ujze   0.21864
gfz2013umay  -0.47327
gfz2013unuv  -0.07014
gfz2013upqj  -0.33599
gfz2013urla  -0.15829
gfz2013utqa   0.13146
gfz2013uwxi  -1.64840
gfz2013uxzw  -0.90609
gfz2013uzmf   0.70124
gfz2013vcgd  -0.44830
gfz2013vdam   0.19338
gfz2013veug  -0.17463
gfz2013vfix   0.63798
gfz2013vgfb   0.27511
gfz2013vjrr   0.05014
gfz2013vldx  -0.25113
gfz2013vmrv   0.22780
gfz2013vmsg  -0.34870
gfz2013vmsn  -0.13416
gfz2013vnwa  -0.46458
gfz2013voai   0.18596
gfz2013vojy   0.15013
gfz2013vvre   0.14628
gfz2013vxht   0.18641
gfz2013vzel  -0.19709
gfz2013vzet   0.04026
gfz2013wegs  -0.00000
gfz2013wgwz   0.77104
gfz2013wigs   0.15576
gfz2013wpns  -0.53233
gfz2013wwee  -0.20300
gfz2013wyfl  -0.31981
gfz2013xahp   0.32395
gfz2013xddu   0.50661
gfz2013xmzw   0.11891
gfz2013xodn   0.12477
gfz2013xswc   0.02508
gfz2013xupg   0.58742
gfz2013xvps   0.11164
gfz2013xzxe   0.34160
gfz2013yawe  -0.49449
gfz2013yfwz   0.06000
gfz2013ygsj  -2.43730
gfz2013yihv   0.69792
gfz2013ykkf   0.10227
gfz2013ylxm   0.80595
gfz2013ylxn   0.12949
gfz2013ymhx   0.03614
gfz2013yodm   0.25656
gfz2013yqkz   0.18389
gfz2013yqtu  -0.36305
gfz2013ytfm  -0.66648
gfz2013ytmi  -0.79115
gfz2013yvnj   0.19209
gfz2013yxhf   0.16764
gfz2013yxif   0.08789
gfz2013zedt  -3.16760
gfz2013zfbz   0.20374
gfz2013zkta  -1.20010
gfz2013zkzb  -0.16790
gfz2013zlak  -0.07539
gfz2013zlij   0.28481
gfz2013zpwk   0.18474
gfz2013zqan   0.28740
gfz2014aaae  -0.12366
gfz2014aapq  -0.01955
gfz2014aedl   0.39657
gfz2014aejh   0.15670
gfz2014afbt  -0.53699
gfz2014amgk  -0.50069
gfz2014aqax   1.67350
gfz2014aqop   0.35834
gfz2014ateb   0.10489
gfz2014avag   0.45770
gfz2014ayxf   0.03461
gfz2014azfu   0.34592
gfz2014bdju   0.07174
gfz2014befl   0.33587
gfz2014bkra   1.53120
gfz2014bmch   0.41987
gfz2014bmdf  -2.23330
gfz2014bmqw  -0.33338
gfz2014bqpm   0.13783
gfz2014buyz   0.02240
gfz2014bzus  -0.79195
gfz2014cgoi  -0.01529
gfz2014cjao   0.26498
gfz2014ckqv   0.77978
gfz2014cncl  -0.92317
gfz2014cokw   0.35200
gfz2014crac  -2.36340
gfz2014ctdl   0.09646
gfz2014cvnb  -0.47430
gfz2014cwti   0.68347
gfz2014dbqi  -0.07097
gfz2014dece  -2.75750
gfz2014dggw   0.23041
gfz2014dihl  -0.66712
gfz2014djyj  -0.02901
gfz2014dmrw  -0.03630
gfz2014dpps   0.18087
gfz2014dsqr   0.28218
gfz2014dtth   0.31217
gfz2014dudd  -0.72189
gfz2014dutu   0.43473
gfz2014dwcp   0.61587
gfz2014dykt   0.17469
gfz2014edjm   0.17416
gfz2014eglj   0.55883
gfz2014egvg  -0.44298
gfz2014eirs   0.40664
gfz2014ejfx  -0.22232
gfz2014eoay   0.25160
gfz2014epfm   1.09890
gfz2014epnq   0.15505
gfz2014esez   0.16954
gfz2014etgp   0.43065
gfz2014etqu   0.04552
gfz2014eunw   0.20445
gfz2014evgu   0.36445
gfz2014evhm   0.20559
gfz2014exxj   0.31144
gfz2014eyne  -1.47410
gfz2014ezjq  -0.85192
gfz2014ezld  -0.69065
gfz2014ezvd  -1.92890
gfz2014faex  -0.18854
gfz2014fbef   0.24461
gfz2014fbli   0.25457
gfz2014fbnr  -1.31890
gfz2014fdhk  -1.51600
gfz2014ffqg   0.56125
gfz2014fgbn   0.84561
gfz2014fhki  -0.96729
gfz2014fjfz   0.16894
gfz2014flxk   0.02855
gfz2014fmdc   1.18460
gfz2014fqas   0.70253
gfz2014fsje   0.20047
gfz2014fskh   0.19139
gfz2014fsvc   0.11079
gfz2014fvza   0.33691
gfz2014fwuf   0.74326
gfz2014fwxt   0.36015
gfz2014fxim  -1.11380
gfz2014fxte   0.13681
gfz2014fxuy  -0.07804
gfz2014gasb   0.62708
gfz2014gbxg   0.36940
gfz2014gcgf   0.89362
gfz2014gcia   0.41564
gfz2014geln   0.31531
gfz2014ginr   0.54080
gfz2014gjfd  -0.13220
gfz2014gnbw   0.31371
gfz2014gnvp   0.30147
gfz2014gqxg   0.18896
gfz2014grwv   0.45194
gfz2014gsfc  -0.63621
gfz2014gssz  -0.09587
gfz2014gtee   0.14207
gfz2014gtoj  -0.67003
gfz2014gypw   0.94904
gfz2014hapg  -0.20557
gfz2014happ   0.29975
gfz2014herz   0.42331
gfz2014hhey   0.50954
gfz2014hhis   0.17754
gfz2014hjmc  -0.41160
gfz2014hqhv   0.20004
gfz2014huah  -1.00160
gfz2014huqh  -0.12826
gfz2014hyea   0.11075
gfz2014hzzf  -0.10282
gfz2014iaqm  -0.89639
gfz2014iayo  -0.27954
gfz2014icov  -0.41330
gfz2014igrp   0.41467
gfz2014ijov  -0.79325
gfz2014ijsa  -0.60318
gfz2014iltl  -0.03598
gfz2014ined  -0.01263
gfz2014inrg  -0.16295
gfz2014iolv   0.58107
gfz2014ipfu   0.05873
gfz2014ipwk   0.30870
gfz2014irlf   0.38898
gfz2014irln   0.92660
gfz2014irly   0.23606
gfz2014isjg   0.22672
gfz2014isov  -1.34740
gfz2014itlx   0.58026
gfz2014iusw   0.32723
gfz2014ivgm  -0.74104
gfz2014ixlc   0.45582
gfz2014jarg   0.53459
gfz2014jaxy  -0.19665
gfz2014jayh   0.34167
gfz2014jbfp   0.23140
gfz2014jbgm  -0.65035
gfz2014jcbj  -0.76249
gfz2014jckg  -0.16871
