# Nsamples: 347  MAD:  0.648  mean:  0.276  std:  0.850
gfz2010btme  -2.73110
gfz2010cphq   1.63790
gfz2010crgy   0.77185
gfz2010djib   1.08380
gfz2010drit  -0.17737
gfz2010drml   2.41870
gfz2010drmq   2.41870
gfz2010drun   0.76896
gfz2010fqnn   0.32773
gfz2010fxut   0.63613
gfz2010hxan   0.37065
gfz2010iaay   0.52973
gfz2010izgb  -0.62634
gfz2010jlvp   0.83636
gfz2010nlai  -1.47910
gfz2010tpcj   0.08430
gfz2010tzma  -1.00230
gfz2010ugws  -1.31600
gfz2010uhjy  -1.06400
gfz2010upod   0.78320
gfz2010uyng   0.38249
gfz2010vdcf   0.67781
gfz2010vhzx   1.05510
gfz2010vong   0.71962
gfz2010vybx   0.95853
gfz2010wakc   0.52337
gfz2010wigk   1.51590
gfz2010wplk  -1.22720
gfz2010xamh   0.25523
gfz2010xnbn   1.79590
gfz2010xpzq  -0.17850
gfz2010yfdr   0.22901
gfz2010yhhj   0.31154
gfz2010zhvj  -0.21713
gfz2010zjun  -0.31347
gfz2010zkle   3.03360
gfz2011amst   0.14633
gfz2011boaz   1.18350
gfz2011bsvr  -1.07330
gfz2011bwsm  -2.18380
gfz2011cwsm   0.33890
gfz2011dabj   0.28151
gfz2011fnie   0.30030
gfz2011gaax   0.94085
gfz2011gfer  -0.10128
gfz2011ggnl  -1.19710
gfz2011gpyr   0.40277
gfz2011gzde   0.67524
gfz2011hatg  -0.23513
gfz2011hbqc   0.31954
gfz2011hibi   2.14200
gfz2011hjof  -0.00935
gfz2011hmnw  -0.15145
gfz2011hqjs   0.38503
gfz2011hvzo   0.15387
gfz2011iamf   0.58690
gfz2011ituo   0.30824
gfz2011jfyb   0.58672
gfz2011jpob   0.12875
gfz2011jryv   2.07810
gfz2011kfch   0.79207
gfz2011kjzt   0.67580
gfz2011kjzv   0.74720
gfz2011lmug  -0.10036
gfz2011mdyq   0.29524
gfz2011mjje   0.54121
gfz2011mror   0.14214
gfz2011ndhh  -0.38866
gfz2011ndki  -1.03760
gfz2011ndlh  -0.77099
gfz2011ndse   0.17900
gfz2011ndvj   0.41212
gfz2011neai  -0.70871
gfz2011nejg   0.19815
gfz2011nejw   0.55157
gfz2011nfcz   0.40383
gfz2011nfln  -0.87176
gfz2011nftw   0.02272
gfz2011nfwd   0.13456
gfz2011nfww  -2.26370
gfz2011nhvt  -0.22086
gfz2011nijp   0.69348
gfz2011nilw   1.07100
gfz2011niuw   0.08812
gfz2011nkou   1.44750
gfz2011nlmf   0.14337
gfz2011nlnl  -0.88505
gfz2011nlum  -0.28459
gfz2011npeu  -1.12000
gfz2011nsiy  -0.88822
gfz2011nswi  -0.02446
gfz2011nsyi   0.26003
gfz2011nuqo  -0.31433
gfz2011nvty  -0.42053
gfz2011nyzk  -1.05890
gfz2011oadm   0.13037
gfz2011ofpj   0.13323
gfz2011ohgj   0.86435
gfz2011okza   0.80485
gfz2011oqjl   0.57542
gfz2011owqa  -0.05842
gfz2011paqj  -0.06583
gfz2011pdsn   0.52171
gfz2011pfwq  -0.68787
gfz2011pivq   0.81446
gfz2011plzc   0.02086
gfz2011pmuv   0.98869
gfz2011pphc   1.17200
gfz2011ptgd   0.80305
gfz2011pwbw   0.95139
gfz2011qenl   0.28799
gfz2011qklh  -1.03720
gfz2011rkau   1.36780
gfz2011scma   0.95980
gfz2011sqco   0.42484
gfz2011sxno   0.56697
gfz2011tqgg  -0.26208
gfz2011tsgl  -0.67500
gfz2011twpz  -0.49314
gfz2011udxo   0.15465
gfz2011ugbt   0.07769
gfz2011uqry   0.00000
gfz2011urwz  -0.57448
gfz2011vcyx  -0.35507
gfz2011vsag   0.39912
gfz2011vtdl  -0.59785
gfz2011wkja   0.06926
gfz2011wkyx   0.23236
gfz2011wtfn  -2.51450
gfz2011wzss   0.41937
gfz2011xgwy   0.44856
gfz2011xlod   0.76503
gfz2011yexx  -0.01312
gfz2011ytwk   0.13434
gfz2011ywtj  -0.03936
gfz2011zkbt   0.04268
gfz2011znyq   0.84000
gfz2012ahac   0.44199
gfz2012ahkl  -0.44954
gfz2012amjx  -0.37183
gfz2012bjhl   0.34471
gfz2012bolx  -0.00000
gfz2012byrq   0.25971
gfz2012bysu   0.04524
gfz2012byuk   0.33700
gfz2012cdju   0.11113
gfz2012cksh  -1.59940
gfz2012dbgt   0.99850
gfz2012dcjd  -0.01754
gfz2012dleg  -0.08368
gfz2012dpem   0.90288
gfz2012dpnu   0.09813
gfz2012dpwv  -0.04910
gfz2012dtdt   0.09409
gfz2012dugf  -0.63737
gfz2012dwwu   0.45185
gfz2012dysu  -0.62795
gfz2012dzen   0.72220
gfz2012eary   1.88960
gfz2012ebhf   1.46540
gfz2012erds  -0.09538
gfz2012evxn   0.46448
gfz2012fcyq   0.42833
gfz2012fcyr   0.51067
gfz2012foih   2.17710
gfz2012fpyo   0.20750
gfz2012ftks   0.40625
gfz2012fyny   1.02970
gfz2012gczh   0.85061
gfz2012gjdg   0.42960
gfz2012gjtd  -0.15482
gfz2012hzur  -0.51639
gfz2012iotw  -0.51665
gfz2012iroy   0.93492
gfz2012itxz  -0.34729
gfz2012iyhs   0.71200
gfz2012izke   1.27960
gfz2012jlez   1.11170
gfz2012kmbo   1.75230
gfz2012kmmz   0.41580
gfz2012lcca   0.16019
gfz2012ldjj  -0.30529
gfz2012lqhw   0.65016
gfz2012mdzf   0.19486
gfz2012mhik   0.60467
gfz2012mjuu  -0.82736
gfz2012mmiw   0.66420
gfz2012movv  -0.33216
gfz2012mrqk   0.25077
gfz2012mtyn   0.71629
gfz2012mxdk   1.06150
gfz2012mxvk   1.48210
gfz2012nnqu  -0.24989
gfz2012nqvd   1.14880
gfz2012nsxc   0.94531
gfz2012oehy   0.05831
gfz2012onhu  -0.00000
gfz2012oork   0.80432
gfz2012phns   1.65090
gfz2012qbbt   0.52042
gfz2012qmhz   0.31756
gfz2012qpoc   0.73514
gfz2012roan   0.44269
gfz2012rslf   1.08050
gfz2012rzwp   1.37200
gfz2012sjdy   0.02044
gfz2012sqsc   2.50740
gfz2012suqd  -0.68213
gfz2012sxpr   0.81690
gfz2012syum  -0.22991
gfz2012tisj   1.57890
gfz2012tjih   0.34029
gfz2012tqjc  -0.21424
gfz2012tsdz  -0.24668
gfz2012tyoz   0.85122
gfz2012uhtc  -0.13103
gfz2012ulei  -0.50389
gfz2012uovh   0.63581
gfz2012urtu  -0.15022
gfz2012uvoa  -0.32506
gfz2012uzww  -0.35330
gfz2012vile   1.00360
gfz2012vitw   0.35966
gfz2012wgdv   1.69960
gfz2012wgmg   0.61989
gfz2012wgmp   0.83651
gfz2012wiyv   3.27790
gfz2012wowu  -0.78595
gfz2012xlas  -0.75574
gfz2012xlfo  -0.36030
gfz2012xncm  -0.53941
gfz2012xtvu   0.63630
gfz2012xxdj   0.21116
gfz2012yncm   3.07170
gfz2013adih   0.66612
gfz2013atak   0.70655
gfz2013aymi   0.86705
gfz2013cfls   0.34903
gfz2013cinv   0.37558
gfz2013cokc   0.00021
gfz2013cvve   1.03730
gfz2013djfi   1.07510
gfz2013dngd   0.04851
gfz2013dzvr   0.10870
gfz2013eazm   0.35905
gfz2013efct   0.38324
gfz2013eidd   0.67205
gfz2013ektd   0.83583
gfz2013ffjt   1.44340
gfz2013frxd  -1.04580
gfz2013fvyr   0.33884
gfz2013fwbm   2.34550
gfz2013fybd   0.60163
gfz2013gbki  -0.28241
gfz2013gkcx  -0.01535
gfz2013gugi   1.57590
gfz2013hbmi  -0.64940
gfz2013hdbp   1.32090
gfz2013hjtt   1.09490
gfz2013hqaa  -0.18945
gfz2013hwps   0.12175
gfz2013icgx   0.35613
gfz2013icql  -0.15570
gfz2013jhog   0.29527
gfz2013jlli  -0.08138
gfz2013jobl   0.95158
gfz2013kbbg  -0.03604
gfz2013kcdb   0.01606
gfz2013kqab   2.10310
gfz2013kxlr   0.39978
gfz2013lbvl   1.00680
gfz2013ljwt   0.20916
gfz2013lnne   0.24531
gfz2013mvgq   0.96534
gfz2013mzaw  -0.08152
gfz2013njwj  -0.25199
gfz2013oizq  -0.62470
gfz2013okxa   0.27296
gfz2013onvl   0.85891
gfz2013oywh   1.82750
gfz2013pkmz   1.90030
gfz2013pqkp   0.22695
gfz2013qoak  -1.27620
gfz2013quwz  -0.19883
gfz2013qxof   0.64841
gfz2013rdmn  -0.50975
gfz2013rfik   0.25638
gfz2013rocs   0.50379
gfz2013rwog   0.27754
gfz2013ryph   0.67633
gfz2013sbsp   0.46127
gfz2013stup  -0.73926
gfz2013taeb   2.12720
gfz2013tert  -0.49557
gfz2013tgia   0.99406
gfz2013tjub   0.50006
gfz2013tmnf   0.16014
gfz2013tnff   0.42445
gfz2013tnrp   0.36953
gfz2013ujze   0.33424
gfz2013unuv   0.15307
gfz2013upqj  -0.71594
gfz2013veoz   0.17997
gfz2013veug  -0.58556
gfz2013vmsg  -2.06840
gfz2013vnwa  -0.04579
gfz2013vojy   1.03490
gfz2013vvre   0.32705
gfz2013vzel  -0.04762
gfz2013vzet  -0.11530
gfz2013wpns   0.64247
gfz2013xahp  -0.48142
gfz2013xmzw   0.53271
gfz2013xofz  -0.99183
gfz2013xswc   0.48048
gfz2013yawe  -0.51200
gfz2013yodm  -0.09753
gfz2013zkta   0.20840
gfz2013zlak   0.12895
gfz2014aluc   0.88615
gfz2014ayxf   1.35070
gfz2014bdju  -0.30077
gfz2014befl  -0.10302
gfz2014bztn   1.65310
gfz2014bzus   0.43606
gfz2014cwti   0.41709
gfz2014dtth   0.52838
gfz2014eoay   0.13595
gfz2014epnq   1.00870
gfz2014epue   0.77349
gfz2014ezjq  -1.28990
gfz2014faex   0.17984
gfz2014flxk   0.23627
gfz2014fxte  -0.01892
gfz2014fxtv   0.20021
gfz2014gasb  -1.47010
gfz2014gnvp  -1.93840
gfz2014gsfc   0.68823
gfz2014gypw   0.93897
gfz2014hapg   0.44298
gfz2014huqh  -2.31580
gfz2014hyea   0.37824
gfz2014hzzf  -0.02666
gfz2014ijsa   0.12376
gfz2014irln  -0.48842
gfz2014jayh  -0.34336
gfz2014jbgm  -0.02205
