# Nsamples: 387  MAD:  0.369  mean: -0.048  std:  0.657
gfz2010fgbo   0.03799
gfz2010fjio   1.99330
gfz2010fjme  -0.23982
gfz2010fkff  -0.22582
gfz2010fnkr   0.85793
gfz2010fopf   0.41016
gfz2010fqnn   0.08485
gfz2010fqzh  -0.14986
gfz2010ftfq  -0.15294
gfz2010fvfz   0.17694
gfz2010fxhh   0.58963
gfz2010fxut   1.37430
gfz2010gcqp   0.48144
gfz2010gcrn  -1.23290
gfz2010gnvp   0.18402
gfz2010gonu   0.04910
gfz2010habf  -0.02069
gfz2010hesh  -0.14804
gfz2010hexh   2.50750
gfz2010hllp  -0.85425
gfz2010hsgv   0.03886
gfz2010hueh  -1.38190
gfz2010hxan  -0.08137
gfz2010iaay  -0.92856
gfz2010iawy  -0.02544
gfz2010ifhd   0.08932
gfz2010izag   0.06714
gfz2010jdhk   0.37217
gfz2010jlvp   0.13338
gfz2010jpkn   0.35086
gfz2010rkuu   0.08400
gfz2010rljv   0.46551
gfz2010tcgh  -0.57299
gfz2011lwmg  -0.14426
gfz2011mror  -0.35242
gfz2011mrpy  -1.33200
gfz2011nblt  -0.49300
gfz2011ndhh  -0.79071
gfz2011ndlh  -2.66970
gfz2011nejg   1.20510
gfz2011nejw  -0.58080
gfz2011nfcz   0.08212
gfz2011nftw  -0.06387
gfz2011oadm  -0.18686
gfz2011oazk  -0.01980
gfz2011ofpj  -0.08656
gfz2011ohgj  -0.55441
gfz2011pfls  -0.08227
gfz2011pgzk   0.11682
gfz2011pimj  -0.14128
gfz2011pmuv   0.08181
gfz2011ppsc   0.03550
gfz2011prrq  -0.98723
gfz2011uowi   0.11700
gfz2011uqry  -0.49094
gfz2011vahy  -0.17074
gfz2011vbxv   0.33954
gfz2011vcyx   0.39174
gfz2011vimn   0.15241
gfz2011vtzv  -0.15427
gfz2011vxek  -0.00000
gfz2011wbtc  -0.07389
gfz2011wcvs  -1.08040
gfz2011wkja   0.44587
gfz2011wngi  -0.18922
gfz2011wpzt  -0.17173
gfz2011wqup  -0.00698
gfz2011wtfn  -0.79918
gfz2011wucg  -0.67127
gfz2011wwze   0.31397
gfz2011wzss  -0.01925
gfz2011xawm  -0.58055
gfz2011xdox   0.61049
gfz2011xgbc  -0.47736
gfz2011xgwy  -0.22117
gfz2011xkka   0.50827
gfz2011xpcq   0.12800
gfz2011xxng  -0.30656
gfz2011yexx  -0.09111
gfz2011ytob   0.22314
gfz2011zghc  -0.44012
gfz2011zkbt   0.04732
gfz2012adja   0.16315
gfz2012agwh   2.62500
gfz2012ahac   0.18701
gfz2012alti  -0.01954
gfz2012amjx  -1.29940
gfz2012aqpa   0.28507
gfz2012arlo   0.45736
gfz2012bcvn  -0.11208
gfz2012beae   1.19020
gfz2012bity  -0.28619
gfz2012bjhl  -0.31887
gfz2012byrq   0.70581
gfz2012cdju   0.24125
gfz2012cvfr   0.25619
gfz2012dcjd   0.36235
gfz2012dnig  -0.01123
gfz2012dtlu   0.08032
gfz2012dttl   0.17010
gfz2012dwwu  -0.01916
gfz2012dyck   0.17804
gfz2012dysu   0.00000
gfz2012ekfp  -0.25615
gfz2012lyyr  -0.02818
gfz2012mjuu   0.00130
gfz2012mjzl  -0.11380
gfz2012mmiw  -1.66120
gfz2012movv   0.41899
gfz2012mowv  -0.21527
gfz2012mpzo   0.47492
gfz2012mrqk   0.68979
gfz2012mtyn   0.73882
gfz2012mxvk   2.89810
gfz2012mzqx  -0.40792
gfz2012nfos   0.77103
gfz2012nldz  -0.65822
gfz2012nnqu  -0.48846
gfz2012nnsl  -1.77530
gfz2012nqvd  -0.54324
gfz2012oafg   0.04050
gfz2012oehy  -0.03645
gfz2012ofnx   0.01249
gfz2012onhu  -0.47211
gfz2012oozp   0.53823
gfz2012pdav   0.43692
gfz2012pdjt  -2.85070
gfz2012phns  -0.18823
gfz2012pmuj  -0.12487
gfz2012pmuq   2.77270
gfz2012pokk   0.00608
gfz2012pumy  -0.69670
gfz2012pvve   0.14982
gfz2012qfah  -0.08847
gfz2012qhqp   0.21846
gfz2012qllj  -0.96527
gfz2012qpoc  -0.06628
gfz2012rzwp   0.89713
gfz2012sfao   0.80181
gfz2012sgfd  -0.72830
gfz2012sopp   1.15760
gfz2012stxx   0.07344
gfz2012svwz  -0.05485
gfz2012swbz   0.37126
gfz2012syum   0.10648
gfz2012taph   0.23801
gfz2012tgta   0.15030
gfz2012thyh   0.12979
gfz2012tisj  -0.78888
gfz2012touh   0.63654
gfz2012tqjc  -0.01875
gfz2012trfq  -0.21750
gfz2012trss   0.59595
gfz2012tsdz   0.56726
gfz2012ttnf  -0.24988
gfz2012tvgw  -0.05677
gfz2012twec  -0.07230
gfz2012tyoz   0.13232
gfz2012uhsx  -0.06196
gfz2012uhtc  -0.19687
gfz2012ukzg  -1.69080
gfz2012ulei   0.07106
gfz2012umob  -0.08972
gfz2012uovh   0.35740
gfz2012uvoa   0.18026
gfz2012uzww  -0.27815
gfz2012vdsl   0.85698
gfz2012vgot   0.42581
gfz2012vile  -0.57850
gfz2012vkjw  -0.40377
gfz2012vnve   0.23733
gfz2012vqjw   0.02025
gfz2012vqmq  -0.39623
gfz2012vrqz   0.05625
gfz2012vsav  -0.36797
gfz2012wgdv  -0.28201
gfz2012wkki   0.20302
gfz2012wmmw   0.36947
gfz2012wowu  -0.19299
gfz2012wpen   0.25983
gfz2012wqfz  -0.16436
gfz2012wugc   0.03385
gfz2012wysg  -0.17244
gfz2012xask  -0.07857
gfz2012xbna   0.98810
gfz2012xcsf   0.05430
gfz2012xfsk  -0.13155
gfz2012xfsl  -0.08506
gfz2012xkln  -0.49136
gfz2012xlas  -0.10576
gfz2012xlfo  -0.61561
gfz2012xncm  -0.80898
gfz2012xqxw  -0.79533
gfz2012xrmq  -0.16594
gfz2012xwgb  -0.07716
gfz2012xwkx  -0.58326
gfz2012xxdj  -0.33835
gfz2012ylai  -0.08112
gfz2012yncm   1.15430
gfz2012yvwc  -0.24678
gfz2012zktj  -1.16420
gfz2012znou  -0.75935
gfz2012zqis   0.08869
gfz2013adih   0.11708
gfz2013agbm  -0.08865
gfz2013aggr  -0.75117
gfz2013agmt  -0.41294
gfz2013akkd   0.53888
gfz2013bqfc   0.05313
gfz2013bwgw  -0.39940
gfz2013byyy  -0.24505
gfz2013bzwa  -0.02075
gfz2013cinv  -0.12430
gfz2013cqak   0.54818
gfz2013cvve  -0.82617
gfz2013cyvx  -0.46515
gfz2013dbhl  -0.36473
gfz2013ddrx   0.76058
gfz2013delq  -0.42390
gfz2013dftb   0.14808
gfz2013dfvx   0.96610
gfz2013dksc   0.13573
gfz2013dmzh  -0.29927
gfz2013dngd  -1.35560
gfz2013dzvr  -0.16631
gfz2013eavq   0.05990
gfz2013eazm   1.05560
gfz2013eyyo   1.92440
gfz2013fmcd   1.49540
gfz2013fmcp   0.32260
gfz2013fndg   0.03778
gfz2013fnpa   0.21857
gfz2013fskp  -0.09333
gfz2013fthi   0.00000
gfz2013fulo   0.32423
gfz2013fvht   0.20364
gfz2013fxyr  -0.05308
gfz2013fybd   0.09280
gfz2013ghpd  -0.25461
gfz2013gkyn   0.04551
gfz2013glpz  -0.35518
gfz2013gomv   0.15159
gfz2013gsnl  -0.42189
gfz2013gurk   0.18697
gfz2013gxye   0.24566
gfz2013hbmi   0.49881
gfz2013hbtm   0.52643
gfz2013hdbp  -2.07780
gfz2013hiam   0.12843
gfz2013hinw   0.18829
gfz2013kxof  -0.30154
gfz2013lbod   0.02073
gfz2013lbvl   0.03762
gfz2013lgvf   0.29584
gfz2013ljdu   0.20672
gfz2013ljwt  -0.14815
gfz2013lqjj  -0.19811
gfz2013lvxe   0.08414
gfz2013lxed   0.26709
gfz2013mdxj   0.25340
gfz2013mimp  -0.17950
gfz2013mvgq  -0.26993
gfz2013mzaw  -0.14744
gfz2013nkgd  -0.05529
gfz2013nnai   0.40642
gfz2013ntiu  -1.41300
gfz2013oeni   0.51718
gfz2013ohdt   0.28726
gfz2013ohnj   0.22170
gfz2013oizq  -0.03042
gfz2013okac  -0.03203
gfz2013okxa   0.06384
gfz2013olos  -0.21757
gfz2013orot   0.18401
gfz2013ortl  -0.07316
gfz2013oruq  -0.14877
gfz2013osmj  -1.53770
gfz2013otuj  -0.00537
gfz2013pegj   0.95302
gfz2013phhi   0.74395
gfz2013pkmz  -0.50324
gfz2013puiy  -0.55163
gfz2013pvsa   0.65642
gfz2013qaex  -0.39639
gfz2013qapj   0.23871
gfz2013qdno  -0.20128
gfz2013qdpv  -0.29379
gfz2013qdzg  -0.99224
gfz2013qigb  -0.15516
gfz2013qmkt  -1.27010
gfz2013qnqr  -0.03617
gfz2013qntl  -0.47676
gfz2013qoak  -0.64272
gfz2013quwz  -0.33080
gfz2013quyn   0.56925
gfz2013qwnm   0.04957
gfz2013qxof  -0.42507
gfz2013rdmn   0.20086
gfz2013rfik   0.07068
gfz2013rgcc  -0.45298
gfz2013rhbx   0.40457
gfz2013rtvy  -0.20641
gfz2013rwog   0.04438
gfz2013ryfc   0.04575
gfz2013ryph   0.16123
gfz2013sbsl   0.53084
gfz2013sbsp   0.54755
gfz2013sdkg  -0.00231
gfz2013sdym   0.67187
gfz2013skay   0.03885
gfz2013skvq  -0.26078
gfz2013stou   0.14401
gfz2013stup  -1.06920
gfz2013swnj  -0.23355
gfz2013ttmk   1.20290
gfz2013twbc   1.42570
gfz2013ubgt   0.04791
gfz2013udtw   0.21635
gfz2013uepl  -0.08674
gfz2013uhio  -0.64379
gfz2013ujze  -0.14480
gfz2013ummt  -0.85450
gfz2013unuv   0.28781
gfz2013utqa  -0.53652
gfz2013uugc   0.02123
gfz2013uwjo  -1.19580
gfz2013uxzw  -1.19570
gfz2013vcgd  -0.55637
gfz2013vdam   0.13417
gfz2013veoz   0.31297
gfz2013vjrr  -0.18579
gfz2013vldx  -0.51680
gfz2013vmrv   0.16769
gfz2013vmsg  -0.12238
gfz2013vnwa   0.16925
gfz2013voai  -0.01157
gfz2013vojy  -0.43151
gfz2014eirs  -0.14203
gfz2014ejfx  -0.25293
gfz2014emlw   0.95566
gfz2014eoay  -0.11986
gfz2014epfm   0.63920
gfz2014epnq  -0.18681
gfz2014epue  -0.90934
gfz2014esez   0.18712
gfz2014etgp   0.14317
gfz2014eunw  -0.24397
gfz2014evgu  -0.10933
gfz2014evhm   0.54550
gfz2014exxj  -0.70899
gfz2014eyne  -0.18938
gfz2014ezvj  -0.39818
gfz2014faex  -1.69920
gfz2014fbef   0.07855
gfz2014fbli   0.12362
gfz2014fbnr  -0.57951
gfz2014hotu  -0.06694
gfz2014hqhv  -0.21281
gfz2014huqh  -0.25092
gfz2014hyea  -0.29040
gfz2014hzzf  -0.39518
gfz2014iayo  -0.55766
gfz2014icov  -0.86952
gfz2014igrp  -0.02018
gfz2014ijsa  -0.82463
gfz2014iltl   0.19211
gfz2014ined   0.04586
gfz2014inrg  -0.63571
gfz2014iolv   0.93080
gfz2014ipfu  -1.14940
gfz2014ipwk  -0.72280
gfz2014irlf  -0.26192
gfz2014irln   0.44399
gfz2014irly  -0.23482
gfz2014isjg   0.17080
gfz2014isov  -1.27620
gfz2014itlx   0.73994
gfz2014iusw  -0.26733
gfz2014ivgm  -0.09163
gfz2014ixlc   0.07507
gfz2014jarg  -0.45117
gfz2014jaxy   2.20720
gfz2014jayh  -0.19921
gfz2014jbfp   0.09034
gfz2014jbgm  -0.98062
gfz2014jckg  -0.06281
gfz2014jfmc  -1.25540
