# Nsamples: 124  MAD:  0.537  mean:  0.017  std:  0.854
gfz2010pclq  -0.17282
gfz2010pcya  -2.50370
gfz2010pngv   0.55365
gfz2010qdqk  -0.63103
gfz2010qrix   1.01440
gfz2010rljv  -0.11925
gfz2010rnwt   2.44910
gfz2010rpjd   1.57180
gfz2010tcgh   0.18876
gfz2010tgmo   0.85703
gfz2010tmba  -0.31756
gfz2010tpcj  -0.70763
gfz2010tzki  -0.22822
gfz2010tzlz   0.33480
gfz2010ugws   0.26839
gfz2010uhjy   0.40021
gfz2010uidg   3.74050
gfz2010umyp   2.55370
gfz2010vong   0.55987
gfz2010wakc  -0.84512
gfz2010xamh  -0.79788
gfz2010xpzq  -0.27690
gfz2010yfdr  -0.16778
gfz2011dabj  -0.72609
gfz2011dhfg  -0.40319
gfz2011dpyu  -0.41654
gfz2011emzr  -0.38157
gfz2011lwmg  -0.67136
gfz2011mjje  -0.19369
gfz2011mror  -0.77078
gfz2011ndhh  -0.08750
gfz2011nejg  -0.12576
gfz2011nerb   0.40217
gfz2011nftw  -2.05720
gfz2011nhvt   0.84307
gfz2011nhwf   2.10750
gfz2011nijp  -0.95039
gfz2011nilw  -0.39770
gfz2011niuw  -0.72531
gfz2011nlmf   1.48540
gfz2011nlnl   0.77632
gfz2011npeu  -0.39572
gfz2011nsiy   0.40363
gfz2011nsrx  -0.51187
gfz2011nuqo  -0.32139
gfz2011oadm  -0.82232
gfz2011oazk  -1.02100
gfz2011oekz   0.60191
gfz2011ofpj  -0.49200
gfz2011ohgj  -1.18620
gfz2011okza  -0.29285
gfz2011oslk  -0.62212
gfz2011paqj  -0.38330
gfz2011pmuv  -0.39236
gfz2011ppsc  -0.60711
gfz2011pwbw  -0.58686
gfz2011qenl   0.77175
gfz2011qukj  -1.17390
gfz2011rnny  -0.19211
gfz2011sdax  -0.59772
gfz2011sdpl   0.53980
gfz2012socz  -0.27504
gfz2012sopp  -0.58945
gfz2012sqsc  -0.29527
gfz2012suqd   0.63966
gfz2012swbz   0.00000
gfz2012sxbo   0.27322
gfz2012syum  -0.37761
gfz2012thyh  -0.40494
gfz2012tisj   0.08359
gfz2012trfq   0.23276
gfz2012tvgw   0.71646
gfz2012uhtc  -0.14747
gfz2012umob  -0.47114
gfz2012uzww  -0.29931
gfz2013ylxm   0.45753
gfz2013yodm  -0.05448
gfz2013yqtu  -0.57917
gfz2013zfbz  -0.15937
gfz2013ziix  -0.53433
gfz2013zlak  -0.66754
gfz2014amgk  -0.19867
gfz2014aqop  -0.34192
gfz2014ayxf   0.24165
gfz2014bdju   0.04374
gfz2014bkra   3.07740
gfz2014bqpm   0.14218
gfz2014cgoi  -0.04623
gfz2014cncl   0.19581
gfz2014cokw   0.58083
gfz2014ctdl   0.19146
gfz2014cwcj   0.30955
gfz2014dihl   0.90482
gfz2014diuu   0.18223
gfz2014dtth  -0.05748
gfz2014dwcp   0.01406
gfz2014egvg   0.55449
gfz2014epnq   0.00404
gfz2014esez  -0.48010
gfz2014fsir  -0.37114
gfz2014fskh  -0.26857
gfz2014fwxt  -0.00953
gfz2014fxte  -0.14511
gfz2014gnbw  -0.26781
gfz2014gnvp   0.11198
gfz2014gtee   0.35787
gfz2014gtoj   0.55413
gfz2014gypw   0.43454
gfz2014hapg   1.12560
gfz2014hkcw  -0.38609
gfz2014hzzf  -0.30525
gfz2014iaqm   2.16290
gfz2014icov   0.79021
gfz2014igrp   0.04509
gfz2014ijsa  -1.05960
gfz2014iltl  -0.28918
gfz2014ined  -0.02475
gfz2014irlf  -0.51984
gfz2014irly  -0.07339
gfz2014isjg  -0.25504
gfz2014iusw  -0.23853
gfz2014ixlc  -0.20395
gfz2014jarg  -0.03453
gfz2014jayh  -0.00000
