# Nsamples: 144  MAD:  0.481  mean:  0.004  std:  1.266
gfz2010abfc  -1.38990
gfz2010aggj  -0.49470
gfz2010azji   0.01802
gfz2010crgy  -0.82623
gfz2010dask  -1.11030
gfz2010djib  -0.73754
gfz2010drit  -0.59212
gfz2010drun  -0.23222
gfz2010fkff   5.97440
gfz2010gcqp  -0.09545
gfz2010habf   0.05387
gfz2010jlvp  -0.29769
gfz2010kcdq  -0.16216
gfz2010mdti  -0.13571
gfz2010mqaj   2.67100
gfz2010mqzz  -0.83850
gfz2010ngge  -0.17260
gfz2010pclq   0.25751
gfz2010pgpo   5.18540
gfz2010pzza  -0.53558
gfz2010qdqk   0.68456
gfz2010qrta  -0.33354
gfz2010rkuu   5.96820
gfz2010rljv   5.76040
gfz2010rnwt  -0.49086
gfz2010schp   5.00510
gfz2010tcgh  -0.22107
gfz2010tmba   0.21140
gfz2010tpcj  -0.68052
gfz2010tqyo   0.95555
gfz2010ugws   1.77470
gfz2010uhjy  -0.84791
gfz2010umyp  -1.21210
gfz2010vong  -0.91860
gfz2010wwnq  -0.38695
gfz2010xamh  -0.37251
gfz2010xnbn   0.29725
gfz2011fnie  -0.34247
gfz2011mjje  -0.96387
gfz2011ndhh  -0.96573
gfz2011nfcz  -0.84050
gfz2011nhby  -0.05667
gfz2011nijp  -1.22960
gfz2011nilw  -1.88840
gfz2011niuw  -1.42290
gfz2011nuqo  -1.09330
gfz2011qenl   0.29174
gfz2011sdax   0.17480
gfz2011sxno   0.10387
gfz2011uqry  -1.09420
gfz2011vahy   0.16806
gfz2011wcvs  -1.33900
gfz2011xgbc  -0.48311
gfz2011zghc  -0.05942
gfz2012amjx  -1.97450
gfz2012bcvn  -0.07043
gfz2012bqcf  -0.54604
gfz2012byrq   0.02509
gfz2012cksh  -0.31760
gfz2012cntu   0.48038
gfz2012cvfr  -0.03503
gfz2012dyck   0.53031
gfz2012ekfp   1.59480
gfz2012lyyr   1.15830
gfz2012mdzf  -0.16715
gfz2012nnqu   0.06922
gfz2012nqvd  -0.28046
gfz2012oafg  -0.12037
gfz2012oehy  -0.49400
gfz2012oork   1.91320
gfz2012phns  -0.65796
gfz2012suqd   0.22479
gfz2012sxbo  -0.89297
gfz2012syum  -0.43588
gfz2012tisj  -0.39989
gfz2012trfq   0.15413
gfz2012uhsx  -0.47025
gfz2012uhtc  -0.11490
gfz2012ulei  -0.53923
gfz2012uvoa   0.03897
gfz2012uzww  -0.33963
gfz2012vrqz   1.83240
gfz2012wkki  -0.14091
gfz2012wysg  -0.17966
gfz2012xcsf  -0.56560
gfz2012xncm  -0.05613
gfz2012xqxw  -1.13740
gfz2012xxdj   0.74694
gfz2012yncm   0.54128
gfz2012zhyz   0.20845
gfz2013agmt  -0.26689
gfz2013akkd   0.54186
gfz2013cvve  -1.11290
gfz2013cyvx  -0.20714
gfz2013delq  -0.49035
gfz2013dftb  -0.24473
gfz2013dzvr  -0.24502
gfz2013fnpa  -0.16972
gfz2013fvht   0.38886
gfz2013gurk   0.05660
gfz2013hbtm   0.14214
gfz2013icql   0.76649
gfz2013iuyv  -0.89274
gfz2013iwzn  -0.91827
gfz2013jfcn   0.09774
gfz2013jobl  -0.51054
gfz2013kats  -0.61058
gfz2013kbbg   0.64977
gfz2013kcdb   0.23655
gfz2013kpcb  -0.45416
gfz2013rocs  -0.41990
gfz2013udtw  -0.34666
gfz2013utqa  -0.37762
gfz2013uwjo   0.12561
gfz2013uxzw  -0.98712
gfz2013vjrr   0.43747
gfz2013vmrv  -0.07546
gfz2013vnwa   0.11526
gfz2013vojy  -0.27203
gfz2013vvre   0.89946
gfz2013vzel  -1.54120
gfz2013yqtu  -0.36185
gfz2013yxhf   0.77014
gfz2013zfbz  -0.21073
gfz2013zlak  -0.06415
gfz2014amgk  -0.20085
gfz2014ayxf  -0.12860
gfz2014eirs   0.11020
gfz2014flxk  -1.24260
gfz2014fsir  -0.28217
gfz2014fxte  -0.53384
gfz2014fxuy  -0.48564
gfz2014gnbw  -0.30651
gfz2014hqhv  -0.27128
gfz2014huqh  -0.29129
gfz2014hzzf  -0.48387
gfz2014icov   0.86090
gfz2014igrp  -0.09352
gfz2014iltl  -0.24395
gfz2014irlf  -0.45451
gfz2014irln   0.02422
gfz2014iusw  -0.17083
gfz2014jarg   0.10817
gfz2014jayh  -0.08436
