# Nsamples: 329  MAD:  0.406  mean: -0.010  std:  0.670
gfz2010abfc   0.22302
gfz2010abvu  -0.52863
gfz2010aggj  -0.21045
gfz2010aimm   0.01268
gfz2010amec   0.38171
gfz2010aseg   0.35105
gfz2010azji   0.65029
gfz2010bgrt  -0.03866
gfz2010bkfi   0.22548
gfz2010bklj  -0.79672
gfz2010bmls  -0.37526
gfz2010bnqr  -0.62875
gfz2010bqnk  -0.16650
gfz2010brrm   0.50763
gfz2010btme  -0.13158
gfz2010bvit  -0.20511
gfz2010byau  -0.16487
gfz2010bytu  -0.16781
gfz2010ccwc   0.00809
gfz2010ccye  -0.08913
gfz2010clbw  -0.01105
gfz2010cllh   0.45516
gfz2010cngg  -0.43837
gfz2010cnhd   0.59079
gfz2010cphq   0.46481
gfz2010cpig  -0.79660
gfz2010crgy  -0.23884
gfz2010crir  -0.49419
gfz2010csle  -0.97468
gfz2010csqy  -0.59521
gfz2010cyid   0.03363
gfz2010dask   0.23892
gfz2010djib  -0.99414
gfz2010dmij  -0.76642
gfz2010drit   0.49210
gfz2010drml  -1.11870
gfz2010drmq  -1.11870
gfz2010drng   0.73551
gfz2010drpv   0.88218
gfz2010drun  -0.32083
gfz2010dslu   0.55549
gfz2010dtgc   0.75606
gfz2010dtyx   0.06531
gfz2010dumv   0.64005
gfz2010dwgy  -0.44210
gfz2010dxhq  -1.19680
gfz2010eepd  -0.06425
gfz2010extu   0.82345
gfz2010faly  -0.54082
gfz2010fgbo   0.10771
gfz2010fjio  -0.30604
gfz2010fjme   0.00000
gfz2010fkff  -0.44530
gfz2010fkpa  -0.97436
gfz2010ftfq  -0.17131
gfz2010fvfz   0.29180
gfz2010fxhh  -0.64565
gfz2010fxut   0.21523
gfz2010gcqp  -0.25506
gfz2010gcrn  -0.87167
gfz2010gnvp  -0.38312
gfz2010gonu  -0.16345
gfz2010gooc  -0.13184
gfz2010habf  -0.14848
gfz2010hesh  -0.08702
gfz2010hllp  -1.69690
gfz2010hueh   0.11574
gfz2010hxan  -0.15610
gfz2010iaay   0.07237
gfz2010iawy  -0.50567
gfz2010ifhd  -0.79137
gfz2010inbs   0.14970
gfz2010ioad  -0.49817
gfz2010izag   0.47923
gfz2010jlvp  -0.19070
gfz2010kcdq  -1.15150
gfz2010kwks  -0.71840
gfz2010ljmp  -2.35350
gfz2010mjdl  -0.08224
gfz2010ncwu  -0.12477
gfz2010ngge  -0.09318
gfz2010nwyk   0.25304
gfz2010oguu   0.28239
gfz2010pclq   0.05682
gfz2010pcya  -1.05580
gfz2010pgpo  -0.15931
gfz2010pngv   0.93784
gfz2010pvnn  -0.03163
gfz2010qdqk   0.80045
gfz2010qrix   1.06760
gfz2010qrta   0.27179
gfz2010rkuu  -0.51874
gfz2010rljv   0.11656
gfz2010rnwt  -1.07660
gfz2010rpjd  -1.20440
gfz2010schp  -0.06823
gfz2010tcgh  -0.09274
gfz2010tfar   1.35480
gfz2010tmba  -0.35560
gfz2010tpcj   0.30894
gfz2010tzki  -0.44162
gfz2010tzlz   0.91096
gfz2010tzma   0.51424
gfz2010uogw   0.71566
gfz2010uopf  -0.24513
gfz2010vdcf  -0.41403
gfz2010vong   0.60601
gfz2010wakc  -0.64901
gfz2010yfdr   5.22920
gfz2011nkou   3.90360
gfz2012dttl   0.16383
gfz2012ekro   0.90517
gfz2012evxn  -0.07071
gfz2012ghyd  -0.37242
gfz2012gnow  -0.06353
gfz2012gubu   0.35504
gfz2012lngq   0.14051
gfz2012mmiw  -0.40311
gfz2012mowv  -0.55224
gfz2012mrwu   0.09073
gfz2012ofnx   0.16048
gfz2012phns  -0.06998
gfz2012pmuj  -0.57778
gfz2012pumy  -0.24006
gfz2012pvve   0.01535
gfz2012qfah  -0.71693
gfz2012qllj  -0.06902
gfz2012qpoc  -0.34602
gfz2012rzwp  -0.07244
gfz2012sfao  -0.04688
gfz2012sgfd  -0.45836
gfz2012socz   0.17621
gfz2012sqsc   1.09050
gfz2012ssnb   2.55960
gfz2012suqd   0.69698
gfz2012svwz   0.06140
gfz2012swbz  -0.18088
gfz2012sxbo  -0.47388
gfz2012syum  -0.10286
gfz2012thyh  -0.12141
gfz2012tisj  -0.45532
gfz2012trfq   0.37208
gfz2012uegq  -0.00964
gfz2012uhtc  -0.17032
gfz2012ulei   0.82365
gfz2012umob   0.14502
gfz2012uvoa   0.17708
gfz2012uzww  -0.24881
gfz2012vile   0.44815
gfz2012vitw  -0.07069
gfz2012vkjw   0.08367
gfz2012vnve  -0.29263
gfz2012vqmq   0.52156
gfz2012vrqz  -0.06250
gfz2012wkki  -0.08569
gfz2012wysg   0.28848
gfz2012xask   0.37851
gfz2012xcsf   0.07327
gfz2012xkln  -0.29480
gfz2012xlas   0.01767
gfz2012xlfo  -0.05009
gfz2012xncm  -0.53345
gfz2012xqxw   0.02068
gfz2012xrmq  -0.16826
gfz2012yncm  -1.46490
gfz2012yvwc   0.08582
gfz2012zqis   0.07390
gfz2013agmt   0.00000
gfz2013akkd  -0.04779
gfz2013bwgw   0.00000
gfz2013byyy  -0.42199
gfz2013cpjc   0.71481
gfz2013cyvx   0.16623
gfz2013delq   0.18969
gfz2013dftb   0.14400
gfz2013dfvx   0.45434
gfz2013efct  -0.22137
gfz2013eidd  -0.09221
gfz2013enqo  -0.83727
gfz2013gkyn   0.13156
gfz2013glpz   0.05946
gfz2013gsnl  -0.75591
gfz2013gurk  -0.00879
gfz2013gxye   0.25897
gfz2013gywl   0.40593
gfz2013hbmi   0.47429
gfz2013hbtm   0.55053
gfz2013hvzv   0.23727
gfz2013icql  -0.03334
gfz2013iuyv   0.39102
gfz2013iwzn   1.26780
gfz2013jfcn   0.18028
gfz2013jobl  -0.06842
gfz2013jzcf  -0.06685
gfz2013kats  -0.23542
gfz2013kbbg  -0.37196
gfz2013kbbn   0.58747
gfz2013kcdb   0.49394
gfz2013kpcb  -0.06839
gfz2013kqab  -0.40330
gfz2013kslp  -0.11424
gfz2013lbvl   0.08610
gfz2013ljdu   0.27365
gfz2013mdxj   0.25052
gfz2013mvgq   0.03986
gfz2013mzaw  -0.07214
gfz2013oeni  -0.16049
gfz2013oizq   0.10386
gfz2013orot  -0.02562
gfz2013oruq  -0.07729
gfz2013osmj  -0.61462
gfz2013oywh  -0.50387
gfz2013pegj   0.10149
gfz2013phhi   4.39950
gfz2013pkmz  -0.48877
gfz2013qaex   0.03841
gfz2013qigb   0.29545
gfz2013qmkt  -0.65266
gfz2013qoak  -1.12130
gfz2013quwz  -0.25190
gfz2013qxof   0.23081
gfz2013rdmn   0.63068
gfz2013rhbx   0.07628
gfz2013rocs  -0.62927
gfz2013rwkj  -0.31089
gfz2013skvq   0.36377
gfz2013stou   0.28406
gfz2013taeb   0.70305
gfz2013tdsx   0.30148
gfz2013tekq  -0.28486
gfz2013tert   0.14599
gfz2013tjub  -0.26925
gfz2013tkcg  -0.37975
gfz2013tnrp  -0.00326
gfz2013ubgt  -0.16721
gfz2013udtw   0.24384
gfz2013uepl   0.06687
gfz2013ummt   0.07897
gfz2013unuv  -0.40003
gfz2013utqa  -0.54996
gfz2013uwjo  -0.69509
gfz2013uxzw  -0.65634
gfz2013vdam   0.21913
gfz2013vjrr   0.13927
gfz2013vldx  -0.38218
gfz2013vmrv   0.75734
gfz2013voai   0.04122
gfz2013vojy  -0.13481
gfz2013vvre   0.14605
gfz2013vwkh  -0.04149
gfz2013vzel  -0.30433
gfz2013wyfl  -0.17477
gfz2013xahp  -0.17771
gfz2013xddu   0.34189
gfz2013xjmo  -0.49770
gfz2013xlic  -0.45008
gfz2013xmzw  -0.06361
gfz2013xodn   0.01869
gfz2013xofz   0.63508
gfz2013xswc  -0.33454
gfz2013xzxe  -0.33263
gfz2013ylxn  -0.14395
gfz2013yqtu  -0.78358
gfz2013yvnj   0.08586
gfz2013yxhf   0.59256
gfz2013zfbz  -0.05442
gfz2013zkta  -0.47530
gfz2013zkzb  -0.45777
gfz2014ajgi   0.25939
gfz2014amgk  -0.48160
gfz2014aqax  -0.00000
gfz2014aqop   0.06181
gfz2014ayxf  -0.37672
gfz2014bdju  -0.19044
gfz2014bgxe  -0.32043
gfz2014bkra  -0.15719
gfz2014bqpm   0.10821
gfz2014byes  -0.11620
gfz2014cgoi   0.13597
gfz2014cokw  -0.27311
gfz2014ctdl   0.02463
gfz2014cvnb   0.38646
gfz2014dggw  -0.32226
gfz2014dihl   0.97955
gfz2014dtth   0.26444
gfz2014edjm   0.05000
gfz2014edmd  -0.04907
gfz2014eglj   0.55636
gfz2014eirs  -0.02316
gfz2014emlw   0.42431
gfz2014eoay  -0.03084
gfz2014epnq  -0.08089
gfz2014esez   0.13042
gfz2014faex   0.51404
gfz2014fdhk  -0.62115
gfz2014flxk  -0.02619
gfz2014fsir  -0.00000
gfz2014fsje  -0.11320
gfz2014fxte  -0.17625
gfz2014gcia  -0.05078
gfz2014geln  -1.28420
gfz2014gnvp   0.20760
gfz2014gsfc   0.26810
gfz2014gtee  -0.10107
gfz2014gypw   0.83224
gfz2014hapg   0.31401
gfz2014hjmc  -0.85985
gfz2014hkcw  -0.14598
gfz2014hotu  -0.45388
gfz2014hqhv  -0.16525
gfz2014huqh   0.04991
gfz2014hyea  -0.39212
gfz2014hzzf  -0.18339
gfz2014icov   0.24174
gfz2014igrp   0.16303
gfz2014ijsa   0.08796
gfz2014iltl   0.47557
gfz2014ined   0.05890
gfz2014ipwk   0.50808
gfz2014irlf  -0.31098
gfz2014irln   0.67560
gfz2014irly  -0.25914
gfz2014isjg  -0.01937
gfz2014itlx   0.63731
gfz2014iusw   0.12511
gfz2014ixlc  -0.55996
gfz2014jarg  -0.01169
gfz2014jayh   0.20642
gfz2014jbgm  -1.51320
