# Nsamples: 41  MAD:  0.444  mean:  0.132  std:  0.814
gfz2010aggj   0.13715
gfz2010aimm  -0.14205
gfz2010bkfi   0.07021
gfz2010brlc  -1.02610
gfz2010brrm  -0.67649
gfz2010btme   1.14370
gfz2010bukb   0.98321
gfz2010cbnp  -1.28960
gfz2010ccye  -0.07456
gfz2010clbw   0.01439
gfz2010cllh  -0.63671
gfz2010crgy   0.28516
gfz2010crir  -0.00233
gfz2010csle   0.17546
gfz2010cvam   0.66470
gfz2010cvkn   0.19007
gfz2010cyid  -0.68368
gfz2010dask  -0.03747
gfz2010djib  -0.20900
gfz2010drit  -0.20553
gfz2010drml   0.22463
gfz2010drmq   0.22463
gfz2010dumv  -1.19750
gfz2010dwgy  -0.32676
gfz2010dxhq  -0.53117
gfz2010eepd   1.50800
gfz2010eibh   0.89156
gfz2010fgbo  -0.22035
gfz2010fjme   0.49294
gfz2010fkff  -0.18215
gfz2010fnkr  -0.62026
gfz2010fqnn  -0.04233
gfz2010ftfq   3.06180
gfz2010fxhh   1.02030
gfz2010gcrn   1.66470
gfz2010gonu   0.20336
gfz2010habf  -0.01042
gfz2010hdgr   0.29709
gfz2010hdxn   0.93901
gfz2010hesh  -0.11643
gfz2010hllp  -0.53720
