# Nsamples: 216  MAD:  0.528  mean:  0.043  std:  0.847
gfz2010habf   0.39945
gfz2010hdxn  -0.15967
gfz2010hllp  -0.02134
gfz2010hsgv   0.35767
gfz2010hueh   1.73410
gfz2010iaay   0.02107
gfz2010iawy  -0.10371
gfz2010ifhd   0.39121
gfz2010ixjl  -0.10791
gfz2010izag   0.60142
gfz2010izgb  -3.08870
gfz2010jcpq   0.80895
gfz2010jlvp  -0.18558
gfz2010jpkn  -0.16371
gfz2010jvsi   0.11988
gfz2010kcdq   0.57136
gfz2010kcyz   0.36137
gfz2010kuzb  -0.19299
gfz2010kwks   4.05470
gfz2010ljmp   1.69100
gfz2010mdti   0.08598
gfz2010ncwu   0.99318
gfz2010ngge  -0.04566
gfz2010nwyk   0.47741
gfz2010pcya   1.35740
gfz2010qdqk   0.74818
gfz2010qqqx   0.29375
gfz2010qrta   0.08983
gfz2010rkuu  -0.36298
gfz2010schp  -0.10049
gfz2010tcgh   0.72058
gfz2010tmba   0.01157
gfz2010tpcj   0.97320
gfz2010tqyo  -0.26341
gfz2010tzki  -0.02620
gfz2010tzlz   0.37203
gfz2010tzma   0.43803
gfz2010ugws   0.40128
gfz2010uhjy   0.10434
gfz2010uogw   0.32362
gfz2010uopf  -0.32118
gfz2010utsc  -3.46600
gfz2010vdcf   0.03535
gfz2010vong   0.22471
gfz2010wwnq   0.20590
gfz2010xamh  -0.27573
gfz2010xnbn  -0.50641
gfz2010xpzq   0.44529
gfz2010yczp   0.71845
gfz2010yfdr  -0.01639
gfz2010zjun   0.45729
gfz2011ahvh   0.43290
gfz2011amst   0.13852
gfz2011awsv  -0.15965
gfz2011bcvc  -0.27161
gfz2011bffb   0.97801
gfz2011bpqm  -0.17273
gfz2011bsvr   0.07323
gfz2011bygs  -0.20104
gfz2011bygu   0.33677
gfz2011bzio   0.47516
gfz2011cfyy   0.29809
gfz2011cjuz  -0.38483
gfz2011dabj   0.04274
gfz2011dhfg   0.26577
gfz2011dpyu  -0.40597
gfz2011emzr   0.61467
gfz2011etkc   0.71627
gfz2011fnie   0.17310
gfz2011fnuk   0.51479
gfz2011grby  -0.86485
gfz2011jghq   0.07723
gfz2011jphj  -0.14766
gfz2011jryv   0.17372
gfz2011kfch   0.70223
gfz2011kjzt  -0.69113
gfz2011kjzv  -0.19429
gfz2011kylu  -0.62381
gfz2011kymm   1.06930
gfz2011kyzy   0.39546
gfz2011lkkf   0.51987
gfz2011lwmg   0.33804
gfz2011mjje  -0.32024
gfz2011mllb   0.09673
gfz2011nblt  -1.54070
gfz2011nejg  -0.46858
gfz2011nfcz   0.76590
gfz2011nfgt  -1.24080
gfz2011nftw  -0.03276
gfz2011nhby   0.86558
gfz2011nhwf  -1.02600
gfz2011nijp  -1.12740
gfz2011nilw  -0.62580
gfz2011nimp  -2.10890
gfz2011nioi  -1.42260
gfz2011nisj  -0.20667
gfz2011niuw  -1.01650
gfz2011nkou  -0.47335
gfz2011nlmf  -0.84280
gfz2011nlnl   1.41950
gfz2011nlum  -0.57309
gfz2011nsej  -0.64051
gfz2011nsiy  -0.81550
gfz2011nuqo  -0.04421
gfz2011nvty   1.82120
gfz2011oadm   0.81494
gfz2011oazk  -0.54594
gfz2011ofpj   0.22911
gfz2011ohgj  -0.28654
gfz2011oslk  -0.30848
gfz2011owqa  -0.10804
gfz2011paqj   0.11449
gfz2011pfls   0.11510
gfz2011pfwq  -1.21890
gfz2011pivq  -0.68048
gfz2011plzc  -0.87646
gfz2011pmuv  -0.16714
gfz2011poug  -0.91942
gfz2011ppsc  -0.07632
gfz2011prrq  -0.59855
gfz2011pwbw  -0.23379
gfz2011qenl   0.50123
gfz2011qgvx  -1.05390
gfz2011qukj  -0.51032
gfz2011rbuo  -0.75853
gfz2011rczb  -0.72845
gfz2011rkau  -0.07133
gfz2011rqut   1.48280
gfz2011scma   0.59243
gfz2011sdax  -0.36436
gfz2011sqco  -0.50733
gfz2011sxno   0.37594
gfz2011syvj  -0.46470
gfz2011syzr   0.11866
gfz2011szcj  -0.82584
gfz2011taqr   0.52669
gfz2011tarj  -0.38229
gfz2011tdjj  -1.10010
gfz2011tlwl   0.16542
gfz2011tqgg   0.34966
gfz2011tsgl   0.15301
gfz2011unud  -0.49195
gfz2011uqry  -0.29133
gfz2011vahy   0.38628
gfz2011vbxv   0.74694
gfz2011vtzv   0.17658
gfz2011wcvs  -0.14035
gfz2011wpzt   0.40828
gfz2011wtfn  -0.61887
gfz2011wucg  -0.25950
gfz2011wwze   0.57379
gfz2011wzss   0.51563
gfz2011ypfh   1.31810
gfz2012aisj  -0.48244
gfz2012amjx  -0.17428
gfz2012ghiv   0.12853
gfz2012gnow   0.30861
gfz2012hzur   0.18589
gfz2012iblo  -1.17620
gfz2012iijk   0.00727
gfz2012imsm  -1.44500
gfz2012imuo  -0.45950
gfz2012jodg  -2.33780
gfz2012lyyr   0.27451
gfz2012mdzf   0.11938
gfz2012mjuu  -0.11214
gfz2012mmiw   2.25650
gfz2012mrqk  -1.55560
gfz2012mtyn   0.39761
gfz2012mxvk   2.84800
gfz2012nnqu  -0.21479
gfz2012nqvd   0.24755
gfz2012oehy   0.18877
gfz2012ofnx   1.68080
gfz2012oork   3.58370
gfz2012phns   0.40153
gfz2012pmuj  -0.82371
gfz2012ppcq  -0.23097
gfz2012qpoc   0.01870
gfz2012rzwp   0.82710
gfz2012sgfd  -0.11849
gfz2012socz  -0.01176
gfz2012ssnb   0.36007
gfz2012suqd   0.15017
gfz2012svwz   0.50377
gfz2012sxbo  -1.14630
gfz2012syum  -0.88174
gfz2012tisj   0.13682
gfz2012tjwg   0.33763
gfz2012trfq   0.91712
gfz2012tvgw   0.22860
gfz2012uhsx   0.02075
gfz2012uhtc   0.10001
gfz2012ulei  -0.23930
gfz2012uvoa   0.51073
gfz2012vkjw   0.27441
gfz2012xncm   0.65081
gfz2012xqxw  -0.20553
gfz2012xrmq  -0.07247
gfz2012ylai   0.28826
gfz2012yvwc   0.28683
gfz2012zhyz   0.30685
gfz2013adih   1.19150
gfz2013agmt  -0.32660
gfz2013byyy   0.02139
gfz2013cinv   0.28836
gfz2013cpjc   0.87491
gfz2013cvve   0.42953
gfz2013cyvx   0.49733
gfz2013delq   0.05625
gfz2013dftb   0.45884
gfz2013dngd  -1.37870
gfz2013dzvr  -0.25466
gfz2013efct   0.07731
gfz2013enqo  -0.23938
gfz2013fnpa  -0.25436
