# Nsamples: 17  MAD:  0.396  mean:  1.375  std:  0.784
gfz2011kjzt   1.26260
gfz2011kjzv   0.78713
gfz2011ldgl   1.19150
gfz2011vahy   1.47610
gfz2011vcyx   1.51590
gfz2012bqcf   1.10860
gfz2012uzww   1.79820
gfz2012wgmg   1.32010
gfz2013pkmz   2.25570
gfz2013qigb   1.48380
gfz2013qoak   1.41790
gfz2013quwz   1.37570
gfz2013vcgd   0.82302
gfz2013vvre  -0.52782
gfz2013wyfl   2.88300
gfz2013xswc   0.58862
gfz2013yqtu   2.61700
