# Nsamples: 72  MAD:  0.416  mean:  0.068  std:  0.554
gfz2010abfc  -0.14460
gfz2010aggj  -0.14297
gfz2010cllh  -1.60630
gfz2010crgy  -0.67280
gfz2010cyid  -1.22020
gfz2010dask  -0.41952
gfz2010djib  -0.39548
gfz2010drit  -0.15768
gfz2010fjme   0.27131
gfz2010fkff  -0.48810
gfz2010habf   0.45803
gfz2010hdxn  -0.10066
gfz2010jlvp  -0.92863
gfz2010kwks  -0.59029
gfz2010mqzz  -0.00978
gfz2010ncwu   0.26913
gfz2010ngge  -0.02690
gfz2010pvnn   0.10356
gfz2010rkuu   0.55579
gfz2010tmba   1.31540
gfz2012kmbo   0.02658
gfz2012kmmz   1.14290
gfz2012ldjj   1.08560
gfz2012nnqu  -0.12979
gfz2012oafg   0.80670
gfz2012oehy   0.13863
gfz2012uvoa   0.28666
gfz2012uzww   0.15718
gfz2012wgdv   0.20011
gfz2012wgmg  -0.51404
gfz2012wkki   0.29051
gfz2012xcsf   0.09738
gfz2012yncm   0.23615
gfz2012zhyz   1.11830
gfz2013akkd  -0.05825
gfz2013cvve  -0.90008
gfz2013cyvx   0.40363
gfz2013dftb   0.13318
gfz2013dzvr  -0.29906
gfz2013fmcd   0.92310
gfz2013fnpa   0.21864
gfz2013fulo   0.32745
gfz2013fvht  -0.01484
gfz2013fvyr   0.59475
gfz2013gglk   0.32937
gfz2013lbvl  -0.18147
gfz2013mdxj   0.57665
gfz2013phhi   0.34773
gfz2013pkmz   0.46432
gfz2013qigb   0.12433
gfz2013qoak   0.20741
gfz2013quwz   0.53122
gfz2013rdmn  -0.39453
gfz2013rfik  -0.09595
gfz2013tekq  -0.18713
gfz2013twbc   1.13600
gfz2013utqa   0.00000
gfz2013uwjo   0.33787
gfz2013vmrv  -0.66579
gfz2013vojy  -0.12500
gfz2013vvre  -0.86715
gfz2013wyfl   0.69509
gfz2013xahp   0.09439
gfz2013xmzw   0.40442
gfz2013yxhf   0.42467
gfz2014bkra  -0.52137
gfz2014iltl  -0.20937
gfz2014irlf   0.26659
gfz2014irln   0.22664
gfz2014irly  -0.73969
gfz2014jarg   0.38358
gfz2014jayh   0.01953
