# Nsamples: 291  MAD:  0.541  mean:  0.016  std:  0.743
gfz2010aggj  -0.60578
gfz2010axdz   3.52130
gfz2010bqnk  -0.36599
gfz2010clbw  -0.47065
gfz2010cllh   0.20393
gfz2010cphq   1.16190
gfz2010crir  -0.42856
gfz2010csle  -1.17470
gfz2010dask   0.40178
gfz2010djib  -0.69703
gfz2010fgbo  -0.00000
gfz2010habf  -0.60172
gfz2010hueh   2.93600
gfz2010jlvp  -0.34355
gfz2010mqzz  -0.70053
gfz2010ncwu  -0.39025
gfz2010okpc   1.55620
gfz2010pclq  -0.78042
gfz2010pcya  -1.01890
gfz2010pgrf  -0.57056
gfz2010qrta   1.12910
gfz2010qzvf   0.76022
gfz2010rhvu   0.36673
gfz2010rljv   0.74523
gfz2010rnqa  -1.26370
gfz2010rnwt   2.43300
gfz2010sdfs  -0.16000
gfz2010shvn   0.10561
gfz2010tmba  -0.24040
gfz2010tpcj   0.48004
gfz2010tqyo   0.17227
gfz2010tzlz   0.77490
gfz2010tzma   1.07860
gfz2010vong   0.88173
gfz2010wplk   0.46778
gfz2010xaxw  -0.13699
gfz2010xjsv  -0.52586
gfz2010xpzq   0.56276
gfz2010yczp  -0.36780
gfz2010yfdr   0.20406
gfz2010yhhj  -0.12701
gfz2010zjun  -0.22686
gfz2011amst   0.16969
gfz2011aqpp   1.20120
gfz2011bsvr   1.36460
gfz2011bvog   1.34370
gfz2011bygs  -0.68654
gfz2011bzio  -0.29671
gfz2011cdge  -0.18533
gfz2011chsa  -0.57716
gfz2011cjuz  -0.26755
gfz2011cwsm   0.35336
gfz2011cwzi  -0.58985
gfz2011dabj  -0.46237
gfz2011duvm   0.62241
gfz2011dwae   1.59490
gfz2011exxq   0.50121
gfz2011fnie  -0.26698
gfz2011fszl  -0.17896
gfz2011fzcw  -0.00000
gfz2011ggnl   0.90574
gfz2011gnbk  -0.40746
gfz2011gpyr  -0.31596
gfz2011hibi   2.52500
gfz2011hjof   0.24128
gfz2011hmnw  -0.23297
gfz2011hqjs  -0.37166
gfz2011hvzo   1.85600
gfz2011hyct  -0.18565
gfz2011ibew   0.65494
gfz2011iryz  -0.55856
gfz2011ituo   0.23888
gfz2011jeta   0.22242
gfz2011jphj  -1.21010
gfz2011jryv   0.16087
gfz2011kfch   0.00000
gfz2011kylu  -0.05725
gfz2011lnzf  -0.60814
gfz2011lwmg   0.18132
gfz2011mdyq  -0.20406
gfz2011mjje  -0.41996
gfz2011mllb  -0.15499
gfz2011ncyw   0.02203
gfz2011nejg  -0.29119
gfz2011nejw   0.71753
gfz2011nerb  -0.03148
gfz2011nftw   0.05001
gfz2011nhhd   1.16670
gfz2011nhvt   0.67188
gfz2011nijp   0.61101
gfz2011nilw   0.01104
gfz2011niuw   1.00800
gfz2011nlmf   1.02080
gfz2011nmdz   0.33917
gfz2011nnda  -0.67768
gfz2011nsiy   0.21331
gfz2011nuqo   1.77110
gfz2011oadm  -0.41879
gfz2011ofpj  -0.49474
gfz2011omxt  -0.33813
gfz2011ovvj   0.47637
gfz2011owqa  -0.04008
gfz2011paqj  -0.35036
gfz2011pfls   0.39876
gfz2011pfwq  -0.24376
gfz2011pivq   2.04580
gfz2011pphc   1.85860
gfz2011pwbw  -0.27762
gfz2011qenl   0.26627
gfz2011qgea   0.11366
gfz2011rkau   0.63095
gfz2011sqco  -0.43898
gfz2011sskq  -0.46570
gfz2011tsgl   0.55008
gfz2011ugbt  -0.43498
gfz2011urwz   1.39100
gfz2011vahy  -0.37996
gfz2011wcvs   0.28487
gfz2011wwze   0.29739
gfz2011yjtx  -0.19171
gfz2011zghc   0.13433
gfz2011zgxn  -0.34431
gfz2012agwh  -0.68322
gfz2012ahac  -0.84669
gfz2012amjx  -0.04720
gfz2012aqpa  -1.13950
gfz2012arlo  -1.47830
gfz2012auqr   1.00740
gfz2012bovy  -0.76278
gfz2012byrq   0.10999
gfz2012byuk  -0.06218
gfz2012cdju  -0.15527
gfz2012cntu  -0.50615
gfz2012cvfr  -0.15590
gfz2012cwhl   0.06673
gfz2012dbgt   0.09478
gfz2012dejg   0.26832
gfz2012dleg  -0.15697
gfz2012dtdt  -0.43915
gfz2012dwwu   0.06918
gfz2012ebff   0.33234
gfz2012ebrr  -0.53378
gfz2012elek  -0.12936
gfz2012erds  -0.10515
gfz2012foih  -1.26460
gfz2012ftks   0.09045
gfz2012fyny  -0.22735
gfz2012ghiv  -0.41957
gfz2012gjdg  -0.26073
gfz2012gjtd   0.11642
gfz2012hzur  -0.42151
gfz2012ibyd  -0.47069
gfz2012icjo   0.27632
gfz2012iphs   0.42477
gfz2012kmbo  -0.54430
gfz2012kmmz   0.07877
gfz2012kstg   0.02450
gfz2012moul   1.88880
gfz2012ndwt  -0.13939
gfz2012nmja  -0.41860
gfz2012nnck  -0.04578
gfz2012nqvd  -0.54073
gfz2012oafg  -0.23554
gfz2012ofnx   0.75555
gfz2012oieq   0.05780
gfz2012phns  -0.02528
gfz2012pziw   0.74512
gfz2012qfah   0.69368
gfz2012qfov   0.26988
gfz2012qpoc   0.35905
gfz2012rzwp   0.42071
gfz2012sbix   0.36065
gfz2012smyn   0.22990
gfz2012sqsc   2.04960
gfz2012ssnb   1.24350
gfz2012suqd   0.80791
gfz2012svwz  -0.21467
gfz2012syum   0.93059
gfz2012tisj  -1.52950
gfz2012tsdz   0.69475
gfz2012uegq   0.59695
gfz2012uhtc  -0.57336
gfz2012ukzg   0.55817
gfz2012uzww  -0.70928
gfz2012vrqz  -0.09890
gfz2012vurc  -0.37763
gfz2012wgmg  -0.59433
gfz2012wowu   0.19869
gfz2012woxj   0.26900
gfz2012wpen  -0.75662
gfz2012xncm   0.17225
gfz2012xtvu  -0.41481
gfz2012xxdj  -0.37806
gfz2012yegw   1.34140
gfz2012zhyz  -0.42854
gfz2013akkd   0.26000
gfz2013ascz  -1.99480
gfz2013atak  -0.37656
gfz2013bqfc   0.30883
gfz2013bwgw   0.00425
gfz2013byyy  -0.60859
gfz2013cinv  -0.45820
gfz2013cqee   0.73985
gfz2013cvve  -0.03742
gfz2013cyvx  -0.20294
gfz2013delq   0.26456
gfz2013djfi  -0.73368
gfz2013dngd   0.32509
gfz2013dwsp  -2.75770
gfz2013dzvr  -0.72885
gfz2013eazm  -0.35776
gfz2013efct  -0.39748
gfz2013frxd  -0.54392
gfz2013fulo  -0.22032
gfz2013fvht  -0.07635
gfz2013fvyr  -0.54061
gfz2013gkcx  -0.49712
gfz2013gywl  -0.15440
gfz2013hbmi   0.07118
gfz2013hduf   0.00670
gfz2013hqaa   0.54633
gfz2013irme  -0.11716
gfz2013iuyv  -1.66150
gfz2013jfcn   0.25210
gfz2013jhog  -0.88375
gfz2013jlli  -0.09617
gfz2013jobl  -0.20876
gfz2013kpcb   0.12432
gfz2013kqab  -0.44937
gfz2013kxlr  -0.39756
gfz2013kxof  -0.42338
gfz2013lcrk  -0.25808
gfz2013ljwt  -0.69625
gfz2013mdxj   0.17216
gfz2013oizq   0.33077
gfz2013ojza   0.19873
gfz2013oywh   0.51689
gfz2013phhi   0.54788
gfz2013pkmz  -0.47845
gfz2013pqkp   0.59917
gfz2013qigb  -0.41573
gfz2013qoak   0.14029
gfz2013quyn   0.01277
gfz2013rnsa  -0.98313
gfz2013rocs  -0.75054
gfz2013rwkj  -0.55533
gfz2013skay   0.59513
gfz2013taeb   0.53651
gfz2013tdsx  -0.08299
gfz2013tkcg  -0.40067
gfz2013trsq  -0.58568
gfz2013ubgt  -0.77453
gfz2013vdam  -0.16879
gfz2013vjrr   0.45167
gfz2013vldx   0.12588
gfz2013vmsg   0.83069
gfz2013vojy  -0.32378
gfz2013vsdd   0.03153
gfz2013xahp  -0.26906
gfz2013xmzw  -0.15197
gfz2013ylxm   1.53670
gfz2013yodm  -0.08529
gfz2013yxhf  -0.28528
gfz2013zfbz  -0.21375
gfz2013ziix  -0.60030
gfz2014ajgi  -0.68604
gfz2014aqop  -0.03846
gfz2014ayxf   0.00013
gfz2014bdju  -0.44986
gfz2014bkra   0.45507
gfz2014bmqw  -1.21590
gfz2014bqpm  -0.28917
gfz2014bztn   0.77333
gfz2014cgxj  -0.69549
gfz2014cjao  -0.96309
gfz2014cokw  -0.24144
gfz2014ctdl  -0.42194
gfz2014eoay  -0.30565
gfz2014epfm  -0.76312
gfz2014evyu  -0.55913
gfz2014fsir  -0.59327
gfz2014fsje  -0.45503
gfz2014fxuy  -0.46431
gfz2014gnvp   0.00000
gfz2014gypw   0.53700
gfz2014hkcw  -0.09472
gfz2014huqh   1.03500
gfz2014iayo  -0.35904
gfz2014irly   0.00767
gfz2014iusw  -0.45851
gfz2014jayh  -0.27227
