# Nsamples: 18  MAD:  1.907  mean:  1.217  std:  1.677
gfz2010djib  -1.51460
gfz2010hdxn   1.59800
gfz2010pclq  -0.49007
gfz2010rnwt   3.02900
gfz2011fzcw   3.81290
gfz2011hyct   2.44540
gfz2011ibew   1.00830
gfz2011owqa  -0.02396
gfz2011paqj   1.08270
gfz2011sqco   2.70500
gfz2011tjpv   3.72090
gfz2012qfah   0.41032
gfz2012rzwp  -1.62230
gfz2012ssnb   3.06680
gfz2013fvht   0.13639
gfz2013xofz  -0.12733
gfz2013yxhf   0.81364
gfz2014aqax   1.84870
