# Nsamples: 1388  MAD:  0.610  mean: -0.038  std:  0.935
gfz2010abfc   0.71743
gfz2010abvu  -0.49022
gfz2010afyi   3.04100
gfz2010aggj   0.55089
gfz2010aimm   0.25940
gfz2010aldp  -1.74650
gfz2010amec  -2.38650
gfz2010aseg   0.26882
gfz2010asxa   0.26570
gfz2010azji   0.91018
gfz2010bgrt  -3.32720
gfz2010bkfi   0.49115
gfz2010bklj  -0.55864
gfz2010bnbr   0.69124
gfz2010bnqr   0.17622
gfz2010bofe  -0.53187
gfz2010bqnk   0.61430
gfz2010brlc   0.36123
gfz2010brrm  -0.78575
gfz2010btme  -0.62084
gfz2010bukb   0.35701
gfz2010bvit   0.27188
gfz2010byau   0.04819
gfz2010cbnp   0.35858
gfz2010ccse  -1.52260
gfz2010ccwc   0.28840
gfz2010ccye   0.09402
gfz2010ckoc   2.18870
gfz2010clbw   0.40757
gfz2010cllh  -0.78816
gfz2010cnhd   0.50068
gfz2010cnyi  -1.35840
gfz2010crir  -0.07578
gfz2010csle  -1.74140
gfz2010csmw   0.69301
gfz2010csqg   0.03910
gfz2010csqy   0.35270
gfz2010ctak  -0.38449
gfz2010cthm  -1.70980
gfz2010cuzg  -0.51674
gfz2010cvam  -0.24179
gfz2010cvkn   2.27130
gfz2010cwrk   0.54741
gfz2010cyid  -0.92099
gfz2010dask  -0.16282
gfz2010ddan  -0.40611
gfz2010diid  -0.42651
gfz2010djib   0.75299
gfz2010dmij  -0.65136
gfz2010dmkd   0.30139
gfz2010dpgt   1.37920
gfz2010drit  -0.59229
gfz2010drml  -2.55480
gfz2010drmq  -2.55480
gfz2010drng  -1.86220
gfz2010drpv  -0.71748
gfz2010drun   0.04882
gfz2010dsjq  -1.10080
gfz2010dslu  -1.80950
gfz2010dtgc  -1.20560
gfz2010dtyx  -1.90610
gfz2010dumv  -0.11452
gfz2010dwgy   0.00000
gfz2010dxhq  -0.45205
gfz2010eepd   0.61345
gfz2010ehgf   2.09160
gfz2010eibh  -0.30073
gfz2010ekvl   0.10948
gfz2010elge  -0.92837
gfz2010eqyj  -0.74381
gfz2010ethu   0.21854
gfz2010euue  -0.24626
gfz2010ewyj  -0.25757
gfz2010extu  -1.02910
gfz2010faly   0.02593
gfz2010fgbo  -0.13895
gfz2010fjio  -0.26102
gfz2010fjme  -0.12410
gfz2010fkff  -0.06138
gfz2010fkpa  -0.66875
gfz2010fnkr  -0.00000
gfz2010fopf   0.22957
gfz2010fpvw   0.20064
gfz2010fqnn   0.09629
gfz2010fqzh   0.04172
gfz2010ftfq  -0.30556
gfz2010fuky   0.54925
gfz2010fvfz  -0.20399
gfz2010fxhh   1.05260
gfz2010fxut  -1.61750
gfz2010gcqp   0.42071
gfz2010gcrn  -1.50960
gfz2010gnvp  -0.00140
gfz2010gonu   0.08827
gfz2010gooc  -0.02213
gfz2010gpjl   3.19820
gfz2010guwa  -0.20726
gfz2010gxki  -1.69000
gfz2010habf   0.21204
gfz2010hdgr   0.23717
gfz2010hdxn  -0.56636
gfz2010hesh  -0.21104
gfz2010hexh   0.25687
gfz2010hllp  -0.40601
gfz2010hsgv   0.26549
gfz2010hueh  -2.38510
gfz2010huzl   0.05378
gfz2010hxan   0.35499
gfz2010iaay  -0.51745
gfz2010iawy  -0.48206
gfz2010ifhd   0.28768
gfz2010ifru  -0.02166
gfz2010ihef  -1.55730
gfz2010inbs   0.32904
gfz2010ioad  -0.00000
gfz2010ixjl   0.47532
gfz2010izag   0.24516
gfz2010jcby   0.26109
gfz2010jcpq   1.36740
gfz2010jdhk  -0.19066
gfz2010jgwj  -0.01832
gfz2010jlvp   0.57607
gfz2010jpkn   0.06508
gfz2010juke  -0.15803
gfz2010jvsi  -0.39306
gfz2010kcdq  -0.58740
gfz2010kcyz  -0.05304
gfz2010kwks  -0.01833
gfz2010kzzm   5.34260
gfz2010ljmp   0.43153
gfz2010ljol  -1.37120
gfz2010lswe  -0.51433
gfz2010lvnj  -0.97325
gfz2010mdti  -0.03327
gfz2010mjdl  -0.98885
gfz2010mnoc   0.15983
gfz2010mpvc  -1.94890
gfz2010mqaj  -3.44620
gfz2010mqzz  -0.03000
gfz2010msss   5.57540
gfz2010mvmb  -0.13692
gfz2010mwmd   0.29564
gfz2010myqg   0.81263
gfz2010ncwu  -0.93130
gfz2010ngge  -0.03700
gfz2010nkrw  -0.33521
gfz2010nlai   0.33282
gfz2010novb  -0.36203
gfz2010nteg  -1.09540
gfz2010nwbd  -0.11197
gfz2010nwyk  -0.49888
gfz2010oguu   0.58559
gfz2010ogwn   0.50740
gfz2010ojhe  -0.06622
gfz2010okpc   0.61754
gfz2010okww   1.78720
gfz2010onxm  -0.77318
gfz2010osaq   0.48555
gfz2010ouvm  -1.22630
gfz2010ovvg   0.44227
gfz2010pclq  -0.95915
gfz2010pcya  -0.91767
gfz2010pdip  -2.78720
gfz2010pgpo   0.17074
gfz2010pgrf   0.73281
gfz2010pngv  -0.70788
gfz2010prnw   0.46780
gfz2010pvnn   0.17809
gfz2010pxoi  -0.97489
gfz2010pzza   0.27517
gfz2010qbcy  -0.01649
gfz2010qdqk   0.33859
gfz2010qloa   0.10206
gfz2010qqqx  -1.23730
gfz2010qrix   0.37790
gfz2010qrta  -0.00000
gfz2010qykh  -0.53146
gfz2010qylh  -0.09005
gfz2010qzvf   0.65651
gfz2010rdip   0.09214
gfz2010rhvu  -1.71520
gfz2010rkuu  -0.25413
gfz2010rljv   0.19933
gfz2010rmua  -0.22931
gfz2010rnqa  -3.14550
gfz2010rnwt  -2.90850
gfz2010rpbz  -0.40500
gfz2010rpjd  -1.20570
gfz2010scht  -1.82850
gfz2010vdcf  -0.46231
gfz2010vfyu  -0.13151
gfz2010vgfu  -0.12209
gfz2010vhzx  -0.18650
gfz2010vkca   0.61877
gfz2010vong  -0.35785
gfz2010vxwv  -0.45516
gfz2010vybx   0.16980
gfz2010vyri  -0.43263
gfz2010wakc   0.18280
gfz2010wdav   1.14230
gfz2010wigk  -1.67460
gfz2010wplk  -1.02480
gfz2010wtin  -0.89122
gfz2010wwhf   0.02059
gfz2010wwnq  -0.08328
gfz2010wyso   0.17095
gfz2010wyuj  -1.62730
gfz2010xamh  -0.01938
gfz2010xaxw  -0.08717
gfz2010xcdd   9.44890
gfz2010xezr  -0.41297
gfz2010xhqq  -0.52619
gfz2010xkbz  -1.03900
gfz2010xkku  -0.11389
gfz2010xnbn   0.37219
gfz2010xnwf   0.10504
gfz2010xpzq   0.04498
gfz2010xvev  -0.23598
gfz2010xytc  -0.21704
gfz2010xzah  -1.19000
gfz2010xzte  -0.64815
gfz2010yczp   0.50393
gfz2010yfdr  -0.59236
gfz2010ygrd  -0.11876
gfz2010yhdn  -0.63792
gfz2010yhhj  -0.99132
gfz2010yilf   0.47708
gfz2010yrex   0.14403
gfz2010yspe   0.85737
gfz2010ytzb   0.15608
gfz2010zaxv  -0.15182
gfz2010zhvj  -0.97493
gfz2010zjun   0.08727
gfz2010zkle  -0.49538
gfz2011afyc  -0.91223
gfz2011ahvh  -0.58152
gfz2011aksu   0.52780
gfz2011ameb   0.12076
gfz2011amst  -1.38080
gfz2011aqpp  -0.21519
gfz2011awsv  -0.08091
gfz2011bcvc  -1.04570
gfz2011bffb   0.12587
gfz2011biin   0.18125
gfz2011boaz  -0.10890
gfz2011bpqm   0.74312
gfz2011bqbx   0.78711
gfz2011bsvr   0.69766
gfz2011bvog  -0.30886
gfz2011bwsm  -1.14520
gfz2011bygs  -0.06863
gfz2011bygu   0.28730
gfz2011bzio  -0.05367
gfz2011cdge  -0.82831
gfz2011cfyy  -0.08994
gfz2011chsa   0.11129
gfz2011cjcv  -0.49059
gfz2011cjuz  -1.25490
gfz2011clwu   0.31624
gfz2011cwhx  -0.68203
gfz2011cwsm  -0.21162
gfz2011cwzi  -0.14805
gfz2011cxbw   1.06720
gfz2011cxdj   0.01512
gfz2011dabj   0.54087
gfz2011dhfg   0.25146
gfz2011dhqk  -0.25673
gfz2011dmdv   0.62630
gfz2011dpyu   0.98699
gfz2011drmu   0.21330
gfz2011dtcb   0.94837
gfz2011duvm  -0.12607
gfz2011dwae   0.27549
gfz2011dzmf  -0.20286
gfz2011edrq   0.40630
gfz2011ekty  -0.15517
gfz2011emzr  -1.13420
gfz2011etkc  -0.27618
gfz2011fbsl  -0.86915
gfz2011ffdh  -0.15596
gfz2011fnie  -0.39430
gfz2011fnuk   0.25536
gfz2011fnxz  -0.21117
gfz2011fszl   0.12038
gfz2011fxmf  -0.13772
gfz2011fyfu  -0.30997
gfz2011fzcw  -3.27130
gfz2011gaax   0.13212
gfz2011gdli  -0.03102
gfz2011gdrl   0.46730
gfz2011gfer   0.07921
gfz2011ggnl  -1.16600
gfz2011ggsz   0.92340
gfz2011glpg  -0.07610
gfz2011gnbk  -0.07173
gfz2011gpyr  -0.07393
gfz2011grby  -1.41090
gfz2011gzde  -0.99931
gfz2011haaa   0.04836
gfz2011hatg  -0.18105
gfz2011hbqc  -0.16775
gfz2011hffq  -1.11950
gfz2011hibi  -1.05530
gfz2011hjof  -0.32227
gfz2011hmnw   0.37591
gfz2011hqjs   0.37048
gfz2011hrgt  -0.69628
gfz2011huon  -0.13702
gfz2011hvzo  -2.29980
gfz2011hwbn   1.54640
gfz2011hyct   0.06294
gfz2011hyuh  -0.75600
gfz2011iamf   0.30354
gfz2011ibew  -0.85731
gfz2011ifta   0.10781
gfz2011inan  -1.33660
gfz2011ioch   0.06539
gfz2011iryz   0.21859
gfz2011itcv  -0.43541
gfz2011ituo   0.34611
gfz2011ixpj   0.07210
gfz2011iybf  -0.14534
gfz2011jdoz  -0.32168
gfz2011jeta  -3.04410
gfz2011jfyb  -2.87300
gfz2011jghq  -0.34182
gfz2011jphj  -0.40320
gfz2011jpob   0.36805
gfz2011jrgh  -0.26281
gfz2011jryv  -0.15254
gfz2011jtij  -0.32562
gfz2011kfch   0.03245
gfz2011kgvq   0.49604
gfz2011kjzt   0.09183
gfz2011kjzv  -0.00342
gfz2011kmge   0.37116
gfz2011kujo  -0.06866
gfz2011kylu  -0.13642
gfz2011kymm   0.29248
gfz2011kyzy   0.06731
gfz2011lbnn   1.00860
gfz2011ldgl   0.05563
gfz2011lkkf   0.61972
gfz2011lmug   0.15934
gfz2011lrpv   0.64977
gfz2011lwmg   0.04081
gfz2011lxga   3.73920
gfz2011lywj  -2.39580
gfz2011mdyq  -0.07209
gfz2011melb  -3.44910
gfz2011mjje   0.59280
gfz2011mllb  -0.80826
gfz2011mntq  -0.42330
gfz2011moob   0.87068
gfz2011mrfm  -2.11930
gfz2011mror   0.82787
gfz2011mrpy  -0.63468
gfz2011mryu  -2.00310
gfz2011mzvn  -0.49508
gfz2011nblt  -0.85331
gfz2011ncyw   1.12140
gfz2011ndhh   0.36814
gfz2011ndki   0.12277
gfz2011ndlh   0.75589
gfz2011ndoe  -0.48294
gfz2011ndse  -0.03468
gfz2011ndtp  -0.91342
gfz2011ndvj  -0.02068
gfz2011ndyk  -1.19900
gfz2011neai   0.17494
gfz2011nejg   0.12011
gfz2011nejw   0.88180
gfz2011nerb   0.54167
gfz2011nfcz   0.23041
gfz2011nfgt   0.45157
gfz2011nfih   0.54723
gfz2011nfln  -0.37054
gfz2011nftw  -0.06631
gfz2011nfww   0.51434
gfz2011nhby   0.38650
gfz2011nhhd   0.24170
gfz2011nhjv  -1.90040
gfz2011nhvt   1.10760
gfz2011nhwf   0.00000
gfz2011nifi  -0.18393
gfz2011nihq   0.99207
gfz2011nijp   1.09940
gfz2011nilw   0.65803
gfz2011nimp   0.20480
gfz2011nioi   0.45626
gfz2011nisj   0.94629
gfz2011niuw   0.85291
gfz2011nivw  -0.07127
gfz2011nkda  -1.77700
gfz2011nkou   1.53840
gfz2011nlmf   1.00500
gfz2011nlnl  -0.02568
gfz2011nlok  -0.97362
gfz2011nlou  -0.34397
gfz2011nlum  -0.60667
gfz2011nlyw  -1.81710
gfz2011nmdz  -0.36557
gfz2011nnda   0.06274
gfz2011nnos  -0.85366
gfz2011npaf   0.16821
gfz2011npeu  -4.18450
gfz2011nsej  -0.94512
gfz2011nsiy  -0.88306
gfz2011nsrx  -0.11532
gfz2011nssr  -1.74730
gfz2011nswi   0.37372
gfz2011nsyi   0.86390
gfz2011ntyd  -0.35845
gfz2011nuqo  -0.86487
gfz2011nvty  -0.27104
gfz2011nyzk  -0.96199
gfz2011oadm  -0.04025
gfz2011oazk   0.41400
gfz2011ocif   0.91421
gfz2011oekz  -0.31051
gfz2011oesd  -0.34834
gfz2011ofpj  -0.16089
gfz2011ohgj   0.06249
gfz2011okza   0.35814
gfz2011omxt   0.16905
gfz2011oosp  -0.17919
gfz2011oqjl   0.71073
gfz2011oslk   0.95307
gfz2011osmp  -0.00366
gfz2011osuy  -0.40044
gfz2011ovvj  -0.76881
gfz2011owqa   0.49993
gfz2011paqj   0.37599
gfz2011pbgh   4.21550
gfz2011pbjh   0.09638
gfz2011pcqr  -0.00000
gfz2011pdgq   0.27736
gfz2011pdsn   1.47520
gfz2011pfls   0.14576
gfz2011pfwq  -0.44708
gfz2011pgzk   0.05968
gfz2011pimj   0.02849
gfz2011pivq   0.50980
gfz2011plzc   0.49969
gfz2011pmuv   0.49139
gfz2011poug  -0.10485
gfz2011pphc   0.10906
gfz2011ppsc   0.15784
gfz2011prrq   0.24785
gfz2011ptgd  -1.01790
gfz2011pulu  -0.97733
gfz2011pwbw  -0.00000
gfz2011pwld  -0.42706
gfz2011qasw   0.33805
gfz2011qgea  -1.28810
gfz2011qgvh   0.17812
gfz2011qgvx  -1.24790
gfz2011qhjw  -0.37755
gfz2011qidi   2.34460
gfz2011qklh  -1.35990
gfz2011qlkj   0.11788
gfz2011qowe   0.90318
gfz2011qtoy  -3.31040
gfz2011qukj  -0.27020
gfz2011rbuo  -0.04561
gfz2011rczb  -0.14921
gfz2011rkau   0.27258
gfz2011rkzx  -0.40126
gfz2011rnny   0.27110
gfz2011rnsp   0.33194
gfz2011rplo  -0.30258
gfz2011rpoo  -0.23226
gfz2011scma   0.16451
gfz2011sdax   0.03560
gfz2011sdpl   0.85637
gfz2011sfmu  -0.14981
gfz2011sfph   0.49001
gfz2011sqco  -0.19779
gfz2011sskq  -0.44348
gfz2011stzi   0.19519
gfz2011swfp  -0.92105
gfz2011sxno  -0.13567
gfz2011sylg  -1.19560
gfz2011syvj  -0.54410
gfz2011syzr  -0.51344
gfz2011szau   0.15588
gfz2011szbb  -0.84913
gfz2011szcj  -1.34250
gfz2011szis   0.10463
gfz2011taqr   0.31223
gfz2011tarj   2.17080
gfz2011tdjj  -0.38455
gfz2011tfor  -0.43014
gfz2011tgon  -0.05361
gfz2011tjpv  -0.69548
gfz2011tlwl   0.44587
gfz2011tozo   0.11999
gfz2011tqgg   0.28203
gfz2011tsgl  -0.02166
gfz2011tssv   0.05259
gfz2011tvuv   0.25643
gfz2011twpz  -0.31868
gfz2011txdb  -0.61299
gfz2011txxs   0.33482
gfz2011tzcv   1.54930
gfz2011udjs  -0.10783
gfz2011udxo  -1.76220
gfz2011ugbt  -0.19432
gfz2011unud   0.61388
gfz2011uowi   0.64804
gfz2011uqlz  -1.15120
gfz2011uqry   0.52074
gfz2011urwz  -0.98703
gfz2011uvsi  -0.27998
gfz2011vahy   0.45395
gfz2011varl   0.51421
gfz2011vbxv   0.60302
gfz2011vcyx  -1.01920
gfz2011vimn   0.46255
gfz2011vsag  -0.14391
gfz2011vswj   0.42555
gfz2011vtdl   0.94879
gfz2011vtzv   0.19323
gfz2011vxek   0.28131
gfz2011wbtc   0.36530
gfz2011wcvs  -1.92430
gfz2011wfsk   0.15194
gfz2011wgoa  -0.43211
gfz2011wgvh  -2.01730
gfz2011wkja   0.31287
gfz2011wkyx  -0.85632
gfz2011wngi   0.11141
gfz2011wnjg   3.03160
gfz2011wpzt   0.43233
gfz2011wqup   0.13127
gfz2011wtfn  -0.45523
gfz2011wucg  -0.01022
gfz2011wwze   0.23213
gfz2011wyei  -0.65439
gfz2011wzss   0.31449
gfz2011xagc  -0.22961
gfz2011xdox  -0.02994
gfz2011xgbc  -0.62867
gfz2011xgwy  -0.09856
gfz2011xkka  -0.08935
gfz2011xlod  -0.18849
gfz2011xnui  -0.07603
gfz2011xpcq   0.50971
gfz2011xwdv  -0.49164
gfz2011xxng  -0.75430
gfz2011yeck   0.10340
gfz2011yexx   0.48419
gfz2011yjtx  -0.32139
gfz2011ykbd  -0.68973
gfz2011ymji   1.03680
gfz2011ypfh   0.73702
gfz2011yrfa  -0.19127
gfz2011ytob  -1.04290
gfz2011ytwk   1.18270
gfz2011ywtj   0.65689
gfz2011zcwn   0.62808
gfz2011zdyf  -0.53015
gfz2011zghc  -0.06561
gfz2011zgxn   0.42884
gfz2011ziyk   0.88891
gfz2011zkbt   0.50265
gfz2011zlga  -0.51417
gfz2012adja   0.50519
gfz2012agwh   1.22290
gfz2012ahac   0.31594
gfz2012ahkl  -3.23760
gfz2012aioo   0.34856
gfz2012aisj   0.22059
gfz2012amjx   0.71577
gfz2012amvs   0.34781
gfz2012aqpa   0.11843
gfz2012arlo  -1.20550
gfz2012asin  -0.81677
gfz2012asld   0.26562
gfz2012atjr  -1.01870
gfz2012auqr  -0.57135
gfz2012avvc  -0.49426
gfz2012axrp   2.38270
gfz2012bcvn  -0.20463
gfz2012beae   0.27259
gfz2012bity   0.25152
gfz2012bjhl   0.04563
gfz2012bnwa   0.20001
gfz2012bolx   0.80574
gfz2012bovy   0.44477
gfz2012bqcf   1.21050
gfz2012btbq  -0.02237
gfz2012byrq   0.67448
gfz2012bysu   0.47646
gfz2012byuk   1.06800
gfz2012cdju   0.75249
gfz2012cfdw   0.09543
gfz2012cksh  -0.66822
gfz2012cmww   0.42994
gfz2012cntu   0.21086
gfz2012crpb  -1.09020
gfz2012cvfr   0.22107
gfz2012cwhl  -0.63267
gfz2012cxhw  -1.02980
gfz2012czvh  -1.73670
gfz2012dbgt  -1.70600
gfz2012dcjd   0.14197
gfz2012dejg   0.19139
gfz2012dgfk   0.05184
gfz2012dkdy  -0.36460
gfz2012dleg  -2.54290
gfz2012dluf   0.26621
gfz2012dnig   0.12263
gfz2012dpem  -2.09710
gfz2012dpnu  -0.24126
gfz2012dpwv   0.88365
gfz2012drak   0.06963
gfz2012drld   0.05447
gfz2012drqd   1.03740
gfz2012dsei   2.85510
gfz2012dtdt  -0.02007
gfz2012dtlu   0.90549
gfz2012dttl   0.16177
gfz2012dtvr   0.32525
gfz2012dugf  -1.15810
gfz2012duvf   1.83120
gfz2012duwm   0.57298
gfz2012dwwu   0.20376
gfz2012dyck   0.41830
gfz2012dyfw   0.08182
gfz2012dysj   1.01500
gfz2012dysu   0.76824
gfz2012dyua  -2.30560
gfz2012dzat  -2.90590
gfz2012dzjo  -2.46880
gfz2012dzot  -0.19721
gfz2012dzul   0.53075
gfz2012dzva  -0.10393
gfz2012eajr  -0.60928
gfz2012eary  -1.32650
gfz2012ebff   0.48026
gfz2012ebgo   0.07564
gfz2012ebhf  -0.64278
gfz2012ebrr  -0.21233
gfz2012eeft   0.77869
gfz2012enio  -0.36755
gfz2012erds  -0.19270
gfz2012evav   0.54497
gfz2012evxn   0.24210
gfz2012eyti   0.50182
gfz2012fbgz   0.65057
gfz2012fcyq  -0.19196
gfz2012fcyr  -0.17682
gfz2012fhaf   0.21037
gfz2012flqf   0.70060
gfz2012foih  -1.20190
gfz2012fpyo  -0.61175
gfz2012ftcq   0.35516
gfz2012ftks  -0.57837
gfz2012fuyd   1.71120
gfz2012fxgc  -0.16561
gfz2012fyny  -0.21891
gfz2012fyop  -0.11912
gfz2012gbrs   5.77140
gfz2012gdye   0.47255
gfz2012ghiv   0.18225
gfz2012ghyd  -2.20040
gfz2012gjdg   0.01928
gfz2012gjtd  -0.26761
gfz2012hhlx   0.08481
gfz2012hkxs   0.11632
gfz2012hmcv   0.03731
gfz2012hqlo   0.43235
gfz2012hvfw   0.57298
gfz2012hvjc  -0.39642
gfz2012hvtu   0.81052
gfz2012hwph   0.02653
gfz2012hyba  -0.28062
gfz2012hyqh  -1.38420
gfz2012hysb  -0.67713
gfz2012hzai   1.03610
gfz2012hzhn  -0.23425
gfz2012hzur  -0.21744
gfz2012iabn  -0.20720
gfz2012iblo  -0.08732
gfz2012ibyd   0.10706
gfz2012icjo  -0.77241
gfz2012idxu  -0.60194
gfz2012iedy  -0.92931
gfz2012ieln   0.04182
gfz2012imuo  -0.54778
gfz2012jihg  -1.11900
gfz2012jjxm   0.13433
gfz2012jksz  -0.48059
gfz2012jlez  -0.59721
gfz2012jnlt   1.01970
gfz2012jodg  -0.45458
gfz2012jopi  -1.24940
gfz2012jqxx   0.24661
gfz2012juem  -0.46744
gfz2012jvei   3.09860
gfz2012jxnm   0.87623
gfz2012kadi   0.01990
gfz2012kbub  -0.69937
gfz2012klpl   0.35267
gfz2012kmbo  -0.39967
gfz2012kmmz   0.00415
gfz2012kqjb   0.03938
gfz2012krcm  -0.24944
gfz2012kstg   0.33387
gfz2012kwmx   0.09463
gfz2012kyhj   2.62180
gfz2012lcro  -1.22990
gfz2012ldjj  -0.34640
gfz2012lops   0.22983
gfz2012lqhw   0.08275
gfz2012luzm   0.64367
gfz2012lvlr  -2.10080
gfz2012lvwx  -0.50004
gfz2012lwha  -1.03200
gfz2012lyyr   0.06564
gfz2012mcrb  -0.04799
gfz2012mdzf  -0.28260
gfz2012mekv  -0.85707
gfz2012mhik   0.17922
gfz2012mjuu   0.63502
gfz2012mjzl   0.65379
gfz2012mmiw   0.39371
gfz2012mnth   0.33827
gfz2012mowv   0.02822
gfz2012mpvl   1.02720
gfz2012mpzo   0.58783
gfz2012mrqk   0.71903
gfz2012mrwu   0.50821
gfz2012mtyn  -0.07706
gfz2012mvgu   0.40177
gfz2012mwhe   0.14830
gfz2012mxvk   0.78383
gfz2012mzco   0.38227
gfz2012mzqx   0.57704
gfz2012ndwt   0.13467
gfz2012nfos   0.46841
gfz2012nfzc   0.75267
gfz2012nldz   0.49243
gfz2012nlrb  -0.18279
gfz2012nmja   0.07568
gfz2012nnqu   0.82489
gfz2012nnsl  -0.14746
gfz2012nqvd   0.16708
gfz2012nsxc  -0.19871
gfz2012oafg   0.09047
gfz2012oehy   0.35078
gfz2012ofaj  -0.78012
gfz2012ofnx  -0.24595
gfz2012ogqu   0.71649
gfz2012ogwe   0.32076
gfz2012ohgd   0.86077
gfz2012oieq  -1.27160
gfz2012oiez  -0.87955
gfz2012ojfv   2.04070
gfz2012ojmv  -1.21710
gfz2012onfs   0.14204
gfz2012onhu   0.44520
gfz2012oork  -1.26730
gfz2012oozp  -0.59227
gfz2012oxnh  -0.87546
gfz2012oyja   0.31686
gfz2012pcui  -0.28284
gfz2012pdav  -0.06450
gfz2012pdfi  -0.97002
gfz2012pgmw   0.63315
gfz2012pira  -0.04725
gfz2012pokk   0.39173
gfz2012prke   0.93150
gfz2012pryl   0.35629
gfz2012pziw  -1.11400
gfz2012qbbt   0.20318
gfz2012qllj  -0.02884
gfz2012qpoc   1.22910
gfz2012rmvx   0.22575
gfz2012rnml   0.75099
gfz2012rslf  -1.48640
gfz2012rugl  -0.82499
gfz2012sgfd  -0.71718
gfz2012sjdy  -0.23215
gfz2012sjox   0.77486
gfz2012slfd  -0.34907
gfz2012smyn  -0.47090
gfz2012socz  -0.20528
gfz2012sopp   0.02414
gfz2012sqsc  -1.34570
gfz2012ssnb  -2.23230
gfz2012ssvn  -0.03794
gfz2012stxx  -0.06931
gfz2012suqd  -0.58179
gfz2012svwz   0.11709
gfz2012swbz   0.33497
gfz2012sxbo  -1.36680
gfz2012sxpr  -1.89590
gfz2012sxzs   0.07343
gfz2012syum   0.76749
gfz2012taph   0.63407
gfz2012tbho   2.28270
gfz2012tfij  -0.64669
gfz2012tgta   0.63364
gfz2012thyh   0.06410
gfz2012tisj  -0.47140
gfz2012tjih  -0.36847
gfz2012touh   0.14266
gfz2012tvgw  -0.80847
gfz2012twec   0.33803
gfz2012tyoz  -0.39036
gfz2012udxg   0.69011
gfz2012uegq  -0.92057
gfz2012uhsx   0.37503
gfz2012uhtc   0.26137
gfz2012ukzg  -0.64782
gfz2012ulei  -0.34989
gfz2012umob   0.37049
gfz2012unxc   0.00934
gfz2012urtu   1.66170
gfz2012uvea   0.15641
gfz2012uvoa  -0.27503
gfz2012uwne   0.04527
gfz2012uzuu   0.04962
gfz2012uzww   0.07686
gfz2012vaqd  -0.02330
gfz2012vcqw   0.00930
gfz2012vgot   0.70106
gfz2012vile  -0.80559
gfz2012vioy  -0.14555
gfz2012vitw   0.71077
gfz2012vkjw  -0.32168
gfz2012vlzv  -0.47353
gfz2012vnve   1.11990
gfz2012vqjw  -0.47554
gfz2012vqmq   0.43125
gfz2012vrqz   1.18140
gfz2012vsav   0.34490
gfz2012vurc   0.20632
gfz2012vzkm  -0.74661
gfz2012wdvt   0.26733
gfz2012wdxk   0.10097
gfz2012wgdv  -0.02235
gfz2012wgmg  -0.21051
gfz2012wgmp   0.33527
gfz2012wgxf  -0.22704
gfz2012wiyv  -0.19210
gfz2012wjpf  -2.09560
gfz2012wjsi  -1.46580
gfz2012wjxc  -0.65302
gfz2012wkki  -0.04928
gfz2012wmas   0.74857
gfz2012wmmw  -0.08979
gfz2012wmrf   0.03967
gfz2012wowu  -1.30970
gfz2012woxj   0.21768
gfz2012wpen  -0.61451
gfz2012wqfz  -1.06940
gfz2012wugc   0.15741
gfz2012wysg   0.25882
gfz2012xask   0.45262
gfz2012xbna   0.30043
gfz2012xcsf   0.23713
gfz2012xfnu   0.05975
gfz2012xfsk   0.11802
gfz2012xfsl   0.27326
gfz2012xkln   0.09039
gfz2012xlas   0.68505
gfz2012xlfo  -0.67812
gfz2012xncm  -0.13168
gfz2012xqxw  -0.86259
gfz2012xrmq   0.24361
gfz2012xtvu   0.11364
gfz2012xwgb   0.90735
gfz2012xwkx   0.15760
gfz2012xxdj   0.21830
gfz2012yihn  -0.65473
gfz2012ylai   0.39799
gfz2012yncm  -1.92150
gfz2012yvwc   0.22594
gfz2012ywei   1.33550
gfz2012yygz  -2.20170
gfz2012yytb  -2.51960
gfz2012yzih  -0.14559
gfz2012zhyz   0.03984
gfz2012zido   0.05168
gfz2012zkhu  -1.60740
gfz2012zmdf  -0.83361
gfz2012zmfc  -0.55918
gfz2012znou   0.57138
gfz2012zqis  -0.07139
gfz2013aclz   0.54974
gfz2013adih   0.81981
gfz2013agbm   1.18610
gfz2013aggr   0.78279
gfz2013agmt  -0.92500
gfz2013ajxz   0.54660
gfz2013akkd  -0.12417
gfz2013ascz  -0.78516
gfz2013atak  -0.16085
gfz2013atec   1.62380
gfz2013auew   0.62040
gfz2013aymi   0.03655
gfz2013bdvi  -1.73850
gfz2013bgyg  -1.07770
gfz2013bqfc  -0.69422
gfz2013bwgw  -0.12266
gfz2013byyy  -0.09119
gfz2013bzwa  -0.31060
gfz2013ccng  -0.27368
gfz2013cfls  -1.22370
gfz2013cinv  -0.14556
gfz2013ciof  -1.63940
gfz2013cokc  -0.39632
gfz2013cpjc   0.05250
gfz2013cqak  -0.16928
gfz2013cqee  -0.66645
gfz2013cvve  -0.75841
gfz2013ddrx  -0.06396
gfz2013delq  -0.23222
gfz2013dftb   0.25280
gfz2013dfvx   0.22687
gfz2013djfi   0.57766
gfz2013dksc   0.44968
gfz2013dmzh  -0.24177
gfz2013dngd  -1.30000
gfz2013dnot   0.35044
gfz2013dtjl   0.58694
gfz2013dvub   0.06927
gfz2013dwsp   0.44675
gfz2013dznt  -0.89175
gfz2013dzvr  -0.02509
gfz2013eavq   0.77109
gfz2013eazm  -0.72601
gfz2013efct   0.46505
gfz2013efys   0.28495
gfz2013egfv   2.44250
gfz2013eidd   0.53834
gfz2013ektd  -0.02214
gfz2013enga  -0.36939
gfz2013enqo  -0.48021
gfz2013esef  -1.48940
gfz2013ewht   0.14898
gfz2013eyyo  -0.73399
gfz2013ezmc   0.38334
gfz2013ffjt  -0.47947
gfz2013fhzy  -0.17668
gfz2013fmcd   0.45122
gfz2013fmcp  -0.50911
gfz2013fndg   0.18014
gfz2013fnpa   0.56488
gfz2013foto   0.08023
gfz2013frxd  -0.42766
gfz2013fskp   0.44856
gfz2013fthi  -0.43753
gfz2013fulo   0.13760
gfz2013fvht  -0.00250
gfz2013fvyr  -0.26185
gfz2013fvzv   0.16493
gfz2013fxyr   0.52080
gfz2013fybd   0.59132
gfz2013gaqx  -0.69988
gfz2013gbki  -1.96040
gfz2013gbma   0.68636
gfz2013gffe   0.61155
gfz2013ghpd  -0.18347
gfz2013gjmk   0.10630
gfz2013gkcx   0.26400
gfz2013gkyn   0.29652
gfz2013glkq  -0.46225
gfz2013glpz   0.50135
gfz2013gomv   0.43868
gfz2013gugi   0.16529
gfz2013gurk   0.62874
gfz2013gxye   0.53860
gfz2013gyce   0.66578
gfz2013gywl  -1.01290
gfz2013havw   0.52383
gfz2013hbmi   0.32139
gfz2013hbtm   0.71234
gfz2013hbwy  -2.98610
gfz2013hdbp  -1.07170
gfz2013hduf   0.00021
gfz2013hiam   0.11557
gfz2013hinw   0.99417
gfz2013hjtt   0.19944
gfz2013hqaa   0.07978
gfz2013hqcd  -0.00561
gfz2013hvkg  -1.39110
gfz2013hvzv   0.36205
gfz2013hwps  -1.07590
gfz2013icgx   0.07069
gfz2013icql   1.22400
gfz2013ikic   0.86242
gfz2013irme   0.43842
gfz2013isqh   0.55800
gfz2013iuyv   0.52259
gfz2013ivvw   0.15258
gfz2013iwhc   0.09929
gfz2013iwzn  -0.19009
gfz2013iybg   0.13714
gfz2013jcnn   0.00000
gfz2013jdwo  -0.21087
gfz2013jfcn   0.32242
gfz2013jhog   0.22542
gfz2013jjae  -0.35992
gfz2013jjfw  -0.46986
gfz2013jkqn  -0.33528
gfz2013jlli  -0.25658
gfz2013jobl   0.68912
gfz2013jrqf  -0.07783
gfz2013jtsg  -0.68900
gfz2013jzcf   0.95977
gfz2013jzfz   0.69421
gfz2013kats   1.06510
gfz2013kbbg  -0.05030
gfz2013kbbn   0.76473
gfz2013kbkp   0.02204
gfz2013kcdb  -0.63002
gfz2013kdfy  -0.09938
gfz2013kjgh  -0.41702
gfz2013kpcb   0.88295
gfz2013kpes   0.63996
gfz2013kqab  -0.09699
gfz2013kruh   0.12629
gfz2013ksaz  -0.11707
gfz2013kslp   0.12922
gfz2013kxlr   0.52425
gfz2013kxof  -0.82157
gfz2013lbod   0.24837
gfz2013lbvl   0.91005
gfz2013lcrk  -0.37338
gfz2013lgvf   0.77252
gfz2013ljdu   0.80988
gfz2013ljwt   0.35413
gfz2013lnne  -2.61100
gfz2013lnts  -0.23801
gfz2013lqjj   0.68031
gfz2013lvxe   0.57791
gfz2013lwtr  -1.29650
gfz2013lxed   0.54970
gfz2013lxnd  -2.29850
gfz2013mdnp   0.11499
gfz2013mdxj   0.21537
gfz2013mimp   0.67666
gfz2013mktp  -0.12160
gfz2013muqm  -0.60319
gfz2013mvgq   0.90052
gfz2013mynb  -0.20579
gfz2013mzaw   0.39956
gfz2013nhkw   3.74280
gfz2013njwj  -0.72442
gfz2013nkgd   2.08800
gfz2013nkgt   0.90588
gfz2013nnai   0.07908
gfz2013noqf   0.86644
gfz2013ntfc   0.26441
gfz2013ntiu  -1.51650
gfz2013oeni   0.37598
gfz2013ohdt   0.34605
gfz2013ohnj   0.38436
gfz2013oizq   0.01348
gfz2013ojza   0.28331
gfz2013okac  -0.06195
gfz2013okxa   0.42789
gfz2013olos  -0.22486
gfz2013onvl  -0.13373
gfz2013orot  -0.41436
gfz2013ortl   0.54829
gfz2013oruq   0.31438
gfz2013osmj   0.92180
gfz2013otuj   0.43760
gfz2013otxp   1.33150
gfz2013oywh  -0.36479
gfz2013pegj  -0.30157
gfz2013phhi  -1.09100
gfz2013phly  -1.05200
gfz2013pizm   0.89050
gfz2013pkmz  -0.40245
gfz2013pqkp  -0.24790
gfz2013puiy   0.48953
gfz2013qear  -0.92156
gfz2013qigb  -0.04782
gfz2013qmkt  -0.58581
gfz2013qnqr   0.69905
gfz2013qntl   0.00000
gfz2013qoak   0.01007
gfz2013qogb   0.29175
gfz2013qqyo  -0.24723
gfz2013quwz   0.39753
gfz2013quyn   0.48106
gfz2013qwnm   0.58821
gfz2013qxof   0.16498
gfz2013rdmn   0.28965
gfz2013rfik   0.44078
gfz2013rgcc   0.56563
gfz2013rhbx   0.96568
gfz2013rhxf   0.13353
gfz2013rnsa   0.64259
gfz2013rocs   0.52983
gfz2013rsyt  -0.08607
gfz2013rtvy   0.56411
gfz2013rwkj   0.35343
gfz2013rwog   0.48786
gfz2013ryfc   0.49758
gfz2013ryph   0.30874
gfz2013sbsl   0.49777
gfz2013sbsp  -0.70893
gfz2013sdkg   0.51601
gfz2013sdym   0.14129
gfz2013skay   0.02903
gfz2013skvq   0.31683
gfz2013stou   0.39954
gfz2013stup  -1.88900
gfz2013suck   0.20768
gfz2013swnj   0.03115
gfz2013syqp   0.81104
gfz2013syqv  -0.31062
gfz2013taeb  -1.18330
gfz2013tcju  -0.16822
gfz2013tdsx   0.11301
gfz2013tekq   0.32261
gfz2013tert  -0.44249
gfz2013tgia   0.41709
gfz2013tgyb   0.95611
gfz2013timw  -0.37024
gfz2013tjub   0.38207
gfz2013tkcg   0.39493
gfz2013tmnf   0.47226
gfz2013tmyj   0.37592
gfz2013tnff  -0.93850
gfz2013tnrp   0.35534
gfz2013tpwl  -3.11420
gfz2013trsq   0.56851
gfz2013ttmk  -0.22388
gfz2013twbc   0.99678
gfz2013uafv  -0.19675
gfz2013ubgt   0.26111
gfz2013udtw   0.58191
gfz2013uenl  -2.13550
gfz2013uepl   0.00307
gfz2013uhio  -0.65612
gfz2013ujze   1.18760
gfz2013umay  -0.31976
gfz2013ummt  -2.63870
gfz2013unuv   0.73983
gfz2013urla  -0.01955
gfz2013utqa   0.70444
gfz2013uugc   0.37085
gfz2013uwjo  -0.50722
gfz2013uwxi   0.48119
gfz2013uxzw  -0.98834
gfz2013uzmf   0.34599
gfz2013vcgd   0.87319
gfz2013vdam   0.40801
gfz2013veoz   0.58698
gfz2013veug  -0.05457
gfz2013vfix  -0.23984
gfz2013vgfb   0.63752
gfz2013vjrr  -0.01453
gfz2013vjsz  -0.00708
gfz2013vldx  -0.05522
gfz2013vmrv  -0.22938
gfz2013vmsg  -0.69583
gfz2013vmsn  -0.57296
gfz2013vnwa  -0.78034
gfz2013voai   0.34609
gfz2013vojy   0.27038
gfz2013vsdd  -0.51408
gfz2013vvre  -1.06900
gfz2013vwkh   0.35867
gfz2013vxht   1.14980
gfz2013vzel   0.11252
gfz2013vzet  -0.33004
gfz2013wegs  -0.70858
gfz2013wgwz   0.39465
gfz2013wigs   0.08693
gfz2013wpns   0.54210
gfz2013wwee   0.20187
gfz2013wyfl  -0.65771
gfz2013xacx  -0.01393
gfz2013xahp   0.43346
gfz2013xbdc  -0.29169
gfz2013xddu   0.15407
gfz2013xjmo   0.62032
gfz2013xjmy  -0.25047
gfz2013xlic   0.12227
gfz2013xmzw  -0.32412
gfz2013xodn   0.29054
gfz2013xofz   0.18548
gfz2013xswc   0.90402
gfz2013xupg   0.42422
gfz2013xuxr   0.41602
gfz2013xvps   0.41991
gfz2013xxbf  -0.80271
gfz2013xycz   0.49193
gfz2013xzxe   0.28231
gfz2013yawe  -0.40796
gfz2013ygsj  -1.98850
gfz2013yihv  -0.93380
gfz2013ykkf  -0.49144
gfz2013ykqw  -1.20080
gfz2013yktj  -0.04860
gfz2013ylxm  -0.17933
gfz2013ylxn   0.32106
gfz2013ymhx   0.45737
gfz2013yodm   0.33565
gfz2013yqkz   0.62808
gfz2013yqtu   0.00000
gfz2013ytfm  -0.35088
gfz2013ytmi  -0.52931
gfz2013yvnj   0.03200
gfz2013yvpn   0.57004
gfz2013yxhf  -0.16390
gfz2013yxif   0.83663
gfz2013yywh   0.41671
gfz2013zbfb  -0.71840
gfz2013zedt  -0.36368
gfz2013zeye  -0.17945
gfz2013zfbz   0.22058
gfz2013ziix  -0.26169
gfz2013zkgm  -0.14903
gfz2013zkta  -0.49654
gfz2013zkzb   0.27073
gfz2013zlak  -0.08736
gfz2013zlij  -0.45529
gfz2013zpse   0.16602
gfz2013zpwk   0.38633
gfz2013zqan   0.26796
gfz2014aaae  -0.16520
gfz2014aapq   0.20228
gfz2014aedl   0.79427
gfz2014aejh   0.29164
gfz2014afbt  -0.20499
gfz2014ajgi   2.99710
gfz2014aluc  -2.13150
gfz2014amgk  -0.68759
gfz2014amsy  -2.13650
gfz2014aqax   0.47944
gfz2014aqop   0.00109
gfz2014arox   5.21440
gfz2014ateb  -0.28865
gfz2014avag   0.61749
gfz2014avmd   0.37623
gfz2014avux  -2.63760
gfz2014avzp   0.00000
gfz2014ayxf  -0.84641
gfz2014azfu   0.57639
gfz2014bdju   0.42468
gfz2014befl   0.37336
gfz2014bfjb  -0.34305
gfz2014bgxe   1.42540
gfz2014bgyv   0.12942
gfz2014bkra  -0.94946
gfz2014bmch   0.67376
gfz2014bmdf  -0.53376
gfz2014bppg   0.54408
gfz2014bqpm   0.67790
gfz2014brkk  -2.19740
gfz2014buyz  -0.14715
gfz2014bycg   0.06646
gfz2014byes   0.21807
gfz2014bzus   0.79066
gfz2014cgoi   0.30093
gfz2014cgxj   0.48211
gfz2014cjao   0.36824
gfz2014ckqv   1.02690
gfz2014cncl  -0.51329
gfz2014cokw   0.26442
gfz2014crac   0.77381
gfz2014ctdl   0.24693
gfz2014cvnb   0.64879
gfz2014cwcj  -0.36305
gfz2014cwti  -1.67910
gfz2014dbmu  -0.05256
gfz2014dbqi   0.26298
gfz2014dece   0.35805
gfz2014dggw   0.27165
gfz2014dihl   0.38465
gfz2014diuu  -1.30530
gfz2014djhi  -0.67112
gfz2014djyj   0.32649
gfz2014dmrw   0.43622
gfz2014dpny   0.51472
gfz2014dpps   0.08441
gfz2014dsqr  -0.55431
gfz2014dtth   0.51357
gfz2014dtto   0.22949
gfz2014dutu   1.40600
gfz2014dwcp   0.53758
gfz2014dykt  -0.24649
gfz2014ecor  -1.37920
gfz2014edjm   0.24631
gfz2014edmd   0.07834
gfz2014eglj  -1.75890
gfz2014egvg  -0.17485
gfz2014eiav   0.45010
gfz2014eirs   0.31333
gfz2014ejfx   0.18012
gfz2014emlw  -0.16682
gfz2014eoay   0.53231
gfz2014epfm  -1.95240
gfz2014epnq   0.70173
gfz2014epue  -0.07186
gfz2014esez   0.54347
gfz2014eunw   0.30265
gfz2014evgu   0.52049
gfz2014evhm   0.11834
gfz2014evyu   0.91302
gfz2014exxj   0.29183
gfz2014eyne   0.54512
gfz2014eysf  -0.91364
gfz2014ezjq  -0.87411
gfz2014ezld  -0.59141
gfz2014ezvd   0.84352
gfz2014ezvj   1.25860
gfz2014faex   0.08966
gfz2014fbef   0.64274
gfz2014fbli   0.18271
gfz2014fbnr  -0.24110
gfz2014fdhk  -0.78961
gfz2014fhki  -2.04460
gfz2014fjfz  -0.23968
gfz2014flxk   1.56050
gfz2014fmdc  -0.11007
gfz2014fqas   0.68594
gfz2014fsir   0.50004
gfz2014fsje   0.59513
gfz2014fskh   0.59134
gfz2014fsvc  -0.10220
gfz2014fvza   0.00000
gfz2014fwuf   0.42631
gfz2014fwxt   0.47943
gfz2014fxim  -1.05610
gfz2014fxte   0.80689
gfz2014fxtv   0.53751
gfz2014fxuy   0.62295
gfz2014gasb   0.65007
gfz2014geln   0.27145
gfz2014ggie   0.02196
gfz2014ginr   0.46642
gfz2014gjfd   0.17704
gfz2014gnbw   0.33290
gfz2014gnvp   0.71257
gfz2014gypw   0.60429
gfz2014hapg  -0.57343
gfz2014happ   0.04487
gfz2014herz   0.75731
gfz2014hgjb  -0.50500
gfz2014hhey  -0.11830
gfz2014hhis   0.10852
gfz2014hjmc  -0.42163
gfz2014hotu   0.20016
gfz2014hqhv   0.33701
gfz2014huah  -1.13370
gfz2014huqh  -0.48518
gfz2014hyea   0.48032
gfz2014hzzf   0.47029
gfz2014iaqm  -1.35030
gfz2014icov  -0.57974
gfz2014igrp   0.05513
gfz2014ijov   0.11778
gfz2014ijsa   0.36450
gfz2014iltl   0.31412
gfz2014imqh   0.26714
gfz2014ined   0.06959
gfz2014inrg  -0.44929
gfz2014iolv  -0.53051
gfz2014ipfu  -0.35900
gfz2014irlf   0.97043
gfz2014irln   1.24490
gfz2014irly   0.86261
gfz2014isjg   0.56698
gfz2014isov  -0.93942
gfz2014itlx   0.37280
gfz2014iusw   0.51332
gfz2014ivgm   0.20794
gfz2014ixlc   0.41026
gfz2014iyuc  -0.21362
gfz2014jarg   0.33443
gfz2014jaxy  -0.02599
gfz2014jayh   0.40455
gfz2014jbfp  -0.02207
gfz2014jbgm  -0.82495
gfz2014jcbj   0.44371
gfz2014jckg  -0.15471
gfz2014jfmc  -0.27241
