# Nsamples: 36  MAD:  0.826  mean: -0.094  std:  1.127
gfz2010xpzq  -0.68719
gfz2011wkyx  -0.91470
gfz2011ykbd  -0.03757
gfz2012auqr   0.76278
gfz2012dbgt  -0.47123
gfz2012dpem   0.81766
gfz2012gmsr  -1.47820
gfz2012moul  -0.34765
gfz2012movu  -0.77581
gfz2012nqvd   2.08630
gfz2012qfov   3.78000
gfz2012qmhz   0.56888
gfz2012trfq   0.64028
gfz2012ukzg  -0.64542
gfz2012ulei  -0.69095
gfz2012wowu  -1.51850
gfz2012yegw  -0.49751
gfz2012zkhu  -0.95980
gfz2013agbm  -0.18424
gfz2013bwgw  -1.64680
gfz2013dngd  -0.54255
gfz2013dwsp   0.97959
gfz2013mvgq  -1.93480
gfz2013nhkw   0.66342
gfz2013oywh   0.15383
gfz2013pvsa   0.56623
gfz2013taeb  -1.18060
gfz2013tert   0.27125
gfz2013uxzw   1.24180
gfz2013vmsg  -0.08020
gfz2013vnwa  -0.44082
gfz2013xmzw   1.48100
gfz2013yawe  -0.59723
gfz2013zpse  -0.63867
gfz2014bkra  -0.56275
gfz2014etqu  -0.55909
