# Nsamples: 120  MAD:  0.876  mean:  0.021  std:  1.120
gfz2010btme  -0.28488
gfz2010bukb   0.36039
gfz2010cthm   1.77800
gfz2010dask   1.18640
gfz2010drit  -0.92415
gfz2010drml   1.06570
gfz2010drmq   1.06570
gfz2010drng   1.28680
gfz2010drpv   0.40206
gfz2010dtyx   1.32250
gfz2010ewyj  -0.24794
gfz2010fgbo  -0.08972
gfz2010fxut   1.37600
gfz2010gxki  -0.98927
gfz2010hueh  -1.14140
gfz2010huzl  -0.04251
gfz2010iaay  -0.16558
gfz2010ihef   0.84877
gfz2010kzzm  -0.18674
gfz2010okpc  -0.35347
gfz2010qqqx  -0.64296
gfz2010rhvu  -0.32951
gfz2010sdfs  -0.46912
gfz2010tcgh  -0.20252
gfz2010tpcj  -0.01273
gfz2010tzma  -0.39821
gfz2010ugws   0.91583
gfz2010uhjy  -1.34610
gfz2010uidg  -1.27560
gfz2010umxj  -0.58957
gfz2010umyp  -0.70591
gfz2010vong  -1.05420
gfz2010vyri   0.68793
gfz2010xnbn   0.57707
gfz2010xpzq  -0.04712
gfz2010yspe   1.92800
gfz2010zhvj  -0.24534
gfz2011afyc   0.38650
gfz2011amst  -0.84021
gfz2011bvog   2.00710
gfz2011bwsm   0.78345
gfz2011cdge  -1.42260
gfz2011duvm   1.57350
gfz2011dzmf   1.88180
gfz2011exxq   0.13837
gfz2011fzcw   0.94930
gfz2011ggnl   0.11883
gfz2011gpyr   2.40090
gfz2011hibi  -0.53698
gfz2011hjof  -0.00000
gfz2011hvzo   0.58755
gfz2011lmug   0.84193
gfz2011tsgl  -1.36660
gfz2011wkyx   0.24008
gfz2011xkka  -0.84084
gfz2011xlod   1.42980
gfz2011xwdv   0.97127
gfz2011ykbd  -0.68921
gfz2012adja  -1.79300
gfz2012ahkl   1.73110
gfz2012gjtd   0.88166
gfz2012gmsr  -0.10564
gfz2012jlez   0.28079
gfz2012kmmz  -0.41740
gfz2012lcro   0.94690
gfz2012ldjj  -0.11633
gfz2012lvxx  -0.70001
gfz2012mnth  -0.25735
gfz2012moul   0.71695
gfz2012mout  -2.72350
gfz2012movu   0.27133
gfz2012movv  -1.03600
gfz2012nqvd   1.37490
gfz2012nsxc   0.18083
gfz2012ogqu  -0.09577
gfz2012pcui   1.42140
gfz2012pmuj  -0.48846
gfz2012qbbt   0.19300
gfz2012qmhz   1.87370
gfz2012rjlp   0.55626
gfz2012scuk   0.09836
gfz2012socz   0.41523
gfz2012suqd  -0.91353
gfz2012svwz  -0.58685
gfz2012ukzg   0.50748
gfz2012ulei  -0.84246
gfz2012vile   1.02340
gfz2012wowu  -0.80501
gfz2012xlfo   0.69169
gfz2012xwkx   0.28278
gfz2013dngd   0.32947
gfz2013dwsp   1.37160
gfz2013gqtl  -0.01979
gfz2013hdbp  -0.68117
gfz2013hjtt   0.04041
gfz2013iuyv  -0.28322
gfz2013kbbg  -0.42174
gfz2013kcdb  -0.91432
gfz2013mdnp  -0.13740
gfz2013mvgq  -0.73409
gfz2013oywh  -0.55146
gfz2013pkmz  -0.06459
gfz2013pvsa   0.58557
gfz2013stup  -0.02858
gfz2013taeb   0.15109
gfz2013tert  -0.57422
gfz2013upqj   0.46914
gfz2013uwjo   0.00000
gfz2013vmsg  -0.70482
gfz2013vnwa  -0.09470
gfz2013xbdc  -7.29600
gfz2013xmzw   0.08796
gfz2013yawe   0.15759
gfz2013zlak  -0.24091
gfz2014bkra  -0.09553
gfz2014bumr  -0.22946
gfz2014epfm   0.17307
gfz2014flxk  -1.03270
gfz2014huqh  -1.52400
gfz2014inrg   0.53807
