# Nsamples: 1082  MAD:  0.499  mean:  0.042  std:  0.710
gfz2010abfc   0.42050
gfz2010afyi   1.08450
gfz2010aggj   0.73208
gfz2010aseg   0.13775
gfz2010axdz  -0.04300
gfz2010azji   0.51985
gfz2010bgrt   0.51291
gfz2010bkfi   0.65397
gfz2010bklj  -0.19294
gfz2010bofe   0.44107
gfz2010bqnk   0.58491
gfz2010brlc   0.71025
gfz2010btme  -2.17390
gfz2010bukb   0.71774
gfz2010bvit  -0.14466
gfz2010byau  -0.75381
gfz2010bytu   0.02588
gfz2010cbnp   0.69905
gfz2010ccwc   0.28135
gfz2010ccye   0.49283
gfz2010cdnv   0.03929
gfz2010clbw   0.65685
gfz2010cllh   0.07874
gfz2010cnyi  -0.63351
gfz2010colm   2.14590
gfz2010cphq  -0.03394
gfz2010cpig   1.15200
gfz2010crgy   0.30118
gfz2010crir   0.21136
gfz2010csle  -0.36955
gfz2010csqy  -0.02065
gfz2010ctak   0.86101
gfz2010cthm  -0.26505
gfz2010cvam  -0.21432
gfz2010cvkn  -0.18796
gfz2010cyid   1.30960
gfz2010dmij  -0.18656
gfz2010dmkd   0.50785
gfz2010drit  -0.19067
gfz2010drml  -1.01320
gfz2010drmq  -1.01320
gfz2010drng  -0.19716
gfz2010drpv   0.52862
gfz2010drun  -0.59434
gfz2010dsjq   0.53441
gfz2010dxhq   0.06416
gfz2010eepd   0.81618
gfz2010eibh   0.61388
gfz2010elge   1.14350
gfz2010ethu   0.42808
gfz2010euue  -0.10495
gfz2010ewyj  -0.18664
gfz2010faly  -0.00000
gfz2010fgbo   0.40345
gfz2010fjio  -0.14306
gfz2010fjme   0.64014
gfz2010fnkr   0.55579
gfz2010fopf   0.23920
gfz2010fvfz   0.47990
gfz2010fxut  -0.43746
gfz2010gonu   0.35922
gfz2010gooc  -0.27330
gfz2010gpjl  -0.72693
gfz2010gxki  -0.92153
gfz2010habf   0.09619
gfz2010hesh   0.31171
gfz2010hexh   0.32711
gfz2010hsgv   0.81554
gfz2010hueh  -0.41530
gfz2010huzl   0.14769
gfz2010hxan   0.49553
gfz2010iaay  -0.50645
gfz2010iawy  -0.32661
gfz2010ifru  -0.06288
gfz2010inbs   0.54742
gfz2010ioad   0.03278
gfz2010ixjl   0.23734
gfz2010izgb  -0.34204
gfz2010jcby   0.42554
gfz2010jdhk   0.28136
gfz2010jgwj   0.50753
gfz2010jkrp  -0.51415
gfz2010jlvp   0.52891
gfz2010jpkn   0.70183
gfz2010jvsi  -0.71766
gfz2010kcdq   0.41398
gfz2010kcyz   0.00703
gfz2010kwks   0.19636
gfz2010kzzm   5.21490
gfz2010lvnj   0.96010
gfz2010mjdl  -0.44787
gfz2010mqaj   1.13950
gfz2010nccu   0.60288
gfz2010nkrw   0.46702
gfz2010ogwn  -0.40811
gfz2010okpc   0.12811
gfz2010osrl  -1.10480
gfz2010ovvg   0.72949
gfz2010pgrf  -1.14460
gfz2010swqy   0.31894
gfz2010sylk   0.09572
gfz2010tcgh  -0.31739
gfz2010tfar   0.15826
gfz2010tgmo   0.43452
gfz2010tmba   0.69636
gfz2010tmne   1.48860
gfz2010tpcj  -0.72376
gfz2010tqyo   0.21607
gfz2010tvit   0.18818
gfz2010tzki  -0.02213
gfz2010tzlz  -0.37273
gfz2010tzma  -0.41717
gfz2010ugws  -0.82091
gfz2010uhjy  -0.51381
gfz2010uidg  -1.68940
gfz2010umxj   0.20216
gfz2010umyp  -0.50313
gfz2010uogw  -0.76717
gfz2010uopf   0.20107
gfz2010upod   0.55500
gfz2010uqba  -0.19254
gfz2010uraq  -0.08458
gfz2010ussf   0.00000
gfz2010uveo   0.26232
gfz2010uyng  -0.14845
gfz2010vdcf  -0.13398
gfz2010vgfu   0.14221
gfz2010vhzx   0.03838
gfz2010viyi   0.12493
gfz2010vjac   0.42907
gfz2010vong  -0.00410
gfz2010vyri  -0.68029
gfz2010wakc  -0.28423
gfz2010wigk   0.06886
gfz2010wplk   0.18716
gfz2010wtin   0.35596
gfz2010wwnq   0.36338
gfz2010wyuj  -1.04180
gfz2010xamh   0.00000
gfz2010xkbz   0.05867
gfz2010xnbn   0.23442
gfz2010xnwf   0.71559
gfz2010xpzq  -0.28924
gfz2010xzah  -0.07652
gfz2010yczp  -0.02858
gfz2010yfdr  -0.44673
gfz2010ygrd  -0.42675
gfz2010yhdn   0.79449
gfz2010yhhj  -0.15928
gfz2010yrex  -0.19900
gfz2010yspe   0.64100
gfz2010ytzb   0.06356
gfz2010zaxv  -1.04480
gfz2010zhvj  -0.57361
gfz2010zjun  -0.07908
gfz2010zkle  -2.15630
gfz2011afyc   0.84121
gfz2011ahvh   0.14809
gfz2011amst  -0.75984
gfz2011aqpp   0.12574
gfz2011awsv   0.78818
gfz2011bazz  -0.04356
gfz2011bcvc  -1.08300
gfz2011bffb  -0.19865
gfz2011boaz  -0.87891
gfz2011bpqm   0.49978
gfz2011bqbx  -3.03940
gfz2011bsvr  -0.16481
gfz2011bvog   0.69385
gfz2011bwsm  -0.84133
gfz2011byec  -0.11308
gfz2011bygs   0.12076
gfz2011bygu   0.53693
gfz2011bzio   0.90263
gfz2011cfyy   0.44252
gfz2011chsa   0.32961
gfz2011cjuz  -0.10768
gfz2011cwhx   0.04457
gfz2011cwsm   0.04686
gfz2011cwzi   0.46402
gfz2011cxdj   0.18247
gfz2011dabj   0.37205
gfz2011dhqk   0.21924
gfz2011dmdv   0.31497
gfz2011dtcb   0.16992
gfz2011duvm  -0.66155
gfz2011dwae  -0.17948
gfz2011dzmf  -0.09991
gfz2011ecce  -0.22715
gfz2011edrq   0.35141
gfz2011ekty   0.33311
gfz2011exxq  -1.07230
gfz2011ffdh   3.00420
gfz2011fnie  -1.02180
gfz2011fnuk   0.39818
gfz2011fnxz   0.18353
gfz2011fszl   0.35383
gfz2011fxmf  -0.30167
gfz2011fyfu  -0.21259
gfz2011fzcw  -0.18922
gfz2011gaax   0.05532
gfz2011gcct  -0.78304
gfz2011gfer   0.11306
gfz2011ggnl   1.07860
gfz2011ggsz  -1.00370
gfz2011gkdx   0.69182
gfz2011gnbk  -0.29412
gfz2011gpyr  -0.11047
gfz2011gzde  -0.26934
gfz2011haaa   0.38400
gfz2011hatg   0.81982
gfz2011hbqc   1.53480
gfz2011hffq  -0.42419
gfz2011hibi  -0.94064
gfz2011hjof   0.20627
gfz2011hmnw  -0.15358
gfz2011hqjs   0.23541
gfz2011huon  -1.20250
gfz2011hvzo  -1.06220
gfz2011hwbn   0.03721
gfz2011hyct   0.32322
gfz2011hyuh  -0.40100
gfz2011iamf  -0.18434
gfz2011ibew   0.54199
gfz2011ifta  -0.08449
gfz2011inan   0.50434
gfz2011ioch   0.25318
gfz2011iryz   0.39057
gfz2011itcv  -0.11187
gfz2011ituo  -0.18941
gfz2011ixpj  -0.23963
gfz2011iybf   0.23013
gfz2011jdoz   0.02197
gfz2011jeta   0.15929
gfz2011jphj   0.66629
gfz2011jpob   0.54840
gfz2011jrgh   0.46099
gfz2011jryv   0.15942
gfz2011kfch  -0.46376
gfz2011kjzt  -0.00000
gfz2011kjzv  -0.02871
gfz2011kmge   0.09072
gfz2011knht   0.53353
gfz2011kujo   0.45116
gfz2011kylu   0.35163
gfz2011kymm   0.22078
gfz2011kyzy  -1.39610
gfz2011ldgl   0.33639
gfz2011lkkf   0.48500
gfz2011lmug  -0.34537
gfz2011lnzf   0.08429
gfz2011lrpv   0.14407
gfz2011lwmg   1.08170
gfz2011lxga  -0.17307
gfz2011lykm  -0.44408
gfz2011lywj   1.24910
gfz2011melb   0.53917
gfz2011mimz   0.06073
gfz2011mjje  -0.13375
gfz2011mllb  -0.41077
gfz2011mzvn   1.09170
gfz2011nblt   0.02133
gfz2011ncyw  -0.28453
gfz2011ndhh   0.62397
gfz2011ndki  -0.98385
gfz2011ndlh  -0.61801
gfz2011ndoe   0.28994
gfz2011ndse   0.14416
gfz2011ndvj   1.72730
gfz2011ndyk  -0.44962
gfz2011neai  -0.20243
gfz2011nejg   0.25222
gfz2011nejw  -0.18309
gfz2011nerb  -0.02081
gfz2011nfcz   0.14696
gfz2011nfgt   1.17010
gfz2011nfln   0.57513
gfz2011nftw   0.60424
gfz2011nfwd   0.46521
gfz2011nfww  -0.14885
gfz2011nhby   0.38514
gfz2011nhhd  -0.26475
gfz2011nhjv  -1.37930
gfz2011nhvt   0.70561
gfz2011nhwf   0.43910
gfz2011nifi  -0.01569
gfz2011nihq  -0.65520
gfz2011nijp   0.15029
gfz2011nilw   0.64344
gfz2011nimp  -0.53994
gfz2011nioi   1.36990
gfz2011nisj  -1.11650
gfz2011niuw  -2.58890
gfz2011nivw   0.01453
gfz2011nkou  -1.72590
gfz2011nlmf   0.08318
gfz2011nlnl  -0.49356
gfz2011nlok  -0.63476
gfz2011nlou   0.30962
gfz2011nlum   0.59843
gfz2011nmdz   0.66416
gfz2011nnos  -0.06337
gfz2011npaf   0.66100
gfz2011npeu   0.92763
gfz2011nsiy  -0.35246
gfz2011nsrx   0.08009
gfz2011nssr  -0.53727
gfz2011nswi  -0.02199
gfz2011ntyd   0.92482
gfz2011nuqo  -0.86482
gfz2011nvty  -1.11820
gfz2011nyzk  -0.47842
gfz2011oadm  -0.14629
gfz2011oazk  -0.22005
gfz2011ocif  -0.13598
gfz2011oesd  -0.10927
gfz2011ofpj  -6.55640
gfz2011ohgj   0.26718
gfz2011okza   0.48452
gfz2011omxt  -0.06441
gfz2011oqjl  -0.58766
gfz2011osmp  -0.14498
gfz2011osuy  -0.11186
gfz2011ovvj   0.85691
gfz2011owqa   0.40198
gfz2011paqj  -0.03341
gfz2011pbgh   4.02210
gfz2011pbjh  -0.26623
gfz2011pdgq   0.16620
gfz2011pdsn  -0.58166
gfz2011pfls   0.18594
gfz2011pfwq  -1.93450
gfz2011pgzk   0.39782
gfz2011pimj   0.22275
gfz2011pivq   0.39942
gfz2011plzc   0.05092
gfz2011pmuv   0.18311
gfz2011poug   0.15663
gfz2011pphc  -0.70745
gfz2011ppsc   0.15586
gfz2011prrq   0.44323
gfz2011ptgd  -0.34086
gfz2011pulu  -0.34727
gfz2011pwbw   0.01021
gfz2011pwld   0.33100
gfz2011qasw   0.04667
gfz2011qenl  -0.30341
gfz2011qgea  -1.88940
gfz2011qgvh   0.54434
gfz2011qgvx   0.63395
gfz2011qhjw  -0.48803
gfz2011qidi   0.21090
gfz2011qowe  -1.44800
gfz2011qtoy   0.18396
gfz2011qukj   0.12684
gfz2011rbuo   0.41224
gfz2011rkau  -0.79769
gfz2011rnny   0.50484
gfz2011rnsp   0.35362
gfz2011rplo  -1.00450
gfz2011rpoo  -0.21587
gfz2011rqut  -0.44802
gfz2011scma  -0.41526
gfz2011sdax  -0.80900
gfz2011sdpl   0.06599
gfz2011sfph   0.11236
gfz2011sqco  -0.47147
gfz2011sqxp  -0.64460
gfz2011sskq   0.00000
gfz2011swfp  -0.69054
gfz2011sxno  -0.09478
gfz2011sylg   0.60927
gfz2011szau   0.11076
gfz2011szis  -0.14159
gfz2011taqr  -0.53699
gfz2011tarj  -1.20580
gfz2011tdjj  -0.09204
gfz2011tfor  -0.69011
gfz2011tgey   0.26478
gfz2011tgon  -0.03568
gfz2011tjpv  -0.00000
gfz2011tozo  -0.49496
gfz2011tsgl  -0.50964
gfz2011tssv   0.37399
gfz2011tvuv   0.35792
gfz2011twpz  -0.71342
gfz2011txdb   0.12380
gfz2011txxs  -0.00000
gfz2011tzcv   0.71082
gfz2011udjs   0.38917
gfz2011udxo  -0.76404
gfz2011ugbt  -0.09857
gfz2011uowi  -0.20891
gfz2011urwz  -0.98774
gfz2011uvsi   0.36891
gfz2011vahy   0.31716
gfz2011vaoi  -0.08746
gfz2011varl   0.36174
gfz2011vcyx  -0.65876
gfz2011vemg   0.31198
gfz2011vimn   0.14920
gfz2011vsag   1.22940
gfz2011vxek   0.32758
gfz2011wbtc   0.57658
gfz2011wgoa   0.07991
gfz2011wgvh  -0.48500
gfz2011wkja   0.42293
gfz2011wkyx  -0.64169
gfz2011wngi   0.11319
gfz2011wnvu   0.03404
gfz2011wqth   0.29472
gfz2011wtfn  -0.51090
gfz2011wucg   0.47565
gfz2011wwze   0.50293
gfz2011wyei   0.99634
gfz2011wzss  -0.66193
gfz2011xagc   0.11849
gfz2011xawm  -0.20302
gfz2011xdox  -0.78268
gfz2011xgbc  -0.91790
gfz2011xgwy   0.23908
gfz2011xkka   0.05254
gfz2011xlod   0.44670
gfz2011xpcq  -0.00000
gfz2011xwdv  -1.11290
gfz2011yeck   0.13823
gfz2011yexx  -0.12320
gfz2011yjtx   0.02114
gfz2011ykbd  -0.45917
gfz2011ytwk   0.84993
gfz2011ywtj  -0.03289
gfz2011zghc   0.78295
gfz2011zgxn   0.19127
gfz2011ziyk  -0.48295
gfz2011zkbt   0.39572
gfz2012ahac   0.18108
gfz2012ahkl  -3.41870
gfz2012aioo   0.04118
gfz2012alti  -0.29540
gfz2012amjx  -0.23965
gfz2012amvs   0.45560
gfz2012arlo  -0.81847
gfz2012asin  -1.23880
gfz2012auqr  -1.23590
gfz2012avvc  -0.23483
gfz2012axrp   0.62446
gfz2012azel   1.83380
gfz2012beae   0.60451
gfz2012bjhl  -0.11658
gfz2012bnwa   0.51486
gfz2012bolx  -0.17509
gfz2012bovy   0.38044
gfz2012brrg   0.24045
gfz2012byrq  -0.59326
gfz2012bysu   0.71470
gfz2012cdju   0.24050
gfz2012cfdw  -0.03777
gfz2012cksh   0.34840
gfz2012cmww   0.15577
gfz2012cntu   0.14965
gfz2012cvfr  -0.16787
gfz2012dbgt  -0.10027
gfz2012dejg   0.40019
gfz2012dgfk  -0.34997
gfz2012dleg  -0.36576
gfz2012dluf   0.46823
gfz2012dnig   0.47186
gfz2012dpem  -0.87267
gfz2012dpnu  -0.19113
gfz2012dpwv  -0.63013
gfz2012drak   0.00000
gfz2012drld   0.61702
gfz2012dsei   0.94629
gfz2012dtdt  -0.06655
gfz2012dtlu   0.71807
gfz2012dttl   0.66666
gfz2012dtvr   0.39610
gfz2012dugf  -1.41830
gfz2012duvf   1.15240
gfz2012duwm   0.29101
gfz2012dwwu   0.07129
gfz2012dyck   0.33748
gfz2012dyfw   0.47929
gfz2012dysj   1.06300
gfz2012dysu  -0.11829
gfz2012dyua  -0.66924
gfz2012dzat  -0.60512
gfz2012dzen  -1.37150
gfz2012dzjo  -0.22928
gfz2012dzoh  -0.40858
gfz2012dzot  -0.59668
gfz2012dzou  -0.54062
gfz2012dzul  -0.11174
gfz2012dzva  -0.01294
gfz2012eajr   0.41263
gfz2012eary  -1.56430
gfz2012ebff   0.42786
gfz2012ebgo   0.41873
gfz2012ebhf  -0.20600
gfz2012ebrr   0.25960
gfz2012eeft   0.57433
gfz2012enrg  -1.26030
gfz2012erds  -0.46156
gfz2012evav   0.51066
gfz2012evxn   0.72184
gfz2012eyti   0.41267
gfz2012fbgz   0.37699
gfz2012fcyq   0.08247
gfz2012fcyr   0.07382
gfz2012fhaf  -0.00000
gfz2012foih   0.38025
gfz2012fpyo  -0.35200
gfz2012ftks  -0.20582
gfz2012fuyd   0.07352
gfz2012fxgc  -0.63777
gfz2012fyny   0.00802
gfz2012fyop  -0.00173
gfz2012gczh   0.46176
gfz2012gdye  -0.17266
gfz2012ghiv   0.00871
gfz2012gjdg  -0.11516
gfz2012gjtd   0.05953
gfz2012gmsr  -1.05220
gfz2012gnow   0.78731
gfz2012grmf   0.26447
gfz2012gubu  -0.23585
gfz2012gvxc  -0.12284
gfz2012gzuk   0.06320
gfz2012heih   0.33633
gfz2012hhlx  -0.02368
gfz2012hmcv   0.40394
gfz2012hvjc  -0.48543
gfz2012hwph   0.29430
gfz2012hyqh   0.24899
gfz2012hzai   3.60700
gfz2012hzhn   0.09977
gfz2012hzur  -0.73246
gfz2012iabn   0.47230
gfz2012iblc  -0.08475
gfz2012iblo   0.27771
gfz2012icjo   0.45794
gfz2012idxu  -0.16857
gfz2012iedy  -0.55210
gfz2012ieln   0.25361
gfz2012iijk  -0.33051
gfz2012imuo  -1.04320
gfz2012inns  -0.09713
gfz2012iotw  -0.44105
gfz2012ipdc   0.51360
gfz2012iroy   0.13972
gfz2012ivyg  -0.92456
gfz2012iyhs   0.10595
gfz2012iyoi  -0.16296
gfz2012izke  -0.18065
gfz2012jbzr  -0.12677
gfz2012jetp   0.50733
gfz2012jihg   0.64272
gfz2012jjxm   0.33299
gfz2012jksz  -0.56049
gfz2012jlez  -0.20476
gfz2012jodg   0.97623
gfz2012jopi  -0.27799
gfz2012juem   0.25090
gfz2012jxnm   0.39003
gfz2012jxxe   1.30460
gfz2012kadi   0.09064
gfz2012kbub  -0.63392
gfz2012kjzx  -0.32288
gfz2012kmbo   0.06204
gfz2012kmmz  -0.31949
gfz2012krcm   0.19358
gfz2012kstg   0.00596
gfz2012kwmx   0.45732
gfz2012kyhj  -3.19140
gfz2012lcca   0.62393
gfz2012lcro  -0.84646
gfz2012ldjj  -0.10616
gfz2012lngq   0.74107
gfz2012lqhw  -0.07819
gfz2012lvlr  -0.42297
gfz2012lvxx   0.71800
gfz2012lwha  -0.33436
gfz2012lyqs   0.21483
gfz2012lyyr  -0.14065
gfz2012mcrb  -0.02329
gfz2012mdzf  -0.23352
gfz2012mekv   0.57062
gfz2012mhik   0.24656
gfz2012mjuu  -0.35094
gfz2012mjzl   0.02276
gfz2012mmiw   0.01954
gfz2012mnth  -0.26086
gfz2012moul   0.44212
gfz2012mout   0.33713
gfz2012movu  -0.67193
gfz2012movv   0.85539
gfz2012mowv   0.02007
gfz2012mrqk   0.26949
gfz2012mrwu   0.28014
gfz2012mtyn   0.66239
gfz2012mvgu   0.06651
gfz2012mwhe  -0.16621
gfz2012mxvk   0.95424
gfz2012mzco  -0.29864
gfz2012mzqx   0.30406
gfz2012ndsk   0.25607
gfz2012ndwt   0.11202
gfz2012nfzc  -0.35824
gfz2012nldz   0.61592
gfz2012nlrb   0.10793
gfz2012nnck  -0.27291
gfz2012nnqu  -0.16351
gfz2012nqvd   0.08140
gfz2012nsxc  -0.10705
gfz2012oafg   0.07627
gfz2012oehy   0.19925
gfz2012ofnx  -1.03060
gfz2012ogqu   0.64451
gfz2012ohgd   0.21306
gfz2012oieq  -0.59812
gfz2012onfs   0.04443
gfz2012onhu   0.52825
gfz2012ooij   0.13868
gfz2012oork  -0.28030
gfz2012ormy   1.43140
gfz2012oxnh  -0.14994
gfz2012oyja   0.04067
gfz2012pcui  -0.24481
gfz2012pdfi  -3.56240
gfz2012pdjt  -0.36826
gfz2012phns  -0.07978
gfz2012pifb  -0.42389
gfz2012pmuj   0.67761
gfz2012pmuq   2.34250
gfz2012pmws  -0.11558
gfz2012ppcq   0.20355
gfz2012prke  -0.03471
gfz2012pryl   0.28760
gfz2012pumy   0.03405
gfz2012pvve   0.21389
gfz2012pziw   0.09165
gfz2012qbbt  -0.15100
gfz2012qfah   0.34947
gfz2012qfov   1.09050
gfz2012qhqp   2.00950
gfz2012qibe   1.66910
gfz2012qllj   0.55159
gfz2012qmhz  -0.81576
gfz2012qmxz   0.29776
gfz2012qpoc  -0.06535
gfz2012qvwy   0.05079
gfz2012rfhw   0.14062
gfz2012rjlp  -2.23710
gfz2012rknz  -0.29285
gfz2012rmvx   0.38332
gfz2012rnml   0.24083
gfz2012rnyn   0.20240
gfz2012roan  -0.19389
gfz2012rslf  -0.60753
gfz2012rzwp  -0.88934
gfz2012sbix  -0.12826
gfz2012scuk   0.00000
gfz2012sfao   0.16304
gfz2012sgfd   0.96714
gfz2012sjox  -0.24229
gfz2012slfd  -0.25502
gfz2012smyn  -0.72020
gfz2012socz  -0.25565
gfz2012sopp   0.07000
gfz2012sqsc  -0.41518
gfz2012ssnb  -0.36883
gfz2012stxx   0.13700
gfz2012suqd  -0.53714
gfz2012svwz  -0.15125
gfz2012sxpr  -0.49338
gfz2012syum   0.76745
gfz2012taph  -0.35045
gfz2012tisj  -0.65713
gfz2012tjih   0.74148
gfz2012tqjc   1.02040
gfz2012trfq  -0.20238
gfz2012trss  -0.02605
gfz2012tsdz   0.06977
gfz2012tvgw  -0.83558
gfz2012twec   0.63594
gfz2012udxg  -0.79510
gfz2012uegq  -2.37880
gfz2012uhtc   0.26296
gfz2012ukzg   1.41380
gfz2012ulei  -1.19280
gfz2012umob   0.49691
gfz2012unxc   0.23057
gfz2012utdu  -0.04740
gfz2012uvea  -0.49928
gfz2012uvoa  -0.48752
gfz2012uwne   0.49802
gfz2012uzww  -0.02042
gfz2012vaqd   0.27062
gfz2012vcqw   0.36012
gfz2012vile  -0.12316
gfz2012vioy   0.35634
gfz2012vitw   0.40738
gfz2012vkjw   0.50030
gfz2012vlzv   0.36398
gfz2012vnve  -0.13947
gfz2012vqmq  -0.81488
gfz2012vrqz   0.13864
gfz2012vurc   0.09854
gfz2012wgdv  -0.05372
gfz2012wgmg   0.24559
gfz2012wiyv   0.95256
gfz2012wjpf  -0.19525
gfz2012wjsi   0.43447
gfz2012wjxc  -0.52808
gfz2012wkki   1.03410
gfz2012wmas  -0.10789
gfz2012wmmw  -1.17380
gfz2012wmrf   0.46155
gfz2012wowu  -1.22490
gfz2012woxj   0.10280
gfz2012wpen   2.80520
gfz2012wysg   0.33302
gfz2012wzja   0.63577
gfz2012xask   0.40914
gfz2012xcsf   0.33721
gfz2012xfnu  -0.65264
gfz2012xjgb  -0.88246
gfz2012xkln   0.76709
gfz2012xlas  -0.05494
gfz2012xlfo  -0.22354
gfz2012xmwt  -0.02822
gfz2012xncm  -0.12588
gfz2012xppl   1.18620
gfz2012xqxw   0.20715
gfz2012xrmq   0.27113
gfz2012xtvu   0.17522
gfz2012xwgb   0.88902
gfz2012xwkx  -0.15696
gfz2012xxdj  -0.47292
gfz2012yegw  -0.47223
gfz2012yihn   0.50729
gfz2012yncm  -2.46940
gfz2012zhyz   0.59979
gfz2012zido  -0.27959
gfz2012zkhu  -1.26390
gfz2012zktj   0.03965
gfz2012zmfc  -0.98014
gfz2012znou   0.02537
gfz2013adih  -0.71791
gfz2013afzh  -0.33685
gfz2013agbm  -1.53880
gfz2013aggr   0.06532
gfz2013agmt  -0.43549
gfz2013ajxz  -0.16722
gfz2013ascz   0.25352
gfz2013atak   0.24523
gfz2013aymi   0.05614
gfz2013bqfc   0.55529
gfz2013bwgw  -0.49206
gfz2013byyy   0.20378
gfz2013ccng   0.26535
gfz2013cfls  -0.09876
gfz2013cinv   0.15978
gfz2013ciof  -0.13425
gfz2013cokc  -0.16606
gfz2013cqee  -0.17908
gfz2013cvve  -0.91258
gfz2013cyvx   0.16892
gfz2013ddrx  -0.03975
gfz2013dftb   0.54024
gfz2013dfvx   0.07700
gfz2013djfi   0.05445
gfz2013dksc   0.60999
gfz2013dngd  -0.57434
gfz2013dtjl  -0.63662
gfz2013dvub   0.12750
gfz2013dwsp  -1.72260
gfz2013dznt  -1.69470
gfz2013dzvr  -0.46368
gfz2013eazm   0.68657
gfz2013efct   0.13707
gfz2013efys   0.19438
gfz2013eidd   0.36701
gfz2013ektd  -0.26955
gfz2013enga   0.10455
gfz2013enqo   0.35065
gfz2013esef  -0.68574
gfz2013evcl   0.74611
gfz2013ewht   0.07700
gfz2013exow   0.23542
gfz2013ezmc   0.25538
gfz2013ffjt  -0.24991
gfz2013fhzy   0.68674
gfz2013fmcp  -0.28111
gfz2013fndg  -0.26404
gfz2013fnpa   0.06700
gfz2013foto  -0.10649
gfz2013frxd  -2.06580
gfz2013fulo   0.30918
gfz2013fvyr  -0.38605
gfz2013fvzv   0.24358
gfz2013fwbm  -0.85967
gfz2013fybd   0.65648
gfz2013gaqx  -0.64360
gfz2013gbki   0.80591
gfz2013gffe   0.89605
gfz2013gjmk   0.34857
gfz2013gkyn   0.02861
gfz2013glkq  -0.06940
gfz2013gomv   0.57981
gfz2013gqtl   1.02990
gfz2013gsnl  -0.12380
gfz2013gugi  -0.14142
gfz2013gurk   0.22185
gfz2013havw   0.67671
gfz2013hbmi   0.20877
gfz2013hdbp  -0.39534
gfz2013hduf  -0.13799
gfz2013hinw   0.73544
gfz2013hjtt   0.00000
gfz2013hqaa  -0.22794
gfz2013hqcd   0.13038
gfz2013hvzv   0.20570
gfz2013hwps  -0.78740
gfz2013idqu   0.32017
gfz2013irme   0.09609
gfz2013isqh   0.04454
gfz2013iuyv   1.05500
gfz2013iwhc   0.36801
gfz2013iwzn  -0.32006
gfz2013iybg  -0.08883
gfz2013jcnn   0.09476
gfz2013jdwo   0.61178
gfz2013jfcn  -0.19823
gfz2013jhog   0.47233
gfz2013jkqn  -1.30560
gfz2013jlli   1.05060
gfz2013jobl   0.34734
gfz2013jpir  -0.00000
gfz2013jtsg   0.02596
gfz2013jzfz   0.08428
gfz2013kats   0.77689
gfz2013kbbg   0.17909
gfz2013kbkp  -0.12066
gfz2013kcdb  -0.41523
gfz2013kjgh   0.11377
gfz2013kpcb   0.19651
gfz2013kqab  -0.10603
gfz2013ksaz   0.59886
gfz2013kslp   0.26026
gfz2013kxlr  -0.56417
gfz2013kxof   1.04780
gfz2013lbod   0.02498
gfz2013lbvl   0.02717
gfz2013lgvf   0.07685
gfz2013ljdu   0.43775
gfz2013lnne  -0.43496
gfz2013lnts   0.89731
gfz2013lqjj   0.83377
gfz2013lrkp  -0.58027
gfz2013lvxe   0.30726
gfz2013lwtr  -0.21304
gfz2013lxed   0.58712
gfz2013lxnd   1.20140
gfz2013mbna  -1.05400
gfz2013mdnp   0.32902
gfz2013mdxj   0.82374
gfz2013mimp   0.86775
gfz2013mktp  -0.12219
gfz2013mvgq  -0.61488
gfz2013mynb  -0.09976
gfz2013mzaw   0.40541
gfz2013nhkw  -0.63335
gfz2013njjh  -0.22921
gfz2013njwj   0.58318
gfz2013nkgd   2.62770
gfz2013nnai   0.24948
gfz2013ntfc   0.49300
gfz2013ntiu   0.31414
gfz2013obof  -0.16758
gfz2013oeni   0.28356
gfz2013ohdt   0.29419
gfz2013ohnj   0.12694
gfz2013oizq  -0.40254
gfz2013ojza   0.60106
gfz2013okac   0.09082
gfz2013okxa   0.53333
gfz2013olos   0.39008
gfz2013onvl  -0.08142
gfz2013opkx   0.09430
gfz2013orot   0.49039
gfz2013ortl   0.41275
gfz2013oruq   0.59927
gfz2013osmj   0.73405
gfz2013otuj   0.01798
gfz2013oywh  -0.30266
gfz2013pegj   0.70918
gfz2013phhi  -0.40188
gfz2013phly   0.48392
gfz2013pifg  -0.55797
gfz2013pizm   0.93772
gfz2013pkmz  -0.21839
gfz2013pqkp  -0.12591
gfz2013puiy  -0.88643
gfz2013pvsa  -0.48917
gfz2013qaov  -0.82679
gfz2013qapj   0.16200
gfz2013qigb   0.16170
gfz2013qmkt   0.69633
gfz2013qntl   0.35776
gfz2013quyn   0.29994
gfz2013qxof  -0.27980
gfz2013rdmn  -0.44245
gfz2013rgcc   0.09500
gfz2013rnsa   0.62151
gfz2013rocs   0.15202
gfz2013rofg  -0.13195
gfz2013rsyt   0.70216
gfz2013rtvy   0.40248
gfz2013ryph   0.23317
gfz2013sbsp  -0.15865
gfz2013sdkg   0.61873
gfz2013stup  -0.42307
gfz2013suck   1.08450
gfz2013taeb  -0.92462
gfz2013tdsx   0.17649
gfz2013tert  -0.54697
gfz2013tgyb   0.19320
gfz2013tjub   0.39636
gfz2013tmyj   0.38424
gfz2013trsq   0.48587
gfz2013ttmk   0.32933
gfz2013ubgt   1.35720
gfz2013udtw   0.36356
gfz2013ujze   0.15183
gfz2013ummt   0.67067
gfz2013unuv   0.45174
gfz2013upqj  -0.21452
gfz2013urla  -0.41644
gfz2013uwxb   0.28993
gfz2013uxzw  -0.64441
gfz2013uzmf   0.42043
gfz2013vcgd   0.90068
gfz2013vdam   0.18314
gfz2013veoz   0.28780
gfz2013veug   0.61651
gfz2013vjrr  -0.18704
gfz2013vldx   0.22129
gfz2013vmrv  -0.36665
gfz2013vmsg  -2.09720
gfz2013vmsn  -0.80853
gfz2013vnwa  -0.62280
gfz2013voai   0.59450
gfz2013vojy  -0.10093
gfz2013vsdd  -0.31529
gfz2013vvre  -0.10659
gfz2013vwkh   0.27734
gfz2013vzel  -0.05308
gfz2013wpns   0.50746
gfz2013wyfl  -0.29881
gfz2013xahp  -0.26892
gfz2013xddu  -0.88230
gfz2013xjmo  -1.47580
gfz2013xlic  -0.46057
gfz2013xmzw   0.06855
gfz2013xodn   0.09133
gfz2013xofz  -0.82739
gfz2013xswc  -0.17629
gfz2013xuxr   0.02961
gfz2013xvps   0.38377
gfz2013yawe  -0.27280
gfz2013yfwz  -1.42770
gfz2013ygsj   0.58938
gfz2013yihv   0.16244
gfz2013yktj   0.47736
gfz2013ylxm  -0.99454
gfz2013ymhx   0.64638
gfz2013yodm   0.51221
gfz2013yqtu  -0.54247
gfz2013ytfm   0.72035
gfz2013yvnj   0.18339
gfz2013yvpn   0.00000
gfz2013yywh   0.02075
gfz2013zedt   0.49626
gfz2013zfbz   0.50695
gfz2013ziix   0.14505
gfz2013zlak  -0.23321
gfz2013zpse   0.45502
gfz2013zpwk   0.04713
gfz2014aaae   0.54623
gfz2014aedl   0.74970
gfz2014afbt   0.24605
gfz2014ajgi   0.37728
gfz2014aluc  -0.07639
gfz2014alzg   0.18367
gfz2014aqax   0.81896
gfz2014aqop   0.52172
gfz2014avmd   0.22843
gfz2014avux   0.36848
gfz2014avzp  -0.51184
gfz2014ayxf  -0.53368
gfz2014bdju   0.41982
gfz2014befl   0.12287
gfz2014bfjb   0.28164
gfz2014bhch   0.78155
gfz2014bkra   0.31652
gfz2014bmqw   0.31148
gfz2014bnea   0.18953
gfz2014bqpm   0.79142
gfz2014bumr  -1.12180
gfz2014bycg   0.42392
gfz2014bztn   2.05190
gfz2014bzus   0.44427
gfz2014cgxj   0.69685
gfz2014cjao   0.38220
gfz2014club   0.56990
gfz2014cncl  -0.92520
gfz2014cokw   0.77290
gfz2014ctdl   0.52419
gfz2014dbmu   0.48847
gfz2014dggw   0.34330
gfz2014dihl  -1.14790
gfz2014diuu  -0.36119
gfz2014dmrw   0.60116
gfz2014dpps   0.13726
gfz2014dutu   0.81545
gfz2014dykt  -0.06168
gfz2014ecor  -0.56815
gfz2014edjm   0.36626
gfz2014eglj  -0.10042
gfz2014eirs   0.57195
gfz2014eoay  -0.05823
gfz2014epfm  -0.80530
gfz2014epnq   0.29115
gfz2014epue   1.61550
gfz2014esez   0.40561
gfz2014eunw   0.02994
gfz2014evyu   0.09699
gfz2014eysf  -0.27348
gfz2014faex  -0.70652
gfz2014fbef   0.17229
gfz2014fbli   0.42523
gfz2014fdhk  -0.07449
gfz2014ffqg   0.91023
gfz2014flxk   0.06906
gfz2014fxtv   0.38514
gfz2014fxuy   0.32272
gfz2014gbxg  -0.80511
gfz2014ggie   0.40078
gfz2014ginr   0.26284
gfz2014gjfd   0.42674
gfz2014gnbw   0.56899
gfz2014gnvp   0.51711
gfz2014gqxg  -0.92192
gfz2014grwv  -0.10497
gfz2014gsfc  -0.35825
gfz2014gssz   0.24387
gfz2014gypw  -0.22796
gfz2014hapg  -1.02190
gfz2014happ   0.93637
gfz2014hgjb   1.11190
gfz2014hhis   0.58543
gfz2014hqhv  -0.17252
gfz2014huah   0.21654
gfz2014huqh  -0.65124
gfz2014hyea   0.33292
gfz2014hzzf  -0.23481
gfz2014iaqm   0.34075
gfz2014iayo  -0.04517
gfz2014icov   0.50817
gfz2014igrp   0.33709
gfz2014ijsa  -0.00000
gfz2014imqh   0.18031
gfz2014ipfu   0.42616
gfz2014irly   0.36517
gfz2014isjg   0.32216
gfz2014iusw   0.61113
gfz2014iyuc  -0.09413
gfz2014jarg   0.02053
gfz2014jayh   0.15574
gfz2014jbfp   1.05950
gfz2014jbgm   0.07995
