# Nsamples: 355  MAD:  0.719  mean: -0.165  std:  1.051
gfz2010crgy   0.12858
gfz2010crir  -0.00592
gfz2010cthm   1.71010
gfz2010dxhq  -1.53880
gfz2010fgbo  -0.43242
gfz2010fnkr   0.08067
gfz2010ftfq  -0.74583
gfz2010gcqp   0.06081
gfz2010habf  -0.68372
gfz2010mguv  -0.54614
gfz2010mqaj  -5.82580
gfz2010mqzz   0.21068
gfz2010nkrw  -1.09270
gfz2010okpc  -0.16934
gfz2010osaq   0.75482
gfz2010pclq   0.83489
gfz2010pcya  -2.82530
gfz2010pgpo   0.41723
gfz2010pzza  -0.31201
gfz2010qdqk  -0.78857
gfz2010qloa  -2.17630
gfz2010rhvu   3.15720
gfz2010rkuu  -0.35090
gfz2010rnqa  -0.95936
gfz2010rnwt  -1.43570
gfz2010rpjd   0.36021
gfz2010scht  -0.70731
gfz2010sdfs   3.25110
gfz2010sook  -0.11271
gfz2010tcgh   2.19570
gfz2010tmba  -0.43699
gfz2010ugws  -0.64525
gfz2010uhjy  -1.02170
gfz2010upod  -2.04140
gfz2010vong  -0.61888
gfz2010vyri  -0.52416
gfz2010wakc  -2.36200
gfz2010xamh   1.15560
gfz2010xkku  -0.00543
gfz2010xnbn  -1.56560
gfz2010yfdr   0.68576
gfz2010yhdn   0.19513
gfz2010yspe   2.11460
gfz2010ytzb  -0.73404
gfz2010zjun  -0.01053
gfz2011ahvh   1.62080
gfz2011ameb  -0.58944
gfz2011awsv  -0.21731
gfz2011bffb  -0.45318
gfz2011bpqm   0.27702
gfz2011bsvr  -1.89070
gfz2011bvog   2.19640
gfz2011bygs   0.04819
gfz2011bygu  -1.14130
gfz2011cdge   1.47850
gfz2011cjuz  -1.09410
gfz2011cwzi   0.99765
gfz2011cxdj   0.28108
gfz2011dabj  -1.00700
gfz2011dbzc  -0.97568
gfz2011dpyu   0.56337
gfz2011exxq   0.78314
gfz2011fszl   0.34561
gfz2011fyfu  -0.29355
gfz2011fzcw   2.30830
gfz2011gdli   0.39096
gfz2011gdrl  -0.81979
gfz2011ggnl   0.78141
gfz2011gnbk  -0.41458
gfz2011gpyr  -0.00000
gfz2011haaa   0.09258
gfz2011hatg  -1.10180
gfz2011hibi   3.26010
gfz2011hjof  -0.44764
gfz2011hmnw   0.32589
gfz2011hqjs  -0.55118
gfz2011hyct   0.88321
gfz2011iryz   0.05590
gfz2011ituo  -0.53847
gfz2011jdoz   2.16660
gfz2011jphj  -1.02070
gfz2011kjzt   1.25890
gfz2011lwmg  -1.53440
gfz2011mjje   0.08392
gfz2011mllb  -0.97866
gfz2011mror  -1.31500
gfz2011nblt  -1.51320
gfz2011ndhh   0.68951
gfz2011nejg   0.41093
gfz2011nfcz  -0.33052
gfz2011nfwd   0.30856
gfz2011nhhd  -0.20354
gfz2011nilw  -1.13670
gfz2011niuw  -2.87810
gfz2011nkou  -0.27466
gfz2011nlum   1.19020
gfz2011nnda  -0.09293
gfz2011oadm  -0.32622
gfz2011ofpj   0.31571
gfz2011ohgj   0.08731
gfz2011oslk   0.42275
gfz2011osmp  -0.61536
gfz2011owqa  -1.60120
gfz2011paqj   0.53322
gfz2011pfls  -0.10174
gfz2011pimj   0.16550
gfz2011pivq   1.23940
gfz2011pmuv  -0.02539
gfz2011pphc   0.59949
gfz2011prrq   0.07931
gfz2011qenl   0.70338
gfz2011qhjw  -0.78316
gfz2011rkau   2.57850
gfz2011rnny  -0.63084
gfz2011scma  -1.84790
gfz2011sdax   0.81227
gfz2011sqco  -2.50550
gfz2011sskq  -0.63021
gfz2011tqgg   0.34618
gfz2011tsgl  -1.18180
gfz2011tssv  -0.32554
gfz2011tzcv  -0.69308
gfz2011ugbt  -2.48950
gfz2011uowi  -0.11061
gfz2011uqry   0.17402
gfz2011vahy  -0.81040
gfz2011vcyx  -0.19627
gfz2011vswj  -0.99401
gfz2011vtzv   0.43711
gfz2011vxek  -0.44538
gfz2011wcvs  -2.76860
gfz2011wkja   0.11843
gfz2011wkyx  -0.78663
gfz2011wucg  -0.59858
gfz2011xnui  -1.05560
gfz2011zghc  -1.65510
gfz2012amvs   0.03178
gfz2012bolx  -0.31408
gfz2012bqcf   0.15855
gfz2012byrq   0.87702
gfz2012cvfr   2.11600
gfz2012dejg   0.03902
gfz2012dtdt  -0.20820
gfz2012dwwu  -0.71413
gfz2012ebrr   0.39958
gfz2012ekfp  -1.48160
gfz2012elek   0.32337
gfz2012fyny   0.69613
gfz2012gjdg  -0.32270
gfz2012gmsr   3.44820
gfz2012gnow  -0.87285
gfz2012hdny   0.18183
gfz2012hwph   0.75955
gfz2012iijk  -2.22820
gfz2012ikke  -0.89419
gfz2012iroy  -0.36696
gfz2012jnlt  -1.03290
gfz2012kmbo   0.45077
gfz2012kmmz   0.04740
gfz2012ldjj   0.46169
gfz2012lqhw   0.37893
gfz2012lwha   0.13241
gfz2012mcrb  -0.59701
gfz2012mdzf  -0.60401
gfz2012mhik  -0.05306
gfz2012mjuu  -0.32071
gfz2012moul   0.81131
gfz2012mrqk  -0.38265
gfz2012mvgu   0.18901
gfz2012mzco   2.70750
gfz2012nnqu  -1.83680
gfz2012nsxc  -0.52960
gfz2012oafg  -0.41152
gfz2012oehy   0.22623
gfz2012ogwe   0.04472
gfz2012ohgd  -0.22902
gfz2012pdav  -0.26894
gfz2012pdfi   1.16370
gfz2012pekf  -0.25493
gfz2012phns   0.04537
gfz2012pmuj  -0.93225
gfz2012pumy  -1.13810
gfz2012pvve  -0.69441
gfz2012qbbt  -1.20380
gfz2012qfov   1.61900
gfz2012rzwp   0.82687
gfz2012smyn  -0.22576
gfz2012socz  -0.63451
gfz2012sqsc   0.31690
gfz2012ssnb   0.09172
gfz2012suqd  -1.12250
gfz2012svwz  -0.22987
gfz2012swbz  -0.23408
gfz2012syum  -1.44160
gfz2012taph  -0.80006
gfz2012tgta  -0.48087
gfz2012thyh  -0.27076
gfz2012tqjc  -0.39746
gfz2012twec  -0.45063
gfz2012udeo   0.15756
gfz2012uegq   1.29380
gfz2012uhsx  -0.57298
gfz2012uhtc   0.02403
gfz2012uvoa  -1.41090
gfz2012uzww  -0.27442
gfz2012vgot   0.20169
gfz2012vlzv  -0.35949
gfz2012vsav   0.41192
gfz2012wbeu   0.84527
gfz2012wgmg  -0.32175
gfz2012wicr   0.37262
gfz2012wiyv   1.34400
gfz2012wkki  -0.85402
gfz2012wowu   1.06720
gfz2012woxj  -0.64837
gfz2012wpen   0.06502
gfz2012xlfo  -0.07383
gfz2012xncm  -0.96770
gfz2012xrmq   0.22418
gfz2012xxdj   0.68623
gfz2012yegw  -0.30343
gfz2012yncm   0.60949
gfz2013bwgw  -0.50647
gfz2013byyy  -0.18109
gfz2013cinv  -0.41683
gfz2013cyvx  -0.39337
gfz2013delq  -0.20927
gfz2013dftb  -0.25034
gfz2013djfi  -0.26805
gfz2013dnot  -0.13590
gfz2013dzvr   0.53702
gfz2013efct  -0.45256
gfz2013enqo   1.96550
gfz2013ezmc  -0.38078
gfz2013fnpa  -0.21570
gfz2013foto  -0.15103
gfz2013fvyr  -0.66353
gfz2013hduf  -0.11702
gfz2013hiam  -0.39218
gfz2013hjtt  -1.22260
gfz2013hqaa   0.88928
gfz2013icgx  -1.05120
gfz2013icql   0.34213
gfz2013iwzn   0.25790
gfz2013jfcn  -0.52388
gfz2013jlli  -0.97810
gfz2013jobl  -0.04372
gfz2013jrqf   1.11530
gfz2013jtsg   1.38170
gfz2013kats  -0.39970
gfz2013kbbg  -0.23300
gfz2013kbkp  -1.02110
gfz2013kcdb  -0.37067
gfz2013kpcb  -0.86188
gfz2013kqab  -1.11640
gfz2013kruh   0.03008
gfz2013kxlr   0.27885
gfz2013lbod  -1.09000
gfz2013lbvl   0.23655
gfz2013lcrk  -0.48215
gfz2013lgvf  -0.00000
gfz2013mdxj  -0.58318
gfz2013msmy  -1.15550
gfz2013mvgq   1.49300
gfz2013mzaw   0.06321
gfz2013ntiu  -0.94376
gfz2013onvl  -0.43697
gfz2013oywh  -0.76153
gfz2013phhi   0.88938
gfz2013pkmz  -0.55760
gfz2013pwsm  -0.15841
gfz2013qaov  -0.42141
gfz2013qapj  -0.78489
gfz2013qigb  -0.26362
gfz2013qogb  -1.04010
gfz2013quwz  -1.39130
gfz2013quyn   0.04907
gfz2013qxof  -0.02077
gfz2013rdmn   0.97573
gfz2013rhxf   0.15752
gfz2013rocs  -0.39389
gfz2013skvq   0.52398
gfz2013stup   3.00870
gfz2013syqp  -0.54037
gfz2013tdsx   0.25797
gfz2013tgia   0.24469
gfz2013timw  -0.26478
gfz2013tkcg  -0.36176
gfz2013tmyj   0.27669
gfz2013trsq   0.48858
gfz2013twbc   1.22160
gfz2013udtw  -1.11390
gfz2013unuv   0.02020
gfz2013upqj  -0.22683
gfz2013utqa  -0.03532
gfz2013uzmf  -0.28329
gfz2013veug  -0.53328
gfz2013vfix  -0.52998
gfz2013vgfb   0.50146
gfz2013vjrr   1.07630
gfz2013vmrv  -0.90760
gfz2013vnwa   1.64340
gfz2013vsdd   0.11254
gfz2013vvre  -2.51590
gfz2013vwkh   0.11047
gfz2013vzel  -1.75510
gfz2013wgwz   0.02149
gfz2013wyfl  -0.32566
gfz2013xahp   0.22476
gfz2013xjmo  -2.02610
gfz2013xlic  -3.90640
gfz2013xmzw   0.02128
gfz2013xodn  -1.28500
gfz2013xofz  -0.07903
gfz2013yihv   0.16896
gfz2013yqtu  -0.97319
gfz2013yxhf   0.68618
gfz2013zedt  -0.05559
gfz2013ziix  -3.95090
gfz2013zlak   0.26250
gfz2014aqop   0.23216
gfz2014ayxf   1.14510
gfz2014bdju   0.61192
gfz2014bkra  -1.06390
gfz2014bmqw   0.88335
gfz2014bppg   0.50317
gfz2014cokw   0.19745
gfz2014cvnb  -0.12156
gfz2014eirs  -0.14593
gfz2014eoay  -0.02702
gfz2014fjfz  -1.16200
gfz2014fsir   0.37402
gfz2014fwxt   0.07793
gfz2014fxim  -1.03700
gfz2014fxte  -0.21751
gfz2014fxtv  -0.28189
gfz2014fxuy   0.20091
gfz2014gasb   0.80352
gfz2014happ   0.65315
gfz2014hqhv  -0.82228
gfz2014hzzf   0.45337
gfz2014icov  -1.39410
gfz2014igrp   0.17557
gfz2014iltl  -0.63455
gfz2014inrg   0.05827
gfz2014ipfu  -0.35821
gfz2014irlf   0.03136
gfz2014irln  -0.62709
gfz2014irly   0.03943
gfz2014isjg   0.01204
gfz2014itlx  -0.37113
gfz2014iusw  -0.49721
gfz2014jarg   0.15673
gfz2014jayh  -0.33760
gfz2014jbfp  -0.77066
