# Nsamples: 435  MAD:  0.560  mean: -0.053  std:  0.821
gfz2010aggj  -0.59959
gfz2010aseg  -0.26258
gfz2010bqnk  -0.47616
gfz2010bukb  -0.65839
gfz2010ccwc  -0.19845
gfz2010ccye   0.03244
gfz2010clbw  -0.47111
gfz2010cllh   0.25509
gfz2010crgy  -0.61237
gfz2010crir  -0.06108
gfz2010csle  -0.38035
gfz2010cthm   1.11190
gfz2010dask  -0.09667
gfz2010djib  -0.29004
gfz2010drit   0.14970
gfz2010drml  -0.30017
gfz2010drmq  -0.30017
gfz2010drpv  -0.46504
gfz2010drun   0.06723
gfz2010dtyx  -0.60202
gfz2010dumv   0.43125
gfz2010fjme  -0.47145
gfz2010fkpa  -0.43016
gfz2010habf  -0.07830
gfz2010hueh  -1.20170
gfz2010iaay  -0.07093
gfz2010iawy  -0.01129
gfz2010ifhd  -0.10866
gfz2010izag   0.32850
gfz2010izgb  -0.24848
gfz2010jgwj  -0.57403
gfz2010jlvp  -0.12028
gfz2010jvsi   0.24471
gfz2010kzzm  -2.17410
gfz2010ngge   0.29412
gfz2010nwyk  -0.02000
gfz2010oibn  -0.16412
gfz2010okpc   0.47485
gfz2010pclq  -0.29570
gfz2010pcya  -0.63277
gfz2010pgpo  -0.27581
gfz2010pzza  -1.02350
gfz2010qbcy   2.01680
gfz2010qrix  -0.03940
gfz2010qykh  -0.71720
gfz2010rhvu  -0.46962
gfz2010rkuu   0.81911
gfz2010rljv   0.54181
gfz2010rnwt   2.83470
gfz2010rpjd   1.69220
gfz2010schp   0.87446
gfz2010sdfs  -0.15094
gfz2010swqy  -0.07790
gfz2010tcgh   0.41110
gfz2010tmba  -0.22560
gfz2010tpcj   0.29499
gfz2010tzlz   0.70332
gfz2010tzma   0.54682
gfz2010ugws   1.21830
gfz2010uhjy   0.44884
gfz2010vong   0.58349
gfz2010wakc  -0.59536
gfz2010wplk   0.55896
gfz2010xamh   0.03320
gfz2010xaxw   0.34484
gfz2010xjsv  -1.14670
gfz2010xkbz  -0.56343
gfz2010xnbn  -0.82920
gfz2010xpzq   0.30952
gfz2010yczp  -0.33235
gfz2010yfdr   0.26326
gfz2010yhhj   0.51732
gfz2010yilf   0.00000
gfz2010zjun   0.03989
gfz2011amst  -0.15207
gfz2011boaz   0.25471
gfz2011bpqm  -0.29472
gfz2011bqbx   2.21170
gfz2011bsvr  -0.12299
gfz2011bygs  -0.41700
gfz2011cdge   0.23812
gfz2011chsa  -0.58741
gfz2011cjuz  -0.15979
gfz2011dabj  -0.39520
gfz2011dhfg  -1.18270
gfz2011dpyu  -0.30688
gfz2011duvm  -0.31941
gfz2011fnie  -0.12538
gfz2011fszl   0.36722
gfz2011fxmf   3.09730
gfz2011fzcw   0.29311
gfz2011gfer  -0.21158
gfz2011ggnl   0.82963
gfz2011gnbk  -0.25252
gfz2011haaa  -0.07283
gfz2011hibi   3.00510
gfz2011hjof  -0.03610
gfz2011hmnw  -0.40541
gfz2011hqjs   0.10095
gfz2011hvzo   0.85543
gfz2011hyct   0.35251
gfz2011ioch  -1.39330
gfz2011iryz  -0.40320
gfz2011ituo   0.66504
gfz2011jphj  -0.23973
gfz2011jryv  -0.69017
gfz2011kjzt  -0.15674
gfz2011kylu   0.46764
gfz2011kymm   0.13279
gfz2011kyzy   0.83947
gfz2011lwmg   0.07091
gfz2011mdyq   0.35957
gfz2011mjje  -0.53434
gfz2011mllb  -0.60675
gfz2011mror  -0.55865
gfz2011nblt  -3.25900
gfz2011ndhh   0.26783
gfz2011neai  -1.74410
gfz2011nejg   0.15927
gfz2011nejw   0.44580
gfz2011nerb   0.00555
gfz2011nfln  -0.62402
gfz2011nftw  -0.21561
gfz2011nhjv   4.72750
gfz2011nhvt   0.62253
gfz2011nhwf   0.13348
gfz2011nijp  -0.86452
gfz2011nilw   0.36976
gfz2011niuw   2.22930
gfz2011nkda  -2.10660
gfz2011nkou   0.25235
gfz2011nlmf  -1.32400
gfz2011nlnl  -0.42516
gfz2011nlou  -0.28702
gfz2011nlum  -0.77966
gfz2011nmhg   2.02980
gfz2011nnda  -0.89793
gfz2011npaf   0.11852
gfz2011nsej  -1.30470
gfz2011nsiy   0.85036
gfz2011nssr   0.31638
gfz2011nswi   0.11429
gfz2011nsyi  -0.36366
gfz2011ntyd  -0.27445
gfz2011nuqo   0.64720
gfz2011nvty   1.59820
gfz2011oadm   1.67400
gfz2011ofpj  -0.48430
gfz2011ohgj  -0.72110
gfz2011okza  -0.75784
gfz2011omxt  -0.01891
gfz2011oslk   0.16520
gfz2011osmp   1.55670
gfz2011ovvj   1.37070
gfz2011owqa  -0.28537
gfz2011paqj  -0.05531
gfz2011pdsn  -0.26222
gfz2011pfls   0.34113
gfz2011pfwq   1.82110
gfz2011pivq  -0.68437
gfz2011plzc   0.87407
gfz2011pmuv  -0.89362
gfz2011poug  -0.70389
gfz2011pphc  -0.34937
gfz2011ppsc  -0.18410
gfz2011prrq  -0.75924
gfz2011ptgd   1.27240
gfz2011pwbw   0.72931
gfz2011qenl  -0.12802
gfz2011qgea   1.16020
gfz2011qgvh   0.15660
gfz2011qklh  -0.39949
gfz2011qukj   1.02980
gfz2011rkau   0.14019
gfz2011rnny  -0.69462
gfz2011sdax  -0.03690
gfz2011sdpl   0.77091
gfz2011sskq  -0.68105
gfz2011taqr  -0.50563
gfz2011tozo  -0.87106
gfz2011tqgg   0.66731
gfz2011tsgl  -0.19885
gfz2011txdb   1.50340
gfz2011ugbt   0.63268
gfz2011uqry  -0.26659
gfz2011vahy  -0.04819
gfz2011vcyx   0.10815
gfz2011vsag  -0.62086
gfz2011vtzv  -0.34573
gfz2011wcvs  -1.01380
gfz2011wkyx  -0.25428
gfz2011wzss  -0.22379
gfz2011xgbc   0.03974
gfz2011xgwy   0.44655
gfz2011xxng   0.68800
gfz2011ytob  -0.64780
gfz2011zghc  -0.51705
gfz2011zgxn  -0.12438
gfz2011zkbt   0.55230
gfz2012alti   0.18116
gfz2012amjx  -0.29325
gfz2012aqpa   0.70490
gfz2012arlo   0.55373
gfz2012atjr   1.56460
gfz2012beae  -0.19348
gfz2012bqcf  -0.67601
gfz2012byrq   1.23560
gfz2012byuk  -0.26453
gfz2012cdju  -0.06278
gfz2012cntu  -0.38296
gfz2012cvfr  -0.04069
gfz2012dejg   0.06869
gfz2012dpwv   0.40617
gfz2012dtdt  -0.18810
gfz2012dwwu  -0.65070
gfz2012ebrr  -0.36931
gfz2012ekfp  -0.26948
gfz2012ekro   0.11306
gfz2012erds   0.02504
gfz2012fcyq   0.45523
gfz2012fcyr   0.42000
gfz2012fhaf   0.09903
gfz2012ghiv  -0.49175
gfz2012gjdg  -0.16788
gfz2012hzur  -1.03430
gfz2012iblc   0.60798
gfz2012iblo   0.09802
gfz2012ibyd  -0.54842
gfz2012iijk  -0.38481
gfz2012ivyg   0.37094
gfz2012iyhs   1.43660
gfz2012jnlt  -1.43770
gfz2012klpl  -0.03005
gfz2012kmbo  -0.66687
gfz2012kmmz  -0.05164
gfz2012kstg   0.02851
gfz2012ldjj  -0.41824
gfz2012lqhw   1.93700
gfz2012lvlr  -1.69750
gfz2012lwha  -0.34318
gfz2012lyyr  -0.14568
gfz2012mdzf   0.06647
gfz2012mmiw  -0.97057
gfz2012mrqk  -0.18191
gfz2012nnqu   0.61933
gfz2012oafg  -0.11933
gfz2012oehy  -0.24554
gfz2012ofnx   0.90677
gfz2012oork  -1.38370
gfz2012phns  -0.02012
gfz2012pmuj   0.47426
gfz2012qfah   0.30347
gfz2012qmhz   1.13260
gfz2012qpoc  -0.94972
gfz2012roan   2.24420
gfz2012rzwp  -0.71568
gfz2012sbix  -0.32327
gfz2012sgfd  -0.13572
gfz2012smyn   0.02221
gfz2012socz  -1.07130
gfz2012sqsc  -0.30851
gfz2012suqd   0.58342
gfz2012svwz  -0.63591
gfz2012sxbo  -0.44872
gfz2012sxpr  -0.24084
gfz2012sxzs   0.42811
gfz2012syum  -1.04640
gfz2012tisj  -0.94229
gfz2012trfq  -0.34832
gfz2012uhtc  -0.05800
gfz2012ukzg   0.50863
gfz2012uovh  -0.30355
gfz2012uvoa  -0.61732
gfz2012uzww  -0.84988
gfz2012vgot  -0.67591
gfz2012vile   0.18974
gfz2012vitw  -0.38381
gfz2012vqjw  -0.65423
gfz2012wgmg  -0.94477
gfz2012wkki   0.99501
gfz2012woxj   1.51910
gfz2012wpen  -0.34254
gfz2012xcsf  -1.02710
gfz2012xkln   0.08723
gfz2012xlfo  -0.27687
gfz2012xncm  -0.13073
gfz2012xqxw   0.24218
gfz2012xrmq  -0.12746
gfz2012xxdj   0.16881
gfz2012yncm   0.70076
gfz2012zhyz   0.25789
gfz2012zktj   0.45185
gfz2013agbm  -0.49131
gfz2013aggr  -1.63050
gfz2013akkd  -0.17027
gfz2013atak  -0.77120
gfz2013byyy  -0.52061
gfz2013cinv  -0.50626
gfz2013cvve  -0.09168
gfz2013cyvx   0.21465
gfz2013delq   0.47580
gfz2013dftb  -0.10662
gfz2013eazm  -0.60499
gfz2013efct  -0.10460
gfz2013fmcd  -1.06330
gfz2013frxd  -1.21950
gfz2013fskp   0.18251
gfz2013fthi   0.26901
gfz2013fulo  -0.33070
gfz2013fvht   0.00740
gfz2013fvyr   0.09300
gfz2013gomv  -0.68913
gfz2013gsnl   2.01590
gfz2013gxye   0.07205
gfz2013gywl  -0.43456
gfz2013hqaa  -0.10630
gfz2013icql   0.21909
gfz2013ikic  -0.78820
gfz2013irme  -0.13137
gfz2013iuyv  -0.51262
gfz2013iwzn  -0.28054
gfz2013jfcn  -0.04578
gfz2013jhog  -1.02870
gfz2013jjae   0.22359
gfz2013jjfw   0.35288
gfz2013jlli  -0.79051
gfz2013jobl  -0.33613
gfz2013jzfz  -1.37470
gfz2013kats  -0.28214
gfz2013kbbg  -0.18887
gfz2013kbbn   0.18944
gfz2013kcdb   0.11745
gfz2013kjgh   1.42650
gfz2013kpcb  -0.81719
gfz2013kqab  -1.15970
gfz2013kuno  -0.68934
gfz2013kxlr   0.87437
gfz2013lbvl  -0.44724
gfz2013lcrk  -0.25882
gfz2013ljdu  -0.65852
gfz2013mdxj  -0.34577
gfz2013mimp  -0.63597
gfz2013njwj  -0.86037
gfz2013nkgd   0.34808
gfz2013ntiu  -0.32871
gfz2013obof  -0.33159
gfz2013oeni  -0.06355
gfz2013oizq  -0.32319
gfz2013okac   0.31983
gfz2013olos  -0.54689
gfz2013onvl  -0.53166
gfz2013orot   1.31490
gfz2013oywh   0.22186
gfz2013phhi  -0.80286
gfz2013pkmz   0.01855
gfz2013pqkp  -0.80710
gfz2013qigb  -0.57106
gfz2013qoak  -0.12547
gfz2013quwz  -1.05350
gfz2013quyn  -0.40362
gfz2013rdmn  -0.02854
gfz2013rocs  -0.85658
gfz2013rwkj  -0.92360
gfz2013rwog  -0.63473
gfz2013ryph  -0.88067
gfz2013skay  -0.37566
gfz2013skvq  -0.41067
gfz2013stup   0.36777
gfz2013taeb   2.50550
gfz2013tdsx   0.15358
gfz2013tjub  -0.38260
gfz2013udtw  -0.30288
gfz2013ujze  -0.32637
gfz2013utqa  -0.14155
gfz2013uxzw   1.29580
gfz2013vcgd  -0.89477
gfz2013vdam  -0.31347
gfz2013veug  -0.49934
gfz2013vjrr  -0.21810
gfz2013vmrv   0.89761
gfz2013vmsg   0.07664
gfz2013vmsn   2.89490
gfz2013vnwa   0.34473
gfz2013voai   1.25130
gfz2013vojy   0.06830
gfz2013vsdd  -0.71180
gfz2013vvre  -1.61220
gfz2013vwkh  -0.52457
gfz2013vzel   0.34117
gfz2013wyfl  -0.24947
gfz2013xahp  -0.14317
gfz2013xjmo   0.14403
gfz2013xlic  -0.50347
gfz2013xmzw   0.17369
gfz2013xofz  -1.55520
gfz2013xswc  -0.45407
gfz2013ylxm  -0.10675
gfz2013yodm  -0.44414
gfz2013yqtu   0.15825
gfz2013zfbz  -0.40112
gfz2013zlak   0.30578
gfz2014ajgi  -0.38712
gfz2014amgk  -0.10362
gfz2014aqop   0.14952
gfz2014bdju   0.14859
gfz2014befl  -0.46652
gfz2014bppg  -0.95852
gfz2014cokw   0.04370
gfz2014dggw   0.41487
gfz2014dihl  -0.48222
gfz2014djhi  -0.55641
gfz2014dtth  -0.23713
gfz2014dtto   0.39513
gfz2014eoay  -0.44338
gfz2014epnq   2.39250
gfz2014eunw  -0.89302
gfz2014evyu  -0.20437
gfz2014fsir  -0.24660
gfz2014fsje  -0.41109
gfz2014fskh  -0.25358
gfz2014fwxt  -0.23608
gfz2014gssz  -0.06578
gfz2014gypw  -2.60630
gfz2014hkcw  -0.02066
gfz2014huah  -0.00000
gfz2014hyea  -0.59396
gfz2014hzzf  -0.26496
gfz2014icov  -0.01819
gfz2014iltl  -0.55820
gfz2014imqh  -0.32876
gfz2014inrg   2.66790
gfz2014irlf  -0.45422
gfz2014irly  -0.61368
gfz2014iusw  -0.42458
gfz2014jayh  -0.62773
