# Nsamples: 507  MAD:  1.333  mean: -0.382  std:  1.705
gfz2010aggj  -1.34770
gfz2010aldp  -0.48060
gfz2010aseg  -1.10310
gfz2010bklj  -0.85736
gfz2010bmls   0.26387
gfz2010bofe  -0.20894
gfz2010brlc  -0.18447
gfz2010btme   1.06710
gfz2010bukb  -0.98780
gfz2010byau  -0.39499
gfz2010cbnp  -0.77787
gfz2010clbw  -1.27530
gfz2010cllh   0.55797
gfz2010cngg  -0.74503
gfz2010cnhd   0.05085
gfz2010cphq   2.76070
gfz2010crgy  -2.54480
gfz2010crir  -1.56470
gfz2010csle  -1.23290
gfz2010csqy  -0.12171
gfz2010cthm   2.67660
gfz2010cwrk  -0.60895
gfz2010cyid   1.13780
gfz2010dask   1.27000
gfz2010diid  -0.15135
gfz2010djib  -2.32550
gfz2010dmij   1.14630
gfz2010drit   0.43097
gfz2010dtyx   0.06820
gfz2010dxhq  -3.41150
gfz2010ehgf   0.79460
gfz2010elge   2.05950
gfz2010fjme  -0.02460
gfz2010fqzh  -1.05380
gfz2010guwa  -0.89148
gfz2010gxki   0.21177
gfz2010habf   1.24270
gfz2010hdxn  -0.84524
gfz2010hexh  -1.32470
gfz2010hueh   1.51310
gfz2010huzl   0.23940
gfz2010iaay  -0.60753
gfz2010ihef   1.25060
gfz2010izag   0.31227
gfz2010jcby   0.46554
gfz2010jgwj  -1.06840
gfz2010jlvp  -2.03320
gfz2010lvnj  -1.52700
gfz2010mdti  -0.59492
gfz2010mqzz  -1.87880
gfz2010mzfb  -0.09589
gfz2010nteg   1.10110
gfz2010ovvg  -0.33918
gfz2010pdip   0.34129
gfz2010pzza  -1.09870
gfz2010qdqk   1.14190
gfz2010qloa  -0.52476
gfz2010qrix   1.39840
gfz2010qrta  -0.67122
gfz2010rhvu   1.30190
gfz2010rkuu   2.00020
gfz2010rljv   0.86787
gfz2010rmua  -0.98464
gfz2010rnwt   0.39546
gfz2010rpbz   0.20210
gfz2010rpjd  -0.38194
gfz2010sdfs  -0.42373
gfz2010tgmo  -0.17258
gfz2010tmba   0.55598
gfz2010tpcj   0.91282
gfz2010tzma   0.62450
gfz2010ugws   1.33690
gfz2010uhjy   0.98957
gfz2010uogw   1.90050
gfz2010ussf   2.36500
gfz2010vong   1.57540
gfz2010wakc  -9.19600
gfz2010wyuj   2.26900
gfz2010xamh  -0.94838
gfz2010xaxw   1.36430
gfz2010xhqq  -1.06260
gfz2010xkbz   1.65850
gfz2010xney  -0.90635
gfz2010xpzq   0.11274
gfz2010yhhj  -5.64160
gfz2010yilf   0.41760
gfz2010ymih  -1.22690
gfz2010zaxv   0.74392
gfz2010zjun  -2.42140
gfz2011ahvh   0.16241
gfz2011ameb  -2.20770
gfz2011aqpp   0.06809
gfz2011awsv  -1.02990
gfz2011bcvc   0.60166
gfz2011bpqm  -2.29730
gfz2011bwsm   2.74890
gfz2011bygs  -0.63890
gfz2011cdge   2.57190
gfz2011chsa  -1.34160
gfz2011cjuz   2.64740
gfz2011dabj   0.57265
gfz2011dbzc  -0.68759
gfz2011dhfg  -1.34140
gfz2011dpyu  -2.92200
gfz2011drmu   0.18846
gfz2011duvm   1.08360
gfz2011dwae   3.37150
gfz2011ekty  -0.95051
gfz2011etkc   0.52277
gfz2011exxq   4.80770
gfz2011ffdh   0.70143
gfz2011fges  -0.25909
gfz2011gdli  -1.31240
gfz2011gdrl  -0.22631
gfz2011ggnl   0.95339
gfz2011glpg  -1.15090
gfz2011gnbk  -0.45095
gfz2011hatg  -0.76022
gfz2011hffq  -1.07660
gfz2011hibi   0.68875
gfz2011hjof   0.23616
gfz2011hvzo   0.85462
gfz2011ibew   4.57370
gfz2011ioch   0.40780
gfz2011iryz  -1.14340
gfz2011jryv  -3.43110
gfz2011kylu   4.64010
gfz2011mimz   0.09409
gfz2011mjje  -3.52820
gfz2011ndhh  -5.98710
gfz2011nejg  -5.08500
gfz2011nejw  -4.44270
gfz2011nfcz  -1.32230
gfz2011nhvt  -0.51388
gfz2011nhwf   0.51453
gfz2011nijp  -4.35020
gfz2011niuw  -5.33360
gfz2011nlnl  -1.50320
gfz2011nlum   0.93635
gfz2011nsyi  -3.25760
gfz2011nuqo   1.21390
gfz2011nyzk   3.63940
gfz2011oadm  -2.55610
gfz2011oazk  -0.39316
gfz2011ocif  -4.36200
gfz2011ofpj  -0.78881
gfz2011oqjl  -4.63150
gfz2011oslk  -4.99940
gfz2011owqa  -0.80741
gfz2011paqj  -2.56020
gfz2011pfls   0.11887
gfz2011pivq  -0.68248
gfz2011pmuv  -0.91136
gfz2011poug  -0.02435
gfz2011pphc  -0.39720
gfz2011ppsc  -1.60470
gfz2011pwbw  -0.21070
gfz2011qgea   0.92887
gfz2011qklh   4.57720
gfz2011qowe   2.05770
gfz2011qtoy   0.85454
gfz2011qukj  -0.85682
gfz2011rkau   0.31861
gfz2011rnny  -5.84870
gfz2011scma  -2.48060
gfz2011sdax  -1.61830
gfz2011sfmu  -1.53310
gfz2011sqco  -1.52480
gfz2011sqxp   1.74020
gfz2011syvj  -0.05966
gfz2011taqr  -0.60915
gfz2011tarj   0.83317
gfz2011tozo  -0.89293
gfz2011tsgl   0.68442
gfz2011udxo   3.00800
gfz2011ugbt  -1.06660
gfz2011uowi  -1.83450
gfz2011uqlz  -0.27519
gfz2011uqry  -3.14690
gfz2011urwz  -3.80320
gfz2011uvsi  -1.78810
gfz2011vahy  -0.39973
gfz2011vsag  -3.95440
gfz2011vtdl   0.38843
gfz2011wbtc  -0.98179
gfz2011wgvh   2.23860
gfz2011wkja  -2.18080
gfz2011wkyx  -1.58740
gfz2011wpzt   0.33374
gfz2011wqup  -1.12680
gfz2011wucg  -1.93820
gfz2011xdox   0.88308
gfz2011xgbc   1.31530
gfz2011xgwy  -1.13390
gfz2011xkka   0.26289
gfz2011xlod  -0.37933
gfz2011yexx  -1.44220
gfz2011ykbd   1.43980
gfz2011ymji  -0.22851
gfz2011yrfa  -0.01495
gfz2011ytob  -0.65610
gfz2011ywtj  -2.27940
gfz2011zcwn  -0.75161
gfz2011zdyf   1.93560
gfz2011zghc  -0.10845
gfz2011ziyk   0.81317
gfz2012ahac  -1.75450
gfz2012aisj  -0.33371
gfz2012alti   0.31380
gfz2012aqpa   1.00040
gfz2012auqr   0.01289
gfz2012beae  -1.26380
gfz2012bjhl  -1.33420
gfz2012bolx  -0.95554
gfz2012byuk  -1.00820
gfz2012cdju  -1.44060
gfz2012cksh   1.56810
gfz2012cmww  -0.51266
gfz2012cntu  -0.60096
gfz2012cxhw   2.90740
gfz2012dejg   0.37259
gfz2012dleg   2.07610
gfz2012dpwv   1.20520
gfz2012dtlu  -0.48080
gfz2012dwwu   0.10601
gfz2012dyck   1.16580
gfz2012dysu   2.44750
gfz2012eeft   1.16150
gfz2012ekfp  -0.00000
gfz2012fhaf  -0.22136
gfz2012fiiz  -0.42033
gfz2012fjiu   0.13905
gfz2012ftks   1.01150
gfz2012fuyd  -0.11204
gfz2012ghiv  -0.17920
gfz2012gjdg   1.07700
gfz2012gjtd  -0.03509
gfz2012heih  -0.85032
gfz2012hmcv  -1.54630
gfz2012hvtu   1.26460
gfz2012hzhn  -2.37980
gfz2012hzur  -5.70140
gfz2012iblo  -2.08650
gfz2012iijk   0.22527
gfz2012ipdc  -4.19160
gfz2012iroy  -0.30742
gfz2012jbzr  -0.61496
gfz2012jihg   3.72290
gfz2012jnlt  -1.99460
gfz2012jodg  -1.07740
gfz2012jopi   1.86410
gfz2012juem   0.12950
gfz2012kadi  -1.05200
gfz2012kbub  -1.03580
gfz2012kmbo  -0.85540
gfz2012kmmz  -1.30240
gfz2012kqjb  -1.29530
gfz2012kwmx  -0.27803
gfz2012ldjj   0.01329
gfz2012lqhw  -1.45350
gfz2012lwha   1.70040
gfz2012lyqs   4.13100
gfz2012mdzf   0.29365
gfz2012mmiw  -2.82510
gfz2012mxdk  -0.75723
gfz2012nfos   0.06912
gfz2012nfzc   1.19860
gfz2012nldz  -1.88730
gfz2012nmja  -1.61990
gfz2012nnck   1.83320
gfz2012nqvd   0.67925
gfz2012oafg  -2.08600
gfz2012ofnx  -1.32450
gfz2012oiez   0.43676
gfz2012onhu  -2.87130
gfz2012oork   1.02610
gfz2012oozp  -0.42876
gfz2012pdav  -0.84746
gfz2012pgmw  -0.20570
gfz2012phns  -1.89890
gfz2012pmuj   0.66114
gfz2012pryl  -1.00370
gfz2012pvve  -0.47710
gfz2012qfah  -0.54405
gfz2012qfov   1.18860
gfz2012rfhw   2.14600
gfz2012rknz  -1.82090
gfz2012roan  -0.00000
gfz2012rzwp   1.87760
gfz2012scuk   0.38954
gfz2012sjox  -0.69261
gfz2012socz  -0.23095
gfz2012sqsc   1.46240
gfz2012ssnb  -0.83411
gfz2012suqd  -0.15878
gfz2012svwz   0.48314
gfz2012swbz  -1.06340
gfz2012thyh  -0.89284
gfz2012tisj   0.40474
gfz2012trss   0.97229
gfz2012twec  -1.88770
gfz2012uhsx  -0.62293
gfz2012umob  -0.37610
gfz2012uvoa   0.27287
gfz2012uzww  -1.06170
gfz2012vdra  -2.84810
gfz2012vdsl  -0.25596
gfz2012vsav   1.84500
gfz2012vurc  -0.16126
gfz2012wgdv  -0.92593
gfz2012wgmg  -0.81146
gfz2012wicr   0.49162
gfz2012wjpf   3.65520
gfz2012wmas  -0.87920
gfz2012wmrf   0.57265
gfz2012wowu   1.16800
gfz2012woxj  -0.28659
gfz2012wugc  -1.17240
gfz2012xbna  -0.45070
gfz2012xcsf  -1.39470
gfz2012xkln   3.66280
gfz2012xkvu   1.15020
gfz2012xlfo  -1.47630
gfz2012xncm  -0.72578
gfz2012xxdj  -0.72797
gfz2012yegw   0.63159
gfz2012yihn   3.05280
gfz2012ylai  -1.07540
gfz2012zkhu   2.31510
gfz2013agbm   0.76294
gfz2013aggr  -0.45527
gfz2013agmt   0.12597
gfz2013ajxz   0.56519
gfz2013akkd   0.53651
gfz2013aymi  -1.00880
gfz2013byyy  -1.15540
gfz2013cinv  -1.77530
gfz2013ciof   2.72800
gfz2013cqak  -0.25873
gfz2013cqee   2.32880
gfz2013cvve   0.51898
gfz2013cyvx  -1.34710
gfz2013ddrx   0.65943
gfz2013delq   0.40380
gfz2013dftb  -0.98639
gfz2013djfi  -1.50970
gfz2013dksc  -1.58580
gfz2013dngd   0.56725
gfz2013dnot   0.43430
gfz2013dtjl  -1.32830
gfz2013dvub  -0.74040
gfz2013dznt   0.40201
gfz2013dzvr  -1.13450
gfz2013eazm   0.07439
gfz2013efct  -0.84074
gfz2013egfv   0.21445
gfz2013enqo  -0.94213
gfz2013enrh   2.49730
gfz2013ffjt  -1.07890
gfz2013fmcd   0.69835
gfz2013fmcp   1.03640
gfz2013frxd  -4.88430
gfz2013fskp  -0.08517
gfz2013fulo   0.25941
gfz2013fvht  -0.20383
gfz2013fybd  -0.84081
gfz2013gaqx  -2.51660
gfz2013gbki   0.61057
gfz2013gglk   0.94248
gfz2013gjmk  -0.03891
gfz2013gkcx   3.24340
gfz2013gkyn  -1.34470
gfz2013glkq  -2.84840
gfz2013gqtl   0.47383
gfz2013gxye  -0.13032
gfz2013hbwy  -2.18230
gfz2013hinw  -2.01500
gfz2013hwps  -1.47530
gfz2013iwzn   0.35077
gfz2013iybg  -1.35600
gfz2013iybv   1.64540
gfz2013jfcn  -1.05270
gfz2013jhog  -1.60040
gfz2013jjae   0.69895
gfz2013jobl  -0.33820
gfz2013jrqf  -1.43410
gfz2013jtsg  -1.23200
gfz2013kpcb  -2.17540
gfz2013ksaz   0.44104
gfz2013kslp  -1.44830
gfz2013lbvl  -2.74240
gfz2013ljdu   0.05826
gfz2013lnts  -0.20247
gfz2013lxed  -2.16600
gfz2013mdxj  -0.01861
gfz2013mimp  -0.90823
gfz2013msmy   0.13182
gfz2013mynb   1.63920
gfz2013ntiu   2.27430
gfz2013ohdt  -2.51380
gfz2013oizq  -0.62501
gfz2013onvl  -2.28970
gfz2013opkx   2.19560
gfz2013orot  -0.87960
gfz2013osmj   1.32690
gfz2013oywh  -1.17830
gfz2013phhi   0.97932
gfz2013pifg   1.21040
gfz2013pkmz   0.47651
gfz2013rtvy   2.33340
gfz2013rwkj  -3.55440
gfz2013rwog  -0.28408
gfz2013ryfc  -0.40877
gfz2013ryph  -2.48270
gfz2013sdkg  -1.12850
gfz2013taeb   0.52784
gfz2013tcju  -2.18410
gfz2013tert   1.08730
gfz2013tgia  -0.56836
gfz2013tjub  -0.23610
gfz2013tmyj   1.88800
gfz2013tnrp  -0.82848
gfz2013twbc   0.16488
gfz2013udtw  -0.77373
gfz2013uepl  -1.21720
gfz2013unuv  -2.31800
gfz2013upqj   1.77530
gfz2013uugc  -1.52550
gfz2013veug  -0.86090
gfz2013vmrv   1.20730
gfz2013vmsg  -0.53027
gfz2013vnwa   0.83489
gfz2013voai   0.51967
gfz2013vojy   0.25800
gfz2013vvre   0.21154
gfz2013vwkh  -0.91737
gfz2013vzet  -4.44740
gfz2013wigs  -2.38270
gfz2013wpns  -2.69450
gfz2013wwee  -0.28821
gfz2013wyfl  -0.09621
gfz2013xddu  -0.37082
gfz2013xofz   0.16787
gfz2013xswc  -2.25220
gfz2013xvps  -1.30150
gfz2013xxbf   0.49841
gfz2013xzxe   1.15560
gfz2013yawe   0.15646
gfz2013ylxn  -1.20330
gfz2013yqtu  -0.80991
gfz2014aaae  -0.24516
gfz2014ajgi  -0.21379
gfz2014amgk  -0.79387
gfz2014aqax   0.48467
gfz2014arox  -0.47106
gfz2014ascp  -0.33915
gfz2014ateb  -1.74900
gfz2014ayxf  -0.04169
gfz2014azfu  -2.04200
gfz2014bhch  -1.18100
gfz2014bkra   0.32209
gfz2014bmqw   0.87226
gfz2014bnea  -1.39970
gfz2014bqpm  -1.23110
gfz2014buyz  -0.26985
gfz2014byes  -0.94363
gfz2014eiav  -0.96624
gfz2014emlw   0.62148
gfz2014eoay  -0.96529
gfz2014epfm   1.35250
gfz2014esez  -2.00640
gfz2014eunw  -1.13190
gfz2014evgu  -0.97718
gfz2014evhm  -0.06408
gfz2014eysf   0.16503
gfz2014ezjq   2.21870
gfz2014fbef  -0.49174
gfz2014fbli  -0.72848
gfz2014fjfz  -0.45060
gfz2014fsir  -0.86058
gfz2014fsje  -0.32678
gfz2014fwxt  -0.75004
gfz2014fxte  -2.92580
gfz2014fxuy  -2.08920
gfz2014geln  -0.20274
gfz2014gnvp  -0.58947
gfz2014gypw  -1.36810
gfz2014hotu  -1.97810
gfz2014huqh   2.74330
gfz2014hyea  -3.21790
gfz2014hzzf  -3.92760
gfz2014icov   0.27900
gfz2014ijsa  -0.63618
gfz2014iltl  -0.36780
gfz2014ined  -1.09190
gfz2014ipwk   1.01490
gfz2014irlf  -3.69560
gfz2014irln  -1.81640
gfz2014irly  -1.77240
gfz2014isjg  -1.05240
gfz2014isov  -5.92070
gfz2014iusw  -1.66810
gfz2014ivgm  -1.01910
gfz2014iyuc  -0.11613
gfz2014jarg   0.68775
gfz2014jayh  -1.32180
gfz2014jckg  -2.38270
