# Nsamples: 22  MAD:  0.968  mean:  0.684  std:  1.055
gfz2010aseg   0.10960
gfz2010mqzz   0.52349
gfz2010okpc   1.41450
gfz2010pzza   2.35150
gfz2011bpqm   0.55775
gfz2011sdax   0.87904
gfz2011tsgl   1.28720
gfz2012iijk   1.76380
gfz2012kmbo   0.85651
gfz2012oafg  -0.25203
gfz2013cyvx   1.78080
gfz2013dzvr   3.37160
gfz2013fvht  -0.23520
gfz2013icql  -1.06690
gfz2013iuyv   1.00930
gfz2013jfcn   0.04160
gfz2013jobl   0.38091
gfz2013kats  -0.55906
gfz2013kbbg  -0.76473
gfz2014fxte   0.07744
gfz2014icov   1.10020
gfz2014jarg   0.41410
