# Nsamples: 74  MAD:  0.528  mean:  0.049  std:  0.842
gfz2010btme   0.14299
gfz2010bvit   0.09379
gfz2010ccwc  -0.27684
gfz2010cllh   0.91065
gfz2010crgy  -0.48207
gfz2010crir  -0.21754
gfz2010csle   0.11033
gfz2010cyid   0.26871
gfz2010dask   0.89063
gfz2010djib  -1.39810
gfz2010dmij   0.58511
gfz2010drit  -0.51139
gfz2010drml  -0.17953
gfz2010drmq  -0.17953
gfz2010drpv   0.08508
gfz2010drun   0.36231
gfz2010dslu  -1.69910
gfz2010dtgc   1.26210
gfz2010dumv  -1.15400
gfz2010dxhq   0.42555
gfz2010habf  -0.00000
gfz2010hdxn   0.27391
gfz2010rkuu   1.71610
gfz2010rnqa   1.51590
gfz2010rnwt   2.70420
gfz2010rpjd   1.21930
gfz2010schp  -0.18184
gfz2010scht  -0.30461
gfz2010sdfs   2.53570
gfz2010shvn  -0.51839
gfz2010swqy  -0.56556
gfz2010xpzq   0.19357
gfz2011fnie   0.09609
gfz2011fnuk  -0.90096
gfz2011fnxz  -0.19881
gfz2011fszl  -0.32784
gfz2011gnbk  -0.35983
gfz2011gpyr  -0.71584
gfz2011haaa  -0.13952
gfz2011hatg  -0.76433
gfz2011hjof  -0.27402
gfz2011hmnw  -0.13644
gfz2011hqjs  -0.51874
gfz2011huon   1.67520
gfz2011hvzo  -0.21195
gfz2011hyct  -0.35402
gfz2011ifta  -0.38610
gfz2011ioch   0.33493
gfz2011iryz  -0.11209
gfz2011ituo   1.18970
gfz2011jphj  -0.66479
gfz2011jryv  -0.36921
gfz2011kjzt  -0.22534
gfz2011kjzv  -0.25913
gfz2011mjje  -0.27097
gfz2011mror  -0.23067
gfz2011mzvn   0.14201
gfz2011ndki   0.00000
gfz2011nijp   0.24927
gfz2011nilw   0.70874
gfz2011nlum   0.25921
gfz2011okza  -1.25810
gfz2011paqj  -0.42089
gfz2011pdsn  -0.71848
gfz2011pfwq  -1.60740
gfz2011ppsc   0.15609
gfz2011prrq   1.47840
gfz2011ptgd   0.53187
gfz2011pwbw  -0.29241
gfz2011qenl   0.42844
gfz2011qgvh   0.09789
gfz2011qklh   1.59900
gfz2012byrq  -0.85913
gfz2012qibe  -0.37159
