# Nsamples: 954  MAD:  0.488  mean:  0.016  std:  0.772
gfz2010cwrk   0.99441
gfz2010cyid   1.52340
gfz2010dask   1.62840
gfz2010ddan   0.02014
gfz2010depd  -0.55213
gfz2010djib   0.11404
gfz2010dmij   1.26460
gfz2010dmkd   1.21080
gfz2010drit  -0.46417
gfz2010drml  -1.63930
gfz2010drmq  -1.63930
gfz2010drpv   0.16678
gfz2010drun  -0.40784
gfz2010dsjq   1.11890
gfz2010dtgc  -1.21500
gfz2010dtyx   0.53437
gfz2010dumv   0.11487
gfz2010dwgy  -0.21204
gfz2010dxhq   0.76378
gfz2010eibh   0.72792
gfz2010eqyj   0.09112
gfz2010ethu   0.34529
gfz2010ewyj   0.23264
gfz2010schp  -0.27361
gfz2010sdfs  -0.77866
gfz2010sftm   0.37980
gfz2010sook  -0.00000
gfz2010swqy   0.03975
gfz2010sylk   0.03063
gfz2010syqh   2.37570
gfz2010tcgh  -0.06859
gfz2010tfar   1.13460
gfz2010tgmo  -0.45551
gfz2010tmba   0.45255
gfz2010tmne   0.12548
gfz2010tpcj  -0.17619
gfz2010tqyo   0.08273
gfz2010tvit  -0.12397
gfz2010tzlz  -0.52181
gfz2010tzma   0.21450
gfz2010ugws  -0.81677
gfz2010uhjy  -0.29662
gfz2010uidg   0.39104
gfz2010upod  -0.08745
gfz2010uqba  -1.19870
gfz2010uraq  -6.68420
gfz2010ussf  -0.41900
gfz2010uyng  -0.13827
gfz2010vhzx  -0.19193
gfz2010viyi   0.33151
gfz2010vjac   0.23911
gfz2010vong   0.17183
gfz2010vybx   0.63392
gfz2010vyri   0.42945
gfz2010wakc  -0.78908
gfz2010wplk  -0.41747
gfz2010wtin  -0.11065
gfz2010wwnq   0.00377
gfz2010wyuj  -1.39960
gfz2010xamh  -0.38558
gfz2010xaxw  -0.07525
gfz2010xezr  -0.02359
gfz2010xkbz   0.08924
gfz2010xnbn   0.42278
gfz2010xnwf   0.71558
gfz2010xpzq   0.60866
gfz2010xytc  -0.14718
gfz2010xzah  -0.22162
gfz2010xzte  -0.67467
gfz2010yczp  -0.05699
gfz2010yfdr  -0.60153
gfz2010yhdn   0.50428
gfz2010yhhj  -0.44987
gfz2010yrex   0.06173
gfz2010zaxv  -0.17387
gfz2010zhvj  -0.55874
gfz2010zjun  -0.19705
gfz2010zkle  -1.81920
gfz2011amst  -0.50702
gfz2011aqpp   0.02219
gfz2011boaz  -0.22785
gfz2011bpqm   0.01392
gfz2011bqbx  -3.80160
gfz2011bsvr  -0.60186
gfz2011bvog  -1.42090
gfz2011bwsm  -0.74897
gfz2011byec   0.44147
gfz2011bygs   0.08667
gfz2011bygu   0.40511
gfz2011cdge  -1.42150
gfz2011cfyy   0.00952
gfz2011chsa   0.10797
gfz2011cjuz   0.87054
gfz2011cwsm  -0.27316
gfz2011cwzi   0.17845
gfz2011cxbw   2.84290
gfz2011cxdj  -0.05681
gfz2011dabj   0.49576
gfz2011dhqk   0.07767
gfz2011dmdv   0.46247
gfz2011dtcb   0.36914
gfz2011duvm  -0.32124
gfz2011dwae   0.10370
gfz2011dzmf   0.07431
gfz2011edrq   0.13082
gfz2011ekty  -0.23677
gfz2011exxq  -0.44828
gfz2011ffdh  -0.01921
gfz2011fnie  -0.40092
gfz2011fnuk   0.19617
gfz2011fnxz  -0.12418
gfz2011fszl   0.27161
gfz2011fyfu  -0.20328
gfz2011fzcw   0.04345
gfz2011gaax  -0.21851
gfz2011gcct  -0.57914
gfz2011gfer  -0.00963
gfz2011ggnl   1.23360
gfz2011ggsz  -1.33080
gfz2011gkdx   0.95423
gfz2011glpg  -0.15321
gfz2011gnbk   0.34276
gfz2011gpyr  -0.24656
gfz2011grby   1.44270
gfz2011gzde  -0.52791
gfz2011haaa   0.11129
gfz2011hbqc   0.08123
gfz2011hffq   1.93860
gfz2011hibi  -0.56690
gfz2011hjof   0.57298
gfz2011hmnw  -0.39015
gfz2011hqjs   0.31621
gfz2011huon  -0.45365
gfz2011hvzo  -1.67760
gfz2011hwbn  -0.05499
gfz2011hyct   0.24710
gfz2011hyuh  -0.21357
gfz2011iamf  -0.19712
gfz2011ibew   0.30905
gfz2011ifta  -0.12825
gfz2011inan   0.71746
gfz2011kjzt  -0.37648
gfz2011kjzv  -0.10823
gfz2011kujo   0.22236
gfz2011kylu   0.24433
gfz2011kymm   0.07799
gfz2011kyzy   0.72920
gfz2011ldgl   0.34657
gfz2011lkkf   0.23490
gfz2011lmug  -0.31150
gfz2011lnzf   0.59684
gfz2011lrpv   0.14290
gfz2011lwmg  -0.07522
gfz2011lxga   1.33930
gfz2011lykm   0.36798
gfz2011lywj   0.39083
gfz2011mdyq  -0.12252
gfz2011melb   0.81602
gfz2011mimz   0.51590
gfz2011mjje  -0.42849
gfz2011mllb  -0.11790
gfz2011mntq  -0.00000
gfz2011moob  -0.44622
gfz2011mrfm  -0.00000
gfz2011mror  -0.09516
gfz2011mryu   0.67714
gfz2011mzvn  -0.71362
gfz2011nblt  -0.01389
gfz2011ncyw  -3.66180
gfz2011ndki  -1.39360
gfz2011ndlh  -0.78636
gfz2011ndoe  -0.83042
gfz2011ndse  -0.23562
gfz2011ndvj   1.37390
gfz2011ndyk  -0.52765
gfz2011neai  -0.64542
gfz2011nejg  -0.14990
gfz2011nejw  -1.10390
gfz2011nerb  -0.47918
gfz2011nfcz   0.07563
gfz2011nfgt  -2.00770
gfz2011nfih  -0.33056
gfz2011nfln   0.15772
gfz2011nftw   0.20386
gfz2011nfwd   0.28080
gfz2011nfww  -0.54858
gfz2011nhby   0.39393
gfz2011nhhd  -0.23221
gfz2011nhjv  -1.40050
gfz2011nhvt   0.92469
gfz2011nhwf   0.59055
gfz2011nifi  -0.08063
gfz2011nihq  -0.29433
gfz2011nijp   0.04532
gfz2011nilw   0.21390
gfz2011nioi   0.78508
gfz2011niuw  -1.79030
gfz2011nivw  -0.18194
gfz2011nkou   0.31071
gfz2011nlnl  -0.91194
gfz2011nlok   4.40260
gfz2011nlou   0.17035
gfz2011nlum  -0.13174
gfz2011nlyw  -1.94020
gfz2011nmdz   0.09192
gfz2011nmhg   1.00750
gfz2011nnos   0.21501
gfz2011npaf   0.65416
gfz2011npeu   1.14450
gfz2011nsiy  -0.43011
gfz2011nsrx  -0.19088
gfz2011nssr  -0.74162
gfz2011nswi  -0.13837
gfz2011nuqo  -1.07130
gfz2011nvty   0.52111
gfz2011nyzk  -0.77067
gfz2011oadm  -0.23627
gfz2011oazk   0.14484
gfz2011ocif  -0.25018
gfz2011oesd  -0.05903
gfz2011ofpj  -0.23805
gfz2011okza   0.60065
gfz2011omxt   0.03657
gfz2011oqjl  -0.77094
gfz2011osmp  -0.24704
gfz2011ovvj   0.74074
gfz2011owqa   0.35672
gfz2011paqj  -0.27964
gfz2011pbgh  -0.70022
gfz2011pdgq   0.59642
gfz2011pdsn   0.00328
gfz2011pfls   0.81384
gfz2011pfwq  -0.78589
gfz2011pgzk   0.09441
gfz2011pimj   1.49000
gfz2011pivq   0.60422
gfz2011plzc  -0.24272
gfz2011pmuv   0.36346
gfz2011poug   0.57471
gfz2011pphc  -0.59831
gfz2011ppsc  -0.24644
gfz2011prrq   0.65364
gfz2011ptgd  -0.44073
gfz2011pulu   0.27655
gfz2011pwbw  -0.35174
gfz2011pwld   0.12775
gfz2011qasw   0.27515
gfz2011qenl  -0.44706
gfz2011qgea  -1.58900
gfz2011qgvh   0.38008
gfz2011qgvx   1.40420
gfz2011qhjw  -0.57437
gfz2011qidi   0.72755
gfz2011qklh  -2.06710
gfz2011qowe  -1.07120
gfz2011qtoy   0.46654
gfz2011qukj  -0.21230
gfz2011rbuo  -0.01686
gfz2011rkau  -0.32068
gfz2011rnny   0.16563
gfz2011rnsp   0.38577
gfz2011rplo  -0.42356
gfz2011rpoo  -0.04577
gfz2011rqut  -0.13723
gfz2011scma  -0.26757
gfz2011sdpl   0.48330
gfz2011sfmu  -1.71200
gfz2011sfph   0.44921
gfz2011sqco  -0.42488
gfz2011sqxp  -0.40209
gfz2011sskq   0.19933
gfz2011stzi  -0.03908
gfz2011swfp  -0.57805
gfz2011sxno  -0.19110
gfz2011sylg   0.12789
gfz2011syvj   0.15768
gfz2011szau   0.00857
gfz2011szis  -0.04882
gfz2011taqr  -0.46481
gfz2011tarj  -0.12343
gfz2011tfor  -0.28123
gfz2011tgey   0.26326
gfz2011tgon  -0.08840
gfz2011tsgl   0.04928
gfz2011tvuv   0.28425
gfz2011twpz  -1.04070
gfz2011txdb   2.76910
gfz2011txxs  -0.56332
gfz2011tzcv   0.21785
gfz2011udjs   0.55723
gfz2011udxo  -1.10070
gfz2011ugbt  -0.20952
gfz2011uowi   0.06764
gfz2011urwz  -1.07690
gfz2011uvsi  -0.55283
gfz2011vahy   0.52872
gfz2011vaoi   0.00000
gfz2011varl   0.20762
gfz2011vcyx  -1.07300
gfz2011vimn  -0.36297
gfz2011vtzv   0.27352
gfz2011vxek   0.02920
gfz2011wbtc   0.10034
gfz2011wgoa  -2.13040
gfz2011wkja  -0.03753
gfz2011wkyx  -0.28130
gfz2011wngi   0.30128
gfz2011wnvu   0.58492
gfz2011wqth   1.41990
gfz2011wtfn  -0.02026
gfz2011wucg   0.52318
gfz2011wwze   0.22572
gfz2011wyei  -0.48809
gfz2011wzss  -0.15917
gfz2011xagc  -0.35164
gfz2011xawm  -0.36414
gfz2011xdox   2.49230
gfz2011xgbc  -1.06230
gfz2011xgwy  -0.06885
gfz2011xkka   0.20111
gfz2011xlod  -0.95368
gfz2011xpcq   0.29946
gfz2011xwdv  -0.76007
gfz2011yeck  -0.20650
gfz2011yexx  -0.26206
gfz2011ykbd   0.09467
gfz2011yntu   0.06710
gfz2011ytwk  -0.91374
gfz2011ywtj  -0.67695
gfz2011zdyf   0.50163
gfz2011zghc   0.41000
gfz2011zgxn   0.17424
gfz2011ziyk   0.74149
gfz2011zkbt   0.20161
gfz2011znyq  -0.44836
gfz2012agwh   0.52540
gfz2012ahac   0.06101
gfz2012ahkl  -2.47210
gfz2012aioo   0.21431
gfz2012alti   0.22049
gfz2012amjx  -0.74386
gfz2012amvs   0.52990
gfz2012aqpa   0.19752
gfz2012arlo  -0.21166
gfz2012asin  -1.62750
gfz2012atjr  -0.00000
gfz2012auqr   0.16564
gfz2012avvc  -0.14799
gfz2012axrp   0.65047
gfz2012azel   1.44640
gfz2012beae   0.75629
gfz2012bjhl   0.22497
gfz2012bnwa   0.50529
gfz2012bolx   0.07098
gfz2012bovy   0.07230
gfz2012brrg   0.36964
gfz2012btbq  -0.07115
gfz2012byrq  -0.71103
gfz2012bysu  -0.47478
gfz2012bytv   0.43858
gfz2012byuk   0.28678
gfz2012cdju   0.18886
gfz2012cfdw   0.15133
gfz2012cksh   0.58530
gfz2012cmww   0.27599
gfz2012cntu   0.06250
gfz2012dbgt   0.09567
gfz2012dejg   0.40928
gfz2012dgfk  -0.26107
gfz2012dkdy   0.08415
gfz2012dleg  -0.35561
gfz2012dluf   0.56060
gfz2012dnig   0.23176
gfz2012dpem  -0.53349
gfz2012dpnu  -0.05055
gfz2012dpwv  -0.75002
gfz2012drak  -0.12206
gfz2012dsei  -0.76823
gfz2012dtdt  -0.12944
gfz2012dtlu   0.74316
gfz2012dttl   0.06174
gfz2012dtvr   0.38978
gfz2012dugf   0.20888
gfz2012duvf   1.62310
gfz2012duwm   0.14848
gfz2012dwwu  -0.26077
gfz2012dyck   0.30101
gfz2012dysj   0.76431
gfz2012dysu  -0.29993
gfz2012dzat   1.81400
gfz2012dzen  -1.43140
gfz2012dzjo  -0.49379
gfz2012dzoh  -0.31826
gfz2012dzot  -0.65265
gfz2012dzou  -0.29462
gfz2012dzva   0.06711
gfz2012eajr  -0.20514
gfz2012eary  -1.54250
gfz2012ebff   0.19826
gfz2012ebgo   0.74202
gfz2012ebhf  -0.12759
gfz2012ebrr   0.13519
gfz2012eeft   0.53754
gfz2012enrg   0.07773
gfz2012erds  -0.62032
gfz2012evav  -0.01042
gfz2012evxn  -0.21766
gfz2012eyti   0.21570
gfz2012fbgz   0.34787
gfz2012fcyq  -0.28210
gfz2012fcyr  -0.28587
gfz2012fhaf  -0.02456
gfz2012fjiu  -0.35659
gfz2012foih   0.98034
gfz2012fpyo  -0.28000
gfz2012fuyd  -0.10659
gfz2012fxgc  -0.73871
gfz2012fyny   0.06817
gfz2012fyop  -0.08219
gfz2012gczh   0.08512
gfz2012gdye   0.06221
gfz2012ghiv   0.07698
gfz2012gjdg  -0.21613
gfz2012gjtd  -4.33130
gfz2012gmsr  -0.79509
gfz2012grmf  -0.00927
gfz2012gubu  -3.08860
gfz2012gvxc  -0.25423
gfz2012gzuk   0.38162
gfz2012heih   0.34974
gfz2012hhlx  -0.19972
gfz2012hmcv   0.12911
gfz2012hvjc  -0.68876
gfz2012hwph   0.14892
gfz2012hyqh  -0.27782
gfz2012hzai  -1.45520
gfz2012hzhn  -0.21215
gfz2012hzur  -1.20350
gfz2012iblo  -0.36273
gfz2012icjo   0.61535
gfz2012idxu  -0.70075
gfz2012iedy  -1.06130
gfz2012iijk   0.14050
gfz2012imsm   0.81868
gfz2012iotw  -0.67183
gfz2012ipdc   0.82206
gfz2012iphs   1.31020
gfz2012iroy  -0.03175
gfz2012ivyg   1.56680
gfz2012iyhs  -0.28037
gfz2012iyoi   0.11810
gfz2012izke   0.05347
gfz2012jaun   0.81895
gfz2012jetp   0.48176
gfz2012jihg   0.11892
gfz2012jjxm   0.02291
gfz2012jlez  -0.00984
gfz2012jodg   0.45962
gfz2012jopi  -0.30344
gfz2012jvei   1.34450
gfz2012jxnm  -0.14982
gfz2012jxxe   1.65190
gfz2012jyhb  -0.51959
gfz2012kadi   0.33455
gfz2012kjzx   0.19575
gfz2012kmbo   0.12227
gfz2012kmmz  -0.26672
gfz2012krcm   0.16032
gfz2012kstg  -0.01307
gfz2012kvlx   2.61180
gfz2012kwmx  -0.12789
gfz2012lcca   0.16902
gfz2012lcro  -1.01850
gfz2012ldjj  -0.08128
gfz2012lngq   1.24690
gfz2012lops   0.13992
gfz2012lqhw  -0.28600
gfz2012luzm   0.33011
gfz2012lvlr  -1.71920
gfz2012lvxx  -0.08072
gfz2012lwha  -0.16015
gfz2012lyqs  -0.47271
gfz2012lyyr  -0.20707
gfz2012mcrb   0.39523
gfz2012mdzf  -0.06013
gfz2012mhik  -0.13397
gfz2012mjuu  -0.69769
gfz2012mjzl   0.01934
gfz2012mmiw   0.04482
gfz2012mnth   0.11423
gfz2012moul   0.70750
gfz2012mout   0.47188
gfz2012movu  -0.48654
gfz2012movv  -0.17345
gfz2012mowv   0.55115
gfz2012mrqk  -0.10865
gfz2012mrwu   0.15468
gfz2012mtyn   1.27210
gfz2012mwhe  -0.24877
gfz2012mxvk   1.01410
gfz2012mzco  -0.37331
gfz2012mzqx   0.18503
gfz2012ndwt   0.13394
gfz2012nfzc   0.52185
gfz2012nldz  -1.50340
gfz2012nlrb   0.03568
gfz2012nnck   0.04281
gfz2012nnqu  -0.42107
gfz2012nqvd  -0.07228
gfz2012nsxc   0.02456
gfz2012oafg   0.01668
gfz2012oehy   0.13818
gfz2012ofnx   0.12414
gfz2012ogqu   1.69640
gfz2012ohgd   0.09045
gfz2012oieq  -0.69151
gfz2012onfs  -0.03189
gfz2012onhu   0.46124
gfz2012ooij   0.30400
gfz2012oork  -0.55269
gfz2012oozp   0.32108
gfz2012ormy   0.48509
gfz2012oxnh  -0.36136
gfz2012oyja  -0.24732
gfz2012pcui  -1.45380
gfz2012pdav  -0.25185
gfz2012pdfi  -3.85210
gfz2012pdjt   0.14472
gfz2012phns  -0.15293
gfz2012pifb  -0.39597
gfz2012pmuj   0.41475
gfz2012pmuq   1.19670
gfz2012pmws  -0.01854
gfz2012ppcq   0.19299
gfz2012pryl   0.34521
gfz2012pumy   0.35867
gfz2012pvve   0.02148
gfz2012pziw  -0.05169
gfz2012qbbt  -0.04346
gfz2012qfah  -0.48939
gfz2012qfov  -0.24122
gfz2012qhqp  -1.25360
gfz2012qibe   1.19820
gfz2012qllj   0.48833
gfz2012qmhz  -0.77329
gfz2012qpoc  -0.44297
gfz2012qvwy   0.09471
gfz2012rfhw  -0.10491
gfz2012rjlp   1.34400
gfz2012rknz  -0.43423
gfz2012rnml   0.26459
gfz2012rnyn   0.00727
gfz2012roan  -0.32369
gfz2012rugl  -0.04403
gfz2012rzwp  -0.23932
gfz2012sbix   0.20338
gfz2012scuk  -0.14399
gfz2012sgfd   1.90110
gfz2012sjox   0.55070
gfz2012slfd  -1.12470
gfz2012smyn  -0.64351
gfz2012socz  -0.32655
gfz2012sopp  -0.02220
gfz2012sqsc   0.07264
gfz2012ssnb  -0.26090
gfz2012stxx   0.23957
gfz2012suqd  -1.06490
gfz2012svwz   0.13216
gfz2012sxpr  -0.64800
gfz2012sxzs   0.44476
gfz2012syum   0.54203
gfz2012taph   0.30024
gfz2012tfij   0.12248
gfz2012tisj  -0.32571
gfz2012tjih   0.71749
gfz2012tjwg  -0.70654
gfz2012tqjc  -0.04476
gfz2012tsdz   0.45444
gfz2012tvgw  -0.21344
gfz2012twec   0.41013
gfz2012udxg  -0.14310
gfz2012uegq   0.43631
gfz2012uhsx  -0.04678
gfz2012uhtc   0.12081
gfz2012ukzg  -0.10413
gfz2012ulei  -0.73954
gfz2012umob   0.20494
gfz2012unxc   0.02309
gfz2012uovh   0.25103
gfz2012utdu  -0.13157
gfz2012uvea   0.30899
gfz2012uwne   0.39852
gfz2012uzww   0.01396
gfz2012vaqd   0.06079
gfz2012vcqw  -0.03566
gfz2012vile  -0.03608
gfz2012vitw   0.13003
gfz2012vkjw   0.69866
gfz2012vlzv   0.15478
gfz2012vnve  -0.21746
gfz2012vqmq  -0.70296
gfz2012vurc  -0.03982
gfz2012wbeu   1.12400
gfz2012wgdv  -0.33715
gfz2012wgmg  -0.65169
gfz2012wiyv  -1.31000
gfz2012wjsi   0.76821
gfz2012wjxc  -0.54443
gfz2012wkki   0.12641
gfz2012wmmw  -0.18648
gfz2012wowu  -0.76082
gfz2012woxj   0.03320
gfz2012wpen  -3.22740
gfz2012wqfz   0.88998
gfz2012wysg   0.55642
gfz2012wzja   0.64474
gfz2012xcsf   0.21352
gfz2012xfnu  -0.58944
gfz2012xkln  -0.11306
gfz2012xlas  -0.62978
gfz2012xlfo  -0.23248
gfz2012xmwt  -0.12491
gfz2012xncm  -0.03365
gfz2012xppl  -0.75867
gfz2012xqxw   0.16715
gfz2012xrmq   0.00497
gfz2012xtvu   0.31303
gfz2012xwgb   1.90790
gfz2012yegw  -0.12335
gfz2012yihn   1.78390
gfz2012ylai   0.67475
gfz2012yncm  -1.46160
gfz2012yvwc  -1.13830
gfz2012yygz   2.44350
gfz2012yzcf   0.76750
gfz2012zhyz   0.22819
gfz2012zido  -0.59799
gfz2012zkhu  -0.89678
gfz2012zktj  -0.37947
gfz2012zmdf  -0.60934
gfz2012zmfc  -1.10900
gfz2012znou  -0.17287
gfz2013adih   0.07974
gfz2013afzh  -0.15461
gfz2013agbm   0.49641
gfz2013aggr  -0.32839
gfz2013agmt   0.31209
gfz2013ajxz  -0.29690
gfz2013ascz   0.70164
gfz2013atak   0.27767
gfz2013atec   0.11981
gfz2013auew   0.15193
gfz2013aymi   0.03007
gfz2013bdvi   0.26486
gfz2013bqfc   1.55910
gfz2013bwgw  -0.10715
gfz2013byyy  -0.29524
gfz2013ccng   0.05275
gfz2013cfls  -0.57156
gfz2013cinv  -0.13879
gfz2013cokc   0.45739
gfz2013cqak  -0.32208
gfz2013cqee  -1.19260
gfz2013cvve   0.00019
gfz2013ddrx   0.07500
gfz2013delq   0.40924
gfz2013dftb   0.42576
gfz2013dfvx   1.48820
gfz2013djfi   0.05697
gfz2013dksc   0.51920
gfz2013dngd  -0.36959
gfz2013dtjl   0.15730
gfz2013dwsp  -0.61633
gfz2013dznt  -1.97220
gfz2013dzvr  -0.60049
gfz2013efct   0.03411
gfz2013efys  -0.24035
gfz2013eidd   0.09268
gfz2013ektd  -0.53597
gfz2013enga  -0.33734
gfz2013esef   0.14617
gfz2013ewht  -0.07259
gfz2013ezmc   0.37187
gfz2013ffjt  -0.48676
gfz2013fhzy   0.69279
gfz2013fmcp   1.73940
gfz2013fndg  -0.13838
gfz2013fnpa   0.31240
gfz2013foto  -0.21035
gfz2013frxd   2.95050
gfz2013fvyr  -0.14912
gfz2013fwbm  -0.27799
gfz2013fxyr   1.01140
gfz2013fybd  -0.00527
gfz2013gaqx  -0.88739
gfz2013gbki   0.15891
gfz2013gffe   0.15766
gfz2013gjmk   0.09306
gfz2013gkcx   0.40099
gfz2013glkq  -0.88820
gfz2013gomv   0.18887
gfz2013gqtl   0.02713
gfz2013gsnl   0.15032
gfz2013gugi  -0.42571
gfz2013gurk  -0.46984
gfz2013gyce   0.37869
gfz2013havw   0.69490
gfz2013hbmi   0.46644
gfz2013hdbp  -0.33338
gfz2013hduf   0.17070
gfz2013hinw   0.55609
gfz2013hjtt  -0.22456
gfz2013hqaa  -0.19072
gfz2013hqcd   2.04670
gfz2013hvkg  -2.40170
gfz2013hvzv  -0.00819
gfz2013hwps  -1.27430
gfz2013idqu   0.45542
gfz2013ifag  -0.26384
gfz2013irme   0.07406
gfz2013isqh  -0.05790
gfz2013iuyv  -0.46936
gfz2013iwzn  -0.50974
gfz2013iybg   0.16513
gfz2013iybv   0.14110
gfz2013jdwo   0.70292
gfz2013jfcn   0.41641
gfz2013jhog   0.25110
gfz2013jjfw   0.73744
gfz2013jlli   1.28350
gfz2013jobl   0.45828
gfz2013jpir  -0.03949
gfz2013jtsg  -0.04457
gfz2013jzfz  -0.47747
gfz2013kbbg   0.07610
gfz2013kbbn   0.43110
gfz2013kbkp  -0.47992
gfz2013kcdb  -0.17574
gfz2013kjgh   0.06829
gfz2013kpcb  -0.40038
gfz2013kqab  -0.01145
gfz2013kslp   0.34815
gfz2013kxlr   0.01435
gfz2013kxof   0.89312
gfz2013lbod   0.59302
gfz2013lbvl  -0.12609
gfz2013lcrk   1.32910
gfz2013lgvf  -0.02445
gfz2013ljdu   0.41525
gfz2013ljwt   0.23318
gfz2013lnne  -0.57047
gfz2013lnts   0.68158
gfz2013lqjj   0.09337
gfz2013lvxe   0.00458
gfz2013lwtr  -0.36219
gfz2013lxed   0.42549
gfz2013mbna  -0.62231
gfz2013mdnp   0.10247
gfz2013mimp   0.71421
gfz2013mktp   0.30996
gfz2013mvgq  -0.52563
gfz2013mynb  -0.30603
gfz2013mzaw   0.32100
gfz2013nhkw  -0.88901
gfz2013njjh  -0.26894
gfz2013njwj   0.22868
gfz2013nkgd   1.64540
gfz2013ntfc   0.50377
gfz2013obof  -0.19940
gfz2013oeni  -0.07327
gfz2013ohnj   0.06579
gfz2013oizq  -0.44459
gfz2013ojza   0.33406
gfz2013okac   0.37788
gfz2013pkmz  -0.35768
gfz2013pqkp  -0.66840
gfz2013puiy   0.26048
gfz2013pvsa  -0.29608
gfz2013qaex   0.90758
gfz2013qaov  -0.91206
gfz2013qapj   0.12420
gfz2013qdno   0.55414
gfz2013qdpv   0.29128
gfz2013qigb   0.11488
gfz2013qmkt   0.05189
gfz2013qnqr   0.54763
gfz2013qntl   0.18842
gfz2013quyn   0.15252
gfz2013qxof  -0.31126
gfz2013rdmn  -0.69360
gfz2013rfik   0.01991
gfz2013rgcc  -0.09371
gfz2013rhbx  -0.20420
gfz2013rnsa   0.09920
gfz2013rocs   0.60631
gfz2013rofg   0.23088
gfz2013ryph   0.03910
gfz2013sbsl  -0.07647
gfz2013sbsp  -0.39875
gfz2013sdkg   0.39189
gfz2013skay   0.34322
gfz2013stou   1.04110
gfz2013stup  -0.48596
gfz2013suck   1.15950
gfz2013taeb  -0.72437
gfz2013tcju   0.22461
gfz2013tdsx  -0.23279
gfz2013tert  -0.66675
gfz2013tgyb   0.52161
gfz2013tjub  -0.64394
gfz2013tmnf   1.73350
gfz2013tnrp   0.41289
gfz2013tpwl   0.18304
gfz2013trsq   0.36326
gfz2013ttmk  -0.17129
gfz2013ubgt   0.22007
gfz2013udtw   0.65406
gfz2013ujze  -0.38483
gfz2013unuv   0.37168
gfz2013upqj  -0.23146
gfz2013urla  -0.16568
gfz2013uwxb   0.51271
gfz2013uxzw  -0.28859
gfz2013uzmf   0.35093
gfz2013vdam   0.33600
gfz2013veoz   0.00000
gfz2013veug   0.30149
gfz2013vjrr  -0.23136
gfz2013vldx   0.15461
gfz2013vmrv   0.05786
gfz2013vmsg  -1.62890
gfz2013vmsn  -0.33629
gfz2013vnwa  -0.30281
gfz2013voai   0.59507
gfz2013vojy   0.14986
gfz2013vsdd  -0.23098
gfz2013vvre  -0.12752
gfz2013vwkh   0.29429
gfz2013vzel   0.26289
gfz2013wpns   0.12794
gfz2013wyfl  -0.08782
gfz2013xahp  -0.31703
gfz2013xjmo   0.95409
gfz2013xlic  -0.64333
gfz2013xmzw   0.01974
gfz2013xodn   0.35343
gfz2013xofz  -0.61818
gfz2013xuxr  -0.11103
gfz2013xvps   0.08102
gfz2013yawe  -0.03000
gfz2013yihv   0.41870
gfz2013ykqw   0.72082
gfz2013yktj   1.04850
gfz2013ylxm  -0.12910
gfz2013ymhx   0.61987
gfz2013yodm   0.13929
gfz2013yqtu  -0.64934
gfz2013ytfm  -0.06963
gfz2013yvnj   0.40949
gfz2013yvpn   0.39546
gfz2013yywh   0.27174
gfz2013zedt   0.86828
gfz2013zfbz   0.48839
gfz2013zkta   0.36085
gfz2013zlak   0.17415
gfz2013zpse   0.58850
gfz2013zpwk   0.16627
gfz2014aaae   0.80888
gfz2014aedl   1.15740
gfz2014afbt  -0.31048
gfz2014ajgi   0.51954
gfz2014aluc  -0.47304
gfz2014alzg   0.64599
gfz2014aqax  -1.93070
gfz2014aqop   0.33593
gfz2014ateb   0.86856
gfz2014avmd   0.25471
gfz2014avzp   0.57978
gfz2014ayxf  -0.14346
gfz2014bdju  -0.29141
gfz2014befl  -0.25762
gfz2014bhch   0.02165
gfz2014bkra   0.51247
gfz2014bmqw   0.89878
gfz2014bnea  -0.07821
gfz2014bqpm   0.65310
gfz2014bumr   0.13214
gfz2014bycg   0.03891
gfz2014bztn   2.31130
gfz2014bzus   0.24708
gfz2014cgxj   0.77411
gfz2014cjao   0.48884
gfz2014club   0.55211
gfz2014cncl  -0.46339
gfz2014cokw  -0.28316
gfz2014ctdl   0.11643
gfz2014cvnb   0.31670
gfz2014dbmu   0.45689
gfz2014dggw   0.81913
gfz2014dihl  -2.96550
gfz2014diuu  -0.04956
gfz2014dmrw   0.25570
gfz2014dpps   0.17419
gfz2014dtth  -0.57872
gfz2014dudd   0.17394
gfz2014dwcp   0.70331
gfz2014dykt   0.00748
gfz2014ecor  -0.17653
gfz2014egvg   0.80889
gfz2014eirs   0.53042
gfz2014evyu   0.09107
gfz2014exxj   0.88947
gfz2014eysf  -0.06101
gfz2014faex  -0.54876
gfz2014fbef   0.21176
gfz2014fbli   0.59523
gfz2014fbnr   0.45267
gfz2014fdhk  -0.43907
gfz2014ffqg   1.20580
gfz2014fhki   0.22850
gfz2014flxk  -0.20567
gfz2014fsir   0.01173
gfz2014fsje   0.50610
gfz2014fskh   0.24784
gfz2014fwxt   0.25216
gfz2014fxtv  -0.06288
gfz2014fxuy  -0.13009
gfz2014gbxg  -0.65734
gfz2014gnbw   0.49559
gfz2014gnvp   0.50123
gfz2014gqxg   0.22160
gfz2014gsfc   0.10871
gfz2014gssz   0.23560
gfz2014gypw   0.20089
gfz2014hapg  -0.54201
gfz2014hgjb   1.20180
gfz2014huqh  -0.56732
gfz2014hyea   0.10383
gfz2014hzzf   0.35147
gfz2014iaqm   0.68334
gfz2014iayo   2.10010
gfz2014igrp   0.66603
gfz2014ijsa  -0.40052
gfz2014ined   0.20047
gfz2014inrg   0.90279
gfz2014ipfu   0.41769
gfz2014isjg   0.56558
gfz2014isov  -0.49833
gfz2014iusw   0.63895
gfz2014jarg   0.74635
gfz2014jayh   0.19803
gfz2014jbfp   0.63076
gfz2014jbgm   0.45838
gfz2014jffe   0.96428
