# Nsamples: 414  MAD:  0.454  mean: -0.094  std:  0.775
gfz2010aggj   0.36683
gfz2010aimm  -0.02983
gfz2010aseg  -0.20157
gfz2010azji  -0.30793
gfz2010bkfi   0.14966
gfz2010bqnk   0.28031
gfz2010btme  -3.15600
gfz2010bukb  -0.37929
gfz2010ccwc  -0.04558
gfz2010clbw   0.03354
gfz2010colm   1.98810
gfz2010cphq   0.71363
gfz2010crgy  -0.17347
gfz2010crir  -0.14474
gfz2010cthm   2.64460
gfz2010dask   0.17145
gfz2010djib  -1.03750
gfz2010dmkd  -0.19971
gfz2010drit  -0.09144
gfz2010drml  -0.24302
gfz2010drmq  -0.24302
gfz2010drng  -0.24908
gfz2010drpv  -0.67276
gfz2010drun   0.52094
gfz2010dtyx   0.19571
gfz2010dumv   0.30289
gfz2010eibh  -0.86334
gfz2010ewyj  -0.93179
gfz2010fgbo  -0.22032
gfz2010fopf  -0.16609
gfz2010habf  -0.84667
gfz2010hnuo  -1.23120
gfz2010hueh  -0.48288
gfz2010huzl   0.27955
gfz2010hxan  -0.73659
gfz2010iaay  -0.12862
gfz2010inbs  -0.06391
gfz2010jkrp  -0.84655
gfz2010jlvp   0.22449
gfz2010kcdq   0.50964
gfz2010kcyz   0.00827
gfz2010mdti  -0.07636
gfz2010mpvc  -0.40660
gfz2010mqzz  -0.49603
gfz2010msss  -0.06917
gfz2010nccu   0.06021
gfz2010ngge  -0.32528
gfz2010nlai   0.06588
gfz2010nwbd  -0.02711
gfz2010nwyk  -2.77780
gfz2010ojhe  -0.05223
gfz2010okpc  -2.41080
gfz2010osrl  -0.23668
gfz2010pngv   3.82940
gfz2010qrix  -0.10171
gfz2010qrta   0.34984
gfz2010qzvf  -0.50678
gfz2010rhvu  -1.41070
gfz2010rnqa   0.74953
gfz2010rnwt   1.51430
gfz2010sdfs  -0.67481
gfz2010swqy   0.10604
gfz2010tcgh   0.87747
gfz2010tgmo   0.61284
gfz2010tmba   0.69863
gfz2010tpcj  -0.29273
gfz2010tqyo   0.57797
gfz2010tzlz  -0.64962
gfz2010tzma  -0.34088
gfz2010ugws  -1.16600
gfz2010uhjy  -0.11924
gfz2010upod   0.56936
gfz2010vjac  -0.31350
gfz2010vong  -0.06833
gfz2010wwnq  -0.34230
gfz2010xkbz  -0.19761
gfz2010xnbn  -0.22323
gfz2010xpzq  -0.36446
gfz2010yczp  -0.22423
gfz2010yfdr   0.34288
gfz2010yrex  -0.08875
gfz2010zjun  -0.29243
gfz2011amst   1.32520
gfz2011aqpp  -0.07963
gfz2011bpqm   0.27316
gfz2011bvog  -0.65598
gfz2011byec  -0.21845
gfz2011bygs  -0.16257
gfz2011bygu   0.16468
gfz2011bzio   0.08637
gfz2011cdge  -0.45836
gfz2011cjuz  -0.07434
gfz2011cwzi  -0.66086
gfz2011dabj   0.18686
gfz2011dwae   0.02405
gfz2011fnie  -0.67823
gfz2011fnuk  -0.47849
gfz2011fszl  -0.01263
gfz2011fxmf   0.82287
gfz2011fzcw  -0.45177
gfz2011gaax  -0.28716
gfz2011gnbk  -0.72519
gfz2011gpyr  -0.61597
gfz2011hibi  -0.96979
gfz2011hjof  -0.18086
gfz2011hmnw   3.10170
gfz2011hvzo   0.01784
gfz2011hyct  -0.20998
gfz2011hyuh  -0.08783
gfz2011iamf  -0.62600
gfz2011ibew   0.47189
gfz2011inan   0.64316
gfz2011ioch   1.04460
gfz2011kylu   0.32163
gfz2011lkkf   0.80713
gfz2011mdyq   0.04543
gfz2011mjje  -0.28999
gfz2011mllb  -0.00027
gfz2011nfcz  -0.21250
gfz2011nhby  -0.56660
gfz2011nhvt  -0.76870
gfz2011nkou  -2.70440
gfz2011nlum   0.20170
gfz2011nnda   1.26600
gfz2011nnos   0.07952
gfz2011nsiy   0.42629
gfz2011nuqo  -0.90692
gfz2011ofpj  -0.38921
gfz2011okza   0.78468
gfz2011omxt  -0.12442
gfz2011osmp   0.74499
gfz2011owqa   0.62697
gfz2011paqj  -0.30001
gfz2011pfls  -0.19210
gfz2011pgzk  -0.19079
gfz2011pivq  -1.04070
gfz2011pmuv  -0.40178
gfz2011prrq   0.54078
gfz2011ptgd   0.12413
gfz2011qenl  -0.86588
gfz2011qgvx  -3.30620
gfz2011qklh   3.36760
gfz2011rkau  -0.69564
gfz2011rnny   0.17804
gfz2011rnsp   0.03065
gfz2011rplo  -1.38080
gfz2011scma  -0.83816
gfz2011sfph  -0.00000
gfz2011sqco  -0.09872
gfz2011sqxp   0.29752
gfz2011sskq  -0.42450
gfz2011swfp  -0.07007
gfz2011sxno  -0.41555
gfz2011tsgl   0.03413
gfz2011twpz   0.96296
gfz2011ugbt   2.20010
gfz2011urwz  -0.00000
gfz2011vahy   0.30806
gfz2011vcyx  -0.17298
gfz2011vtzv   0.32178
gfz2011wkyx  -0.26812
gfz2011wngi  -0.28415
gfz2011wwze  -0.31359
gfz2011xwdv   1.04600
gfz2011ykbd   0.88246
gfz2011ymji  -1.12760
gfz2011zghc   0.35974
gfz2011zgxn  -0.34153
gfz2012ahkl   0.66066
gfz2012alti  -0.51523
gfz2012amjx  -0.76448
gfz2012amvs  -0.05884
gfz2012arlo  -0.68262
gfz2012auqr   0.37111
gfz2012beae  -0.29918
gfz2012bolx  -0.46252
gfz2012cksh  -0.51062
gfz2012cmww   0.06017
gfz2012cntu  -0.31235
gfz2012dbgt  -0.06208
gfz2012dejg  -0.22555
gfz2012dleg   0.33733
gfz2012dnig  -0.03374
gfz2012dpem   0.04426
gfz2012drak  -0.48264
gfz2012dtdt  -0.28610
gfz2012dtlu  -0.23686
gfz2012dttl  -0.28101
gfz2012dtvr   0.10524
gfz2012duvf   5.60020
gfz2012dysu  -0.85696
gfz2012dzot  -0.27234
gfz2012ebff   0.34553
gfz2012ebhf   0.31865
gfz2012enrg   0.03421
gfz2012erds   1.05300
gfz2012evav   0.00000
gfz2012eyti   0.13905
gfz2012fhaf   0.21218
gfz2012foih  -1.34590
gfz2012fyny  -0.48423
gfz2012gdye   0.12835
gfz2012ghiv   0.13684
gfz2012gjtd   0.05919
gfz2012gmsr  -0.52703
gfz2012gnow  -0.14604
gfz2012gvxc   0.31587
gfz2012heih  -0.17853
gfz2012hwph  -0.30446
gfz2012iijk  -0.89250
gfz2012izke  -0.36741
gfz2012jlez  -0.53571
gfz2012jopi   1.00820
gfz2012kadi   1.04800
gfz2012kmbo  -0.00564
gfz2012kmmz   0.15966
gfz2012kstg   0.35988
gfz2012ldjj   0.03142
gfz2012lwha   1.39530
gfz2012lyyr  -0.08237
gfz2012moul   1.10720
gfz2012movu   0.61804
gfz2012mwhe  -0.14264
gfz2012phns  -0.40066
gfz2012pmuj  -0.14690
gfz2012ppcq  -0.13056
gfz2012ppsw   1.14630
gfz2012pvve  -0.54138
gfz2012qbbt  -0.57174
gfz2012qfah  -0.00000
gfz2012qfov  -0.60416
gfz2012qibe  -0.54028
gfz2012qmhz  -0.69247
gfz2012qpoc   0.53611
gfz2012rknz   0.51951
gfz2012rnbw  -0.51482
gfz2012rnml   0.70402
gfz2012rzwp  -0.28839
gfz2012sbix  -0.40006
gfz2012sfao  -1.92670
gfz2012sjox  -0.71633
gfz2012socz  -0.52412
gfz2012sqsc   0.06979
gfz2012ssnb  -0.34075
gfz2012suqd   0.33608
gfz2012svwz  -0.12715
gfz2012tjih  -0.84947
gfz2012tsdz  -0.08721
gfz2012uhtc  -0.13035
gfz2012ukzg  -0.40904
gfz2012ulei   0.02179
gfz2012utdu  -0.31910
gfz2012uvoa  -0.66205
gfz2012uzww  -0.51351
gfz2012vaqd  -0.38713
gfz2012vile  -0.75445
gfz2012vitw  -0.44776
gfz2012vurc   0.37998
gfz2012wgmg   2.41530
gfz2012wkki   0.23409
gfz2012wowu  -1.18090
gfz2012wysg   0.12502
gfz2012xask  -0.43894
gfz2012xcsf   0.38180
gfz2012xkln   0.17464
gfz2012xlfo  -0.57242
gfz2012xncm  -0.65986
gfz2012xwgb  -2.61440
gfz2012xxdj  -0.38867
gfz2012yegw  -0.59375
gfz2012yncm  -0.58426
gfz2012yzcf   0.18253
gfz2012zhyz  -0.13170
gfz2012zkhu  -0.59288
gfz2013adih  -0.59932
gfz2013agmt  -0.68379
gfz2013atak  -0.18007
gfz2013bwgw  -0.44049
gfz2013cyvx  -0.53877
gfz2013delq  -0.20591
gfz2013dftb  -0.20101
gfz2013dfvx  -0.41716
gfz2013djfi   0.30655
gfz2013dngd  -0.44676
gfz2013dwsp   0.51605
gfz2013dzvr  -0.53661
gfz2013efct  -0.28150
gfz2013efys  -0.30203
gfz2013exow   0.45489
gfz2013fnpa  -0.20279
gfz2013fthi  -0.47947
gfz2013fulo  -0.60162
gfz2013fwbm  -0.27711
gfz2013fxyr   0.08287
gfz2013gffe   0.17026
gfz2013gsnl  -0.35523
gfz2013havw  -0.28659
gfz2013hbmi  -0.50873
gfz2013hbwy   1.44500
gfz2013hdbp   1.55400
gfz2013hduf  -0.72645
gfz2013hjtt  -0.82123
gfz2013hqaa   0.25608
gfz2013irme  -0.38707
gfz2013iuyv   0.51746
gfz2013iwzn  -0.39532
gfz2013jfcn  -0.37307
gfz2013jhog  -0.05499
gfz2013jqsk  -0.01795
gfz2013kbbg   1.53200
gfz2013kcdb  -0.16022
gfz2013kjgh  -0.43812
gfz2013kpcb   0.52734
gfz2013kqab  -0.10206
gfz2013ksaz  -0.38311
gfz2013kslp  -0.04126
gfz2013ljdu   0.42038
gfz2013mbna  -0.14611
gfz2013mdxj  -0.58633
gfz2013mimp   0.17917
gfz2013mvgq  -0.58310
gfz2013mzaw  -0.16975
gfz2013njwj   0.82444
gfz2013ntfc  -0.81765
gfz2013ohnj  -0.44871
gfz2013oizq  -0.24396
gfz2013opkx  -0.41076
gfz2013ortl   0.07842
gfz2013oruq   0.03390
gfz2013otuj  -0.19076
gfz2013oywh  -0.28771
gfz2013phhi  -1.79390
gfz2013pkmz  -0.20863
gfz2013pvsa  -0.38837
gfz2013qdno   0.08848
gfz2013qdpv  -0.21974
gfz2013qigb   0.29601
gfz2013qnqr  -0.11003
gfz2013qoak  -0.02988
gfz2013qxof  -0.34794
gfz2013rfik   0.17487
gfz2013rnsa  -0.15018
gfz2013rocs  -0.13019
gfz2013rofg  -0.14730
gfz2013ryph  -0.76439
gfz2013sdkg  -0.05822
gfz2013skay  -0.17521
gfz2013stup   0.74482
gfz2013suck   0.58310
gfz2013taeb  -1.14090
gfz2013tert  -0.06513
gfz2013tgyb  -0.11296
gfz2013ubgt   0.26258
gfz2013udtw   0.07611
gfz2013unuv  -0.76463
gfz2013upqj   0.10238
gfz2013uwxb  -0.85201
gfz2013uxzw   0.25798
gfz2013uzmf  -0.19002
gfz2013veug  -0.34547
gfz2013vjrr  -0.13402
gfz2013vmsg  -1.28680
gfz2013vnwa  -0.49883
gfz2013voai  -0.00000
gfz2013vojy   0.14560
gfz2013vsdd   0.67102
gfz2013wyfl  -0.73435
gfz2013xofz  -0.20156
gfz2013xvps  -0.08299
gfz2013yawe  -0.08961
gfz2013yktj  -0.45225
gfz2013ymhx   0.39161
gfz2013yqtu  -0.44300
gfz2013yvnj  -0.32956
gfz2013yywh  -0.75486
gfz2013zedt   0.36661
gfz2013zfbz  -0.04371
gfz2013zlak  -0.63698
gfz2013zpse   0.67131
gfz2014aedl   0.16424
gfz2014aqop  -1.53040
gfz2014ayxf  -0.38647
gfz2014bdju  -1.13040
gfz2014bkra   0.01258
gfz2014bqpm   0.46983
gfz2014bzus  -0.63775
gfz2014cgxj   0.26608
gfz2014cjao   0.05025
gfz2014cokw  -0.53476
gfz2014ctdl  -0.38678
gfz2014dbmu  -0.22660
gfz2014eirs  -0.02089
gfz2014eoay   0.54780
gfz2014etqu  -0.47418
gfz2014eysf  -0.22215
gfz2014fbli  -0.35565
gfz2014ffqg   0.59405
gfz2014fjfz   0.57312
gfz2014fsir  -0.29352
gfz2014fsje   0.17554
gfz2014fskh  -0.04108
gfz2014gnbw  -0.01481
gfz2014gnvp  -0.03235
gfz2014gqxg  -0.48699
gfz2014gypw  -0.21122
gfz2014hgjb   0.74448
gfz2014huqh   0.07712
gfz2014hzzf   0.27554
gfz2014iaqm  -0.26342
gfz2014ijsa   0.14355
gfz2014ipfu   0.08577
gfz2014iusw   0.12322
gfz2014jarg  -0.17834
gfz2014jayh   0.08559
