%!PS-Adobe-3.0
%%BoundingBox: 0 0 595 842
%%HiResBoundingBox: 0 0 595 842
%%Title: GMT v5.1.1 (r12968) [64-bit] Document from pshistogram
%%Creator: GMT5
%%For: nooshiri
%%DocumentNeededResources: font Helvetica
%%CreationDate: Sun Nov  1 21:06:22 2015
%%LanguageLevel: 2
%%DocumentData: Clean7Bit
%%Orientation: Portrait
%%Pages: 1
%%EndComments

%%BeginProlog
250 dict begin
/! {bind def} bind def
/# {load def}!
/A /setgray #
/B /setdash #
/C /setrgbcolor #
/D /rlineto #
/E {dup stringwidth pop}!
/F /fill #
/G /rmoveto #
/H /sethsbcolor #
/I /setpattern #
/K /setcmykcolor #
/L /lineto #
/M /moveto #
/N /newpath #
/P /closepath #
/R /rotate #
/S /stroke #
/T /translate #
/U /grestore #
/V /gsave #
/W /setlinewidth #
/Y {findfont exch scalefont setfont}!
/Z /show #
/FP {true charpath flattenpath}!
/MU {matrix setmatrix}!
/MS {/SMat matrix currentmatrix def}!
/MR {SMat setmatrix}!
/edef {exch def}!
/FS {/fc edef /fs {V fc F U} def}!
/FQ {/fs {} def}!
/O0 {/os {N} def}!
/O1 {/os {P S} def}!
/FO {fs os}!
/Sa {M MS dup 0 exch G 0.726542528 mul -72 R dup 0 D 4 {72 R dup 0 D -144 R dup 0 D} repeat pop MR FO}!
/Sb {M dup 0 D exch 0 exch D neg 0 D FO}!
/SB {MS T /BoxR edef /BoxW edef /BoxH edef BoxR 0 M
  BoxW 0 BoxW BoxH BoxR arct BoxW BoxH 0 BoxH BoxR arct 0 BoxH 0 0 BoxR arct 0 0 BoxW 0 BoxR arct MR FO}!
/Sc {N 3 -1 roll 0 360 arc FO}!
/Sd {M 4 {dup} repeat 0 G neg dup dup D exch D D FO}!
/Se {N MS T R scale 0 0 1 0 360 arc MR FO}!
/Sg {M MS 22.5 R dup 0 exch G -22.5 R 0.765366865 mul dup 0 D 6 {-45 R dup 0 D} repeat pop MR FO}!
/Sh {M MS dup 0 G -120 R dup 0 D 4 {-60 R dup 0 D} repeat pop MR FO}!
/Si {M MS dup neg 0 exch G 60 R 1.732050808 mul dup 0 D 120 R 0 D MR FO}!
/Sj {M MS R dup -2 div 2 index -2 div G dup 0 D exch 0 exch D neg 0 D MR FO}!
/Sn {M MS dup 0 exch G -36 R 1.175570505 mul dup 0 D 3 {-72 R dup 0 D} repeat pop MR FO}!
/Sp {N 3 -1 roll 0 360 arc fs N}!
/SP {M {D} repeat FO}!
/Sr {M dup -2 div 2 index -2 div G dup 0 D exch 0 exch D neg 0 D FO}!
/SR {MS T /BoxR edef /BoxW edef /BoxH edef BoxR BoxW -2 div BoxH -2 div T BoxR 0 M
  BoxW 0 BoxW BoxH BoxR arct BoxW BoxH 0 BoxH BoxR arct 0 BoxH 0 0 BoxR arct 0 0 BoxW 0 BoxR arct MR FO}!
/Ss {M 1.414213562 mul dup dup dup -2 div dup G 0 D 0 exch D neg 0 D FO}!
/St {M MS dup 0 exch G -60 R 1.732050808 mul dup 0 D -120 R 0 D MR FO}!
/SV {0 exch M 0 D D D D D 0 D FO}!
/Sv {0 0 M D D 0 D D D D D 0 D D FO}!
/Sw {2 copy M 5 2 roll arc FO}!
/Sx {M 1.414213562 mul 5 {dup} repeat -2 div dup G D neg 0 G neg D S}!
/Sy {M dup 0 exch G dup -2 mul dup 0 exch D S}!
/S+ {M dup 0 G dup -2 mul dup 0 D exch dup G 0 exch D S}!
/S- {M dup 0 G dup -2 mul dup 0 D S}!
/sw {stringwidth pop}!
/sh {V MU 0 0 M FP pathbbox N 4 1 roll pop pop pop U}!
/sd {V MU 0 0 M FP pathbbox N pop pop exch pop U}!
/sH {V MU 0 0 M FP pathbbox N exch pop exch sub exch pop U}!
/sb {E exch sh}!
/bl {}!
/bc {E -2 div 0 G}!
/br {E neg 0 G}!
/ml {dup 0 exch sh -2 div G}!
/mc {dup E -2 div exch sh -2 div G}!
/mr {dup E neg exch sh -2 div G}!
/tl {dup 0 exch sh neg G}!
/tc {dup E -2 div exch sh neg G}!
/tr {dup E neg exch sh neg G}!
/mx {2 copy lt {exch} if pop}!
/PSL_xorig 0 def /PSL_yorig 0 def
/TM {2 copy T PSL_yorig add /PSL_yorig edef PSL_xorig add /PSL_xorig edef}!
/PSL_reencode {findfont dup length dict begin
  {1 index /FID ne {def}{pop pop} ifelse} forall
  exch /Encoding edef currentdict end definefont pop
}!
/PSL_eps_begin {
  /PSL_eps_state save def
  /PSL_dict_count countdictstack def
  /PSL_op_count count 1 sub def
  userdict begin
  /showpage {} def
  0 setgray 0 setlinecap 1 setlinewidth
  0 setlinejoin 10 setmiterlimit [] 0 setdash newpath
  /languagelevel where
  {pop languagelevel 1 ne {false setstrokeadjust false setoverprint} if} if
}!
/PSL_eps_end {
  count PSL_op_count sub {pop} repeat
  countdictstack PSL_dict_count sub {end} repeat
  PSL_eps_state restore
}!
/PSL_transp {
  /.setopacityalpha where {pop .setblendmode .setopacityalpha}{
  /pdfmark where {pop [ /BM exch /CA exch dup /ca exch /SetTransparency pdfmark}
  {pop pop} ifelse} ifelse
}!
/ISOLatin1+_Encoding [
/.notdef	/.notdef	/.notdef	/.notdef	/.notdef	/.notdef	/.notdef	/.notdef
/.notdef	/.notdef	/.notdef	/.notdef	/.notdef	/.notdef	/.notdef	/.notdef
/.notdef	/.notdef	/.notdef	/.notdef	/.notdef	/.notdef	/.notdef	/.notdef
/.notdef	/bullet		/ellipsis	/trademark	/emdash		/endash		/fi		/zcaron
/space		/exclam		/quotedbl	/numbersign	/dollar		/percent	/ampersand	/quoteright
/parenleft	/parenright	/asterisk	/plus		/comma		/minus		/period		/slash
/zero		/one		/two		/three		/four		/five		/six		/seven
/eight		/nine		/colon		/semicolon	/less		/equal		/greater	/question
/at		/A		/B		/C		/D		/E		/F		/G
/H		/I		/J		/K		/L		/M		/N		/O
/P		/Q		/R		/S		/T		/U		/V		/W
/X		/Y		/Z		/bracketleft	/backslash	/bracketright	/asciicircum	/underscore
/quoteleft	/a		/b		/c 		/d		/e		/f		/g
/h		/i		/j		/k		/l		/m		/n		/o
/p		/q		/r		/s		/t		/u		/v		/w
/x		/y		/z		/braceleft	/bar		/braceright	/asciitilde	/scaron
/OE		/dagger		/daggerdbl	/Lslash		/fraction	/guilsinglleft	/Scaron		/guilsinglright
/oe		/Ydieresis	/Zcaron		/lslash		/perthousand	/quotedblbase	/quotedblleft	/quotedblright
/dotlessi	/grave		/acute		/circumflex	/tilde		/macron		/breve		/dotaccent
/dieresis	/quotesinglbase	/ring		/cedilla	/quotesingle	/hungarumlaut	/ogonek		/caron
/space		/exclamdown	/cent		/sterling	/currency	/yen		/brokenbar	/section
/dieresis	/copyright	/ordfeminine	/guillemotleft	/logicalnot	/hyphen		/registered	/macron
/degree		/plusminus	/twosuperior	/threesuperior	/acute		/mu		/paragraph	/periodcentered
/cedilla	/onesuperior	/ordmasculine	/guillemotright	/onequarter	/onehalf	/threequarters	/questiondown
/Agrave		/Aacute		/Acircumflex	/Atilde		/Adieresis	/Aring		/AE		/Ccedilla
/Egrave		/Eacute		/Ecircumflex	/Edieresis	/Igrave		/Iacute		/Icircumflex	/Idieresis
/Eth		/Ntilde		/Ograve		/Oacute		/Ocircumflex	/Otilde		/Odieresis	/multiply
/Oslash		/Ugrave		/Uacute		/Ucircumflex	/Udieresis	/Yacute		/Thorn		/germandbls
/agrave		/aacute		/acircumflex	/atilde		/adieresis	/aring		/ae		/ccedilla
/egrave		/eacute		/ecircumflex	/edieresis	/igrave		/iacute		/icircumflex	/idieresis
/eth		/ntilde		/ograve		/oacute		/ocircumflex	/otilde		/odieresis	/divide
/oslash		/ugrave		/uacute		/ucircumflex	/udieresis	/yacute		/thorn		/ydieresis
] def
/PSL_font_encode 0 0 0 0 0 0 0 0 0 0 0 0 0 0 0 0 0 0 0 0 0 0 0 0 0 0 0 0 0 0 0 0 0 0 0 0 0 0 0 39 array astore def
/F0 {/Helvetica Y}!
/F1 {/Helvetica-Bold Y}!
/F2 {/Helvetica-Oblique Y}!
/F3 {/Helvetica-BoldOblique Y}!
/F4 {/Times-Roman Y}!
/F5 {/Times-Bold Y}!
/F6 {/Times-Italic Y}!
/F7 {/Times-BoldItalic Y}!
/F8 {/Courier Y}!
/F9 {/Courier-Bold Y}!
/F10 {/Courier-Oblique Y}!
/F11 {/Courier-BoldOblique Y}!
/F12 {/Symbol Y}!
/F13 {/AvantGarde-Book Y}!
/F14 {/AvantGarde-BookOblique Y}!
/F15 {/AvantGarde-Demi Y}!
/F16 {/AvantGarde-DemiOblique Y}!
/F17 {/Bookman-Demi Y}!
/F18 {/Bookman-DemiItalic Y}!
/F19 {/Bookman-Light Y}!
/F20 {/Bookman-LightItalic Y}!
/F21 {/Helvetica-Narrow Y}!
/F22 {/Helvetica-Narrow-Bold Y}!
/F23 {/Helvetica-Narrow-Oblique Y}!
/F24 {/Helvetica-Narrow-BoldOblique Y}!
/F25 {/NewCenturySchlbk-Roman Y}!
/F26 {/NewCenturySchlbk-Italic Y}!
/F27 {/NewCenturySchlbk-Bold Y}!
/F28 {/NewCenturySchlbk-BoldItalic Y}!
/F29 {/Palatino-Roman Y}!
/F30 {/Palatino-Italic Y}!
/F31 {/Palatino-Bold Y}!
/F32 {/Palatino-BoldItalic Y}!
/F33 {/ZapfChancery-MediumItalic Y}!
/F34 {/ZapfDingbats Y}!
/F35 {/Ryumin-Light-EUC-H Y}!
/F36 {/Ryumin-Light-EUC-V Y}!
/F37 {/GothicBBB-Medium-EUC-H Y}!
/F38 {/GothicBBB-Medium-EUC-V Y}!
/PSL_pathtextdict 26 dict def
/PSL_pathtext
  {PSL_pathtextdict begin
    /textheight exch def
    /just exch def
    /offset exch def
    /str exch def
    /pathdist 0 def
    /setdist offset def
    /charcount 0 def
    /justy just 4 idiv textheight mul 2 div neg def
    V flattenpath
	{movetoproc} {linetoproc}
	{curvetoproc} {closepathproc}
	pathforall
    U N
    end
  } def
PSL_pathtextdict begin
/movetoproc
  { /newy exch def /newx exch def
    /firstx newx def /firsty newy def
    /ovr 0 def
    newx newy transform
    /cpy exch def /cpx exch def
  } def
/linetoproc
  { /oldx newx def /oldy newy def
    /newy exch def /newx exch def
    /dx newx oldx sub def
    /dy newy oldy sub def
    /dist dx dup mul dy dup mul add sqrt def
    dist 0 ne
    { /dsx dx dist div ovr mul def
      /dsy dy dist div ovr mul def
      oldx dsx add oldy dsy add transform
      /cpy exch def /cpx exch def
      /pathdist pathdist dist add def
      {setdist pathdist le
	  {charcount str length lt
	      {setchar} {exit} ifelse}
	  { /ovr setdist pathdist sub def
	    exit}
	  ifelse
      } loop
    } if
  } def
/curvetoproc
  { (ERROR: No curveto's after flattenpath!)
    print
  } def
/closepathproc
  {firstx firsty linetoproc
    firstx firsty movetoproc
  } def
/setchar
  { /char str charcount 1 getinterval def
    /charcount charcount 1 add def
    /charwidth char stringwidth pop def
    V cpx cpy itransform T
      dy dx atan R
      0 justy M
      char show
      0 justy neg G
      currentpoint transform
      /cpy exch def /cpx exch def
    U /setdist setdist charwidth add def
  } def
end
/PSL_curved_text_labels
{ /bits exch def
  /PSL_clippath bits 1 and 1 eq def
  /PSL_placetext bits 2 and 0 eq def
  /PSL_strokeline bits 4 and 4 eq def
  /PSL_firstcall bits 32 and 32 eq def
  /PSL_lastcall bits 64 and 64 eq def
  /PSL_fillbox bits 128 and 128 eq def
  /PSL_drawbox bits 256 and 256 eq def
  /PSL_n1 PSL_n 1 sub def
  /PSL_m1 PSL_m 1 sub def
  /PSL_usebox PSL_fillbox PSL_drawbox or def
  PSL_CT_calcstringwidth
  PSL_CT_calclinedist
  PSL_CT_addcutpoints
  PSL_clippath PSL_firstcall and
  {clipsave N clippath} if
  PSL_setlinepen
  /PSL_nn1 PSL_nn 1 sub def
  /n 0 def
  /k 0 def
  /j 0 def
  /PSL_seg 0 def
  /PSL_xp PSL_nn array def
  /PSL_yp PSL_nn array def
  PSL_xp 0 PSL_xx 0 get put
  PSL_yp 0 PSL_yy 0 get put
  1 1 PSL_nn1
  { /i exch def
    /node_type PSL_kind i get def
    /j j 1 add def
    PSL_xp j PSL_xx i get put
    PSL_yp j PSL_yy i get put
    node_type 1 eq
    {n 0 eq
      {PSL_CT_drawline}
      {	PSL_CT_reversepath
	PSL_CT_textline} ifelse
      /j 0 def
      PSL_xp j PSL_xx i get put
      PSL_yp j PSL_yy i get put
    } if
  } for
  n 0 eq {PSL_CT_drawline} if
  PSL_lastcall
  {PSL_clippath
    {PSL_clip} if N
  } if
} def
/PSL_CT_textline
{PSL_placetext
  {PSL_clippath
    {PSL_CT_clippath} {PSL_CT_placelabel} ifelse
  } if
  /n 0 def /k k 1 add def PSL_setlinepen
} def
/PSL_CT_calcstringwidth
{ /PSL_width PSL_m array def
  0 1 PSL_m1
  { /i exch def
    PSL_width i PSL_str i get stringwidth pop put
  } for
} def
/PSL_CT_calclinedist
{ /PSL_newx PSL_x 0 get def
  /PSL_newy PSL_y 0 get def
  /dist 0.0 def
  /PSL_dist PSL_n array def
  PSL_dist 0 0.0 put
  1 1 PSL_n1
  { /i exch def
    /PSL_oldx PSL_newx def
    /PSL_oldy PSL_newy def
    /PSL_newx PSL_x i get def
    /PSL_newy PSL_y i get def
    /dx PSL_newx PSL_oldx sub def
    /dy PSL_newy PSL_oldy sub def
    /dist dist dx dx mul dy dy mul add sqrt add def
    PSL_dist i dist put
  } for
} def
/PSL_CT_addcutpoints
{ /k 0 def
  /PSL_nc PSL_m 2 mul 1 add def
  /PSL_cuts PSL_nc array def
  /PSL_nc1 PSL_nc 1 sub def
  0 1 PSL_m1
  { /i exch def
    /dist PSL_dist PSL_node i get get def
    /halfwidth PSL_width i get 2 div PSL_gap_x add def
    PSL_cuts k dist halfwidth sub put
    /k k 1 add def
    PSL_cuts k dist halfwidth add put
    /k k 1 add def
  } for
  PSL_cuts k 100000.0 put
  /PSL_nn PSL_n PSL_m 2 mul add def
  /PSL_xx PSL_nn array def
  /PSL_yy PSL_nn array def
  /PSL_kind PSL_nn array def
  /j 0 def
  /k 0 def
  /dist 0.0 def
  0 1 PSL_n1
  { /i exch def
    /last_dist dist def
    /dist PSL_dist i get def
    k 1 PSL_nc1
    { /kk exch def
      /this_cut PSL_cuts kk get def
      dist this_cut gt
      { /ds dist last_dist sub def
	/f ds 0.0 eq {0.0} {dist this_cut sub ds div} ifelse def
	/i1 i 0 eq {0} {i 1 sub} ifelse def
	PSL_xx j PSL_x i get dup PSL_x i1 get sub f mul sub put
	PSL_yy j PSL_y i get dup PSL_y i1 get sub f mul sub put
	PSL_kind j 1 put
	/j j 1 add def
	/k k 1 add def
      } if
    } for
    dist PSL_cuts k get le
    {PSL_xx j PSL_x i get put PSL_yy j PSL_y i get put
      PSL_kind j 0 put
      /j j 1 add def
    } if
  } for
} def
/PSL_CT_reversepath
{PSL_xp j get PSL_xp 0 get lt
  {0 1 j 2 idiv
    { /left exch def
      /right j left sub def
      /tmp PSL_xp left get def
      PSL_xp left PSL_xp right get put
      PSL_xp right tmp put
      /tmp PSL_yp left get def
      PSL_yp left PSL_yp right get put
      PSL_yp right tmp put
    } for
  } if
} def
/PSL_CT_placelabel
{
  PSL_usebox
  {PSL_CT_clippath
    PSL_fillbox
    {V PSL_setboxrgb fill U} if
    PSL_drawbox
    {PSL_setboxpen S} if N
  } if
  PSL_settxtrgb PSL_CT_placeline PSL_str k get PSL_gap_x PSL_just PSL_height PSL_pathtext
} def
/PSL_CT_clippath
{
  /H PSL_height 2 div PSL_gap_y add def
  /xoff j 1 add array def
  /yoff j 1 add array def
  /angle 0 def
  0 1 j {
    /ii exch def
    /x PSL_xp ii get def
    /y PSL_yp ii get def
    ii 0 eq {
      /x1 PSL_xp 1 get def
      /y1 PSL_yp 1 get def
      /dx x1 x sub def
      /dy y1 y sub def
    }
    { /i1 ii 1 sub def
      /x1 PSL_xp i1 get def
      /y1 PSL_yp i1 get def
      /dx x x1 sub def
      /dy y y1 sub def
    } ifelse
    dx 0.0 ne dy 0.0 ne and
    { /angle dy dx atan 90 add def} if
    /sina angle sin def
    /cosa angle cos def
    xoff ii H cosa mul put
    yoff ii H sina mul put
  } for
  PSL_xp 0 get xoff 0 get add PSL_yp 0 get yoff 0 get add M
  1 1 j {
    /ii exch def
    PSL_xp ii get xoff ii get add PSL_yp ii get yoff ii get add L
  } for
  j -1 0 {
    /ii exch def
    PSL_xp ii get xoff ii get sub PSL_yp ii get yoff ii get sub L
  } for P
} def
/PSL_CT_drawline
{
  /str 20 string def
  PSL_strokeline
  {PSL_CT_placeline PSL_setlinepen S} if
  /PSL_seg PSL_seg 1 add def
  /n 1 def
} def
/PSL_CT_placeline
{PSL_xp 0 get PSL_yp 0 get M
  1 1 j { /ii exch def PSL_xp ii get PSL_yp ii get L} for
} def
/PSL_straight_text_labels
{
  /bits exch def
  /PSL_clippath bits 1 and 0 eq def
  /PSL_rounded bits 16 and 16 eq def
  /PSL_fillbox bits 128 and 128 eq def
  /PSL_drawbox bits 256 and 256 eq def
  /PSL_m1 PSL_m 1 sub def
  /PSL_justx PSL_just 4 mod 1 sub 2 div neg def
  /PSL_justy PSL_just 4 idiv PSL_height mul 2 div neg def
  /PSL_usebox PSL_fillbox PSL_drawbox or def
  PSL_clippath
  {PSL_ST_clippath}
  {PSL_usebox {PSL_ST_clippath} if
    PSL_ST_placelabel
  } ifelse
} def
/PSL_ST_placelabel
{PSL_settxtrgb
  0 1 PSL_m1
  { /k exch def
    /xp PSL_txt_x k get def
    /yp PSL_txt_y k get def
    V PSL_txt_x k get PSL_txt_y k get T
    PSL_angle k get R
    /BoxW PSL_str k get stringwidth pop def
    BoxW PSL_justx mul PSL_justy M
    PSL_str k get show
    U
  } for
} def
/PSL_ST_clippath
{N
  PSL_usebox not {clipsave clippath} if
  PSL_rounded {PSL_ST_clippath_round} {PSL_ST_clippath_rect} ifelse
  PSL_usebox
  {PSL_fillbox
    {V PSL_setboxrgb fill U} if
    PSL_drawbox
    {PSL_setboxpen S} if N
  }
  {PSL_clip
  } ifelse
  N
} def
/PSL_ST_clippath_rect
{
  /BoxH PSL_height PSL_gap_y 2 mul add def
  /DelY BoxH BoxH 0 3 array astore def
  0 1 PSL_m1
  { /k exch def
    /xp PSL_txt_x k get def
    /yp PSL_txt_y k get def
    /MAT PSL_angle k get matrix R def
    /BoxW PSL_str k get stringwidth pop PSL_gap_x 2 mul add def
    /x0 0 BoxW PSL_justx mul add def
    /y0 0 PSL_justy add PSL_gap_y sub def
    /DelX 0 BoxW BoxW 3 array astore def
    x0 y0 MAT transform
    /dy exch def /dx exch def
    xp dx add yp dy add M
    0 1 2
    {
      /ii exch def
      x0 DelX ii get add y0 DelY ii get add MAT transform
      /dy exch def /dx exch def
      xp dx add yp dy add L
    } for P
  } for
} def
/PSL_ST_clippath_round
{
  /PSL_justy2 PSL_just 4 idiv 2 div neg def
  /BoxR PSL_gap_x PSL_gap_y lt {PSL_gap_x} {PSL_gap_y} ifelse def
  /BoxH PSL_height PSL_gap_y 2 mul add def
  /y0 PSL_height PSL_gap_y 2 mul add PSL_justy2 mul def
  0 1 PSL_m1
  { /k exch def
    /xp PSL_txt_x k get def
    /yp PSL_txt_y k get def
    /BoxW PSL_str k get stringwidth pop PSL_gap_x 2 mul add def
    /x0 BoxW PSL_justx mul def
    xp yp T PSL_angle k get R x0 y0 T
    BoxR 0 M
    BoxW 0 BoxW BoxH BoxR arct BoxW BoxH 0 BoxH BoxR arct 0 BoxH 0 0 BoxR arct 0 0 BoxW 0 BoxR arct P
    x0 neg y0 neg T PSL_angle k get neg R xp neg yp neg T
  } for
} def
/PSL_nclip 0 def
/PSL_clip {clip /PSL_nclip PSL_nclip 1 add def} def
/PSL_eoclip {eoclip /PSL_nclip PSL_nclip 1 add def} def
/PSL_cliprestore {cliprestore /PSL_nclip PSL_nclip 1 sub def} def
%%EndProlog

%%BeginSetup
/PSLevel /languagelevel where {pop languagelevel} {1} ifelse def
PSLevel 1 gt { << /PageSize [595 842] /ImagingBBox null >> setpagedevice } if
%%EndSetup

%%Page: 1 1

%%BeginPageSetup
V 0.06 0.06 scale
%%EndPageSetup

/PSL_page_xsize 9917 def
/PSL_page_ysize 14033 def
0 A
FQ
O0
2598 8031 TM

% PostScript produced by:
%%GMT: pshistogram -R-10/10/0/30 -JX3.6i/1.8i -W0.2 -Z1 -Lthin,0 -GDARKGRAY -Bpya10f5+lFrequency+u% -Bpxa2f1 --FONT_LABEL=18p -BWS -P -X5.5 -Y17 -K
%%PROJ: xy -10.00000000 10.00000000 0.00000000 30.00000000 -10.000 10.000 0.000 30.000 +xy +a=6378137.000 +b=6356752.314245
%%BeginObject PSL_Layer_1
0 setlinecap
0 setlinejoin
3.32551 setmiterlimit
clipsave
0 0 M
4320 0 D
0 2160 D
-4320 0 D
PSL_eoclip N
12 W
{0.663 A} FS
O1
-43 0 0 10 43 0 3 864 0 SP
-43 0 0 20 43 0 3 1037 0 SP
-43 0 0 10 43 0 3 1123 0 SP
-44 0 0 30 44 0 3 1166 0 SP
-43 0 0 30 43 0 3 1253 0 SP
-43 0 0 60 43 0 3 1296 0 SP
-43 0 0 50 43 0 3 1339 0 SP
-44 0 0 70 44 0 3 1382 0 SP
-43 0 0 171 43 0 3 1426 0 SP
-43 0 0 211 43 0 3 1469 0 SP
-43 0 0 362 43 0 3 1512 0 SP
-43 0 0 533 43 0 3 1555 0 SP
-44 0 0 644 44 0 3 1598 0 SP
-43 0 0 774 43 0 3 1642 0 SP
-43 0 0 1026 43 0 3 1685 0 SP
-43 0 0 784 43 0 3 1728 0 SP
-43 0 0 714 43 0 3 1771 0 SP
-44 0 0 473 44 0 3 1814 0 SP
-43 0 0 342 43 0 3 1858 0 SP
-43 0 0 231 43 0 3 1901 0 SP
-43 0 0 111 43 0 3 1944 0 SP
-43 0 0 101 43 0 3 1987 0 SP
-44 0 0 111 44 0 3 2030 0 SP
-43 0 0 70 43 0 3 2074 0 SP
-43 0 0 40 43 0 3 2117 0 SP
-43 0 0 50 43 0 3 2160 0 SP
-43 0 0 30 43 0 3 2203 0 SP
-44 0 0 20 44 0 3 2246 0 SP
-43 0 0 20 43 0 3 2290 0 SP
-43 0 0 10 43 0 3 2333 0 SP
-43 0 0 10 43 0 3 2419 0 SP
-43 0 0 10 43 0 3 2506 0 SP
-43 0 0 10 43 0 3 2549 0 SP
-43 0 0 30 43 0 3 2635 0 SP
-43 0 0 20 43 0 3 2765 0 SP
-43 0 0 10 43 0 3 3370 0 SP
PSL_cliprestore
2 setlinecap
/MM {neg exch M} def
/PSL_A0_y 83 def
/PSL_A1_y 0 def
25 W
0 2160 M 0 -2160 D S
8 W
0 0 M -83 0 D S
0 720 M -83 0 D S
0 1440 M -83 0 D S
0 2160 M -83 0 D S
/PSL_AH0 0
PSL_font_encode 0 get 0 eq {ISOLatin1+_Encoding /Helvetica /Helvetica PSL_reencode PSL_font_encode 0 1 put} if
200 F0
(0%) sw mx
(10%) sw mx
(20%) sw mx
(30%) sw mx
def
/PSL_A0_y PSL_A0_y 83 add def
0 PSL_A0_y MM
(0%) mr Z
720 PSL_A0_y MM
(10%) mr Z
1440 PSL_A0_y MM
(20%) mr Z
2160 PSL_A0_y MM
(30%) mr Z
/PSL_A0_y PSL_A0_y PSL_AH0 add def
0 360 M -42 0 D S
0 1080 M -42 0 D S
0 1800 M -42 0 D S
/PSL_LH 300 F0
(M) sh def
/PSL_L_y PSL_A0_y PSL_A1_y mx 133 add def
1080 PSL_L_y MM
V 90 R (Frequency) bc Z U
/MM {neg M} def
/PSL_A0_y 83 def
/PSL_A1_y 0 def
25 W
0 0 M 4320 0 D S
8 W
0 0 M 0 -83 D S
432 0 M 0 -83 D S
864 0 M 0 -83 D S
1296 0 M 0 -83 D S
1728 0 M 0 -83 D S
2160 0 M 0 -83 D S
2592 0 M 0 -83 D S
3024 0 M 0 -83 D S
3456 0 M 0 -83 D S
3888 0 M 0 -83 D S
4320 0 M 0 -83 D S
/PSL_AH0 0
200 F0
(-10) sh mx
(-8) sh mx
(-6) sh mx
(-4) sh mx
(-2) sh mx
(0) sh mx
(2) sh mx
(4) sh mx
(6) sh mx
(8) sh mx
(10) sh mx
def
/PSL_A0_y PSL_A0_y 83 add PSL_AH0 add def
0 PSL_A0_y MM
(-10) bc Z
432 PSL_A0_y MM
(-8) bc Z
864 PSL_A0_y MM
(-6) bc Z
1296 PSL_A0_y MM
(-4) bc Z
1728 PSL_A0_y MM
(-2) bc Z
2160 PSL_A0_y MM
(0) bc Z
2592 PSL_A0_y MM
(2) bc Z
3024 PSL_A0_y MM
(4) bc Z
3456 PSL_A0_y MM
(6) bc Z
3888 PSL_A0_y MM
(8) bc Z
4320 PSL_A0_y MM
(10) bc Z
216 0 M 0 -42 D S
648 0 M 0 -42 D S
1080 0 M 0 -42 D S
1512 0 M 0 -42 D S
1944 0 M 0 -42 D S
2376 0 M 0 -42 D S
2808 0 M 0 -42 D S
3240 0 M 0 -42 D S
3672 0 M 0 -42 D S
4104 0 M 0 -42 D S
/PSL_LH 0 def /PSL_L_y PSL_A0_y PSL_A1_y mx def
0 setlinecap
%%EndObject
0 A
FQ
O0
0 0 TM

% PostScript produced by:
%%GMT: pstext -R-10/10/0/30 -JX3.6i/1.8i -F+f14,4,MEDIUMBLUE+jTL -N -O -K
%%PROJ: xy -10.00000000 10.00000000 0.00000000 30.00000000 -10.000 10.000 0.000 30.000 +xy +a=6378137.000 +b=6356752.314245
%%BeginObject PSL_Layer_2
0 setlinecap
0 setlinejoin
3.32551 setmiterlimit
0 0 0.804 C
432 2160 M PSL_font_encode 4 get 0 eq {ISOLatin1+_Encoding /Times-Roman /Times-Roman PSL_reencode PSL_font_encode 4 1 put} if
233 F4
(Initial Locations) tl Z
%%EndObject
0 A
FQ
O0
0 0 TM

% PostScript produced by:
%%GMT: pstext -R-10/10/0/30 -JX3.6i/1.8i -F+f14,4,MEDIUMBLUE+jTL -N -O -K
%%PROJ: xy -10.00000000 10.00000000 0.00000000 30.00000000 -10.000 10.000 0.000 30.000 +xy +a=6378137.000 +b=6356752.314245
%%BeginObject PSL_Layer_3
0 setlinecap
0 setlinejoin
3.32551 setmiterlimit
0 0 0.804 C
3024 2160 M PSL_font_encode 4 get 0 eq {ISOLatin1+_Encoding /Times-Roman /Times-Roman PSL_reencode PSL_font_encode 4 1 put} if
233 F4
(N=716) tl Z
%%EndObject
0 A
FQ
O0
0 0 TM

% PostScript produced by:
%%GMT: pstext -R-10/10/0/30 -JX3.6i/1.8i -F+f14,4,MEDIUMBLUE+jTL -N -O -K
%%PROJ: xy -10.00000000 10.00000000 0.00000000 30.00000000 -10.000 10.000 0.000 30.000 +xy +a=6378137.000 +b=6356752.314245
%%BeginObject PSL_Layer_4
0 setlinecap
0 setlinejoin
3.32551 setmiterlimit
0 0 0.804 C
3024 1800 M PSL_font_encode 4 get 0 eq {ISOLatin1+_Encoding /Times-Roman /Times-Roman PSL_reencode PSL_font_encode 4 1 put} if
233 F4
(MAD=0.670) tl Z
%%EndObject
0 A
FQ
O0
0 0 TM

% PostScript produced by:
%%GMT: pstext -R-10/10/0/30 -JX3.6i/1.8i -F+f14,4,MEDIUMBLUE+jTL -N -O -K
%%PROJ: xy -10.00000000 10.00000000 0.00000000 30.00000000 -10.000 10.000 0.000 30.000 +xy +a=6378137.000 +b=6356752.314245
%%BeginObject PSL_Layer_5
0 setlinecap
0 setlinejoin
3.32551 setmiterlimit
0 0 0.804 C
3024 1440 M PSL_font_encode 4 get 0 eq {ISOLatin1+_Encoding /Times-Roman /Times-Roman PSL_reencode PSL_font_encode 4 1 put} if
233 F4
V MU 0 0 M 233 F12 (m) FP 233 F4 (=-2.012) FP pathbbox N 4 1 roll pop pop pop U neg 0 exch G
233 F12 (m) Z
233 F4 (=-2.012) Z
%%EndObject
0 A
FQ
O0
0 0 TM

% PostScript produced by:
%%GMT: pstext -R-10/10/0/30 -JX3.6i/1.8i -F+f14,4,MEDIUMBLUE+jTL -N -O -K
%%PROJ: xy -10.00000000 10.00000000 0.00000000 30.00000000 -10.000 10.000 0.000 30.000 +xy +a=6378137.000 +b=6356752.314245
%%BeginObject PSL_Layer_6
0 setlinecap
0 setlinejoin
3.32551 setmiterlimit
0 0 0.804 C
3024 1080 M PSL_font_encode 4 get 0 eq {ISOLatin1+_Encoding /Times-Roman /Times-Roman PSL_reencode PSL_font_encode 4 1 put} if
233 F4
V MU 0 0 M 233 F12 (s) FP 0 82 G 163 F4 (2) FP 0 -82 G 233 F4 (=0.942) FP pathbbox N 4 1 roll pop pop pop U neg 0 exch G
233 F12 (s) Z
0 82 G 163 F4 (2) Z
0 -82 G 233 F4 (=0.942) Z
%%EndObject
0 A
FQ
O0
0 -3120 TM

% PostScript produced by:
%%GMT: pshistogram -R-10/10/0/30 -JX3.6i/1.8i -W0.2 -Z1 -Lthin,0 -GDARKGRAY -Bpya10f5+lFrequency+u% -Bpxa2f1+lTravel-time residual [s] --FONT_LABEL=18p -BWS -Y-2.6i -K -O
%%PROJ: xy -10.00000000 10.00000000 0.00000000 30.00000000 -10.000 10.000 0.000 30.000 +xy +a=6378137.000 +b=6356752.314245
%%BeginObject PSL_Layer_7
0 setlinecap
0 setlinejoin
3.32551 setmiterlimit
clipsave
0 0 M
4320 0 D
0 2160 D
-4320 0 D
PSL_eoclip N
12 W
{0.663 A} FS
O1
-43 0 0 10 43 0 3 1339 0 SP
-44 0 0 20 44 0 3 1598 0 SP
-43 0 0 20 43 0 3 1685 0 SP
-43 0 0 40 43 0 3 1728 0 SP
-43 0 0 30 43 0 3 1771 0 SP
-44 0 0 30 44 0 3 1814 0 SP
-43 0 0 60 43 0 3 1858 0 SP
-43 0 0 171 43 0 3 1901 0 SP
-43 0 0 171 43 0 3 1944 0 SP
-43 0 0 312 43 0 3 1987 0 SP
-44 0 0 613 44 0 3 2030 0 SP
-43 0 0 1086 43 0 3 2074 0 SP
-43 0 0 1277 43 0 3 2117 0 SP
-43 0 0 1026 43 0 3 2160 0 SP
-43 0 0 845 43 0 3 2203 0 SP
-44 0 0 573 44 0 3 2246 0 SP
-43 0 0 261 43 0 3 2290 0 SP
-43 0 0 191 43 0 3 2333 0 SP
-43 0 0 111 43 0 3 2376 0 SP
-43 0 0 40 43 0 3 2419 0 SP
-44 0 0 50 44 0 3 2462 0 SP
-43 0 0 40 43 0 3 2506 0 SP
-43 0 0 30 43 0 3 2549 0 SP
-43 0 0 30 43 0 3 2592 0 SP
-43 0 0 20 43 0 3 2635 0 SP
-44 0 0 10 44 0 3 2678 0 SP
-43 0 0 10 43 0 3 2722 0 SP
-43 0 0 20 43 0 3 2765 0 SP
-43 0 0 10 43 0 3 2808 0 SP
-43 0 0 10 43 0 3 2851 0 SP
-44 0 0 10 44 0 3 2894 0 SP
-43 0 0 30 43 0 3 2981 0 SP
-43 0 0 10 43 0 3 3067 0 SP
-44 0 0 10 44 0 3 3110 0 SP
-43 0 0 10 43 0 3 3197 0 SP
-43 0 0 10 43 0 3 3499 0 SP
PSL_cliprestore
2 setlinecap
/MM {neg exch M} def
/PSL_A0_y 83 def
/PSL_A1_y 0 def
25 W
0 2160 M 0 -2160 D S
8 W
0 0 M -83 0 D S
0 720 M -83 0 D S
0 1440 M -83 0 D S
0 2160 M -83 0 D S
/PSL_AH0 0
PSL_font_encode 0 get 0 eq {ISOLatin1+_Encoding /Helvetica /Helvetica PSL_reencode PSL_font_encode 0 1 put} if
200 F0
(0%) sw mx
(10%) sw mx
(20%) sw mx
(30%) sw mx
def
/PSL_A0_y PSL_A0_y 83 add def
0 PSL_A0_y MM
(0%) mr Z
720 PSL_A0_y MM
(10%) mr Z
1440 PSL_A0_y MM
(20%) mr Z
2160 PSL_A0_y MM
(30%) mr Z
/PSL_A0_y PSL_A0_y PSL_AH0 add def
0 360 M -42 0 D S
0 1080 M -42 0 D S
0 1800 M -42 0 D S
/PSL_LH 300 F0
(M) sh def
/PSL_L_y PSL_A0_y PSL_A1_y mx 133 add def
1080 PSL_L_y MM
V 90 R (Frequency) bc Z U
/MM {neg M} def
/PSL_A0_y 83 def
/PSL_A1_y 0 def
25 W
0 0 M 4320 0 D S
8 W
0 0 M 0 -83 D S
432 0 M 0 -83 D S
864 0 M 0 -83 D S
1296 0 M 0 -83 D S
1728 0 M 0 -83 D S
2160 0 M 0 -83 D S
2592 0 M 0 -83 D S
3024 0 M 0 -83 D S
3456 0 M 0 -83 D S
3888 0 M 0 -83 D S
4320 0 M 0 -83 D S
/PSL_AH0 0
200 F0
(-10) sh mx
(-8) sh mx
(-6) sh mx
(-4) sh mx
(-2) sh mx
(0) sh mx
(2) sh mx
(4) sh mx
(6) sh mx
(8) sh mx
(10) sh mx
def
/PSL_A0_y PSL_A0_y 83 add PSL_AH0 add def
0 PSL_A0_y MM
(-10) bc Z
432 PSL_A0_y MM
(-8) bc Z
864 PSL_A0_y MM
(-6) bc Z
1296 PSL_A0_y MM
(-4) bc Z
1728 PSL_A0_y MM
(-2) bc Z
2160 PSL_A0_y MM
(0) bc Z
2592 PSL_A0_y MM
(2) bc Z
3024 PSL_A0_y MM
(4) bc Z
3456 PSL_A0_y MM
(6) bc Z
3888 PSL_A0_y MM
(8) bc Z
4320 PSL_A0_y MM
(10) bc Z
216 0 M 0 -42 D S
648 0 M 0 -42 D S
1080 0 M 0 -42 D S
1512 0 M 0 -42 D S
1944 0 M 0 -42 D S
2376 0 M 0 -42 D S
2808 0 M 0 -42 D S
3240 0 M 0 -42 D S
3672 0 M 0 -42 D S
4104 0 M 0 -42 D S
/PSL_LH 300 F0
(M) sh def
/PSL_L_y PSL_A0_y PSL_A1_y mx 133 add PSL_LH add def
2160 PSL_L_y MM
(Travel-time residual \[s\]) bc Z
0 setlinecap
%%EndObject
0 A
FQ
O0
0 0 TM

% PostScript produced by:
%%GMT: pstext -R-10/10/0/30 -JX3.6i/1.8i -F+f14,4,RED3+jTL -N -O -K
%%PROJ: xy -10.00000000 10.00000000 0.00000000 30.00000000 -10.000 10.000 0.000 30.000 +xy +a=6378137.000 +b=6356752.314245
%%BeginObject PSL_Layer_8
0 setlinecap
0 setlinejoin
3.32551 setmiterlimit
0.804 0 0 C
432 2160 M PSL_font_encode 4 get 0 eq {ISOLatin1+_Encoding /Times-Roman /Times-Roman PSL_reencode PSL_font_encode 4 1 put} if
233 F4
(Final Locations) tl Z
%%EndObject
0 A
FQ
O0
0 0 TM

% PostScript produced by:
%%GMT: pstext -R-10/10/0/30 -JX3.6i/1.8i -F+f14,4,RED3+jTL -N -O -K
%%PROJ: xy -10.00000000 10.00000000 0.00000000 30.00000000 -10.000 10.000 0.000 30.000 +xy +a=6378137.000 +b=6356752.314245
%%BeginObject PSL_Layer_9
0 setlinecap
0 setlinejoin
3.32551 setmiterlimit
0.804 0 0 C
3024 2160 M PSL_font_encode 4 get 0 eq {ISOLatin1+_Encoding /Times-Roman /Times-Roman PSL_reencode PSL_font_encode 4 1 put} if
233 F4
(N=716) tl Z
%%EndObject
0 A
FQ
O0
0 0 TM

% PostScript produced by:
%%GMT: pstext -R-10/10/0/30 -JX3.6i/1.8i -F+f14,4,RED3+jTL -N -O -K
%%PROJ: xy -10.00000000 10.00000000 0.00000000 30.00000000 -10.000 10.000 0.000 30.000 +xy +a=6378137.000 +b=6356752.314245
%%BeginObject PSL_Layer_10
0 setlinecap
0 setlinejoin
3.32551 setmiterlimit
0.804 0 0 C
3024 1800 M PSL_font_encode 4 get 0 eq {ISOLatin1+_Encoding /Times-Roman /Times-Roman PSL_reencode PSL_font_encode 4 1 put} if
233 F4
(MAD=0.490) tl Z
%%EndObject
0 A
FQ
O0
0 0 TM

% PostScript produced by:
%%GMT: pstext -R-10/10/0/30 -JX3.6i/1.8i -F+f14,4,RED3+jTL -N -O -K
%%PROJ: xy -10.00000000 10.00000000 0.00000000 30.00000000 -10.000 10.000 0.000 30.000 +xy +a=6378137.000 +b=6356752.314245
%%BeginObject PSL_Layer_11
0 setlinecap
0 setlinejoin
3.32551 setmiterlimit
0.804 0 0 C
3024 1440 M PSL_font_encode 4 get 0 eq {ISOLatin1+_Encoding /Times-Roman /Times-Roman PSL_reencode PSL_font_encode 4 1 put} if
233 F4
V MU 0 0 M 233 F12 (m) FP 233 F4 (=0.042) FP pathbbox N 4 1 roll pop pop pop U neg 0 exch G
233 F12 (m) Z
233 F4 (=0.042) Z
%%EndObject
0 A
FQ
O0
0 0 TM

% PostScript produced by:
%%GMT: pstext -R-10/10/0/30 -JX3.6i/1.8i -F+f14,4,RED3+jTL -N -O -K
%%PROJ: xy -10.00000000 10.00000000 0.00000000 30.00000000 -10.000 10.000 0.000 30.000 +xy +a=6378137.000 +b=6356752.314245
%%BeginObject PSL_Layer_12
0 setlinecap
0 setlinejoin
3.32551 setmiterlimit
0.804 0 0 C
3024 1080 M PSL_font_encode 4 get 0 eq {ISOLatin1+_Encoding /Times-Roman /Times-Roman PSL_reencode PSL_font_encode 4 1 put} if
233 F4
V MU 0 0 M 233 F12 (s) FP 0 82 G 163 F4 (2) FP 0 -82 G 233 F4 (=0.682) FP pathbbox N 4 1 roll pop pop pop U neg 0 exch G
233 F12 (s) Z
0 82 G 163 F4 (2) Z
0 -82 G 233 F4 (=0.682) Z
%%EndObject
