# Nsamples: 533  MAD:  0.521  mean:  0.127  variance:  0.589
gfz2010aerk  -0.62739
gfz2010ahqi   0.24825
gfz2010bxxs   0.27067
gfz2010caft  -0.09669
gfz2010cbkg   0.16756
gfz2010cqwl  -0.08021
gfz2010czps   0.04053
gfz2010dlgc  -0.29452
gfz2010eaoy  -0.21625
gfz2010eapn   0.13325
gfz2010eaqe   0.51382
gfz2010eaqx  -0.42266
gfz2010eaqy   0.39962
gfz2010earu  -1.30740
gfz2010easf   0.62370
gfz2010easo   0.08820
gfz2010easu   0.01007
gfz2010eati   0.39726
gfz2010eatt  -0.12067
gfz2010eaty  -0.66218
gfz2010eavd  -0.91082
gfz2010eavp  -0.77381
gfz2010eavs   0.33791
gfz2010eawb   0.27145
gfz2010eawu  -0.73394
gfz2010eaxa  -0.57886
gfz2010eayp   0.65914
gfz2010eaze   0.10786
gfz2010eazu  -0.13452
gfz2010ebbd   0.15946
gfz2010ebbx   0.15621
gfz2010ebby   0.84233
gfz2010ebdl   0.09058
gfz2010ebeh  -0.30220
gfz2010ebek   0.30305
gfz2010ebfa  -1.66410
gfz2010ebfx   0.06544
gfz2010ebgj   0.14464
gfz2010ebhc   0.04283
gfz2010ebih   0.26307
gfz2010ebin  -0.25110
gfz2010ebiv  -0.47255
gfz2010ebjy   0.26090
gfz2010ebkj  -0.28969
gfz2010ebll  -0.05682
gfz2010ebmb   0.33566
gfz2010ebmi   0.19943
gfz2010ebnn   0.11047
gfz2010ebsv   0.23499
gfz2010ebvv   0.75572
gfz2010ebwp   0.05476
gfz2010ebxl   0.50805
gfz2010ebzr  -0.16865
gfz2010ecam   0.51227
gfz2010ecay   2.22320
gfz2010ecbi   0.41070
gfz2010eced   1.50040
gfz2010echt   5.35000
gfz2010echy  -0.38734
gfz2010ecls  -0.94851
gfz2010ecns   0.22323
gfz2010ecpg   0.37769
gfz2010ecps  -1.01180
gfz2010ecsp   0.44831
gfz2010ecua  -0.41706
gfz2010ecvt   0.80614
gfz2010edad  -0.62108
gfz2010edat  -0.07404
gfz2010eday   0.72629
gfz2010edbz  -0.79265
gfz2010edcp   0.70425
gfz2010edde  -0.55367
gfz2010edhr   0.40854
gfz2010edim  -0.71069
gfz2010edkp   0.02077
gfz2010edpb  -0.82759
gfz2010edqh   0.95654
gfz2010edsy   0.69243
gfz2010edvf   0.23712
gfz2010edyi   0.05791
gfz2010eeij   0.54837
gfz2010eekq  -0.22347
gfz2010eell   0.38357
gfz2010eeng   0.59741
gfz2010eeqy  -0.81854
gfz2010eerh  -0.80987
gfz2010eern  -0.04963
gfz2010eesf  -0.28302
gfz2010eevu  -0.45087
gfz2010efnf  -0.02750
gfz2010efsq   0.81415
gfz2010egap   1.01930
gfz2010egld  -0.50373
gfz2010egmp  -0.02198
gfz2010egqh  -0.40462
gfz2010egsw  -0.16655
gfz2010ehaj  -0.48913
gfz2010ehft   0.39595
gfz2010ehsy   0.16609
gfz2010eimf  -1.43300
gfz2010eiqi   0.65500
gfz2010eisx  -1.13020
gfz2010eixj  -0.13114
gfz2010ejae  -0.12242
gfz2010ejjg   0.72957
gfz2010ejju  -0.66305
gfz2010ejka   0.35350
gfz2010ekoe   0.49913
gfz2010ekrv   0.19397
gfz2010ekyc  -0.30190
gfz2010elhv   0.03179
gfz2010elin  -1.65530
gfz2010eljf   0.60417
gfz2010eltf  -0.22386
gfz2010elvp   0.04359
gfz2010elyc  -0.64381
gfz2010elyo  -0.03579
gfz2010elzf   0.47640
gfz2010encm  -0.03697
gfz2010eoao  -0.67080
gfz2010epbe   0.58206
gfz2010epud   0.45113
gfz2010epxj  -0.09163
gfz2010eqcn   0.06723
gfz2010eqjg   0.11379
gfz2010eqmu  -0.30738
gfz2010eqwl   0.57141
gfz2010erdi   0.80699
gfz2010erom   0.19937
gfz2010erum   0.34501
gfz2010eruy  -0.61093
gfz2010erwn   0.71937
gfz2010eryg   0.87325
gfz2010esid   0.24339
gfz2010euan  -0.37036
gfz2010eujm  -0.03336
gfz2010euwb   2.67470
gfz2010evco   1.40480
gfz2010evkd   0.00000
gfz2010ewvc   0.33038
gfz2010ewyu   0.34341
gfz2010excp   0.00000
gfz2010exdd  -1.13930
gfz2010exdl   0.11230
gfz2010exed  -0.97674
gfz2010exel  -0.18767
gfz2010exgb   0.32195
gfz2010exhd  -0.53570
gfz2010exhw  -1.18810
gfz2010exjw  -0.47599
gfz2010exlm   0.72712
gfz2010exmc   0.41583
gfz2010exno   0.01209
gfz2010exou  -0.17225
gfz2010exqu  -0.11532
gfz2010exsg  -0.00219
gfz2010exyp  -0.40944
gfz2010eyaz   0.73243
gfz2010eyhh  -0.00000
gfz2010eyiv   0.21051
gfz2010eymr   1.24620
gfz2010eyxe   0.20309
gfz2010ezax  -0.34414
gfz2010ezck   0.05417
gfz2010ezjk   0.28700
gfz2010ezvg  -0.23087
gfz2010ezvt   0.65043
gfz2010ezwz  -0.03127
gfz2010ezxd   0.01130
gfz2010falm  -0.17551
gfz2010fauz  -0.53281
gfz2010faxg   0.31346
gfz2010fbpi  -0.12524
gfz2010fcax   0.28293
gfz2010fciw  -0.99064
gfz2010fcnn  -0.21168
gfz2010fcnt  -0.58928
gfz2010fcxy  -2.47000
gfz2010fcyj   0.01505
gfz2010fczt  -0.72755
gfz2010fedq   0.07603
gfz2010ffhq   0.32969
gfz2010ffjb  -0.10700
gfz2010figq  -0.37886
gfz2010fihj   2.32740
gfz2010fika  -0.57090
gfz2010fixr   0.61912
gfz2010fjal   0.05090
gfz2010fkhd   0.13929
gfz2010fkvg   0.83535
gfz2010flha   0.55493
gfz2010flrt   0.32875
gfz2010flxi  -0.10443
gfz2010fmhb   0.97414
gfz2010fmpy  -0.33040
gfz2010fneu  -0.19711
gfz2010fnrk  -1.15660
gfz2010fpqy   0.48235
gfz2010fqdu   1.83800
gfz2010fser   1.51370
gfz2010fupn   0.40892
gfz2010fuwa   0.14231
gfz2010fwpv  -0.47050
gfz2010fwzd  -0.58614
gfz2010fyen   1.13620
gfz2010fync  -0.03050
gfz2010fzoi  -1.51380
gfz2010gcrl  -0.38027
gfz2010gcrp  -0.50275
gfz2010gdld  -0.25596
gfz2010ghyk   0.10879
gfz2010gjia   0.45687
gfz2010gjvo   0.82174
gfz2010grjd   0.02622
gfz2010gzxr   0.41702
gfz2010hbka  -0.48756
gfz2010hcio   0.31338
gfz2010hlco  -0.06890
gfz2010hllj   0.52634
gfz2010hlln  -0.23355
gfz2010hlmq  -0.67127
gfz2010hmhm   0.60707
gfz2010hnnf  -0.27515
gfz2010hnpi   0.02366
gfz2010hptz   0.50799
gfz2010hrpr  -0.67517
gfz2010hxgv   0.00000
gfz2010izzj   0.52116
gfz2010jucj  -0.21128
gfz2010jxbm   0.21427
gfz2010kdyc   0.12343
gfz2010kihf   0.56387
gfz2010kmgg  -0.04307
gfz2010lluj   0.61096
gfz2010lyfk  -0.23760
gfz2010mgss   0.28063
gfz2010miqn  -0.41825
gfz2010mkuu   0.18489
gfz2010mncc   0.04520
gfz2010mpuy   0.76819
gfz2010ncrl  -0.19156
gfz2010nfsj   2.71210
gfz2010nmpc  -0.66633
gfz2010nqwf   0.16814
gfz2010nqwo  -0.18737
gfz2010nrjo   0.04573
gfz2010nsck   0.61451
gfz2010nwef  -0.04967
gfz2010nxsy  -0.37256
gfz2010nxum  -0.60563
gfz2010ocxq  -0.47858
gfz2010odpb  -0.13558
gfz2010onma  -0.48628
gfz2010phvg   0.57953
gfz2010pmqd  -0.85403
gfz2010pxgh   0.60385
gfz2010qwwx  -0.03296
gfz2010rhas   2.69850
gfz2010rqwj  -1.41310
gfz2010rxjw   1.21200
gfz2010rywq   0.75005
gfz2010sfee   0.09641
gfz2010skqo   0.21207
gfz2010skve   0.44367
gfz2010srdb  -0.22999
gfz2010svtn  -0.02221
gfz2010sxwt   1.06410
gfz2010szim   0.30087
gfz2010tcbr   0.35880
gfz2010tcrl   1.62050
gfz2010upfb   0.76975
gfz2010usho  -0.55885
gfz2010ustq   0.15258
gfz2010utcg   0.00153
gfz2010utmc   0.04075
gfz2010uyhb   0.95617
gfz2010vhuj   0.13696
gfz2010vxvs  -0.31381
gfz2010wrxx   0.08763
gfz2010xden   0.50075
gfz2010xgzw   0.14413
gfz2010xjsj   0.05857
gfz2010xxzn   1.91030
gfz2010yjev   0.13934
gfz2010ymur   1.82810
gfz2010yosr   0.14165
gfz2011bhha  -0.85089
gfz2011blsi   0.16055
gfz2011ccpw   0.47691
gfz2011cfae  -0.10067
gfz2011cndo  -0.12739
gfz2011csju  -0.51402
gfz2011cvcg   0.31324
gfz2011cykd  -2.72540
gfz2011cyre   0.58176
gfz2011cyuk  -0.26430
gfz2011dbev  -0.22053
gfz2011dbig  -0.05090
gfz2011dbon   0.49344
gfz2011dcqb  -0.37789
gfz2011deaf   2.53620
gfz2011dkyi   0.26116
gfz2011dpqx   1.15290
gfz2011eayc   0.09477
gfz2011ecaj  -0.07858
gfz2011ehzq  -0.07292
gfz2011ekpr  -0.48328
gfz2011enva  -0.89518
gfz2011hbex   2.49630
gfz2011hebt  -0.54743
gfz2011hfkj   0.07002
gfz2011hlqw  -0.11367
gfz2011hlsa  -0.09834
gfz2011hlth   0.20630
gfz2011hpgx  -0.12046
gfz2011hpqp  -0.16323
gfz2011hvbu   0.41826
gfz2011ieie   0.68359
gfz2011iwte  -0.77772
gfz2011izqa   0.00145
gfz2011jplh   0.26214
gfz2011jtlg   0.58468
gfz2011kqwo  -0.16131
gfz2011kqyg   0.66950
gfz2011kwid  -0.09520
gfz2011kwjx   0.59150
gfz2011kxzp   0.09655
gfz2011lcxq   1.55270
gfz2011lzwj   0.22912
gfz2011mdie   0.58930
gfz2011mpme   0.46878
gfz2011nmnq  -0.22079
gfz2011nrwc   1.29750
gfz2011nrwv  -0.66220
gfz2011nudm  -0.76653
gfz2011ogqk   0.10397
gfz2011ohcy   0.06126
gfz2011oiqe  -0.18794
gfz2011oiwk   0.95075
gfz2011olkk   0.51769
gfz2011orgn  -0.23320
gfz2011ornx   0.09648
gfz2011owvz   0.71479
gfz2011pccd  -0.38550
gfz2011toub   0.22318
gfz2011tpbl   0.22916
gfz2011tsfd  -0.32925
gfz2011ueni   0.19548
gfz2011ujze   0.17933
gfz2011ukmp  -0.97218
gfz2011uphh   0.11052
gfz2011urxy   0.14434
gfz2011vhfi   0.61077
gfz2011vnza  -0.67576
gfz2011vrhg   0.23107
gfz2011vxns  -1.34260
gfz2011vxxg   0.08512
gfz2011wcic  -0.39833
gfz2011wwjs   0.16627
gfz2011wxfs   0.40632
gfz2011wxtk  -2.86720
gfz2011wype  -0.59561
gfz2011xcpv   0.68158
gfz2011xyxj   0.44510
gfz2011yhwz  -1.21150
gfz2011zqhh   0.71438
gfz2012ajtq   0.13866
gfz2012aqgp  -0.22939
gfz2012bfah  -0.55034
gfz2012bfyn  -1.06660
gfz2012bpkx   0.24217
gfz2012cqnl   1.00660
gfz2012cxdn   0.14481
gfz2012deri  -0.26461
gfz2012djwi  -0.84673
gfz2012ekda  -0.30613
gfz2012enno   0.92109
gfz2012ezvr  -0.03137
gfz2012fbfo  -0.49933
gfz2012foeo  -0.13904
gfz2012gwqb   0.20637
gfz2012hnul  -0.23468
gfz2012ihdl   0.39490
gfz2012ilvn  -0.04983
gfz2012imay  -0.14294
gfz2012jgvj   0.58839
gfz2012jjzc   0.19238
gfz2012jlox  -0.07357
gfz2012jshk   0.73497
gfz2012jupx   1.19220
gfz2012keor  -0.26453
gfz2012kkup   0.33308
gfz2012klhx   0.48846
gfz2012kuct   0.53849
gfz2012kudo   0.35839
gfz2012lczo   0.38970
gfz2012ldxg   2.01310
gfz2012ldzj  -0.70213
gfz2012lxkv  -0.84305
gfz2012minr   2.22760
gfz2012mvwr   1.20230
gfz2012mwij   0.65099
gfz2012naqz  -0.02115
gfz2012nedn  -0.89745
gfz2012nkdf  -0.19942
gfz2012omvo   0.91559
gfz2012rats  -0.27672
gfz2012repv   0.59970
gfz2012syvl   0.27197
gfz2012teic  -0.10654
gfz2012ttoa   0.34845
gfz2012tvmv   0.11576
gfz2012uafg   1.04590
gfz2012uaqj   0.42126
gfz2012uhup   0.44923
gfz2012vrgb   1.63280
gfz2012wxer   0.46671
gfz2012wxlg  -0.38110
gfz2012wypz   0.38138
gfz2012zfag   0.24114
gfz2012zitl   0.03563
gfz2012zjpv   3.18520
gfz2013axoj   1.35560
gfz2013bokp   1.86460
gfz2013ccnr  -1.27790
gfz2013cwpn   0.50146
gfz2013dkly  -0.13276
gfz2013dofo  -0.14684
gfz2013drxz   0.01981
gfz2013dvyh  -1.07890
gfz2013gdnq   1.12870
gfz2013jkut   2.08590
gfz2013jokw  -0.51609
gfz2013jusj   2.19870
gfz2013kdeo   1.92220
gfz2013ldpc   0.22088
gfz2013ldqb   0.31268
gfz2013lyko   0.08966
gfz2013mqmv   1.92280
gfz2013mwbh  -0.29147
gfz2013ncjp  -0.17130
gfz2013ndin  -0.02056
gfz2013nkgj   0.34087
gfz2013nmac  -0.71161
gfz2013nqgw   0.70829
gfz2013pfeb  -0.07607
gfz2013pxsj  -0.67946
gfz2013qali   0.41577
gfz2013qmer  -0.08639
gfz2013qzdq   0.43985
gfz2013sdus   1.33200
gfz2013shzy   0.43261
gfz2013suvn  -0.16755
gfz2013tcxc  -0.71853
gfz2013tvmw  -0.17340
gfz2013txtb  -0.76966
gfz2013tyas  -0.10631
gfz2013uauo   0.91819
gfz2013uqsp   0.04625
gfz2013vexx   1.78750
gfz2013vfyw   0.04664
gfz2013vfzp   0.09826
gfz2013viul   0.93792
gfz2013vjjc   0.61162
gfz2013wjmm   0.44923
gfz2013xsdt  -0.28533
gfz2013xvqd   0.36769
gfz2013yctg  -0.09614
gfz2013zmoc   0.09247
gfz2014afmx   0.36289
gfz2014ajlk   0.20941
gfz2014algk   0.72433
gfz2014ande  -0.30977
gfz2014arpf   0.49685
gfz2014bagd   0.63196
gfz2014bwue   0.72169
gfz2014bzxy  -0.38337
gfz2014cbtl  -0.17463
gfz2014cgog  -0.67981
gfz2014chdv   1.28940
gfz2014claq  -0.87564
gfz2014cvkm  -0.60594
gfz2014cvxx   0.01656
gfz2014czqi   0.13786
gfz2014czua  -0.25773
gfz2014dhxt  -0.20485
gfz2014duqn  -0.01683
gfz2014edfx  -0.49426
gfz2014eght  -0.02191
gfz2014ehsf   0.43247
gfz2014ekcr   0.40421
gfz2014ekdt  -0.13906
gfz2014enhi   0.30800
gfz2014eqpl   0.90208
gfz2014etqa  -0.12638
gfz2014femz  -0.72538
gfz2014fgvi   0.34320
gfz2014fhdw   0.25706
gfz2014fhla   0.16158
gfz2014jnyv  -0.00000
gfz2014jpep   0.52008
gfz2014jwmh   0.19555
gfz2014khlk   0.51741
gfz2014knks   0.17151
gfz2014knxs  -0.24165
gfz2014kwrg   0.41870
gfz2014kyan  -0.38237
gfz2014lddn   0.80321
gfz2014lefs   0.07571
gfz2014lpim   0.43614
gfz2014nowp  -0.47265
gfz2014npdk  -0.78029
gfz2014npeo  -0.03234
gfz2014nqfm  -0.03240
gfz2014nrie   1.92460
gfz2014oinz   0.08864
gfz2014oyly  -2.81580
gfz2014pkll  -0.32890
gfz2014pvch  -0.37343
gfz2014qlxd  -0.02259
gfz2014qngj  -0.35515
gfz2014qqhm   1.70290
gfz2014riel   0.19683
gfz2014ubwn  -0.12236
gfz2014vhms   1.75220
gfz2014vjoz   0.18825
gfz2014watn   0.36207
gfz2014wjko   0.30751
gfz2014wqcp  -2.13980
gfz2014wwib   0.04124
gfz2014yhhm   0.23373
gfz2015bsnl  -0.23312
gfz2015byfn  -0.21734
