# Nsamples: 185  MAD:  0.436  mean:  0.187  variance:  0.567
gfz2012sphd   0.40199
gfz2012svpr   1.34830
gfz2012tvmv  -0.10911
gfz2012uafg   0.28036
gfz2012uaqj   0.25913
gfz2012uhup   0.00442
gfz2012uxnz   0.39223
gfz2012uzyj   0.68558
gfz2012vrgb   0.44096
gfz2013hmbc   0.20860
gfz2013jdrx   1.11590
gfz2013jgip   0.77632
gfz2013jkut   1.53410
gfz2013jokw   0.08052
gfz2013jusj   0.33741
gfz2013lgnl   0.67855
gfz2013lwao  -0.66066
gfz2013lxyn   0.61129
gfz2013mvgr   0.24312
gfz2013nknw   0.12004
gfz2013nojf   1.02120
gfz2013pfbx   1.37540
gfz2013puag   0.11359
gfz2013pupd   0.28473
gfz2013pxsj  -0.51384
gfz2013qmer   0.48320
gfz2013saez   0.27636
gfz2013sdus   0.67370
gfz2013shlq  -0.34169
gfz2013sjhg   0.01699
gfz2013skkm   0.15504
gfz2013snbr   0.38963
gfz2013snyf   0.16668
gfz2013svci   0.62617
gfz2013toea   0.00210
gfz2013tusd   0.53577
gfz2013tuzv  -0.80484
gfz2013txtb   0.02415
gfz2013umya   0.85609
gfz2013uqsp   0.54899
gfz2013vfyw   0.08748
gfz2013vfzp  -0.71097
gfz2013vgpf   0.63850
gfz2013vgrk   0.02734
gfz2013vhnk   0.92468
gfz2013viul  -0.29669
gfz2013vjfe   0.04454
gfz2013vjjc  -1.17880
gfz2013vsxi   0.82415
gfz2013wjmm  -0.40289
gfz2013wtzl   0.42355
gfz2013xmul   0.13657
gfz2013xsdt  -0.30786
gfz2013ylbx  -0.63652
gfz2013ypdc   0.09797
gfz2013yulx  -0.37036
gfz2013yyti  -0.07524
gfz2013ziyr  -3.55680
gfz2013zmtb   2.35280
gfz2014aawc  -0.14455
gfz2014arpf  -0.10447
gfz2014atgw   0.55268
gfz2014bldx   0.08214
gfz2014caop  -0.11725
gfz2014cgog   0.07736
gfz2014cqyo   0.43416
gfz2014cvkm  -0.15784
gfz2014dcdy   0.25909
gfz2014dpzx  -0.01568
gfz2014ekdn  -0.42612
gfz2014ekdt   0.46050
gfz2014fgvi   3.24130
gfz2014fhla   4.22480
gfz2014fjzd  -1.32990
gfz2014foio   0.05334
gfz2014frdz   0.65009
gfz2014frel   1.19510
gfz2014fsuh  -0.97254
gfz2014ftoc   1.87340
gfz2014fuub   0.80395
gfz2014fxhd  -2.56560
gfz2014hzfw   0.03381
gfz2014ieam   1.11250
gfz2014isys   1.12540
gfz2014nylm  -0.14466
gfz2014okjw   0.72039
gfz2014pjum  -0.52546
gfz2014ppyi  -0.38478
gfz2014qcxs   0.44571
gfz2014raau   0.06037
gfz2014rbpx   0.52043
gfz2014rbsl   0.36982
gfz2014rfeb   0.24905
gfz2014rils   0.21201
gfz2014rkwl   0.19195
gfz2014szzf   0.26118
gfz2014tute   0.34165
gfz2014uvji  -1.09910
gfz2014wrkh   1.40360
gfz2015chhn   0.21728
gfz2015elgy   0.33751
gfz2015emin   0.63978
gfz2015enth  -0.12572
gfz2015etai  -0.09706
gfz2015fjhk   0.98801
gfz2015fsjj   1.49340
gfz2015gwao   0.62244
gfz2015hepg  -0.11684
gfz2015hgbk   1.46270
gfz2015kfsu   0.86302
gfz2015kxxs   0.83076
gfz2015mhym  -0.86722
gfz2015ocdz   0.43667
gfz2015opjp  -0.05640
gfz2015pdri   0.05832
gfz2015pgxa  -0.21966
gfz2015pjgr   0.09535
gfz2015poni   0.08194
gfz2015sfdd  -0.04851
gfz2015sfdh  -0.56222
gfz2015sfdv  -0.25001
gfz2015sfdy   0.39996
gfz2015sfeo   0.33966
gfz2015sflf  -0.10350
gfz2015sfpj  -0.30635
gfz2015sfwf  -0.71574
gfz2015sfzm  -0.02480
gfz2015sgad  -0.76365
gfz2015sgdj   0.59196
gfz2015sgdn   0.27801
gfz2015sgey   0.46410
gfz2015sggc  -0.26622
gfz2015sghq   0.25962
gfz2015sgie   0.13030
gfz2015sglg  -0.19904
gfz2015sgmr  -0.20474
gfz2015sgoa  -0.17519
gfz2015sgpu   0.05666
gfz2015sgyd  -0.04353
gfz2015shel   0.29188
gfz2015shhg  -0.35825
gfz2015shrg  -0.04655
gfz2015sicu  -0.07872
gfz2015siem  -0.01794
gfz2015siyy   0.27954
gfz2015sjbx  -0.38100
gfz2015sjgk   0.41494
gfz2015sjjb  -0.05038
gfz2015sjne   0.51483
gfz2015sjtz   0.32849
gfz2015sjwi  -0.89330
gfz2015skab   0.17263
gfz2015skpv  -0.00000
gfz2015smym   0.42201
gfz2015snsf  -0.43418
gfz2015snwh   0.11138
gfz2015soat   0.53479
gfz2015sopc   0.22658
gfz2015soxc   0.29726
gfz2015sqmy   0.02243
gfz2015sqvx   0.33124
gfz2015srat   0.30718
gfz2015srxe   1.24090
gfz2015ssoe   0.17176
gfz2015ssrl  -0.02446
gfz2015stso   0.02736
gfz2015supa   0.22397
gfz2015svwm   0.32610
gfz2015sxmh   0.56474
gfz2015szcb  -0.12838
gfz2015teyn  -0.35885
gfz2015tezd   0.49043
gfz2015thtd   0.77841
gfz2015thwg   0.02609
gfz2015thwp  -0.05346
gfz2015tiyc  -0.78308
gfz2015tkol   0.01147
gfz2015tlkf   1.08810
gfz2015tlok  -0.54344
gfz2015tnjd  -0.48905
gfz2015tohm   0.15119
gfz2015totf  -0.66002
gfz2015tpra  -0.51476
gfz2015tqie   0.07296
gfz2015tqjf  -0.11489
