# Nsamples: 32  MAD:  0.294  mean: -0.237  variance:  0.729
gfz2010bxxs  -0.40542
gfz2010grjd  -0.41723
gfz2010iull  -0.58938
gfz2010nmpc  -0.40914
gfz2011aatr  -0.16447
gfz2011enva  -0.13217
gfz2011hlqw  -0.44623
gfz2011hlsa  -0.56458
gfz2011lcxq  -0.27718
gfz2011lzwj  -0.86241
gfz2011rewa  -0.30030
gfz2011toub  -0.40766
gfz2011wxfs  -0.71028
gfz2012enno  -0.11174
gfz2012jlox  -0.37288
gfz2012kkup  -0.38444
gfz2012klhx  -0.49226
gfz2012kudo  -0.34999
gfz2012ldxg   1.76700
gfz2012vrgb  -0.38065
gfz2012wypz  -0.26462
gfz2013ccnr   1.10870
gfz2013drxz  -0.08911
gfz2013pfbx  -0.34735
gfz2014fhla   0.95642
gfz2014ftka   0.36359
gfz2014gkqf  -0.02770
gfz2014gmge  -3.89500
gfz2014gmnb  -0.06169
gfz2014ssvz  -0.11935
gfz2015sfdy   0.05883
gfz2015tiyc   0.73511
