# Nsamples: 49  MAD:  0.652  mean:  0.006  variance:  0.645
gfz2010ebhc  -0.26917
gfz2010fqdu   0.41626
gfz2010ftlm  -0.84553
gfz2010grjd   1.27480
gfz2010usho   0.50811
gfz2011dpqx  -1.14750
gfz2011enva   0.08751
gfz2011gkzt  -0.16260
gfz2011lcxq   0.50016
gfz2012dyyh  -0.62046
gfz2012fwtr  -0.48733
gfz2012ldxg   0.12846
gfz2012minr   0.21895
gfz2012nsbz  -0.22541
gfz2013axoj  -0.00000
gfz2013ccnr   0.36817
gfz2013dspt  -0.47199
gfz2013dsrk   0.90624
gfz2013ifpq   0.45898
gfz2013jkut  -0.85075
gfz2013jwvc   0.77695
gfz2013kdeo   0.02919
gfz2013nwdi   1.16890
gfz2013svci  -1.10070
gfz2014fhla   0.79787
gfz2014frdz   2.52800
gfz2014frez   0.64786
gfz2014ftka   0.80134
gfz2014ghpe  -0.50490
gfz2014gkqf   0.16208
gfz2014gltx   0.14115
gfz2014gmge   0.76428
gfz2014gmnb  -0.21556
gfz2014gmnw   0.22770
gfz2014goba  -0.17502
gfz2014gull   0.75886
gfz2014gzue  -0.27537
gfz2014hasj   0.02833
gfz2014hgqo   0.01921
gfz2014hjgr  -0.16911
gfz2014huaj   0.45552
gfz2015aruz  -0.20282
gfz2015ddhl  -0.36341
gfz2015dvbn  -0.72321
gfz2015eiky  -2.91160
gfz2015fjhk  -0.00000
gfz2015gckd  -0.81093
gfz2015hgbk  -0.21693
gfz2015mpte  -1.12770
