# Nsamples: 2086  MAD:  0.445  mean:  0.022  variance:  1.683
gfz2010aerk  -0.05559
gfz2010ahla  -0.01093
gfz2010ahqi   0.13680
gfz2010aphp  -0.15509
gfz2010aykj   4.11030
gfz2010bedu  -0.32046
gfz2010bfzs  -2.83020
gfz2010bgth  -0.21272
gfz2010bhhq   3.94390
gfz2010bifb   1.82400
gfz2010bjeb   0.06072
gfz2010bjjx  -0.00010
gfz2010bjsl  -1.35910
gfz2010bkob  -0.26398
gfz2010bkos  -0.06291
gfz2010bowy   1.46180
gfz2010boxo   0.28997
gfz2010bxxs   0.02505
gfz2010bywj   0.04136
gfz2010caft  -0.58042
gfz2010cbkg   1.17410
gfz2010cdbt  -0.49120
gfz2010chnv  -0.02839
gfz2010cind  -0.43714
gfz2010civi   1.38900
gfz2010cjmx   0.07754
gfz2010cjrf  -0.87439
gfz2010ckeu  -0.12036
gfz2010ckzm  -0.15860
gfz2010cnwc  -0.51614
gfz2010cptb  -0.41292
gfz2010cqwl   0.38753
gfz2010cres   0.19657
gfz2010ctuw  -3.23870
gfz2010czps  -1.03870
gfz2010ddzo  -1.25080
gfz2010dejx   0.02471
gfz2010dfru  -0.20807
gfz2010dlgc  -0.33520
gfz2010dtmx  -0.61695
gfz2010dumm  -0.24807
gfz2010ejae   0.11921
gfz2010ejco   2.39710
gfz2010ejjg   1.19720
gfz2010ejka   0.23980
gfz2010ejma   0.08589
gfz2010ejxf  -0.76743
gfz2010ekaw  -0.99223
gfz2010ekoe   1.95000
gfz2010ekrv   0.25633
gfz2010ekyc   0.25743
gfz2010elhv  -0.15203
gfz2010elin  -1.58970
gfz2010eljf  -1.20040
gfz2010elsw   0.16795
gfz2010eltf   0.24222
gfz2010elvp   0.12608
gfz2010elxi  -1.17040
gfz2010elyc   0.66983
gfz2010elyo   0.77002
gfz2010elzf  -1.33700
gfz2010elzl   2.74530
gfz2010emyz  -1.73700
gfz2010encm   0.42894
gfz2010engw   0.19779
gfz2010enpa  -0.66695
gfz2010ensu   0.46334
gfz2010eoao  -1.38070
gfz2010eohh  -0.92358
gfz2010epbe  -2.10210
gfz2010epud  -1.14100
gfz2010epzk   0.16305
gfz2010eqjg  -1.60260
gfz2010eqse  -0.04748
gfz2010erda  -1.02990
gfz2010erdi   0.94068
gfz2010erfy  -0.39882
gfz2010erig   0.17863
gfz2010erkn   0.03031
gfz2010erxk  -1.23790
gfz2010eryg   1.10790
gfz2010esmg   0.29201
gfz2010esou  -1.39980
gfz2010eted  -1.40650
gfz2010etfw  -0.66802
gfz2010euii  -0.13064
gfz2010eujm   0.09100
gfz2010euvl  -0.95761
gfz2010euwb   0.90840
gfz2010euxe   0.22844
gfz2010evco  -0.96609
gfz2010ewpq   0.61759
gfz2010ewvc  -0.45368
gfz2010ewyu   0.67640
gfz2010exts   0.16294
gfz2010exyp  -0.55555
gfz2010eyaz  -0.76176
gfz2010eybj   3.12140
gfz2010eyhh   1.18080
gfz2010eyiv  -0.08380
gfz2010eymr   0.71204
gfz2010eymx   0.23510
gfz2010eyqe   0.43902
gfz2010eyxe   0.91589
gfz2010ezck  -1.41200
gfz2010ezjk   0.66125
gfz2010ezuj   1.85840
gfz2010ezvt  -2.06300
gfz2010ezwz  -1.77600
gfz2010ezxd   0.51090
gfz2010faeu  -1.52080
gfz2010falm  -1.83450
gfz2010fauz  -0.53680
gfz2010fbpi  -0.00168
gfz2010fbwe  -0.94762
gfz2010fcax  -0.66585
gfz2010fciw   0.88898
gfz2010fcnn   1.25510
gfz2010fcnt   0.93479
gfz2010fedq   0.63849
gfz2010fefr  -2.86810
gfz2010ffhq   1.44630
gfz2010ffjb   0.27426
gfz2010ffui   0.89214
gfz2010fhbl   0.66194
gfz2010figq  -0.06291
gfz2010fihj  -1.23050
gfz2010fika   0.74245
gfz2010fisf  -0.57832
gfz2010fixr  -1.91910
gfz2010fjal  -1.31620
gfz2010fjas   0.48998
gfz2010fjmu   0.03436
gfz2010fjni   1.89460
gfz2010fkhd  -0.18852
gfz2010fknh   0.53941
gfz2010fkvg  -0.50781
gfz2010flha   0.16635
gfz2010flkj  -2.87370
gfz2010floi  -1.03840
gfz2010flrt   0.79787
gfz2010fmhb  -0.44088
gfz2010fmip   2.30450
gfz2010fmpy  -1.47970
gfz2010fmwb  -1.32050
gfz2010fneu  -0.01111
gfz2010fona   1.16090
gfz2010fpmv   4.83260
gfz2010fpqy  -0.11538
gfz2010fqdu  -0.16733
gfz2010fqtj   0.53447
gfz2010fser  -1.20030
gfz2010fsmy  -0.64382
gfz2010fsth  -0.30850
gfz2010ftlm  -0.12001
gfz2010ftsx  -1.35100
gfz2010fupn  -0.15051
gfz2010fuuy  -0.45610
gfz2010fuwa  -1.49970
gfz2010fvuc   2.95500
gfz2010fwkk  -0.59168
gfz2010fwlb  -0.06215
gfz2010fwny   0.36149
gfz2010fyed   1.19950
gfz2010fyen   1.13430
gfz2010fzoi  -1.77250
gfz2010fzsg  -2.05670
gfz2010gcdn  -0.22894
gfz2010gceb  -0.21169
gfz2010gcrl   1.29160
gfz2010gdch  -0.76147
gfz2010gdld  -0.18955
gfz2010gdvf   0.42663
gfz2010geru  -1.41840
gfz2010ghyk  -0.42852
gfz2010ginm  -0.23122
gfz2010gjia   0.07303
gfz2010gjvo  -0.34575
gfz2010glqr  -0.72199
gfz2010glxl  -0.24773
gfz2010gmib   1.44670
gfz2010grss  -0.13740
gfz2010grxb  -2.10870
gfz2010gslu  -2.07280
gfz2010gtqs   0.65834
gfz2010gwmp   0.30485
gfz2010gymo  -2.00110
gfz2010gyqp  -0.57572
gfz2010gzxr  -0.04925
gfz2010hakh   3.66920
gfz2010hbka   0.31393
gfz2010hcio   0.02584
gfz2010hevz   0.76265
gfz2010hgld   0.49014
gfz2010hhls  -0.13449
gfz2010hjoc  -0.36216
gfz2010hlco   1.09260
gfz2010hllj   0.20542
gfz2010hlln   1.23750
gfz2010hlmq   0.99474
gfz2010hmhm   1.23950
gfz2010hncj  -0.02514
gfz2010hnnf   0.63837
gfz2010hnpi   0.05179
gfz2010hnzr   0.73066
gfz2010homc   0.48436
gfz2010hptz   1.03690
gfz2010hrkr   0.20336
gfz2010hrpr   1.60450
gfz2010htdq   0.15456
gfz2010hufk  -0.19903
gfz2010hxgv   1.48970
gfz2010hxhe  -0.10619
gfz2010hykt  -0.01813
gfz2010hzar  -0.30947
gfz2010ibiy   0.21844
gfz2010ibxj  -0.47338
gfz2010iciq   0.73040
gfz2010icqq  -0.60861
gfz2010iefy   1.52500
gfz2010ihrq  -1.00950
gfz2010iimu   0.29454
gfz2010ijtk  -0.33884
gfz2010imfv  -1.12860
gfz2010imsh  -0.10214
gfz2010iobp  -0.15637
gfz2010iphd   0.66724
gfz2010iqep   0.62560
gfz2010iqnm  -0.23181
gfz2010iqus  -0.57665
gfz2010irqr  -0.48699
gfz2010irvf  -0.06628
gfz2010isrp   1.06910
gfz2010ited  -0.09938
gfz2010itpb   1.18680
gfz2010iull   1.49480
gfz2010ixyc  -0.53479
gfz2010izzj   1.82130
gfz2010jant  -0.36799
gfz2010jatq  -0.67779
gfz2010jhie  -1.28740
gfz2010jipf   2.16940
gfz2010jitt   0.91674
gfz2010jkxj  -0.71404
gfz2010jlhj   0.65574
gfz2010jpss   1.30040
gfz2010jqxx  -1.91910
gfz2010jsuh  -0.59083
gfz2010jsuo   1.30850
gfz2010jtal  -0.12324
gfz2010jucj   0.25283
gfz2010jwpy  -0.57738
gfz2010jxbm  -0.10878
gfz2010jygz   0.07467
gfz2010jzku   0.21020
gfz2010kcoo   0.90858
gfz2010kdyc   1.13390
gfz2010kgws  -1.02330
gfz2010kmgg  -0.33098
gfz2010kmsv   0.37974
gfz2010kown   0.33850
gfz2010kqyh  -0.38896
gfz2010kyvj  -0.33253
gfz2010lczp  -0.18827
gfz2010lepw   0.36275
gfz2010lfju   0.28243
gfz2010lgwy  -1.43210
gfz2010liqs   0.39577
gfz2010lkcf  -0.92303
gfz2010lopz   1.33230
gfz2010lrlk   0.15874
gfz2010lruw   1.23010
gfz2010lsft  -0.52973
gfz2010lwuq   0.29688
gfz2010lyfk  -0.88390
gfz2010mant   4.48550
gfz2010mbje   0.70666
gfz2010mcrx   0.15037
gfz2010mdpq  -1.02570
gfz2010mfpt  -0.46106
gfz2010mgss  -0.77852
gfz2010miil   0.26963
gfz2010mipi  -0.59577
gfz2010miqn   0.28079
gfz2010mlkz   0.63753
gfz2010mlta  -1.32700
gfz2010mncc   0.49718
gfz2010mnhm   0.12049
gfz2010mnsz  -0.16666
gfz2010moyw   0.72662
gfz2010mpuy  -0.02571
gfz2010msjj  -0.12921
gfz2010muca  -1.72120
gfz2010mwdq  -1.04090
gfz2010mzjr   0.53697
gfz2010ncrl  -0.39961
gfz2010ndxl  -0.27330
gfz2010nfsj  -0.58941
gfz2010nlkh  -0.58045
gfz2010nmpc   0.69538
gfz2010nnny   0.45052
gfz2010nqwf   1.03500
gfz2010nqwo   1.29940
gfz2010nrew   1.23010
gfz2010nrjo   0.09914
gfz2010nsck   0.47863
gfz2010nsdf  -0.62147
gfz2010nsfx  -0.82419
gfz2010ntuo   0.62729
gfz2010nubk  -0.83304
gfz2010nwef  -0.06403
gfz2010nxum   0.57015
gfz2010nzha  -0.80484
gfz2010ocxq  -0.60611
gfz2010odpb   0.84354
gfz2010oedn   1.00400
gfz2010okdm   0.28932
gfz2010oluw   0.28936
gfz2010omla   0.16797
gfz2010onma  -0.81622
gfz2010osjs   0.37486
gfz2010osqo  -0.22270
gfz2010otbn  -0.33408
gfz2010oyqy  -0.22280
gfz2010pbdz  -0.11529
gfz2010pcxi  -0.38563
gfz2010pdtk  -0.56409
gfz2010pets   0.35911
gfz2010pewa   0.44466
gfz2010pewx   0.40159
gfz2010pexf  -0.21963
gfz2010pfyu   0.28848
gfz2010phvg   0.78055
gfz2010plbg  -0.37702
gfz2010pmqd   1.24790
gfz2010pqck  -1.36340
gfz2010pxak  -0.29068
gfz2010pxgh   0.33898
gfz2010pxls   0.34311
gfz2010qbng   0.23479
gfz2010qitd  -1.18070
gfz2010qjst   0.01315
gfz2010qkat  -0.22392
gfz2010qpcq  -0.02861
gfz2010qpum  -0.37729
gfz2010qwwx   1.12120
gfz2010rhas  -0.29893
gfz2010rkfp  -0.27218
gfz2010rlbv  -0.45091
gfz2010rotv   0.30021
gfz2010rqwj  -0.61489
gfz2010rxjw  -4.40570
gfz2010rywq  -1.26190
gfz2010rzrr  -1.35600
gfz2010rzsd   0.69955
gfz2010sfee   0.08326
gfz2010sfla  -1.16260
gfz2010sjwp  -0.13352
gfz2010skqo   0.41801
gfz2010skve  -1.15360
gfz2010sniy  -1.59060
gfz2010srdb  -1.25490
gfz2010suww  -0.59235
gfz2010svtn  -0.20165
gfz2010svve   0.44759
gfz2010swcy  -0.19521
gfz2010sxwt  -0.59100
gfz2010sysw  -0.26760
gfz2010szde   0.47243
gfz2010szim   0.20516
gfz2010tcbr  -1.45890
gfz2010tcrl  -2.85960
gfz2010titk  -0.21516
gfz2010tlfm  -0.64166
gfz2010truw  -0.09605
gfz2010txjs  -0.99511
gfz2010tzzk  -1.07810
gfz2010uouo  -1.09520
gfz2010upfb  -0.19492
gfz2010upiw  -0.07517
gfz2010urlq  -0.36816
gfz2010usho  -1.11550
gfz2010ustq   1.24690
gfz2010utcg   0.16697
gfz2010utmc  -0.50174
gfz2010uvhf   0.12257
gfz2010uyhb  -0.77816
gfz2010veri   0.83531
gfz2010vhuj  -0.72381
gfz2010vjcb  -0.19678
gfz2010vppc  -0.15966
gfz2010vxvs  -0.31753
gfz2010vyxd  -0.58410
gfz2010vzpr   1.17990
gfz2010vzzz   0.24694
gfz2010wioh  -0.13871
gfz2010wnty   0.93779
gfz2010wntz  -0.69454
gfz2010wofs   0.15218
gfz2010wrxx  -1.26220
gfz2010wxqa  -8.62150
gfz2010xbcr   0.21899
gfz2010xbdv   2.50610
gfz2010xbgs  -0.17795
gfz2010xcdh  -0.47907
gfz2010xche   0.01782
gfz2010xcij  -1.60960
gfz2010xden  -0.14727
gfz2010xgfc   0.01977
gfz2010xgzw  -0.69390
gfz2010xjck  -0.80978
gfz2010xjsj  -0.58194
gfz2010xmpr  -0.57493
gfz2010xnxk  -0.17024
gfz2010xxdb   0.29528
gfz2010xxzn  -2.87950
gfz2010ygwu   1.32010
gfz2010yjev  -2.16710
gfz2010yosr   0.06767
gfz2010yoyx  -0.14737
gfz2010yqqb   0.29440
gfz2010yqqv  -1.67620
gfz2010yqwx   0.30653
gfz2010ysaj  -0.01195
gfz2010yvwz  -0.80594
gfz2010yzgq  -0.41923
gfz2010zdpo   0.13380
gfz2010zeeh  -1.13840
gfz2011aatr   0.46659
gfz2011adne   0.28546
gfz2011adpw   0.82985
gfz2011aeay   1.63740
gfz2011ccpw  -1.33210
gfz2011cfae  -0.08959
gfz2011cndo   1.29440
gfz2011cnho   0.26641
gfz2011coxh  -0.03915
gfz2011crdy   0.47322
gfz2011csju  -0.64484
gfz2011ctbn  -0.52400
gfz2011cvcg  -0.24374
gfz2011cvfg  -1.10500
gfz2011cwgn  -0.43441
gfz2011cykd   0.05736
gfz2011cylz  -0.64292
gfz2011cynl   0.19093
gfz2011cyre   0.28927
gfz2011cyuk   0.48451
gfz2011czwj   0.89128
gfz2011dbev   0.53595
gfz2011dbig  -0.02648
gfz2011dbli  -1.07660
gfz2011dbon   0.23914
gfz2011dbwt  -0.31333
gfz2011dcqb  -0.28975
gfz2011ddao   0.56886
gfz2011dddh  -0.01424
gfz2011deja  -0.59567
gfz2011dkyi   0.16832
gfz2011dldn   0.02890
gfz2011dllz   0.30229
gfz2011dlyx  -0.19813
gfz2011dmat  -0.28880
gfz2011dndz   0.03904
gfz2011dpaa   0.30644
gfz2011dpmx  -0.45204
gfz2011dpqx   0.89403
gfz2011dqio  -0.07915
gfz2011dtpy  -0.70756
gfz2011duyr  -1.46050
gfz2011dvxb   0.29058
gfz2011eayc  -0.21197
gfz2011ecsc  -0.63464
gfz2011ecvr  -0.00000
gfz2011eebc   1.41640
gfz2011efgv   0.05584
gfz2011ehzq   0.25061
gfz2011eiis   0.07763
gfz2011ejlp   0.11958
gfz2011ekpr  -0.43277
gfz2011eocc   1.28290
gfz2011etje   2.50440
gfz2011fdzv  -0.24876
gfz2011fgvr  -0.67296
gfz2011fhag   0.46531
gfz2011fhbm  -0.94835
gfz2011fhur  -1.41950
gfz2011fkbn  -0.53087
gfz2011flgj  -0.27452
gfz2011gbmx  -0.17320
gfz2011gcwb   0.37357
gfz2011gdgh  -1.94760
gfz2011ggvf  -0.46603
gfz2011gkey   0.96106
gfz2011gzbr  -0.03162
gfz2011haid  -0.93288
gfz2011hbex  -0.20547
gfz2011hbqk  -0.05433
gfz2011hebt  -0.00000
gfz2011hfkj  -0.89382
gfz2011hlqw   0.05634
gfz2011hlsa   0.21552
gfz2011hlth  -0.22083
gfz2011hpgx  -0.06499
gfz2011hpqp  -0.33362
gfz2011hrhe  -0.04785
gfz2011hrhu   1.36230
gfz2011hryk   0.00000
gfz2011hsfj   1.03080
gfz2011hvbu  -1.14370
gfz2011icxe   0.31084
gfz2011ieie  -0.88477
gfz2011iwte   1.25480
gfz2011ixai  -0.35899
gfz2011izqa   0.14085
gfz2011jbbc   1.62100
gfz2011jdsj  -0.08984
gfz2011jghb  -0.33783
gfz2011jmbn  -0.33618
gfz2011jnmi   0.22985
gfz2011jplh   0.34162
gfz2011jtlg   4.30720
gfz2011juid   0.40618
gfz2011knbi  -0.17239
gfz2011knoo  -1.37100
gfz2011kqwo   0.83691
gfz2011kqyg  -0.02093
gfz2011kvxh  -0.20631
gfz2011kwhq  -0.23629
gfz2011kwid  -0.92319
gfz2011kwiy   0.99562
gfz2011kwjx  -1.74380
gfz2011kwkw  -0.42755
gfz2011kwld   1.23120
gfz2011kwlq   0.35200
gfz2011kwni   0.00000
gfz2011kwnu   0.14975
gfz2011kwqc  -0.51828
gfz2011kwrf  -0.13896
gfz2011kwsz  -1.42570
gfz2011kxzp   0.34633
gfz2011lczg  -0.02644
gfz2011ldna   0.01693
gfz2011lggq   0.03410
gfz2011lgsg  -0.36696
gfz2011lhls   0.13416
gfz2011lvjr   0.13772
gfz2011lzwj   0.34151
gfz2011mdie  -1.27030
gfz2011mepc   2.14210
gfz2011mivl   0.36162
gfz2011mjom   0.07031
gfz2011mllx   0.14880
gfz2011mlvw  -0.17556
gfz2011mpme  -0.26901
gfz2011mprq  -2.66810
gfz2011nauw  -0.13352
gfz2011necz  -0.01398
gfz2011nkaz  -0.64093
gfz2011nmnq  -0.75525
gfz2011nmqj   1.15780
gfz2011noud  -0.60923
gfz2011nowp   0.22380
gfz2011npgs  -0.45984
gfz2011nqpd   0.09866
gfz2011nrwc  -0.15164
gfz2011nsex  -0.26487
gfz2011ntkh  -0.20189
gfz2011ntrv  -0.50950
gfz2011nudm  -1.65790
gfz2011ogqk  -0.50706
gfz2011ohcy  -1.95160
gfz2011oiqe   0.44255
gfz2011oiwk   0.10007
gfz2011olkk   0.05851
gfz2011oolr  -0.39976
gfz2011orgn   0.68056
gfz2011ornx   0.34726
gfz2011owvz  -1.50660
gfz2011pccd  -0.19569
gfz2011pdpt  -0.41718
gfz2011pdst   0.47331
gfz2011phms  -0.39563
gfz2011pntf   3.04210
gfz2011psnq  -0.28746
gfz2011ptus   0.69869
gfz2011qigx  -0.44757
gfz2011qoif   0.70108
gfz2011qvae   0.32135
gfz2011rabm   1.76880
gfz2011rdby  -0.98109
gfz2011rewa   0.51258
gfz2011rgwl  -2.92900
gfz2011rgwp  -0.05235
gfz2011rqui   0.13605
gfz2011rsrh   0.00000
gfz2011runa  -0.07027
gfz2011rznl   0.34016
gfz2011sagt  -3.26740
gfz2011sawg   0.13103
gfz2011shqm  -0.16227
gfz2011socv   0.00000
gfz2011sqoy  -5.44380
gfz2011srka  -0.13599
gfz2011stal   2.26870
gfz2011sthv   0.26713
gfz2011svix  -0.71829
gfz2011syjd  -0.46733
gfz2011tbas   0.36854
gfz2011tcij  -1.13800
gfz2011tivu  -0.06475
gfz2011tjrf   0.01867
gfz2011tkfp   0.72376
gfz2011tkog  -0.11583
gfz2011tnag   0.24492
gfz2011toub   1.85390
gfz2011tpfr  -0.12938
gfz2011tsfd  -0.51168
gfz2011tsnp  -0.05561
gfz2011twov   1.25770
gfz2011udsq  -0.05676
gfz2011ueni   0.14793
gfz2011uepx  -0.27132
gfz2011ugzz  -0.51813
gfz2011uiul   0.04980
gfz2011ujze  -0.12926
gfz2011ukmp   0.03638
gfz2011unkx  -0.49984
gfz2011uphh  -0.17607
gfz2011urxy  -0.62720
gfz2011urzu  -0.04842
gfz2011vclt  -0.05300
gfz2011vhfi  -0.28232
gfz2011vkun  -0.88963
gfz2011vldk  -0.20024
gfz2011vnza  -1.51750
gfz2011vqnr  -0.30932
gfz2011vqrj  -1.34280
gfz2011vrhg  -0.23685
gfz2011vxns  -2.06410
gfz2011vxod  -0.62740
gfz2011vxxg   0.95116
gfz2011wcic   0.08864
gfz2011wfja  -0.18998
gfz2011wijj  -0.46678
gfz2011wjul   0.62149
gfz2011wtmq   0.20589
gfz2011wvzb  -0.25433
gfz2011wwjs  -0.48832
gfz2011wxfs   0.34527
gfz2011wxoj  -0.74226
gfz2011wxtk  -0.24800
gfz2011wype   0.42317
gfz2011xaan  -0.57511
gfz2011xcpv  -0.26292
gfz2011xesx   0.16434
gfz2011xqru   0.06120
gfz2011xyxj   0.13943
gfz2011yfdx  -0.50206
gfz2011yfys  -0.27419
gfz2011yhwz  -0.39660
gfz2011yybo   0.23489
gfz2011zjap   0.04263
gfz2011zlfg   1.42330
gfz2011zlrd  -0.14604
gfz2011zqhh   1.30220
gfz2012ablh   0.33588
gfz2012ajtq   0.66808
gfz2012aqgp   1.24680
gfz2012aqtq   0.01128
gfz2012attr  -0.02653
gfz2012bfyn  -0.83441
gfz2012bgnk  -0.11755
gfz2012bpkx  -0.23383
gfz2012bpwl  -0.13422
gfz2012brhv   0.18500
gfz2012byad   0.04343
gfz2012cbed  -0.13409
gfz2012ckxi  -3.51510
gfz2012cmfy   0.19041
gfz2012cnod   0.10821
gfz2012covm   0.12567
gfz2012cqnl   0.43124
gfz2012cqtc   0.19893
gfz2012cuct   0.40309
gfz2012cxdn   0.34143
gfz2012cyof   0.03286
gfz2012czlw   0.06091
gfz2012ddma  -0.46905
gfz2012dimn   0.34994
gfz2012dinb   0.06539
gfz2012divk   0.01247
gfz2012djwi  -0.86591
gfz2012dves   0.87103
gfz2012ekzf  -1.51020
gfz2012elce  -0.75621
gfz2012enno   0.26116
gfz2012ewkj  -0.09181
gfz2012eykb  -0.57840
gfz2012ezvr   1.03290
gfz2012fbfo   0.08411
gfz2012fgzz   0.11044
gfz2012fhnh  -1.28650
gfz2012fivh  -3.53020
gfz2012foeo   0.63726
gfz2012fwfo   0.71068
gfz2012fwob  -0.00000
gfz2012fwtr   0.32704
gfz2012fzfa  -0.08470
gfz2012gemm   0.40580
gfz2012gill  -0.17877
gfz2012glss   0.16521
gfz2012gnvh   0.44408
gfz2012gocc  -0.13205
gfz2012gwqb  -0.15457
gfz2012hdbm   0.05032
gfz2012hnul   0.64332
gfz2012hogg  -0.76728
gfz2012holl   0.85765
gfz2012hsex   0.23089
gfz2012htet  -0.41386
gfz2012hwmz  -0.27859
gfz2012hwyo  -0.03023
gfz2012hyaa   0.17054
gfz2012hzbe   0.02512
gfz2012iamr   0.27627
gfz2012ibld  -0.04170
gfz2012icmv   3.66890
gfz2012idje  -0.30685
gfz2012iffo  -0.00770
gfz2012ihdl  -0.39129
gfz2012iivw  -0.36785
gfz2012ilvn   2.42320
gfz2012ilxh  -0.32842
gfz2012imay   1.26930
gfz2012imbd  -2.07240
gfz2012intn  -0.48002
gfz2012iyrb  -0.51163
gfz2012jgvj   0.21080
gfz2012jhaz  -0.26134
gfz2012jlox   0.18966
gfz2012jmwd  -0.10018
gfz2012joqe   0.43284
gfz2012jpeh   1.90170
gfz2012jpgs   0.48993
gfz2012jshk  -0.86033
gfz2012jted  -0.77395
gfz2012jupx  -0.42997
gfz2012jxiy  -0.24082
gfz2012kanu  -0.01965
gfz2012kbjb   0.58313
gfz2012kbzj  -0.21903
gfz2012kdmb  -0.32656
gfz2012keor   2.11440
gfz2012kiik  -0.06962
gfz2012kkcp   0.12632
gfz2012kkup   0.27975
gfz2012klba   0.10615
gfz2012klhx   0.15022
gfz2012kuct   0.04581
gfz2012kudo  -0.12289
gfz2012kvzv  -0.26996
gfz2012kwgo   0.30221
gfz2012lboz   0.20152
gfz2012lczo  -0.85380
gfz2012ldgs  -0.91717
gfz2012ldxg  -0.30216
gfz2012leam  -0.02376
gfz2012ledy  -0.22895
gfz2012lezd   0.26247
gfz2012lhnc   0.21376
gfz2012lltr  -1.26940
gfz2012llug   0.32683
gfz2012lpvn  -0.33407
gfz2012lqbg   0.69682
gfz2012lrjq  -0.56687
gfz2012lrol  -0.00000
gfz2012lrsv   0.49382
gfz2012lrtb  -0.37398
gfz2012lsni   0.31814
gfz2012lsvd   1.24720
gfz2012lszf   0.19979
gfz2012lxkv  -1.27450
gfz2012lzgv  -0.65083
gfz2012lzmr   0.09999
gfz2012maxy  -0.94077
gfz2012mcze  -0.30197
gfz2012mkpn   0.61224
gfz2012mlyf  -0.77769
gfz2012mpvy  -0.92754
gfz2012mtiu   0.28129
gfz2012mupa   0.31775
gfz2012mvwr   0.28934
gfz2012myeg  -0.09089
gfz2012myqa   4.52350
gfz2012naqz   2.28020
gfz2012nben   1.95690
gfz2012nbtn   0.66195
gfz2012nedn   0.70231
gfz2012ngic   1.49590
gfz2012nivl  -0.05040
gfz2012njha   2.10300
gfz2012nkdf  -0.93931
gfz2012noei   0.65103
gfz2012nojx   0.12733
gfz2012nolo   0.36845
gfz2012nqnk   0.03633
gfz2012nroo  -0.31506
gfz2012nsbz  -0.19832
gfz2012ntzv  -1.29880
gfz2012nutf   0.14978
gfz2012nzpz   0.64724
gfz2012oazn  -0.19218
gfz2012obgw  -1.19400
gfz2012obnq  -0.43986
gfz2012oedb  -0.63181
gfz2012oilt  -4.89600
gfz2012okhx   0.61566
gfz2012omvo  -0.17796
gfz2012ostk   0.12973
gfz2012ouyp  -0.53850
gfz2012ovqs   0.10856
gfz2012oycg   0.24330
gfz2012pazr   0.22796
gfz2012pcxi  -0.10401
gfz2012peex  -0.08013
gfz2012pkel  -1.49100
gfz2012plea  -1.16520
gfz2012pofl  -0.46560
gfz2012poju   0.94522
gfz2012pqlt   0.04446
gfz2012pqmu  -0.06342
gfz2012priv  -0.08662
gfz2012prlt  -0.39857
gfz2012pspd  -0.09617
gfz2012pygp   0.26114
gfz2012qjhs   0.13757
gfz2012qouy  -1.86410
gfz2012qqqp   0.00000
gfz2012qtgs  -0.69980
gfz2012qurq  -1.19920
gfz2012quso  -0.09362
gfz2012qvxn   0.16727
gfz2012qxcy   0.45468
gfz2012raen  -0.49593
gfz2012raex  -0.17319
gfz2012rats   0.53343
gfz2012rboy   0.28141
gfz2012rcbq   0.30674
gfz2012rcds  -0.41701
gfz2012rcnj  -0.76599
gfz2012rejq   0.14594
gfz2012repv  -0.00000
gfz2012rgkl   0.10093
gfz2012rjld  -0.58863
gfz2012rkoa   0.89244
gfz2012rmtr  -0.05986
gfz2012ronz  -0.12235
gfz2012royy   0.26727
gfz2012rpmb  -0.10121
gfz2012rqlg   0.15523
gfz2012rtqi   0.63640
gfz2012rubi  -1.34800
gfz2012ruks  -0.16487
gfz2012rwko  -0.24667
gfz2012rwov   2.34490
gfz2012rwql   1.86730
gfz2012sfer  -0.17679
gfz2012shtg   1.32040
gfz2012snhi  -2.52180
gfz2012spbj  -1.07120
gfz2012sqmv   0.14022
gfz2012sqvi  -0.29670
gfz2012szla  -0.10336
gfz2012tazz  -0.76662
gfz2012tbbp  -0.46710
gfz2012tbxt   0.77599
gfz2012teic  -0.02947
gfz2012thfx   0.06788
gfz2012tphj   0.54591
gfz2012ttoa   0.37186
gfz2012tyig   0.32141
gfz2012tyxl   0.37116
gfz2012tzcc  -0.34426
gfz2012uaqj   0.35018
gfz2012uciv   0.73521
gfz2012ulpd   0.17844
gfz2012uoef  -0.26392
gfz2012uqzp  -0.00000
gfz2012usba  -2.06390
gfz2012uvqf  -0.04863
gfz2012uxnz  -0.13255
gfz2012uyie   0.01355
gfz2012uyxb   0.34410
gfz2012uzom   0.88320
gfz2012vceo   1.34220
gfz2012vjgl   0.04534
gfz2012vmeh   0.50417
gfz2012vntz  -0.20909
gfz2012vpza  -0.56236
gfz2012vrua   0.02064
gfz2012vsev   0.05235
gfz2012vtif   0.25803
gfz2012vtxe  -0.35625
gfz2012vwvd  -0.07877
gfz2012vxvr  -0.16131
gfz2012vyzo  -0.33633
gfz2012wajj  -0.59330
gfz2012wdyx  -3.53080
gfz2012wecd   2.35440
gfz2012wgbb  -0.23363
gfz2012wizz  -0.50175
gfz2012wkfw   0.55311
gfz2012wklq   0.00717
gfz2012wpah  -0.75299
gfz2012wqnc   0.27553
gfz2012wrir  -0.66605
gfz2012wtkh  -0.16742
gfz2012wtkr   0.45732
gfz2012wtov  -0.15539
gfz2012wubh  -0.48913
gfz2012wvfl  -0.30995
gfz2012wwdo   3.78840
gfz2012wxer   0.37372
gfz2012wxlg  -0.16009
gfz2012wxnu   1.27230
gfz2012wybs  -0.44225
gfz2012wypz   0.31913
gfz2012xbjq  -0.14138
gfz2012xcgk  -0.28177
gfz2012xgqm  -0.16135
gfz2012xhci  -0.03013
gfz2012xjyv   0.02853
gfz2012xkkv  -0.53828
gfz2012xmxy  -0.14363
gfz2012xpmm  -0.34412
gfz2012xslk  -1.75870
gfz2012xssa  -0.10138
gfz2012xvwn  -0.25859
gfz2012xwqa   0.79286
gfz2012xyqp   0.05703
gfz2012xyua  -0.04578
gfz2012yfrp   0.49443
gfz2012yhag   0.08847
gfz2012yldu  -0.04635
gfz2012yoie   0.32695
gfz2012yqjj   0.45974
gfz2012yxxu  -0.51162
gfz2012yzod   0.83991
gfz2012zemh   0.88974
gfz2012zemz   2.86620
gfz2012zfag   2.87450
gfz2012zhmb  -0.23451
gfz2012zhyf   0.14252
gfz2012ziml  -0.24199
gfz2012zitl   0.18348
gfz2012zjpv  -0.35346
gfz2012zjre   1.08290
gfz2012zmbp  -0.07505
gfz2012zsqk   0.19603
gfz2013aayj  -0.00000
gfz2013acag   3.42820
gfz2013adey  -1.43490
gfz2013aeee  -1.24720
gfz2013akgj  -0.01199
gfz2013aknp  -0.17771
gfz2013apmm   0.43435
gfz2013aqaw   0.07902
gfz2013aspo  -0.53148
gfz2013avic  -0.14712
gfz2013azzr   1.95900
gfz2013bbrc  -0.56991
gfz2013bdke   0.43413
gfz2013bhgs   0.06249
gfz2013biji  -0.01334
gfz2013bnxc  -1.97410
gfz2013bobq  -0.13406
gfz2013bokp  -2.44190
gfz2013bouj   0.46489
gfz2013bzlb   0.06377
gfz2013bzzm  -1.94440
gfz2013cajk   0.46234
gfz2013cbsm  -0.85789
gfz2013ccnr  -0.82163
gfz2013ccon   3.53690
gfz2013cdfj   1.99640
gfz2013cefm  -1.74490
gfz2013cfyy  -0.38151
gfz2013cgou  -0.40921
gfz2013cnms  -0.24975
gfz2013cnve   3.47840
gfz2013cnyj  -1.91760
gfz2013comh   2.28170
gfz2013cptb  -1.83610
gfz2013cuoq   0.08970
gfz2013cvqg  -0.03069
gfz2013cwpn  -0.46765
gfz2013czeq  -0.32918
gfz2013ddbh   4.15240
gfz2013dddp  -0.17378
gfz2013diuf   0.30215
gfz2013dkly   0.14944
gfz2013dkmz  -2.08910
gfz2013dkym  -0.28557
gfz2013dnnx  -0.07247
gfz2013dofo   1.20270
gfz2013dojq  -0.20444
gfz2013dqls   0.17083
gfz2013drpk  -0.23979
gfz2013drxz   0.11774
gfz2013dsog   0.48208
gfz2013dspt   0.80462
gfz2013dsrk   0.54771
gfz2013dujm  -0.28947
gfz2013duzp  -0.28472
gfz2013dvye   4.35850
gfz2013dvyh  -0.38697
gfz2013dyop   2.85970
gfz2013egni  -0.01006
gfz2013egpu  -0.92695
gfz2013ehwe   2.98250
gfz2013ekpm   0.25727
gfz2013erse  -0.06655
gfz2013esnh   0.20042
gfz2013esnt  -0.12889
gfz2013eswe  -0.42051
gfz2013evsq  -0.13595
gfz2013fcto  -0.15181
gfz2013fdoo   0.27553
gfz2013fepm  -0.39548
gfz2013ffko   0.73369
gfz2013fiud   0.18007
gfz2013fkcl   0.16016
gfz2013fkii   4.63270
gfz2013flox  -0.02867
gfz2013fnzr   4.44910
gfz2013ftso   0.04453
gfz2013fwxa   0.03363
gfz2013fxge  -0.14427
gfz2013gaie  -0.36747
gfz2013gdnq  -1.69510
gfz2013geia  -0.14068
gfz2013geno   0.25456
gfz2013gihf  -0.12193
gfz2013gjdc  -0.49062
gfz2013glcr  -0.53507
gfz2013gmor  -0.06570
gfz2013gngz   1.36500
gfz2013gock  -0.13392
gfz2013govy  -0.44465
gfz2013gvdb   0.60611
gfz2013gvet   0.00000
gfz2013gxsu  -0.29572
gfz2013hbkh   1.12320
gfz2013hbkq   1.33170
gfz2013hisv  -0.07473
gfz2013hlbe  -0.59732
gfz2013hmbc   0.51112
gfz2013hpfq   0.00082
gfz2013hsfw   2.64790
gfz2013hudi   1.55320
gfz2013huwr  -0.03180
gfz2013hxcx  -0.10051
gfz2013iapa  -0.56466
gfz2013iayx  -0.55855
gfz2013icfh   0.12110
gfz2013icqt   0.47587
gfz2013idbb  -0.01570
gfz2013iexo  -0.96582
gfz2013ihcj   0.18218
gfz2013ijsr  -1.25950
gfz2013ijyg  -0.14392
gfz2013ikgo  -0.62424
gfz2013ilug   0.12871
gfz2013inux  -0.29521
gfz2013iodt   0.09101
gfz2013iopd   0.36210
gfz2013ippu  -0.25251
gfz2013iqzq   0.14425
gfz2013itsu   0.70056
gfz2013iunn  -0.10639
gfz2013iynu   0.71326
gfz2013iyqz   0.19829
gfz2013jarl  -0.19162
gfz2013jdrx  -0.29805
gfz2013jesk  -0.39853
gfz2013jfah  -0.39018
gfz2013jgij  -0.30417
gfz2013jgip  -0.68172
gfz2013jjrt   0.63951
gfz2013jjsi   0.46672
gfz2013jkut   0.01905
gfz2013jlst  -0.12042
gfz2013jmcc  -0.04539
gfz2013jphq   0.62226
gfz2013json   0.09361
gfz2013jusj   0.17863
gfz2013jvhy  -0.00970
gfz2013jwcn   0.01230
gfz2013jwvc   0.09909
gfz2013kccc   0.41286
gfz2013kdeo  -0.53764
gfz2013kgmj  -0.36583
gfz2013kheb   0.22634
gfz2013khli   0.14564
gfz2013kilx   0.78030
gfz2013kkzr   0.13479
gfz2013krei   3.31620
gfz2013kvtk  -0.03787
gfz2013kwag   0.58902
gfz2013kweg   0.05478
gfz2013kwps  -0.34185
gfz2013lajn  -1.13550
gfz2013lbiu  -0.59910
gfz2013lcos   0.30672
gfz2013ldpc   0.10339
gfz2013ldqb   0.12427
gfz2013lfyb  -0.30763
gfz2013lgbb   0.35745
gfz2013lgnl   1.37940
gfz2013lgxc   1.66430
gfz2013limo  -0.47039
gfz2013lixa  -0.31116
gfz2013lmdy   0.02911
gfz2013lmrs  -0.25931
gfz2013lsob   1.84160
gfz2013lupg   0.78371
gfz2013lwbk   0.13909
gfz2013lyko   0.25756
gfz2013lznu   0.18395
gfz2013malg   0.02094
gfz2013mded   0.24495
gfz2013mdiq   0.10308
gfz2013mghe   0.03759
gfz2013mhjf   0.11245
gfz2013mmlw  -0.04736
gfz2013mmwq  42.57100
gfz2013mnac   0.15621
gfz2013mnei  -0.16049
gfz2013mqmv  -1.14080
gfz2013mtqd  -0.15313
gfz2013mvdm   0.52131
gfz2013mvgr  -0.81784
gfz2013mxee  -0.12037
gfz2013mxrz   0.55473
gfz2013mzwe  -0.93273
gfz2013nabl   0.35717
gfz2013ncjp  -0.11391
gfz2013nedo   1.53110
gfz2013neuc  -0.52025
gfz2013ngnt  -0.90038
gfz2013nhjb   0.19307
gfz2013njnd   0.18811
gfz2013nlxz   0.29542
gfz2013nmac   0.76788
gfz2013nnzf  -0.02316
gfz2013nojf   0.71757
gfz2013nppd   1.56470
gfz2013nqgw  -0.31665
gfz2013nttq  -0.35754
gfz2013nuor   0.10850
gfz2013nvdj  -0.46571
gfz2013nvia   1.08480
gfz2013nwdi   1.09270
gfz2013ofls  -0.00862
gfz2013oifr  -0.07310
gfz2013oilg  -0.15840
gfz2013oinc  -0.24073
gfz2013ojti  -0.17290
gfz2013oksi   0.41001
gfz2013onjy  -0.21419
gfz2013oqsc   0.25533
gfz2013orjg  -0.31609
gfz2013ornz   0.35008
gfz2013ouvt   0.20355
gfz2013ovyg  -0.16894
gfz2013ozku  -0.03192
gfz2013oznn   2.77680
gfz2013ozqm   0.74433
gfz2013ozrf  -0.26694
gfz2013ozrp   0.13910
gfz2013pakq  -0.00822
gfz2013pcos  -0.51529
gfz2013pfbx   0.25672
gfz2013pfeb  -0.03349
gfz2013pfnf   0.31890
gfz2013pigb   0.16660
gfz2013piwd  -0.16223
gfz2013pkbs  -0.40772
gfz2013plhp   0.30440
gfz2013pndn   0.03179
gfz2013ppqq  -0.10857
gfz2013ptit   0.22770
gfz2013pupd   0.31481
gfz2013pweb  -0.04485
gfz2013pwjd   0.18354
gfz2013pwyt  -0.16477
gfz2013pxsj  -0.14146
gfz2013pxtx  -0.33490
gfz2013pxya  -0.23828
gfz2013pzgs   0.00000
gfz2013pzgt  -0.45895
gfz2013qali  -1.02080
gfz2013qbca  -0.17777
gfz2013qbys   0.03882
gfz2013qcck   0.23099
gfz2013qckf  -0.24418
gfz2013qesa   0.06817
gfz2013qfmm  -0.21571
gfz2013qfsq   0.06527
gfz2013qhtx   0.12642
gfz2013qhwz   0.15285
gfz2013qidm  -0.94198
gfz2013qjmk   0.58806
gfz2013qmer  -0.22100
gfz2013qnxc  -0.36631
gfz2013qpgd  -0.16705
gfz2013qpqb  -0.33926
gfz2013qqrr  -0.02586
gfz2013qrxy  -0.13504
gfz2013qvcr   0.16852
gfz2013qwgb   0.00841
gfz2013qwin   0.31197
gfz2013qzdq  -0.88987
gfz2013rait  -0.99751
gfz2013rdmo  -0.08149
gfz2013rdoo  -0.01535
gfz2013reav   0.34713
gfz2013rjgt   0.58441
gfz2013rjsx   0.45473
gfz2013rluo  -0.09607
gfz2013rotn   0.22924
gfz2013rqcy  -0.26971
gfz2013rqmp   0.08622
gfz2013rsnr  -0.88991
gfz2013rsts  -0.26707
gfz2013rwfe  -0.11893
gfz2013ryxm  -0.01453
gfz2013sart   2.14590
gfz2013scai  -2.19480
gfz2013scub   0.04514
gfz2013sdus   0.17258
gfz2013sebq   0.78158
gfz2013sfds  -0.76097
gfz2013sfto  -0.15631
gfz2013shlq   0.27031
gfz2013shzy   0.07060
gfz2013skkm  -0.00000
gfz2013sllq   0.48291
gfz2013snbr  -0.02893
gfz2013snyf   2.55280
gfz2013sqkb  -0.06867
gfz2013suln   0.07251
gfz2013svci   0.46127
gfz2013svqv   0.09397
gfz2013syqk   0.15264
gfz2013tamc  -0.03428
gfz2013tbzy   0.81816
gfz2013tcbk   0.87396
gfz2013tcxc   0.26064
gfz2013tcxq  -0.26444
gfz2013tdau   0.65652
gfz2013tdkk  -0.22104
gfz2013tect   0.38827
gfz2013thtc  -2.92330
gfz2013tjlx   0.11608
gfz2013tlaf  -1.80470
gfz2013toea   0.68252
gfz2013toxf   0.29734
gfz2013tqbb  -0.21933
gfz2013ttoz   0.98120
gfz2013tusd   0.20063
gfz2013tuzv   2.40480
gfz2013tvmw  -0.05147
gfz2013uauo  -0.60819
gfz2013ufku  -0.40678
gfz2013ufxk   0.23158
gfz2013ugax   2.23120
gfz2013uhlm   0.40445
gfz2013umya  -0.18862
gfz2013upcc  -0.18595
gfz2013upee  -0.06793
gfz2013upiv  -0.21874
gfz2013uqvu  -0.47612
gfz2013uthl  -0.37134
gfz2013utsh   0.16840
gfz2013uxej  -0.37034
gfz2013vcoa  -0.37500
gfz2013vefs   0.43362
gfz2013vfyw   0.27070
gfz2013vfzp   1.99100
gfz2013vgau   0.89589
gfz2013vgev  -0.01294
gfz2013vhsb  -0.05155
gfz2013vhzu  -0.00000
gfz2013vijl  -0.11231
gfz2013viul   0.54495
gfz2013vjjc   1.29720
gfz2013vlth   0.23086
gfz2013vmro  -0.75396
gfz2013vnfj   0.55624
gfz2013vpnf   0.17495
gfz2013vqot   0.85527
gfz2013vrmy  -0.52564
gfz2013vsbl  -0.10951
gfz2013vsxi   1.12590
gfz2013vuja   0.18018
gfz2013vvrq   0.09625
gfz2013vxta   0.02403
gfz2013vzbo   0.01695
gfz2013wbyr  -0.58482
gfz2013wgeu  -0.89888
gfz2013whts  -0.03799
gfz2013wjmm  -0.07905
gfz2013wmfd   1.31360
gfz2013wnql   0.20910
gfz2013woze  -0.17230
gfz2013wpga  -0.35383
gfz2013wqhq  -0.03476
gfz2013wrgw   0.21788
gfz2013wtzl  -0.08435
gfz2013wuml   0.67562
gfz2013wuon   0.29488
gfz2013wwec   0.00150
gfz2013xcmp   0.14441
gfz2013xgek  -0.02639
gfz2013xizq   2.80790
gfz2013xklb  -0.89152
gfz2013xkwt   0.14238
gfz2013xmqg   0.64308
gfz2013xmul   0.22481
gfz2013xpfa  -0.14932
gfz2013xpsm  -0.60587
gfz2013xqnn   0.05815
gfz2013xsdt  -0.54254
gfz2013xtwj  -0.47938
gfz2013xvxf  -0.35492
gfz2013xvyl   0.50343
gfz2013xwxn   3.45280
gfz2013xwzd   2.19080
gfz2013xxcc  -0.17966
gfz2013xxwv   0.08790
gfz2013xxxq  -0.15865
gfz2013xyzb  -0.04722
gfz2013xzcg  -0.12353
gfz2013ydtm  -0.20257
gfz2013yewz   0.06451
gfz2013yhbu   0.11122
gfz2013yhpk  -0.27320
gfz2013yixl   0.17581
gfz2013ylbx   0.11014
gfz2013ymky   1.74260
gfz2013ymxs   0.90017
gfz2013ynmw   0.39517
gfz2013ypdc  -0.06379
gfz2013yrmc  -0.25092
gfz2013yulx  -0.79656
gfz2013yvqu   0.25437
gfz2013yzte  -0.30355
gfz2013zaxb   0.00000
gfz2013zfhu  -0.59071
gfz2013ziyr  -0.42929
gfz2013zjtw   0.17629
gfz2013zmoc  -1.59450
gfz2013zmtb   0.12876
gfz2014abgd   0.31772
gfz2014adjs   0.71100
gfz2014adoj  -0.88761
gfz2014afmx  -0.09081
gfz2014agde   0.07875
gfz2014agyz  -1.03830
gfz2014aidn  -0.05265
gfz2014ajlk  -0.14848
gfz2014ajtf  -0.14941
gfz2014alwz   0.47922
gfz2014amsb  -0.31178
gfz2014ande  -0.13987
gfz2014arnc   0.28175
gfz2014arpf  -0.41073
gfz2014atbl  -0.71375
gfz2014azqs   0.87518
gfz2014bagd  -2.91650
gfz2014bazc  -1.35390
gfz2014bbro  -0.56138
gfz2014bcae   0.18973
gfz2014bdfd   0.17860
gfz2014bekc  -0.45880
gfz2014bezu  -0.49908
gfz2014bfng   0.13842
gfz2014bfqo   1.16170
gfz2014bhvd   0.46142
gfz2014bjgt   0.15931
gfz2014bjsy   0.57821
gfz2014bmfa   0.08347
gfz2014bqes   0.27521
gfz2014bwue   0.21568
gfz2014bzna  -0.28916
gfz2014bztt   0.21710
gfz2014caop   0.36074
gfz2014ccbz  -0.63995
gfz2014cdwi  -0.24572
gfz2014cgog   0.62334
gfz2014chdv   0.30322
gfz2014citw   0.01966
gfz2014claq  -0.04649
gfz2014clnj  -0.40619
gfz2014clnq  -0.25192
gfz2014cqyo  -1.98220
gfz2014crpy   0.03765
gfz2014cueu   0.18246
gfz2014cvkm  -0.54303
gfz2014cvxx  -0.12705
gfz2014cxcj  -0.07988
gfz2014cybg  -0.07376
gfz2014cyvm   0.06022
gfz2014czno   2.28880
gfz2014czqi  -0.16438
gfz2014czua  -0.48793
gfz2014dbdf  -0.16158
gfz2014dffd   0.01561
gfz2014dgiy  -0.29141
gfz2014disp  -0.97319
gfz2014dlri  -0.56306
gfz2014dpzx   0.21519
gfz2014dwls   0.20188
gfz2014dwsy  -0.19127
gfz2014eage  -0.59652
gfz2014ebmc  -1.65410
gfz2014edfx  -0.86279
gfz2014efkk  -1.20900
gfz2014efsd  -0.15988
gfz2014eght  -0.32328
gfz2014egwu  -2.08780
gfz2014ejvf   1.02690
gfz2014ekdt  -0.02676
gfz2014emrg  -0.11074
gfz2014eqpl  -0.73931
gfz2014eqss   0.34868
gfz2014erbj  -0.35203
gfz2014ettc   2.40970
gfz2014ewcz  -0.70498
gfz2014ewrw  -0.30945
gfz2014exmv   0.00000
gfz2014exxa  -0.56052
gfz2014fcms   1.26410
gfz2014gcza  -0.33937
gfz2014gdsq  -0.34457
gfz2014gesb   0.25557
gfz2014geuy  -0.15123
gfz2014gezs   0.13547
gfz2014gfdj  -0.10345
gfz2014gfhf  -0.27325
gfz2014ggnq  -0.29952
gfz2014ggpd   0.15432
gfz2014ggsr   0.18838
gfz2014ghoq  -0.59467
gfz2014gilf   0.01276
gfz2014gkgf  -0.52867
gfz2014gkgl   0.99415
gfz2014gkhp  -0.78178
gfz2014gkjl   0.06279
gfz2014gkjt   0.19903
gfz2014gkjw   0.00000
gfz2014gkjy  -0.23371
gfz2014gkln  -0.06872
gfz2014gklq  -0.10365
gfz2014gkmm   0.11036
gfz2014gkob   0.47588
gfz2014gkpd   0.01266
gfz2014gkpj  -3.46380
gfz2014gkqf   0.26575
gfz2014gkqu  -0.90292
gfz2014gkrl   0.26001
gfz2014gkrz   0.50345
gfz2014gksj   0.12300
gfz2014gksu   0.42577
gfz2014gktn   0.01027
gfz2014gktq   0.10468
gfz2014gkut  -0.21879
gfz2014gkxi  -0.01050
gfz2014gkxm   0.20543
gfz2014glcu   0.39919
gfz2014glcy  -0.12930
gfz2014glfn  -0.30113
gfz2014glgo   0.21615
gfz2014glhs   0.04833
gfz2014glov   0.09714
gfz2014glsh  -0.16184
gfz2014gltj  -0.01065
gfz2014gltx   0.36723
gfz2014glvn   2.15140
gfz2014glvu   0.02592
gfz2014glxd   0.17076
gfz2014glxy   0.23763
gfz2014gmci   0.24262
gfz2014gmes   0.03744
gfz2014gmge   0.24931
gfz2014gmhp   0.33367
gfz2014gmhr  -0.10890
gfz2014gmic   0.11262
gfz2014gmjo  -0.13172
gfz2014gmjz   0.30053
gfz2014gmku   0.02172
gfz2014gmlz   0.41937
gfz2014gmmk  -0.03890
gfz2014gmmt   0.38945
gfz2014gmnb   0.63562
gfz2014gmnw   0.21468
gfz2014gmpy   0.16765
gfz2014gmqw  -0.27457
gfz2014gmtb  -3.34870
gfz2014gmtj   0.11643
gfz2014gmto   0.12402
gfz2014gmuk   0.11336
gfz2014gmuw   0.51202
gfz2014gmvr  -0.15680
gfz2014gmzl   0.03279
gfz2014gmzs  -0.06074
gfz2014gndq   0.15189
gfz2014gnfd  -0.21063
gfz2014gnfs  -0.14459
gfz2014gngg  -0.01313
gfz2014gnhk   0.66321
gfz2014gnig   0.66518
gfz2014gnmp   0.40337
gfz2014gnms  -0.08573
gfz2014gnmx   0.08498
gfz2014gnno  -0.25465
gfz2014gnnt   0.15495
gfz2014gnom   0.07110
gfz2014gnoz   0.29146
gfz2014gnqt   0.32653
gfz2014gnre  -0.05302
gfz2014gnsi   1.29620
gfz2014gnwg  -0.05679
gfz2014gnxb  -0.24013
gfz2014goba   0.38505
gfz2014goei   0.22688
gfz2014gogv  -0.30419
gfz2014gohm   0.28463
gfz2014golz  -0.16426
gfz2014gono   0.20441
gfz2014goqw   0.11462
gfz2014gpac  -0.26211
gfz2014gpbx   0.36458
gfz2014gpce   0.00000
gfz2014gpdo   0.63857
gfz2014gpgd   0.07750
gfz2014gphr  -0.04798
gfz2014gpmm  -0.55638
gfz2014gpnf  -0.34689
gfz2014gpqq   0.65938
gfz2014gpuk   0.01614
gfz2014gpvk   0.07756
gfz2014gpxl   0.13475
gfz2014gpxv   0.04692
gfz2014gqbj  -0.36170
gfz2014gqco  -0.52689
gfz2014gqed  -0.07008
gfz2014gqer  -2.76810
gfz2014gqgf   0.06978
gfz2014gqhe   0.08250
gfz2014gqiy  -0.23832
gfz2014gqqz   0.01597
gfz2014gqro   0.15545
gfz2014gqup  -0.30504
gfz2014gqve  -0.00000
gfz2014grcv   0.30968
gfz2014grfp   0.45580
gfz2014grgn  -0.42642
gfz2014grho  -0.09075
gfz2014gsdw  -0.36005
gfz2014gsgv   0.15305
gfz2014gsjg  -0.21442
gfz2014gsqs  -0.16476
gfz2014gtef  -0.65815
gfz2014gtlu  -0.09442
gfz2014gtwz  -0.08820
gfz2014gufl   0.14296
gfz2014gull  -0.39802
gfz2014gulp   0.19067
gfz2014gumd  -0.06689
gfz2014gutm   0.07161
gfz2014gvhw  -0.10913
gfz2014gvqj   0.10118
gfz2014gvrd   0.49271
gfz2014gwab  -0.29378
gfz2014gwap  -0.31765
gfz2014gwqj   0.62669
gfz2014gxag   0.12968
gfz2014gxkh  -0.08575
gfz2014gxqf   0.14189
gfz2014gxqu  -0.05077
gfz2014gxqx   0.33687
gfz2014gxvf  -0.02895
gfz2014gxxh   0.08074
gfz2014gxxo  -0.03890
gfz2014gyxd  -0.11720
gfz2014gzrm   1.33500
gfz2014gzue  -0.00000
gfz2014haey   0.12459
gfz2014hafk  -0.00000
gfz2014hagb   0.05604
gfz2014haos  -0.25000
gfz2014hasj   0.03852
gfz2014hauo   1.55530
gfz2014hbjm  -0.38753
gfz2014hcmj   0.11916
gfz2014hcns  -0.03882
gfz2014hetr   0.34401
gfz2014heyq  -0.12298
gfz2014hfad   0.06402
gfz2014hfhl  -0.27338
gfz2014hfzf  -0.07623
gfz2014hgqo  -0.17014
gfz2014hhfs  -0.36351
gfz2014hhwx   0.60690
gfz2014hifp   0.23654
gfz2014hiih   0.05613
gfz2014hiiz   0.08349
gfz2014hjgh   0.06910
gfz2014hjgo  -0.15714
gfz2014hjgr   0.08950
gfz2014hjhu   0.16888
gfz2014hjij   0.01910
gfz2014hjkp   0.07105
gfz2014hjlx  -0.07842
gfz2014hkcf   0.06792
gfz2014hkck  -0.33722
gfz2014hlib  -0.00000
gfz2014hmgf   0.02395
gfz2014hmvx  -0.15893
gfz2014hmzg  -0.28392
gfz2014hnfm   0.06747
gfz2014hoap  -0.10172
gfz2014hocg   0.05979
gfz2014hodc   0.23819
gfz2014hokj   0.29075
gfz2014hphw   0.22105
gfz2014hppw  -0.38643
gfz2014hqxs  -0.29832
gfz2014hqyx   0.00698
gfz2014hriu  -0.11488
gfz2014hrtn   0.09670
gfz2014hsqo  -0.33763
gfz2014hssr   0.03863
gfz2014hszs   0.10658
gfz2014htbf  -0.39953
gfz2014huaj   0.28762
gfz2014hugz   0.30405
gfz2014hvdm   0.15076
gfz2014hwsy   0.03580
gfz2014hwwi  -0.16076
gfz2014hxev  -0.10705
gfz2014hyal  -0.04788
gfz2014hyvq   0.05578
gfz2014hzdy   0.13031
gfz2014hzfr  -0.07137
gfz2014hzfw  -0.09300
gfz2014hzgn  -0.13888
gfz2014hzhe  -0.23795
gfz2014hzht  -0.28443
gfz2014hzig  -0.22210
gfz2014hzze  -0.46617
gfz2014iani  -0.17344
gfz2014iava   1.00610
gfz2014iazy   0.60512
gfz2014icqt   0.42594
gfz2014ieam  -0.14694
gfz2014iege  -0.05279
gfz2014ieho  -1.33340
gfz2014ifue   0.15560
gfz2014ifzj   0.50175
gfz2014igsj   0.15797
gfz2014igur  -0.17983
gfz2014ijvh  -0.00000
gfz2014ikbk  -0.00000
gfz2014ikvd   0.19725
gfz2014ilwu   0.20524
gfz2014imap  -2.05590
gfz2014immt   0.25291
gfz2014imnn   0.07035
gfz2014inbj   0.03974
gfz2014iobd  -0.00131
gfz2014iqzj  -0.24962
gfz2014irci   0.04965
gfz2014ircq   0.15203
gfz2014irrg   0.23496
gfz2014isdq   0.36882
gfz2014isff   0.33103
gfz2014issk   0.14595
gfz2014isub   0.14386
gfz2014isys  -0.64972
gfz2014itab   0.08555
gfz2014itbe   0.26847
gfz2014itbu   0.34382
gfz2014itfc   0.33574
gfz2014itgh   0.34336
gfz2014itjx   0.14081
gfz2014itkw  -0.09270
gfz2014itpj  -0.67633
gfz2014iuhq   0.20447
gfz2014ivep   0.41265
gfz2014iwnf  -0.20351
gfz2014iwwl  -0.73342
gfz2014ixga   0.16464
gfz2014ixky  -0.00000
gfz2014iywt  -0.14929
gfz2014jagg   0.20016
gfz2014jass  -0.33059
gfz2014jatq  -0.07161
gfz2014jcjt  -0.00000
gfz2014jcmt   0.02325
gfz2014jdoy  -1.34340
gfz2014jdxj  -0.08722
gfz2014jesb   0.21434
gfz2014jfis  -0.96062
gfz2014jggm  -0.17120
gfz2014jhra   0.27212
gfz2014jipr   0.99576
gfz2014jird   0.18841
gfz2014jjhc   0.15983
gfz2014jjkh   0.19873
gfz2014jjln   0.18643
gfz2014jjqk   0.21365
gfz2014jkxe  -0.41842
gfz2014jmnk   0.64134
gfz2014jmsy   0.23088
gfz2014jnea   0.51223
gfz2014jnxm   1.61780
gfz2014jnyv  -0.88659
gfz2014joak   0.31064
gfz2014jomw  -0.36953
gfz2014jozl   0.11991
gfz2014jpep   0.26220
gfz2014jpez   0.11426
gfz2014jpfn  -0.54631
gfz2014jpgu   0.04179
gfz2014jpxs  -0.36498
gfz2014jtcz  -1.32520
gfz2014jtfe  -0.40862
gfz2014jvow   0.36722
gfz2014kara  -0.75073
gfz2014kblw  -0.41256
gfz2014kbuk  -0.03507
gfz2014kbwm   0.24892
gfz2014khan   0.07880
gfz2014kizt  -0.11009
gfz2014kjee  -0.21203
gfz2014kjzb  -0.24230
gfz2014kkhh  -0.11093
gfz2014kmmt   0.61733
gfz2014knxs   1.47520
gfz2014krlg   0.35665
gfz2014kscf  -0.07505
gfz2014ksmz  -2.39010
gfz2014kssw  -0.15675
gfz2014kwie  -0.14019
gfz2014kwrg  -0.16223
gfz2014kwwg  -0.56968
gfz2014kxqf  -0.15204
gfz2014kyan  -0.16090
gfz2014kyhe  -0.13810
gfz2014kytf   0.48056
gfz2014kzzm   0.25678
gfz2014lbcq   0.01656
gfz2014lchy   0.05491
gfz2014lddn  -0.14207
gfz2014lehw   0.01926
gfz2014lgqn   0.12468
gfz2014lhqn  -0.43211
gfz2014ljbr   0.13863
gfz2014lnmw  -0.31858
gfz2014lnqy  -0.53635
gfz2014lpfc   1.34590
gfz2014lpim  -0.36501
gfz2014lrzx  -0.50913
gfz2014lurd   0.12662
gfz2014lvgn  -0.21303
gfz2014lwom   0.03035
gfz2014lwsw  -0.18929
gfz2014lwvb  -0.16699
gfz2014lxnc   0.25269
gfz2014lxqr  -0.00000
gfz2014lyhk   0.03353
gfz2014lyhp   0.08671
gfz2014lzal  -0.41496
gfz2014lzow   0.51840
gfz2014macx   0.15259
gfz2014madw   0.22327
gfz2014mawp   0.51612
gfz2014mcse   0.22212
gfz2014mlqw  -0.23423
gfz2014mlrr  -0.14253
gfz2014mmbu  -0.22925
gfz2014mmtb   0.54801
gfz2014moaw  -0.68139
gfz2014mogb   0.63888
gfz2014mrbm   0.80010
gfz2014mtum   0.03391
gfz2014muzd   0.02229
gfz2014mvza   0.23349
gfz2014mwnj  -0.04395
gfz2014mxkr   0.17792
gfz2014myqz  -1.65540
gfz2014nafd  -0.09125
gfz2014navw  -0.39075
gfz2014ndue   0.08246
gfz2014ngnd  -0.42719
gfz2014ngsk  -0.11834
gfz2014ngvt   0.17592
gfz2014nhyb   0.19484
gfz2014niqj  -0.21927
gfz2014nkdx  -1.26300
gfz2014nnxd   0.29215
gfz2014nowp   0.50091
gfz2014npdk   0.87895
gfz2014nphm  -0.54996
gfz2014npnn   0.22513
gfz2014nqbs   0.54220
gfz2014nqfm  -0.03157
gfz2014nqpk  -0.61885
gfz2014nrie  -0.55477
gfz2014nvdi   0.41383
gfz2014nvxd   0.10338
gfz2014nyeh   0.16555
gfz2014nyfb  -0.02088
gfz2014nyko   1.35530
gfz2014nylm  -1.31320
gfz2014obbs  -1.31660
gfz2014odgv   0.09700
gfz2014ofhm  -0.80723
gfz2014oghp   0.11861
gfz2014oims  -0.13276
gfz2014oinz   0.23219
gfz2014ojdg   0.14054
gfz2014okec   0.05357
gfz2014okjw   0.93531
gfz2014okxu  -0.03538
gfz2014omyn  -0.50762
gfz2014oned   0.54673
gfz2014opqr  -0.34727
gfz2014oqhw  -0.14983
gfz2014orgz   0.20961
gfz2014orxs  -0.15632
gfz2014oryw   0.28799
gfz2014osvx   0.00000
gfz2014owii   0.13447
gfz2014owxc   0.44237
gfz2014oyly   0.09538
gfz2014oypt  -0.47850
gfz2014ozmj  -0.04266
gfz2014pghi  -0.01569
gfz2014pjer   0.30010
gfz2014pjum   0.01302
gfz2014pkll  -0.07040
gfz2014pmxt   0.11414
gfz2014pngj  -0.17351
gfz2014ppyi  -0.18919
gfz2014ppzf  -0.43255
gfz2014pqqp   0.52180
gfz2014prdm   1.04730
gfz2014pxbu   0.49294
gfz2014qbzi  -0.30872
gfz2014qcxs   0.24977
gfz2014qdog   1.23360
gfz2014qfzq  -0.05917
gfz2014qifa  -0.09638
gfz2014qjfl  -0.21626
gfz2014qlxd  -0.25532
gfz2014qngj  -1.11370
gfz2014qqfg  -0.76805
gfz2014qqhm   0.11981
gfz2014qsby  -0.34036
gfz2014qtwv  -0.17723
gfz2014raau  -0.16909
gfz2014rbpx  -0.20370
gfz2014rbsl   2.31620
gfz2014rcyx   0.13868
gfz2014rdoz   0.04459
gfz2014rdsn  -0.29225
gfz2014rfeb   2.26180
gfz2014rhju  -0.39736
gfz2014rhnz   0.31818
gfz2014rhwq  -0.16952
gfz2014riel   0.30270
gfz2014rils  -0.82480
gfz2014rnrn   0.72347
gfz2014roba   0.13915
gfz2014romy  -0.44156
gfz2014royq   0.28867
gfz2014rtcu   3.17460
gfz2014rucz   0.06165
gfz2014rwos   1.42010
gfz2014ryfb  -0.05583
gfz2014sryn   0.70517
gfz2014ssds   0.90329
gfz2014ssmv   0.30940
gfz2014ssvz  -0.27697
gfz2014swgt   0.16991
gfz2014tabg  -0.03329
gfz2014tfgn   0.42990
gfz2014tgcw   0.22213
gfz2014tovs  -2.60210
gfz2014tqly   0.36979
gfz2014tqsf   0.00000
gfz2014tqth  -0.12034
gfz2014tzsd  -0.05068
gfz2014uapa  -0.08280
gfz2014ubyq  -0.55338
gfz2014uohh  -0.29913
gfz2014uuuf   0.57951
gfz2014uvrk   1.46290
gfz2014uxyg   0.39119
gfz2014uyrq  -0.03327
gfz2014uzaw  -0.70713
gfz2014vcev   0.34679
gfz2014vdnh  -0.67986
gfz2014veit  -0.42033
gfz2014vhld   0.01722
gfz2014vhms   0.07921
gfz2014vivo   0.17604
gfz2014vjoh  -0.49894
gfz2014vjoz   0.38665
gfz2014vljh  -1.26990
gfz2014vnxu  -0.15143
gfz2014vpus   2.14340
gfz2014vqqa  -0.06744
gfz2014waoo  -0.07525
gfz2014watn   0.22200
gfz2014wjko   0.60421
gfz2014wmsc   3.42350
gfz2014wqcp  -0.15550
gfz2014wrkh  -0.40181
gfz2014wsjh   0.07308
gfz2014wwib  -0.17303
gfz2014xbyr  -0.23450
gfz2014xhwk  -0.24066
gfz2014xjri  -0.05140
gfz2014xkdg   0.17896
gfz2014xmnp   0.05982
gfz2014xoji  -0.28823
gfz2014xqby  -0.16178
gfz2014yazi   0.38471
gfz2014yhhm   0.01737
gfz2014ynhc   0.07795
gfz2014yppv  -0.24224
gfz2014yrug   0.10451
gfz2014yula   0.34030
gfz2014yyiy   0.09644
gfz2014zcgo  -0.37098
gfz2014zdtl   0.02759
gfz2014zkys  -0.17810
gfz2014zlgp  -0.71971
gfz2015abpw   3.93190
gfz2015aide   0.53559
gfz2015ansu   0.25456
gfz2015aqav   0.59760
gfz2015aqbq  -0.78404
gfz2015arpd  -0.33273
gfz2015aruz   0.08965
gfz2015atxv  -0.20618
gfz2015aush  -0.02564
gfz2015azzp  -0.24282
gfz2015bavu   0.09985
gfz2015bdyd  -0.10539
gfz2015berb   0.29028
gfz2015bfjm  -0.58344
gfz2015bfzt   0.01381
gfz2015bnho  -0.06560
gfz2015bphe  -0.13273
gfz2015bpxl   0.18386
gfz2015bsnl  -0.45950
gfz2015bucr   0.10683
gfz2015bvsj  -0.45744
gfz2015bvxx  -0.66477
gfz2015byfn   0.71111
gfz2015bzej   1.23290
gfz2015chhn  -0.75269
gfz2015chqn   0.36072
gfz2015cpuo   0.92536
gfz2015cyjd   0.15302
gfz2015ddhl  -0.16146
gfz2015dizn  -0.91223
gfz2015drlk   0.00000
gfz2015dskr   0.80228
gfz2015dtqr   0.18675
gfz2015dvbn   0.01538
gfz2015ecgq  -1.96760
gfz2015ednc   0.42028
gfz2015eeyq   0.00981
gfz2015eezy  -0.04577
gfz2015egbk   0.08280
gfz2015egxq  -0.75005
gfz2015ehou   0.12907
gfz2015ehpz  -0.29257
gfz2015elgy   0.09408
gfz2015eljz  -0.05261
gfz2015emcg   0.24421
gfz2015emin   0.38838
gfz2015emtg   0.46335
gfz2015enth   0.39925
gfz2015etai   1.27430
gfz2015evpl   0.82010
gfz2015eyqs  -0.23783
gfz2015fbbk  -0.09890
gfz2015fbew  -0.27337
gfz2015fcua  -0.91685
gfz2015fdpr   0.17119
gfz2015fjhk   0.19458
gfz2015fkbc   0.00000
gfz2015fkgt  -1.82190
gfz2015fkic   1.07530
gfz2015fkjs   0.20222
gfz2015fkkd  -0.55351
gfz2015fkuu   0.33315
gfz2015flis  -0.82479
gfz2015fpez  -0.88194
gfz2015fvoi  -0.32914
gfz2015fwkq  -0.15441
gfz2015fwnf  -0.07379
gfz2015gckd   0.29865
gfz2015gjbr  -0.77912
gfz2015gkwa  -0.85805
gfz2015gmgf  -0.05018
gfz2015gnmy   1.62930
gfz2015gzja   0.02004
gfz2015hdbn  -0.59202
gfz2015hdcp  -0.35481
gfz2015hepg   0.28721
gfz2015hgbk  -0.28497
gfz2015hhbd  -0.50394
gfz2015hlfq  -0.37579
gfz2015hpmk   0.00000
gfz2015hslo  -0.02820
gfz2015hvgs  -0.06294
gfz2015hwkv   0.23412
gfz2015hwzw   0.00344
gfz2015ijmh  -0.06875
gfz2015imty  -0.03492
gfz2015imyp  -0.40649
gfz2015ixyy   1.91170
gfz2015jkdw  -0.09644
gfz2015jmlf  -0.07953
gfz2015jmlu  -1.00370
gfz2015jpap   1.09310
gfz2015jxbx  -0.29710
gfz2015jzcv   0.10025
gfz2015kalm  -0.01773
gfz2015kfsu  -0.14875
gfz2015kphk   0.12060
gfz2015kquq  -0.04834
gfz2015kxxs  -1.73800
gfz2015lcma  -0.49704
gfz2015lcuo  -0.44353
gfz2015lfma  -0.11569
gfz2015lfos  -0.00796
gfz2015lfud  -0.41185
gfz2015lhjq   0.19029
gfz2015lhjy   0.26825
gfz2015ltii   0.12530
gfz2015ltro  -0.00832
gfz2015lytv  -0.32096
gfz2015lzad  -0.19980
gfz2015mbgr  -0.39108
gfz2015mddr  -0.09309
gfz2015mfpy   1.92460
gfz2015mhym  -0.06790
gfz2015micz  -0.40535
gfz2015mpte  -0.10516
gfz2015mvzk   0.18371
gfz2015nerz  -2.62780
gfz2015npud  -0.83612
gfz2015ntpk   0.96492
gfz2015nuxz  -1.85050
gfz2015nwug  -0.83100
gfz2015ocdz   0.88201
gfz2015ocwr   0.00696
gfz2015ofpd   0.01965
gfz2015omab   0.38122
gfz2015orkl   0.00768
gfz2015oumn   0.00000
gfz2015oyfl   3.59660
gfz2015pcvt   0.16813
gfz2015pjgr  -0.40809
gfz2015plal  -0.01982
