# Nsamples: 1428  MAD:  0.320  mean:  0.050  variance:  1.397
gfz2012fqcg  -0.83330
gfz2012fwfo  -3.41760
gfz2012fwob  -0.01261
gfz2012fzfa   0.16232
gfz2012gemm   0.45572
gfz2012gill  -0.13011
gfz2012gnvh  -0.06347
gfz2012gwqb  -0.02330
gfz2012hdbm   0.03132
gfz2012hnul   0.68094
gfz2012hnuw  -0.11809
gfz2012hogg   0.32975
gfz2012holl   0.95092
gfz2012hsex   0.67914
gfz2012htet   0.48916
gfz2012hwyo  -0.26399
gfz2012hyaa  -0.35320
gfz2012hzbe   0.07816
gfz2012iamr  -0.17372
gfz2012ibld  -0.25606
gfz2012icmv  -1.76620
gfz2012idje  -0.10093
gfz2012iffo   0.11284
gfz2012iivw   0.02965
gfz2012ilxh  -0.21904
gfz2012imay  -0.05986
gfz2012imbd   0.79756
gfz2012intn   0.26530
gfz2012iyrb   1.09980
gfz2012jlox  -1.11580
gfz2012jmwd   0.25679
gfz2012joqe   0.23171
gfz2012jpeh  -1.24500
gfz2012jpgs  -0.33816
gfz2012jshk  -0.72071
gfz2012jted   0.09516
gfz2012jupx  -0.16314
gfz2012jxiy   0.11277
gfz2012kanu   0.08725
gfz2012kbjb   0.01661
gfz2012kbzj   0.12362
gfz2012kdmb  -0.33020
gfz2012keor  -1.05110
gfz2012kiik  -0.29078
gfz2012kkcp   0.01659
gfz2012kkup   0.50762
gfz2012klhx   0.17177
gfz2012kuct   0.02313
gfz2012kudo  -0.10294
gfz2012kvzv  -0.05117
gfz2012kwgo  -0.02730
gfz2012lboz  -0.00000
gfz2012lczo  -0.25901
gfz2012ldgs   1.30590
gfz2012ldxg  -0.47271
gfz2012ldzj  -0.06760
gfz2012leam   0.04040
gfz2012lezd  -0.19819
gfz2012lhnc  -0.02326
gfz2012lltr   0.35699
gfz2012llug  -0.12714
gfz2012lpvn  -0.12821
gfz2012lqbg   0.07888
gfz2012lrjq   0.16076
gfz2012lrol  -0.01460
gfz2012lrtb  -0.02115
gfz2012lsni  -0.15864
gfz2012lsvd  -0.32974
gfz2012lszf   0.02964
gfz2012lxkv  -0.33994
gfz2012lzgv  -0.71833
gfz2012lzmr  -0.19229
gfz2012maxy   0.32504
gfz2012megc   0.51090
gfz2012mkpn  -2.04220
gfz2012mlyf  -0.40597
gfz2012mpyl   1.03550
gfz2012mtiu   0.45690
gfz2012mupa  -0.36538
gfz2012mvwr  -0.25896
gfz2012mwij  -0.18109
gfz2012myeg   0.02693
gfz2012myqa   1.65430
gfz2012nben   0.15447
gfz2012nedn  -0.35966
gfz2012nivl  -0.00859
gfz2012nkdf  -1.04170
gfz2012noei  -0.52558
gfz2012nojx  -0.63856
gfz2012nolo  -0.88764
gfz2012nroo   0.14487
gfz2012ntzv  -0.73555
gfz2012nutf   0.56234
gfz2012nzpz  -0.40027
gfz2012oazn   0.00789
gfz2012obgw   0.04916
gfz2012obnq   0.03471
gfz2012oedb   0.09115
gfz2012oilt   0.03978
gfz2012okhx  -0.21024
gfz2012omvo  -0.06859
gfz2012oqmw  -0.01759
gfz2012ostk  -0.11857
gfz2012ouyp  -0.13633
gfz2012ovqs   0.04342
gfz2012oycg   0.90205
gfz2012pazr   0.15126
gfz2012pciw  -0.14559
gfz2012pcxi  -0.03927
gfz2012peex  -0.00000
gfz2012pgcl   1.57460
gfz2012pkel  -1.25350
gfz2012plea   0.04137
gfz2012pofl   0.02311
gfz2012poju   0.91667
gfz2012pqlt  -0.24427
gfz2012pqmu  -0.03507
gfz2012priv   0.37141
gfz2012prlt  -0.11020
gfz2012pspd  -0.08487
gfz2012pygp  -0.49413
gfz2012qjhs   0.06811
gfz2012qqqp   0.08770
gfz2012qurq   0.19214
gfz2012quso   0.05182
gfz2012qvxn   0.07022
gfz2012raen  -0.69990
gfz2012raex   0.19023
gfz2012rboy   1.06640
gfz2012rcbq   0.70131
gfz2012rcds   0.06304
gfz2012rejq   0.07137
gfz2012repv  -0.16319
gfz2012rgkl   0.15464
gfz2012rjld   0.08196
gfz2012rkoa   0.04238
gfz2012rmtr   0.19839
gfz2012ronz  -0.13142
gfz2012royy  -0.14472
gfz2012rpmb   0.26777
gfz2012rqlg  -0.06891
gfz2012rtqi  -0.15473
gfz2012rubi  -0.51390
gfz2012ruks  -0.22673
gfz2012rwko  -0.23516
gfz2012rwov  -0.14398
gfz2012rypu   0.60432
gfz2012sfer   0.58503
gfz2012shtg  -0.27803
gfz2012sjea  -2.14060
gfz2012sqmv   0.07149
gfz2012sqvi   0.11516
gfz2012svpr   0.11729
gfz2012syvl   0.04618
gfz2012szla  -0.14847
gfz2012tazz   0.43764
gfz2012tbbp   0.39874
gfz2012tbxt   0.06591
gfz2012thfx   0.22729
gfz2012tmop   0.09133
gfz2012tphj   0.02103
gfz2012ttoa   0.13650
gfz2012tyxl  -0.11758
gfz2012uaqj   0.08490
gfz2012uciv   0.05658
gfz2012ufew  -2.87070
gfz2012ulpd  -0.08776
gfz2012uoef  -0.14165
gfz2012uqzp  -0.19581
gfz2012usba   2.16710
gfz2012uvqf   0.38952
gfz2012uxnz   0.40502
gfz2012uyie   0.11745
gfz2012uyxb  -4.14110
gfz2012uzom   0.33190
gfz2012uzyj   0.07516
gfz2012vceo  -0.20129
gfz2012vjgl  -0.14254
gfz2012vmeh  -0.35278
gfz2012vnbk   0.00000
gfz2012vntz  -0.07463
gfz2012vpza  -0.28809
gfz2012vrua  -0.07623
gfz2012vsev  -0.03837
gfz2012vtif   0.13958
gfz2012vtxe   0.29435
gfz2012vwvd   0.36298
gfz2012vxvr   0.18487
gfz2012vyzo   0.01146
gfz2012wajj   0.47431
gfz2012wgbb  -0.03422
gfz2012wizz  -0.08995
gfz2012wkfw  -0.70185
gfz2012wklq  -0.00000
gfz2012wpah  -0.62785
gfz2012wqnc  -0.11871
gfz2012wtkh  -0.07540
gfz2012wtov  -0.22295
gfz2012wubh   0.19998
gfz2012wvfl   2.00070
gfz2012wwdo  -2.53730
gfz2012wxer   2.66000
gfz2012wxnu   1.62990
gfz2012wybs   0.05928
gfz2012wypz  -0.08627
gfz2012xbjq  -0.01754
gfz2012xcgk  -0.08393
gfz2012xgqm  -0.44354
gfz2012xhci   0.02355
gfz2012xjyv  -0.29608
gfz2012xkkv  -1.19680
gfz2012xmxy   0.39007
gfz2012xpmm  -0.08681
gfz2012xslk  -0.54752
gfz2012xssa  -0.09705
gfz2012xvwn   0.01628
gfz2012xyqp  -0.32464
gfz2012xyua   0.05469
gfz2012yhag   0.55460
gfz2012yldu  -0.02673
gfz2012yoie  -0.09615
gfz2012yqjj  -0.65485
gfz2012yxxu  -0.34479
gfz2012yzod  -0.71908
gfz2012zemz  -0.55067
gfz2012zfag   1.27190
gfz2012zhmb   0.04612
gfz2012zhyf  -0.15887
gfz2012ziml   0.12702
gfz2012zitl   1.64350
gfz2012zklq   3.10840
gfz2012zmbp  -1.77440
gfz2012zsqk  -0.11993
gfz2013aayj  -0.35097
gfz2013aeee   2.54570
gfz2013akgj  -0.51026
gfz2013aknp   0.10946
gfz2013apmm  -0.17462
gfz2013aspo   0.51416
gfz2013avic  -0.39863
gfz2013bbrc  -0.17407
gfz2013bdke  -1.51390
gfz2013bdpu   0.67176
gfz2013bhgs  -0.06882
gfz2013biji  -0.03300
gfz2013bobq   0.28440
gfz2013bouj  -0.10777
gfz2013btjm  -0.28617
gfz2013bzlb   0.30734
gfz2013bzzm   1.21760
gfz2013casg  -1.35520
gfz2013cbsm   0.23243
gfz2013ccnr  -0.47867
gfz2013ccon   0.25438
gfz2013cdfj  -0.46048
gfz2013cefm   0.07209
gfz2013cfyy   0.10611
gfz2013cgou   0.01224
gfz2013ciaf  -0.64270
gfz2013cnms  -0.03888
gfz2013cnve  -1.27750
gfz2013cnyj   0.20443
gfz2013cnyk  -2.93900
gfz2013comh  -0.07000
gfz2013cptb   0.66190
gfz2013cuoq   0.05237
gfz2013cvqg  -0.11426
gfz2013cwpn   2.14220
gfz2013czeq  -0.31740
gfz2013ddbh  -1.10520
gfz2013dddp   0.08947
gfz2013dfhb  -0.12864
gfz2013diuf   0.01134
gfz2013dkmg   0.39285
gfz2013dkym   0.22028
gfz2013dnnx  -0.22810
gfz2013dofo  -0.29404
gfz2013dojq  -0.33376
gfz2013dqls  -0.08801
gfz2013drpk   0.13565
gfz2013drxz   0.21906
gfz2013dsog   0.03014
gfz2013dujm  -0.20550
gfz2013duzp  -1.54550
gfz2013dvye  -1.50760
gfz2013dvyh  -0.07287
gfz2013enbx   0.30679
gfz2013erse   0.02354
gfz2013esnh  -0.19218
gfz2013esnt  -1.34010
gfz2013eswe   0.57502
gfz2013eulz  -0.59546
gfz2013evsq  -0.17595
gfz2013fcto  -0.57970
gfz2013fdoo  -0.13940
gfz2013ffko  -0.11626
gfz2013fkcl   0.04435
gfz2013flox   0.55521
gfz2013fnzr  -0.58725
gfz2013ftso  -0.79378
gfz2013fwxa   0.02675
gfz2013fxge   0.52545
gfz2013gaie  -0.52047
gfz2013gbcn  -0.20499
gfz2013gcfx   5.40140
gfz2013gdnq   0.43046
gfz2013geia  -0.18140
gfz2013geno  -0.20189
gfz2013gihf  -0.05296
gfz2013gjdc   0.12110
gfz2013glcr  -0.01403
gfz2013gngz  -0.07781
gfz2013gock   0.02946
gfz2013govy   0.06582
gfz2013gras   0.00777
gfz2013gvdb  -0.43033
gfz2013gvet  -0.05319
gfz2013gwrd  -0.84150
gfz2013gxsu   0.13544
gfz2013hbkh  -0.26389
gfz2013hbkq   0.91211
gfz2013hfmp  -0.07420
gfz2013hklr  -0.09213
gfz2013hlbe   0.14098
gfz2013hmbc   0.63956
gfz2013hpfq  -0.04400
gfz2013hudi   0.02925
gfz2013hxcx   0.19936
gfz2013iapa  -1.68520
gfz2013iayx   0.33447
gfz2013icfh  -0.08513
gfz2013icqt   0.21175
gfz2013idbb  -0.33279
gfz2013iexo   0.36241
gfz2013ihcj  -0.01145
gfz2013ijsr  -0.87477
gfz2013ijyg  -0.06966
gfz2013ikgo  -2.30650
gfz2013ilug   1.72500
gfz2013inux  -0.42196
gfz2013iodt  -0.35160
gfz2013iopd  -0.05265
gfz2013ippu   0.57324
gfz2013itsu  -0.11600
gfz2013iunn  -0.33130
gfz2013iynu  -0.23760
gfz2013iyqz  -0.22996
gfz2013jarl   0.13486
gfz2013jdrx   0.39127
gfz2013jesk  -0.00374
gfz2013jfah  -0.03718
gfz2013jgij   0.22331
gfz2013jgip   0.57946
gfz2013jjrt   0.35780
gfz2013jjsi   0.09351
gfz2013jkut  -0.29202
gfz2013jlst   0.65719
gfz2013jmcc   0.17375
gfz2013jokw   1.18110
gfz2013jphq  -0.26311
gfz2013json  -0.41734
gfz2013jusj   0.41478
gfz2013jvhy  -0.11276
gfz2013jwcn   0.23810
gfz2013kccc  -0.29983
gfz2013kdeo  -0.22435
gfz2013kgmj  -0.00000
gfz2013kheb  -1.14950
gfz2013khli  -0.15336
gfz2013kilx  -0.35836
gfz2013kkzr  -1.43940
gfz2013krei  -0.13110
gfz2013kwag  -0.13568
gfz2013kweg  -0.25370
gfz2013kwps  -0.08275
gfz2013lajn  -0.76848
gfz2013lbiu   1.37430
gfz2013lcos   1.61680
gfz2013ldos   0.67107
gfz2013ldpc  -0.03796
gfz2013ldqb   0.18992
gfz2013lfyb  -0.07845
gfz2013lgbb   0.28552
gfz2013lgxc  -0.03982
gfz2013limo  -0.12678
gfz2013lixa   0.20386
gfz2013lmdy  -0.27818
gfz2013lmrs  -0.01640
gfz2013lwbk  -0.12243
gfz2013lxyn   2.00370
gfz2013lyko   3.19030
gfz2013lznu   0.16885
gfz2013mded   0.17246
gfz2013mdiq   1.20290
gfz2013mghe  -0.23847
gfz2013mhjf   0.02303
gfz2013mmlw  -0.50201
gfz2013mnac   0.09962
gfz2013mnei   0.42632
gfz2013mnju   0.29748
gfz2013mqmv  -0.31341
gfz2013mtqd   0.04684
gfz2013mvdm   0.03969
gfz2013mvgr   0.06466
gfz2013mxee  -0.28231
gfz2013mxrz   0.39790
gfz2013mzwe  -0.21045
gfz2013nabl  -0.28317
gfz2013ncjp  -0.03357
gfz2013nedo  -0.48104
gfz2013neuc   0.24522
gfz2013nhjb  -0.20525
gfz2013njnd   0.28755
gfz2013nlxz   0.45859
gfz2013nmac  -0.01683
gfz2013nnzf   0.18550
gfz2013nojf   0.36192
gfz2013nppd   0.03223
gfz2013nqgw  -0.83670
gfz2013nttq   0.47062
gfz2013nuor   0.10012
gfz2013nvdj  -0.17771
gfz2013nvia  -0.10609
gfz2013nwdi   0.05027
gfz2013ofls  -0.15261
gfz2013ogde   0.31753
gfz2013oifr   0.04349
gfz2013oilg  -0.34532
gfz2013oinc  -0.75535
gfz2013ojti  -0.88734
gfz2013oksi  -0.84173
gfz2013onjy  -0.00000
gfz2013orjg   0.01544
gfz2013ornz  -0.30191
gfz2013ouvt  -0.01068
gfz2013ovyg   0.22531
gfz2013ozku   0.08269
gfz2013oznn  -0.42506
gfz2013ozqm  -0.71869
gfz2013ozrf  -0.23697
gfz2013ozrp  -0.20165
gfz2013pakq   0.07312
gfz2013pcos   0.28451
gfz2013pfbx  -2.91630
gfz2013pfeb  -1.77590
gfz2013pfnf  -0.17043
gfz2013phef   0.33330
gfz2013pigb   0.21081
gfz2013piwd   0.07280
gfz2013pkbs  -0.06895
gfz2013plhp   0.72690
gfz2013pndn   0.68965
gfz2013ptit   0.87211
gfz2013pupd  -0.39093
gfz2013pweb  -0.23861
gfz2013pwjd  -0.05072
gfz2013pwyt   1.63970
gfz2013pxsj  -1.93000
gfz2013pxtx   2.18020
gfz2013pxya   0.13726
gfz2013pzgs   1.08010
gfz2013qali  -0.65956
gfz2013qbca  32.72300
gfz2013qbys   0.05928
gfz2013qcck   0.13683
gfz2013qckf   0.03686
gfz2013qesa  -0.91033
gfz2013qfmm   0.14812
gfz2013qfsq  -0.04268
gfz2013qhtx  -0.25831
gfz2013qhwz   0.15270
gfz2013qidm   0.44811
gfz2013qjmk   0.38439
gfz2013qmer   0.03519
gfz2013qpgd  -0.02658
gfz2013qpqb   0.55982
gfz2013qqrr  -0.02732
gfz2013qrxy  -0.06253
gfz2013qvcr   0.26913
gfz2013qwbv   0.00414
gfz2013qwgb  -0.01092
gfz2013rait  -0.35594
gfz2013rdmo   0.53076
gfz2013rdoo   0.07635
gfz2013reav  -0.20855
gfz2013rjgt  -0.40550
gfz2013rjsx  -0.10152
gfz2013rluo   0.26593
gfz2013rotn  -0.17620
gfz2013rqcy  -0.10779
gfz2013rqmp   0.00000
gfz2013rsnr   0.72009
gfz2013rsts  -0.05617
gfz2013rvsm  -0.04023
gfz2013rwfe  -0.37236
gfz2013ryxm  -0.14537
gfz2013sart   0.04652
gfz2013scub  -0.07027
gfz2013sdus  -0.39989
gfz2013sebq   0.44884
gfz2013sfds   0.76773
gfz2013sfto   0.07052
gfz2013shlq  -0.25852
gfz2013shzy   0.43621
gfz2013skkm   0.06411
gfz2013sllq   0.02482
gfz2013snbr   0.02844
gfz2013snyf  -0.07356
gfz2013sqkb  -0.04989
gfz2013stcu   0.73072
gfz2013suln  -0.04614
gfz2013svci  -1.09790
gfz2013svqv  -0.09877
gfz2013syqk   0.04014
gfz2013tamc  -0.13263
gfz2013tbzy  -1.12730
gfz2013tcxc   1.06500
gfz2013tcxq   1.86320
gfz2013tdau   0.34322
gfz2013tdkk  -0.28586
gfz2013tect  -0.86989
gfz2013thtc   0.03821
gfz2013tjlx  -0.13525
gfz2013toea   0.46986
gfz2013toxf  -0.35201
gfz2013tqbb  -0.19970
gfz2013ttoz  -0.09615
gfz2013tusd  -0.39319
gfz2013tuzv  -0.05802
gfz2013tvmw  -0.03684
gfz2013uauo  -0.17484
gfz2013ufku   0.11743
gfz2013ufxk   0.37826
gfz2013ugax   0.26196
gfz2013uhlm   0.01775
gfz2013umya   0.41398
gfz2013upcc   0.01497
gfz2013upee  -0.07605
gfz2013upiv   0.00000
gfz2013uqsp   0.21887
gfz2013uqvu   0.01685
gfz2013utsh  -0.26402
gfz2013uuzn   0.13350
gfz2013uysr   0.31899
gfz2013vcoa  -0.24782
gfz2013vdic  -0.16415
gfz2013vefs   1.12910
gfz2013vexx  -0.95591
gfz2013vfyw  -1.14410
gfz2013vfzp   0.95237
gfz2013vgev  -0.35470
gfz2013vhsb  -0.25322
gfz2013vhzu   0.20077
gfz2013vijl   0.75659
gfz2013viul  -0.43558
gfz2013vjjc   0.28246
gfz2013vjod   4.03740
gfz2013vlth  -0.02618
gfz2013vmro  -1.82960
gfz2013vnfj   0.09389
gfz2013vpnf   0.06788
gfz2013vqot   0.11330
gfz2013vrmy   0.00374
gfz2013vsxi  -0.30988
gfz2013vuja  -0.04174
gfz2013vxta   0.40641
gfz2013vzbo   0.10376
gfz2013wbyr   0.86661
gfz2013wgeu   0.02099
gfz2013whts  -0.17450
gfz2013wjmm   1.12550
gfz2013wmfd  -0.15007
gfz2013wnql  -0.12006
gfz2013woze   0.21980
gfz2013wpga   0.07393
gfz2013wqhq   0.22652
gfz2013wrgw   0.00000
gfz2013wtzl   0.32722
gfz2013wuml   0.85078
gfz2013wuon  -0.41021
gfz2013wwec  -0.00000
gfz2013wwii  -0.33217
gfz2013xatc   0.03502
gfz2013xcmp  -0.16366
gfz2013xgek  -0.18267
gfz2013xkbh  -0.15300
gfz2013xkwt   0.19855
gfz2013xmqg  -0.16343
gfz2013xmul   0.01903
gfz2013xpfa   0.09586
gfz2013xpsm   0.03784
gfz2013xqnn   0.17161
gfz2013xsdt  -1.32220
gfz2013xtwj  -0.34918
gfz2013xvyl   1.24330
gfz2013xwda  -1.21490
gfz2013xwxn  -1.51940
gfz2013xwzd  -0.55485
gfz2013xxcc   0.29114
gfz2013xyzb  -0.18587
gfz2013yach  -0.45621
gfz2013ydtm  -0.12148
gfz2013yewz  -0.06862
gfz2013yghj  -0.20384
gfz2013yhbu   0.30353
gfz2013yhpk  -0.09955
gfz2013yixl   0.09889
gfz2013ylbx  -0.05202
gfz2013ymxs  -0.31233
gfz2013ynmw  -0.10805
gfz2013ypdc   0.31415
gfz2013yqkv  -0.31062
gfz2013yulx   1.11020
gfz2013yvqu   0.32844
gfz2013yyhc   0.36546
gfz2013yzte   0.21616
gfz2013zfhu   0.38509
gfz2013ziyr   0.29800
gfz2013zjtw  -0.03145
gfz2013zmoc  -1.40460
gfz2013zmtb   0.08714
gfz2014aawc  -0.46123
gfz2014abgd   0.04797
gfz2014adjs  -0.26344
gfz2014afmx  -0.22658
gfz2014agde   0.49509
gfz2014agyz  -0.64290
gfz2014aidn  -0.24062
gfz2014ajlk   0.03279
gfz2014ajtf   0.04893
gfz2014alwz   0.64828
gfz2014amsb  -0.01118
gfz2014ared   1.43590
gfz2014arnc   0.57340
gfz2014arpf   0.28437
gfz2014arqr   0.36306
gfz2014atbl  -0.18352
gfz2014atgw   0.15503
gfz2014azqs  -0.29517
gfz2014bagd  -0.61530
gfz2014bazc   0.58809
gfz2014bbro   0.01750
gfz2014bcae   0.19101
gfz2014bdfd  -0.12227
gfz2014bekc   0.60525
gfz2014bezu   0.17396
gfz2014bfqo  -0.09905
gfz2014bhvd  -0.90862
gfz2014bjgt   0.74845
gfz2014bjsy   0.18251
gfz2014bmfa  -0.03403
gfz2014bolf  -0.02314
gfz2014bqes   0.12070
gfz2014buej  -0.03825
gfz2014bwue  -0.14068
gfz2014bzna   0.11146
gfz2014bztt  -0.14463
gfz2014caop  -0.21631
gfz2014cbtl   0.01791
gfz2014ccbz   0.10738
gfz2014cdwi   0.08447
gfz2014cgog   0.12039
gfz2014citw  -0.07351
gfz2014clnj  -0.25661
gfz2014clnq  -0.23999
gfz2014crpy   0.04587
gfz2014cueu   0.26489
gfz2014cxcj  -0.03527
gfz2014cybg   0.23672
gfz2014czno  -0.04697
gfz2014czol  -0.05792
gfz2014czqi  -0.00000
gfz2014czua   0.29986
gfz2014dbdf   0.15598
gfz2014dffd  -0.02284
gfz2014dgiy   0.22518
gfz2014disp   0.05571
gfz2014dlri  -0.07733
gfz2014dpzx   0.39348
gfz2014duqn   0.26843
gfz2014dwls  -0.27916
gfz2014dwsy   0.25078
gfz2014eage   0.06871
gfz2014ebmc  -0.81445
gfz2014edfx   0.76701
gfz2014efkk   0.35142
gfz2014efsd  -0.01178
gfz2014eght  -0.15527
gfz2014egwu  -0.18234
gfz2014ejvf  -0.34210
gfz2014emrg   0.11104
gfz2014eqpl   0.26961
gfz2014eqss   0.11685
gfz2014erbj   0.05633
gfz2014ettc  -0.06471
gfz2014ewcz  -0.51535
gfz2014ewrw   0.13083
gfz2014exmv   0.15194
gfz2014exxa   0.10475
gfz2014ezgb  -0.80960
gfz2014fcms  -1.72660
gfz2014fexu  -0.42209
gfz2014ffdc   0.29012
gfz2014ffqx  -0.79185
gfz2014fgkb  -0.02304
gfz2014fgvi  -0.14227
gfz2014fgvr   0.84887
gfz2014fgvz   3.28660
gfz2014fgwn  -0.05577
gfz2014fgwt   0.50462
gfz2014fgxt  -0.04530
gfz2014fgxz  -0.01373
gfz2014fgyo   0.12277
gfz2014fgza  -0.18773
gfz2014fhbd   0.14417
gfz2014fhdw   0.00926
gfz2014fhgb   0.10136
gfz2014fhhp   0.44317
gfz2014fhjd  -0.07387
gfz2014fhkp  -0.29157
gfz2014fhla  -0.11462
gfz2014fhmb   0.03887
gfz2014fhoe  -0.40546
gfz2014fhpf   0.94038
gfz2014fhqk   0.17565
gfz2014fhrq   0.17926
gfz2014fhsg   0.13101
gfz2014fhwx   0.01229
gfz2014fhxm  -0.01618
gfz2014fhyb   1.46630
gfz2014fimn   0.11328
gfz2014fiuj   0.04214
gfz2014fiwq   0.57326
gfz2014fjdz   0.94303
gfz2014fjpb   0.06211
gfz2014fjxd   0.00790
gfz2014fjyo   0.04351
gfz2014fjzd  -0.37160
gfz2014fjzw  -0.16045
gfz2014fkmr  -0.27963
gfz2014fkmx   2.72060
gfz2014fles   0.45325
gfz2014flfa   0.57677
gfz2014fmai  -0.69143
gfz2014fnbh   0.16849
gfz2014fnyg   0.01239
gfz2014foio   1.71940
gfz2014foty   0.23577
gfz2014fqpz   0.03263
gfz2014frdz  -0.00000
gfz2014frel  -0.10864
gfz2014frez  -0.34448
gfz2014frfl   1.60150
gfz2014frfw   0.02560
gfz2014frgm   0.05783
gfz2014frjr   0.02591
gfz2014frme  -0.06224
gfz2014frnb   0.38916
gfz2014frwh  -0.32775
gfz2014fstx  -0.25202
gfz2014fsuh  -0.14283
gfz2014ftgx   0.20706
gfz2014ftka  -0.22036
gfz2014ftno  -0.11497
gfz2014ftoc  -0.25631
gfz2014ftpw  -0.36736
gfz2014ftvc  -1.21540
gfz2014fudl   0.10545
gfz2014furx  -0.19043
gfz2014fusc   2.73390
gfz2014fusu   0.24109
gfz2014fuub   1.04160
gfz2014fuup   0.01926
gfz2014fuvk   0.03922
gfz2014fuzi  -0.51091
gfz2014fvaa   0.30499
gfz2014fval  -0.53052
gfz2014fvdx  -0.02716
gfz2014fvgh  -0.46065
gfz2014fvhp  -0.32816
gfz2014fvpy  -0.13350
gfz2014fvrg  -0.12386
gfz2014fvve   0.28450
gfz2014fwdr  -0.40552
gfz2014fwtt  -0.30377
gfz2014fwyr  -0.22452
gfz2014fxpu   0.01850
gfz2014fyfr  -0.05881
gfz2014fzgx   0.52449
gfz2014gbcz   0.12814
gfz2014gbdq  -0.47376
gfz2014gbjf  -0.15322
gfz2014gcza  -0.19482
gfz2014gdsq   0.18201
gfz2014gesb   0.69956
gfz2014geuy  -0.21559
gfz2014gezs  -0.40173
gfz2014gfdj  -0.76408
gfz2014gfhf   0.63264
gfz2014ggnq   0.04183
gfz2014ggpd   0.58683
gfz2014ggsr   0.48494
gfz2014ghoq   0.08623
gfz2014gilf  -0.30031
gfz2014gkgf  -0.58016
gfz2014gkgl   0.72440
gfz2014gkhp  11.58400
gfz2014gkjl   3.59330
gfz2014gkjt   2.18350
gfz2014gkjw   1.82010
gfz2014gkjy  -0.30616
gfz2014gkln  -0.59026
gfz2014gklv  -0.16143
gfz2014gkok   0.79037
gfz2014gkpd  -0.07346
gfz2014gkpj   0.08431
gfz2014gkqf  -0.45637
gfz2014gkqu   3.11280
gfz2014gkrl   1.96310
gfz2014gkrz  -0.45995
gfz2014gksj   0.27585
gfz2014gksu   2.43870
gfz2014gktn  -1.09350
gfz2014gkut   0.14872
gfz2014gkvk   0.13889
gfz2014gkxi  -0.08469
gfz2014gkxm   0.18401
gfz2014glcu  -0.37241
gfz2014glfn   0.06296
gfz2014glgo   0.14535
gfz2014glhs   1.11210
gfz2014glov   0.30895
gfz2014glsh  -0.01656
gfz2014gltj   0.07110
gfz2014gltx  -0.03835
gfz2014glvn  -0.29295
gfz2014glvu  -0.09811
gfz2014glxd  -0.30829
gfz2014glxy  -1.24640
gfz2014gmci  -0.42791
gfz2014gmes  -0.07496
gfz2014gmge   0.49120
gfz2014gmhp   0.01686
gfz2014gmhr  -0.56875
gfz2014gmic  -0.57680
gfz2014gmip   0.08219
gfz2014gmjo  -0.21578
gfz2014gmjz   0.20563
gfz2014gmku   0.14530
gfz2014gmlz   0.50755
gfz2014gmmt   0.31029
gfz2014gmnb  -0.11929
gfz2014gmnw  -0.10645
gfz2014gmpy   0.35213
gfz2014gmqw   0.04539
gfz2014gmrj   0.22885
gfz2014gmtb  -0.36653
gfz2014gmtj  -0.06880
gfz2014gmto   0.28012
gfz2014gmuw   0.39403
gfz2014gmvr  -0.02822
gfz2014gmzl  -0.06387
gfz2014gmzs   0.00696
gfz2014gnhk   0.39005
gfz2014gnig  -0.21274
gfz2014gnmp   0.19270
gfz2014gnmx   0.22757
gfz2014gnno  -0.09802
gfz2014gnom   0.22731
gfz2014gnoz   0.17976
gfz2014gnqt  -0.94647
gfz2014gnre  -0.04886
gfz2014gnsi   0.24339
gfz2014gntd  -0.18824
gfz2014gnvw   0.63387
gfz2014gnwg   0.78848
gfz2014gnxb   0.08707
gfz2014goba  -0.06352
gfz2014goei   0.05482
gfz2014gogv   0.13257
gfz2014gohm   0.36990
gfz2014golz   0.43397
gfz2014gono   0.30625
gfz2014goqw  -0.24643
gfz2014gpac  -0.38492
gfz2014gpbx  -0.28075
gfz2014gpce   0.04556
gfz2014gpdo   0.74595
gfz2014gpgd  -0.21812
gfz2014gphr   0.25171
gfz2014gpmm  -0.26035
gfz2014gpnf   0.16145
gfz2014gpqq   0.78471
gfz2014gpuk   0.20776
gfz2014gpvk  -0.43096
gfz2014gpxl  -0.37533
gfz2014gpxv  -0.42833
gfz2014gqbj   0.05437
gfz2014gqco  -0.07635
gfz2014gqed  -0.03749
gfz2014gqer   0.10361
gfz2014gqgf  -0.14644
gfz2014gqhe  -0.33294
gfz2014gqiy  -0.11797
gfz2014gqqz   0.21745
gfz2014gqro   0.56095
gfz2014gqup   0.01051
gfz2014gqve   0.15384
gfz2014grcv  -0.07216
gfz2014grfp   0.51205
gfz2014grgn  -0.12202
gfz2014grho  -0.32526
gfz2014gsdw  -0.23353
gfz2014gsgv  -0.06340
gfz2014gsjg  -0.15035
gfz2014gsqs  -0.06593
gfz2014gtef   0.11609
gfz2014gtlu   0.16587
gfz2014gtwz  -0.12628
gfz2014gufl   0.17206
gfz2014gull  -0.02615
gfz2014gulp   0.07203
gfz2014gumd   0.15531
gfz2014gutm   0.71728
gfz2014gvhw   0.24268
gfz2014gvqj  -0.11376
gfz2014gvra   0.79185
gfz2014gvrd   0.44406
gfz2014gwab   0.02171
gfz2014gwap  -0.05311
gfz2014gwqj  -0.17023
gfz2014gxag   0.19671
gfz2014gxkh  -0.26183
gfz2014gxqf  -0.17921
gfz2014gxqu  -0.09051
gfz2014gxqx  -0.00749
gfz2014gxvf  -0.02057
gfz2014gxxh   0.21078
gfz2014gxxo   0.06177
gfz2014gyxd   0.21030
gfz2014gzue  -0.00905
gfz2014haey  -0.15518
gfz2014hafk   0.21070
gfz2014hagb  -0.16349
gfz2014haos  -0.07860
gfz2014hasj   0.13824
gfz2014hbjm  -3.03310
gfz2014hbjz  -0.22504
gfz2014hcns   0.04311
gfz2014hetr   0.08574
gfz2014heyq   0.18137
gfz2014hfad   0.38019
gfz2014hfzf   0.34176
gfz2014hhfs  -0.07612
gfz2014hhwx   0.03237
gfz2014hifp  -0.31932
gfz2014hiih   0.24939
gfz2014hiiz   0.51536
gfz2014hjgh  -0.06323
gfz2014hjgo  -0.14211
gfz2014hjgr   0.18681
gfz2014hjhu  -0.21366
gfz2014hjij  -0.16522
gfz2014hjkp   0.32546
gfz2014hjlx  -0.19274
gfz2014hkcf  -0.02432
gfz2014hkck   0.25899
gfz2014hlib   0.21486
gfz2014hmgf  -0.22683
gfz2014hmvx   0.09192
gfz2014hmzg  -0.13385
gfz2014hnfm  -0.06072
gfz2014hoap  -0.29851
gfz2014hodc   0.72539
gfz2014hokj   0.02797
gfz2014hphw  -0.23940
gfz2014hppw  -0.21819
gfz2014hpqz   0.33505
gfz2014hqxs  -0.26738
gfz2014hqyx  -0.37817
gfz2014hrft   0.62917
gfz2014hriu   0.02698
gfz2014hrtn  -0.10089
gfz2014hscz  -0.19244
gfz2014hsqo   0.30237
gfz2014hssr   0.36577
gfz2014hszs   0.09728
gfz2014htbf   0.05473
gfz2014huaj  -0.32405
gfz2014hugz   0.30856
gfz2014hvdm  -0.36295
gfz2014hwan  -0.15737
gfz2014hwsy   0.34377
gfz2014hwwi   0.16999
gfz2014hxcl  -0.08444
gfz2014hxev  -0.04344
gfz2014hyal  -0.08113
gfz2014hyvq  -0.04232
gfz2014hzdy   0.06677
gfz2014hzfr   0.14561
gfz2014hzfw   1.51700
gfz2014hzgn  -0.31495
gfz2014hzht   0.13497
gfz2014hzig   0.46362
gfz2014hzze  -0.08258
gfz2014iani  -0.04407
gfz2014iazy  -0.01403
gfz2014ieam   0.00000
gfz2014iege  -0.01210
gfz2014ieho   0.19278
gfz2014ifue  -0.49086
gfz2014ifzj   0.51060
gfz2014igsj   0.12805
gfz2014igur   0.26607
gfz2014ijvh   0.21104
gfz2014ikbk   0.22691
gfz2014ikun   0.73815
gfz2014ikvd   0.51586
gfz2014ilwu  -0.21378
gfz2014imap  -1.30570
gfz2014immt   0.21812
gfz2014imnn  -0.23954
gfz2014inbj  -0.01658
gfz2014iobd   0.09386
gfz2014iqzj   0.23357
gfz2014irci  -0.29066
gfz2014ircq  -0.08046
gfz2014irrg   0.70850
gfz2014isdq   0.03171
gfz2014isff   0.16735
gfz2014issk   0.80318
gfz2014isub  -0.35931
gfz2014isys   0.05731
gfz2014itab  -0.24432
gfz2014itbe  -0.09963
gfz2014itbu  -0.15456
gfz2014itfc  -0.26204
gfz2014itgh  -0.29594
gfz2014itjx  -0.44944
gfz2014itkw  -0.46671
gfz2014itpj   0.20002
gfz2014iuhq  -0.21377
gfz2014ivep   0.59512
gfz2014iwnf  -0.20477
gfz2014iwwl   0.08729
gfz2014ixga  -0.23539
gfz2014ixky   0.11576
gfz2014iywt   0.08862
gfz2014jagg   0.16751
gfz2014jass   0.20130
gfz2014jatq  -0.11718
gfz2014jcmt  -0.08739
gfz2014jdoy   1.41710
gfz2014jdxj   0.09909
gfz2014jesb  -0.24883
gfz2014jfis   0.14013
gfz2014jggm   0.07583
gfz2014jhra   0.16352
gfz2014jipr   0.01387
gfz2014jird  -0.30343
gfz2014jjhc   0.14125
gfz2014jjkh  -0.17943
gfz2014jjln  -0.20203
gfz2014jjqk  -0.02357
gfz2014jmnk   0.44450
gfz2014jmsy   0.30258
gfz2014jnea  -0.03766
gfz2014jnfy   0.02048
gfz2014jnxm   2.41170
gfz2014jnyv   0.63026
gfz2014joak   0.53927
gfz2014jomw   0.30838
gfz2014jozl  -0.02545
gfz2014jpep  -0.18451
gfz2014jpez  -0.08942
gfz2014jpgu  -0.20487
gfz2014jpxs   0.07648
gfz2014jtcz   0.08232
gfz2014jtfe   0.33779
gfz2014jvow   0.16059
gfz2014jwmh  -0.04900
gfz2014kara  -1.05110
gfz2014kbuk   0.05479
gfz2014kbwm   0.43384
gfz2014khan  -0.01784
gfz2014kizt  -0.31334
gfz2014kjee   0.20951
gfz2014kjzb  -0.21512
gfz2014kkhh  -0.43227
gfz2014kmmt   0.54091
gfz2014knxs  -4.93300
gfz2014krlg   0.13957
gfz2014kscf   0.11279
gfz2014ksmz   0.03233
gfz2014kssw   0.42835
gfz2014kwie   0.24917
gfz2014kwrg  -0.23530
gfz2014kwwg   0.19523
gfz2014kxqf  -0.26351
gfz2014kyan   0.16066
gfz2014kyhe  -0.02636
gfz2014kytf   0.17219
gfz2014kzzm  -1.02670
gfz2014lbcq  -0.46129
gfz2014lchy   0.03235
gfz2014lddn   0.50515
gfz2014lehw   0.12515
gfz2014lgqn  -0.24623
gfz2014lhqn  -0.12589
gfz2014ljbr  -0.31544
gfz2014lkyf  -0.77231
gfz2014lnmw   0.23091
gfz2014lpfc   0.01596
gfz2014lpim  -0.93484
gfz2014lrzx   0.38321
gfz2014lvgn   0.04319
gfz2014lwom   0.13269
gfz2014lwsw  -0.11131
gfz2014lwvb  -0.11962
gfz2014lxnc  -0.49421
gfz2014lxqr  -0.18947
gfz2014lzal  -0.30898
gfz2014lzow   0.15378
gfz2014macx  -0.52839
gfz2014madw  -0.20611
gfz2014mawp   0.28261
gfz2014mcno  -1.28200
gfz2014mcse  -0.26961
gfz2014mlqw   1.05840
gfz2014mlrr  -0.03632
gfz2014mmbu  -0.15794
gfz2014mmtb   0.56270
gfz2014mogb  -0.41483
gfz2014mrbm   0.44637
gfz2014mtum   2.16340
gfz2014muzd  -0.09947
gfz2014mwnj  -0.20449
gfz2014mxkr  -0.43659
gfz2014myqz  -0.06889
gfz2014nafd  -0.24225
gfz2014navw  -0.06521
gfz2014ndue   0.06587
gfz2014ngsk  -0.17369
gfz2014ngvt   0.80250
gfz2014nhyb   0.28370
gfz2014nkdx  -0.10976
gfz2014nnxd  -0.59786
gfz2014nowp   1.70110
gfz2014npdk  -0.82286
gfz2014npeo  -1.59780
gfz2014nphm   0.14223
gfz2014npnn   0.22609
gfz2014nqbs  -0.37892
gfz2014nqfm   0.30316
gfz2014nqpk  -0.22387
gfz2014nrie  -0.06659
gfz2014nvxd  -2.06420
gfz2014nyeh  -0.37138
gfz2014nyfb  -0.11157
gfz2014nylm  -1.76300
gfz2014obbs   0.09499
gfz2014odgv   0.33526
gfz2014ofhm  -0.36876
gfz2014oghp   0.24011
gfz2014oims   0.33556
gfz2014oinz  -0.06486
gfz2014ojdg   0.02710
gfz2014okec  -0.09695
gfz2014okxu   0.03027
gfz2014oned  -0.07776
gfz2014opqr  -0.02570
gfz2014oqhw   0.12105
gfz2014orgz  -0.51505
gfz2014orxs   0.50691
gfz2014oryw  -0.25900
gfz2014osvx   0.48741
gfz2014owii   0.39064
gfz2014owur   0.32376
gfz2014owxc  -0.12538
gfz2014oxcc   0.55042
gfz2014oyly   0.10365
gfz2014oypt   0.14676
gfz2014ozmj   0.07697
gfz2014pghi   0.20932
gfz2014pjer   0.04213
gfz2014pjum  -0.18472
gfz2014pmxt   0.07616
gfz2014pngj   0.27112
gfz2014poap  -1.04210
gfz2014ppzf   0.24048
gfz2014pqqp  -4.10290
gfz2014prdm  -0.22445
gfz2014pxbu  -0.05218
gfz2014pzni  -0.49673
gfz2014qbzi   0.66022
gfz2014qcxs  -0.04238
gfz2014qfzq  -0.09934
gfz2014qifa   0.04051
gfz2014qjfl   0.06265
gfz2014qjgp  -0.54910
gfz2014qlxd   0.20185
gfz2014qngj  -2.23210
gfz2014qqfg   0.35834
gfz2014qqhm  -0.35649
gfz2014qsby  -0.39930
gfz2014qtwv   0.02851
gfz2014raau   1.80080
gfz2014rbpx  -0.65126
gfz2014rbsl   6.18730
gfz2014rcyx  -0.11736
gfz2014rdoz   0.23831
gfz2014rdsn   0.29332
gfz2014rfeb   0.75363
gfz2014rffv  -0.22229
gfz2014rhju   0.04951
gfz2014rhnz   0.25638
gfz2014rhwq   0.08478
gfz2014riel   0.60604
gfz2014rils   0.25237
gfz2014roba  -1.60270
gfz2014romy   0.10338
gfz2014royq   0.09212
gfz2014rucz   0.03019
gfz2014rwos  -0.77357
gfz2014ryfb  -0.05394
gfz2014sadu   3.14520
gfz2014sptq   0.38787
gfz2014sryn   0.04867
gfz2014ssds  -0.00951
gfz2014swgt  -0.17241
gfz2014tabg   0.17388
gfz2014tgcw   0.09225
gfz2014tovs  -0.97414
gfz2014tqly  -0.38299
gfz2014tqsf  -0.20645
gfz2014tqth  -0.32315
gfz2014tzsd   0.24451
gfz2014uapa   0.21181
gfz2014ubyq   0.30785
gfz2014uohh  -0.68396
gfz2014utac  -0.24828
gfz2014uvrk   1.45140
gfz2014uxyg  -0.89022
gfz2014uyrq  -0.51520
gfz2014uzaw  -1.00460
gfz2014vdnh  -0.00000
gfz2014veit  -0.05134
gfz2014vhld  -0.23202
gfz2014vhms  -0.30885
gfz2014vivo   0.00501
gfz2014vjoh   0.23222
gfz2014vjoz  -0.12548
gfz2014vljh   0.17241
gfz2014vnxu   0.02186
gfz2014vpus   0.44219
gfz2014vqqa  -0.48076
gfz2014waoo   0.24248
gfz2014watn   0.20914
gfz2014wjko  -0.30688
gfz2014wqcp  -0.08404
gfz2014wrkh  -0.05377
gfz2014wsjh   0.00000
gfz2014wwib  -0.10978
gfz2014xbyr   0.21118
gfz2014xhkc  -0.45697
gfz2014xhwk   0.19600
gfz2014xjri  -0.55387
gfz2014xmnp  -0.39718
gfz2014xoji   0.04756
gfz2014xqby  -0.30635
gfz2014yazi   0.06595
gfz2014yhhm  -0.17097
gfz2014ynhc   0.06418
gfz2014yppv   0.34928
gfz2014yrug  -0.11699
gfz2014yyiy   0.00000
gfz2014zcgo   0.05419
gfz2014zdtl   0.15657
gfz2014zkys  -0.21760
gfz2014zlgp  -0.13160
gfz2015abpw  -0.83601
gfz2015aide  -0.08305
gfz2015ansu   0.01413
gfz2015arpd   0.10039
gfz2015aruz  -0.10576
gfz2015aush  -0.09345
gfz2015bavu   0.29833
gfz2015bdyd   0.04582
gfz2015berb  -0.20631
gfz2015bfjm  -1.53040
gfz2015bfzt  -0.01344
gfz2015bkbj   0.33757
gfz2015bnho  -0.08655
gfz2015bphe  -0.15238
gfz2015bpxl   0.10681
gfz2015bucr  -0.17724
gfz2015bvxx  -1.03750
gfz2015byfn   0.01670
gfz2015byjd   0.17293
gfz2015bzej   2.79480
gfz2015chhn   0.73282
gfz2015chqn  -0.03063
gfz2015clrp  -0.02008
gfz2015cpuo  -0.01368
gfz2015cxrc  -0.58688
gfz2015cyjd   0.07965
gfz2015czfv  -0.20769
gfz2015ddhl   0.13972
gfz2015dizn   1.16360
gfz2015djts  -0.99900
gfz2015drlk   0.26506
gfz2015dskr  -1.02230
gfz2015ednc   0.35149
gfz2015eeyq  -0.07125
gfz2015eezy  -0.29869
gfz2015egxq  -0.61244
gfz2015fbbk   0.06240
gfz2015fbew  -0.77775
gfz2015fcua  -0.37150
gfz2015fdpr   0.03793
gfz2015fjhk  -0.14020
gfz2015fkbc   0.29515
gfz2015fkgt  -1.27000
gfz2015fkic  -1.01980
gfz2015fkjs   0.00583
gfz2015flis  -0.72440
gfz2015fvoi  -0.23301
gfz2015fxdi  -0.94348
gfz2015gckd  -0.23610
gfz2015gjbr   0.35008
gfz2015gkwa   0.74877
gfz2015gmgf   0.01640
gfz2015gzja   0.85575
gfz2015hdbn   0.74053
gfz2015hdcp  -0.94350
gfz2015hepg  -0.27075
gfz2015hgbk   0.14772
gfz2015hhbd   0.30958
gfz2015hlfq   0.20129
gfz2015hlqo   3.69840
gfz2015hpmk  -0.22537
gfz2015hslo  -0.07607
gfz2015hwkv  -0.13395
gfz2015hwzw  -0.01573
gfz2015idho  -0.66875
gfz2015iele   0.09528
gfz2015igsy   0.03137
gfz2015ijmh  -0.11007
gfz2015imty   0.11811
gfz2015imyp  -0.00000
gfz2015isim  -0.40235
gfz2015ixyy  -1.56420
gfz2015jkdw  -0.33429
gfz2015jmlf  -0.39734
gfz2015jmlu   0.15034
gfz2015jpap   0.19873
gfz2015jxbx  -0.00993
gfz2015jzcv  -0.22179
gfz2015kcaa   0.35273
gfz2015kkth  -0.33399
gfz2015kphk  -0.19388
gfz2015lbcg   4.98850
gfz2015lcma   0.82688
gfz2015lcuo   0.16891
gfz2015ltii  -0.55776
gfz2015ltro  -0.13831
gfz2015lytv  -1.74320
gfz2015mfpy  -1.36620
gfz2015mhym  -1.32890
gfz2015micz   0.05026
gfz2015mljd  -0.40924
gfz2015mpte  -0.28239
gfz2015npud   0.46988
gfz2015nqgf   4.42840
gfz2015okpu   1.05840
gfz2015orkl   0.13019
gfz2015prlr   0.63005
gfz2015qafb   0.12719
gfz2015qnde  -0.09752
gfz2015qnho   2.08220
gfz2015qols   0.14837
gfz2015quzo   0.00084
gfz2015qvxu  -0.01796
gfz2015rgov  -2.00250
gfz2015rgrg   3.66540
gfz2015rgst   0.19371
gfz2015rkbq   2.64800
gfz2015rkzg   0.32078
gfz2015rlnh   0.03550
gfz2015rnis  -0.03994
gfz2015roac  -1.19860
gfz2015rpzn  -0.23763
gfz2015rtnv   0.06372
gfz2015rwsb   2.13020
gfz2015saet  -0.27533
gfz2015sdeo  -0.25571
gfz2015sdfy  -0.27003
gfz2015seuf  -0.18464
gfz2015sevh  -0.37240
gfz2015sfdd   0.25528
gfz2015sgad  -1.10330
gfz2015sggc   0.69487
gfz2015sghq   1.26540
gfz2015sgie   1.23120
gfz2015siof  -0.45463
gfz2015sjgk  -0.46881
gfz2015sjjb  -0.98384
gfz2015sjne  -0.79252
gfz2015skpv   0.21546
gfz2015slfn  -0.15028
gfz2015sljs  -0.97186
gfz2015smym  -0.48370
gfz2015snsf   0.32122
gfz2015snwh   0.65106
gfz2015snyd   1.00900
gfz2015soat  -2.81220
gfz2015soxc  -0.65320
gfz2015sozw   1.52510
gfz2015spxh   0.43953
gfz2015tlok  -1.96750
gfz2015tohm  -2.17100
gfz2015tojz   0.30785
gfz2015totf   1.23710
gfz2015tpra  -0.21590
gfz2015tqff   0.19972
gfz2015tqjf   0.55887
gfz2015truf  -0.13321
gfz2015tsdm   1.07630
