# Nsamples: 1875  MAD:  0.489  mean:  0.043  variance:  2.220
gfz2010aerk  -0.59623
gfz2010ahla   0.18484
gfz2010ahqi   0.21089
gfz2010aphp  -0.08240
gfz2010bedu   0.20492
gfz2010bfzs  -2.27030
gfz2010bgth   0.00000
gfz2010bhhq  -2.79330
gfz2010bifb   2.09880
gfz2010bjeb   0.06747
gfz2010bjjx  -0.32283
gfz2010bjsl   1.48820
gfz2010bkob   0.39321
gfz2010bowy   1.51680
gfz2010boxo  -0.85903
gfz2010bxxs  -0.81125
gfz2010bywj  -0.05151
gfz2010caft  -1.37390
gfz2010cbkg   0.89835
gfz2010cdbt  -0.14137
gfz2010chnv   0.30854
gfz2010cind   0.56583
gfz2010civi  -2.02230
gfz2010cjmx   4.41410
gfz2010cjrf   0.90613
gfz2010ckeu  -0.27872
gfz2010ckzm  -0.09898
gfz2010cnwc   0.58155
gfz2010cptb  -0.56134
gfz2010cqwl  -0.27472
gfz2010cres  -0.32363
gfz2010ctuw  -0.34038
gfz2010czps  -1.39820
gfz2010ddzo  -0.20725
gfz2010dejx   0.19638
gfz2010dfru   0.23558
gfz2010dlgc  -1.14720
gfz2010dtmx   0.28922
gfz2010dumm  -0.21400
gfz2010ejae  -0.33653
gfz2010ejjg  -1.78770
gfz2010ejxf   1.92210
gfz2010ekoe  -1.19380
gfz2010ekrv  -0.72174
gfz2010ekyc   0.17289
gfz2010elhv   0.34739
gfz2010elin  -0.08899
gfz2010eljf   2.90190
gfz2010elsw  -1.03220
gfz2010eltf   0.35634
gfz2010elvp  -0.43666
gfz2010elxi   1.04300
gfz2010elyc  -0.20750
gfz2010elyo  -1.14660
gfz2010elzf   2.69750
gfz2010elzl   3.05150
gfz2010emyz   0.10086
gfz2010enpa  -0.89369
gfz2010ensu   3.95960
gfz2010enzl   0.02931
gfz2010eoao  -1.12850
gfz2010eohh  -0.91184
gfz2010eomb  -0.58269
gfz2010epud   0.17114
gfz2010epxj   0.77503
gfz2010epzk  -0.25203
gfz2010eqcn  -1.63890
gfz2010eqjg  -1.48050
gfz2010eqmu  -4.81130
gfz2010eqse   0.26987
gfz2010erdi  -3.04530
gfz2010erkn  -0.62802
gfz2010erna  -0.46499
gfz2010erom  -3.46420
gfz2010eruy   1.33200
gfz2010erwn   3.41270
gfz2010erxb  -3.67940
gfz2010eryg  -2.04860
gfz2010esmg   0.74112
gfz2010esou   3.92760
gfz2010eted  -0.02193
gfz2010etfw   1.01440
gfz2010euae  -0.49390
gfz2010eujm  -1.30330
gfz2010euvl  -1.45210
gfz2010euwb   0.92571
gfz2010euxe   0.56043
gfz2010evco  -0.30407
gfz2010evgf   0.50458
gfz2010ewbc   0.87292
gfz2010ewpq   1.27630
gfz2010ewyu  -0.14921
gfz2010excp   1.27960
gfz2010exdd   2.04580
gfz2010exdl   0.08490
gfz2010exel  -0.50369
gfz2010exfb  -0.22219
gfz2010exgb  -0.78409
gfz2010exhd   1.55080
gfz2010exhw  -0.51415
gfz2010exjw  -0.20468
gfz2010exmc   1.03180
gfz2010exno   0.48764
gfz2010exou  -2.71980
gfz2010exsg  -0.63752
gfz2010exts  -1.74840
gfz2010exyp  -1.86970
gfz2010eyaz  -0.11212
gfz2010eyhh  -0.45816
gfz2010eyiv  -3.31760
gfz2010eymr  -0.04672
gfz2010eyqe   0.66209
gfz2010eyvq   1.14370
gfz2010eyxe   0.96657
gfz2010ezax   0.24427
gfz2010ezck  -0.38299
gfz2010ezjk   0.13381
gfz2010ezvt  -0.44720
gfz2010ezwz  -1.61460
gfz2010ezxd  -0.41155
gfz2010faeu   0.98094
gfz2010falm   2.10540
gfz2010fauz   0.02170
gfz2010fbwe   0.19485
gfz2010fciw   0.56531
gfz2010fcnn   0.99438
gfz2010fcnt  -0.18764
gfz2010fcxy   0.03160
gfz2010fcyj  -0.66661
gfz2010fczt   0.83965
gfz2010fdab   1.55640
gfz2010fedq  -2.11050
gfz2010fexw   0.09864
gfz2010ffhq  -0.37042
gfz2010ffjb   0.21774
gfz2010ffui  -1.01170
gfz2010fhbl   0.82523
gfz2010figq  -1.48520
gfz2010fihj   0.64644
gfz2010fika  -0.22377
gfz2010fixr   0.11092
gfz2010fjal  -0.56814
gfz2010fjas   0.28533
gfz2010fjmu   0.17268
gfz2010fkhd  -0.25956
gfz2010fknh   0.17046
gfz2010fkvg   5.93380
gfz2010flha  -0.61345
gfz2010flkj   0.63031
gfz2010flxi  -0.09745
gfz2010fmhb  -0.08730
gfz2010fmpy  -0.17034
gfz2010fmwb   1.45790
gfz2010fneu   0.52762
gfz2010fnrk  -1.98430
gfz2010fobc   0.57856
gfz2010fona  -0.28188
gfz2010fpqy  -0.51720
gfz2010fqdu   0.47512
gfz2010fqtj   0.66117
gfz2010fser  -1.15690
gfz2010ftlm  -0.35405
gfz2010fuuy  -1.29340
gfz2010fuwa   1.42150
gfz2010fwkk   0.79368
gfz2010fwlb   0.03509
gfz2010fyen   0.57409
gfz2010gcdn  -1.50790
gfz2010gcrl   1.15730
gfz2010gdch  -1.62840
gfz2010gdld  -1.15870
gfz2010ghyk  -1.38540
gfz2010ginm  -0.34757
gfz2010gjia  -2.10530
gfz2010glqr   2.72030
gfz2010glxl  -0.40471
gfz2010grss   0.68444
gfz2010gslu   0.76451
gfz2010gymo  -0.15658
gfz2010gyqp   1.16500
gfz2010gzxr   0.07978
gfz2010hbka   0.58711
gfz2010hevz   0.04427
gfz2010hgld   1.35460
gfz2010hhls  -0.26796
gfz2010hjoc  -0.28495
gfz2010hllj  -2.09600
gfz2010hlln   0.39986
gfz2010hlmq   1.16380
gfz2010hmhm   0.31070
gfz2010hncj  -0.24994
gfz2010hnnf   0.09262
gfz2010hnpi   1.78840
gfz2010homc  -0.58252
gfz2010hptz   0.44727
gfz2010hrkr   0.58562
gfz2010hufk  -0.28684
gfz2010hxgv   0.20346
gfz2010hxhe   0.58258
gfz2010hykt   0.40774
gfz2010hzar   0.67285
gfz2010ibiy   1.52670
gfz2010ibxj   0.01578
gfz2010iciq   0.48665
gfz2010icqq   2.37040
gfz2010iefy   1.13190
gfz2010ijtk   0.32991
gfz2010imsh  -0.03185
gfz2010iobp  -3.87030
gfz2010iphd   1.63360
gfz2010iqep   1.90010
gfz2010iqfm   0.96530
gfz2010iqnm   0.47632
gfz2010iqus  -1.14620
gfz2010irqr   1.08200
gfz2010irvf  -0.41945
gfz2010isrp   0.66345
gfz2010ited   0.18712
gfz2010itpb   1.49140
gfz2010iull   0.07524
gfz2010jant  -0.55204
gfz2010jhie  -1.92180
gfz2010jitt   2.48030
gfz2010jkxj   0.06426
gfz2010jucj  -0.27441
gfz2010jwpy   1.34430
gfz2010jxbm  -1.45610
gfz2010jygz   0.35093
gfz2010kdyc   0.69754
gfz2010kihf  -0.08852
gfz2010kmsv  -0.38102
gfz2010kown   0.96851
gfz2010kqyh  -1.09130
gfz2010kzml  -3.44260
gfz2010lczp  -0.32064
gfz2010lepw   0.33141
gfz2010lfju  -0.53940
gfz2010liqs   0.31749
gfz2010lkcf  -0.80213
gfz2010lrlk   3.41170
gfz2010lsft  -0.16501
gfz2010lwuq  -0.13123
gfz2010lyfk  -0.85482
gfz2010mdpq  -0.19668
gfz2010oluw   1.83990
gfz2010omla   0.00116
gfz2010onma  -2.26050
gfz2010osjs  -1.94410
gfz2010osqo  -0.32324
gfz2010otbn  -0.64682
gfz2010oyqy  -0.23215
gfz2010pbdz   0.31543
gfz2010pcxi  -1.10780
gfz2010pdtk  -0.25847
gfz2010pets   0.58895
gfz2010pewa  -0.97530
gfz2010pewx   1.06610
gfz2010pexf  -0.90504
gfz2010pfyu   0.43465
gfz2010phvg  -0.74018
gfz2010plbg  -0.75413
gfz2010pmqd  -0.21426
gfz2010pqck  -2.54980
gfz2010pxak  -0.24396
gfz2010pxgh  -0.79294
gfz2010pxls  -0.87908
gfz2010qbng  -0.41742
gfz2010qitd  -0.32714
gfz2010qjst  -0.90620
gfz2010qkat  -0.08919
gfz2010qpcq  -0.02556
gfz2010qpum   0.20710
gfz2010qwwx   0.46183
gfz2010rkfp  -0.28292
gfz2010rlbv  -0.76639
gfz2010rotv   0.43816
gfz2010rqwj  -1.24400
gfz2010rywq   2.08330
gfz2010sfee  -0.09988
gfz2010sfla   1.28100
gfz2010sjwp  -0.07620
gfz2010skqo   1.09630
gfz2010skve   1.54990
gfz2010sniy   0.06708
gfz2010srdb  -1.89610
gfz2010svtn   1.37230
gfz2010svve   0.57840
gfz2010swcy  -0.04452
gfz2010sxwt   3.40040
gfz2010sysw  -0.32578
gfz2010szim  -1.03090
gfz2010tcbr   2.99560
gfz2010tcrl   6.43880
gfz2010titk  -0.63980
gfz2010truw   1.31530
gfz2010uouo   0.08453
gfz2010upfb  -1.26720
gfz2010upiw  -2.71640
gfz2010urlq  -0.09843
gfz2010usho  -0.68834
gfz2010ustq   1.39180
gfz2010utcg  -0.02330
gfz2010utmc  -0.69366
gfz2010uvhf   0.31082
gfz2010uyhb  -0.14737
gfz2010vjcb  -0.13176
gfz2010vppc  -0.29331
gfz2010vxvs  -0.40950
gfz2010vyxd   0.11955
gfz2010vzzz   0.77509
gfz2010wioh   0.23908
gfz2010wntz  -0.51857
gfz2010wofs   0.46363
gfz2010wrxx  -0.36108
gfz2010xbcr   0.98714
gfz2010xbgs   0.85513
gfz2010xcdh   1.08720
gfz2010xche  -0.02596
gfz2010xcij   0.45398
gfz2010xden  -0.39366
gfz2010xgfc  -0.03525
gfz2010xgzw   5.80230
gfz2010xjck  -1.11040
gfz2010xjsj  -1.39080
gfz2010xnxk  -0.24047
gfz2010xxdb   0.03088
gfz2010xxzn  -1.96240
gfz2010ygwu   0.39285
gfz2010yjev   3.95370
gfz2010yosr   0.31580
gfz2010yoyx   0.59404
gfz2010yqqb  -0.07216
gfz2010ysaj  -0.55027
gfz2010yvwz   0.24698
gfz2010yzgq   0.03017
gfz2010zdpo  -0.01418
gfz2011aatr   0.41251
gfz2011adjs   0.72945
gfz2011adlj   1.55830
gfz2011adqk  -0.37510
gfz2011aeay  -1.28550
gfz2011ahfw   0.24746
gfz2011alip  -0.53875
gfz2011alsa   1.10340
gfz2011anur   5.87620
gfz2011aqxf   0.04082
gfz2011asru  -1.01170
gfz2011aupi   0.81203
gfz2011bhha  -1.26100
gfz2011blsi  -0.25618
gfz2011bnzn  -0.14719
gfz2011bpkd   0.06886
gfz2011bswz  -0.25711
gfz2011ccpw  -0.49129
gfz2011cfae   0.22394
gfz2011cndo   1.61250
gfz2011cnho   0.61671
gfz2011crdy   0.61267
gfz2011ctbn   0.32824
gfz2011cvcg   0.06142
gfz2011cvfg  -0.33523
gfz2011cwgn   1.75500
gfz2011cykd  -0.62167
gfz2011cylz  -1.15610
gfz2011cynl  -1.50850
gfz2011cyre  -0.63139
gfz2011cyuk  -0.60596
gfz2011czwj  -0.68422
gfz2011dbev  -0.18682
gfz2011dbig  -0.70068
gfz2011dbon  -0.33115
gfz2011dbwt  -1.14740
gfz2011dcqb  -1.35320
gfz2011ddao   0.40763
gfz2011dddh   1.24520
gfz2011dkyi  -0.87751
gfz2011dldn   0.17503
gfz2011dllz  -0.41303
gfz2011dlyx  -1.35850
gfz2011dmat  -0.27959
gfz2011dndz  -1.33900
gfz2011dpmx   1.43080
gfz2011dpqx   2.06640
gfz2011dqio   0.20297
gfz2011dtpy   1.92510
gfz2011duyr   2.31520
gfz2011dvxb  -0.05011
gfz2011eayc  -0.85314
gfz2011ecvr  -0.01650
gfz2011efgv   0.16670
gfz2011ehzq   0.03505
gfz2011eiis  -0.24746
gfz2011ejlp  -0.57624
gfz2011eocc   1.22440
gfz2011etje  -0.81347
gfz2011fdzv   0.05518
gfz2011fhbm  -1.31680
gfz2011fhur  -2.44840
gfz2011fkbn   0.46116
gfz2011flgj  -0.57574
gfz2011fnsw   0.20715
gfz2011gbmx  -0.73603
gfz2011gcwb  -1.49220
gfz2011ggvf   0.63003
gfz2011gjlx  -0.08967
gfz2011haid  -1.09840
gfz2011hbex  -0.62524
gfz2011hbqk  -0.47342
gfz2011hebt   0.29705
gfz2011hfkj  -1.73750
gfz2011hlqw  -0.01949
gfz2011hlsa  -0.01917
gfz2011hlth  -0.05432
gfz2011hpgx   0.96006
gfz2011hpqp  -0.49910
gfz2011hrhe  -0.09857
gfz2011hrhu  -0.69817
gfz2011hvbu   0.74457
gfz2011icxe  -0.15133
gfz2011ieie  -1.33250
gfz2011iwte  -1.01250
gfz2011ixai  -0.19373
gfz2011izqa   0.24945
gfz2011jbbc   0.50252
gfz2011jdsj   0.01627
gfz2011jghb  -3.08880
gfz2011jmbn  -0.79315
gfz2011jnmi   0.20017
gfz2011jplh   0.13118
gfz2011jtlg   3.55760
gfz2011juid   1.56670
gfz2011knbi  -0.51368
gfz2011knoo  -1.53980
gfz2011kqwo  -0.88153
gfz2011kqyg  -0.35418
gfz2011kvxh   0.09877
gfz2011kwjx   0.48475
gfz2011kwkw  -0.18122
gfz2011kwld  -1.65110
gfz2011kwni  -0.05189
gfz2011kwqc   0.16203
gfz2011kwrf   0.19234
gfz2011kwsz  -2.06660
gfz2011kxzp  -0.92165
gfz2011lczg  -0.09100
gfz2011ldna   0.01727
gfz2011lgsg  -0.02072
gfz2011lhls   6.18980
gfz2011lvjr  -0.28295
gfz2011lzwj  -0.15810
gfz2011mdie  -0.27692
gfz2011mivl   0.29441
gfz2011mjom  -0.12449
gfz2011mllx   0.41957
gfz2011mlvw   0.30621
gfz2011mpme   0.28429
gfz2011nauw  -0.50301
gfz2011necz   0.17086
gfz2011nmnq  -1.61700
gfz2011nowp   0.75302
gfz2011npgs  -0.15905
gfz2011nqpd  -0.26801
gfz2011nrwc  -0.13653
gfz2011nsex  -0.16153
gfz2011ntkh  -0.41893
gfz2011ntrv   0.98991
gfz2011nudm  -0.97451
gfz2011ogqk   0.96191
gfz2011ohcy  -1.22760
gfz2011oiqe  -0.30722
gfz2011oiwk  -0.35461
gfz2011olkk  -0.16664
gfz2011oolr  -0.18964
gfz2011orgn  -0.46540
gfz2011ornx  -0.85373
gfz2011owvz   0.08642
gfz2011pccd   0.63082
gfz2011pdpt   0.41667
gfz2011pdst  -0.61714
gfz2011phms   2.07610
gfz2011pntf   5.85950
gfz2011psnq  -0.06237
gfz2011qoif  -0.20888
gfz2011qvae  -4.31830
gfz2011rabm   0.60795
gfz2011rewa   0.30871
gfz2011rgwl  -3.09310
gfz2011rgwp  -0.46527
gfz2011rqui  -0.08839
gfz2011rsrh   1.07650
gfz2011runa  -0.22823
gfz2011rznl   0.44353
gfz2011sagt  -0.98222
gfz2011sawg   0.42843
gfz2011shqm   0.34310
gfz2011socv   0.02037
gfz2011sqoy  -7.25640
gfz2011srka  -1.39780
gfz2011stal  -0.09975
gfz2011sthv  -1.07220
gfz2011svix  -0.12605
gfz2011syjd  -2.12890
gfz2011tbas   0.38850
gfz2011tcij  -0.41647
gfz2011tivu   0.02625
gfz2011tjrf   0.48079
gfz2011tkog  -0.00491
gfz2011tnag   0.24590
gfz2011toub   0.47928
gfz2011tpfr  -0.08561
gfz2011tsfd  -0.37440
gfz2011tsnp  -0.41942
gfz2011twov  -0.52872
gfz2011ueni   0.16162
gfz2011uepx   0.36077
gfz2011uiul   0.25477
gfz2011ujze  -0.61760
gfz2011ukmp  -0.05172
gfz2011unkx  -0.04276
gfz2011uphh  -0.33013
gfz2011urxy  -0.42001
gfz2011urzu   0.04012
gfz2011vclt   0.23655
gfz2011vhfi   0.16353
gfz2011vkun  -1.17080
gfz2011vldk  -1.21950
gfz2011vnza  -2.15510
gfz2011vqnr   0.15640
gfz2011vrhg  -0.54943
gfz2011vusi   3.40430
gfz2011vxod  -0.25742
gfz2011wcic   0.67087
gfz2011wfja  -0.12785
gfz2011wijj  -0.12918
gfz2011wjul  -1.33180
gfz2011wtmq   1.97650
gfz2011wvzb  -0.05220
gfz2011wwjs  -1.73140
gfz2011wxfs  -0.25010
gfz2011wxoj   0.86421
gfz2011wxtk  -1.02500
gfz2011wype  -1.09950
gfz2011xaan  -0.78504
gfz2011xesx  -0.68243
gfz2011xqru   0.08621
gfz2011xyxj  -0.16581
gfz2011yfys   0.03540
gfz2011yhwz   0.57449
gfz2011yybo  -0.38841
gfz2011zjap  -0.63875
gfz2011zlfg  -0.87677
gfz2011zlrd   0.03933
gfz2011zqhh   0.33285
gfz2012ablh   0.59440
gfz2012ajtq   0.10815
gfz2012aqgp   4.32160
gfz2012aqtq   0.31732
gfz2012attr  -1.38010
gfz2012bfyn   0.48390
gfz2012bgnk   0.13278
gfz2012bpkx  -0.91316
gfz2012bpwl   1.60280
gfz2012brhv  -0.34139
gfz2012byad  -0.18356
gfz2012cbed  -0.55786
gfz2012cnod  -0.08914
gfz2012covm   0.65361
gfz2012cqnl  -1.59730
gfz2012cqtc  -0.29269
gfz2012cuct   4.26500
gfz2012cxdn  -0.94345
gfz2012cyof   0.21410
gfz2012czlw  -0.38215
gfz2012ddma   0.00000
gfz2012dinb  -0.08420
gfz2012divk  -0.07912
gfz2012dves  -0.05610
gfz2012ekzf   1.04940
gfz2012elce   1.68090
gfz2012enno   0.06504
gfz2012ewkj  -0.19032
gfz2012eykb   0.39564
gfz2012ezvr  -0.29873
gfz2012foeo  -0.60894
gfz2012fwfo   1.55970
gfz2012fwob  -0.09768
gfz2012fwtr   0.09760
gfz2012fzfa  -0.49278
gfz2012gill   0.80619
gfz2012glss   1.34070
gfz2012gnvh  -0.20056
gfz2012gocc   0.82390
gfz2012gwqb  -1.02760
gfz2012hdbm  -0.34229
gfz2012hnul   1.78370
gfz2012hogg  -0.85838
gfz2012holl   0.30769
gfz2012hsex   0.35020
gfz2012htet   0.09224
gfz2012hwyo   0.54896
gfz2012hyaa   0.06319
gfz2012hzbe   0.93118
gfz2012iamr  -0.25347
gfz2012ibld   2.40960
gfz2012idje  -0.03349
gfz2012iffo   1.70350
gfz2012ihdl  -0.30134
gfz2012iivw   1.28950
gfz2012ilxh   0.63121
gfz2012imay   2.27990
gfz2012intn   0.48734
gfz2012iyrb  -0.38120
gfz2012jlox  -0.54747
gfz2012jmwd   0.00904
gfz2012joqe  -0.25246
gfz2012jpgs   1.05280
gfz2012jshk   0.53777
gfz2012jted   1.99910
gfz2012jupx  -0.13954
gfz2012jxiy  -0.66254
gfz2012kbjb   0.36510
gfz2012kbzj  -0.85693
gfz2012kdmb  -0.13685
gfz2012keor   1.01220
gfz2012kkcp  -0.10244
gfz2012kkup   0.29549
gfz2012klba  -0.73041
gfz2012klhx   0.10312
gfz2012kuct   0.01655
gfz2012kudo  -0.04848
gfz2012kvzv  -0.29605
gfz2012kwgo   0.39260
gfz2012lboz   0.00939
gfz2012lczo   0.44279
gfz2012ldxg  -0.55768
gfz2012leam   0.03179
gfz2012lezd   0.17325
gfz2012lhnc  -0.03242
gfz2012llug  -0.18675
gfz2012lpvn   0.00298
gfz2012lqbg   0.23309
gfz2012lrjq   2.56860
gfz2012lrol   0.81388
gfz2012lrtb  -0.21191
gfz2012lsni   0.05866
gfz2012lsvd  -0.18564
gfz2012lszf  -0.10797
gfz2012lxkv  -0.89462
gfz2012lzgv  -0.48531
gfz2012lzmr   0.54394
gfz2012maxy  -0.07222
gfz2012mlyf  -1.19320
gfz2012mtiu  -0.28140
gfz2012mupa   0.28783
gfz2012mvwr   0.41027
gfz2012mwij   0.79171
gfz2012myeg  -0.17572
gfz2012nivl  -1.31520
gfz2012nkdf  -1.46080
gfz2012noei  -0.84035
gfz2012nojx  -0.25038
gfz2012nolo   0.65902
gfz2012nqnk   0.30523
gfz2012nsbz  -0.18998
gfz2012oazn   0.25493
gfz2012obgw  -0.61413
gfz2012obnq  -0.41291
gfz2012oedb  -1.59390
gfz2012oilt   0.05338
gfz2012okhx   0.82045
gfz2012omvo   0.52856
gfz2012ostk   0.11011
gfz2012ouyp  -0.02281
gfz2012oycg   1.45640
gfz2012pazr  -1.48040
gfz2012pcxi   0.52986
gfz2012peex  -0.05750
gfz2012pkel   1.07720
gfz2012plea  -1.64020
gfz2012pofl  -0.56898
gfz2012poju   0.10225
gfz2012pqmu   0.25413
gfz2012priv  -0.05667
gfz2012prlt   1.75580
gfz2012pspd   0.06544
gfz2012pygp  -1.49350
gfz2012qjhs  -0.58894
gfz2012qqqp  -0.51523
gfz2012qurq   0.97472
gfz2012quso  -1.73660
gfz2012qvxn   0.22855
gfz2012raen  -0.49080
gfz2012rats   1.20090
gfz2012rboy   0.62717
gfz2012rcbq  -0.27990
gfz2012rejq  -0.15148
gfz2012repv  -0.13547
gfz2012rgkl   0.05241
gfz2012rjld  -1.31230
gfz2012ronz  -0.00000
gfz2012royy  -0.05372
gfz2012rqlg   0.69068
gfz2012rtqi   0.63647
gfz2012ruks   0.13323
gfz2012rwko   0.15684
gfz2012rwov  -0.08427
gfz2012shtg   0.77919
gfz2012sqmv  -0.16804
gfz2012sqvi   0.33349
gfz2012svpr  -0.46433
gfz2012syvl   0.34552
gfz2012szla   1.09150
gfz2012tazz  -0.74898
gfz2012tbbp  -0.16517
gfz2012tbxt  -0.45353
gfz2012teic  -0.07800
gfz2012thfx  -0.72846
gfz2012tphj   0.65245
gfz2012ttoa  -0.02053
gfz2012tyxl  -0.01385
gfz2012uaqj   0.19173
gfz2012uciv  -1.87520
gfz2012ulpd   2.49110
gfz2012uoef  -0.57799
gfz2012uqzp  -0.16884
gfz2012usba  -0.16900
gfz2012uvqf   0.29132
gfz2012uxnz  -2.09760
gfz2012uyie   0.13756
gfz2012uzom   0.39924
gfz2012vmeh  -0.36352
gfz2012vntz   0.39421
gfz2012vpza  -0.69556
gfz2012vrua   0.49979
gfz2012vsev   0.06353
gfz2012vtif  -0.71931
gfz2012vtxe  -0.76252
gfz2012vwvd   0.53729
gfz2012vxvr   0.16908
gfz2012vyzo   2.74540
gfz2012wkfw   0.01057
gfz2012wklq   0.20978
gfz2012wpah  -0.63930
gfz2012wqnc   0.03302
gfz2012wrir   1.74190
gfz2012wtkh  -0.28719
gfz2012wtov   0.46612
gfz2012wubh  -0.25507
gfz2012wvfl   1.71250
gfz2012wxlg   1.65350
gfz2012wybs  -0.26393
gfz2012wypz   0.27190
gfz2012xbjq   2.89570
gfz2012xcgk  -0.17271
gfz2012xgqm   0.02579
gfz2012xhci   0.27358
gfz2012xjyv   0.85999
gfz2012xmxy  -0.11928
gfz2012xpmm   0.48699
gfz2012xslk  -0.25229
gfz2012xssa  -0.15839
gfz2012xvwn  -0.31169
gfz2012xyqp  -0.02147
gfz2012xyua  -0.35447
gfz2012yhag   1.31170
gfz2012yldu  -0.42620
gfz2012yoie   1.86100
gfz2012yqjj   0.45233
gfz2012yxxu  -0.23054
gfz2012zhmb   0.14964
gfz2012zhyf   0.01150
gfz2012ziml  -0.14961
gfz2012zitl   0.40948
gfz2012zjpv  -0.00000
gfz2012zsqk   0.51429
gfz2013aayj   0.86072
gfz2013acag   4.38010
gfz2013adey   1.29040
gfz2013aeee   1.47660
gfz2013akgj  -0.28967
gfz2013aknp   0.18699
gfz2013apmm  -0.35628
gfz2013aqaw  -0.77721
gfz2013aspo   0.15403
gfz2013avic  -0.61037
gfz2013bbrc  -0.40026
gfz2013bdke  -0.85245
gfz2013bhgs   0.81716
gfz2013bobq   2.95460
gfz2013bouj   0.88842
gfz2013bzlb   0.23964
gfz2013bzzm  -3.51500
gfz2013cajk  -0.78301
gfz2013cbsm   1.85830
gfz2013ccnr   0.43324
gfz2013cefm   1.11520
gfz2013cfyy   0.92522
gfz2013cgou   1.01880
gfz2013cnms   0.22572
gfz2013cnyj  -2.54910
gfz2013cnyk   0.74491
gfz2013cptb   5.32920
gfz2013cvad   0.04441
gfz2013czeq  -0.78728
gfz2013ddbh   6.69640
gfz2013dddp  -0.59518
gfz2013dkly   0.26851
gfz2013dkym  -0.09799
gfz2013dnnx   0.05786
gfz2013dofo   0.77571
gfz2013dojq  -0.62917
gfz2013dqls   2.14580
gfz2013drpk  -0.25191
gfz2013drxz   0.01937
gfz2013dsog  -0.21887
gfz2013dspt  -0.26924
gfz2013dsrk  -0.39551
gfz2013dujm   0.03914
gfz2013duzp   4.25350
gfz2013dvyh  -0.59992
gfz2013egni  -1.23570
gfz2013egpu  -1.35000
gfz2013ehwe   3.95130
gfz2013ekpm   1.51270
gfz2013erse   2.02530
gfz2013esnh   0.01482
gfz2013esnt   0.46798
gfz2013eswe  -0.25676
gfz2013fcto  -0.14247
gfz2013fkcl  -0.13291
gfz2013ftso   1.10630
gfz2013fwxa  -0.42360
gfz2013fxge   0.05905
gfz2013gaie  -0.01124
gfz2013gdnq  -1.83050
gfz2013geia  -0.02668
gfz2013gihf   1.61310
gfz2013gjdc  -0.10165
gfz2013glcr   0.47431
gfz2013gmor  -0.08863
gfz2013gngz   3.30150
gfz2013gock   0.40903
gfz2013govy   1.14700
gfz2013gvdb   0.17930
gfz2013gvet  -0.07948
gfz2013hbkq  -0.61641
gfz2013hlbe  -0.50093
gfz2013hpfq  -0.28451
gfz2013huwr  -0.12803
gfz2013hxcx  -0.52044
gfz2013iayx  -1.15370
gfz2013icfh  -0.06407
gfz2013icqt   0.28796
gfz2013idbb  -0.02854
gfz2013ihcj   0.11493
gfz2013ijyg   1.42340
gfz2013ikgo   0.05721
gfz2013inux   0.05939
gfz2013iodt   0.15876
gfz2013iopd   0.53384
gfz2013ippu   0.70428
gfz2013iynu   0.30216
gfz2013iyqz   0.32095
gfz2013jarl  -0.18823
gfz2013jdrx   0.05240
gfz2013jesk   0.99004
gfz2013jfah  -0.08792
gfz2013jgij  -0.43679
gfz2013jgip   0.11641
gfz2013jjrt   0.06867
gfz2013jkut  -0.26230
gfz2013jlst  -0.19506
gfz2013jmcc   0.11323
gfz2013jphq   0.87801
gfz2013json  -0.30560
gfz2013jusj  -0.21107
gfz2013jvhy  -0.06391
gfz2013jwcn  -0.22141
gfz2013jwvc  -0.31111
gfz2013kdeo  -0.81545
gfz2013kgmj  -0.16046
gfz2013khli  -0.27044
gfz2013kilx   0.66765
gfz2013kwag  -0.02201
gfz2013kweg   0.30242
gfz2013kwps   0.27018
gfz2013lajn  -0.90780
gfz2013lcos  -0.32045
gfz2013ldpc   0.05192
gfz2013ldqb  -0.48172
gfz2013lfyb  -0.23496
gfz2013limo   1.10730
gfz2013lixa  -0.39118
gfz2013lmdy   0.05030
gfz2013lmrs   1.27550
gfz2013lsob  -0.53650
gfz2013lupg  -0.29568
gfz2013lwbk   1.09180
gfz2013lyko   2.97590
gfz2013lznu   1.13770
gfz2013mded   0.22535
gfz2013mdiq  -0.39219
gfz2013mghe   0.16525
gfz2013mmlw  -0.04900
gfz2013mmwq  44.57500
gfz2013mnac   0.54555
gfz2013mqmv  -0.85453
gfz2013mtqd  -0.04931
gfz2013mvdm  -0.34280
gfz2013mvgr  -0.06469
gfz2013mxee   0.73919
gfz2013mxrz   0.65714
gfz2013mzwe  -0.30556
gfz2013nabl   2.51810
gfz2013ncjp  -0.05409
gfz2013nhjb  -0.40840
gfz2013njnd   0.16145
gfz2013nlxz  -1.24650
gfz2013nmac  -0.45310
gfz2013nnzf   0.02931
gfz2013nojf   0.72997
gfz2013nttq  -0.31689
gfz2013nuor   0.16987
gfz2013nvdj  -1.00200
gfz2013nwdi   0.20519
gfz2013ofls   0.05385
gfz2013oifr   0.17322
gfz2013oilg  -0.14189
gfz2013oinc  -0.23020
gfz2013ojti   0.11846
gfz2013oksi   0.60207
gfz2013onjy   0.00911
gfz2013ornz  -0.34101
gfz2013ouvt   0.18881
gfz2013ovyg  -0.14622
gfz2013ozku  -0.19426
gfz2013oznn  -0.82733
gfz2013ozqm  -0.52458
gfz2013ozrf  -0.21524
gfz2013ozrp  -0.12085
gfz2013pakq   0.09504
gfz2013pcos  -0.40179
gfz2013pfbx   0.10316
gfz2013pfeb  -1.04160
gfz2013pfnf   0.72042
gfz2013piwd  -0.28224
gfz2013pkbs   0.28008
gfz2013plhp  -0.68045
gfz2013pndn   0.20972
gfz2013ppqq  -0.28288
gfz2013ptit   0.14338
gfz2013pupd   0.01991
gfz2013pweb   0.84873
gfz2013pwjd   0.25488
gfz2013pwyt   0.07820
gfz2013pxtx   1.11970
gfz2013pxya   0.02486
gfz2013pzgs   0.23982
gfz2013pzgt   0.17647
gfz2013qali  -0.07930
gfz2013qbca  -1.37540
gfz2013qbys  -0.25474
gfz2013qcck  -0.21072
gfz2013qckf  -0.54201
gfz2013qesa  -0.29387
gfz2013qfmm   1.06170
gfz2013qfsq   0.10468
gfz2013qhwz  -0.02004
gfz2013qidm  -0.26241
gfz2013qjmk   0.48547
gfz2013qmer  -0.68561
gfz2013qpgd   0.10759
gfz2013qpqb   0.06660
gfz2013qqrr  -0.42489
gfz2013qrxy   0.15645
gfz2013qvcr  -0.40228
gfz2013qwgb   0.23408
gfz2013qwin   5.20560
gfz2013qzdq  -0.78500
gfz2013rait   3.44480
gfz2013rdmo  -0.06802
gfz2013rdoo  -0.62693
gfz2013reav   0.48070
gfz2013rjsx  -0.23942
gfz2013rluo  -0.16827
gfz2013rotn   0.42396
gfz2013rqcy   0.56225
gfz2013rqmp   0.58978
gfz2013rsnr  -0.68510
gfz2013ryxm  -1.06780
gfz2013scai  -1.90380
gfz2013scub   0.02038
gfz2013sdus  -0.05677
gfz2013sebq  -0.73250
gfz2013sfds   3.02630
gfz2013sfto  -0.35865
gfz2013shlq  -0.36366
gfz2013shzy  -0.20066
gfz2013skkm  -0.01565
gfz2013sllq   0.76695
gfz2013snbr  -0.19354
gfz2013snyf  -0.55990
gfz2013sqkb   0.14785
gfz2013suln   0.15055
gfz2013svci  -0.17795
gfz2013syqk   0.15201
gfz2013tcxc   0.64156
gfz2013tcxq   1.17400
gfz2013tdkk  -0.03114
gfz2013tect  -0.34301
gfz2013thtc  -2.51310
gfz2013tjlx   1.55740
gfz2013toea  -0.71410
gfz2013toxf  -0.22129
gfz2013tqbb  -0.28482
gfz2013ttoz  -1.33000
gfz2013tusd  -0.13537
gfz2013tuzv   0.70876
gfz2013tvmw   0.18943
gfz2013uauo  -0.92242
gfz2013ufku  -0.41159
gfz2013ufxk   0.87597
gfz2013ugax   0.77868
gfz2013uhlm  -0.03490
gfz2013umya   0.31490
gfz2013upee   1.43520
gfz2013upiv   1.19590
gfz2013uqvu   1.24290
gfz2013uthl  -0.46409
gfz2013utsh   0.07617
gfz2013uxej  -0.19626
gfz2013uysr  -0.41489
gfz2013vcoa  -0.15929
gfz2013vefs  -0.20744
gfz2013vfzp   1.72950
gfz2013vgau   2.46550
gfz2013vgev  -0.35200
gfz2013vhsb  -0.02025
gfz2013vhzu  -0.21045
gfz2013vijl   0.35788
gfz2013viul   0.17350
gfz2013vjjc   1.69650
gfz2013vlth  -0.05564
gfz2013vmro   0.46580
gfz2013vnfj   2.60670
gfz2013vpnf  -0.23310
gfz2013vqot  -0.44635
gfz2013vrmy  -0.32611
gfz2013vuja  -0.01424
gfz2013vvrq  -0.58934
gfz2013vxta  -1.21690
gfz2013vzbo  -0.32641
gfz2013wbyr  -0.53198
gfz2013wgeu  -1.69730
gfz2013whts  -0.06582
gfz2013wjmm   0.79627
gfz2013wnql   0.10717
gfz2013woze  -0.22627
gfz2013wpga  -0.88069
gfz2013wqhq   0.03761
gfz2013wrgw   0.45727
gfz2013wtzl  -0.94107
gfz2013wuml  -0.29332
gfz2013xatc   1.44050
gfz2013xcmp   0.49624
gfz2013xgek   0.14276
gfz2013xkwt  -0.49990
gfz2013xmqg  -0.21297
gfz2013xmul  -1.05120
gfz2013xpfa  -0.70066
gfz2013xpsm  -0.07111
gfz2013xqnn   0.14817
gfz2013xsdt  -1.82430
gfz2013xtwj  -0.75129
gfz2013xvyl   0.01209
gfz2013xwxn  -1.04500
gfz2013xxcc   0.06839
gfz2013xxwv  -1.33980
gfz2013xxxq  -0.95766
gfz2013xyzb  -0.27308
gfz2013yewz   0.12857
gfz2013yghj   4.58930
gfz2013yhbu  -1.13980
gfz2013yhpk   0.34508
gfz2013yixl   0.17710
gfz2013ylbx   0.20611
gfz2013ymxs  -0.93960
gfz2013ynmw  -0.05766
gfz2013ypdc  -0.12070
gfz2013yrmc  -0.93130
gfz2013yulx  -0.56540
gfz2013yvqu   0.12868
gfz2013yzte  -0.34406
gfz2013zaxb   0.47370
gfz2013zfhu  -1.76380
gfz2013ziyr  -2.73980
gfz2013zjtw   0.01450
gfz2013zmtb  -0.02367
gfz2014abgd  -0.62625
gfz2014adjs   0.67584
gfz2014adoj   0.56289
gfz2014afmx   0.32506
gfz2014agde   0.37983
gfz2014agyz  -0.19517
gfz2014aidn   0.69693
gfz2014ajlk   0.08782
gfz2014ajtf   0.09100
gfz2014alwz  -0.69603
gfz2014amsb   0.43476
gfz2014ande   0.23559
gfz2014arnc   0.29483
gfz2014arpf  -0.86013
gfz2014atbl  -0.38099
gfz2014azqs   1.79210
gfz2014bazc  -1.03070
gfz2014bcae  -0.58590
gfz2014bdfd   0.11183
gfz2014bekc   0.33469
gfz2014bezu   0.46750
gfz2014bfng  -0.16891
gfz2014bfqo  -0.59724
gfz2014bhvd   0.20980
gfz2014bjgt  -0.29656
gfz2014bjsy   0.56590
gfz2014bmfa  -0.13804
gfz2014bwue  -0.12675
gfz2014bzna   0.10374
gfz2014caop  -0.18289
gfz2014cbtl  -0.68604
gfz2014ccbz  -0.14984
gfz2014cdwi   0.29968
gfz2014cgog  -0.00000
gfz2014chdv  -0.22184
gfz2014citw  -0.23384
gfz2014clnj  -0.93016
gfz2014clnq  -0.19962
gfz2014cqyo   0.94622
gfz2014crpy  -0.37610
gfz2014cueu   0.58896
gfz2014cvkm  -2.02010
gfz2014cybg   0.01641
gfz2014czno   1.39540
gfz2014czqi  -0.15431
gfz2014dbdf  -0.95545
gfz2014dffd  -0.32770
gfz2014dgiy  -0.47873
gfz2014disp  -0.82508
gfz2014dlri   1.08670
gfz2014dpzx  -0.57567
gfz2014duqn  -1.53950
gfz2014dwsy  -2.43530
gfz2014eage   0.53174
gfz2014ebmc  -1.97560
gfz2014efkk  -0.26026
gfz2014eght   0.22624
gfz2014egwu  -2.88350
gfz2014emrg  -0.34534
gfz2014eqpl  -1.05640
gfz2014erbj  -1.07460
gfz2014ettc  -0.04496
gfz2014ewcz   3.38260
gfz2014ewrw   0.17929
gfz2014exmv   0.91144
gfz2014exxa  -0.43396
gfz2014ezgb  -0.44454
gfz2014fexu   0.04866
gfz2014ffdc  -0.24043
gfz2014fgvi   0.09194
gfz2014fgvr   0.05420
gfz2014fgvz   0.41456
gfz2014fgwn   0.19896
gfz2014fgwt   0.11352
gfz2014fgxt   0.05341
gfz2014fgxz   0.23268
gfz2014fgyo   0.14829
gfz2014fgza  -0.01768
gfz2014fhbd   0.28040
gfz2014fhdw   0.07773
gfz2014fhgb   0.06797
gfz2014fhhp   0.28143
gfz2014fhjd   0.19554
gfz2014fhkp   0.06641
gfz2014fhla  -0.07891
gfz2014fhlh  -0.06298
gfz2014fhmb  -0.33385
gfz2014fhoe   0.23712
gfz2014fhpf  -0.15496
gfz2014fhqk  -0.20525
gfz2014fhrq   0.37114
gfz2014fhsg   0.17785
gfz2014fhwx  -0.09367
gfz2014fhxm   0.09348
gfz2014fhyb  -0.38101
gfz2014fimn   0.32892
gfz2014fiwq  -0.02896
gfz2014fjdz  -0.13182
gfz2014fjpb   0.14186
gfz2014fjxd  -0.00000
gfz2014fjyo  -0.22321
gfz2014fjzd  -1.14330
gfz2014fjzw  -0.02841
gfz2014fkmr   0.58130
gfz2014fkmx  -0.08562
gfz2014fles   0.08044
gfz2014flfa   0.14441
gfz2014fmai  -0.65877
gfz2014fnbh  -0.21184
gfz2014fnyg  -1.46260
gfz2014foty   0.07824
gfz2014fqpz  -0.28917
gfz2014frdz  -0.28557
gfz2014frel  -0.08246
gfz2014frez   0.18617
gfz2014frfl  -0.11864
gfz2014frfw  -0.05798
gfz2014frgm  -0.13317
gfz2014frjr  -0.60496
gfz2014frme  -0.00620
gfz2014frnb  -0.03399
gfz2014frwh  -0.07221
gfz2014fstx  -0.13764
gfz2014fsuh  -0.19873
gfz2014fszc  -0.09047
gfz2014ftgx   0.04160
gfz2014ftka   0.08098
gfz2014ftno  -0.37380
gfz2014ftoc   0.14150
gfz2014ftpw  -0.08660
gfz2014ftrk  -0.21420
gfz2014ftvc   0.32885
gfz2014furx  -0.08370
gfz2014fusc   0.07222
gfz2014fusj   0.26589
gfz2014fusu  -0.00228
gfz2014fuub   0.87608
gfz2014fuup  -0.02297
gfz2014fuvk  -0.07429
gfz2014fuzi  -0.07088
gfz2014fval   1.14520
gfz2014fvdx  -0.24163
gfz2014fvgh  -0.25809
gfz2014fvhp  -0.11889
gfz2014fvpy  -0.03527
gfz2014fvrg   0.00858
gfz2014fvve   0.25705
gfz2014fwdr  -0.08384
gfz2014fwtt   0.69599
gfz2014fwyr  -0.41638
gfz2014fxpu  -0.05881
gfz2014fyfr  -0.01013
gfz2014fzgx  -0.12666
gfz2014gbcz   4.68140
gfz2014gbjf  -0.00000
gfz2014gcza  -0.18320
gfz2014gdsq   0.09571
gfz2014gesb   0.59926
gfz2014geuy   0.01531
gfz2014gezs   0.14670
gfz2014gfdj  -0.10563
gfz2014gfhf   0.17586
gfz2014ggnq   0.00291
gfz2014ggpd  -0.08140
gfz2014ggsr  -1.24330
gfz2014gilf   0.28646
gfz2014gkgf   0.73209
gfz2014gkgl  -2.41850
gfz2014gkhp   0.98977
gfz2014gkjl  -0.03562
gfz2014gkjt  -0.28109
gfz2014gkjw  -0.01042
gfz2014gkjy  -2.62170
gfz2014gkln   0.08284
gfz2014gklq   0.04042
gfz2014gklv  -0.15506
gfz2014gkmm  -1.09320
gfz2014gkob  -0.32615
gfz2014gkok  -0.00000
gfz2014gkpd  -4.47350
gfz2014gkpj   0.03317
gfz2014gkqf  -0.14189
gfz2014gkqu  -1.23440
gfz2014gkrl   0.10245
gfz2014gkrz   0.02496
gfz2014gksj  -0.09831
gfz2014gksu  -9.23450
gfz2014gktn  -0.01509
gfz2014gktq  -0.03888
gfz2014gkut   0.18011
gfz2014gkxi   0.03095
gfz2014gkxm  -0.04592
gfz2014glcu   0.19632
gfz2014glcy  -0.28357
gfz2014glfn  -0.04971
gfz2014glgo  -0.31685
gfz2014glhs  -0.62843
gfz2014glov   1.83450
gfz2014glsh  -0.11197
gfz2014gltj  -0.08351
gfz2014gltx   0.28137
gfz2014glvn   0.18897
gfz2014glvu  -0.10010
gfz2014glxd  -0.29391
gfz2014glxy  -0.06994
gfz2014gmci   0.07823
gfz2014gmes   0.29233
gfz2014gmge   0.10528
gfz2014gmhp  -0.02569
gfz2014gmhr  -0.15213
gfz2014gmic  -0.56189
gfz2014gmip  -1.10730
gfz2014gmjo   0.09016
gfz2014gmjz   0.42722
gfz2014gmku   0.09139
gfz2014gmlz  -0.13320
gfz2014gmmk   0.03298
gfz2014gmmt  -0.19563
gfz2014gmnb  -0.15479
gfz2014gmnw   0.39702
gfz2014gmpy   0.01915
gfz2014gmqw  -0.27722
gfz2014gmtb   0.45150
gfz2014gmtj  -0.41425
gfz2014gmto  -0.21588
gfz2014gmuk   0.12236
gfz2014gmuw   0.63841
gfz2014gmvr   0.00321
gfz2014gmzl  -0.02670
gfz2014gmzs   0.08321
gfz2014gndq   0.00000
gfz2014gnfd   0.09033
gfz2014gnfs  -0.32771
gfz2014gngg  -0.27229
gfz2014gnhk   0.66561
gfz2014gnig  -0.71785
gfz2014gnmp  -0.05026
gfz2014gnms  -0.34854
gfz2014gnmx  -0.03197
gfz2014gnno   0.28627
gfz2014gnnt   0.05587
gfz2014gnom  -0.17849
gfz2014gnoz   0.78084
gfz2014gnqt  -0.28560
gfz2014gnre  -0.20819
gfz2014gnsi  -0.30909
gfz2014gntd   2.39140
gfz2014gnvw   0.54909
gfz2014gnwg   0.10131
gfz2014gnxb  -0.43368
gfz2014goba   0.20423
gfz2014goei  -0.03076
gfz2014gogv  -0.09473
gfz2014gohm   0.01441
gfz2014golz   0.15913
gfz2014gono   0.15030
gfz2014goqw   0.44481
gfz2014gpac   0.11864
gfz2014gpbx  -0.00000
gfz2014gpce  -0.16184
gfz2014gpdo   0.10617
gfz2014gpgd  -0.00000
gfz2014gphr   0.24490
gfz2014gpnf  -0.93799
gfz2014gpqq   0.80839
gfz2014gpuk   0.08696
gfz2014gpvk   0.04631
gfz2014gpxl   0.01690
gfz2014gpxv   0.07001
gfz2014gqbj  -0.21815
gfz2014gqco  -0.28331
gfz2014gqed   0.17424
gfz2014gqer  -3.00630
gfz2014gqgf   0.05374
gfz2014gqhe   1.05280
gfz2014gqiy  -0.07241
gfz2014gqqz  -0.24681
gfz2014gqro  -0.19145
gfz2014gqup  -0.28914
gfz2014gqve  -0.34009
gfz2014grcv   0.15510
gfz2014grfp   0.31112
gfz2014grgn   0.10873
gfz2014grho   1.57820
gfz2014gsdw  -0.26727
gfz2014gsgv   0.59878
gfz2014gsjg  -0.07627
gfz2014gsqs   0.02068
gfz2014gtef   0.45937
gfz2014gtwz   0.18082
gfz2014gufl   0.22538
gfz2014gull  -0.01685
gfz2014gulp  -0.12550
gfz2014gumd  -0.08594
gfz2014gutm   0.04330
gfz2014gvhw   0.03910
gfz2014gvqj  -0.14715
gfz2014gvra   0.17226
gfz2014gvrd   0.03631
gfz2014gwab  -0.28772
gfz2014gwap  -0.12307
gfz2014gwqj   0.05685
gfz2014gxag  -0.29004
gfz2014gxkh  -0.00379
gfz2014gxqf  -0.15847
gfz2014gxqu  -0.03588
gfz2014gxqx  -0.29837
gfz2014gxvf  -0.80554
gfz2014gxxh   0.17610
gfz2014gxxo   0.21635
gfz2014gyxd  -0.43913
gfz2014gzrm   0.31302
gfz2014gzue   0.08412
gfz2014haey   0.15962
gfz2014hagb   0.00000
gfz2014haos   0.00739
gfz2014hasj  -0.52860
gfz2014hauo  -0.47474
gfz2014hbjm  -0.19463
gfz2014hbjz  -0.06517
gfz2014hbqb  -0.10740
gfz2014hcmj  -0.36048
gfz2014hcns  -0.29101
gfz2014hetr   0.83680
gfz2014heyq  -0.36540
gfz2014hfad  -0.00000
gfz2014hfhl  -0.04726
gfz2014hfzf  -0.43842
gfz2014hgqo   0.37605
gfz2014hhfs  -0.53946
gfz2014hhwx   0.32970
gfz2014hifp  -0.06789
gfz2014hiih   0.00000
gfz2014hiiz   0.03065
gfz2014hjgh  -0.09513
gfz2014hjgo  -3.71290
gfz2014hjgr   0.01420
gfz2014hjhu   0.06742
gfz2014hjij   0.05817
gfz2014hjkp   0.33150
gfz2014hjlx   0.25222
gfz2014hkcf   0.20239
gfz2014hkck  -0.08578
gfz2014hlib   0.75656
gfz2014hmgf  -0.12860
gfz2014hmvx   0.14300
gfz2014hmzg   0.06443
gfz2014hnfm  -0.45694
gfz2014hoap   0.36293
gfz2014hocg  -0.10193
gfz2014hodc   0.31022
gfz2014hokj   0.07239
gfz2014hphw   0.37529
gfz2014hpqz  -0.93591
gfz2014hqxs   0.50413
gfz2014hqyx   0.11791
gfz2014hriu  -0.48265
gfz2014hrtn  -0.08448
gfz2014hssr  -0.11543
gfz2014huaj   0.39397
gfz2014hugz   0.76266
gfz2014hvdm   0.08578
gfz2014hwsy  -0.52545
gfz2014hwwi   0.07855
gfz2014hxcl   0.19031
gfz2014hxev   0.03530
gfz2014hyal  -0.10275
gfz2014hyvq  -0.21318
gfz2014hzdy   0.15702
gfz2014hzfr   0.16626
gfz2014hzfw   0.05809
gfz2014hzgn   0.13090
gfz2014hzht  -0.41358
gfz2014hzig  -0.16378
gfz2014hzze   0.98351
gfz2014iani   0.10044
gfz2014iazy  -0.81505
gfz2014ieam  -0.02557
gfz2014iege  -0.42208
gfz2014ieho  -0.50856
gfz2014ifue   0.02350
gfz2014ifzj  -0.40186
gfz2014igsj  -0.25518
gfz2014igur   0.77354
gfz2014ijvh   0.22376
gfz2014ikbk  -0.01701
gfz2014ikun  -1.76200
gfz2014ikvd  -0.00805
gfz2014ilwu   2.94340
gfz2014immt  -0.02519
gfz2014imnn   0.54512
gfz2014inbj   0.32338
gfz2014iobd  -0.34634
gfz2014iqzj  -0.15193
gfz2014irci   0.20685
gfz2014ircq   0.11993
gfz2014irrg  -0.29993
gfz2014isdq  -0.07473
gfz2014isff  -0.03542
gfz2014issk   0.42897
gfz2014isub   0.07033
gfz2014itab   0.03657
gfz2014itbe   0.01622
gfz2014itbu   0.04542
gfz2014itfc  -0.09774
gfz2014itgh   0.01586
gfz2014itkw   0.06505
gfz2014itpj  -0.54359
gfz2014iuhq   0.10254
gfz2014ivep   0.73201
gfz2014iwnf   0.78350
gfz2014iwwl   0.51024
gfz2014ixga   0.01973
gfz2014ixky  -0.42886
gfz2014iywt  -0.20564
gfz2014jagg  -0.21650
gfz2014jass   0.01245
gfz2014jcjt  -0.45470
gfz2014jcmt  -0.35534
gfz2014jdoy  -0.90532
gfz2014jdxj   0.17571
gfz2014jesb   0.07831
gfz2014jfis  -0.94946
gfz2014jggm   0.17468
gfz2014jhra  -0.31182
gfz2014jipr  -1.65610
gfz2014jird   0.23234
gfz2014jjhc  -0.27096
gfz2014jjkh   2.57020
gfz2014jjln   0.23145
gfz2014jjqk   0.02652
gfz2014jmnk   0.45780
gfz2014jmsy  -0.08954
gfz2014jnea  -0.41800
gfz2014jnyv  -1.44450
gfz2014joak   0.37035
gfz2014jomw  -1.14190
gfz2014jozl  -0.07741
gfz2014jpep   0.14260
gfz2014jpez  -0.04989
gfz2014jpgu  -0.05560
gfz2014jpxs  -1.22560
gfz2014jtcz  -4.12630
gfz2014jtfe   1.21310
gfz2014jvow   0.12945
gfz2014kara  -2.04980
gfz2014kblw  -0.13709
gfz2014kbuk   0.02617
gfz2014kbwm   0.35596
gfz2014khan   0.35471
gfz2014kizt   0.36576
gfz2014kjee  -0.21110
gfz2014kjzb  -0.43280
gfz2014kkhh  -0.30886
gfz2014krlg  -0.52585
gfz2014kscf  -0.25652
gfz2014ksmz  -2.85730
gfz2014kssw  -0.22424
gfz2014kwie   0.02661
gfz2014kwrg   0.07597
gfz2014kwwg  -0.43970
gfz2014kxqf   0.03958
gfz2014kyan  -1.63180
gfz2014kyhe  -0.79452
gfz2014kytf   1.54550
gfz2014kzzm   0.12364
gfz2014lbcq  -0.16313
gfz2014lchy   0.25251
gfz2014lddn   0.57511
gfz2014lehw   0.08470
gfz2014lgqn  -0.04514
gfz2014lhqn   0.26615
gfz2014ljbr   0.26674
gfz2014lnmw  -0.48785
gfz2014lnqy   0.00940
gfz2014lrzx  -1.45720
gfz2014lurd  -0.63394
gfz2014lvgn   0.10075
gfz2014lwom  -0.60327
gfz2014lwsw  -0.01226
gfz2014lwvb   0.06155
gfz2014lxnc  -0.10999
gfz2014lxqr   0.02968
gfz2014lyhk   0.44044
gfz2014lyhp  -0.97940
gfz2014lzal   1.35840
gfz2014lzow   0.03409
gfz2014macx   0.33475
gfz2014madw  -0.19337
gfz2014mawp  -0.15735
gfz2014mcse   0.23957
gfz2014mioi   3.90960
gfz2014mlqw   0.11528
gfz2014mlrr   0.25971
gfz2014mmtb  -0.42980
gfz2014mrbm   0.20927
gfz2014muzd   0.19603
gfz2014mvza   0.14808
gfz2014mxkr  -0.01795
gfz2014myqz   0.69442
gfz2014nafd  -0.06757
gfz2014navw  -0.13906
gfz2014ndue   0.36866
gfz2014ngsk   0.43366
gfz2014ngvt  -0.25833
gfz2014nhyb  -0.22920
gfz2014niqj   0.01974
gfz2014nkdx  -0.91215
gfz2014nnxd  -0.04415
gfz2014nowp   0.73293
gfz2014nphm  -0.47890
gfz2014npnn   2.65650
gfz2014nqbs  -0.42302
gfz2014nqfm   0.27311
gfz2014nrie  -0.68648
gfz2014nvdi   0.13510
gfz2014nyeh   0.11539
gfz2014nyfb   0.06908
gfz2014nyko  -0.35228
gfz2014nylm  -0.38373
gfz2014obbs   0.94644
gfz2014odgv   0.02764
gfz2014ofhm   1.23660
gfz2014oghp  -0.02130
gfz2014oims  -0.08875
gfz2014oinz   0.00608
gfz2014ojdg  -0.21524
gfz2014okec   0.14727
gfz2014okjw  -0.78918
gfz2014okxu  -0.10054
gfz2014opqr  -0.37515
gfz2014oqhw   0.00000
gfz2014orgz  -0.11038
gfz2014orxs  -0.01761
gfz2014oryw   0.11203
gfz2014osvx  -0.07963
gfz2014osvz  -0.05157
gfz2014owii   0.28221
gfz2014owur   0.99479
gfz2014owxc  -0.14119
gfz2014oyly  -0.27864
gfz2014pghi   0.31224
gfz2014pjer  -0.06019
gfz2014pjum   0.35602
gfz2014pmxt  -0.38104
gfz2014pngj   0.31946
gfz2014ppzf  -1.35850
gfz2014prdm   1.11570
gfz2014pxbu   0.31365
gfz2014pzni   0.22053
gfz2014qbzi  -0.05944
gfz2014qcxs   0.10058
gfz2014qfzq   0.33392
gfz2014qifa  -0.08334
gfz2014qjfl  -0.03614
gfz2014qlxd  -0.37339
gfz2014qngj  -0.20300
gfz2014qqfg   0.49355
gfz2014qqhm  -0.07999
gfz2014qsby  -0.94201
gfz2014qtwv  -0.36056
gfz2014rcyx  -0.21885
gfz2014rdoz  -0.18264
gfz2014rdsn  -0.37447
gfz2014rfeb  -1.84560
gfz2014rffv  -0.84704
gfz2014rhnz   0.00000
gfz2014rhwq   0.03225
gfz2014riel   0.61543
gfz2014rils  -1.79070
gfz2014rnrn   0.42139
gfz2014romy   1.45600
gfz2014royq   0.00000
gfz2014rucz  -0.07653
gfz2014ryfb  -0.44056
gfz2014ssmv   3.11550
gfz2014swgt  -0.01351
gfz2014tabg  -0.07064
gfz2014tfgn   0.22431
gfz2014tgcw  -0.12559
gfz2014tqly   0.28119
gfz2014tqsf  -0.16660
gfz2014tqth   0.12250
gfz2014tzsd  -1.84730
gfz2014uapa   0.07940
gfz2014ubyq   2.79340
gfz2014uvrk  -0.20602
gfz2014uxyg   1.56500
gfz2014uyrq   0.47492
gfz2014veit  -0.61708
gfz2014vhld  -0.08499
gfz2014vhms   0.18884
gfz2014vivo   0.28065
gfz2014vjoh  -0.34818
gfz2014vjoz   0.24318
gfz2014vnxu   0.07183
gfz2014vpus   0.58673
gfz2014vqqa   0.20083
gfz2014waoo   2.81520
gfz2014watn  -0.22951
gfz2014wjko  -0.06369
gfz2014wqcp   0.61753
gfz2014wrkh  -0.39704
gfz2014wsjh  -0.37415
gfz2014wwib   0.01204
gfz2014xbyr  -0.38271
gfz2014xhkc   0.82202
gfz2014xhwk   0.25100
gfz2014xjri   0.25636
gfz2014xkdg   0.28970
gfz2014xmnp  -0.28519
gfz2014xoji  -0.06910
gfz2014xqby   0.16130
gfz2014yazi   1.89280
gfz2014yhhm   0.08892
gfz2014ynhc  -0.32633
gfz2014yppv  -1.55200
gfz2014yrug   0.19007
gfz2014yula  -0.35623
gfz2014yyiy  -0.09087
gfz2014zcgo   0.78603
gfz2014zdtl  -0.87958
gfz2014zkys  -0.01422
gfz2015aide   0.74409
gfz2015ansu  -0.58119
gfz2015arpd  -0.38769
gfz2015aruz  -0.21786
gfz2015atxv  -0.35158
gfz2015aush  -0.00000
gfz2015bavu   0.02244
gfz2015bdyd   0.35455
gfz2015berb   0.08934
gfz2015bkbj  -0.36687
gfz2015bnho   0.08246
gfz2015bphe   0.39224
gfz2015bpxl  -0.00792
gfz2015bsnl  -1.36210
gfz2015bucr  -0.01707
gfz2015byfn   1.12850
gfz2015byjd   0.17459
gfz2015chhn  -1.66610
gfz2015cyjd  -0.37768
gfz2015ddhl   0.31185
gfz2015dizn   2.05880
gfz2015djts   2.39810
gfz2015drlk   0.22024
gfz2015dskr   0.29185
gfz2015dtqr   1.63080
gfz2015dvbn  -0.39410
gfz2015ednc   0.69552
gfz2015eeyq   0.21085
gfz2015eezy   0.20710
gfz2015egbk   0.01509
gfz2015egxq  -0.20340
gfz2015ehou   0.06143
gfz2015elgy  -1.45010
gfz2015eljz  -1.83610
gfz2015emcg   0.10137
gfz2015enth  -0.34794
gfz2015etai   0.23471
gfz2015fbbk  -0.19721
gfz2015fbew   0.17920
gfz2015fcua  -0.39772
gfz2015fdpr  -0.37798
gfz2015fjhk   0.15303
gfz2015fkbc   0.02327
gfz2015fkgt  -1.49660
gfz2015fkjs  -0.00000
gfz2015flis  -0.90285
gfz2015fvoi  -0.18416
gfz2015fwkq   0.21888
gfz2015fwnf  -0.25861
gfz2015fxbv   2.14130
gfz2015gckd  -0.16699
gfz2015gkwa   0.00000
gfz2015gmgf  -0.28576
gfz2015gzja   0.37711
gfz2015hgbk  -0.37178
gfz2015hhbd  -0.54257
gfz2015hlfq   0.49677
gfz2015hpmk  -0.04219
gfz2015hslo  -0.21182
gfz2015hvgs  -2.36770
gfz2015hwkv   0.01693
gfz2015hwzw  -0.23401
gfz2015ijmh   3.05920
gfz2015imty  -0.21072
gfz2015jkdw   1.07140
gfz2015jmlf   0.52613
gfz2015jmlu   0.66380
gfz2015jxbx  -0.20526
gfz2015jzcv   0.24751
gfz2015kalm   0.02048
gfz2015kcaa  -0.21941
gfz2015kfsu  -0.28460
gfz2015kphk  -0.09669
gfz2015kquq  -0.00000
gfz2015lcuo  -0.25562
gfz2015lfma   0.14070
gfz2015lfos   0.10571
gfz2015lfud  -0.93027
gfz2015lhjq  -1.40730
gfz2015lhjy  -0.16208
gfz2015ltii   0.14043
gfz2015ltro  -0.05517
gfz2015lytv  -1.84120
gfz2015lzad   2.89380
gfz2015mbgr  -0.01910
gfz2015mddr  -0.09707
gfz2015micz  -1.40850
gfz2015mpte  -0.18660
gfz2015npud   0.20876
gfz2015nwug  -1.31720
gfz2015ocdz  -0.21741
gfz2015okpu   1.92240
gfz2015orkl  -1.55150
gfz2015oumn   0.01918
gfz2015pjgr   0.14164
gfz2015plal  -0.53901
gfz2015prlr   0.53024
gfz2015puuu  -0.18418
gfz2015qnde  -0.07193
gfz2015qnho   2.80900
gfz2015qols  -0.30086
gfz2015qpvd  -0.09659
gfz2015quzo   0.08902
gfz2015qvxu  -0.07024
gfz2015rgrg   1.82320
gfz2015rkzg  -2.75290
gfz2015rnis   0.15217
gfz2015rtnv  -0.70021
gfz2015saet   0.30470
gfz2015sdeo  -0.07202
gfz2015sdfy  -0.21939
gfz2015seuf  -0.14721
gfz2015sevh   0.09917
gfz2015sfdd  -0.00358
gfz2015sfnb   2.79100
gfz2015sgad   0.71646
gfz2015sgdn  -0.01945
gfz2015sghq  -1.82280
gfz2015sjgk  -1.35210
gfz2015sjjb   0.97513
gfz2015sjne  -0.10658
gfz2015skpv  -0.82176
gfz2015smym  -0.62908
gfz2015snsf   1.32610
gfz2015snwh   0.70142
gfz2015snyd   1.86270
gfz2015soat  -0.04376
gfz2015soxc  -1.33980
gfz2015spxh   0.22896
gfz2015sryk   0.03833
gfz2015susq   0.80154
gfz2015svwm  -0.59487
gfz2015sxmh   1.11480
gfz2015taml  -1.04060
gfz2015tbdn  -0.08460
gfz2015tchx   0.11713
gfz2015tdhb   0.58095
gfz2015teyc  -0.48504
gfz2015teyn  -1.64250
gfz2015tezd  -0.12857
gfz2015tflu   1.26660
gfz2015tghj   0.28339
gfz2015thgp  -2.06060
gfz2015thwg  -0.78532
gfz2015thwp  -1.90530
gfz2015tiyc   0.40618
gfz2015tkol   1.47420
gfz2015tlkf   0.12956
gfz2015tnjd  -0.72869
gfz2015tohm   0.96051
gfz2015tojz  -0.17307
gfz2015totf  -1.89000
gfz2015tqff   0.07279
gfz2015tsdm   0.92749
