# Nsamples: 1113  MAD:  0.541  mean:  0.041  variance:  1.058
gfz2011gzbr   2.50960
gfz2011haid   3.08610
gfz2011hbex  -0.61481
gfz2011hbqk   0.82659
gfz2011hebt   0.37990
gfz2011hfkj  -0.57601
gfz2011hlqw   0.32808
gfz2011hlsa   0.17270
gfz2011hlth   0.10685
gfz2011hpgx  -2.30310
gfz2011hpqp  -0.24247
gfz2011hrhe   0.34110
gfz2011hsfj   0.34044
gfz2011hvbu   2.06000
gfz2011icxe  -0.00088
gfz2011ieie  -0.90606
gfz2011iwte   1.44610
gfz2011ixai  -0.32912
gfz2011izqa  -0.57380
gfz2011jbbc  -1.24780
gfz2011jdsj  -0.32627
gfz2011jghb  -1.47900
gfz2011jmbn  -1.37900
gfz2011jnmi  -0.28702
gfz2011jplh   0.12692
gfz2011jtlg  -0.59562
gfz2011knbi  -1.52670
gfz2011knoo   0.29664
gfz2011kqwo   0.78259
gfz2011kqyg  -0.03030
gfz2011kvxh   1.13290
gfz2011kwjx  -1.58850
gfz2011kwkw   1.22270
gfz2011kwlq   2.98590
gfz2011kwni  -1.49340
gfz2011kwqc  -0.31098
gfz2011kwrf  -0.18151
gfz2011kwsz   1.41330
gfz2011kxzp  -0.28657
gfz2011lczg  -0.43619
gfz2011ldna   0.03851
gfz2011lhls   2.26870
gfz2011lvjr   0.06076
gfz2011lzwj  -0.68052
gfz2011mdie  -1.66400
gfz2011mepc  -1.72640
gfz2011mivl   0.68127
gfz2011mjom  -0.22877
gfz2011mllx   0.63853
gfz2011mlvw   0.41906
gfz2011mpme  -0.12306
gfz2011nauw  -0.41170
gfz2011necz   0.66997
gfz2011nkaz  -0.05330
gfz2011nmnq   3.25090
gfz2011nmqj   0.36703
gfz2011nowp  -0.24863
gfz2011npgs  -0.11766
gfz2011nqpd  -0.25472
gfz2011nrwc   0.12866
gfz2011nsex  -0.21288
gfz2011ntkh  -0.29208
gfz2011ntrv   3.71110
gfz2011nudm  -1.95800
gfz2011ogqk   1.93990
gfz2011ohcy  -1.60380
gfz2011oiqe  -0.08943
gfz2011oiwk   0.13842
gfz2011olkk   1.16250
gfz2011oolr  -0.39937
gfz2011orgn  -0.65490
gfz2011ornx   0.38356
gfz2011owvz  -1.92980
gfz2011pccd  -0.05617
gfz2011pdpt   0.09020
gfz2011pdst   0.86577
gfz2011phms   2.30070
gfz2011pntf   2.00050
gfz2011psnq   0.01118
gfz2011ptus   3.49460
gfz2011qoif   0.92995
gfz2011qvae  -0.31458
gfz2011rdby   1.65090
gfz2011rewa   0.19445
gfz2011rgwl   0.71356
gfz2011rgwp   1.20520
gfz2011rqui  -0.92138
gfz2011rsrh  -0.40234
gfz2011runa   0.91507
gfz2011rznl   0.92981
gfz2011sagt   2.20170
gfz2011sawg   0.14415
gfz2011shqm   0.01750
gfz2011socv  -0.37852
gfz2011sqoy  -0.02789
gfz2011srka   0.07366
gfz2011stal   0.66134
gfz2011sthv  -0.15868
gfz2011svix  -0.11411
gfz2011syjd  -2.36650
gfz2011tbas   0.12447
gfz2011tcij  -0.33402
gfz2011tivu  -0.26359
gfz2011tkfp   0.94346
gfz2011tkog  -0.26545
gfz2011tnag  -0.00505
gfz2011toub  -0.64888
gfz2011tpfr  -0.25988
gfz2011tsnp  -0.40035
gfz2011twov   0.49121
gfz2011ueni   0.44093
gfz2011uepx  -0.00000
gfz2011ugzz  -0.20423
gfz2011uiul  -0.87546
gfz2011ujze  -0.86930
gfz2011ukmp   0.28782
gfz2011unkx   0.11405
gfz2011uphh  -1.09730
gfz2011urxy   0.29595
gfz2011urzu  -0.28879
gfz2011vclt   1.20080
gfz2011vhfi   0.07806
gfz2011vkun  -0.27976
gfz2011vldk  -1.54350
gfz2011vnza  -1.66310
gfz2011vqnr   0.15411
gfz2011vrhg  -0.47634
gfz2011vusi  -0.79131
gfz2011vxod  -0.66156
gfz2011wcic   0.99164
gfz2011wfja   0.61207
gfz2011wijj   0.45489
gfz2011wjul   1.30070
gfz2011wvzb   0.03156
gfz2011wwjs  -0.60957
gfz2011wxfs  -0.41087
gfz2011wxtk  -1.32720
gfz2011wype   0.77366
gfz2011xaan  -3.71260
gfz2011xcpv   0.13021
gfz2011xesx  -1.50420
gfz2011xqru  -1.29160
gfz2011xyxj  -0.08578
gfz2011yfdx  -0.09773
gfz2011yfys   1.69820
gfz2011yhwz  -0.43753
gfz2011ytnu  -0.28568
gfz2011yybo  -0.67811
gfz2011zjap   0.65284
gfz2011zlfg  -0.23217
gfz2011zlrd  -0.10390
gfz2011zqhh   0.39192
gfz2012ajtq   1.18420
gfz2012aqtq  -0.33966
gfz2012attr  -0.18654
gfz2012bfyn  -1.65130
gfz2012bgnk  -0.20357
gfz2012bpkx  -0.68920
gfz2012bpwl  -0.64429
gfz2012brhv  -0.27498
gfz2012cnod   0.49819
gfz2012covm   0.47612
gfz2012cqnl   0.06670
gfz2012cqtc  -0.44753
gfz2012cxdn   0.42614
gfz2012cyof  -0.02098
gfz2012czlw   0.10558
gfz2012ddma   0.36567
gfz2012dimn  -0.48125
gfz2012dinb  -0.42167
gfz2012divk   0.13583
gfz2012dves  -1.31830
gfz2012ekzf   0.88741
gfz2012elce   3.09970
gfz2012enno  -0.17722
gfz2012ewkj   0.34455
gfz2012eykb  -0.05942
gfz2012ezvr  -0.32459
gfz2012fbfo  -0.54096
gfz2012foeo  -1.15520
gfz2012fwfo   0.24696
gfz2012fwob   0.03367
gfz2012fwtr   0.36999
gfz2012fzfa   0.81335
gfz2012gill   3.17400
gfz2012glss  -1.12500
gfz2012gocc   1.30740
gfz2012gwqb   0.61271
gfz2012hdbm  -0.31951
gfz2012hnul  -1.06230
gfz2012hogg   2.57540
gfz2012holl  -0.73107
gfz2012hsex  -0.77817
gfz2012htet  -0.30159
gfz2012hyaa   0.23592
gfz2012hzbe  -0.12268
gfz2012iamr   0.31457
gfz2012ibld   0.88096
gfz2012idje   0.54118
gfz2012iffo   3.02180
gfz2012ihdl  -1.20410
gfz2012iivw   0.33140
gfz2012ilxh  -0.13173
gfz2012imay   1.88080
gfz2012imbd   0.34076
gfz2012intn  -0.62803
gfz2012iyrb   0.32142
gfz2012jgvj  -0.46809
gfz2012jlox   0.04214
gfz2012jmwd   0.00000
gfz2012joqe  -0.11123
gfz2012jpeh   1.78550
gfz2012jpgs  -0.04044
gfz2012jshk   2.11030
gfz2012jted   1.10940
gfz2012jupx  -0.01531
gfz2012jxiy  -0.06706
gfz2012kbjb  -0.18229
gfz2012kbzj  -0.65411
gfz2012keor   1.54120
gfz2012kkcp  -0.39291
gfz2012kkup   0.15277
gfz2012klhx   0.02189
gfz2012kuct   0.09163
gfz2012kudo  -0.20761
gfz2012kvzv  -0.50497
gfz2012kwgo   1.08710
gfz2012lboz   0.15230
gfz2012lczo  -0.70416
gfz2012ldxg  -0.15897
gfz2012leam   0.94505
gfz2012ledy  -0.97378
gfz2012lhnc  -0.20335
gfz2012llug  -0.59429
gfz2012lpvn   0.24977
gfz2012lqbg  -0.03284
gfz2012lrjq   6.82480
gfz2012lrol   0.70946
gfz2012lrtb   2.02840
gfz2012lsni  -0.63114
gfz2012lsvd  -0.04515
gfz2012lszf  -0.53794
gfz2012lxkv  -2.11400
gfz2012lzgv   0.54239
gfz2012lzmr   0.63284
gfz2012maxy  -0.61415
gfz2012mpyl   1.78820
gfz2012mupa   0.83168
gfz2012mwij   4.04940
gfz2012noei   0.18974
gfz2012nutf   2.63960
gfz2012obgw  -0.96411
gfz2012obnq  -0.72845
gfz2012ouyp   0.41337
gfz2012oycg  -1.97490
gfz2012pazr  -0.42218
gfz2012pcxi   0.69590
gfz2012pkel   0.21286
gfz2012pofl   0.35296
gfz2012priv  -0.34399
gfz2012prlt   0.30909
gfz2012pspd   0.18556
gfz2012pygp  -0.73676
gfz2012qjhs   0.49512
gfz2012qqqp  -1.43200
gfz2012qurq   0.36721
gfz2012quso  -1.86980
gfz2012qvxn   0.07995
gfz2012raen   0.23782
gfz2012rats  -1.59070
gfz2012rboy   0.46427
gfz2012rcbq  -0.85648
gfz2012rcnj  -1.45650
gfz2012repv   0.09018
gfz2012rgkl   0.56349
gfz2012rjld  -1.41680
gfz2012ronz  -0.35832
gfz2012royy   0.11244
gfz2012rqlg   1.38190
gfz2012rtqi  -0.56938
gfz2012ruks   0.46107
gfz2012rwko   0.12231
gfz2012sqmv  -0.40199
gfz2012sqvi   0.12835
gfz2012svpr   1.07880
gfz2012szla   3.57760
gfz2012tbbp  -0.34716
gfz2012tbxt   0.38402
gfz2012teic   0.45549
gfz2012tmop   0.70556
gfz2012tphj  -1.08550
gfz2012ttoa  -0.24119
gfz2012tyig   1.20520
gfz2012tyxl   1.63980
gfz2012uaqj   0.25307
gfz2012uciv   0.02532
gfz2012ufew   0.16197
gfz2012uhup  -0.09384
gfz2012uoef  -0.51532
gfz2012uqzp   0.33562
gfz2012usba   1.02760
gfz2012uvqf   0.19177
gfz2012uxnz  -1.99160
gfz2012uyie   0.23941
gfz2012uyxb  -0.12729
gfz2012vmeh   1.50930
gfz2012vntz  -0.57311
gfz2012vpza  -0.69367
gfz2012vrgb  -3.22030
gfz2012vsev   0.31008
gfz2012vtif  -0.18738
gfz2012vwvd   0.31685
gfz2012vxvr  -0.65004
gfz2012wkfw  -0.06499
gfz2012wklq  -0.01200
gfz2012wpah   0.60562
gfz2012wqnc  -0.65325
gfz2012wtkh  -0.25184
gfz2012wtkr   0.07197
gfz2012wubh  -0.28719
gfz2012wvfl   0.58125
gfz2012wxer   1.58810
gfz2012wxlg   0.19463
gfz2012wxnu   0.67268
gfz2012wybs   0.66703
gfz2012wypz   0.22062
gfz2012xbjq   3.48640
gfz2012xcgk  -0.04218
gfz2012xgqm  -0.16065
gfz2012xhci  -0.08867
gfz2012xjyv   3.31880
gfz2012xkkv  -0.93215
gfz2012xmxy   0.42691
gfz2012xpmm   0.16110
gfz2012xslk  -0.17633
gfz2012xssa   0.09821
gfz2012xvwn   1.31800
gfz2012xyqp  -0.01764
gfz2012xyua  -1.22950
gfz2012yhag   3.55220
gfz2012yldu   0.55798
gfz2012yoie  -0.07161
gfz2012yqjj   0.76289
gfz2012yxxu  -0.00856
gfz2012zhmb   1.97650
gfz2012ziml  -0.06354
gfz2012zitl   0.06106
gfz2012zjpv   1.45080
gfz2012zsqk  -0.24585
gfz2013aayj  -0.15662
gfz2013acag   4.27890
gfz2013aeee  -0.55986
gfz2013akgj   0.16819
gfz2013aknp   0.02906
gfz2013apmm  -1.28270
gfz2013aspo   0.20866
gfz2013avic   0.03589
gfz2013azzr  -2.23670
gfz2013bbrc   0.09235
gfz2013bdke  -0.34590
gfz2013bobq   5.63610
gfz2013bouj   3.30530
gfz2013bzlb   0.35186
gfz2013cajk  -1.71930
gfz2013cbsm   1.44420
gfz2013ccnr   0.86578
gfz2013cefm  -5.17630
gfz2013cfyy   1.82840
gfz2013cnms  -0.27583
gfz2013cnyj   0.66298
gfz2013cwpn  -0.38485
gfz2013czeq   0.20893
gfz2013ddbh   8.02790
gfz2013dddp  -0.01759
gfz2013dkly  -0.50383
gfz2013dkym   0.27057
gfz2013dnnx   0.90913
gfz2013dojq   0.05337
gfz2013dqls   5.26130
gfz2013drpk  -0.92972
gfz2013drxz   0.00521
gfz2013dujm  -0.21167
gfz2013duzp  -1.18630
gfz2013dvyh  -0.40048
gfz2013egni  -1.02040
gfz2013egpu   1.27890
gfz2013ehwe   5.43630
gfz2013esnh  -1.10680
gfz2013esnt  -0.70957
gfz2013eswe   0.25762
gfz2013fcto  -0.49840
gfz2013fiud   1.08430
gfz2013fkcl   0.33987
gfz2013fkii   5.85620
gfz2013ftso  -0.11024
gfz2013fwxa  -1.02870
gfz2013fxge   0.06993
gfz2013gdnq  -1.13690
gfz2013geia  -0.30609
gfz2013gjdc   0.72335
gfz2013glcr   0.92661
gfz2013gngz   4.31870
gfz2013gock   0.19656
gfz2013govy   1.55290
gfz2013gvdb  -0.58122
gfz2013hbkq  -1.72840
gfz2013hkja  -0.75425
gfz2013hmbc  -0.37041
gfz2013hpfq  -0.37456
gfz2013huwr  -0.21824
gfz2013hxcx   0.29229
gfz2013iayx  -1.24350
gfz2013icfh   0.09245
gfz2013icqt  -0.45835
gfz2013idbb   0.15506
gfz2013ihcj   0.20125
gfz2013ijyg  -1.45990
gfz2013ikgo  -0.99216
gfz2013ilug   0.22091
gfz2013inux  -0.59865
gfz2013iodt  -0.46037
gfz2013iopd   0.22314
gfz2013ippu   0.49268
gfz2013iynu  -0.64783
gfz2013iyqz  -1.04790
gfz2013jarl  -0.32630
gfz2013jdrx   0.33332
gfz2013jesk   0.72842
gfz2013jfah  -0.01409
gfz2013jgij   0.00280
gfz2013jgip  -0.83351
gfz2013jjrt   0.01365
gfz2013jkut   0.22031
gfz2013jlst   0.03534
gfz2013jmcc  -0.65685
gfz2013jphq   0.03020
gfz2013json  -0.63964
gfz2013jusj   0.03426
gfz2013jvhy   0.20091
gfz2013jwcn  -0.17364
gfz2013jwvc   0.10435
gfz2013kccc  -0.38379
gfz2013kdeo  -1.04120
gfz2013kgmj   0.59317
gfz2013kheb   0.42671
gfz2013khli   1.22730
gfz2013kvtk  -0.54560
gfz2013kwag   0.48512
gfz2013kweg   0.57599
gfz2013kwps   0.17091
gfz2013lcos   1.53310
gfz2013ldpc   0.75990
gfz2013ldqb  -0.60539
gfz2013lfyb  -0.67653
gfz2013lgbb  -1.38570
gfz2013lgxc   2.18510
gfz2013lixa  -0.60137
gfz2013lmdy  -0.14748
gfz2013lmrs  -0.13860
gfz2013lsob   1.40170
gfz2013lupg  -0.07337
gfz2013lwbk   0.13611
gfz2013lyko  -0.11376
gfz2013lznu  -0.04143
gfz2013mded  -0.15694
gfz2013mdiq  -0.78353
gfz2013mghe   0.02326
gfz2013mmlw  -0.17231
gfz2013mmwq   0.20318
gfz2013mnac  -0.21560
gfz2013mqmv  -1.15830
gfz2013mtqd  -0.04829
gfz2013mvdm  -0.65494
gfz2013mxee  -0.20029
gfz2013mxrz  -0.15609
gfz2013ncjp   0.72787
gfz2013njnd  -0.81977
gfz2013nlxz  -0.94434
gfz2013nmac   0.44769
gfz2013nnzf  -0.04074
gfz2013nojf  -0.09335
gfz2013nttq  -0.51510
gfz2013nuor  -1.36910
gfz2013nvdj  -1.04340
gfz2013nvia   0.10720
gfz2013nwdi   0.33830
gfz2013ofls  -0.04017
gfz2013oifr  -0.46644
gfz2013oilg  -0.49768
gfz2013oinc  -0.96275
gfz2013ojti  -0.87730
gfz2013oksi  -0.67375
gfz2013onjy   0.77936
gfz2013ornz   2.66330
gfz2013ouvt   0.26724
gfz2013ovyg   0.46883
gfz2013ozku  -0.00398
gfz2013ozrp   0.50595
gfz2013pakq   0.04144
gfz2013pcos  -0.72409
gfz2013pfbx   0.15804
gfz2013pfeb  -2.76440
gfz2013pfnf   0.22768
gfz2013piwd   1.50420
gfz2013pkbs  -0.06528
gfz2013plhp  -1.87340
gfz2013pndn   0.36988
gfz2013ppqq  -0.07313
gfz2013ptit  -0.06340
gfz2013pupd   0.48687
gfz2013pwjd   0.06237
gfz2013pwyt  -0.53835
gfz2013pxsj   2.22870
gfz2013pxya  -0.22279
gfz2013pzgs  -0.75910
gfz2013qali   0.18356
gfz2013qbca  -1.31160
gfz2013qbys   0.01572
gfz2013qcck  -0.20470
gfz2013qfmm   1.60820
gfz2013qfsq  -0.23259
gfz2013qhwz   0.00879
gfz2013qidm  -0.03926
gfz2013qjmk  -0.20320
gfz2013qmer  -1.94000
gfz2013qpgd   0.02539
gfz2013qpqb   0.17223
gfz2013qqrr  -1.48060
gfz2013qrxy   0.96516
gfz2013qvcr   0.62901
gfz2013qwgb   0.11068
gfz2013qzdq  -0.11004
gfz2013rait  -0.80468
gfz2013rdmo   0.58555
gfz2013rdoo  -0.40034
gfz2013reav   0.59729
gfz2013rjgt  -0.24862
gfz2013rjsx   0.64483
gfz2013rotn   0.27939
gfz2013rqcy   1.81990
gfz2013rqmp  -0.42746
gfz2013rsnr   1.18250
gfz2013ryxm   0.10998
gfz2013scai  -0.97722
gfz2013scub  -0.02713
gfz2013sdus   0.10340
gfz2013sebq  -0.16884
gfz2013sfto   0.02547
gfz2013shlq   0.07412
gfz2013shzy   0.27919
gfz2013skkm  -1.18550
gfz2013sllq  -0.13909
gfz2013snbr  -0.12561
gfz2013sqkb   0.09881
gfz2013suln  -0.02358
gfz2013svci   0.41306
gfz2013syqk   0.13559
gfz2013tcxc   0.21002
gfz2013tcxq  -0.65048
gfz2013tdau  -0.36998
gfz2013tdkk  -0.56002
gfz2013tect   0.57950
gfz2013thtc   0.76981
gfz2013tjlx   0.16397
gfz2013toea  -1.27220
gfz2013toxf   0.11102
gfz2013tqbb  -0.43862
gfz2013ttoz  -1.09240
gfz2013tusd  -0.87247
gfz2013tuzv  -0.18633
gfz2013tvmw   0.04000
gfz2013uauo   0.25553
gfz2013ufku  -0.51402
gfz2013ufxk  -0.37041
gfz2013ugax   1.44890
gfz2013uhlm  -0.87433
gfz2013umya   0.03030
gfz2013upee   0.14534
gfz2013uqvu  -1.14760
gfz2013uthl  -0.06363
gfz2013utsh   0.48078
gfz2013uxej  -0.88397
gfz2013uysr   0.29994
gfz2013vcoa   0.24482
gfz2013vefs  -1.14170
gfz2013vfyw  -0.94838
gfz2013vfzp  -0.14218
gfz2013vgau   2.01190
gfz2013vgev  -0.09158
gfz2013vhsb  -0.03223
gfz2013vhzu  -0.93337
gfz2013vijl   0.00000
gfz2013viul   0.13185
gfz2013vjjc   0.01924
gfz2013vlth  -0.17712
gfz2013vmro   1.24000
gfz2013vpnf  -0.05357
gfz2013vrmy  -0.17927
gfz2013vsbl  -0.33157
gfz2013vuja   0.06648
gfz2013vvrq  -0.00000
gfz2013vzbo  -0.85072
gfz2013wbyr  -0.50787
gfz2013wgeu  -1.95470
gfz2013whts   0.20979
gfz2013wjmm   1.69230
gfz2013wkyk  -0.70040
gfz2013wnql  -0.54135
gfz2013woze  -0.25381
gfz2013wpga  -0.09874
gfz2013wqhq   0.55163
gfz2013wrgw   0.73811
gfz2013wtzl  -0.76205
gfz2013wuml   0.54573
gfz2013xatc   0.26467
gfz2013xcmp  -0.20832
gfz2014ekdn   1.32380
gfz2014emrg   0.64774
gfz2014eqpl  -0.02192
gfz2014erbj  -0.19684
gfz2014ewcz   3.25280
gfz2014ewrw  -0.43903
gfz2014exxa  -0.13846
gfz2014fexu  -0.19116
gfz2014ffdc  -0.16028
gfz2014fgvi  -0.66694
gfz2014fgvr   0.46346
gfz2014fgvz   0.05727
gfz2014fgwn  -0.06196
gfz2014fgwt   0.08813
gfz2014fgxt  -0.28296
gfz2014fgxz  -0.37498
gfz2014fgyo   0.38624
gfz2014fgza  -0.33443
gfz2014fhbd  -0.27975
gfz2014fhdw   0.03247
gfz2014fhgb  -0.13655
gfz2014fhhp  -0.23350
gfz2014fhjd  -0.14685
gfz2014fhkp   0.05734
gfz2014fhla  -0.08235
gfz2014fhlh   0.42332
gfz2014fhmb  -3.70300
gfz2014fhoe  -0.25028
gfz2014fhpf   0.17419
gfz2014fhqk   0.30381
gfz2014fhrq  -0.47161
gfz2014fhsg  -0.59270
gfz2014fhxm   0.04396
gfz2014fhyb   0.08644
gfz2014fimn  -0.36569
gfz2014fiwq   0.74036
gfz2014fjdz   1.70550
gfz2014fjpb   0.17077
gfz2014fjxd   0.05321
gfz2014fjyo   0.22651
gfz2014fjzd  -1.47970
gfz2014fjzw  -0.17672
gfz2014fkmr  -0.42693
gfz2014fkmx   1.67650
gfz2014fles   0.43810
gfz2014flfa   0.22870
gfz2014fmai   0.62187
gfz2014fnbh   0.00405
gfz2014fnyg  -1.02090
gfz2014foty   0.31169
gfz2014fqpz  -0.47315
gfz2014frdz  -0.64436
gfz2014frel   0.32176
gfz2014frfl   0.41746
gfz2014frfw   0.10733
gfz2014frgm   0.33507
gfz2014frjr  -0.16675
gfz2014frme   0.08063
gfz2014frnb   0.14097
gfz2014frwh   0.00000
gfz2014fstx   0.00079
gfz2014fsuh   0.05171
gfz2014fszc   0.15442
gfz2014ftgx  -0.24276
gfz2014ftka  -0.40196
gfz2014ftno   0.22232
gfz2014ftoc   0.43245
gfz2014ftvc  -0.35947
gfz2014furx   0.25193
gfz2014fusc   0.19635
gfz2014fusj   0.41561
gfz2014fusu   0.00602
gfz2014fuub   1.34080
gfz2014fuup   0.38619
gfz2014fuvk   0.72619
gfz2014fuzi  -0.39676
gfz2014fval  -0.05352
gfz2014fvdx  -0.16793
gfz2014fvgh  -0.07816
gfz2014fvhp   0.02815
gfz2014fvpy  -0.33614
gfz2014fvrg   0.42581
gfz2014fvve  -0.30682
gfz2014fwdr  -0.13137
gfz2014fwtt   0.74301
gfz2014fwyr   0.02272
gfz2014fxpu  -0.30422
gfz2014fyfr   0.71239
gfz2014fzgx  -0.34829
gfz2014gbcz   0.17035
gfz2014gbjf   0.01542
gfz2014gcza  -0.16314
gfz2014gdsq  -0.08671
gfz2014gesb   0.82251
gfz2014geuy   0.11978
gfz2014gezs  -0.57972
gfz2014gfdj  -0.58106
gfz2014gfhf  -0.33757
gfz2014ggpd  -0.07375
gfz2014ggsr  -0.44809
gfz2014gilf  -0.30826
gfz2014gkgf  -0.59867
gfz2014gkgl   0.25980
gfz2014gkhp   1.60880
gfz2014gkjl   0.11579
gfz2014gkjt  -0.45791
gfz2014gkjw   0.01361
gfz2014gkjy   0.47913
gfz2014gkln  -0.07150
gfz2014gklq  -0.00745
gfz2014gklv   0.53530
gfz2014gkmm   0.75376
gfz2014gkob  -0.67533
gfz2014gkok   0.95672
gfz2014gkpd   0.00000
gfz2014gkpj  -0.19021
gfz2014gkqf   0.07142
gfz2014gkqu  -0.06719
gfz2014gkrl  -0.44981
gfz2014gkrz  -0.09538
gfz2014gksj   0.10125
gfz2014gksu  -0.34646
gfz2014glfn   0.12648
gfz2014glgo   0.98217
gfz2014glhs   0.11435
gfz2014glov   0.63165
gfz2014glsh   0.03442
gfz2014gltj   0.07551
gfz2014gltx   0.01682
gfz2014glvn  -0.97331
gfz2014glvu   0.23365
gfz2014glxd   0.41591
gfz2014glxy  -0.07981
gfz2014gmci  -0.16626
gfz2014gmes  -0.34442
gfz2014gmge   0.58075
gfz2014gmhp  -0.18734
gfz2014gmhr   0.38932
gfz2014gmic   0.84763
gfz2014gmip  -0.33772
gfz2014gmjo  -0.70687
gfz2014gmjz   0.31003
gfz2014gmku  -0.00891
gfz2014gmlz   1.58240
gfz2014gmmt   0.10465
gfz2014gmnb  -0.51937
gfz2014gmnw  -0.80405
gfz2014gmqw   0.57351
gfz2014gmrj  -0.49136
gfz2014gmtb  -0.10466
gfz2014gmtj  -0.11977
gfz2014gmto  -0.31324
gfz2014gmuk  -0.25732
gfz2014gmuw  -0.24982
gfz2014gmvr  -0.16291
gfz2014gmzl  -0.02691
gfz2014gndq   0.41298
gfz2014gnfd  -0.04983
gfz2014gnfs   0.41337
gfz2014gngg  -0.22842
gfz2014gnhk   0.09147
gfz2014gnig  -0.88882
gfz2014gnmp  -0.84976
gfz2014gnms   0.38217
gfz2014gnmx   0.56558
gfz2014gnno  -0.32569
gfz2014gnnt   0.08144
gfz2014gnom   0.10338
gfz2014gnoz   1.40260
gfz2014gnqt  -1.01460
gfz2014gnre   0.26561
gfz2014gnsi  -0.46770
gfz2014gnvw   0.44661
gfz2014gnwg   0.73396
gfz2014gnxb   0.41641
gfz2014goba  -0.01140
gfz2014goei  -0.34700
gfz2014gogv  -1.05360
gfz2014gohm   0.39161
gfz2014golz   0.19281
gfz2014gono   0.14546
gfz2014goqw  -0.34670
gfz2014gpac  -0.07896
gfz2014gpbx   0.47731
gfz2014gpce  -0.13025
gfz2014gpdo   0.48866
gfz2014gpgd  -0.06073
gfz2014gphr   0.39481
gfz2014gpmm   0.06053
gfz2014gpnf   0.44365
gfz2014gpqq   1.63790
gfz2014gpuk   0.46750
gfz2014gpvk  -0.46064
gfz2014gpxl  -0.18316
gfz2014gpxv  -0.22700
gfz2014gqbj  -0.61408
gfz2014gqco  -0.40240
gfz2014gqer   1.66290
gfz2014gqgf   0.26983
gfz2014gqhe  -0.38505
gfz2014gqiy   0.19905
gfz2014gqqz  -0.16078
gfz2014gqro   0.96392
gfz2014gqup   0.02751
gfz2014gqve  -0.14584
gfz2014grcv  -0.69457
gfz2014grfp  -0.45174
gfz2014grgn  -0.36349
gfz2014grho   1.00940
gfz2014gsdw   0.33338
gfz2014gsgv  -0.11960
gfz2014gsjg   0.07114
gfz2014gsqs  -0.29571
gfz2014gtef   0.07622
gfz2014gtlu   0.25264
gfz2014gtwz  -0.17024
gfz2014gufl  -0.16318
gfz2014gull  -0.06053
gfz2014gulp   0.44993
gfz2014gumd   0.41556
gfz2014gutm   0.59013
gfz2014gvhw   0.61261
gfz2014gvqj   0.44879
gfz2014gvrd   0.61352
gfz2014gwab  -0.39532
gfz2014gwap  -0.34326
gfz2014gwqj  -0.97628
gfz2014gxag  -1.73750
gfz2014gxkh  -0.19232
gfz2014gxqf   0.09002
gfz2014gxqu   0.36109
gfz2014gxqx   0.09727
gfz2014gxvf  -0.73589
gfz2014gxxh  -0.14146
gfz2014gxxo  -0.14949
gfz2014gyxd   0.05084
gfz2014gzrm   0.49186
gfz2014gzue  -0.05541
gfz2014haey   0.01484
gfz2014hafk   0.14532
gfz2014hagb  -0.15491
gfz2014haos  -0.30085
gfz2014hasj  -0.44095
gfz2014hauo  -1.55940
gfz2014hbjm  -0.48823
gfz2014hbjz   0.05254
gfz2014hbqb   0.28348
gfz2014hcmj  -0.96873
gfz2014hcns   0.00583
gfz2014heyq  -0.55945
gfz2014hfad   0.12591
gfz2014hfhl  -0.65000
gfz2014hfzf   0.24131
gfz2014hgqo  -0.41191
gfz2014hhfs  -0.59071
gfz2014hhwx  -0.29180
gfz2014hifp  -0.22713
gfz2014hiih  -0.11664
gfz2014hiiz   0.84897
gfz2014hjgh  -0.24781
gfz2014hjgo  -0.52859
gfz2014hjgr   0.50728
gfz2014hjhu  -0.01897
gfz2014hjij  -0.20353
gfz2014hjkp   0.43588
gfz2014hjlx  -0.38214
gfz2014hkcf   0.37257
gfz2014hkck   0.14998
gfz2014hlib  -0.44481
gfz2014hmgf   0.02501
gfz2014hmvx  -0.45742
gfz2014hmzg  -0.22486
gfz2014hnfm  -0.09102
gfz2014hoap  -0.61321
gfz2014hocg  -0.05934
gfz2014hodc   1.05740
gfz2014hokj   0.10824
gfz2014hphw  -0.25163
gfz2014hqxs  -1.23600
gfz2014hqyx  -0.25009
gfz2014hriu  -1.38300
gfz2014hrtn  -0.62057
gfz2014hssr   0.10198
gfz2014huaj   0.76968
gfz2014hugz  -0.26841
gfz2014hvdm   0.01474
gfz2014hwan  -1.17710
gfz2014hwsy   0.12611
gfz2014hwwi  -0.21228
gfz2014hxev   0.08794
gfz2014hyal  -0.26802
gfz2014hyvq  -0.14480
gfz2014hzdy   0.55359
gfz2014hzfr  -0.22360
gfz2014hzfw  -1.33000
gfz2014hzgn  -0.36883
gfz2014hzht  -0.08339
gfz2014hzig  -0.28973
gfz2014hzze  -1.09300
gfz2014iani  -0.23208
gfz2014iazy   0.20167
gfz2014ieam   0.40468
gfz2014iege  -2.16560
gfz2014ieho  -2.20290
gfz2014ifue   0.10052
gfz2014ifzj  -0.09229
gfz2014igsj   0.11595
gfz2014igur  -0.24037
gfz2014ijvh  -0.11536
gfz2014ikbk  -0.44060
gfz2014ikvd   0.06928
gfz2014ilwu  -2.10980
gfz2014immt  -0.57458
gfz2014imnn  -0.20677
gfz2014inbj  -0.15016
gfz2014iobd  -1.32430
gfz2014iqzj  -0.04242
gfz2014irci  -0.49578
gfz2014ircq   0.08594
gfz2014irrg   0.11328
gfz2014isdq   0.22288
gfz2014isff   0.43569
gfz2014issk   0.85142
gfz2014isub   0.09928
gfz2014isys  -0.40155
gfz2014itab  -0.13104
gfz2014itbe  -0.22384
gfz2014itbu  -0.25971
gfz2014itfc   0.01963
gfz2014itgh  -0.01828
gfz2014itjx   1.84520
gfz2014itkw  -0.85633
gfz2014itpj  -0.12990
gfz2014iuhq  -0.30863
gfz2014ivep  -0.36476
gfz2014iwnf   0.18908
gfz2014iwwl   0.19525
gfz2014ixga  -0.03200
gfz2014ixky  -1.72310
gfz2014iywt  -0.58384
gfz2014jagg  -0.05353
gfz2014jass  -0.38771
gfz2014jcmt  -0.10915
gfz2014jdxj   0.69962
gfz2014jesb   0.02578
gfz2014jfis   0.93169
gfz2014jggm  -0.00717
gfz2014jhra  -0.49483
gfz2014jipr   0.52717
gfz2014jird   0.36041
gfz2014jjhc  -0.31718
gfz2014jjkh  -0.05671
gfz2014jjln  -0.85584
gfz2014jjqk  -0.70505
gfz2014jmnk  -0.97071
gfz2014jmsy   0.13515
gfz2014jnyv  -2.12070
gfz2014joak   0.10494
gfz2014jomw  -1.25400
gfz2014jozl  -0.12268
gfz2014jpep   0.04587
gfz2014jpez   0.14841
gfz2014jpfn  -1.51560
gfz2014jpgu  -0.16673
gfz2014jpxs   0.15890
gfz2014jtcz  -4.25810
gfz2014jtfe   0.14793
gfz2014jvow   0.21251
gfz2014kblw   0.15271
gfz2014kbuk   0.33274
gfz2014kbwm   0.43917
gfz2014khan  -0.24868
gfz2014kizt  -0.57423
gfz2014kjee  -0.16030
gfz2014kjzb  -0.61062
gfz2014kkhh  -0.61295
gfz2014kscf   0.56517
gfz2014ksmz   0.73265
gfz2014kssw  -0.01465
gfz2014kwie  -0.16777
gfz2014kwrg  -0.40288
gfz2014kwwg   0.71151
gfz2014kxqf  -0.40078
gfz2014kyan  -0.18955
gfz2014kyhe  -0.69446
gfz2014kytf   0.47357
gfz2014kzzm  -0.97789
gfz2014lbcq   0.18930
gfz2014lchy  -0.43439
gfz2014lefs   1.79910
gfz2014lehw  -0.15970
gfz2014lgqn   0.26397
gfz2014lhqn   0.85860
gfz2014ljbr   0.16512
gfz2014lnmw  -0.76990
gfz2014lnqy   0.43400
gfz2014lpim  -1.73620
gfz2014lrzx  -0.57706
gfz2014lurd  -0.32867
gfz2014lvgn  -0.02920
gfz2014lwom  -0.37722
gfz2014lwsw   0.03406
gfz2014lwvb  -0.39377
gfz2014lxnc  -0.17930
gfz2014lxqr   0.04266
gfz2014lyhk  -0.46939
gfz2014lyhp  -0.18220
gfz2014macx  -0.25512
gfz2014madw  -0.26837
gfz2014mawp   0.20503
gfz2014mcse   0.16152
gfz2014mden  -0.61312
gfz2014mlqw  -0.20856
gfz2014mlrr  -0.70061
gfz2014mmtb   0.00000
gfz2014mogb  -0.87309
gfz2014mrbm   1.74330
gfz2014mtum  -1.05720
gfz2014muzd  -0.31223
gfz2014mvza   0.25640
gfz2014mxkr  -0.09913
gfz2014myqz   2.15160
gfz2014nafd  -0.38172
gfz2014navw  -0.00852
gfz2014ndue   0.20031
gfz2014ngsk  -0.21882
gfz2014ngvt  -0.00000
gfz2014nhyb  -0.16183
gfz2014niqj  -0.22147
gfz2014nkdx  -0.09756
gfz2014nnxd   0.04661
gfz2014nowp   1.02480
gfz2014npdk  -0.77133
gfz2014npeo   2.25570
gfz2014nphm  -1.26020
gfz2014npnn  -1.50620
gfz2014nqbs  -0.22391
gfz2014nqfm  -0.21540
gfz2014nrie  -0.96882
gfz2014nyeh  -0.39674
gfz2014nyfb  -0.14978
gfz2014nyko   0.69031
gfz2014nylm  -1.04130
gfz2014odgv   0.48978
gfz2014ofhm   5.07210
gfz2014oghp  -0.19117
gfz2014oims   0.10320
gfz2014oinz  -0.03195
gfz2014ojdg  -0.13151
gfz2014okec  -0.08576
gfz2014okxu   0.39431
gfz2014oned   0.65936
gfz2014opqr   1.29640
gfz2014oqhw   0.20726
gfz2014orgz  -0.46408
gfz2014orxs   0.80855
gfz2014oryw   0.05428
gfz2014osvx   0.33050
gfz2014owii   0.72642
gfz2014owxc   0.30359
gfz2014oyly  -0.82346
gfz2014pghi   0.01097
gfz2014pjer   0.51041
gfz2014pjum   0.34626
gfz2014pmxt  -0.32439
gfz2014pngj   0.09264
gfz2014ppzf  -0.57543
gfz2014pxbu   0.56368
gfz2014pzni  -0.51511
gfz2014qbzi   0.46344
gfz2014qcxs   0.12958
gfz2014qfzq  -0.43963
gfz2014qifa   1.27220
gfz2014qjfl   0.32277
gfz2014qjgp  -1.60160
gfz2014qlxd   0.06358
gfz2014qngj  -1.53010
gfz2014qqfg   0.74448
gfz2014qqhm   0.01374
gfz2014qsby   0.93479
gfz2014qtwv  -0.29932
gfz2014raau   1.87740
gfz2014rcyx   0.21404
gfz2014rdoz   0.02347
gfz2014rdsn  -0.17858
gfz2014rfeb   0.01480
gfz2014rhnz   0.07487
gfz2014rhwq  -1.23620
gfz2014riel  -0.37881
gfz2014rils  -1.92300
gfz2014rnrn   0.41448
gfz2014royq   0.31057
gfz2014rucz   0.04654
gfz2014ryfb   0.05955
gfz2014tgcw   0.00000
gfz2014ubwn  -2.31660
gfz2014ubyq   5.36970
