# Nsamples: 51  MAD:  0.447  mean:  0.031  variance:  0.595
gfz2010bxxs   0.37935
gfz2010chnv  -0.04739
gfz2010cqwl   0.49382
gfz2010grjd  -0.61846
gfz2010iull  -0.06511
gfz2010jkxj  -0.58291
gfz2010nmpc  -0.57608
gfz2010nwef   0.23673
gfz2010usho   0.43089
gfz2011cvcg  -0.26161
gfz2011dpqx   0.46368
gfz2011enva  -0.11467
gfz2011gkzt  -0.28799
gfz2011hlsa   0.40937
gfz2011jplh   0.16394
gfz2011lcxq   0.35178
gfz2011lzwj  -0.09501
gfz2011mdie   0.46731
gfz2011owvz   0.27642
gfz2011rewa   0.25546
gfz2011toub   0.32637
gfz2011wxfs  -0.17395
gfz2012enno  -0.12651
gfz2012jlox   0.32014
gfz2012kkup   0.14151
gfz2012klhx   0.29517
gfz2012kudo   0.32504
gfz2012ldxg  -0.71246
gfz2012ldzj  -0.17923
gfz2012wypz   0.19713
gfz2013ccnr   0.56003
gfz2013drxz   0.68141
gfz2013jkut   0.22097
gfz2013ldqb   1.82690
gfz2013nkgj   1.17540
gfz2013pfbx  -0.61142
gfz2014ande  -0.77887
gfz2014bwue   0.28546
gfz2014fhla   0.94908
gfz2014gkqf  -1.55340
gfz2014gull   0.24848
gfz2014hasj  -1.66750
gfz2014lgqn  -0.06459
gfz2014qlxd  -2.73710
gfz2014qqhm  -1.53810
gfz2014ssvz   0.46262
gfz2015kxxs   0.45330
gfz2015mpte   0.40401
gfz2015sfdy  -0.54964
gfz2015smym   0.45586
gfz2015taml   1.68780
