# Nsamples: 8  MAD:  0.893  mean:  2.124  variance:  0.707
gfz2010eaoy   0.78843
gfz2010earu   3.11770
gfz2010eisx   1.97270
gfz2010elyc   1.25020
gfz2010exdd   3.48980
gfz2011aatr   2.45510
gfz2011adjs   2.14240
gfz2014arpf   1.77310
