# Nsamples: 42  MAD:  0.584  mean: -0.621  variance:  1.115
gfz2010bxxs  -1.45860
gfz2010ebhc  -1.52770
gfz2010iull  -0.92657
gfz2010nmpc  -0.38077
gfz2011aatr  -1.31990
gfz2011enva   0.14982
gfz2011hlsa  -1.39890
gfz2011lcxq  -0.92861
gfz2011lzwj  -1.04160
gfz2011rewa  -1.15500
gfz2011toub  -1.80120
gfz2011wxfs  -1.16440
gfz2012enno  -1.32320
gfz2012jlox  -1.27340
gfz2012kkup  -1.61760
gfz2012klhx  -1.25250
gfz2012kuct  -1.36980
gfz2012kudo  -1.19220
gfz2012wypz  -0.93914
gfz2013jkut  -0.37538
gfz2013nwdi  -1.33360
gfz2013svci  -0.83638
gfz2013ypdc   1.76470
gfz2014fgvi  -0.06639
gfz2014fhla   0.98846
gfz2014ftka   1.05620
gfz2014gkgf   0.42228
gfz2014gmge   1.72080
gfz2014gmhr  -1.14320
gfz2014gmnb   0.67408
gfz2014gmnw   0.08826
gfz2014goba   1.88230
gfz2014hhwx   0.72776
gfz2014jpep  -0.35932
gfz2014nqfm  -0.73515
gfz2014oinz  -1.16760
gfz2014ssvz  -1.36420
gfz2015chhn  -1.28720
gfz2015cyjd   0.13646
gfz2015fsjj  -0.61204
gfz2015lhjy  -1.14150
gfz2015tflu  -3.18540
