# Nsamples: 41  MAD:  0.572  mean: -0.331  variance:  0.507
gfz2010bowy  -1.06880
gfz2010bxxs  -0.34154
gfz2010grjd  -1.37780
gfz2010iull  -0.54781
gfz2010nmpc  -0.88138
gfz2010usho   0.04656
gfz2011aatr  -0.04187
gfz2011enva  -0.54791
gfz2011gkzt  -0.82669
gfz2011hlqw  -0.82964
gfz2011hlsa  -0.78750
gfz2011hlth  -0.65275
gfz2011lcxq  -0.02246
gfz2011rewa  -0.26683
gfz2011toub  -0.62803
gfz2012enno  -0.48887
gfz2012kkup  -0.57536
gfz2012klhx  -0.71202
gfz2012ldxg   0.43935
gfz2012ldzj  -0.83611
gfz2012ttoa   0.31698
gfz2012vrgb  -0.19559
gfz2013bzlb  -0.87057
gfz2013jkut   0.02519
gfz2013kdeo  -0.08561
gfz2013pfbx  -0.24037
gfz2014bwue  -0.57229
gfz2014gkhy   0.07531
gfz2014gkqf  -0.29494
gfz2014gltx  -0.07137
gfz2014gmnb   0.19650
gfz2014goba   0.87099
gfz2014gull   2.33820
gfz2014hasj   0.54374
gfz2014huaj  -1.22920
gfz2014jjhc  -0.58440
gfz2014jpep  -2.37600
gfz2014nqfm  -0.40332
gfz2014qqhm   0.01738
gfz2014ssvz  -0.40159
gfz2015mpte   0.33156
