# Nsamples: 8  MAD:  0.851  mean:  4.043  variance:  2.289
gfz2010eaqy   4.32420
gfz2010ecua   2.54060
gfz2011aatr   3.25670
gfz2011adjs   2.88830
gfz2011hlsa   7.70210
gfz2011rewa   4.22750
gfz2012enno   3.27190
gfz2013drxz   4.13240
