# Nsamples: 49  MAD:  0.542  mean: -0.098  variance:  0.918
gfz2010bowy   0.23487
gfz2010bxxs  -0.48097
gfz2010cqwl  -0.75559
gfz2010usho   0.50431
gfz2011aatr  -0.59530
gfz2011enva  -0.59288
gfz2011gkzt  -2.37100
gfz2011hlqw  -0.56392
gfz2011hlsa  -0.41992
gfz2011mjom   1.86160
gfz2011rewa  -0.12171
gfz2011toub  -0.93795
gfz2012enno   0.02090
gfz2012kkup  -0.33886
gfz2012klhx  -0.52612
gfz2012kudo  -0.34295
gfz2012ldxg   0.14396
gfz2012sphd  -1.08480
gfz2012ttoa   0.09905
gfz2012vrgb   0.22830
gfz2012wypz  -0.54745
gfz2013ccnr   0.78340
gfz2013dddp   3.56640
gfz2013jkut  -0.00885
gfz2013kdeo   0.28519
gfz2013pfbx   0.22437
gfz2014afmx   0.17131
gfz2014ande  -0.65416
gfz2014bwue  -0.45587
gfz2014fkmr   0.55361
gfz2014ftka   0.57690
gfz2014fval  -0.09632
gfz2014gkqf  -0.07656
gfz2014gltx  -0.97398
gfz2014gmge   0.78742
gfz2014gmnb  -0.13791
gfz2014goba  -0.55872
gfz2014gsqs   2.21850
gfz2014hasj  -1.19790
gfz2014huaj  -0.40584
gfz2014jpep   0.01406
gfz2014lxnc   0.32941
gfz2014nqfm   0.15381
gfz2014pvch  -2.69900
gfz2014qqhm   0.14599
gfz2014ssvz  -0.45623
gfz2015gckd  -0.35058
gfz2015mpte   0.24367
gfz2015taml  -0.18215
