# Nsamples: 40  MAD:  0.519  mean:  0.096  variance:  0.416
gfz2010bxxs  -0.23944
gfz2010grjd   0.31206
gfz2010iull  -0.07541
gfz2010usho   1.37640
gfz2011aatr  -0.83615
gfz2011enva  -0.09798
gfz2011gkzt   0.67210
gfz2011hlqw   0.34855
gfz2011hlsa   0.09457
gfz2012enno   0.00272
gfz2012klhx   1.14940
gfz2012ldxg   0.28608
gfz2012vrgb   0.58608
gfz2013ifpq  -1.11860
gfz2013jkut   0.30379
gfz2013kdeo   0.45285
gfz2013pfbx  -0.36833
gfz2014bwue  -0.54731
gfz2014frdz   0.62106
gfz2014ftoc  -0.01954
gfz2014fusj  -0.03456
gfz2014gkqf   0.08802
gfz2014glcu   0.54875
gfz2014gltx   0.07190
gfz2014gmnb   0.22686
gfz2014gmnw  -0.22394
gfz2014goba   0.63769
gfz2014gull   1.31750
gfz2014hasj   0.01417
gfz2014itkw   0.45613
gfz2014jpep   0.62420
gfz2014nqfm   0.35397
gfz2014pvch   0.17731
gfz2014qlxd  -1.41540
gfz2014qqhm  -0.35870
gfz2014ubwn   0.24612
gfz2015igsy  -1.84840
gfz2015jzcv  -0.41034
gfz2015mpte   0.65114
gfz2015tlkf  -0.20471
