# Nsamples: 39  MAD:  0.625  mean:  0.159  variance:  1.250
gfz2010bxxs  -0.13158
gfz2010ebhc  -0.20421
gfz2010grjd  -0.08260
gfz2010mkuu   0.24047
gfz2010nmpc  -0.76257
gfz2010usho   0.56342
gfz2011enva  -0.54449
gfz2011hlqw   5.15000
gfz2011hlsa   0.75535
gfz2011toub  -0.60086
gfz2012enno  -0.16191
gfz2012klhx   1.77560
gfz2012ldxg  -0.02135
gfz2012ldzj  -0.67185
gfz2012teic  -0.91562
gfz2012ttoa   1.09600
gfz2012vrgb  -0.05673
gfz2013kdeo  -0.22508
gfz2013ldqb   2.56540
gfz2013pfbx  -0.19676
gfz2013uauo   1.41140
gfz2014ande  -1.02260
gfz2014frdz   0.55389
gfz2014gkqf   0.25288
gfz2014gltx  -1.56040
gfz2014gmnb   0.18182
gfz2014goba   0.47871
gfz2014gull   0.77051
gfz2014jjhc  -0.05673
gfz2014jpep  -0.48273
gfz2014lgqn   0.19366
gfz2014lxnc   0.14708
gfz2014nqfm  -0.43135
gfz2014qlxd  -0.44424
gfz2014qqhm   0.29507
gfz2014ubwn  -0.06101
gfz2015berb  -0.85834
gfz2015mpte  -0.08886
gfz2015tlkf  -0.64000
