# Nsamples: 1713  MAD:  0.655  mean: -0.041  variance:  1.358
gfz2010aban  -0.46408
gfz2010aerk   0.05855
gfz2010ahla   0.16310
gfz2010ahqi  -1.15560
gfz2010aphp   0.56191
gfz2010awfi  -2.27920
gfz2010aykj  -0.56640
gfz2010bedu  -0.16380
gfz2010bfzs  -2.29970
gfz2010bgth  -0.92322
gfz2010bhhq  -0.45265
gfz2010bifb  -1.95710
gfz2010bjeb  -2.63040
gfz2010bjjx  -0.39745
gfz2010bjsl   0.51389
gfz2010bkob   0.31686
gfz2010bkos   0.04625
gfz2010bowy  -2.65060
gfz2010boxo  -2.88300
gfz2010bpda   0.25763
gfz2010bxxs  -0.92150
gfz2010bywj  -2.90050
gfz2010caft  -0.48185
gfz2010cbkg   1.80380
gfz2010cdbt   2.10340
gfz2010civi  -0.60983
gfz2010cjmx   7.93730
gfz2010ckeu   1.03910
gfz2010ckzm  -2.65890
gfz2010cnwc   0.61493
gfz2010cqwl  -1.18450
gfz2010cres  -0.05138
gfz2010ctuw  -1.47320
gfz2010czps  -0.62240
gfz2010dtmx   2.75100
gfz2010eaoy  -1.50740
gfz2010eaqx   0.08120
gfz2010eaqy   4.68150
gfz2010earu   0.43717
gfz2010eask  -1.19330
gfz2010easo   2.76390
gfz2010easu   0.14768
gfz2010eaty   4.38940
gfz2010eaul   0.10875
gfz2010eavd   1.85100
gfz2010eavp   0.85804
gfz2010eavs  -0.75730
gfz2010eaxa   0.45117
gfz2010eaya   0.19376
gfz2010eayp  -0.24764
gfz2010eayx   0.62020
gfz2010ebby   5.84740
gfz2010ebfa   3.19620
gfz2010ebfx   4.19770
gfz2010ebhc  -1.37400
gfz2010ebih  -0.25872
gfz2010ebiv   1.43570
gfz2010ebjg   0.27005
gfz2010ebjy  -0.19714
gfz2010ebla   1.15800
gfz2010ebll  -0.80865
gfz2010ebmi   0.09508
gfz2010ebpa   2.32800
gfz2010ebqt   1.32290
gfz2010ebqz   0.21844
gfz2010ebsv   1.63730
gfz2010ebvm   0.37146
gfz2010ebvv  -0.23696
gfz2010ebxl  -0.43362
gfz2010ebze   0.33078
gfz2010ecbi  -0.62845
gfz2010eccq   0.36498
gfz2010ecdu   0.09056
gfz2010eced   0.00000
gfz2010ecft   0.40267
gfz2010ecfx   0.30037
gfz2010ecfy   0.16157
gfz2010echy   0.27098
gfz2010ecka   0.06746
gfz2010ecns   2.19320
gfz2010ecyr   0.09626
gfz2010edad  -0.00000
gfz2010eday  -0.38654
gfz2010edbz   0.83474
gfz2010edde   0.29290
gfz2010edqd   0.04574
gfz2010edsn   5.99910
gfz2010edsy   0.04344
gfz2010edun  -0.06260
gfz2010edvf  -0.04034
gfz2010edyi   0.06389
gfz2010edzb  -0.05990
gfz2010eedz  -2.52440
gfz2010eefo   0.04229
gfz2010eeia   0.21369
gfz2010eekg  -0.22813
gfz2010eell  -1.25690
gfz2010eeng   0.18496
gfz2010eeqy   0.95551
gfz2010eerh   0.57837
gfz2010eern   0.21346
gfz2010eesf  -0.10104
gfz2010eevu   0.03485
gfz2010eexz   0.35096
gfz2010eeyh   0.25861
gfz2010efak  -0.05962
gfz2010efbh   0.04353
gfz2010efkc   0.74620
gfz2010efls  -0.00000
gfz2010efnf  -0.19255
gfz2010efsq  -1.91490
gfz2010efwo   0.02052
gfz2010efxf   0.84856
gfz2010eghq  -0.59816
gfz2010egld  -0.81922
gfz2010egln   0.07299
gfz2010egmp  -0.08755
gfz2010egqh   1.22650
gfz2010egsw   0.56550
gfz2010egyy  -0.11043
gfz2010ehaj  -0.57963
gfz2010eher   0.43859
gfz2010ehft   0.89592
gfz2010ehnl  -0.03105
gfz2010ehrq  -3.25210
gfz2010ehvj   0.35966
gfz2010ehwg   0.29284
gfz2010ehxz   0.30999
gfz2010eimf   0.47103
gfz2010eioi   0.20872
gfz2010eiqi   0.08448
gfz2010eisx  -4.97250
gfz2010ejae  -0.10549
gfz2010ejjg  -0.10287
gfz2010ejka  -0.56503
gfz2010ejma   0.81933
gfz2010ekaw   0.63494
gfz2010erig  -0.44758
gfz2010erkn  -0.79869
gfz2010ermi   0.71738
gfz2010eruy   0.09685
gfz2010erwn  -0.98180
gfz2010erxb  -0.01963
gfz2010erxk  -0.11872
gfz2010eryg  -1.50250
gfz2010esid   2.58450
gfz2010esou   0.06379
gfz2010eted  -0.24248
gfz2010etfw  -0.33343
gfz2010euae  -0.04064
gfz2010euan  -0.00000
gfz2010eugj  -0.57081
gfz2010euii   0.65786
gfz2010eujm   0.57383
gfz2010eutw  -0.10790
gfz2010euvl  -0.41924
gfz2010euwb  -0.00000
gfz2010euxe   0.84227
gfz2010evco  -0.29732
gfz2010evgf  -1.13960
gfz2010evjv  -0.13196
gfz2010evkd  -0.39701
gfz2010ewbc   1.83940
gfz2010ewpq   0.01963
gfz2010ewvc  -0.14336
gfz2010ewyu   0.00000
gfz2010excp  -0.79316
gfz2010exdd  -0.52769
gfz2010exdl   0.38400
gfz2010exed   1.77860
gfz2010exel   0.28606
gfz2010exfb  -0.43541
gfz2010exgb  -6.46180
gfz2010exhd   0.33190
gfz2010exhw  -0.11413
gfz2010exjw  -0.80195
gfz2010exlm   0.55837
gfz2010exmc   0.30170
gfz2010exno  -0.52019
gfz2010exou   0.42576
gfz2010exqu   0.47358
gfz2010exsg  -0.44681
gfz2010exts  -0.08074
gfz2010exyp   0.45489
gfz2010eyaz  -0.37142
gfz2010eybj   0.14898
gfz2010eymr   0.31096
gfz2010eymx  -0.21691
gfz2010eyqe  -0.75819
gfz2010eyvq  -0.24594
gfz2010eyxe  -0.17142
gfz2010ezax   0.08292
gfz2010ezck   0.30282
gfz2010ezig  -0.05643
gfz2010ezjk  -0.01935
gfz2010ezuj   0.50770
gfz2010ezvg   0.42283
gfz2010ezvt  -0.23705
gfz2010ezwz   0.03799
gfz2010ezxd   1.94920
gfz2010faeu   0.25038
gfz2010falm  -1.51540
gfz2010fauz   0.33018
gfz2010faxg   0.73245
gfz2010fbeu  -0.45586
gfz2010fbwe  -0.61852
gfz2010fcax  -1.22140
gfz2010fcdw  -0.17404
gfz2010fciw   2.76720
gfz2010fcnn  -0.71124
gfz2010fcnt  -0.49294
gfz2010fcyj   2.80160
gfz2010fczt   0.99918
gfz2010fdab  -0.11241
gfz2010fexw   4.57810
gfz2010ffhq  -1.53590
gfz2010ffjb  -0.53375
gfz2010ffui  -1.10090
gfz2010fhbl  -0.42206
gfz2010figq   0.36495
gfz2010fihj  -0.85641
gfz2010fisf  -0.00225
gfz2010fixr  -0.33476
gfz2010fjal   0.05267
gfz2010fjas   0.22854
gfz2010fjmu   0.58591
gfz2010fjni  -0.34787
gfz2010fkhd   0.30825
gfz2010fkia   0.13135
gfz2010fknh  -0.32172
gfz2010fkvg  -0.34964
gfz2010flha  -1.21610
gfz2010floi  -0.60117
gfz2010flrt   0.88659
gfz2010flxi   0.22805
gfz2010fmhb  -1.39460
gfz2010fmip   0.03627
gfz2010fmpy  -0.78323
gfz2010fmwb  -0.42590
gfz2010fneu   0.05097
gfz2010fnrk  -0.10423
gfz2010fobc  -0.77625
gfz2010fona   0.42529
gfz2010fpmv   0.11383
gfz2010fpqy  -0.22494
gfz2010fqdu  -0.68122
gfz2010fqtj  -0.01950
gfz2010fser  -0.34126
gfz2010fsth   0.48314
gfz2010ftlm   0.42509
gfz2010ftsx  -0.24143
gfz2010fupn  -0.23145
gfz2010fvuc   0.11595
gfz2010fwkk  -0.39077
gfz2010fwny   0.40747
gfz2010fwpv   0.74722
gfz2010fyed   1.20570
gfz2010fyen   0.19477
gfz2010fync  -0.87275
gfz2010fzoi   0.05980
gfz2010fzsg   5.17270
gfz2010fzyt  -0.17535
gfz2010gcdn  -0.21406
gfz2010gceb   0.14561
gfz2010gcrl  -0.19267
gfz2010gcrp   1.00560
gfz2010gdch  -1.35110
gfz2010gdld   0.39805
gfz2010ghyk  -0.87132
gfz2010ginm  -0.39269
gfz2010gjvo  -1.85870
gfz2010glqr  -0.12591
gfz2010glxl   0.39682
gfz2010gmib   0.28255
gfz2010govu  -0.26499
gfz2010grss   0.69901
gfz2010grxb  -0.80815
gfz2010gslu  -0.50195
gfz2010gtqs  -0.14637
gfz2010gtzt   0.51880
gfz2010hevz  -1.61920
gfz2010hgld  -0.49193
gfz2010hjoc  -6.29070
gfz2010hlco  -6.67240
gfz2010hllj  -0.13833
gfz2010hlmq   0.11087
gfz2010hlvr   0.17560
gfz2010hmhm  -1.04510
gfz2010hnnf   0.89981
gfz2010hnpi  -0.72044
gfz2010hnzr  -0.13964
gfz2010homc  -0.42941
gfz2010hptz  -0.66501
gfz2010hrkr  -0.64021
gfz2010hrpr   1.85890
gfz2010htdq   1.42890
gfz2010hufk  -0.87575
gfz2010hykt   0.39762
gfz2010hzar  -0.13592
gfz2010iauj   0.17367
gfz2010ibiy  -0.13359
gfz2010icqq   1.15410
gfz2010iefy  -0.15040
gfz2010ihrq   0.57392
gfz2010iimu   0.08302
gfz2010imfv  -0.04036
gfz2010iobp  -1.08210
gfz2010iphd  -0.86067
gfz2010ipsg  -0.40844
gfz2010iqep   0.00913
gfz2010iqfm   0.34677
gfz2010iqnm  -0.12886
gfz2010iqus  -0.03934
gfz2010irqr  -0.05826
gfz2010irvf  -0.01672
gfz2010isrp   0.14906
gfz2010ited  -0.53800
gfz2010itpb  -0.60907
gfz2010iull  -1.94080
gfz2010ixyc   0.07160
gfz2010izzj  -0.63560
gfz2010jagd  -1.04750
gfz2010jant   0.43752
gfz2010jhie  -0.48509
gfz2010jipf   0.13920
gfz2010jitt  -0.23480
gfz2010jkxj  -0.90155
gfz2010jlhj   0.58295
gfz2010jpyj   0.37690
gfz2010jqxx  -0.11012
gfz2010jssh  -0.68062
gfz2010jsuh  -3.97310
gfz2010jsuo  -1.02200
gfz2010jtal  -0.28002
gfz2010jucj  -0.07647
gfz2010jwpy  -2.62060
gfz2010jxbm  -0.43309
gfz2010jzku   0.08692
gfz2010kcoo  -0.19636
gfz2010kdyc   0.58500
gfz2010kgws   0.98119
gfz2010kmgg   2.99910
gfz2010kqyh   0.11584
gfz2010kyen   0.23250
gfz2010kyvj   0.04713
gfz2010kzml  -0.48939
gfz2010lcoq   0.52533
gfz2010lczp  -0.26033
gfz2010lfju  -0.51126
gfz2010liqs  -0.62309
gfz2010lkcf  -1.68240
gfz2010lluj  -1.22410
gfz2010lopz   0.12023
gfz2010mfpt  -0.03988
gfz2010ndxl  -0.89623
gfz2010truw   0.75174
gfz2010txjs   1.08750
gfz2010tzzk  -0.07538
gfz2010uept  -0.20911
gfz2010upfb  -0.11745
gfz2010upiw  -0.03144
gfz2010urlq   0.71099
gfz2010usho  -0.12396
gfz2010ustq   0.57635
gfz2010utcg  -0.57362
gfz2010utmc   0.09715
gfz2010utvp   0.00000
gfz2010uyhb   0.95204
gfz2010veri  -1.23650
gfz2010vhuj  -0.97483
gfz2010vjcb  -1.34990
gfz2010vppc  -0.04606
gfz2010vtdg   0.80380
gfz2010vxvs   0.23768
gfz2010vzpr  -0.44844
gfz2010wioh   0.07007
gfz2010wnty  -0.40869
gfz2010wntz   2.11560
gfz2010wofs   1.76240
gfz2010wrxx  -0.63772
gfz2010wxqa   0.34328
gfz2010xbdv  -10.30500
gfz2010xbgs   2.52020
gfz2010xden   0.11665
gfz2010xgzw  -8.62680
gfz2010xjck   0.37793
gfz2010xjsj  -0.44180
gfz2010xmpr   0.57648
gfz2010xnxk   0.53737
gfz2010yfsv  -0.17541
gfz2010yjev  -0.64799
gfz2010ymfy  -0.07916
gfz2010ymur   0.34480
gfz2010yosr   2.57000
gfz2010yoyx   0.84457
gfz2010yqwx  -1.71000
gfz2010ysaj   0.32996
gfz2010yzgq   0.26185
gfz2010zeeh  -0.57589
gfz2011aatr  -3.35600
gfz2011adjs  -1.40160
gfz2011adlj   2.93950
gfz2011adne   0.14673
gfz2011adpw   0.01094
gfz2011adqk  -0.20645
gfz2011aeay  -0.23133
gfz2011aldv   0.14833
gfz2011alip   0.36396
gfz2011alsa   0.14195
gfz2011alwf  -2.77650
gfz2011aosc   0.26772
gfz2011aqxf  -0.57120
gfz2011bnsg  -0.01242
gfz2011bpkd   0.33664
gfz2011cfae   0.11549
gfz2011coxh   0.40829
gfz2011crdy   2.09510
gfz2011csju   0.15164
gfz2011cvcg  -0.69201
gfz2011cvfg  -5.14080
gfz2011cwgn  -0.14556
gfz2011cykd  -2.07230
gfz2011cylz  -0.40727
gfz2011cynl   0.03300
gfz2011cyre  -1.12680
gfz2011cyuk  -1.22530
gfz2011czwj  -0.02808
gfz2011dbev  -0.64936
gfz2011dbig  -1.31570
gfz2011dbli  -0.28037
gfz2011dbon  -0.22040
gfz2011dbwt   0.25984
gfz2011dcqb  -1.81580
gfz2011dcqf  -1.33570
gfz2011ddao  -0.32054
gfz2011deaf  -0.45721
gfz2011deja   0.31269
gfz2011dkyi  -0.40243
gfz2011dllz  -0.02310
gfz2011dlyx   1.20780
gfz2011dpaa  -0.09734
gfz2011dpmx   1.74710
gfz2011dpqx  -3.00000
gfz2011dtpy   0.23342
gfz2011duyr  -0.28001
gfz2011eayc   0.13095
gfz2011eazf  -0.34233
gfz2011ecaj  -0.39802
gfz2011ecsc  -0.07622
gfz2011ecvr  -0.62291
gfz2011edmm  -0.56839
gfz2011eebc   0.05314
gfz2011efgv  -0.08257
gfz2011ehzq   0.03223
gfz2011eiis   0.36262
gfz2011ejlp  -0.00615
gfz2011ekpr   0.66565
gfz2011eltw   0.41871
gfz2011enva  -1.31350
gfz2011etje  -2.33000
gfz2011fgvr  -0.34084
gfz2011fhbm  -0.50861
gfz2011fkbn  -0.55978
gfz2011flgj  -0.31335
gfz2011flhp  -0.11139
gfz2011fnsw  -1.75460
gfz2011gbmx   0.67804
gfz2011gcwb   0.35366
gfz2011gdgh  -0.95204
gfz2011ggvf  -0.48170
gfz2011ghky   0.88742
gfz2011gjlx   0.01626
gfz2011gkey   0.45330
gfz2011gkzt  -0.40674
gfz2011gzbr   0.36717
gfz2011haid   0.54728
gfz2011hbex  -0.90343
gfz2011hbqk   0.76630
gfz2011hebt   0.26358
gfz2011hfkj   0.27321
gfz2011hlqw   1.30890
gfz2011hlsa   1.23200
gfz2011hlth   2.03590
gfz2011hpgx   0.28343
gfz2011hpqp  -1.30180
gfz2011hrhu  -0.47253
gfz2011hryk   0.58796
gfz2011hsfj   1.24530
gfz2011hvbu  -0.60853
gfz2011iwte  -0.30378
gfz2011izqa  -0.10662
gfz2011izto  -0.17458
gfz2011jdsj  -0.29742
gfz2011jghb  -0.08949
gfz2011jplh  -1.90610
gfz2011jtlg  -0.53809
gfz2011juid  -1.14940
gfz2011jxpl   0.07453
gfz2011knbi  -0.21726
gfz2011knoo  -0.09822
gfz2011kqwo  -0.12498
gfz2011kqyg  -0.97973
gfz2011ksiu  -0.16026
gfz2011kwiy  -0.54471
gfz2011kwnu  -0.83956
gfz2011lcxq  -1.73970
gfz2011lggq  -0.04808
gfz2011lvjr   0.59004
gfz2011lzwj   0.39345
gfz2011mdie  -3.18750
gfz2011mepc   0.48387
gfz2011mjom  -0.03077
gfz2011mllx  -0.32480
gfz2011mlvw  -0.56374
gfz2011mpme  -0.95953
gfz2011myia  -0.33598
gfz2011nauw  -0.18941
gfz2011necz  -0.24191
gfz2011nmnq  -1.38590
gfz2011noud   0.09190
gfz2011nowp   0.56677
gfz2011nqpd  -0.19910
gfz2011nrwc  -1.35410
gfz2011nrwv   0.70836
gfz2011ntkh   0.44927
gfz2011nudm  -1.08750
gfz2011ogqk  -0.12467
gfz2011ohcy  -1.02140
gfz2011oiqe  -0.16366
gfz2011oiwk   0.83084
gfz2011olkk   0.11607
gfz2011orgn   0.17560
gfz2011ornx  -0.59833
gfz2011owvz  -2.39730
gfz2011pccd   0.07637
gfz2011pdpt  -0.41423
gfz2011phms  -0.51672
gfz2011pntf   0.71737
gfz2011ptus  -0.39814
gfz2011qoif  -0.73891
gfz2011qvae   0.03197
gfz2011rabm   0.80200
gfz2011rdby   2.80200
gfz2011rewa  -3.50690
gfz2011rnut  -1.56210
gfz2011rqui  -0.26660
gfz2011rsrh  -0.05461
gfz2011rznl   0.82244
gfz2011sagt  -0.77817
gfz2011sawg  -0.33783
gfz2011shqm  -0.93011
gfz2011stal   2.04410
gfz2011syjd  -0.88055
gfz2011tbas  -1.00260
gfz2011tcij  -0.20822
gfz2011tivu   0.31894
gfz2011tjrf   0.52994
gfz2011tjue  -0.11711
gfz2011tkfp  -3.69730
gfz2011tkog  -2.44020
gfz2011tnag   0.00000
gfz2011toub  -3.17950
gfz2011tpbl  -0.76303
gfz2011tpfr  -0.07576
gfz2011tsnp  -0.08083
gfz2011tuea   0.30167
gfz2011udsq  -0.19913
gfz2011ueni   0.58200
gfz2011ujze  -0.11567
gfz2011ukmp   0.48336
gfz2011unkx  -2.68100
gfz2011uphh   0.61135
gfz2011urxy   0.83624
gfz2011urzu  -0.34174
gfz2011uzqv   1.38800
gfz2011vhfi  -1.49580
gfz2011vkun  -0.04418
gfz2011vnza  -1.07310
gfz2011vqnr   0.41807
gfz2011vqrj  -0.82172
gfz2011vrhg  -2.28610
gfz2011vusi   0.23149
gfz2011vxns  -0.83796
gfz2011vxod  -2.37290
gfz2011vxxg   0.10985
gfz2011wcic   0.49620
gfz2011wfja   0.15096
gfz2011wijj  -0.26327
gfz2011wjkf  -0.31640
gfz2011wjul  -1.41450
gfz2011wvzb  -1.04600
gfz2011wxfs   0.03476
gfz2011wxtk  -0.54245
gfz2011wype   0.55244
gfz2011xqru  -0.65600
gfz2011xyxj   2.51720
gfz2011yfdx   0.16713
gfz2011yhwz   1.57180
gfz2011yybo  -0.44506
gfz2011yzwq  -0.94590
gfz2011zklv  -0.91952
gfz2011zlfg  -0.07335
gfz2011zqhh  -0.43785
gfz2012ablh  -0.56632
gfz2012ajtq  -0.65133
gfz2012aqgp   0.47134
gfz2012bfah  -0.13163
gfz2012bpkx  -0.20932
gfz2012bpwl   0.80779
gfz2012bqeb  -0.06107
gfz2012byad  -0.11370
gfz2012cbed  -0.81289
gfz2012cevz   0.52993
gfz2012cgvr   0.00000
gfz2012ckxi   0.50848
gfz2012cmfy   0.17533
gfz2012cnod   0.55870
gfz2012covm   0.38067
gfz2012cqnl  -0.55944
gfz2012cxdn   0.08118
gfz2012czlw  -0.27265
gfz2012ddma  -0.09914
gfz2012deri  -0.23686
gfz2012dfhq   0.50600
gfz2012dimn  -0.26900
gfz2012dinb   0.11524
gfz2012djwi   1.24160
gfz2012dyyh  -0.58325
gfz2012ekda   0.42720
gfz2012ekzf  -0.00000
gfz2012elce  -1.34190
gfz2012emjg  -0.67842
gfz2012enno  -2.83110
gfz2012ewgo  -0.81805
gfz2012ewkj   0.58770
gfz2012fbfo   0.31209
gfz2012fhnh   0.03780
gfz2012fivh  -0.88749
gfz2012foeo   1.86740
gfz2012fqcg   4.14020
gfz2012fwfo  -2.19320
gfz2012fwob   0.03324
gfz2012fzfa  -0.06826
gfz2012gcgn   2.11830
gfz2012gemm  -0.05791
gfz2012gill   0.21257
gfz2012gkvr   0.88631
gfz2012glss   0.00000
gfz2012gnvh   0.64667
gfz2012gocc  -2.03810
gfz2012gomm  -0.64228
gfz2012gukw   0.91731
gfz2012gwmu  -0.08207
gfz2012gwqb  -0.06922
gfz2012hdbm  -0.80519
gfz2012hnul   0.43551
gfz2012hnuw   0.56168
gfz2012hogg   0.34484
gfz2012holl   0.65496
gfz2012icmv  -1.49760
gfz2012idje  -0.12160
gfz2012iffo   3.92350
gfz2012ihdl   0.23847
gfz2012ilvn   0.26275
gfz2012ilxh  -0.00673
gfz2012imay  -0.83654
gfz2012jgvj  -0.70078
gfz2012jjzc   0.23142
gfz2012jlox  -0.57015
gfz2012joqe  -0.06628
gfz2012jpeh  -1.49460
gfz2012jpgs   1.73420
gfz2012jqvn  -0.15670
gfz2012jshk  -1.49520
gfz2012jted  -0.53959
gfz2012jupx   1.88570
gfz2012jxiy  -0.56808
gfz2012kbjb   0.24360
gfz2012kbzj   0.13058
gfz2012keor  -0.02977
gfz2012kkup  -3.17870
gfz2012klhx  -2.46570
gfz2012kuct  -0.09179
gfz2012kudo  -1.35310
gfz2012kvzv  -2.21670
gfz2012kwgo  -0.00000
gfz2012lboz   1.83350
gfz2012ldxg   0.39590
gfz2012ldzj  -0.73807
gfz2012ledy  -0.04110
gfz2012lltr  -2.55880
gfz2012llug  -0.34824
gfz2012lrol   0.30160
gfz2012lrsv   0.25012
gfz2012lxkv   2.53130
gfz2012mcze   0.02588
gfz2012mdmy  -0.21776
gfz2012minr  -0.07454
gfz2012mkpn   0.32012
gfz2012mlyf   0.02463
gfz2012mpvy  -0.23627
gfz2012mtiu  -0.03611
gfz2012mupa   0.00000
gfz2012mvwr  -0.51738
gfz2012mwij   2.65790
gfz2012naqz  -0.57106
gfz2012nbtn   0.05944
gfz2012nedn   1.02530
gfz2012ngic   0.10187
gfz2012njha  -0.02161
gfz2012nkdf  -2.46730
gfz2012nojx  -0.89100
gfz2012nqnk  -0.51997
gfz2012nsbz  -0.29299
gfz2012ntzv  -0.08668
gfz2012nutf   0.54629
gfz2012nxog   1.43260
gfz2012nxyt   0.74166
gfz2012oazn   0.03063
gfz2012obgw  -1.72480
gfz2012oedb  -0.45518
gfz2012omvo   0.66502
gfz2012ostk  -0.25549
gfz2012ovqs   0.93495
gfz2012oycg   0.00985
gfz2012pazr  -0.74167
gfz2012pciw   0.60963
gfz2012pcxi  -0.47989
gfz2012peex   0.56372
gfz2012pkel   0.17417
gfz2012plbw  -0.45333
gfz2012poju   0.68581
gfz2012pqlt  -2.23080
gfz2012pqmk   0.17815
gfz2012pqmu  -0.00000
gfz2012pspd  -0.30731
gfz2012qouy   0.89920
gfz2012qqqp  -1.13550
gfz2012qqxg   0.28661
gfz2012qtgs   0.06330
gfz2012quso  -2.34720
gfz2012qxcy   0.38884
gfz2012rats   0.26545
gfz2012rcbq   0.12485
gfz2012rcnj  -2.30560
gfz2012repv  -0.14792
gfz2012rknn   0.81437
gfz2012ronz  -0.68216
gfz2012royy   0.01927
gfz2012rqlg  -0.05464
gfz2012rtqi   1.88000
gfz2012ruks  -0.17067
gfz2012rwko  -0.39704
gfz2012rwov  -0.68948
gfz2012rwql  -1.13840
gfz2012rypu  -0.70425
gfz2012sfer   1.31300
gfz2012shtg  -0.22456
gfz2012sjea   1.12370
gfz2012snhi  -0.05641
gfz2012sphd  -0.59668
gfz2012ssyn  -0.13669
gfz2012syvl   0.67526
gfz2012szla   1.51580
gfz2012taou   0.05938
gfz2012tazz  -0.16593
gfz2012tbbp   0.39147
gfz2012teic  -0.58347
gfz2012thfx  -0.18034
gfz2012tpzx  -0.55075
gfz2012ttoa  -0.33831
gfz2012tzcc   0.46559
gfz2012ueqo  -0.22244
gfz2012ufew  -0.27439
gfz2012uqzp   0.28983
gfz2012usba   0.22176
gfz2012uxnz  -0.46934
gfz2012uyie   0.07344
gfz2012uzom   1.48330
gfz2012vceo   2.89610
gfz2012vdbt   0.33191
gfz2012vmeh   0.25056
gfz2012vnbk   0.46584
gfz2012vntz   0.01812
gfz2012vpza  -0.23155
gfz2012vrgb  -0.94380
gfz2012vrua   0.08279
gfz2012vsev   1.75380
gfz2012vtif  -0.27392
gfz2012vtxe   0.75362
gfz2012vwvd   1.07830
gfz2012wajj   0.60931
gfz2012wdyx   0.02113
gfz2012whku   0.30202
gfz2012wklq  -0.32451
gfz2012wmsg  -0.89001
gfz2012wpeq  -1.31720
gfz2012wqnc   3.14140
gfz2012wrir  -0.34227
gfz2012wtkr  -0.23187
gfz2012wubh   1.03860
gfz2012wvfl  -0.18257
gfz2012wxer   0.64773
gfz2012wxlg   0.09790
gfz2012wxnu   1.82100
gfz2012wybs   0.84769
gfz2012wypz  -0.88170
gfz2012xbjq   0.22733
gfz2012xevt   3.13260
gfz2012xjyv  -0.03594
gfz2012xmxy   0.29791
gfz2012xslk   1.44380
gfz2012xvwn   0.01959
gfz2012xyqp  -0.14635
gfz2012xyua  -0.40723
gfz2012yfrp   0.37950
gfz2012zemh   1.16950
gfz2012zfag   0.75723
gfz2012ziml  -0.56271
gfz2012zitl  -0.28176
gfz2012zjpv   0.25029
gfz2013aahq   2.70330
gfz2013aayj  -1.16310
gfz2013acag  -0.10579
gfz2013adey   0.80309
gfz2013apmm   1.13850
gfz2013axoj  -0.24570
gfz2013azzr  -0.67097
gfz2013bdke   1.94940
gfz2013biji   0.30557
gfz2013bnxc   0.82074
gfz2013bokp   1.91610
gfz2013bouj  -0.99002
gfz2013ccnr   1.83690
gfz2013cfyy   0.13203
gfz2013cnhh   0.76248
gfz2013cvad   0.52646
gfz2013cwpn  -0.48614
gfz2013dkly   0.15480
gfz2013dkmz  -0.12141
gfz2013dkym  -1.15190
gfz2013dofo   0.97024
gfz2013dojq   0.16303
gfz2013drpk  -0.02084
gfz2013drxz   0.25700
gfz2013dsog  -0.19143
gfz2013dspt  -1.18580
gfz2013dujm   0.04880
gfz2013dvyh  -0.65714
gfz2013egni  -1.41310
gfz2013egpu  -1.81990
gfz2013eulz   4.78380
gfz2013ewbo   1.12880
gfz2013fcto   0.20344
gfz2013fepm   6.30320
gfz2013ffko   2.99810
gfz2013fiud   0.06420
gfz2013fwxa  -0.53249
gfz2013gbst  -0.48645
gfz2013gdnq   0.38993
gfz2013geia   2.01610
gfz2013ggtf  -0.66528
gfz2013gjdc   1.37590
gfz2013gmor   0.12039
gfz2013gock   0.22405
gfz2013hkja  -1.10240
gfz2013hlbe   0.11076
gfz2013hpfq  -0.88785
gfz2013hsfw   0.90282
gfz2013huwr  -0.50047
gfz2013icfh  -4.69980
gfz2013idbb   0.36808
gfz2013ifpq  -0.17463
gfz2013ihcj  -0.38238
gfz2013ijsr  -1.15240
gfz2013ikgo  -0.75122
gfz2013ilug  -0.02003
gfz2013iopd   0.59381
gfz2013iqzq   2.43720
gfz2013itsu  -0.36846
gfz2013iunn  -2.32010
gfz2013jarl   0.95190
gfz2013jdrx   0.34112
gfz2013jgij  -0.00000
gfz2013jgip   0.98315
gfz2013jkut  -0.08002
gfz2013jlst   2.21230
gfz2013jokw   0.81951
gfz2013json  -0.50713
gfz2013jusj   1.11190
gfz2013jwvc  -5.17070
gfz2013kdeo   0.15233
gfz2013kheb  -0.01824
gfz2013kqln  -0.35233
gfz2013kvtk   1.31560
gfz2013lbiu   0.70665
gfz2013ldpc   0.88582
gfz2013ldqb   0.11868
gfz2013lgnl  -0.89618
gfz2013lixa   0.17940
gfz2013lljw   0.50039
gfz2013lmrs   0.19093
gfz2013lsob   0.06587
gfz2013lwao  -0.59114
gfz2013lyko  -0.27886
gfz2013lznu   0.69379
gfz2013malg  -1.72200
gfz2013mded   0.42860
gfz2013mghe  -2.40170
gfz2013mmwq   0.26460
gfz2013mnju   0.02206
gfz2013mqik   0.56398
gfz2013mqmv  -0.16033
gfz2013mtqd   0.60805
gfz2013mwbh   0.10166
gfz2013nabl   0.13109
gfz2013ncjp   0.51252
gfz2013ndin   0.61054
gfz2013nfwx   0.54724
gfz2013ngnt   0.18470
gfz2013nixj  -0.47914
gfz2013nkgj  -0.87025
gfz2013nknw  -0.30567
gfz2013nlxz   1.23190
gfz2013nnzf  -0.53119
gfz2013nojf   0.36580
gfz2013oejn  -0.31763
gfz2013ofls   0.26035
gfz2013ogde  -1.51020
gfz2013oifr   0.94274
gfz2013oinc   2.75650
gfz2013oksi  -1.93160
gfz2013onjy   1.71190
gfz2013oqsc  -1.81790
gfz2013orzn  -0.81356
gfz2013ouvt  -0.38985
gfz2013ozku  -0.09456
gfz2013ozqm  -0.33041
gfz2013ozrp  -0.29163
gfz2013pcos   0.37469
gfz2013pfbx  -0.38757
gfz2013pfeb  -0.66871
gfz2013pffm   0.14739
gfz2013poxj   0.88762
gfz2013ppqq   0.53806
gfz2013pqui   0.40029
gfz2013pupd  -0.11646
gfz2013pxsj   0.38080
gfz2013pxtx   0.47289
gfz2013qali  -0.98986
gfz2013qcck  -0.26956
gfz2013qzdq  -2.11490
gfz2013rait  -0.87790
gfz2013reym  -0.05504
gfz2013roki  -0.96675
gfz2013rqcy  -2.23770
gfz2013rrza  -1.43110
gfz2013rsnr   0.46659
gfz2013rwfe  -0.43749
gfz2013saez  -0.08870
gfz2013scai   0.44567
gfz2013sdus  -1.54360
gfz2013sfds  -1.14710
gfz2013sfto   0.35031
gfz2013shzy  -0.10990
gfz2013sjhg  -0.27889
gfz2013skkm   0.23765
gfz2013snbr  -0.06913
gfz2013snyf  -0.73332
gfz2013sred   0.15634
gfz2013suln   3.48220
gfz2013suvn   0.54637
gfz2013svci  -1.54640
gfz2013tcbk  -0.57550
gfz2013tcxc   0.21103
gfz2013tcxq   0.15354
gfz2013tdau   0.14836
gfz2013tect   1.82980
gfz2013tlaf  -1.12660
gfz2013toxf  -0.62490
gfz2013tpeb   0.74013
gfz2013tusd  -0.12875
gfz2013tvmw   0.22516
gfz2013twwf   0.09455
gfz2013txij  -0.28904
gfz2013txtb  -0.76146
gfz2013tyas  -0.21189
gfz2013uauo   0.29113
gfz2013ufxk  -1.36750
gfz2013ugax  -1.59530
gfz2013uhlm  -0.08289
gfz2013uqsp  -0.36278
gfz2013uqvu  -1.01680
gfz2013utsh   1.18180
gfz2013uxej  -0.43396
gfz2013vcoa   0.08893
gfz2013vefs   0.73825
gfz2013vexx   1.01980
gfz2013vfyw  -0.20043
gfz2013vfzp   0.77612
gfz2013vgau   0.13697
gfz2013vgpf  -0.47117
gfz2013vhnk   0.14731
gfz2013vhzu   0.47914
gfz2013viul   3.24380
gfz2013vjfe  -1.06300
gfz2013vjjc  -2.03430
gfz2013vlth  -0.13822
gfz2013vnfj   0.08372
gfz2013vsbl   0.38186
gfz2013vvjh  -0.55711
gfz2013vvrq  -0.22540
gfz2013vzbo  -0.33620
gfz2013waam   0.50760
gfz2013wjmm   2.76510
gfz2013wkyk  -1.47780
gfz2013wnpr  -0.99286
gfz2013wrgw   0.12856
gfz2013wtzl   0.03636
gfz2013wuon  -0.34484
gfz2013wwii  -0.30516
gfz2013xgek  -0.67488
gfz2013xizq   0.61248
gfz2013xklb   1.36250
gfz2013xkwt  -0.06971
gfz2013xmqg  -0.84915
gfz2013xmul  -0.74526
gfz2013xqnn   0.11261
gfz2013xsdt  -2.46350
gfz2013xtwj  -2.92450
gfz2013xvqd  -0.49097
gfz2013xvxf  -0.35605
gfz2013xxcc  -0.05081
gfz2013xxwv  -0.40789
gfz2013xxxq  -0.46047
gfz2013xyzb   0.09021
gfz2013xzcg  -0.58190
gfz2013yaig   0.27450
gfz2013yewz   0.19240
gfz2013ylbx   1.89160
gfz2013ymky   0.63552
gfz2013ymxs   0.06035
gfz2013ynmw  -0.08469
gfz2013ypdc  -0.30699
gfz2013yqkv  -1.71020
gfz2013yrmc   0.27898
gfz2013yyti  -1.04710
gfz2013yzte   0.12232
gfz2013zjel   0.25966
gfz2013zmoc  -1.08070
gfz2013zmtb   0.43657
gfz2014adoj   0.44822
gfz2014afmx   0.18006
gfz2014afyp  -0.09443
gfz2014agde  -0.58765
gfz2014ajlk   0.08131
gfz2014ajtf   0.37015
gfz2014algk   0.65721
gfz2014alwz  -0.67745
gfz2014amsb   0.99988
gfz2014aqbk   0.50901
gfz2014ared   0.40863
gfz2014arpf  -1.10020
gfz2014arsr  -0.03337
gfz2014atbl  -0.20852
gfz2014bagd  -0.49127
gfz2014bekc  -2.02390
gfz2014bezu  -0.31237
gfz2014bfqo  -0.80413
gfz2014bhhv  -0.60005
gfz2014bhvd   0.23362
gfz2014bjgt   1.30830
gfz2014bldx  -0.40218
gfz2014bmfv   0.15532
gfz2014bmta   0.67464
gfz2014bwue  -1.22290
gfz2014bztt   2.56820
gfz2014bzxy  -0.16901
gfz2014caop  -0.34593
gfz2014capn   0.55212
gfz2014cbtl  -0.02556
gfz2014cgog   0.80755
gfz2014citw   0.35142
gfz2014claq  -0.08331
gfz2014clnj   0.03986
gfz2014cmwb  -0.26729
gfz2014cqyo  -0.19417
gfz2014cueu   0.52325
gfz2014cvkm   0.13191
gfz2014cvxx   0.43404
gfz2014cyvm  -0.55364
gfz2014czqi  -0.34993
gfz2014czua   0.40143
gfz2014dcdy   2.06870
gfz2014dffd   1.02470
gfz2014dgiy  -0.06598
gfz2014disp  -3.09430
gfz2014dofa   0.79647
gfz2014duqn  -1.73780
gfz2014ebmc  -0.16988
gfz2014edfx   0.27306
gfz2014eght   1.95260
gfz2014egwu  -1.06160
gfz2014ehsf  -0.17017
gfz2014ejvf  -0.50977
gfz2014ekcr  -0.74341
gfz2014ekdn   1.48790
gfz2014ekdt  -0.69362
gfz2014emrg   0.43485
gfz2014emzb   0.68433
gfz2014enhi  -1.43420
gfz2014eqpl  -0.39279
gfz2014etqa   0.49674
gfz2014ewcz  -0.24205
gfz2014fcms  -0.49501
gfz2014fcsy   0.16873
gfz2014femz   0.71900
gfz2014fexu   0.22940
gfz2014fgvi   0.02781
gfz2014fgvr   0.36104
gfz2014fgvz  -0.59768
gfz2014fgwt  -0.46091
gfz2014fgxt   0.08067
gfz2014fgxz   0.08860
gfz2014fgyo  -0.40224
gfz2014fgza  -0.62405
gfz2014fhbd   0.38540
gfz2014fhdw  -0.03151
gfz2014fhgb   0.53442
gfz2014fhjd  -1.01130
gfz2014fhla   1.04290
gfz2014fhqk  -0.57091
gfz2014fhrq  -0.09020
gfz2014fhsg   0.86590
gfz2014fhwx   0.57491
gfz2014fimn   0.36473
gfz2014fiuj  -2.77780
gfz2014fiwq  -0.12838
gfz2014fjdz   0.29849
gfz2014fjpb   0.39146
gfz2014fjyo  -0.88937
gfz2014fjzd  -0.84239
gfz2014fjzw  -0.07569
gfz2014fkmr  -0.41572
gfz2014fkmx   0.11164
gfz2014flfa  -0.68196
gfz2014fnyg  -0.72856
gfz2014foio  -0.46095
gfz2014fqpz   0.14191
gfz2014frdz   0.72416
gfz2014frel  -0.65919
gfz2014frez   0.10692
gfz2014frfl   1.01730
gfz2014fvpy   0.28560
gfz2014fvrg   0.69821
gfz2014fwtt  -0.51430
gfz2014fzgx  -0.60533
gfz2014gbcz   0.61233
gfz2014gbdq   0.02019
gfz2014gbjf  -0.82740
gfz2014gcza  -1.31060
gfz2014geuy   0.06205
gfz2014gezs   0.58354
gfz2014ghpe  -0.07807
gfz2014gilf  -0.22636
gfz2014gnvw  -0.37512
gfz2014gnwg  -0.10745
gfz2014gnxb  -0.07377
gfz2014goba  -0.49240
gfz2014goei  -0.42695
gfz2014gogv  -0.45249
gfz2014gohm  -0.74654
gfz2014golz  -0.18973
gfz2014goqw   0.05936
gfz2014gori  -1.00310
gfz2014goyx   1.94760
gfz2014gpam   0.76221
gfz2014gpce  -1.43380
gfz2014gphr   0.63657
gfz2014gpnf   0.00000
gfz2014gpuk   0.33796
gfz2014gpvk   0.16636
gfz2014gpxl   0.20435
gfz2014gpya   1.45900
gfz2014gqbj   0.35685
gfz2014gqco   0.75302
gfz2014gqer  -0.50253
gfz2014gqgf  -0.87142
gfz2014gqhe   0.31878
gfz2014gqiy   0.42990
gfz2014gqjr   1.93860
gfz2014gqqz   0.39771
gfz2014gqro  -0.16719
gfz2014gqve   0.30271
gfz2014grfp  -1.18920
gfz2014grgn   0.03580
gfz2014grho  -0.55489
gfz2014gsgv   0.80607
gfz2014gsjg  -0.29274
gfz2014gsqs   0.25445
gfz2014gtef  -0.12056
gfz2014gtrb  -0.19665
gfz2014gtwz  -0.15293
gfz2014gufl  -0.66622
gfz2014gull  -0.16787
gfz2014gumd  -1.68100
gfz2014gutm  -0.59459
gfz2014gvhw  -0.92558
gfz2014gvqj  -0.24220
gfz2014gvra  -1.49070
gfz2014gvrd  -1.45230
gfz2014gwab  -1.88950
gfz2014gwgf  -0.56264
gfz2014gxag   0.25362
gfz2014gxkh   0.82986
gfz2014gxvf  -0.01046
gfz2014gxxh  -0.91712
gfz2014gxxo  -0.55177
gfz2014gyxd   0.21595
gfz2014hagb  -0.61746
gfz2014hasj   0.27403
gfz2014hauo   0.07447
gfz2014hbjm   1.13910
gfz2014hbjz   0.46858
gfz2014hcmj   0.24643
gfz2014heyq  -0.63965
gfz2014hfhl   0.30726
gfz2014hgqo  -0.20903
gfz2014hhfs   0.04574
gfz2014hhwx   1.27970
gfz2014hifp   0.86580
gfz2014hiiz  -0.74183
gfz2014hjgh   0.18477
gfz2014hjgr   0.24752
gfz2014hjij   0.40174
gfz2014hjlx   0.17763
gfz2014hkcf   0.19156
gfz2014hkck   1.05680
gfz2014hmgf  -1.88480
gfz2014hmrs  -0.20404
gfz2014hmzg   0.06591
gfz2014hoap   2.37880
gfz2014hocg   1.81000
gfz2014hphw   0.97122
gfz2014hqxs   0.18455
gfz2014hriu  -2.50230
gfz2014hrtn   0.91009
gfz2014hscz  -3.87020
gfz2014hsqo  -0.73074
gfz2014huaj   0.41527
gfz2014hugz   0.09740
gfz2014hymr  -0.09575
gfz2014hyvq  -0.07145
gfz2014hzdy   0.40947
gfz2014hzfw   0.05465
gfz2014hzgn  -0.61555
gfz2014hzhe   0.05675
gfz2014hzig  -4.79390
gfz2014hzze  -0.69003
gfz2014iani   0.45490
gfz2014iava   0.33011
gfz2014icqt  -0.01955
gfz2014ieam   0.20265
gfz2014ifue   0.78008
gfz2014igsj   0.05533
gfz2014ikun  -0.45102
gfz2014inbj   0.89314
gfz2014iobd   0.74927
gfz2014irci  -0.02099
gfz2014itbe  -0.08220
gfz2014itgh   0.74171
gfz2014itjx  -0.46857
gfz2014itkw   0.97055
gfz2014itpj  -3.15590
gfz2014iuhq   0.64920
gfz2014jagg   0.53106
gfz2014jass  -0.36837
gfz2014jatq  -0.09161
gfz2014jbyg  -1.08430
gfz2014jcjt   0.24530
gfz2014jcmt  -0.68737
gfz2014jdoy  -0.18542
gfz2014jesb  -0.07815
gfz2014jfis  -0.59875
gfz2014jggm   0.97534
gfz2014jhra   1.19050
gfz2014jipr  -0.10554
gfz2014jjhc   0.30098
gfz2014jjln   1.18500
gfz2014jjqk   0.31173
gfz2014jkxe   0.92669
gfz2014jlwb   0.31178
gfz2014jmnk   3.47620
gfz2014jnxm  -0.02067
gfz2014jnyv  -1.70770
gfz2014jomw  -0.11654
gfz2014jpep  -0.74058
gfz2014jpxs  -1.03530
gfz2014jtcz   1.93910
gfz2014jtfe   0.37483
gfz2014jvow   0.69803
gfz2014jwmh   0.40449
gfz2014kara  -1.30400
gfz2014kbwm  -0.34126
gfz2014khan   0.39264
gfz2014khlk   1.02510
gfz2014kitm  -0.14178
gfz2014kizt   0.42980
gfz2014kjjq   0.47073
gfz2014kjzb  -1.21280
gfz2014kkhh   1.22160
gfz2014kmmt  -0.75323
gfz2014kndc  -2.38440
gfz2014knxs  -0.56797
gfz2014krlg   0.30407
gfz2014ksdv  -0.09134
gfz2014ksmz  -0.98781
gfz2014kwrg  -0.03025
gfz2014kwwg  -0.02322
gfz2014kyan  -0.04814
gfz2014kytf  -0.17398
gfz2014lbcq  -0.15718
gfz2014lbxn  -0.03495
gfz2014lddn   0.83709
gfz2014ldhu  -0.04405
gfz2014lgqn  -0.46116
gfz2014lhqn  -0.39702
gfz2014lnmw   0.29462
gfz2014lnqy   0.35753
gfz2014lpim  -2.15270
gfz2014lrzx   0.70450
gfz2014lurd  -0.37042
gfz2014lxnc   0.14785
gfz2014lxqr  -0.60720
gfz2014lyhk   0.61803
gfz2014lyhp  -0.01694
gfz2014lzal  -0.76781
gfz2014macx   0.85688
gfz2014madw   0.15524
gfz2014mlqw   1.62690
gfz2014mtum  -0.11086
gfz2014mwor   1.03370
gfz2014mxkr   0.56656
gfz2014myqz   0.09146
gfz2014navw   1.14010
gfz2014ndue   0.83676
gfz2014ngnd  -0.28895
gfz2014ngsk   0.70532
gfz2014ngvt   0.22202
gfz2014niqj  -0.38368
gfz2014nkdx  -0.52289
gfz2014nnxd  -0.11305
gfz2014nowp   1.18670
gfz2014npdk   0.33664
gfz2014nphm   0.74833
gfz2014nqfm   0.30315
gfz2014nrie  -0.71753
gfz2014ntdh   0.07714
gfz2014obxm  -0.22856
gfz2014odgv   0.33502
gfz2014oinz  -0.23232
gfz2014okec   0.59324
gfz2014okjw  -0.15749
gfz2014okxu   0.20244
gfz2014omyn  -0.09487
gfz2014opqr  -1.29840
gfz2014orgz   0.51105
gfz2014orxs   0.49884
gfz2014osvz  -0.31094
gfz2014owii  -0.48724
gfz2014owur   0.01311
gfz2014pghi   0.17619
gfz2014pjer   0.44187
gfz2014pjum   0.44895
gfz2014pkll  -0.15525
gfz2014ppyi  -0.27406
gfz2014ppzf  -0.38885
gfz2014pqqp   0.31613
gfz2014pqrc   0.00000
gfz2014pvch  -0.18167
gfz2014pxbu   0.83599
gfz2014pzni   0.10173
gfz2014qbzi   0.17013
gfz2014qfzq   1.84670
gfz2014qjfl   0.38662
gfz2014qlvc  -0.07383
gfz2014qlxd   0.21779
gfz2014qngj  -1.46630
gfz2014qqfg   0.15259
gfz2014qqhm  -0.47134
gfz2014raau  -4.33180
gfz2014rbpx   0.50863
gfz2014rbsl   0.33794
gfz2014rdoz   0.48124
gfz2014rdsn  -0.34081
gfz2014rghp  -1.75950
gfz2014rhnz   0.47981
gfz2014rhwq   5.26190
gfz2014riel   0.39059
gfz2014royq   1.71280
gfz2014rtcu   0.25702
gfz2014rucz   0.34305
gfz2014ryfb  -0.86341
gfz2014shid   0.59295
gfz2014sjqw   0.11362
gfz2014sptq  -1.78690
gfz2014sryn  -3.28190
gfz2014ssmv  -0.22546
gfz2014ssvz  -0.93137
gfz2014szzf  -0.67644
gfz2014tabg  -1.04670
gfz2014tgcw   0.64074
gfz2014tovs  -1.08230
gfz2014tqdo  -0.36785
gfz2014tqsf   0.24736
gfz2014tqth   1.71470
gfz2014tute   0.77195
gfz2014tzsd   0.14906
gfz2014ubwn  -0.59888
gfz2014udgg  -0.20799
gfz2014uohh   0.69056
gfz2014utac  -0.29906
gfz2014uuqa  -0.27796
gfz2014uuuf   0.08317
gfz2014uvji   0.07216
gfz2014uvrk  -4.47150
gfz2014uxyg   2.06060
gfz2014uyrq   0.17117
gfz2014vcev   0.35601
gfz2014vdnh  -0.25078
gfz2014veit  -0.14519
gfz2014vhms  -0.16507
gfz2014vhuy   0.57852
gfz2014vjoz  -1.01280
gfz2014vnxu   0.16394
gfz2014vpus   0.33112
gfz2014vqqa   0.00000
gfz2014waoo   0.30842
gfz2014watn  -0.59552
gfz2014wjko  -0.22862
gfz2014wmsc   1.44150
gfz2014wqcp   1.15980
gfz2014wwib   0.43821
gfz2014xaxx   0.56680
gfz2014xbyr  -0.07152
gfz2014xhkc   0.33947
gfz2014xkdg  -0.23228
gfz2014xoji   0.65431
gfz2014xqby  -0.35712
gfz2014xqqd  -1.36190
gfz2014yazi  -0.42676
gfz2014yhhm   0.26950
gfz2014ynzy  -0.07955
gfz2014yrug  -0.03992
gfz2014yula  -0.71072
gfz2014yyiy   0.57876
gfz2014zplq  -0.95693
gfz2015aide  -0.06681
gfz2015alzx   0.05680
gfz2015ansu   0.02401
gfz2015apnk   0.63324
gfz2015aqav  -0.07508
gfz2015aqbq  -0.13435
gfz2015arpd  -0.22629
gfz2015aruz   0.28689
gfz2015atxv   0.02319
gfz2015aush  -0.07684
gfz2015azzp   0.62049
gfz2015bavu  -2.14180
gfz2015bdyd   0.18809
gfz2015berb  -0.94700
gfz2015bfjm  -0.43373
gfz2015bkbj  -2.00530
gfz2015bnho   0.41225
gfz2015bohx   2.03380
gfz2015bphe  -0.25920
gfz2015bsnl   0.61057
gfz2015bucr  -0.65940
gfz2015bvxx  -0.51403
gfz2015bzej   0.01859
gfz2015cewd  -0.31213
gfz2015chhn  -1.46530
gfz2015chqn  -2.15600
gfz2015clrp  -2.43070
gfz2015cpuo  -0.39258
gfz2015cxhx   0.39326
gfz2015cxxk  -0.09442
gfz2015cyjd   0.29919
gfz2015dizn  -1.07620
gfz2015djts  -0.66156
gfz2015ecgq  -0.05786
gfz2015eeyq  -0.38881
gfz2015egbk  -0.88882
gfz2015ehpz   1.44410
gfz2015eiky  -0.49602
gfz2015elgy  -0.76909
gfz2015eljz  -0.86458
gfz2015emcg  -0.27608
gfz2015emin   0.38708
gfz2015emtg  -0.98283
gfz2015enth   0.86602
gfz2015esrj   0.97148
gfz2015etai   0.19697
gfz2015evpl   0.15593
gfz2015eyqs   0.46774
gfz2015fbbk  -0.38720
gfz2015fbew   1.93740
gfz2015fcua  -0.17561
gfz2015fdpr  -0.14076
gfz2015fjhk  -0.91684
gfz2015fkgt   0.44849
gfz2015fkic   0.55892
gfz2015fkjs   0.66394
gfz2015fkkd  -0.00000
gfz2015fkuu   0.33362
gfz2015flis  -0.57558
gfz2015fpez  -0.36850
gfz2015fsjj  -0.37474
gfz2015fvoi   0.61366
gfz2015fwkq   0.30368
gfz2015fwnf  -1.54340
gfz2015fxbv   0.49111
gfz2015fyvk  -0.07734
gfz2015gckd   0.22870
gfz2015ggjw   0.21774
gfz2015gjbr  -0.55843
gfz2015gmgf   0.84330
gfz2015gnmy   0.18113
gfz2015guhd   1.00770
gfz2015gwao   1.81540
gfz2015gzja   1.40430
gfz2015hlfq  -0.14729
gfz2015hpmk   0.84235
gfz2015hvgs   0.47047
gfz2015hwkv  -0.05438
gfz2015idho   2.02460
gfz2015igsy   2.72470
gfz2015ijmh   1.32770
gfz2015imty   0.17309
gfz2015ixyy   1.42920
gfz2015jkdw   4.12140
gfz2015jwgl  -0.50639
gfz2015jxjd  -0.15707
gfz2015jzcv   0.39070
gfz2015kakw  -0.07520
gfz2015kcaa   0.11130
gfz2015kfsu   0.53074
gfz2015kkqb  -0.71343
gfz2015kkth   1.08360
gfz2015kphk   0.35528
gfz2015kquq  -0.45244
gfz2015ksni  -0.53185
gfz2015kxxs  -0.31192
gfz2015lcma  -0.67087
gfz2015lfma   0.39724
gfz2015lfos   0.86807
gfz2015lfud   0.17951
gfz2015lhjq  -0.15989
gfz2015lhjy   0.29406
gfz2015ltii   0.33158
gfz2015ltro  -2.57980
gfz2015lytv  -0.04085
gfz2015lzad   0.59975
gfz2015mddr   0.53823
gfz2015mhym  -0.73380
gfz2015micz   0.10250
gfz2015mpte  -0.39812
gfz2015mvzk   0.31741
gfz2015nbdc   0.53174
gfz2015nerz   1.69780
gfz2015nqgf   1.62190
gfz2015nuxz  -1.32870
gfz2015nwug  -0.28260
gfz2015ocdz   0.39953
gfz2015okmq  -0.20415
gfz2015opjp  -0.70233
gfz2015orkl   0.21940
gfz2015othd   0.19971
gfz2015oyfl  -0.24814
gfz2015pcvt  -0.64375
gfz2015pdri   0.62516
gfz2015pjgr  -0.01006
gfz2015poni   0.97433
gfz2015puah   0.06339
gfz2015puqp  -0.10821
gfz2015puuu   0.03200
gfz2015qbme   1.37480
gfz2015qiit  -0.08933
gfz2015qnho   1.46490
gfz2015qnlv   0.12318
gfz2015qpvd   0.13791
gfz2015quzo  -0.02343
gfz2015qvxu   0.03650
gfz2015rddx  -0.04612
gfz2015rgrg   0.90472
gfz2015rgst  -0.18822
gfz2015rkbq  -0.25082
gfz2015rkrg   0.54950
gfz2015rkzg   0.18177
gfz2015rnis  -0.33407
gfz2015roac  -0.32587
gfz2015rpzn  -3.41210
gfz2015rwsb  -0.95104
gfz2015rxmg   0.52002
gfz2015saet   3.14130
gfz2015sdeo   0.46751
gfz2015sdfy   1.06060
gfz2015seuf   0.35185
gfz2015sevh   1.04770
gfz2015sfdd   0.07972
gfz2015sfln   0.32563
gfz2015sfmd   1.66250
gfz2015sfqo  -0.28310
gfz2015sfrv   0.19764
gfz2015sftu  -1.38860
gfz2015sfuz  -0.42111
gfz2015sfwf   0.05675
gfz2015sfzm   1.15300
gfz2015sgad  -0.20661
gfz2015sgdj   0.24331
gfz2015sgdn  -0.28280
gfz2015sggc   0.34719
gfz2015sghq  -0.82841
gfz2015sgoa   0.20575
gfz2015sgpu  -1.03190
gfz2015shlp   0.10646
gfz2015shov   0.11703
gfz2015shrg   0.44606
gfz2015shsz   0.56039
gfz2015sicf  -0.09513
gfz2015siem   0.28378
gfz2015siky  -0.31712
gfz2015sing   0.92422
gfz2015siof   0.18380
gfz2015sitn  -0.08842
gfz2015siyy  -0.75417
gfz2015sjbx   0.47937
gfz2015sjeq   0.30922
gfz2015sjgk  -1.66960
gfz2015sjjb  -2.62490
gfz2015sjne  -0.58663
gfz2015sjtz   0.13432
gfz2015skab   0.78143
gfz2015skgj  -1.10720
gfz2015skhf  -2.13930
gfz2015sklu  -0.06266
gfz2015skpv   0.79330
gfz2015skuk   0.36327
gfz2015sldx   0.20706
gfz2015sljs  -0.02971
gfz2015smym  -0.05955
gfz2015snhn   0.37852
gfz2015snmg   0.05886
gfz2015snmr  -0.67022
gfz2015snsf   0.08917
gfz2015snwh  -0.38353
gfz2015snyd   0.07701
gfz2015soat   0.02584
gfz2015sowu   0.16174
gfz2015soxc   0.66220
gfz2015sozw   1.19780
gfz2015spal  -0.01776
gfz2015spxh  -0.41686
gfz2015sqbg  -1.93250
gfz2015sqyh   0.18312
gfz2015srat  -0.64879
gfz2015sryk   0.36300
gfz2015ssaf   1.60750
gfz2015ssoe   0.20354
gfz2015sspn   0.67875
gfz2015ssrl   0.16792
gfz2015stas   0.95399
gfz2015stso  -0.39596
gfz2015subg  -0.39030
gfz2015subz  -0.47339
gfz2015sudm  -0.65445
gfz2015sunp   0.62228
gfz2015susq   0.31043
gfz2015svjy  -1.06280
gfz2015svwm  -0.52173
gfz2015swgn  -0.75759
gfz2015swjx   0.12551
gfz2015swnc   0.17465
gfz2015szcb  -0.02315
gfz2015taml   0.64889
gfz2015tbdn  -1.41840
gfz2015tbje   0.26119
gfz2015tcem  -0.13058
gfz2015tdcu   0.35086
gfz2015teyc  -0.04228
gfz2015tezd  -0.72827
gfz2015tghj   1.75030
gfz2015thfd   0.34233
gfz2015thfm   0.82108
gfz2015thgc   0.70067
gfz2015thgp  -1.02130
gfz2015thtd   0.60014
gfz2015thwg   0.23619
gfz2015thwp  -0.06162
gfz2015tixi  -0.00000
gfz2015tiyc  -0.76372
gfz2015tjys   0.42754
gfz2015tkol  -0.33559
gfz2015tlba   0.31099
gfz2015tlkf  -0.05598
gfz2015tlok  -1.08760
gfz2015tnjd  -0.48909
gfz2015tohm   0.22642
gfz2015tpra   0.13500
gfz2015tqff  -0.19205
gfz2015tqjf   0.35330
gfz2015truf   0.43894
gfz2015tsdm   0.20902
