# Nsamples: 44  MAD:  0.687  mean:  0.004  variance:  0.898
gfz2011aatr  -0.52716
gfz2011enva   0.44532
gfz2011fnsw   0.37695
gfz2011lcxq  -0.94957
gfz2011lzwj   1.16390
gfz2011owvz   0.15122
gfz2011rewa   0.03710
gfz2011toub  -0.47194
gfz2011wxfs  -0.23486
gfz2012bpkx  -0.00000
gfz2012fzfa   2.23670
gfz2012hnul  -0.93826
gfz2012kkup   0.31813
gfz2012kudo  -0.09232
gfz2013ldqb   1.84330
gfz2013nkgj  -0.67279
gfz2013nwdi  -0.43184
gfz2013svci  -0.31560
gfz2013vjjc   2.36120
gfz2013xgmp   1.65080
gfz2013xvxf  -2.26880
gfz2014fgvi  -0.43481
gfz2014fhla   0.28156
gfz2014gkgf   0.34814
gfz2014gmhr  -0.33606
gfz2014hgqo  -0.24640
gfz2014jjhc  -0.96166
gfz2014nqfm   0.15491
gfz2014pvch  -0.41560
gfz2015chhn   0.01337
gfz2015cyjd  -0.44816
gfz2015fcua  -0.29462
gfz2015fkgt   1.47140
gfz2015lhjy  -0.67492
gfz2015lytv  -1.32300
gfz2015sfdd   0.18993
gfz2015sfdy   0.28190
gfz2015sfno  -1.20440
gfz2015sicu  -0.97055
gfz2015smym  -1.09750
gfz2015snwh   0.83687
gfz2015snyd  -0.26101
gfz2015svwm   0.23471
gfz2015taml   1.36490
