# Nsamples: 1000  MAD:  0.863  mean:  0.043  variance:  4.433
gfz2010aban  -2.58570
gfz2010aerk  -1.37010
gfz2010ahla   2.81250
gfz2010ahqi   0.23350
gfz2010aphp  -1.14650
gfz2010aykj  -0.04222
gfz2010bedu  -0.44953
gfz2010bfzs   0.85215
gfz2010bgth   1.50340
gfz2010bhhq   5.88810
gfz2010bifb  -0.18895
gfz2010bjeb   0.88320
gfz2010bjjx   0.07674
gfz2010bjsl   0.19849
gfz2010bkob   0.31353
gfz2010bkos   0.08400
gfz2010boxo  -4.54330
gfz2010bxxs  -1.30300
gfz2010caft  -0.62996
gfz2010cbkg  -0.52779
gfz2010cdbt  -0.25487
gfz2010chnv  -4.43170
gfz2010cind  -0.52049
gfz2010civi   0.39814
gfz2010cjqh   4.47490
gfz2010cjrf  -1.42830
gfz2010ckeu   0.34522
gfz2010ckzm  -1.01500
gfz2010cptb  -0.37373
gfz2010cqwl  -0.40161
gfz2010cres  -0.25398
gfz2010ctuw   4.04920
gfz2010czps   1.88300
gfz2010dfru   0.21574
gfz2010diqn   0.56752
gfz2010dlgc  -1.22050
gfz2010dlwv  -0.03606
gfz2010esmg   0.54492
gfz2010etfw  -1.24060
gfz2010euae  -0.62566
gfz2010euan   0.05602
gfz2010euii   0.11787
gfz2010eujm   0.23408
gfz2010euvl   2.67100
gfz2010euxe   0.04794
gfz2010evco  -0.11379
gfz2010evgf   0.91266
gfz2010evjv   0.70207
gfz2010evkd   1.43690
gfz2010ewpq  -0.96355
gfz2010ewvc   0.71752
gfz2010ewyu  -2.14660
gfz2010excp   0.02877
gfz2010exdl   0.26342
gfz2010exed   0.44641
gfz2010exel  -0.27762
gfz2010exgb  -0.26211
gfz2010exhd   2.09770
gfz2010exhw   1.28970
gfz2010exlm   0.68458
gfz2010exmc   0.13218
gfz2010exno   0.32743
gfz2010exsg   1.52150
gfz2010exyp   0.36595
gfz2010eyaz   0.12148
gfz2010eybj  -1.63330
gfz2010eyhh  -0.63531
gfz2010eyiv  -0.20600
gfz2010eymx   1.74180
gfz2010eyqe   0.42880
gfz2010eyxe   1.00200
gfz2010ezck   0.69421
gfz2010ezig  -0.20559
gfz2010ezjk  -2.31270
gfz2010ezuj   0.96387
gfz2010ezvg   0.38779
gfz2010ezwz   1.02120
gfz2010ezxd   0.94779
gfz2010faeu  -1.68950
gfz2010falm   0.03594
gfz2010fauz  -0.75412
gfz2010faxg  -0.02116
gfz2010fbeu   1.19320
gfz2010fbpi  -0.98722
gfz2010fcax  -0.78063
gfz2010fciw   0.02908
gfz2010fcnn   1.90680
gfz2010fcnt  -0.13538
gfz2010fcxy   0.19484
gfz2010fcyj   0.56205
gfz2010fczt  -0.39639
gfz2010fdab   0.45475
gfz2010fdxr  -0.56957
gfz2010fedq   2.12990
gfz2010fefr   2.11720
gfz2010ffhq   2.03550
gfz2010ffjb   0.84667
gfz2010ffui   0.10748
gfz2010fhbl  -0.30476
gfz2010figq   0.41461
gfz2010fihj   3.21260
gfz2010fika   0.53380
gfz2010fisf   0.38819
gfz2010fjal  -1.78390
gfz2010fjas   1.58340
gfz2010fjni  -1.96420
gfz2010fkhd   3.41290
gfz2010fkia  -1.67960
gfz2010fknh  -0.50645
gfz2010fkvg  -0.53525
gfz2010floi   1.22060
gfz2010flrt  -0.07379
gfz2010flxi   0.22769
gfz2010fmhb  -1.75210
gfz2010fmip  -0.71189
gfz2010fmwb  -0.49241
gfz2010fneu  -0.48141
gfz2010fobc   0.19960
gfz2010fona   0.10457
gfz2010fpmv  -0.93769
gfz2010fpqy   0.12083
gfz2010fqdu   1.09880
gfz2010fqtj   1.22420
gfz2010fser   0.71520
gfz2010fsth  -0.69364
gfz2010ftlm   0.98167
gfz2010ftsx  -0.58656
gfz2010fupn   0.48223
gfz2010fuuy   1.56470
gfz2010fvuc  -0.55454
gfz2010fwkk   0.35655
gfz2010fwlb   0.33412
gfz2010fwny  -0.29883
gfz2010fwpv   2.08590
gfz2010fwzd  -1.25630
gfz2010fyed  -0.70948
gfz2010fyen   0.64729
gfz2010fync   0.01194
gfz2010fzsg   3.23420
gfz2010fzyt  -1.84710
gfz2010gcdn  -0.91989
gfz2010gcrl   0.47905
gfz2010gcrp   0.97945
gfz2010gdch   0.45480
gfz2010gdld   0.73787
gfz2010ghyk  -0.41948
gfz2010ginm   0.34335
gfz2010gjvo   1.27200
gfz2010glqr  -0.15399
gfz2010glxl   0.84873
gfz2010gmib  -0.59694
gfz2010govu  -0.19641
gfz2010grjd  -4.39270
gfz2010grss  -1.58220
gfz2010gslu  -0.13746
gfz2010gtzt  -1.07040
gfz2010gvya  -0.09020
gfz2010gymo  -2.11820
gfz2010gyqp  -0.62606
gfz2010gzxr  -1.44150
gfz2010hakh   0.11564
gfz2010hbka   1.11050
gfz2010hcio   1.10340
gfz2010hevz   0.81335
gfz2010hhls  -0.51031
gfz2010hjoc  -1.16830
gfz2010hlco  -0.41705
gfz2010hllj  -1.19630
gfz2010hlmq   0.09459
gfz2010hlvr  -0.58763
gfz2010hndk   0.89662
gfz2010hnnf  -0.33012
gfz2010hnpi  -1.23090
gfz2010hnzr  -1.60770
gfz2010homc   3.08040
gfz2010hptz   0.54857
gfz2010hrkr   2.40860
gfz2010hrpr   2.18730
gfz2010htdq   1.24430
gfz2010hufk   2.69810
gfz2010hxgv   1.82860
gfz2010hzar  -0.09730
gfz2010iauj  -0.31925
gfz2010ibiy  -1.14430
gfz2010icqq   0.89355
gfz2010iefy   1.02740
gfz2010ihrq  -0.58094
gfz2010iibf  -1.41600
gfz2010iimu  -0.15936
gfz2010imfv   0.69978
gfz2010iobp   1.64410
gfz2010iphd   0.63009
gfz2010ipsg  -0.21567
gfz2010iqep   0.64663
gfz2010iqnm  -0.21821
gfz2010iqus  -3.90500
gfz2010irqr  -1.43070
gfz2010irvf  -0.00000
gfz2010isrp   1.06510
gfz2010itpb   0.70916
gfz2010iull  -2.17290
gfz2010ixyc   4.40810
gfz2010jagd   0.11641
gfz2010jant  -0.29425
gfz2010jatq  -1.07140
gfz2010jhie   0.22032
gfz2010jipf   0.04307
gfz2010jitt  -1.95550
gfz2010jlhj  -0.43201
gfz2010jpyj   0.45297
gfz2010jssh   0.42675
gfz2010jsuh   2.25330
gfz2010jsuo   1.15720
gfz2010jtal   0.69870
gfz2010jucj   0.22488
gfz2010jwpy  -0.04605
gfz2010jxbm  -0.03053
gfz2010jygz   1.25750
gfz2010jzku  -0.57317
gfz2010kcoo  -0.11636
gfz2010kdyc   0.38645
gfz2010kgws   0.56207
gfz2010kihf   2.28810
gfz2010kown  -0.52732
gfz2010kqyh   1.07680
gfz2010kyvj   0.02130
gfz2010lcoq   0.59391
gfz2010lgwy  -0.43753
gfz2010liqs   0.17411
gfz2010lkcf  -1.86330
gfz2010lluj   1.55510
gfz2010lopz  -0.44659
gfz2010lrlk   0.60042
gfz2010lruw   0.51889
gfz2010lwuq   1.25420
gfz2010lyfk   0.37836
gfz2010mant  -0.19421
gfz2010mbje  -0.08545
gfz2010mcrx   0.06735
gfz2010mdpq  -0.34128
gfz2010mfpt  -0.37833
gfz2010mgss   0.81758
gfz2010mipi   0.21368
gfz2010miqn   0.70987
gfz2010mkuu  -3.06220
gfz2010mlta   0.68096
gfz2010mncc  -0.53024
gfz2010mnhm  -0.16604
gfz2010moyw   0.07064
gfz2010mpuy   0.44273
gfz2010msjj  -1.09910
gfz2010mtab  -0.18159
gfz2010muca  -0.81552
gfz2010mwdq  -0.63029
gfz2010ncrl   0.48045
gfz2010nfsj  -0.04981
gfz2010nmpc  -1.12130
gfz2010nnny  -1.30380
gfz2010nqwf   1.06980
gfz2010nqwo   1.36280
gfz2010nrew   0.90227
gfz2010nrjo   0.38660
gfz2010nsck   0.72944
gfz2010nsdf   0.12258
gfz2010nsfx  -1.46700
gfz2010nsjs   0.00000
gfz2010ntuo   0.13502
gfz2010nubk  -1.30120
gfz2010nwef   0.10663
gfz2010nxum  -0.94792
gfz2010ocxq   0.04823
gfz2010odpb   0.56608
gfz2010oedn   0.40818
gfz2010okdm   0.59644
gfz2010oluw  -0.09414
gfz2010omla   0.42552
gfz2010onma  -0.97719
gfz2010osjs   1.88560
gfz2010osqo  -0.34176
gfz2010oyqy   1.84900
gfz2010pcxi  -0.01731
gfz2010pdtk  -0.61421
gfz2010pewa  -0.67116
gfz2010pewx  -0.16548
gfz2010pexf   0.05020
gfz2010pfyu   3.00950
gfz2010phvg   0.58345
gfz2010plbg   0.90878
gfz2010pmqd   2.54130
gfz2010pqck   0.80258
gfz2010pxak   3.52620
gfz2010pxgh   1.43400
gfz2010pxls  -0.37750
gfz2010qbng   6.41360
gfz2010qitd  -0.06873
gfz2010qjst   0.32081
gfz2010qkat  -0.81493
gfz2010qpcq   5.86830
gfz2010qpum  -0.24951
gfz2010qpvi  -0.70326
gfz2010qwwx  -0.96451
gfz2010rhas  -0.20740
gfz2010rkfp  -0.39303
gfz2010rlbv  -1.16260
gfz2010rqwj  -0.84869
gfz2010rxjw  -7.07830
gfz2010rywq   0.40376
gfz2010rzrr   0.59154
gfz2010sfee   1.01390
gfz2010sfla  -0.05673
gfz2010sgzk   0.29318
gfz2010skqo   0.16845
gfz2010skve  -0.60210
gfz2010srdb  -0.43527
gfz2010svtn  -0.40861
gfz2010svve  -0.12508
gfz2010swcy  -1.36380
gfz2010sxwt  -0.11077
gfz2010sysw   2.47130
gfz2010szim  -0.01966
gfz2010tcbr  -1.53270
gfz2010tcrl  -1.87150
gfz2010tlfm  -0.12621
gfz2010truw   0.23698
gfz2010txjs   0.94385
gfz2010tzzk   0.40460
gfz2010uouo  -0.01298
gfz2010upfb   2.69580
gfz2010upiw   0.35302
gfz2010usho  -1.49450
gfz2010ustq  -1.29620
gfz2010utcg   0.98151
gfz2010utmc  -0.46646
gfz2010utvp   0.02544
gfz2010uvhf   0.65912
gfz2010uyhb  -0.22783
gfz2010uzon  -0.16813
gfz2010vbmd   4.46810
gfz2010veri   1.80410
gfz2010vhuj  -0.88946
gfz2010vjcb   0.37865
gfz2010vppc   0.22957
gfz2010vxvs  -0.03319
gfz2010vzpr  -0.46099
gfz2010wioh  -0.28335
gfz2010wnty   2.52850
gfz2010wofs   3.72680
gfz2010wrxx  -0.52225
gfz2010xbcr   0.66688
gfz2010xbdv  -16.59500
gfz2010xbgs  -0.40735
gfz2010xcdh   0.02826
gfz2010xden  -0.23495
gfz2010xgfc  -0.90681
gfz2010xgzw  -0.72895
gfz2010xjck   0.76556
gfz2010xjsj  -0.21332
gfz2010xmpr   0.04456
gfz2010xnxk  -0.65032
gfz2010xxdb   1.85080
gfz2010xxzn   0.04636
gfz2010yjev  -4.34040
gfz2010ymfy  -1.88010
gfz2010yosr  -1.00210
gfz2010yqwx   0.37056
gfz2010ysaj  -0.10158
gfz2010yzgq   1.27540
gfz2010zdpo   0.60337
gfz2010zeeh   0.68526
gfz2011aatr  -0.45542
gfz2011adjs   1.28970
gfz2011adne  -0.11189
gfz2011adpw  -1.37750
gfz2011adqk   0.73691
gfz2011aeay   1.49470
gfz2011ahfw  -0.21904
gfz2011aldv   0.47393
gfz2011alip  -0.09933
gfz2011alsa  -1.17640
gfz2011alwf  -2.60390
gfz2011anur  -0.68511
gfz2011aosc   0.29146
gfz2011aqxf  -0.34510
gfz2011asru  -2.22940
gfz2011aupi  -1.05130
gfz2011blsi  -0.81534
gfz2011bnsg   6.72390
gfz2011bswz  -0.14974
gfz2011ccpw   1.28200
gfz2011cfae   0.85977
gfz2011cndo  -0.06068
gfz2011cnho   0.08662
gfz2011coxh   0.22661
gfz2011crdy  -0.51399
gfz2011csju   3.88870
gfz2011ctbn   0.50423
gfz2011cvcg   0.99514
gfz2011cvfg  -0.21590
gfz2011cwgn  -0.84360
gfz2011cykd   0.44868
gfz2011cylz   0.26951
gfz2011cynl   0.45014
gfz2011cyre   1.42210
gfz2011cyuk   0.24574
gfz2011czwj  -1.81340
gfz2011dbev  -0.01423
gfz2011dbig  -0.26105
gfz2011dbli   0.48636
gfz2011dbon   0.49081
gfz2011dbwt  -0.25077
gfz2011dcqb   2.37230
gfz2011dcqf  -2.84350
gfz2011dddh  -1.21990
gfz2011deaf  -0.59305
gfz2011deja   0.91776
gfz2011dkyi   0.35105
gfz2011dllz  -0.42408
gfz2011dlyx  -0.91487
gfz2011dndz  -0.16632
gfz2011dpaa  -0.12990
gfz2011dpmx  -0.96388
gfz2011dpqx   0.51898
gfz2011dtpy  -0.11677
gfz2011duyr  -0.99478
gfz2011eayc  -0.42461
gfz2011ecaj   0.08933
gfz2011ecsc  -1.45160
gfz2011ecvr   1.14940
gfz2011edmm   0.00000
gfz2011eebc  -0.63167
gfz2011ehzq  -0.32254
gfz2011ejlp  -0.59091
gfz2011ekpr  -1.02930
gfz2011eltw  -0.33142
gfz2011enva  -4.44560
gfz2011eocc   0.08541
gfz2011etje  -0.65446
gfz2011fgvr  -3.43470
gfz2011fhag  -1.63650
gfz2011fhbm  -0.38524
gfz2011fhur   1.11600
gfz2011fkbn  -0.28888
gfz2011flgj  -0.55366
gfz2011fnsw  -0.02842
gfz2011gjlx   1.08410
gfz2011gkey  -1.23000
gfz2011gkzt  -0.20946
gfz2011gzbr   0.66228
gfz2011haid  -0.62162
gfz2011hbex  -0.23630
gfz2011hebt  -0.64476
gfz2011hfkj   0.72071
gfz2011hlsa   0.78289
gfz2011hpgx   0.13629
gfz2011hpqp  -0.12657
gfz2011hrhu  -0.83983
gfz2011hryk   0.46495
gfz2011hsfj  -0.88340
gfz2011hvbu  -0.41293
gfz2011icxe  -0.08970
gfz2011iwte   0.60962
gfz2011izqa  -0.10531
gfz2011jbbc   0.11794
gfz2011jmbn  -1.18900
gfz2011jnmi  -0.32613
gfz2011jplh  -0.15546
gfz2011jtlg  -0.24852
gfz2011juid   0.77346
gfz2011knbi   0.36862
gfz2011knoo   0.06446
gfz2011kqwo   0.25629
gfz2011kqyg  -1.06970
gfz2011ksiu   2.46050
gfz2011lgsg   1.33310
gfz2011lhls   2.34380
gfz2011lzwj  -0.72552
gfz2011mdie   0.15064
gfz2011mpme  -1.30370
gfz2011mprq   0.20023
gfz2011nauw   4.64240
gfz2011nmnq   0.11967
gfz2011nmqj   0.58529
gfz2011noud   1.98390
gfz2011nowp  -0.32723
gfz2011nqpd  -0.30538
gfz2011nrwc   2.23390
gfz2011nsex   5.12970
gfz2011ntkh  -0.12371
gfz2011nudm   0.16454
gfz2011ohcy   0.73321
gfz2011oiwk   1.03380
gfz2011olkk   0.54164
gfz2011oolr  -1.91180
gfz2011orgn   0.85258
gfz2011ornx   1.27610
gfz2011ozsl   0.90977
gfz2011pccd   0.72356
gfz2011phms  -0.68297
gfz2011pntf  -2.08090
gfz2011ptus   1.15480
gfz2011qigx  -0.91298
gfz2011qoif  -0.51461
gfz2011qvae   0.85083
gfz2011qyms  -0.16567
gfz2011rabm   0.29553
gfz2011rdby   1.51150
gfz2011rewa   0.72369
gfz2011rgwp   0.10624
gfz2011rsrh   0.24283
gfz2011runa   0.28372
gfz2011rznl   1.95260
gfz2011sagt   2.48000
gfz2011shqm   1.06100
gfz2011stal   1.03770
gfz2011syjd   0.05840
gfz2011taps   0.11056
gfz2011tbas   1.02910
gfz2011tcij   1.23600
gfz2011tivu   1.66580
gfz2011tjrf   1.47780
gfz2011tkog   1.82150
gfz2011toub   0.84380
gfz2011tpfr  -0.23020
gfz2011tsfd  11.07300
gfz2011twov   0.98495
gfz2011udsq  -3.87170
gfz2011ueni  -1.16150
gfz2011ugzz  -1.39310
gfz2011ujze  -0.41951
gfz2011ukmp  -0.18461
gfz2011unkx   0.93674
gfz2011uphh  -0.44893
gfz2011urzu   0.51916
gfz2011uzqv   0.23371
gfz2011vclt   1.04250
gfz2011vhfi   0.04636
gfz2011vkun   0.82335
gfz2011vldk   0.01806
gfz2011vnza  -1.49590
gfz2011vqnr  -0.26878
gfz2011vqrj   0.11330
gfz2011vrhg  -0.99990
gfz2011vxns  -0.07219
gfz2011vxod  -0.03179
gfz2011vxxg  -0.08466
gfz2011wcic  -0.06828
gfz2011wfja   0.81308
gfz2011wijj   0.35948
gfz2011wjkf  -0.06039
gfz2011wjul  -0.37273
gfz2011wtmq   0.96203
gfz2011wwjs   1.06410
gfz2011wxfs   0.83835
gfz2011wxoj   1.49740
gfz2011wxtk  -0.95170
gfz2011wype  -0.35306
gfz2011xaan   0.30992
gfz2011xcpv  -0.52376
gfz2011xesx  -0.96828
gfz2011xqru  -1.02420
gfz2011xyxj  -4.02950
gfz2011yfdx  -0.00000
gfz2011yfys  -0.93377
gfz2011yhwz   1.27140
gfz2011yybo   0.32230
gfz2011zklv  -0.06682
gfz2011zlfg  -0.41913
gfz2011zqhh  -0.46353
gfz2012ablh   0.73219
gfz2012ajtq  -0.01294
gfz2012aqgp   0.44656
gfz2012aqtq  -0.47699
gfz2012attr  -5.97040
gfz2012bfah   0.73782
gfz2012bfyn  -2.09620
gfz2012bpkx  -0.26000
gfz2012bpnl  -0.90174
gfz2012bpwl   0.35069
gfz2012bqeb   0.11977
gfz2012byad   0.10615
gfz2012cbed   0.08907
gfz2012cevz   0.23999
gfz2012cgvr  -1.69590
gfz2012cmfy  -0.72227
gfz2012covm  -0.59002
gfz2012cqnl  -0.12417
gfz2012cqtc  -1.02010
gfz2012cuct  -46.57300
gfz2012cxdn  -0.96220
gfz2012czlw  -0.06429
gfz2012dfhq  -0.09023
gfz2012dimn  -1.56370
gfz2012dinb  -0.60225
gfz2012divk   0.92254
gfz2012djwi   1.21850
gfz2012dyyh  -1.29580
gfz2012ekda  -0.82064
gfz2012ekzf  -1.62110
gfz2012elce  -1.44850
gfz2012emjg  -0.02133
gfz2012enno   0.72675
gfz2012eskt  -0.19003
gfz2012ewgo   1.04170
gfz2012eykb  -0.67861
gfz2012ezvr   0.18854
gfz2012fbfo  -0.17429
gfz2012fhnh   1.19680
gfz2012fivh  -1.21790
gfz2012foeo  -0.43836
gfz2012fqcg   0.80118
gfz2012fwfo   0.57920
gfz2012fwtr   1.33860
gfz2012fzfa   2.54770
gfz2012fzsq   0.21963
gfz2012gcgn  -0.56611
gfz2012gemm  -4.65600
gfz2012gill   0.39565
gfz2012gkvr  -0.20670
gfz2012glss  -0.12945
gfz2012gocc  -0.91784
gfz2012gomm   6.67810
gfz2012gwqb   1.56730
gfz2012hdbm   0.40475
gfz2012hnul  -0.19927
gfz2012hnuw   2.26820
gfz2012hogg   0.78512
gfz2012holl   0.36755
gfz2012hsex   0.26573
gfz2012hwmz  -1.23450
gfz2012ihdl   0.11722
gfz2012ilvn  -0.88072
gfz2012ilxh   0.53230
gfz2012imbd   0.38639
gfz2012intn   0.51702
gfz2012iyrb  -1.78190
gfz2012jgvj   0.12967
gfz2012jlox  -3.27670
gfz2012jpgs  -0.52017
gfz2012jqvn   0.00000
gfz2012jshk   0.37893
gfz2012jted   0.15391
gfz2012jupx  -0.57613
gfz2012jxiy  -0.70277
gfz2012kbjb  -0.27022
gfz2012kbzj  -0.51640
gfz2012kdmb  -0.44847
gfz2012keor   3.16770
gfz2012kiik   0.62505
gfz2012kkcp  -1.36660
gfz2012kkup  -0.26346
gfz2012klba  -1.17310
gfz2012klhx   0.32163
gfz2012kuct   0.67843
gfz2012kudo   0.17548
gfz2012kvzv   0.40152
gfz2012kwgo   4.55610
gfz2012lboz   0.70151
gfz2012lczo  -0.04324
gfz2012ldxg  -0.39226
gfz2012ledy   3.82990
gfz2012lezd  -0.12493
gfz2012lltr   1.74240
gfz2012lpvn   0.11822
gfz2012lxkv   2.40030
gfz2012lzgv  -0.06481
gfz2012lzmr  -0.16601
gfz2012mcze  -0.46707
gfz2012megc   0.05504
gfz2012mkpn  -0.32649
gfz2012mlyf   0.41267
gfz2012mofm   0.50265
gfz2012mpvy  -1.18890
gfz2012mpyl   0.10808
gfz2012mtiu  -0.39375
gfz2012mupa   0.61660
gfz2012mvwr   1.62960
gfz2012mwij  -5.56880
gfz2012myqa  -0.60197
gfz2012nben   0.07720
gfz2012ngic   0.06173
gfz2012nivl   0.51805
gfz2012njha  -0.36382
gfz2012nkdf   0.00000
gfz2012noei  -0.15419
gfz2012nqnk  -2.28590
gfz2012ntzv   2.78560
gfz2012nutf  -1.72690
gfz2012nxog  -0.48477
gfz2012nzpz   0.08532
gfz2012obgw   0.13269
gfz2012obnq   0.51555
gfz2012oedb  -0.45954
gfz2012omvo   0.09278
gfz2012oycg  -0.00000
gfz2012pcxi   1.81050
gfz2012peki   0.89679
gfz2012pgcl   0.33100
gfz2012pkel  -0.77417
gfz2012plbw  -0.24821
gfz2012pofl  -0.22591
gfz2012poju   1.18510
gfz2012pqlt  -0.03978
gfz2012pqmk   0.06157
gfz2012pqmu  -0.10106
gfz2012priv   0.54761
gfz2012pygp   0.62560
gfz2012qjhs  -1.13830
gfz2012qouy   1.92460
gfz2012qqqp   1.10290
gfz2012qqxg   0.81215
gfz2012qtgs   0.95208
gfz2012quso   0.14998
gfz2012qxcy   0.05432
gfz2012rats  -0.46299
gfz2012rboy  -0.07742
gfz2012rcbq  -0.31476
gfz2012rcds   1.44500
gfz2012rcnj  -1.91560
gfz2012rejq   0.12071
gfz2012repv   1.12300
gfz2012rjsd   0.41129
gfz2012royy   1.47400
gfz2012rtqi   1.55010
gfz2012rubi  -0.06174
gfz2012ruks   0.94752
gfz2012rwko   1.64090
gfz2012rwov   0.96662
gfz2012rwql  -1.31410
gfz2012rypu  -0.25834
gfz2012shtg   0.13243
gfz2012sjea   0.03680
gfz2012snhi   0.39052
gfz2012spbj  -0.31895
gfz2012thfx   0.44237
gfz2012tvmv   0.02045
gfz2012tzcc   0.16389
gfz2012tzgb  -0.45403
gfz2012uafg  -0.76005
gfz2012uaqj   0.79547
gfz2012uciv  -1.07900
gfz2012ueqo   0.36120
gfz2012ufew   1.21730
gfz2012uhup  -0.40621
gfz2012uoef   0.68527
gfz2012uqzp  -0.47901
gfz2012uvqf   0.55755
gfz2012uxnz  -1.21080
gfz2012uyie   1.01000
gfz2012uyxb   1.10320
gfz2012uzom   2.29610
gfz2012uzyj   0.03323
gfz2012vceo  -0.14710
gfz2012vdbt  -0.40219
gfz2012vjgl  -0.98733
gfz2012vmeh   1.17060
gfz2012vnbk   0.33731
gfz2012vsev  -0.83882
gfz2012vtxe   0.14625
gfz2012vwvd  -1.44510
gfz2012vxvr   0.16874
gfz2012wajj  -0.20280
gfz2012wecd   0.89875
gfz2012wizz   0.31013
gfz2012wklq  -0.98979
gfz2012wmkd  -0.70707
gfz2012wmsg  -1.07640
gfz2012wrir  -0.78590
gfz2012wtkr  -0.57128
gfz2012wvfl  -1.36000
gfz2012wxer  -0.75680
gfz2012wxlg  -0.10641
gfz2012wybs   0.34223
gfz2012wypz   0.55642
gfz2012xbjq  -0.62698
gfz2012xhci   0.42613
gfz2012xjyv   0.17758
gfz2012xkkv  -0.08597
gfz2012xslk   0.01824
gfz2012xwqa  -0.04448
gfz2012xyqp   4.21520
gfz2012xyua  -1.40640
gfz2012yldu  -0.74541
gfz2012yqjj   1.04670
gfz2012yxxu   0.76858
gfz2012zfag  -0.72567
gfz2012zitl  -1.35010
gfz2012zjpv   0.62487
gfz2012zklq   0.21483
gfz2012zmbp   0.24040
gfz2012zmln  -0.29721
gfz2013aahq  -0.59880
gfz2013aayj   0.73612
gfz2013acag  -0.59744
gfz2013adey  -1.03100
gfz2013aknp  -0.50665
gfz2013apmm  -0.99900
gfz2013axoj  -0.39216
gfz2013azzr  -2.70650
gfz2013bdpu  -7.51800
gfz2013biji   4.83470
gfz2013bobq   5.08010
gfz2013bouj   1.16860
gfz2013btjm  -0.24602
gfz2013casg  -1.04790
gfz2013cbsm   0.29042
gfz2013ccnr  -0.94908
gfz2013ccon  -0.23521
gfz2013cdan   0.05198
gfz2013cdfj  -0.02720
gfz2013cfyy  -0.18520
gfz2013cnhh  -1.05810
gfz2013cnve  -0.49430
gfz2013cnyj   0.24594
gfz2013cvad   0.11970
gfz2013cvqg   0.75893
gfz2013cwpn  -0.35910
gfz2013ddbh  -0.47447
gfz2013diuf   0.05020
gfz2013dkly   0.75987
gfz2013dkmz   0.49219
gfz2013dofo   0.34386
gfz2013drpk  -1.31810
gfz2013drxz   0.68216
gfz2013dvye   0.13000
gfz2013dyop   0.12849
gfz2013egni   1.62500
gfz2013egpu  -0.90114
gfz2013ekpm  -0.03815
gfz2013enbx  -1.51500
gfz2013esnh   7.60350
gfz2013eulz  -0.32255
gfz2013feep   0.76845
gfz2013figy  -0.79631
gfz2013fiud  -0.52752
gfz2013fkii  -0.28150
gfz2013flox  -0.97020
gfz2013fnzr  -0.15556
gfz2013fwxa  -1.32350
gfz2013fygc   2.45080
gfz2013gcfx   1.75680
gfz2013gdgf   0.92805
gfz2013gdnq  -0.57406
gfz2013glcr   1.82760
gfz2013gngz  -0.33037
gfz2013gock   0.01637
gfz2013gwrd   0.68448
gfz2013hfmp   0.61682
gfz2013hisv   0.56189
gfz2013hkja  -0.44188
gfz2013hklr  -0.43702
gfz2013hlbe  -0.20622
gfz2013hmbc  -1.92540
gfz2013iayx  -0.20314
gfz2013ifpq  -2.17780
gfz2013ijsr   0.71917
gfz2013ikgo  -0.68947
gfz2013ilug   0.01441
gfz2013ippu  -1.38910
gfz2013iqzq  -0.19664
gfz2013itsu   0.60670
gfz2013iunn   0.21901
gfz2013iyqz   0.07973
gfz2013jdrx  -0.15858
gfz2013jesk  -0.23710
gfz2013jgij  -0.90559
gfz2013jgip   0.58607
gfz2013jjsi   0.27416
gfz2013jkut  -0.60799
gfz2013jlst   0.51629
gfz2013jokw   1.97820
gfz2013jusj   1.97780
gfz2013jwcn   0.06234
gfz2013kdeo   2.71850
gfz2013kheb  -4.10600
gfz2013khli   0.23362
gfz2013kilx   0.00482
gfz2013kkzr   0.62452
gfz2013krei   0.62975
gfz2013kvtk   0.78201
gfz2013lajn   0.65623
gfz2013lbiu   0.12087
gfz2013ldqb  -0.72702
gfz2013lgbb  -0.49657
gfz2013lgnl   0.00353
gfz2013lgxc  -0.20925
gfz2013lixa  -0.33442
gfz2013lljw  -1.56560
gfz2013lmqe  -0.77593
gfz2013lmrs  -0.65514
gfz2013lupg  -1.78130
gfz2013lwbk  -1.55630
gfz2013lxyn  -0.07691
gfz2013lyko  -0.31078
gfz2013malg   0.39326
gfz2013mded  -0.63910
gfz2013mghe   1.04840
gfz2013mqmv   3.05200
gfz2013mtqd   0.24028
gfz2013mvgr   0.10218
gfz2013mzwe   0.72518
gfz2013nabl   0.92729
gfz2013nhjb   0.44715
gfz2013nlxz  -1.80160
gfz2013nmac   0.34603
gfz2013nppd   0.19891
gfz2013nqgw   0.39163
gfz2013nuor  -0.71850
gfz2013nuvi  -0.53946
gfz2013nvdj   4.54650
gfz2013nwdi  -2.50770
gfz2013ogde   0.85170
gfz2013orjg  -0.52415
gfz2013ornz   1.29740
gfz2013ozqm  -0.02544
gfz2013ozrf  -0.56223
gfz2013ozrp   0.60935
gfz2013pcos   0.11898
gfz2013pfbx   2.58770
gfz2013pfeb   0.29603
gfz2013phef   0.69166
gfz2013pkbs   0.08276
gfz2013pqui  -0.44929
gfz2013puag   0.56852
gfz2013pxsj   0.40210
gfz2013pxtx  -0.29804
gfz2013pxya   3.25980
gfz2013qfmm   0.97423
gfz2013qidm   0.62611
gfz2013qmer  -0.79902
gfz2013qvcr   0.06161
gfz2013qzdq  -0.80519
gfz2013rait   0.61384
gfz2013rdoo   0.04833
gfz2013reav   0.13833
gfz2013rjsx   0.58946
gfz2013rqmp  -0.68922
gfz2013rrza   0.62856
gfz2013rsnr  -1.51310
gfz2013rvsm  -0.06808
gfz2013rwfe   0.75235
gfz2013saez  -0.38158
gfz2013sart  -0.09872
gfz2013scai  -0.22865
gfz2013sdus  -0.01782
gfz2013sebq  -0.94671
gfz2013sfds   0.49309
gfz2013sfto  -0.37044
gfz2013shlq   1.53350
gfz2013shzy   0.59579
gfz2013sjhg  -0.34272
gfz2013skkm  -0.00647
gfz2013snyf   0.15273
gfz2013sred   0.59329
gfz2013stht   0.44642
gfz2013svci  -0.51121
gfz2013sxbw   0.76874
gfz2013syqk  -0.10582
gfz2013tbzy  -0.38060
gfz2013tcxc  -0.91837
gfz2013tcxq  -0.12967
gfz2013tdau   0.25057
gfz2013toea  -0.64250
gfz2013toxf   2.03420
gfz2013tqbb  -0.64209
gfz2013ttoz  -0.44920
gfz2013tusd  -1.15550
gfz2013tvmw  -0.62229
gfz2013twwf  -0.22823
gfz2013txev  -0.47916
gfz2013txtb   0.72279
gfz2013uqsp   0.16694
gfz2013uuzn   0.14567
gfz2013uxej  -1.27380
gfz2013vdic   0.06287
gfz2013vefs  -4.72870
gfz2013vfyw   0.27178
gfz2013vfzp   0.33559
gfz2013vgau   0.68492
gfz2013vgev  -0.45557
gfz2013vgpf   0.01540
gfz2013vgrk  -0.83599
gfz2013vhnk   0.74415
gfz2013vhzu   0.37982
gfz2013viul  -0.92635
gfz2013vjfe  -0.15544
gfz2013vjjc   0.24810
gfz2013vjod   0.54394
gfz2013vlth  -1.92570
gfz2013vmro   0.50624
gfz2014gxqu   1.56570
gfz2014hrft   0.75576
gfz2014hscz   0.20606
gfz2014hyal  -0.12686
gfz2014hzfw   0.53664
gfz2014hzze  -0.69824
gfz2014lefs   2.04150
gfz2014lkyf   1.79640
gfz2014lynp  -0.03770
gfz2014lzal   0.29287
gfz2014mden   2.42170
