# Nsamples: 404  MAD:  0.475  mean:  0.006  variance:  0.619
gfz2010ahqi  -0.14579
gfz2010bfzs  -0.10412
gfz2010bifb  -0.25079
gfz2010bjeb  -0.22234
gfz2010bowy   1.45810
gfz2010boxo   0.81613
gfz2010bxxs   0.07888
gfz2010caft  -0.03478
gfz2010cdbt   0.13280
gfz2010chnv   0.33379
gfz2010ckeu   0.36443
gfz2010ckzm   0.96728
gfz2010cqwl  -0.22037
gfz2010czps  -0.02431
gfz2010dlgc  -0.16051
gfz2010eaoy  -0.93572
gfz2010eaqe  -0.73761
gfz2010eaqy  -1.20000
gfz2010earu   0.63339
gfz2010eawb  -1.49330
gfz2010eawu   1.57500
gfz2010eazu   0.84199
gfz2010ebhc   0.03172
gfz2010ebnn  -1.53130
gfz2010ecua  -0.49058
gfz2010edyi   6.29070
gfz2010eevu  -0.91168
gfz2010eisx  -0.34484
gfz2010ekyc  -0.07177
gfz2010eltf   0.28646
gfz2010elyc   0.73883
gfz2010erkn  -0.43238
gfz2010eruy  -0.82697
gfz2010excp  -0.14567
gfz2010exdd   1.60040
gfz2010fpqy  -0.68043
gfz2010fqdu   3.66930
gfz2010ftlm   0.49773
gfz2010fync  -0.93650
gfz2010grjd  -0.50072
gfz2010gzxr  -0.71490
gfz2010homc  -0.42232
gfz2010hrkr  -0.47681
gfz2010hxhe   0.01335
gfz2010iciq  -0.41182
gfz2010iobp  -1.04250
gfz2010irvf  -0.08105
gfz2010jucj   0.25083
gfz2010lczp  -0.05371
gfz2010lluj  -0.45027
gfz2010mipi  -0.00000
gfz2010mkuu  -0.31945
gfz2010nlkh  -0.53180
gfz2010nnny   1.28830
gfz2010nqwo  -0.37381
gfz2010nwef  -0.18327
gfz2010onma  -0.20659
gfz2010pbdz   0.14510
gfz2010pcxi   0.07459
gfz2010qpcq  -0.40117
gfz2010rkfp  -0.32576
gfz2010rqwj   0.90072
gfz2010sxfq   0.02271
gfz2010sxwt   1.34210
gfz2010sysw  -0.11772
gfz2010upfb  -0.21825
gfz2010urlq  -0.01928
gfz2010usho  -0.34531
gfz2010ustq   0.00000
gfz2010vbmd   1.09500
gfz2010vppc  -0.05047
gfz2010vtdg  -0.63275
gfz2010wofs   1.53620
gfz2010xjsj   0.25819
gfz2010yosr  -0.31690
gfz2011aatr  -0.06017
gfz2011adjs  -1.04200
gfz2011bgrp   0.32668
gfz2011cfae  -0.14999
gfz2011cvcg  -0.48249
gfz2011dcqb  -0.25038
gfz2011dpqx  -0.90345
gfz2011enva  -0.12337
gfz2011fkbn  -0.26319
gfz2011flgj  -0.94782
gfz2011fnsw  -0.88887
gfz2011ggvf  -0.22142
gfz2011gjlx   0.13603
gfz2011gkzt  -0.25023
gfz2011hbex   0.12475
gfz2011hlqw  -0.24553
gfz2011hlsa  -0.61142
gfz2011hlth   0.26164
gfz2011izqa  -0.06221
gfz2011jplh   0.13970
gfz2011kxzp  -2.19760
gfz2011lcxq   0.27293
gfz2011lhls   0.43521
gfz2011lvjr   0.82033
gfz2011lzwj   0.13914
gfz2011mdie  -0.47171
gfz2011mjom  -0.79422
gfz2011nqpd  -0.32285
gfz2011nrwv  -0.82011
gfz2011ntkh   0.24350
gfz2011nudm  -1.51610
gfz2011oiqe   0.19381
gfz2011owvz   0.05068
gfz2011qoif   0.25664
gfz2011qvae   4.28300
gfz2011rewa  -0.48612
gfz2011rqui  -0.04840
gfz2011sawg  -0.18837
gfz2011tivu   0.19014
gfz2011tjue   0.01774
gfz2011toub   0.19216
gfz2011tpfr  -0.78809
gfz2011uepx   0.47579
gfz2011ujze  -0.01381
gfz2011uphh   0.19766
gfz2011urxy  -0.01371
gfz2011urzu  -0.04177
gfz2011vhfi   0.40612
gfz2011vrhg  -0.07388
gfz2011wvzb   0.41730
gfz2011wxfs   0.65500
gfz2011wxtk  -0.66770
gfz2011xyxj   0.91959
gfz2012bfah   0.22274
gfz2012bpkx  -1.05830
gfz2012bszs  -0.57959
gfz2012cgvr   0.41670
gfz2012czlw  -0.70896
gfz2012deri  -0.20213
gfz2012dyyh  -0.00000
gfz2012emjg   0.58151
gfz2012enno  -0.40032
gfz2012ezvr  -0.54887
gfz2012fzfa  -1.21670
gfz2012gill   0.37582
gfz2012gomm  -0.44615
gfz2012gwqb   0.24955
gfz2012hnul  -0.87172
gfz2012ilvn   1.56650
gfz2012jlox  -0.18395
gfz2012jupx   1.05130
gfz2012kkcp  -0.64853
gfz2012kkup  -0.49155
gfz2012klhx  -0.80117
gfz2012kuct   0.24187
gfz2012kudo  -0.04947
gfz2012ldxg   0.02311
gfz2012ldzj   0.04766
gfz2012llug   0.33866
gfz2012minr  -0.29183
gfz2012mupa  -0.30697
gfz2012nojx  -0.30208
gfz2012nqnk  -0.34883
gfz2012oazn  -0.02971
gfz2012oedb   0.27783
gfz2012omvo   1.20090
gfz2012ostk  -0.02530
gfz2012ronz  -0.23385
gfz2012royy   0.03758
gfz2012rqlg  -0.56905
gfz2012rwko  -0.24486
gfz2012rwov   0.82179
gfz2012sphd  -0.26198
gfz2012syvl   0.20973
gfz2012teic  -0.65866
gfz2012ttoa  -0.42833
gfz2012uafg  -0.45020
gfz2012uaqj  -0.16931
gfz2012uciv  -0.24442
gfz2012uqzp   1.71870
gfz2012vrgb   0.02539
gfz2012wklq   2.65560
gfz2012wxlg   1.97320
gfz2012wypz  -0.18117
gfz2012yxxu   0.18631
gfz2013aknp  -0.26923
gfz2013aqaw  -0.48857
gfz2013axoj   0.31486
gfz2013btjm   0.92488
gfz2013ccnr  -0.72641
gfz2013drpk  -0.33091
gfz2013drxz  -0.24750
gfz2013ifpq   0.11393
gfz2013iodt  -0.80238
gfz2013jgij   0.35847
gfz2013jkut   0.82292
gfz2013jwvc  -0.33306
gfz2013kdeo  -0.54011
gfz2013kweg   0.29366
gfz2013ldpc  -0.34332
gfz2013ldqb  -0.54129
gfz2013lixa  -0.19843
gfz2013lljw   0.03685
gfz2013mqmv  -0.33532
gfz2013mwbh  -0.29256
gfz2013nabl  -0.74290
gfz2013ncjp   0.46538
gfz2013ndin   0.09023
gfz2013nixj   0.64838
gfz2013nkgj  -0.29549
gfz2013nknw  -0.13508
gfz2013nqgw  -0.08305
gfz2013nwdi  -0.44446
gfz2013oifr   0.34698
gfz2013ojti   0.45846
gfz2013pfbx  -0.49900
gfz2013qmer  -0.43273
gfz2013sdus  -0.75760
gfz2013snbr  -0.39676
gfz2013suvn  -0.34187
gfz2013svci   0.19558
gfz2013tusd  -0.21551
gfz2013tvmw  -0.16772
gfz2013uauo  -0.68504
gfz2013vjjc  -0.59802
gfz2013vzbo   2.12200
gfz2013wtzl   0.00000
gfz2013xsdt  -0.31158
gfz2013ypdc  -0.33316
gfz2013yqkv   0.18777
gfz2013zmtb  -0.28613
gfz2014afmx  -0.37100
gfz2014ande  -0.61200
gfz2014arpf  -0.05613
gfz2014bhvd  -0.16979
gfz2014bldx  -0.71221
gfz2014bmta  -0.21129
gfz2014bwue   0.31686
gfz2014bzxy  -0.20157
gfz2014chdv   0.36824
gfz2014czqi   0.06330
gfz2014eqpl   0.76704
gfz2014fedd   0.08952
gfz2014fgvi   0.04279
gfz2014fgvz  -0.21432
gfz2014fgza   0.08038
gfz2014fhdw  -0.03921
gfz2014fhla  -0.47192
gfz2014fhlh   0.54025
gfz2014fhrq   0.13502
gfz2014fhwx  -0.04872
gfz2014fimn   0.33921
gfz2014fjzd  -1.46900
gfz2014fkmr   0.00345
gfz2014fnyg   0.06353
gfz2014fqpz  -0.18952
gfz2014frdz  -0.03530
gfz2014frez  -0.22790
gfz2014ftka  -0.32643
gfz2014ftpw   0.15580
gfz2014furx  -0.07227
gfz2014fusj   0.39055
gfz2014fval   0.68234
gfz2014fvgh  -0.26172
gfz2014fvrg  -0.13197
gfz2014fxpu   0.98158
gfz2014ghpe  -0.19781
gfz2014gkgf   0.09616
gfz2014gkgs   0.15443
gfz2014gkhp  -4.11860
gfz2014gkhy   0.02702
gfz2014gkjl   0.35872
gfz2014gkjt   0.30939
gfz2014gkob   0.12251
gfz2014gkqf   0.00494
gfz2014gkqu   0.25211
gfz2014gktq  -0.63143
gfz2014glcu   0.21246
gfz2014glcy  -1.66960
gfz2014gltx   0.11751
gfz2014glvu   0.05069
gfz2014gmge   0.46646
gfz2014gmhr  -0.68487
gfz2014gmnb  -0.39326
gfz2014gmnw   0.27904
gfz2014goba   0.87290
gfz2014goqw   0.37505
gfz2014gqer   1.61060
gfz2014gqve   0.35465
gfz2014gsqs   1.02710
gfz2014gull  -0.11182
gfz2014gulp   0.40194
gfz2014gvqj  -0.61462
gfz2014gwab   0.00000
gfz2014gxkh   1.65500
gfz2014gxxo   0.41495
gfz2014hagb   0.46169
gfz2014haos   0.19290
gfz2014hasj   0.05453
gfz2014hbqb   0.50494
gfz2014hfhl  -1.37840
gfz2014hgqo  -0.53162
gfz2014hhfs   0.94659
gfz2014hhwx   0.04824
gfz2014hocg  -0.31160
gfz2014hqxs  -0.21012
gfz2014huaj   0.10099
gfz2014hyvq  -0.08235
gfz2014imnn   0.47145
gfz2014irci   0.78267
gfz2014issk  -0.45628
gfz2014itkw   0.13014
gfz2014ixga   0.27802
gfz2014jcmt  -0.17019
gfz2014jfis   1.96790
gfz2014jjhc   0.61009
gfz2014jjln   0.63847
gfz2014jnyv  -0.33119
gfz2014jpep  -0.00000
gfz2014kbuk   0.92083
gfz2014kitm   0.20101
gfz2014kkhh   0.10892
gfz2014kndc  -0.43489
gfz2014knks   0.29965
gfz2014kwrg   0.15061
gfz2014kytf  -0.53172
gfz2014lgqn   0.26549
gfz2014lwom   0.51019
gfz2014lxnc   0.08218
gfz2014lyhk  -0.27499
gfz2014lyhp   0.39473
gfz2014macx   0.23885
gfz2014madw  -0.00297
gfz2014ncub  -0.44039
gfz2014niqj   0.20603
gfz2014npeo  -0.98674
gfz2014nqfm   0.03761
gfz2014nrie   0.81159
gfz2014oinz   0.13851
gfz2014owxc  -0.23717
gfz2014ppzf   0.02531
gfz2014pvch   0.03321
gfz2014pzni   0.41630
gfz2014qlxd   0.01687
gfz2014qqhm  -0.24880
gfz2014rdsn   0.21210
gfz2014rnrn  -1.00310
gfz2014ryfb  -0.18667
gfz2014ssvz  -0.02077
gfz2014tqdo   1.76450
gfz2014ubwn   0.15774
gfz2014vhms   0.12491
gfz2014vjoz  -0.04431
gfz2014watn   0.25082
gfz2014wrkh  -3.61600
gfz2014wwib   0.10976
gfz2014yyiy  -0.35618
gfz2015aruz   0.45001
gfz2015atxv   0.48112
gfz2015berb   0.12673
gfz2015bphe   0.06649
gfz2015bpxl   0.13352
gfz2015chhn  -0.52586
gfz2015cxxk  -0.08007
gfz2015cyjd   0.49268
gfz2015dvbn   0.61462
gfz2015egxq   0.10768
gfz2015fjhk   0.22600
gfz2015fsjj   0.47473
gfz2015gckd   0.17905
gfz2015ggjw   0.13711
gfz2015hgbk  -0.88210
gfz2015hpmk   0.36515
gfz2015igsy  -0.75152
gfz2015ijmh   0.29765
gfz2015iwqk   0.33583
gfz2015jzcv   0.08626
gfz2015kakw   0.36176
gfz2015kphk   0.31237
gfz2015kquq   0.31302
gfz2015kxxs  -0.71016
gfz2015lfud   0.40277
gfz2015lhjy  -0.02169
gfz2015ltii  -2.04120
gfz2015lytv  -0.55459
gfz2015mddr  -0.10292
gfz2015mpte  -0.00267
gfz2015okmq   0.10685
gfz2015qvxu  -0.83725
gfz2015rddx  -0.10135
gfz2015rkzg   0.47136
gfz2015sfdd  -0.44329
gfz2015sfdy  -0.77314
gfz2015sfnb   0.69385
gfz2015sfno  -0.34387
gfz2015sjgk   1.21950
gfz2015sjoj   0.22473
gfz2015slun  -0.46519
gfz2015smym  -0.18407
gfz2015snwh  -0.17369
gfz2015snyd   0.17596
gfz2015soat   0.00508
gfz2015soxc   0.60778
gfz2015svwm   0.60307
gfz2015szcb  -0.35476
gfz2015taml   0.28115
gfz2015tiyc   0.53518
gfz2015tkol  -1.44150
gfz2015tlkf  -0.42469
