# Nsamples: 558  MAD:  0.533  mean: -0.001  variance:  0.735
gfz2010cbkg   0.84047
gfz2010civi  -0.25392
gfz2010ckzm  -1.00920
gfz2010czps  -0.20408
gfz2010dfru  -1.39010
gfz2010eaoy   0.13247
gfz2010eapn   1.77580
gfz2010eaqe   0.35608
gfz2010eaqx   0.33797
gfz2010eaqy   0.72480
gfz2010earq  -0.62439
gfz2010earu   0.06968
gfz2010easf  -0.96406
gfz2010easo   0.35972
gfz2010easu  -0.30571
gfz2010eato   0.03355
gfz2010eatt  -1.76670
gfz2010eaty  -0.27885
gfz2010eaul  -0.14526
gfz2010eavs   0.83959
gfz2010eawb  -0.19066
gfz2010eawu   0.54670
gfz2010eaxa   0.40925
gfz2010eazu   0.85280
gfz2010ebfa   0.19749
gfz2010ebgj   0.24708
gfz2010ebhc  -0.15659
gfz2010ebih  -0.40147
gfz2010ebin   4.01220
gfz2010ebjy  -0.66080
gfz2010ebkj  -0.70375
gfz2010ebll   0.52380
gfz2010ebmb  -0.53435
gfz2010ebnn   0.30917
gfz2010ebvm  -0.14479
gfz2010ebvv  -0.13467
gfz2010ebwp  -0.11331
gfz2010ebzr   0.10754
gfz2010ecay   0.64692
gfz2010ecbi   0.28379
gfz2010eccq  -0.30086
gfz2010eced   2.77880
gfz2010echc   0.12924
gfz2010echy  -0.67098
gfz2010ecps   0.26390
gfz2010ecua  -0.00975
gfz2010ecuv  -0.18699
gfz2010edat  -0.37485
gfz2010eday  -0.97744
gfz2010edcp   4.90630
gfz2010edhv  -0.49817
gfz2010edkp  -1.77390
gfz2010edvf   0.39466
gfz2010edyi   0.19984
gfz2010eeij  -0.28695
gfz2010eevu  -0.00000
gfz2010egld   0.26100
gfz2010egmp  -0.96689
gfz2010ehxz   0.04986
gfz2010eisx  -0.26465
gfz2010ejjg  -1.13400
gfz2010ekyc  -0.08570
gfz2010elhv   0.67963
gfz2010elyc  -1.45980
gfz2010epbe   1.16390
gfz2010epxj   0.44290
gfz2010eqmu   1.44910
gfz2010erdi   0.85838
gfz2010erna  -0.47399
gfz2010erom   0.02732
gfz2010erum   0.36284
gfz2010eruy  -0.35877
gfz2010erwn  -0.28202
gfz2010erxb  -0.93084
gfz2010erxk   0.05827
gfz2010eryg   0.53309
gfz2010esid  -1.10200
gfz2010euan  -0.15227
gfz2010euii  -0.20810
gfz2010eujm  -0.78738
gfz2010euvl  -0.54735
gfz2010evco  -0.24343
gfz2010ewbc  -0.92609
gfz2010ewpq  -0.26528
gfz2010ewvc  -0.56529
gfz2010exdl  -0.42024
gfz2010exed  -0.40418
gfz2010exgb  -0.12623
gfz2010exhd  -0.48443
gfz2010exhw   0.36754
gfz2010exjw   0.05012
gfz2010exno   0.12187
gfz2010exqu   0.12434
gfz2010exsg  -2.05800
gfz2010eymr  -0.46955
gfz2010ezck  -0.10625
gfz2010ezwz   0.13288
gfz2010fcax   0.84751
gfz2010fczt  -0.12919
gfz2010fedq  -0.95370
gfz2010ffhq  -0.08992
gfz2010figq  -0.10066
gfz2010fihj   0.66651
gfz2010fika  -1.23320
gfz2010fjmu  -4.38040
gfz2010flha   0.19058
gfz2010flrt  -0.75340
gfz2010flxi  -0.29700
gfz2010fneu   0.27088
gfz2010fpqy   0.22931
gfz2010ftlm  -0.90349
gfz2010fwpv  -0.58541
gfz2010fync   0.62711
gfz2010gcrl  -1.68460
gfz2010gcrp   0.17015
gfz2010gjia  -0.12686
gfz2010glxl  -0.36277
gfz2010grjd  -0.42273
gfz2010gyqp  -0.14468
gfz2010hbka  -0.00766
gfz2010hevz  -0.14347
gfz2010hjoc  -0.33399
gfz2010hlmq  -1.62850
gfz2010hrpr  -0.57354
gfz2010hxbs  -1.28890
gfz2010hxgv  -0.21393
gfz2010iibf  -0.90103
gfz2010iobp   0.17880
gfz2010irvf  -0.13448
gfz2010iull   0.26494
gfz2010jxbm   0.46505
gfz2010lepw  -1.91440
gfz2010lrlk  -0.32304
gfz2010mkuu   0.32900
gfz2010mlta   0.23137
gfz2010mncc   0.07578
gfz2010moyw   0.05251
gfz2010mpuy  -0.57053
gfz2010msjj  -0.56549
gfz2010muca   0.66921
gfz2010mwdq   0.24601
gfz2010ncrl   0.24101
gfz2010nfsj   0.68330
gfz2010nmpc  -1.06840
gfz2010nqwf  -0.11044
gfz2010nrjo   0.02000
gfz2010nsck   0.97739
gfz2010nubk   0.16608
gfz2010nwef  -0.15555
gfz2010nxsy  -0.65025
gfz2010onma  -0.20333
gfz2010oyqy  -0.46724
gfz2010pcxi   0.31431
gfz2010pfyu   0.86930
gfz2010pmqd  -0.53592
gfz2010pxgh  -0.68687
gfz2010rqwj   0.24621
gfz2010sfee  -0.31800
gfz2010skve   1.33280
gfz2010sniy   0.56212
gfz2010srdb   0.45945
gfz2010txjs  -0.48654
gfz2010upfb   0.71086
gfz2010usho  -0.27284
gfz2010ustq  -0.63190
gfz2010utcg   0.44474
gfz2010xgzw   0.77976
gfz2010xjck  -0.04549
gfz2010yjev   1.38800
gfz2011aatr   0.85794
gfz2011adjs  -0.25446
gfz2011ahfw  -0.77839
gfz2011ccpw  -1.65730
gfz2011cfae  -0.52530
gfz2011cvcg  -0.20630
gfz2011cvfg  -1.13850
gfz2011cykd  -0.62395
gfz2011cyuk   1.81540
gfz2011dbev   0.45940
gfz2011dbig   0.52075
gfz2011dbon  -0.31833
gfz2011dcqb  -0.89539
gfz2011dpqx  -0.18984
gfz2011ecaj  -0.07091
gfz2011enva  -0.27422
gfz2011fgvr   0.92693
gfz2011flgj   0.54576
gfz2011fnsw  -0.60193
gfz2011gbmx   0.39042
gfz2011gkzt   0.67941
gfz2011haid   5.31280
gfz2011hlqw   0.26437
gfz2011hlsa   0.47561
gfz2011hpqp  -0.03261
gfz2011ieie   0.73553
gfz2011ixai   1.37750
gfz2011izqa  -0.11528
gfz2011jmbn   0.42820
gfz2011jplh   0.13288
gfz2011kqwo   0.44351
gfz2011kxzp   0.36185
gfz2011lcxq  -1.01940
gfz2011lzwj   0.60839
gfz2011mdie   0.16118
gfz2011mpme   0.15710
gfz2011ntkh   0.39554
gfz2011nudm  -0.50866
gfz2011ohcy   0.66564
gfz2011oiqe   0.50992
gfz2011oiwk   0.33663
gfz2011olkk  -0.51398
gfz2011ornx   0.46661
gfz2011owvz   0.20187
gfz2011phms   0.41268
gfz2011qyms   0.10628
gfz2011rewa   0.09225
gfz2011rgwp  -0.02466
gfz2011rqui   0.15569
gfz2011sagt   0.77893
gfz2011tkfp  -2.43350
gfz2011toub  -1.02380
gfz2011uepx  -0.17209
gfz2011ujze   0.19136
gfz2011uphh  -0.24846
gfz2011vhfi   0.78812
gfz2011vxns  -0.65499
gfz2011wjul  -0.54649
gfz2011wvzb   0.11590
gfz2011wwjs   0.04472
gfz2011wxfs   0.25893
gfz2011wxtk  -0.26585
gfz2011xyxj   0.62390
gfz2012ajtq  -0.19879
gfz2012aqgp   0.15630
gfz2012bfah   0.30763
gfz2012cqnl  -0.33413
gfz2012czlw  -0.18228
gfz2012ekda   0.35189
gfz2012enno   0.30152
gfz2012fzfa  -0.17895
gfz2012hnul  -0.20861
gfz2012ilvn  -0.07722
gfz2012intn   0.22059
gfz2012jgvj  -0.37318
gfz2012jjzc   0.04989
gfz2012jlox  -1.11270
gfz2012jupx   0.34182
gfz2012kkup   0.12903
gfz2012klhx  -0.00390
gfz2012kuct   0.11246
gfz2012kudo  -0.17204
gfz2012lczo   0.41714
gfz2012ldxg  -0.40784
gfz2012lxkv   0.13480
gfz2012minr   1.28320
gfz2012mvwr  -0.20743
gfz2012mwij   0.77333
gfz2012nedn  -0.86391
gfz2012ngic  -0.40286
gfz2012nojx   0.63826
gfz2012nolo   0.64715
gfz2012oazn   0.59433
gfz2012pciw  -2.09000
gfz2012pgcl   0.25610
gfz2012plea  -0.46176
gfz2012ronz   1.11190
gfz2012rwov  -0.63033
gfz2012rypu   0.14658
gfz2012sphd   0.45377
gfz2012syvl  -0.23996
gfz2012ttoa  -0.21477
gfz2012tvmv  -0.43787
gfz2012uafg   0.25881
gfz2012uaqj  -0.07539
gfz2012uhup   0.05105
gfz2012uvqf   0.48886
gfz2012vrgb   0.73323
gfz2012wklq  -0.29919
gfz2012wxlg  -0.32288
gfz2012wypz   0.17792
gfz2012xslk   0.47332
gfz2012zitl   0.95588
gfz2013axoj  -0.36657
gfz2013ccnr  -0.62923
gfz2013dofo   1.06290
gfz2013drxz   0.25722
gfz2013dspt   1.13240
gfz2013dsrk   1.63720
gfz2013gdnq  -0.15368
gfz2013ifpq  -0.32697
gfz2013ijsr   0.69506
gfz2013ippu   0.92255
gfz2013iunn  -0.36695
gfz2013jesk   0.78632
gfz2013jgip   1.27100
gfz2013jkut  -0.08753
gfz2013jusj  -0.60234
gfz2013kheb  -0.18496
gfz2013kvtk  -0.66532
gfz2013ldqb   1.57340
gfz2013lsob  -0.84853
gfz2013lyko   0.04871
gfz2013mqmv  -1.24070
gfz2013mwbh  -0.22329
gfz2013nabl   0.72425
gfz2013ncjp  -0.17507
gfz2013neuc  -0.05823
gfz2013ngnt  -0.36254
gfz2013nixj   0.25768
gfz2013nkgj   1.07790
gfz2013nuvi   0.07575
gfz2013nwdi   0.19234
gfz2013oqsc  -0.79353
gfz2013pfbx   0.15396
gfz2013pxsj  -0.13704
gfz2013qmer   0.09975
gfz2013qzdq   0.14698
gfz2013rait   0.81681
gfz2013sebq   0.77092
gfz2013skkm  -1.38490
gfz2013suvn   0.06306
gfz2013svci   0.05408
gfz2013ufxm   1.34030
gfz2013vexx   0.37537
gfz2013vfyw   0.08481
gfz2013vfzp   0.84043
gfz2013vjjc   0.67144
gfz2013wjmm   0.49026
gfz2013xsdt  -0.06785
gfz2013xyzb  -0.29944
gfz2013yctg   0.32613
gfz2013yhpk  -0.80524
gfz2013yqkv   0.46664
gfz2013yyhc   0.30726
gfz2014adoj  -0.36094
gfz2014afmx   0.48519
gfz2014algk   0.10717
gfz2014amsb  -0.02704
gfz2014ande  -0.02482
gfz2014arpf  -0.39288
gfz2014bagd  -0.02070
gfz2014bwue   0.46043
gfz2014chdv  -0.13869
gfz2014cmwb   0.08749
gfz2014czqi   0.68033
gfz2014czua  -0.25367
gfz2014dhxt   0.00743
gfz2014disp  -0.50700
gfz2014ehsf   0.34110
gfz2014ekcr   0.12813
gfz2014ekdt   0.21014
gfz2014enhi   0.79467
gfz2014femz  -1.02430
gfz2014fgvi   0.58359
gfz2014fgvr   0.84349
gfz2014fgvz  -0.26453
gfz2014fhdw   0.03792
gfz2014fhla  -0.58622
gfz2014fhrq   0.21501
gfz2014fimn  -2.97890
gfz2014fjzd  -0.65669
gfz2014fkmr  -0.04490
gfz2014frdz  -0.40862
gfz2014frel  -0.00791
gfz2014frez   0.88880
gfz2014frgm  -0.27123
gfz2014ftka  -0.03896
gfz2014ftpw  -0.37425
gfz2014ftrk   1.65760
gfz2014furx   0.11450
gfz2014fusc   0.46116
gfz2014fusj   0.55292
gfz2014fuub   0.66250
gfz2014fval   0.02124
gfz2014fvrg  -0.01262
gfz2014gbcz  -0.67955
gfz2014gbdq   1.18030
gfz2014gkgf  -0.58003
gfz2014gkhp   0.97542
gfz2014gkhy   1.12220
gfz2014gkjl   0.03263
gfz2014gkob   0.16829
gfz2014gkpj   0.44417
gfz2014gkqf   0.53515
gfz2014gkqu   0.02894
gfz2014gksj  -2.04990
gfz2014gktq  -0.27695
gfz2014glcu   0.41904
gfz2014glcy   0.22349
gfz2014gmge  -0.99923
gfz2014gmhp   0.10621
gfz2014gmhr  -1.21770
gfz2014gmip   0.95675
gfz2014gmku   0.54823
gfz2014gmlz  -1.22830
gfz2014gmnb   0.07366
gfz2014gmnw   0.18251
gfz2014gmrj   0.82232
gfz2014gmzl   0.37764
gfz2014gndq  -1.86810
gfz2014gnfd  -0.08782
gfz2014gngg   0.21811
gfz2014gnnt   0.47926
gfz2014gsqs   0.92419
gfz2014gull   0.68970
gfz2014gulp   0.21459
gfz2014gxxo  -0.46475
gfz2014hagb   1.11330
gfz2014hbjm  -2.15360
gfz2014hbqb   0.39405
gfz2014hfhl   0.08291
gfz2014hgqo   0.23584
gfz2014hocg   1.00940
gfz2014hphw  -0.23622
gfz2014hqxs  -0.76247
gfz2014hscz  -0.75785
gfz2014huaj  -0.38396
gfz2014icqt   0.17339
gfz2014ifzj   0.11653
gfz2014imnn   0.30907
gfz2014inbj   0.66216
gfz2014irci   0.24783
gfz2014isff  -1.17820
gfz2014issk  -0.84962
gfz2014itkw   0.46052
gfz2014itpj  -0.58906
gfz2014iwnf   0.23533
gfz2014jass   0.21474
gfz2014jatq  -0.28762
gfz2014jcjt  -2.20380
gfz2014jggm   0.82454
gfz2014jjln   0.20465
gfz2014jnyv   0.05128
gfz2014jpep   0.36816
gfz2014kbuk  -0.13471
gfz2014khlk   1.82520
gfz2014kitm  -0.64353
gfz2014kndc   0.43741
gfz2014knks   0.18075
gfz2014kssw  -2.28050
gfz2014kwrg   0.14001
gfz2014ldhu   0.27607
gfz2014lgqn   0.03160
gfz2014macx   0.35034
gfz2014madw   0.11925
gfz2014mxkr  -0.48528
gfz2014nnxd  -0.66857
gfz2014nowp  -0.33161
gfz2014npeo   0.69046
gfz2014nphm   0.33348
gfz2014nqfm   0.35116
gfz2014nrie  -0.10995
gfz2014oxcc   0.01513
gfz2014pvch   0.59407
gfz2014pzni  -0.25827
gfz2014qlxd  -0.00580
gfz2014qngj  -0.20589
gfz2014qqhm  -0.48279
gfz2014rdsn  -0.31726
gfz2014riel  -0.00672
gfz2014ssvz  -0.10530
gfz2014szzf  -0.77405
gfz2014tqdo   0.22910
gfz2014tqsf   0.18375
gfz2014ubwn  -0.16920
gfz2014xjri   0.01919
gfz2014yhhm   0.70210
gfz2015atxv  -0.48100
gfz2015berb   0.18037
gfz2015gckd   0.10861
gfz2015gjbr  -0.51707
gfz2015gkwa   0.63233
gfz2015hgbk   0.06984
gfz2015iwqk  -0.88216
gfz2015jmlu   0.01565
gfz2015jpap   4.42230
gfz2015jwgl  -0.02005
gfz2015jxbx  -5.15170
gfz2015kfsu   0.35612
gfz2015kkth   0.32211
gfz2015kphk   0.60035
gfz2015kquq  -3.42130
gfz2015ksni   0.18642
gfz2015kxxs  -0.35883
gfz2015lfma   0.09109
gfz2015lhjy   0.45407
gfz2015lytv  -1.11620
gfz2015mddr  -0.48036
gfz2015mpte  -0.15566
gfz2015nuxz  -1.29950
gfz2015nwug   0.24522
gfz2015ocdz   0.05914
gfz2015okmq   0.65058
gfz2015orkl  -1.03180
gfz2015oyfl   0.10096
gfz2015poni  -0.28385
gfz2015qnho   0.01667
gfz2015sdeo  -4.00830
gfz2015sevh   0.24580
gfz2015sfdd   0.20336
gfz2015sfdl   0.32882
gfz2015sfdy  -1.05520
gfz2015sfeo   0.58549
gfz2015sfga   0.70016
gfz2015sfhz  -0.44719
gfz2015sfiq   1.30090
gfz2015sfkh  -0.10337
gfz2015sflf  -0.44090
gfz2015sfln  -0.17251
gfz2015sfmd   0.14520
gfz2015sfnb  -0.04448
gfz2015sfno  -0.35941
gfz2015sfnv   0.04148
gfz2015sfoc  -0.31368
gfz2015sfom  -0.29068
gfz2015sfpj  -0.58369
gfz2015sfqo  -0.48650
gfz2015sfqr   1.26610
gfz2015sfrc   1.13340
gfz2015sfuc   0.37322
gfz2015sfwf  -0.50489
gfz2015sfzm  -0.52589
gfz2015sgad  -0.48782
gfz2015sggc   0.07479
gfz2015sghq   0.48712
gfz2015sgyd   0.71309
gfz2015shhu  -0.25216
gfz2015shjn   0.24744
gfz2015shjo   0.00139
gfz2015shsz  -0.30344
gfz2015siem  -0.26565
gfz2015sitn  -0.10590
gfz2015sjbx   0.53528
gfz2015sjgk   0.61134
gfz2015sjne   0.34475
gfz2015sjoj   0.04021
gfz2015sjvu  -0.13671
gfz2015skpv  -0.18107
gfz2015skxu  -0.22025
gfz2015sldx  -0.27842
gfz2015sljs   2.16660
gfz2015slun   0.12289
gfz2015smym   0.12705
gfz2015snhn  -0.64802
gfz2015snsf  -0.10931
gfz2015snwh  -0.01929
gfz2015snyd  -0.13213
gfz2015soat   0.55523
gfz2015soxc  -0.53047
gfz2015stfy   0.28929
gfz2015susq  -0.09097
gfz2015svwm  -0.04367
gfz2015szcb   0.11128
gfz2015taml   0.82863
gfz2015tezd   0.72764
gfz2015tiyc  -0.08859
gfz2015tlkf   0.19622
gfz2015tnjd  -0.31698
