# Nsamples: 1118  MAD:  0.499  mean: -0.018  variance:  0.712
gfz2010aban  -3.04510
gfz2010aerk   0.31327
gfz2010ahqi   0.02443
gfz2010aykj  -0.52320
gfz2010bfzs   0.11628
gfz2010bgth  -0.59216
gfz2010bhhq   0.03868
gfz2010bifb  -1.72600
gfz2010bjeb   0.12927
gfz2010bjjx  -3.04420
gfz2010bkob   0.02181
gfz2010bkos  -0.20420
gfz2010bowy  -0.36839
gfz2010boxo  -0.87515
gfz2010bxxs  -0.45878
gfz2010caft  -0.33165
gfz2010cbkg   0.14701
gfz2010ckzm  -1.05260
gfz2010cqwl   0.65901
gfz2010ctuw   0.14956
gfz2010dlgc   0.42212
gfz2010eaoy   0.07916
gfz2010eapk  -0.00000
gfz2010eapn   1.29130
gfz2010eaqe   0.85445
gfz2010eaqx  -0.17851
gfz2010eaqy   0.80560
gfz2010earq   0.95328
gfz2010earu  -0.99336
gfz2010easf   0.97575
gfz2010eask  -0.57456
gfz2010easo  -0.14559
gfz2010easu  -0.61708
gfz2010eato   0.85326
gfz2010eatt  -0.87015
gfz2010eaty  -0.51237
gfz2010eaul  -0.75934
gfz2010eavp  -0.36500
gfz2010eavs   1.77340
gfz2010eawb   0.64604
gfz2010eawu  -6.66180
gfz2010eaxa   0.20386
gfz2010eaxn  -0.46902
gfz2010eayd   0.70940
gfz2010eayp   0.00000
gfz2010eaze   0.13797
gfz2010eazu  -1.06000
gfz2010ebbd  -0.48512
gfz2010ebbx  -2.34560
gfz2010ebdl   0.26355
gfz2010ebeh  -0.72676
gfz2010ebek  -0.69552
gfz2010ebfa  -0.28902
gfz2010ebgj   0.32243
gfz2010ebhc   0.18533
gfz2010ebih   0.85273
gfz2010ebin  -0.81685
gfz2010ebiv   0.35141
gfz2010ebjy  -0.13205
gfz2010ebkj  -0.28069
gfz2010ebla   0.41290
gfz2010ebll  -0.10954
gfz2010ebmb   0.03241
gfz2010ebmi  -0.79899
gfz2010ebnn   0.72889
gfz2010ebpa   0.33636
gfz2010ebqz  -1.00860
gfz2010ebrm   0.56918
gfz2010ebsv   0.92730
gfz2010ebtk   0.95844
gfz2010ebvm   0.58298
gfz2010ebvv   0.03269
gfz2010ebwp  -0.10296
gfz2010ebxl  -0.29922
gfz2010ebze  -0.89068
gfz2010ebzk   0.49122
gfz2010ebzr   0.16777
gfz2010ecay   0.02236
gfz2010ecbi  -0.34941
gfz2010eccq   0.91507
gfz2010eced   0.01881
gfz2010ecfx  -0.07115
gfz2010ecfy  -0.77064
gfz2010ecgh  -0.06193
gfz2010echt   0.09520
gfz2010echy  -0.06124
gfz2010ecsp   0.50775
gfz2010ecua   0.25839
gfz2010ecuv   0.55666
gfz2010ecvt  -0.20319
gfz2010edat   0.34973
gfz2010eday  -0.00000
gfz2010edbz   0.29713
gfz2010edcp   3.18690
gfz2010edim   0.30399
gfz2010edkp   0.03780
gfz2010edqd   0.78320
gfz2010edqh   0.01420
gfz2010edsk   0.58886
gfz2010edsn   0.52617
gfz2010edsy   0.66262
gfz2010edun   0.16077
gfz2010edvf   0.44379
gfz2010edyi  -4.75460
gfz2010edzb   0.04257
gfz2010eedu  -0.13327
gfz2010eefh   0.17223
gfz2010eefo  -1.53000
gfz2010eegn  -0.62211
gfz2010eeia  -0.00000
gfz2010eeij   0.27952
gfz2010eekg   1.12940
gfz2010eekq   0.19226
gfz2010eeng  -0.60479
gfz2010eerh   0.60600
gfz2010eern  -0.01222
gfz2010eesf   0.15523
gfz2010eevu   0.17783
gfz2010eexz  -4.47200
gfz2010eeyh   0.05135
gfz2010efbh   0.38935
gfz2010efbi   0.41249
gfz2010efsq  -0.91532
gfz2010efwo   0.19075
gfz2010efxf  -0.00000
gfz2010egap   0.15457
gfz2010eghq   0.26046
gfz2010egld   0.60422
gfz2010egln  -0.14394
gfz2010egmp   0.10603
gfz2010egyy  -0.02186
gfz2010ehaj   1.20390
gfz2010ehft  -0.27212
gfz2010ehnl   0.02129
gfz2010ehnm   0.28215
gfz2010ehrq  -1.64580
gfz2010ehsy  -0.54606
gfz2010ehvj   0.01718
gfz2010ehwg   0.93426
gfz2010ehxz   0.63807
gfz2010eioi  -0.54587
gfz2010eisx  -1.60590
gfz2010eixj   1.61480
gfz2010ejae   0.99628
gfz2010ejjg   0.78726
gfz2010ejju  -2.18370
gfz2010ejka  -0.16702
gfz2010ejma  -0.71275
gfz2010ejxf   0.13264
gfz2010ekaw  -0.51419
gfz2010ekoe   0.24547
gfz2010ekrv   0.32814
gfz2010ekyc  -0.33350
gfz2010elhv   0.21412
gfz2010elin  -0.29310
gfz2010eljf  -0.59680
gfz2010elpu  -0.22184
gfz2010eltf  -0.10962
gfz2010elvp   0.88368
gfz2010elxi  -0.49715
gfz2010elyc  -1.79990
gfz2010elyo   0.81097
gfz2010elzf   0.01024
gfz2010elzl   0.42397
gfz2010emyz  -0.68515
gfz2010encm  -0.87760
gfz2010enpa   3.05840
gfz2010enzl   0.07485
gfz2010eoao   0.91759
gfz2010epbe   0.94391
gfz2010epxj  -0.13374
gfz2010eqjg  -0.45798
gfz2010eqmu  -4.27470
gfz2010erfy   0.37123
gfz2010erkn  -0.25177
gfz2010erna  -0.34711
gfz2010erom   0.08945
gfz2010erum   0.94315
gfz2010eruy  -0.21930
gfz2010erwn  -0.54104
gfz2010erxb  -0.16982
gfz2010eryg  -0.30895
gfz2010esid   0.28872
gfz2010eted   0.28898
gfz2010eujm   0.11655
gfz2010eutw   0.67465
gfz2010euvl   0.45547
gfz2010euwb  -0.32542
gfz2010euxe   0.29676
gfz2010evco  -0.92845
gfz2010evgf   0.40073
gfz2010evjv   1.18770
gfz2010evkd   0.24974
gfz2010ewpq   0.23598
gfz2010ewvc   0.10206
gfz2010ewyu   0.58386
gfz2010excp  -0.93268
gfz2010exdd  -0.38983
gfz2010exel   0.11088
gfz2010exfb   1.49420
gfz2010exgb   0.57493
gfz2010exhd   0.17762
gfz2010exhw  -0.10253
gfz2010exjw  -0.00000
gfz2010exlm  -0.19246
gfz2010exmc  -0.10157
gfz2010exno   0.10931
gfz2010exou  -1.74740
gfz2010exqu  -0.14193
gfz2010exsg   0.58735
gfz2010exts  -0.42176
gfz2010exyp  -0.50955
gfz2010eyaz  -0.84451
gfz2010eyhh  -0.18770
gfz2010eyiv  -2.48260
gfz2010eyvq   0.30096
gfz2010ezvt   0.43232
gfz2010ezxd   0.97816
gfz2010faeu  -0.44561
gfz2010falm   0.30619
gfz2010fauz  -0.16405
gfz2010fbeu   0.12671
gfz2010fbpi   3.29380
gfz2010fcax  -0.23910
gfz2010fcdw   0.57989
gfz2010fciw  -0.36127
gfz2010fcnn   0.58699
gfz2010fcnt   0.04382
gfz2010fcxy   0.00825
gfz2010fcyj  -0.16709
gfz2010fczt   0.04471
gfz2010fdab  -0.29007
gfz2010fedq  -0.63133
gfz2010fefr   0.04380
gfz2010fexw   1.55470
gfz2010ffhq   0.06267
gfz2010ffjb   1.25970
gfz2010ffui   1.14650
gfz2010figq  -0.50158
gfz2010fihj   1.56850
gfz2010fika   0.16949
gfz2010fixr  -0.97650
gfz2010fjal   0.69407
gfz2010fjni   2.46570
gfz2010fknh   0.15998
gfz2010fkvg   5.07000
gfz2010flha   0.47757
gfz2010flkj  -2.29970
gfz2010flrt   0.45537
gfz2010flxi  -0.07883
gfz2010fmhb  -0.16426
gfz2010fmwb  -0.86907
gfz2010fneu  -0.13870
gfz2010fnrk   0.15532
gfz2010fpmv   0.21096
gfz2010fpqy   0.31838
gfz2010fqdu   0.21857
gfz2010fqtj   0.82058
gfz2010fser   0.14142
gfz2010ftlm   0.07505
gfz2010fupn  -0.25181
gfz2010fuuy  -0.38970
gfz2010fwkk   0.44298
gfz2010fwny  -0.31313
gfz2010fwpv  -0.47723
gfz2010fyen  -0.14918
gfz2010fync  -0.22202
gfz2010fzoi   1.02230
gfz2010gcdn  -0.51787
gfz2010gcrl  -0.29366
gfz2010gcrp  -0.35299
gfz2010geru  -1.51540
gfz2010ginm   0.55355
gfz2010gjia   0.43579
gfz2010glqr   0.13054
gfz2010glxl   0.66670
gfz2010gslu   0.02278
gfz2010gymo   0.77651
gfz2010gyqp  -0.37272
gfz2010gzxr  -0.41684
gfz2010hcio  -0.13239
gfz2010hgld   0.51806
gfz2010hjoc   0.00000
gfz2010hllj   2.42690
gfz2010hlmq   0.41758
gfz2010hmhm   0.62941
gfz2010hndk  -0.22398
gfz2010hnnf  -0.21119
gfz2010hnpi   0.23844
gfz2010hnzr  -0.23739
gfz2010homc   0.19598
gfz2010hptz  -0.71781
gfz2010hxbs  -0.29601
gfz2010hxgv   0.07064
gfz2010hzar  -0.11888
gfz2010ibiy  -0.31536
gfz2010iciq   0.90664
gfz2010icqq   0.23310
gfz2010iibf   0.04007
gfz2010iimu   0.00000
gfz2010imfv   0.43636
gfz2010imsh   0.65564
gfz2010iobp   0.31117
gfz2010iphd   0.93533
gfz2010ipsg   0.39813
gfz2010iqep   0.19864
gfz2010iqfm  -0.75772
gfz2010iqnm   0.01542
gfz2010irvf  -0.31616
gfz2010itpb   0.35732
gfz2010iull  -0.06228
gfz2010jagd  -0.10428
gfz2010jant   2.84180
gfz2010jatq  -0.15284
gfz2010jhie  -0.35708
gfz2010jipf  -1.10910
gfz2010jkxj  -0.38108
gfz2010jlhj   1.81310
gfz2010jpyj  -0.36809
gfz2010jssh  -0.71807
gfz2010jsuh  -0.27622
gfz2010jsuo  -0.14588
gfz2010jxbm   0.02865
gfz2010jygz  -1.00270
gfz2010jzku   0.69265
gfz2010kcoo   0.64120
gfz2010kdyc   0.47141
gfz2010kihf  -1.30850
gfz2010kmgg  -1.39290
gfz2010kyvj  -0.12570
gfz2010kzml  -3.48330
gfz2010lcoq  -0.29036
gfz2010lkcf   0.92164
gfz2010lopz  -0.76397
gfz2010lrlk  -1.03330
gfz2010lyfk   0.62856
gfz2010mdpq   0.28825
gfz2010mlkz   0.42254
gfz2010mpuy  -0.27027
gfz2010ncrl   0.66809
gfz2010nfsj  -0.42286
gfz2010nqwf   0.12089
gfz2010nqwo  -0.72635
gfz2010nrjo   0.35053
gfz2010nsck  -0.03766
gfz2010nsdf  -5.64760
gfz2010ntuo  -0.27589
gfz2010nxsy  -0.12870
gfz2010nxum   0.23119
gfz2010odpb   0.42288
gfz2010oedn   0.70728
gfz2010onma  -0.50371
gfz2010osjs   0.18617
gfz2010pfyu   0.09532
gfz2010plbg  -0.01644
gfz2010pxgh  -1.50350
gfz2010suww  -0.24869
gfz2010svtn  -0.26935
gfz2010svve  -0.49990
gfz2010swcy  -0.33106
gfz2010sxwt  -0.05315
gfz2010sysw   0.11262
gfz2010tcrl  -1.03340
gfz2010tlfm  -0.28724
gfz2010truw   0.00000
gfz2010txjs   0.16488
gfz2010upfb   0.75156
gfz2010usho   0.40242
gfz2010ustq   0.88898
gfz2010utcg   0.21631
gfz2010utmc   0.04702
gfz2010uvhf   0.22365
gfz2010uyhb  -0.31221
gfz2010vbmd   0.45253
gfz2010vhuj   0.16331
gfz2010vtdg  -0.48196
gfz2010wioh  -0.08383
gfz2010wnty   0.42751
gfz2010wofs   0.55991
gfz2010wrxx  -0.62045
gfz2010wxqa   0.52530
gfz2010xgzw   0.16618
gfz2010xjck  -1.61290
gfz2010xjsj   0.37711
gfz2010xnxk  -0.06884
gfz2010yjev  -0.83724
gfz2010ymfy  -0.13644
gfz2010yosr  -0.03365
gfz2010yqwx  -1.46540
gfz2011aatr  -0.02603
gfz2011adjs  -1.08410
gfz2011aeay   0.60082
gfz2011ahfw   0.62013
gfz2011alip  -0.01410
gfz2011alsa   0.14225
gfz2011anur   0.81632
gfz2011aosc  -0.29519
gfz2011aqxf  -0.04667
gfz2011aupi   1.20810
gfz2011bgrp  -0.02059
gfz2011bhha  -0.14386
gfz2011blsi  -0.84683
gfz2011cndo  -0.65566
gfz2011csju  -1.73640
gfz2011cykd   0.77240
gfz2011cynl   1.65020
gfz2011cyre  -1.04560
gfz2011cyuk  -1.51360
gfz2011czwj   0.29944
gfz2011dbev   0.38014
gfz2011dbig  -0.30248
gfz2011dbon  -0.20557
gfz2011dbwt  -0.51546
gfz2011dcqb   1.13460
gfz2011dcqf   0.53315
gfz2011dddh  -0.77442
gfz2011dkyi  -0.16397
gfz2011dlyx  -0.22067
gfz2011dmat   0.92013
gfz2011dpqx  -0.86634
gfz2011duyr   0.71260
gfz2011ecaj   0.47372
gfz2011eebc   0.23840
gfz2011ehzq   0.09193
gfz2011eltw   0.54405
gfz2011enva  -0.26270
gfz2011etje  -0.40404
gfz2011fgvr  -0.45847
gfz2011fhag   0.54590
gfz2011fhbm  -0.01944
gfz2011fhur  -0.04127
gfz2011fkbn  -0.14618
gfz2011flgj  -0.57973
gfz2011fnsw  -0.31277
gfz2011gbmx   0.61065
gfz2011gcwb  -0.12720
gfz2011gdgh  -0.28668
gfz2011ggvf   0.44904
gfz2011gkzt   0.03038
gfz2011gzbr   0.75308
gfz2011haid  -0.53389
gfz2011hbex  -0.11430
gfz2011hebt  -0.27562
gfz2011hfkj  -0.22205
gfz2011hlqw  -0.27086
gfz2011hlsa  -0.46405
gfz2011hlth  -0.08196
gfz2011hpgx  -0.28813
gfz2011hpqp  -0.39302
gfz2011hrhu  -0.63527
gfz2011hryk   0.45811
gfz2011hsfj  -0.92640
gfz2011hvbu  -0.24267
gfz2011ieie  -0.22116
gfz2011iwte   0.78926
gfz2011ixai   0.18856
gfz2011izqa  -0.12597
gfz2011izto  -0.53576
gfz2011jghb   0.16471
gfz2011jmbn  -0.29054
gfz2011jnmi   0.38223
gfz2011jplh  -0.44955
gfz2011jtlg   0.40576
gfz2011juid   0.26778
gfz2011jxpl   0.67148
gfz2011knoo   0.03086
gfz2011kqwo  -1.25330
gfz2011kqyg  -0.17651
gfz2011kwid  -0.13385
gfz2011kwjx  -0.30301
gfz2011kwrf   0.62135
gfz2011kwsz  -0.54578
gfz2011kxzp   0.42606
gfz2011lcxq   0.32033
gfz2011lczg   0.32092
gfz2011lgsg   0.71425
gfz2011lhls   0.72023
gfz2011lvjr   1.18370
gfz2011lzwj   0.01443
gfz2011mdie   0.05997
gfz2011mepc  -0.50558
gfz2011mllx   0.03228
gfz2011myia   0.63479
gfz2011nauw   1.18270
gfz2011noud   0.52879
gfz2011nrwc   0.50399
gfz2011nudm  -0.97198
gfz2011ogqk  -0.74010
gfz2011ohcy   0.65006
gfz2011olkk   0.87371
gfz2011oolr   0.28733
gfz2011orgn  -0.02938
gfz2011ornx   1.00540
gfz2011owvz   1.29490
gfz2011pccd   0.66480
gfz2011phms  -0.04371
gfz2011ptus  -0.08834
gfz2011qvae   0.13201
gfz2011qyms   1.29730
gfz2011rabm   0.93604
gfz2011rewa  -0.76559
gfz2011rgwp   0.20202
gfz2011rqui   0.16394
gfz2011rsrh   0.55446
gfz2011sagt   0.26276
gfz2011shqm   0.07457
gfz2011stal   0.44681
gfz2011tbas  -0.02051
gfz2011tcij   0.38344
gfz2011tjue   0.33487
gfz2011tkfp   0.24278
gfz2011tkog  -0.23563
gfz2011toub  -1.10480
gfz2011tpfr   0.04709
gfz2011tsfd   0.96513
gfz2011udsq   2.22800
gfz2011ugzz   0.65765
gfz2011ujze   0.22897
gfz2011uphh  -0.00000
gfz2011urxy   0.01916
gfz2011urzu   0.20468
gfz2011uzqv  -0.68804
gfz2011vhfi   0.33521
gfz2011vnza  -0.21076
gfz2011vqnr   1.64550
gfz2011vrhg  -0.69085
gfz2011vxns  -0.96108
gfz2011wcic  -0.72761
gfz2011wfja   0.33013
gfz2011wijj   0.39111
gfz2011wjul  -0.24456
gfz2011wtmq   0.57859
gfz2011wwjs  -0.18705
gfz2011wxfs   0.05602
gfz2011wxoj   0.14652
gfz2011wxtk   0.15733
gfz2011xcpv   0.57933
gfz2011xesx  -0.01658
gfz2011xqru   3.19090
gfz2011xyxj  -0.05713
gfz2011yfdx  -0.00098
gfz2011ytnu   0.52481
gfz2011yybo   0.21197
gfz2011zklv   0.54834
gfz2011zqhh  -1.23770
gfz2012ablh  -1.94230
gfz2012ajtq   0.85167
gfz2012aqtq  -0.05881
gfz2012bfah   0.10912
gfz2012bngd  -0.13871
gfz2012bpkx   0.45112
gfz2012bpnl   0.14306
gfz2012bpwl  -0.47923
gfz2012bszs   0.31506
gfz2012byad  -0.77339
gfz2012cgvr  -0.12965
gfz2012ckxi   0.25890
gfz2012covm  -0.13381
gfz2012cqnl  -0.61099
gfz2012cxdn   0.17626
gfz2012czlw  -0.60295
gfz2012deri   0.07827
gfz2012dimn   0.56699
gfz2012dyyh   0.47107
gfz2012ekda   0.48251
gfz2012ekzf   0.07068
gfz2012emjg   0.67406
gfz2012enno  -0.19680
gfz2012ewgo   0.16101
gfz2012foeo   0.47021
gfz2012fwfo   0.52585
gfz2012fzfa   0.20106
gfz2012gkvr  -0.11211
gfz2012gocc  -0.85137
gfz2012gukw  -0.44201
gfz2012hdbm   0.87742
gfz2012hnul  -0.45273
gfz2012hogg   0.32340
gfz2012hwmz   0.53037
gfz2012iamr   1.05990
gfz2012iivw   0.47763
gfz2012ilvn   0.37136
gfz2012imay  -1.17830
gfz2012intn   0.13293
gfz2012jjzc   0.24373
gfz2012jlox  -0.15540
gfz2012jshk   0.56038
gfz2012jupx   0.28392
gfz2012keor   1.12360
gfz2012kkup  -0.39038
gfz2012klhx  -0.49763
gfz2012kuct   0.22844
gfz2012kudo   0.05880
gfz2012kwgo  -0.37035
gfz2012lczo   0.24967
gfz2012ldxg  -0.42054
gfz2012ldzj  -0.46672
gfz2012lrsv  -0.02210
gfz2012lxkv  -0.31665
gfz2012minr  -0.15900
gfz2012mvwr   0.10227
gfz2012mwij  -0.92387
gfz2012naqz   0.26702
gfz2012nedn   0.09646
gfz2012nojx  -1.44240
gfz2012nolo  -0.45012
gfz2012nsbz   0.05925
gfz2012nutf   1.26820
gfz2012nxog   0.07795
gfz2012oazn  -0.54430
gfz2012oedb  -0.14156
gfz2012omvo   0.31653
gfz2012oqmw   0.88635
gfz2012pgcl   0.53518
gfz2012pqlt  -1.16290
gfz2012pqmu  -0.25428
gfz2012priv  -0.13715
gfz2012quso  -0.81574
gfz2012rats  -0.09053
gfz2012repv  -0.07996
gfz2012royy  -0.65276
gfz2012rqlg   0.18994
gfz2012rwov   0.31118
gfz2012rypu  -0.61450
gfz2012snhi  -2.00550
gfz2012sphd  -0.32642
gfz2012sqmv  -0.16064
gfz2012syvl   0.17033
gfz2012teic   0.06393
gfz2012tmop  -0.42401
gfz2012ttoa  -0.22623
gfz2012tvmv   0.12548
gfz2012uafg  -0.13173
gfz2012uciv  -0.90966
gfz2012uhup   0.47528
gfz2012uvqf  -0.17600
gfz2012uzyj  -0.34947
gfz2012vrgb  -0.28893
gfz2012whku   0.56671
gfz2012wklq  -1.06620
gfz2012wmsg  -0.16269
gfz2012wtkr   0.16291
gfz2012wvfl   0.54588
gfz2012wxlg  -0.35358
gfz2012wxnu   0.09428
gfz2012wybs   0.35930
gfz2012wypz  -0.19448
gfz2012xbjq   0.04557
gfz2012xslk   0.77569
gfz2012xvwn   1.07160
gfz2012zemh   0.12827
gfz2012zfag   0.46972
gfz2012zitl  -0.36580
gfz2012zjpv   0.28987
gfz2013axoj  -0.06049
gfz2013bokp   0.24365
gfz2013btjm   1.72250
gfz2013cbsm   0.14027
gfz2013ccnr  -1.47850
gfz2013cwpn   0.41948
gfz2013dkly   0.43258
gfz2013dofo   0.64131
gfz2013drxz  -0.41540
gfz2013dspt   1.57020
gfz2013dsrk  -0.44198
gfz2013dvyh   0.13960
gfz2013egni  -0.28191
gfz2013egpu  -0.12129
gfz2013ewbo   1.08790
gfz2013fiud   0.66076
gfz2013fygc  -0.15320
gfz2013gdnq  -0.08121
gfz2013gihf   0.24940
gfz2013gjdc  -0.34250
gfz2013gngz   0.28795
gfz2013gock   0.03257
gfz2013hxcx   0.10471
gfz2013iayx   0.41310
gfz2013ijsr  -0.62297
gfz2013ikgo  -0.12682
gfz2013ilug  -0.89925
gfz2013ippu  -0.51586
gfz2013jesk   0.14148
gfz2013jgij  -0.42042
gfz2013jgip  -0.22127
gfz2013jkut  -0.01112
gfz2013jokw  -0.32497
gfz2013jusj  -0.32380
gfz2013jwvc  -0.19792
gfz2013kccc   0.33760
gfz2013kdeo   0.14909
gfz2013kheb   1.06840
gfz2013khli  -1.00490
gfz2013kilx   1.13140
gfz2013ldos  -4.00190
gfz2013ldpc  -0.20903
gfz2013ldqb  -0.27796
gfz2013lgnl   1.05680
gfz2013lixa  -0.07156
gfz2013lwbk   0.14207
gfz2013lyko   0.39183
gfz2013mmwq  -0.19180
gfz2013mqmv   0.48001
gfz2013mwbh  -0.22167
gfz2013ncjp   0.03824
gfz2013ndin   0.91355
gfz2013neuc  -0.86452
gfz2013nixj   0.29120
gfz2013nkgj   0.02297
gfz2013nknw   0.82771
gfz2013nmac   0.01090
gfz2013nqgw   2.27400
gfz2013nwdi  -0.05056
gfz2013oejn   0.70165
gfz2013ogde   0.27238
gfz2013oqsc   0.03043
gfz2013ozrp  -0.11672
gfz2013pcos   0.78863
gfz2013pfeb   0.04172
gfz2013ppqq  -1.34870
gfz2013pxsj  -0.73949
gfz2013pxya   1.35710
gfz2013qali   0.48355
gfz2013qfmm  -0.49598
gfz2013qmer   0.05766
gfz2013qnxc   0.05756
gfz2013qzdq   0.27167
gfz2013reym  -0.08761
gfz2013rsnr   0.12083
gfz2013sart   1.87980
gfz2013sdus   0.37539
gfz2013sfto  -0.10204
gfz2013skkm  -0.11335
gfz2013snbr   1.00580
gfz2013snyf  -0.66347
gfz2013sred  -5.27010
gfz2013suvn   0.70381
gfz2013svci   0.10091
gfz2013tcbk   0.24735
gfz2013tcxc  -0.32340
gfz2013tcxq  -0.24092
gfz2013tdau  -0.63905
gfz2013tusd   0.48594
gfz2013tvmw   0.04859
gfz2013txij   0.43944
gfz2013txtb   0.20586
gfz2013uauo  -0.41226
gfz2013ufxk  -1.10500
gfz2013ufxm   0.48665
gfz2013uqsp   0.87898
gfz2013uqvu   0.44398
gfz2013vexx   0.09753
gfz2013vfyw   0.18158
gfz2013vfzp  -0.14965
gfz2013vgrk  -0.14763
gfz2013vhzu  -0.00753
gfz2013viul  -0.11734
gfz2013vjjc  -1.29180
gfz2013vzbo  -0.50636
gfz2013waam  -0.65472
gfz2013wjmm  -1.07380
gfz2013wnpr   0.21952
gfz2013xmul   0.95152
gfz2013xsdt   0.12256
gfz2013xwda   0.36646
gfz2013xxwv  -0.56212
gfz2013xxxq  -0.42736
gfz2013yaig  -1.79240
gfz2013yctg   0.32859
gfz2013yqkv   0.20910
gfz2014adoj   0.21020
gfz2014afmx  -0.02389
gfz2014ande   0.18380
gfz2014bagd   0.40702
gfz2014bezu   0.11079
gfz2014bfng  -0.87301
gfz2014bmta  -0.37359
gfz2014bwue   0.32862
gfz2014bzxy  -0.09049
gfz2014chdv   0.07042
gfz2014claq  -0.77134
gfz2014cmwb   0.03898
gfz2014cqyo   0.47146
gfz2014cvkm  -1.90380
gfz2014cvxx   0.14436
gfz2014czno   0.08709
gfz2014czqi  -0.03267
gfz2014czua   0.38224
gfz2014dhxt  -0.02570
gfz2014disp  -0.01621
gfz2014duqn   0.51613
gfz2014ehsf   1.34040
gfz2014ekcr   0.16252
gfz2014ekdn   0.27282
gfz2014enhi   0.11956
gfz2014femz  -0.41087
gfz2014fgvi   0.02944
gfz2014fgvr   0.34118
gfz2014fhdw  -0.01308
gfz2014fhla  -0.48683
gfz2014fhrq  -0.13761
gfz2014fhsg   0.22376
gfz2014fhwx   0.54086
gfz2014fimn  -0.08913
gfz2014fkmr  -0.93122
gfz2014fnyg   0.02209
gfz2014gbcz  -0.26498
gfz2014gbdq  -3.07790
gfz2014ghpe   0.23601
gfz2014gkgf  -0.16828
gfz2014gkgs   0.00679
gfz2014gkhp  -0.87556
gfz2014gkhy   0.11555
gfz2014gkjl   0.41733
gfz2014gkjt  -0.94651
gfz2014gkmm  -0.35291
gfz2014gkob   1.21530
gfz2014gkqf   0.02158
gfz2014gkqu  -0.21321
gfz2014gksj   0.03870
gfz2014gksu  -0.19965
gfz2014gktq   0.85449
gfz2014glcu   0.25002
gfz2014gltx  -0.09073
gfz2014gmge  -0.49470
gfz2014gmhr  -0.17991
gfz2014gmip   0.19461
gfz2014gmku   0.14957
gfz2014gmnb  -0.03167
gfz2014gmnw   0.39262
gfz2014gmor   0.41708
gfz2014gmuk  -0.07723
gfz2014gnnt  -0.52968
gfz2014gnsi  -0.79415
gfz2014goba  -0.37096
gfz2014gogv   0.44682
gfz2014goqw   0.22507
gfz2014gori   0.99233
gfz2014gphr  -0.33878
gfz2014gpya  -0.07342
gfz2014gqer  -1.37140
gfz2014gqve   0.11011
gfz2014gsqs  -0.32457
gfz2014gull  -0.31192
gfz2014gvrd   0.01721
gfz2014gwab  -2.24460
gfz2014gxxo   0.37058
gfz2014hasj   0.25733
gfz2014hauo   0.82575
gfz2014hbjm   0.22882
gfz2014hbqb  -0.32277
gfz2014hcmj   0.07563
gfz2014hetr   0.05996
gfz2014hfhl   0.99243
gfz2014hgqo  -0.11266
gfz2014hjgh   0.38448
gfz2014hjgr  -0.29913
gfz2014hjij   0.43107
gfz2014hkcf  -0.01945
gfz2014hmrs   0.60402
gfz2014hocg  -0.00989
gfz2014hqxs   0.22739
gfz2014hrft  -0.34627
gfz2014hriu  -0.37505
gfz2014hzfw  -0.28608
gfz2014hzgn  -0.67111
gfz2014ilwu  -0.89108
gfz2014iobd   0.12907
gfz2014irci  -0.94869
gfz2014itkw   1.30540
gfz2014itpj   0.48078
gfz2014iywt   0.01784
gfz2014jcjt  -0.35107
gfz2014jird  -2.62850
gfz2014jjhc  -0.12342
gfz2014jnxm  -0.32585
gfz2014jnyv  -0.05641
gfz2014jomw   0.03357
gfz2014jpep  -0.01919
gfz2014jtfe  -0.70966
gfz2014jwmh   0.59316
gfz2014kbuk  -0.02609
gfz2014khlk  -1.40020
gfz2014kmmt   0.20679
gfz2014kndc  -0.03309
gfz2014knks  -0.32140
gfz2014knxs   1.00330
gfz2014kscf   2.65340
gfz2014kwie  -0.61212
gfz2014kyan  -0.04328
gfz2014kytf  -0.11746
gfz2014lefs  -0.53420
gfz2014lgqn   0.04472
gfz2014lrzx   0.28083
gfz2014lxnc   0.04777
gfz2014lyhk   0.38662
gfz2014lyhp   0.29140
gfz2014macx  -0.14656
gfz2014madw   1.37550
gfz2014moaw  -0.33033
gfz2014mtum  -0.27599
gfz2014mxkr   0.30817
gfz2014nnxd   1.46230
gfz2014nowp  -1.10050
gfz2014npeo  -0.20510
gfz2014nphm   0.29131
gfz2014nqfm  -0.28960
gfz2014nrie   0.06658
gfz2014ofhm  -0.17149
gfz2014oinz   0.03655
gfz2014owxc   0.31932
gfz2014oyly   0.29119
gfz2014pjer  -1.90570
gfz2014pkll  -0.38101
gfz2014ppzf  -0.14713
gfz2014pvch   0.00663
gfz2014qlxd   0.01139
gfz2014qngj  -0.28190
gfz2014qqhm   0.34134
gfz2014raau   0.23834
gfz2014rdsn  -0.10405
gfz2014riel  -0.87975
gfz2014romy  -1.35430
gfz2014rtcu  -3.58830
gfz2014rwos   0.16199
gfz2014sadu   1.19670
gfz2014sjqw   0.62568
gfz2014sptq   0.67551
gfz2014sryn  -0.01390
gfz2014ssmv   0.11527
gfz2014ssvz  -0.43799
gfz2014szzf  -3.64920
gfz2014tovs  -0.77372
gfz2014tqdo  -0.08771
gfz2014tqly   0.16449
gfz2014tqsf   0.03577
gfz2014tzsd   0.27636
gfz2014uapa  -0.06855
gfz2014ubwn   0.22988
gfz2014udgg  -0.73095
gfz2014uohh   0.86344
gfz2014uuuf   2.89620
gfz2014uvji   1.06670
gfz2014uvrk  -0.24523
gfz2014vhld   0.19283
gfz2014vhms  -0.12019
gfz2014vjoz   0.28332
gfz2014waoo  -0.56882
gfz2014watn  -0.47743
gfz2014wjko   0.18687
gfz2014wrkh  -0.91261
gfz2014xbyr   0.42275
gfz2014xjri   0.52173
gfz2014xoji   3.31830
gfz2014xqqd  -0.24948
gfz2014ynhc   0.31819
gfz2014ynzy  -4.03170
gfz2014yppv   0.31043
gfz2014yyiy   0.37947
gfz2015apnk   0.19896
gfz2015arpd   0.03686
gfz2015aruz  -0.44055
gfz2015atxv  -0.26421
gfz2015bdyd   0.52562
gfz2015berb   0.32914
gfz2015bfjm   0.09576
gfz2015bkbj   0.04472
gfz2015bsnl  -1.88380
gfz2015bvsj   0.58937
gfz2015bvxx  -2.54970
gfz2015byfn   0.42531
gfz2015chhn  -0.38556
gfz2015chqn  -0.04339
gfz2015cxhx  -0.36801
gfz2015cxxk   0.02050
gfz2015cyjd   0.52381
gfz2015dizn   0.22923
gfz2015dskr   0.01948
gfz2015ecgq   0.05235
gfz2015egxq   0.49675
gfz2015ehpz   0.33441
gfz2015eiky   0.06049
gfz2015elgy  -0.56644
gfz2015etai   0.38161
gfz2015fbbk   1.09030
gfz2015fcua   0.00000
gfz2015fdpr  -0.03102
gfz2015fjhk   0.32689
gfz2015fkgt  -0.39998
gfz2015fkuu   0.06039
gfz2015flis   0.62793
gfz2015fpez  -0.33260
gfz2015fsjj   0.35350
gfz2015fxbv  -1.40940
gfz2015fxdi   0.18603
gfz2015gckd  -0.15616
gfz2015ggjw   0.38389
gfz2015gkwa  -0.03211
gfz2015gmgf   0.08312
gfz2015gnmy   0.55516
gfz2015gzja  -0.62006
gfz2015hgbk   0.15918
gfz2015hlqo  -0.73569
gfz2015hpmk  -0.25067
gfz2015iele   0.24554
gfz2015imty  -0.03671
gfz2015jkdw  -0.32022
gfz2015jwgl  -0.04659
gfz2015jxbx  -0.56930
gfz2015jzcv   0.47712
gfz2015kakw   0.28178
gfz2015kcaa   0.18509
gfz2015kfsu  -0.21075
gfz2015kkqb   0.33560
gfz2015kkth   0.31203
gfz2015ksni  -0.07890
gfz2015lfud  -0.07752
gfz2015lhjq  -1.06100
gfz2015lhjy   0.57837
gfz2015ltii   0.04968
gfz2015lytv  -0.60350
gfz2015lzad  -0.55530
gfz2015mddr  -0.09368
gfz2015mhym   0.43246
gfz2015mpte  -0.36796
gfz2015nerz  -0.14596
gfz2015nuxz   0.15988
gfz2015nwug   0.16071
gfz2015ocdz   0.50608
gfz2015okmq  -0.10672
gfz2015oyfl  -0.10540
gfz2015poni  -0.63113
gfz2015puah   0.27566
gfz2015puqp   0.02800
gfz2015qnho  -0.08528
gfz2015qpvd   0.04817
gfz2015quzo   0.04266
gfz2015rgrg   0.20388
gfz2015rkbq   0.00000
gfz2015rkrg   0.03452
gfz2015rkzg   0.18349
gfz2015rxmg   0.41822
gfz2015saet   0.07455
gfz2015sfdd  -0.16506
gfz2015sfdy   0.34114
gfz2015sfeo   1.12860
gfz2015sfga  -0.26269
gfz2015sfhz  -0.09348
gfz2015sfiq  -1.42420
gfz2015sfko   0.14137
gfz2015sflf   0.20444
gfz2015sfln  -1.31920
gfz2015sfnb   0.09336
gfz2015sfno  -0.16971
gfz2015sfnv   0.65539
gfz2015sfoc   0.19046
gfz2015sfom  -0.30257
gfz2015sfoq   0.30047
gfz2015sfpj  -0.94781
gfz2015sfps   0.30142
gfz2015sfqo  -0.05825
gfz2015sfqr   0.52586
gfz2015sftu   0.12784
gfz2015sfuz   0.00533
gfz2015sfwf   0.24776
gfz2015sgad  -0.20815
gfz2015sgdn  -2.07050
gfz2015sghq   0.54540
gfz2015sgna   0.47542
gfz2015sgyd   0.94737
gfz2015shhu   0.41515
gfz2015shjn  -0.15666
gfz2015shlp  -0.41613
gfz2015shrg  -0.27337
gfz2015shsz  -0.02028
gfz2015sist  -0.39582
gfz2015sitn  -0.15156
gfz2015sjbx  -0.10514
gfz2015sjfi   0.77692
gfz2015sjgk  -0.03323
gfz2015sjjb   0.34417
gfz2015sjne   0.14454
gfz2015sjoj  -0.07662
gfz2015sjvu   0.06654
gfz2015sjwi  -0.53683
gfz2015skuk  -1.22930
gfz2015skxu   0.33427
gfz2015sldx   1.04270
gfz2015sljs   0.62299
gfz2015smym   0.46525
gfz2015snhn  -0.61112
gfz2015snsf  -0.43799
gfz2015snwh  -0.64954
gfz2015snyd   0.22946
gfz2015soat   0.47258
gfz2015soxc  -0.01410
gfz2015sqmy  -0.49220
gfz2015srat  -0.24201
gfz2015sryk  -0.48979
gfz2015sspn   0.25130
gfz2015stfy  -0.63112
gfz2015subz   0.20669
gfz2015svwm   0.08890
gfz2015sxmh   0.05858
gfz2015szcb  -0.19380
gfz2015taml   1.28760
gfz2015teyc  -0.01842
gfz2015teyn   0.20619
gfz2015tezd   0.27512
gfz2015tghj  -0.35492
gfz2015thwp   0.34217
gfz2015tixi  -0.74592
gfz2015tiyc   0.49050
gfz2015tkol   0.05671
gfz2015tlkf   0.09143
gfz2015tnjd  -0.21600
gfz2015tpra   0.59374
gfz2015tqff  -2.10620
