# Nsamples: 715  MAD:  0.473  mean:  0.000  variance:  1.181
gfz2010aerk   0.25633
gfz2010ahla   0.03756
gfz2010ahqi   0.10819
gfz2010bfzs  -0.09743
gfz2010bgth  -2.83830
gfz2010bhhq  -0.44627
gfz2010bifb  -2.12150
gfz2010bjeb  -0.10399
gfz2010bowy   0.26726
gfz2010boxo  -0.72308
gfz2010bxxs   0.15303
gfz2010caft   0.04332
gfz2010cbkg   0.04169
gfz2010civi  -0.48996
gfz2010cjqh  -0.35654
gfz2010ckzm  -0.83791
gfz2010cnwc   0.37308
gfz2010cqwl   0.72411
gfz2010dejx   0.46064
gfz2010dfru   0.03809
gfz2010diqn   0.45815
gfz2010eaoy  -0.53063
gfz2010eapk  -1.51990
gfz2010eapn  -2.23920
gfz2010eaqe   0.48893
gfz2010eaqx   0.15060
gfz2010eaqy   1.56370
gfz2010earq  -0.24542
gfz2010earu   1.05800
gfz2010easf  -1.09930
gfz2010easo   0.22627
gfz2010easu  -0.13205
gfz2010eato  -0.28140
gfz2010eaty  -0.10738
gfz2010eaul  -0.05945
gfz2010eavs  -0.16389
gfz2010eawb   2.04500
gfz2010eawu  -2.40420
gfz2010eaxa  -0.01442
gfz2010eaxn   0.16533
gfz2010eazu  -0.26083
gfz2010ebbd  -0.33262
gfz2010ebdl  -0.28363
gfz2010ebfx   0.17777
gfz2010ebhc   0.20379
gfz2010ebih  -0.09980
gfz2010ebin   4.00050
gfz2010ebjy  -0.06906
gfz2010ebkj  -1.05130
gfz2010ebla   0.27316
gfz2010ebll  -0.42572
gfz2010ebnn  -0.09225
gfz2010ebvm   0.43140
gfz2010ebvv  -0.06589
gfz2010ebwp  -0.08721
gfz2010ebzr   0.00000
gfz2010ecam  -0.52321
gfz2010ecbi   0.18390
gfz2010eccq  -0.34614
gfz2010ecfx   0.09942
gfz2010ecgh  -0.33445
gfz2010echc   0.07369
gfz2010ecps   0.25478
gfz2010ecua  -0.45079
gfz2010ecuv   0.55436
gfz2010ecvt  -0.47916
gfz2010eday  -0.26808
gfz2010edbz  -0.60218
gfz2010edcp  -1.03070
gfz2010edkp   0.89780
gfz2010edvf   0.21906
gfz2010edyi  -0.54764
gfz2010eevu   0.21684
gfz2010efsq  -0.02913
gfz2010egap  -1.09860
gfz2010eisx  -0.88666
gfz2010eixj  -0.51703
gfz2010ejjg   0.12300
gfz2010ekyc  -0.46948
gfz2010elhv   0.08718
gfz2010elin   2.17340
gfz2010eltf   0.09750
gfz2010elyc  -0.73291
gfz2010epbe  -0.48239
gfz2010epxj  -0.19290
gfz2010eqmu   1.56740
gfz2010erdi   0.34195
gfz2010erkn  -0.36967
gfz2010erom  -0.16759
gfz2010erum   6.71900
gfz2010eruy  -0.00640
gfz2010erwn  -0.28101
gfz2010erxb  -0.17133
gfz2010esid  -1.14880
gfz2010eujm  -0.56993
gfz2010excp  -0.58173
gfz2010exdd  -0.72795
gfz2010exel  -0.39824
gfz2010exhd  -0.53359
gfz2010exhw  -0.21322
gfz2010exno  -0.66458
gfz2010ezck   0.27226
gfz2010fcax  -0.13712
gfz2010fczt  -0.17664
gfz2010fedq   0.82483
gfz2010ffhq  -0.13812
gfz2010ffjb   0.86294
gfz2010fihj   4.14420
gfz2010fjal   4.52310
gfz2010fjmu  -1.53260
gfz2010fkia  -2.10000
gfz2010flha  -0.38640
gfz2010fpqy   0.39900
gfz2010fqtj  -0.22843
gfz2010ftlm   0.22955
gfz2010fwlb  -0.33630
gfz2010fync  -0.17147
gfz2010gcrl  -0.44180
gfz2010gcrp  -1.82760
gfz2010gdld  -0.38368
gfz2010gjia   0.94865
gfz2010glxl  -0.39046
gfz2010grjd  -0.39267
gfz2010gtzt  -0.36091
gfz2010gyqp  -0.39867
gfz2010gzxr  -0.21509
gfz2010hbka  -0.23251
gfz2010hcio  -0.53242
gfz2010hevz  -1.03900
gfz2010hjoc  -1.34640
gfz2010hndk  -0.37481
gfz2010homc  -0.75823
gfz2010hxgv  -1.15520
gfz2010hykt  -0.54239
gfz2010irvf  -0.49366
gfz2010iull  -0.15734
gfz2010izzj   0.64550
gfz2010jwpy   1.67460
gfz2010jxbm   1.02640
gfz2010kmsv  -0.24111
gfz2010lczp  -1.37120
gfz2010lepw  -0.79121
gfz2010liqs  -0.88661
gfz2010lkcf  -0.30458
gfz2010lluj  -1.22280
gfz2010lrlk  -1.06560
gfz2010lwuq   0.27800
gfz2010mcrx  -0.20902
gfz2010mdpq  -0.41345
gfz2010miqn  -1.10990
gfz2010mkuu  -0.20752
gfz2010mlta   1.76490
gfz2010mncc  -0.18293
gfz2010mnsz   0.11077
gfz2010msjj  -0.00000
gfz2010mwdq  -0.65293
gfz2010mzjr  -0.62931
gfz2010rkfp  -0.67303
gfz2010rqwj   0.18884
gfz2010vhuj  -0.19683
gfz2010wioh  -0.36124
gfz2010wnty   0.03622
gfz2010wofs  -0.50503
gfz2010xbdv  -0.39984
gfz2010xbgs   0.39321
gfz2010xche   0.20136
gfz2010xden  -0.29776
gfz2010xgfc   0.19795
gfz2010xgzw  -0.43474
gfz2010xjsj   0.09185
gfz2010ymfy  -0.06426
gfz2010yosr   0.18066
gfz2010yqqb   0.66940
gfz2011aatr   0.34442
gfz2011adjs  -1.02940
gfz2011ahfw  -0.55702
gfz2011alip   0.16098
gfz2011bhha   1.26670
gfz2011bpkd  -1.57000
gfz2011cfae  -0.95060
gfz2011csju   2.74590
gfz2011ctbn   4.73920
gfz2011cykd  -0.06729
gfz2011cyuk  -1.02660
gfz2011dbev  -0.14668
gfz2011dbig  -0.40727
gfz2011dbon   0.13237
gfz2011dcqb   0.75655
gfz2011dpqx  -0.56524
gfz2011eayc  -0.14627
gfz2011eazf  -0.28724
gfz2011ecaj   0.07602
gfz2011enva  -0.16136
gfz2011eocc  -0.10410
gfz2011etje  -0.25241
gfz2011fgvr  -1.09120
gfz2011fhag  -0.64660
gfz2011fhbm  -0.50191
gfz2011fhur   0.75874
gfz2011flgj   0.05829
gfz2011fnsw  -0.44090
gfz2011gbmx   0.25017
gfz2011gkzt  -0.27573
gfz2011hbex  -0.20963
gfz2011hebt   0.27739
gfz2011hfkj  -1.19440
gfz2011hlqw  -0.14247
gfz2011hlsa  -0.29540
gfz2011hlth  -0.18170
gfz2011hpqp  -0.24237
gfz2011ieie   0.28791
gfz2011iwte  -0.79599
gfz2011ixai  -0.15609
gfz2011izqa  -0.28560
gfz2011jmbn   0.11619
gfz2011jplh  -0.25203
gfz2011knbi   1.20080
gfz2011knoo  -0.48563
gfz2011kqwo   2.21220
gfz2011kxzp   0.11176
gfz2011lcxq  -0.05550
gfz2011lczg  -0.02557
gfz2011lgsg  -0.12012
gfz2011lhls   0.38532
gfz2011lzwj  -0.06185
gfz2011mdie  -0.00221
gfz2011mpme  -0.39068
gfz2011mprq   0.00000
gfz2011nrwc  -0.38758
gfz2011ntkh   0.30737
gfz2011nudm  -0.53543
gfz2011ohcy   0.27223
gfz2011oiqe  -0.58526
gfz2011oiwk  -0.65448
gfz2011olkk  -0.88141
gfz2011owvz  -0.13016
gfz2011phms   3.70010
gfz2011pntf  -0.06451
gfz2011ptus  -0.76905
gfz2011qvae   0.49458
gfz2011qyms  -0.30501
gfz2011rabm  -0.11492
gfz2011rewa  -0.40569
gfz2011rsrh  -0.09130
gfz2011sagt  -0.03189
gfz2011shqm   0.25976
gfz2011svix  -0.64984
gfz2011tbas   0.63728
gfz2011tjue   0.38622
gfz2011toub  -0.66781
gfz2011tuea   0.20260
gfz2011twov   0.56908
gfz2011ueni   0.07223
gfz2011uepx  -0.22994
gfz2011ugzz  -0.44200
gfz2011ujze   0.19773
gfz2011ukmp  -0.27463
gfz2011uphh   0.33910
gfz2011urxy  -0.49619
gfz2011urzu   0.30031
gfz2011vhfi   0.03559
gfz2011vnza  -0.12374
gfz2011vxns  -0.20180
gfz2011wfja  -0.23092
gfz2011wjul   0.20810
gfz2011wvzb  -0.20936
gfz2011wwjs   0.12729
gfz2011wxfs  -0.15747
gfz2011wxtk  -0.22890
gfz2011xaan  -0.44310
gfz2011xesx  -0.42558
gfz2011xqru   3.63830
gfz2011xyxj   0.46842
gfz2011zjap   0.09483
gfz2011zqhh  -0.93695
gfz2012ajtq  -0.07633
gfz2012attr   0.44603
gfz2012bfah  -0.39368
gfz2012bpkx  -0.07018
gfz2012bszs   0.00306
gfz2012byad  -0.42517
gfz2012cgvr   0.28006
gfz2012cnod  -0.64118
gfz2012covm  -0.26672
gfz2012cxdn  -0.22005
gfz2012czlw   0.91870
gfz2012dinb  -0.17456
gfz2012dves  -0.64441
gfz2012dyyh  -0.15954
gfz2012ekda  -0.25543
gfz2012emjg   0.39340
gfz2012enno  -0.04842
gfz2012ewgo   0.04005
gfz2012fwfo  -0.16397
gfz2012fzfa   0.32974
gfz2012gkvr   0.06170
gfz2012glss   0.05639
gfz2012gomm  -0.61717
gfz2012gwqb  -0.21927
gfz2012hnul  -0.96030
gfz2012hwyo   0.34663
gfz2012iamr  -0.63813
gfz2012ilvn   0.45505
gfz2012imay  -0.24972
gfz2012intn   0.78043
gfz2012iyrb  -2.15070
gfz2012jgvj  -0.91710
gfz2012jshk   1.13520
gfz2012jupx  -0.24625
gfz2012kbjb   0.85840
gfz2012kkup  -0.48947
gfz2012klhx  -0.38170
gfz2012kuct  -0.02705
gfz2012kudo  -0.91563
gfz2012kvzv  -0.18660
gfz2012kwgo  -0.28369
gfz2012lczo   0.20314
gfz2012ldxg  -0.60547
gfz2012llug  -1.37920
gfz2012minr  -0.31695
gfz2012mupa   0.95730
gfz2012mvwr  -0.28108
gfz2012mwij  -0.13419
gfz2012nsbz  -0.35706
gfz2012nutf  -0.10099
gfz2012oazn  -0.81321
gfz2012oedb  -0.11044
gfz2012ostk  -0.41626
gfz2012peex  -1.02960
gfz2012pgcl  -0.26821
gfz2012pkel   0.43470
gfz2012ronz  -0.71337
gfz2012royy   1.36100
gfz2012rwov  -0.57496
gfz2012rypu  -0.59181
gfz2012sphd   0.40563
gfz2012svpr  -0.22082
gfz2012syvl  -0.61721
gfz2012tazz   0.22855
gfz2012teic  -0.11868
gfz2012tmop  -0.07757
gfz2012ttoa  -0.29946
gfz2012tvmv  -0.13230
gfz2012uafg  -0.12405
gfz2012uaqj  -0.52981
gfz2012uciv  -0.08517
gfz2012uhup   0.74731
gfz2012uvqf   0.07118
gfz2012vpza  -0.94170
gfz2012vrgb  -0.05251
gfz2012whku   0.24430
gfz2012wklq  -0.50365
gfz2012wmsg   0.02002
gfz2012wxlg  -0.15498
gfz2012wypz  -0.29751
gfz2012xbjq  -0.00000
gfz2012zfag  -0.47177
gfz2013aayj  -0.52259
gfz2013axoj  -0.74075
gfz2013bokp  -0.68178
gfz2013cajk   0.55127
gfz2013cbsm   0.87282
gfz2013ccnr  -1.41570
gfz2013cefm   1.03730
gfz2013cwpn   0.26584
gfz2013dkly   1.80460
gfz2013dofo  -0.59123
gfz2013dojq   0.19088
gfz2013drpk  -0.25142
gfz2013drxz  -0.39207
gfz2013dsog   2.23790
gfz2013dspt  -0.75184
gfz2013dsrk  -0.63182
gfz2013dvyh  -0.14911
gfz2013ewbo  -0.38801
gfz2013fiud  -0.23035
gfz2013gock   0.23087
gfz2013iayx  -0.90789
gfz2013ifpq   0.09102
gfz2013ijsr   0.14377
gfz2013ikgo  -0.59433
gfz2013ippu   0.31891
gfz2013jesk  -0.30477
gfz2013jgij   0.03753
gfz2013jgip  -0.02747
gfz2013jkut   0.01938
gfz2013jokw  -0.28808
gfz2013json   3.26270
gfz2013jusj   1.22360
gfz2013jwvc   0.62199
gfz2013kccc   0.21121
gfz2013kdeo   0.19294
gfz2013kheb  -1.05590
gfz2013khli  -0.27913
gfz2013ldpc  -0.23710
gfz2013ldqb   0.03406
gfz2013lgbb  -1.86790
gfz2013lixa   0.10943
gfz2013lsob   0.01743
gfz2013lyko   0.06493
gfz2013mqmv  -0.89288
gfz2013ncjp  -0.44781
gfz2013ndin   0.15236
gfz2013neuc  -0.37215
gfz2013nixj   0.08082
gfz2013nkgj  -0.72646
gfz2013nmac   0.18030
gfz2013nqgw  -0.16098
gfz2013nuvi  -0.68107
gfz2013nwdi  -0.08879
gfz2013ogde  -0.80711
gfz2013orzn  -0.39843
gfz2013ozrf  -0.40248
gfz2013ozrp  -0.30393
gfz2013pcos   0.47325
gfz2013pfbx  -0.40261
gfz2013pkbs   0.01582
gfz2013qmer  -0.29730
gfz2013qzdq  -0.00457
gfz2013sart  -0.17139
gfz2013sdus  -1.00520
gfz2013sfto  -0.06591
gfz2013shzy   0.10226
gfz2013skkm  -0.06834
gfz2013snbr   1.85560
gfz2013snyf  -0.11088
gfz2013suvn   0.54795
gfz2013svci   0.23929
gfz2013sxbw  -0.01579
gfz2013toxf  -0.98815
gfz2013tusd  -0.04129
gfz2013tvmw  -0.32667
gfz2013txij   1.89330
gfz2013uauo   1.43010
gfz2013ufxm   1.01680
gfz2013vfyw   0.89663
gfz2013vfzp   4.22510
gfz2013viul   0.19293
gfz2013vjjc  -0.95733
gfz2013vrmy  -0.31826
gfz2013wjmm  -0.55305
gfz2013wkyk  -1.05260
gfz2013wmfd  -0.60380
gfz2013wnpr   0.34163
gfz2013xsdt   0.14687
gfz2013xxwv  -0.20048
gfz2013xxxq  -0.12353
gfz2013xyzb   0.39590
gfz2013yctg  -0.62565
gfz2013yqkv   0.07200
gfz2013zmtb   0.12395
gfz2014afmx   0.55702
gfz2014ajlk  -1.83990
gfz2014algk   0.13388
gfz2014amsb  -0.20461
gfz2014ande   0.55152
gfz2014bagd  -0.91801
gfz2014bezu   0.01137
gfz2014bfqo  -0.17661
gfz2014bwue   0.01120
gfz2014bzxy  -0.13105
gfz2014chdv  -0.18376
gfz2014cmwb   0.00860
gfz2014ctot   0.24718
gfz2014cvxx  -0.09600
gfz2014czqi  -0.36528
gfz2014czua  -0.47270
gfz2014dddc   0.35348
gfz2014dhxt   0.11102
gfz2014disp  -0.88059
gfz2014duqn   0.19140
gfz2014ehsf  -0.43653
gfz2014ekcr   0.04625
gfz2014ekdn   0.13595
gfz2014emrg   0.31163
gfz2014enhi  -0.16801
gfz2014ettc  -0.45430
gfz2014femz  -0.22198
gfz2014ffdc  -0.56635
gfz2014fgvi  -0.20551
gfz2014fgvr   0.46115
gfz2014fgxt   0.38328
gfz2014fhdw   0.12994
gfz2014fhla   0.68840
gfz2014fhlh  -0.94139
gfz2014fhrq  -0.23362
gfz2014fhwx   0.19233
gfz2014fimn  -0.58264
gfz2014fjzd  -0.24943
gfz2014fkmr   1.27770
gfz2014frdz  -0.48460
gfz2014frel  -1.04630
gfz2014frez  -0.35670
gfz2014frwh  -0.10486
gfz2014ftka  -0.61106
gfz2014ftpw  -0.27509
gfz2014ftrk   1.19290
gfz2014furx  -0.76395
gfz2014fusc  -0.08578
gfz2014fusj  -0.04635
gfz2014fuub   0.12152
gfz2014fval   0.00000
gfz2014fvrg  -0.21271
gfz2014gbcz  -0.86300
gfz2014gbdq   0.43288
gfz2014ghpe  -0.15619
gfz2014gkgf  -0.45118
gfz2014gkgs   1.02140
gfz2014gkhy   0.44649
gfz2014gkjl   0.69782
gfz2014gkjt  -0.26924
gfz2014gkmm  -0.02542
gfz2014gkob  -0.02109
gfz2014gkpj   0.36233
gfz2014gkqf  -0.10860
gfz2014gkqu  -1.26810
gfz2014gksu   0.27367
gfz2014gktq  -0.00000
gfz2014gkut  -0.42144
gfz2014gkxm   0.84716
gfz2014glcu  -0.32404
gfz2014gltx  -0.77943
gfz2014gmci  -0.24950
gfz2014gmge  -0.33914
gfz2014gmhr  -0.90986
gfz2014gmip   0.22877
gfz2014gmku   0.12765
gfz2014gmnb   0.39655
gfz2014gmnw   0.46664
gfz2014gmor   0.39387
gfz2014gmtb  -0.04215
gfz2014gngg  -0.41764
gfz2014gnnt  -2.85890
gfz2014gnxb   9.25490
gfz2014goba   0.14060
gfz2014goqw   0.01910
gfz2014gori   0.18485
gfz2014gpya  -0.74097
gfz2014gqer  -0.53884
gfz2014gqve  -0.33963
gfz2014gsqs   1.00960
gfz2014gtef   2.42290
gfz2014gtlu  -0.31010
gfz2014gull  -1.93310
gfz2014gulp  -0.61398
gfz2014gvrd  -0.75074
gfz2014gwab  -0.22327
gfz2014gxkh   1.95790
gfz2014gxxo   1.00230
gfz2014hasj   1.07790
gfz2014hbqb  -0.49903
gfz2014hcmj  -0.05817
gfz2014heum  -0.45678
gfz2014hfhl  -0.15399
gfz2014hgqo   0.64826
gfz2014hjgr   0.12270
gfz2014hkcf  -0.16412
gfz2014hocg   0.30455
gfz2014hqxs   0.11480
gfz2014hscz  -0.58176
gfz2014huaj   0.49325
gfz2014hyal  -0.88570
gfz2014hzgn   1.88740
gfz2014ifue  -0.55804
gfz2014ilwu  -0.29725
gfz2014inbj   0.22222
gfz2014iobd   0.01764
gfz2014irci   0.04290
gfz2014itgh  -0.36671
gfz2014itpj  -0.36041
gfz2014jcjt  -0.30450
gfz2014jfis  -0.87700
gfz2014jjhc  -0.16806
gfz2014jjln  -0.19106
gfz2014jnyv  -0.14859
gfz2014jomw   0.33014
gfz2014jpep  -0.35156
gfz2014jwmh   0.37650
gfz2014kara  -1.27940
gfz2014kbuk   0.43363
gfz2014kbwm   3.47240
gfz2014kkhh  -0.40914
gfz2014kndc   0.62420
gfz2014knks   0.15651
gfz2014kyan   0.34549
gfz2014lddn  -0.63446
gfz2014ldhu  -0.26995
gfz2014lefs  -0.05774
gfz2014lgqn   0.01592
gfz2014lhqn  -0.06556
gfz2014lkyf  -0.00000
gfz2014lnqy  -1.51920
gfz2014lpim  -0.21284
gfz2014lrzx   0.13986
gfz2014lxnc  -0.51054
gfz2014macx  -0.42414
gfz2014madw  -0.46009
gfz2014mawp   0.68775
gfz2014mcno   0.03901
gfz2014mcse  -0.67104
gfz2014mrbm   0.72992
gfz2014mxkr  -0.24585
gfz2014nhyb   0.18600
gfz2014niqj   0.57677
gfz2014nnxd  -0.19217
gfz2014nowp  -0.57068
gfz2014npeo   0.09305
gfz2014nphm   0.16795
gfz2014nqfm  -0.55723
gfz2014nrie  -0.18755
gfz2014nyko  -0.36496
gfz2014nylm  -0.26533
gfz2014oinz   0.13789
gfz2014owxc   0.19459
gfz2014ppzf   0.14513
gfz2014pvch  -0.16232
gfz2014pzml   0.76145
gfz2014pzni  -0.52841
gfz2014qlvc   0.35772
gfz2014qlxd   0.04949
gfz2014qngj  -1.08350
gfz2014qqhm  -0.33719
gfz2014ssvz  -0.27370
gfz2014tqdo  -0.23557
gfz2014watn   0.30839
gfz2014ynhc   1.12580
gfz2015berb   0.86896
gfz2015chhn   0.15164
gfz2015cyjd   0.58586
gfz2015fsjj   0.20041
gfz2015gckd   0.07629
gfz2015hdbn   2.25330
gfz2015iwqk  -0.01626
gfz2015jmlf  -0.10470
gfz2015jpap   3.79230
gfz2015jwgl  -0.50124
gfz2015jxbx  -0.43508
gfz2015kakw   0.24034
gfz2015kcaa  -0.11410
gfz2015kfsu  -0.42341
gfz2015kkqb   0.52273
gfz2015kkth  -0.13198
gfz2015kphk   0.00282
gfz2015kquq  -1.13300
gfz2015ksni  -0.30015
gfz2015lcma  -0.31701
gfz2015lhjy   0.30207
gfz2015ltii   0.10990
gfz2015lytv  -0.58379
gfz2015mbgr  -0.12818
gfz2015mddr   0.12287
gfz2015mpte  -0.32334
gfz2015ntpk  -0.72976
gfz2015nuxz   0.58966
gfz2015nwug  -0.30383
gfz2015okmq  -0.00000
gfz2015oyfl  -0.07070
gfz2015poni   0.40432
gfz2015qnho  -0.29358
gfz2015quzo  -0.22381
gfz2015rkzg  -0.07458
gfz2015saet   0.56448
gfz2015sfdd   0.24218
gfz2015sfdy  -1.15850
gfz2015sfeo   1.08180
gfz2015sffn  -0.24289
gfz2015sfhz   0.32821
gfz2015sfiq   0.58789
gfz2015sfkh   1.05330
gfz2015sflf  -0.39035
gfz2015sfnb  -0.91161
gfz2015sfno  -0.82314
gfz2015sfnv  -0.27448
gfz2015sfoc   0.67018
gfz2015sfoq  -0.28650
gfz2015sfpj   1.07350
gfz2015sfqo   0.18536
gfz2015sfqr  -0.17377
gfz2015sftu   0.90100
gfz2015sfwf  -1.59180
gfz2015sfxn   0.44609
gfz2015sfzm   0.36742
gfz2015sgad  -0.47240
gfz2015sggc   1.22840
gfz2015sghq   0.45112
gfz2015sgyd   0.51490
gfz2015shjn   0.46280
gfz2015sjbx   0.04352
gfz2015sjgk   1.21340
gfz2015sjjb   0.45931
gfz2015sjne   0.07805
gfz2015sjoj  -0.07257
gfz2015sjvu  -0.28520
gfz2015skpv  -0.40717
gfz2015skxu  -0.71346
gfz2015sldx   0.26292
gfz2015sljs  -0.35369
gfz2015smym   0.49847
gfz2015snsf   0.09391
gfz2015snwh  -0.83986
gfz2015snyd   0.60707
gfz2015soat   0.54345
gfz2015soxc  15.80500
gfz2015stfy   0.56620
gfz2015svwm  -0.57709
gfz2015sxgd  -0.43309
gfz2015szcb   0.31277
gfz2015taml   0.82009
gfz2015tdbb   0.22366
gfz2015tezd   0.41599
gfz2015tiyc  -0.08099
gfz2015tkol  -0.04003
gfz2015tlkf  -0.06258
gfz2015tnjd  -0.05023
gfz2015tqff  -0.13976
