# Nsamples: 45  MAD:  0.449  mean:  0.365  variance:  1.051
gfz2010ahqi  -0.90206
gfz2010bjeb   0.96235
gfz2010bxxs   0.41592
gfz2010ebhc   0.00000
gfz2010fync   1.46310
gfz2010grjd  -1.12380
gfz2010iull   0.08532
gfz2010mkuu  -0.31399
gfz2010usho   1.03400
gfz2011aatr   0.40038
gfz2011dpqx   0.47345
gfz2011enva   0.10326
gfz2011gkzt  -2.95730
gfz2011rewa   0.27948
gfz2011toub   0.55222
gfz2011wxfs  -0.15805
gfz2011xyxj   0.31719
gfz2012enno  -0.09958
gfz2012jlox   0.34380
gfz2012ldxg   0.20810
gfz2012ldzj   0.42500
gfz2012vrgb   0.14471
gfz2012wypz   0.20837
gfz2013ccnr   0.66549
gfz2013drxz   0.37399
gfz2013jkut   0.67059
gfz2013nkgj  -2.04630
gfz2013pfbx  -0.10237
gfz2013xsdt  -0.07626
gfz2014bwue   0.47226
gfz2014fhla   2.31550
gfz2014ftka   2.38780
gfz2014gkqf   0.51577
gfz2014gmge   2.93050
gfz2014gmnb  -0.08102
gfz2014gull   0.62111
gfz2014hasj   0.45123
gfz2014lyhk   0.31814
gfz2014ssvz   0.51799
gfz2015lhjy   0.15683
gfz2015mpte   0.23764
gfz2015sfdy   0.28191
gfz2015sfno   2.93250
gfz2015smym  -0.22879
gfz2015tiyc   1.25080
