# Nsamples: 12  MAD:  1.051  mean:  1.066  variance:  1.423
gfz2010iull  -0.49601
gfz2010nmpc   0.61136
gfz2011aatr   0.17323
gfz2011enva   3.88580
gfz2011lcxq   1.87880
gfz2011lzwj   0.94664
gfz2011rewa   2.36670
gfz2011wxfs   0.34408
gfz2012jlox   0.16511
gfz2012kudo   0.98424
gfz2012ldxg  -0.02454
gfz2012wypz   1.95270
