# Nsamples: 202  MAD:  0.805  mean: -0.154  variance:  1.103
gfz2010bfzs  -0.35801
gfz2010bifb  -2.39750
gfz2010bjeb  -0.74558
gfz2010bxxs  -1.57860
gfz2010czps   0.19563
gfz2010dejx  -0.08747
gfz2010eaoy   0.61008
gfz2010eapk  -0.11511
gfz2010eapn  -2.92660
gfz2010eaqe   0.02010
gfz2010eaqy  -0.11456
gfz2010earu  -0.59202
gfz2010easf   0.00000
gfz2010eask  -4.74390
gfz2010easo   0.63572
gfz2010eato  -0.34803
gfz2010eatt  -0.54799
gfz2010eaty  -0.08398
gfz2010eaul  -0.20036
gfz2010eavs   1.34990
gfz2010eawb  -0.24145
gfz2010eawu   1.90570
gfz2010eaya   0.45904
gfz2010eaze   0.38002
gfz2010eazu   2.17770
gfz2010ebdl   0.90000
gfz2010ebfa   0.93913
gfz2010ebfx  -0.39408
gfz2010ebhc  -0.93799
gfz2010ebjy   0.52363
gfz2010ebkj  -0.31658
gfz2010ebkx  -1.16240
gfz2010ebla  -0.59991
gfz2010ebll  -0.08035
gfz2010ebnn   0.70718
gfz2010ebvm   0.56185
gfz2010ebvv  -0.18820
gfz2010ebwp   0.94996
gfz2010ebzr  -0.03117
gfz2010echc   0.43618
gfz2010ecps   0.80532
gfz2010ecro  -1.86810
gfz2010ecua   0.27192
gfz2010eday   0.63573
gfz2010edvf  -0.02207
gfz2010edyi   1.92800
gfz2010eedz  -0.33207
gfz2010eegn  -0.61666
gfz2010eeij  -0.95671
gfz2010eern   0.29622
gfz2010eevu   0.33056
gfz2010efkc  -0.81483
gfz2010egsy   0.64912
gfz2010ehft   0.34969
gfz2010ehnm  -0.44944
gfz2010eisx   0.10083
gfz2010eixj  -0.66634
gfz2010ejjg   0.78930
gfz2010ekoe   0.50702
gfz2010ekyc   0.53227
gfz2010elhv   0.94649
gfz2010eltf  -0.07832
gfz2010elyc   0.57518
gfz2010erdi   2.17790
gfz2010erkn  -0.73751
gfz2010erom   0.81384
gfz2010evco  -1.88280
gfz2010evgf   1.48790
gfz2010excp  -0.00822
gfz2010exdd  -0.02419
gfz2010exdl  -0.83906
gfz2010exel  -0.33650
gfz2010exmc   0.30629
gfz2010exno  -0.53483
gfz2010ezck   0.48134
gfz2010fcax   0.30888
gfz2010ffui   0.11081
gfz2010figq   0.10415
gfz2010fjal  -0.72875
gfz2010fpqy  -1.28630
gfz2010fync  -1.39280
gfz2010gcrl   2.77180
gfz2010gdld  -0.36246
gfz2010glxl   0.03002
gfz2010grjd  -0.40003
gfz2010hxgv   0.33620
gfz2010iobp   0.69441
gfz2010iull  -0.24930
gfz2010jxbm  -0.12728
gfz2010nnny  -1.21550
gfz2010nqwo   0.15056
gfz2010rqwj  -0.15717
gfz2010skve   1.66930
gfz2010txjs  -1.01040
gfz2010upfb   0.46795
gfz2011aatr  -0.83025
gfz2011adjs   0.24873
gfz2011bhha   1.16980
gfz2011cykd   0.38894
gfz2011dbig   0.76080
gfz2011dcqb   0.41432
gfz2011dkyi   0.60641
gfz2011dpqx  -2.32640
gfz2011enva  -0.17606
gfz2011gbmx   0.00000
gfz2011hfkj  -0.13655
gfz2011hlsa  -0.48629
gfz2011hpgx  -0.85726
gfz2011hpqp   0.00000
gfz2011ieie  -0.10528
gfz2011iwte   0.70710
gfz2011jplh  -0.52431
gfz2011kqwo   0.14799
gfz2011kxzp  -0.33437
gfz2011lcxq  -1.47120
gfz2011lzwj  -1.00340
gfz2011mdie  -1.78050
gfz2011mjom  -1.59290
gfz2011mpme   0.54968
gfz2011nrwc  -0.78737
gfz2011nudm  -0.57972
gfz2011owvz  -0.95672
gfz2011qvae  -0.61167
gfz2011rewa  -0.81476
gfz2011sagt   1.43720
gfz2011toub  -2.50100
gfz2011uphh  -0.91430
gfz2011urzu   1.05040
gfz2011vxns  -0.62793
gfz2011wwjs  -0.57045
gfz2011wxfs   0.19393
gfz2011zklv  -1.18670
gfz2012aqgp  -0.30034
gfz2012bpkx  -0.30657
gfz2012enno  -0.61909
gfz2012fwfo   0.29133
gfz2012fzfa  -0.05066
gfz2012gocc  -0.43253
gfz2012gomm  -0.87065
gfz2012hnul  -0.64924
gfz2012jlox  -1.36300
gfz2012kkup  -0.82211
gfz2012klhx  -1.01340
gfz2012kudo  -0.32990
gfz2012sphd  -0.48587
gfz2012ttoa  -2.43520
gfz2012uafg   0.67604
gfz2012wvfl  -0.12339
gfz2012wxlg  -0.34085
gfz2012wxnu   0.31092
gfz2012wypz  -0.84682
gfz2013mqmv  -0.82213
gfz2013nwdi  -1.21440
gfz2013pfbx  -0.83551
gfz2013svci  -0.51606
gfz2013toxf  -1.00390
gfz2013vfzp   1.30930
gfz2013vjjc  -0.68278
gfz2013wjmm  -0.44093
gfz2013xsdt  -2.08250
gfz2013xxxq  -0.76417
gfz2013yqkv  -1.01770
gfz2014afmx  -0.67557
gfz2014ande  -0.63007
gfz2014bwue   0.09499
gfz2014czua  -0.66416
gfz2014ehsf   0.52797
gfz2014ekcr  -0.20572
gfz2014enhi   0.97998
gfz2014femz  -0.38936
gfz2014fgvi  -0.30356
gfz2014fhla   0.03198
gfz2014frdz   2.39360
gfz2014ftka  -0.13140
gfz2014furx  -1.04720
gfz2014fusj   4.94660
gfz2014fvgh  -0.46571
gfz2014fvrg  -0.43780
gfz2014gbcz   3.27110
gfz2014gkgf  -0.75150
gfz2014gkgs  -1.38090
gfz2014gkhy  -0.54291
gfz2014gkjl   0.53874
gfz2014gkqf  -0.68067
gfz2014gmge  -0.23299
gfz2014gmhr  -0.23005
gfz2014gmnb  -0.16191
gfz2014gmnw  -0.52673
gfz2014gmuw   0.32072
gfz2014goba   0.34869
gfz2014gori   0.62618
gfz2014gufl   2.66500
gfz2014gull  -1.07900
gfz2014hasj  -0.07411
gfz2014hgqo  -0.19731
gfz2014hhwx  -0.18065
gfz2014jwmh   0.23920
gfz2014nrie  -0.78851
gfz2014qngj   0.05269
gfz2014szzf  -0.34282
gfz2015chhn  -0.80157
gfz2015cyjd  -1.51890
