# Nsamples: 45  MAD:  0.378  mean: -0.287  variance:  0.341
gfz2010bxxs  -0.66505
gfz2010cqwl  -0.29184
gfz2010grjd   0.07547
gfz2010nmpc  -0.79250
gfz2010usho   0.13249
gfz2011aatr  -0.69579
gfz2011enva  -0.81449
gfz2011hlqw  -0.21048
gfz2011hlsa  -0.54106
gfz2011lcxq  -0.40621
gfz2011lzwj  -1.07260
gfz2011rewa  -0.31185
gfz2011toub  -1.43490
gfz2011wxfs  -1.01480
gfz2012enno  -0.30153
gfz2012jlox  -0.52428
gfz2012kkup  -0.48081
gfz2012kudo  -0.56698
gfz2012ldxg   0.29921
gfz2012ttoa  -0.03730
gfz2012wypz  -0.43581
gfz2013ccnr   0.99326
gfz2013drxz  -0.20640
gfz2013jkut   0.20328
gfz2013kdeo   0.78087
gfz2013pfbx  -0.46024
gfz2014ande  -1.99150
gfz2014bwue  -1.10580
gfz2014frdz   0.32026
gfz2014ftka   0.88650
gfz2014gkqf  -0.29533
gfz2014gmge   1.02470
gfz2014gmnb  -0.39706
gfz2014gmnw  -0.54501
gfz2014goba  -0.35371
gfz2014gull   0.45810
gfz2014hasj   0.08997
gfz2014jpep  -0.28808
gfz2014lgqn  -0.33876
gfz2014lxnc  -0.30552
gfz2014nqfm  -0.49198
gfz2014qqhm  -0.14836
gfz2014ssvz  -0.01428
gfz2015mpte  -0.41046
gfz2015taml  -0.21298
