# Nsamples: 31  MAD:  0.323  mean: -0.519  variance:  0.353
gfz2010bxxs  -0.33762
gfz2010grjd  -2.97590
gfz2010iull  -0.69973
gfz2010nmpc  -1.04720
gfz2011aatr  -0.55443
gfz2011enva  -0.55986
gfz2011hlqw  -0.73955
gfz2011hlsa  -0.59749
gfz2011lcxq  -0.16014
gfz2011rewa  -0.15298
gfz2011toub  -1.04970
gfz2012enno  -0.24319
gfz2012jlox  -0.62286
gfz2012kkup  -0.68611
gfz2012klhx  -0.62269
gfz2012kudo  -0.58362
gfz2012ldxg   0.21742
gfz2012ttoa   0.55879
gfz2012wypz  -0.35598
gfz2013jkut  -0.20218
gfz2014bwue  -0.80350
gfz2014ftka   0.47902
gfz2014gkqf  -0.53591
gfz2014gmge  -0.43546
gfz2014gmnb  -0.82791
gfz2014goba  -0.42434
gfz2014hasj  -0.60695
gfz2014nqfm  -0.33651
gfz2014qqhm  -1.06460
gfz2014ssvz  -0.18951
gfz2015mpte   0.07446
