# Nsamples: 84  MAD:  0.898  mean:  0.092  variance:  1.549
gfz2010eaoy  -0.42146
gfz2010eapk  -0.64687
gfz2010eapn   1.02280
gfz2010eaqx   0.10457
gfz2010eaqy   1.32450
gfz2010earu   0.60012
gfz2010eask  -1.14040
gfz2010easo  -0.13362
gfz2010easu   0.89972
gfz2010eato  -0.56768
gfz2010eaul  -0.05224
gfz2010eavs  -0.23019
gfz2010eawb   2.74630
gfz2010eawu  -0.88163
gfz2010eaxa  -0.50323
gfz2010eazu   2.16740
gfz2010ebhc  -0.71624
gfz2010ebin  -0.50007
gfz2010ebkj   0.75285
gfz2010ebnn  -0.59260
gfz2010ebvm   0.41085
gfz2010ebzr  -0.01046
gfz2010ecua  -0.07697
gfz2010ekyc  -0.07158
gfz2010elyc  -1.44720
gfz2010excp   0.18535
gfz2010exdd   1.61140
gfz2010exdl  -0.06574
gfz2010exno  -0.36960
gfz2010exsg   1.32650
gfz2010ezck  -0.23049
gfz2010fedq   1.41530
gfz2010ffhq  -0.66330
gfz2010fync  -0.43467
gfz2010homc   1.80960
gfz2010iobp   0.58385
gfz2010iull   0.43853
gfz2010moyw   0.26838
gfz2010nqwo  -0.39340
gfz2010rqwj   0.69440
gfz2010upfb  -3.36810
gfz2010utcg   0.33077
gfz2011aatr  -1.05330
gfz2011adjs  -1.22530
gfz2011cykd  -2.74090
gfz2011dcqb   1.67270
gfz2011dpqx  -1.65110
gfz2011enva   3.54990
gfz2011gkzt  -0.11686
gfz2011hlsa  -0.16388
gfz2011jplh   0.10907
gfz2011kqwo   2.99370
gfz2011kxzp   0.08977
gfz2011lzwj  -0.25512
gfz2011mdie  -0.60676
gfz2011nudm  -1.37670
gfz2011rewa  -1.23810
gfz2011tkfp  -0.17131
gfz2012bpkx  -0.33223
gfz2012fzfa   0.24650
gfz2012gwqb  -1.36370
gfz2012jlox  -1.21610
gfz2012ldxg  -1.71150
gfz2012wklq   1.39760
gfz2012wypz  -1.05130
gfz2013ccnr   2.26830
gfz2013drxz  -0.51313
gfz2013nwdi   0.42902
gfz2013pfeb  -0.81001
gfz2013qmer  -0.70434
gfz2013svci   0.73022
gfz2014fgvi   0.45585
gfz2014fhla   2.69160
gfz2014gkgf   3.79960
gfz2014gmhr   0.05393
gfz2014gmip  -1.05170
gfz2014ssvz   0.18640
gfz2015berb  -0.07442
gfz2015chhn  -0.92287
gfz2015cyjd   0.18601
gfz2015fkgt   1.36300
gfz2015fsjj   0.30451
gfz2015gckd   0.54856
gfz2015lhjy  -0.20961
