# Nsamples: 1255  MAD:  0.437  mean: -0.000  variance:  0.498
gfz2010czps  -0.28091
gfz2010ddzo   1.40260
gfz2010dfru  -0.29507
gfz2010dlgc   0.44708
gfz2010ebgj  -0.27987
gfz2010ebhc   0.39749
gfz2010ebiv   0.36873
gfz2010ebjy   0.26308
gfz2010ebll   0.13222
gfz2010ebmb   0.10645
gfz2010ebmi  -0.30654
gfz2010ebqt   0.26759
gfz2010ebvm   0.30454
gfz2010ebvv   0.39829
gfz2010ebwp   0.18902
gfz2010ebxl   0.33389
gfz2010ebze  -0.43446
gfz2010ebzk  -0.00863
gfz2010ebzr  -0.18526
gfz2010ecam  -0.00000
gfz2010ecay  -0.92557
gfz2010ecbi   0.43698
gfz2010eccq   0.28190
gfz2010ecdu  -0.36501
gfz2010eced  -0.03463
gfz2010ecft  -0.20439
gfz2010ecfx  -1.13100
gfz2010ecgh   0.87410
gfz2010echc   0.06918
gfz2010echt   0.15925
gfz2010echy   0.19740
gfz2010ecka   1.77480
gfz2010ecls  -1.83510
gfz2010ecml   0.19700
gfz2010ecns   0.13589
gfz2010ecpg   0.50463
gfz2010ecps  -0.13682
gfz2010ecro  -2.33810
gfz2010ecsp  -0.55327
gfz2010ectq  -0.26021
gfz2010ecua  -0.39038
gfz2010ecuv   0.00000
gfz2010ecvt  -0.00000
gfz2010ecyr  -0.60714
gfz2010edbz   0.06804
gfz2010edcp  -0.19987
gfz2010edde  -0.43406
gfz2010edhr  -0.04438
gfz2010edhv   0.20283
gfz2010edim  -0.07491
gfz2010edji   0.75565
gfz2010edkp   0.84510
gfz2010edoq   0.14787
gfz2010edpb  -0.71096
gfz2010edqd  -0.49826
gfz2010edqh  -0.34097
gfz2010edsk   0.01729
gfz2010edsn  -0.64338
gfz2010edun  -0.57590
gfz2010edvf  -0.15387
gfz2010edyi  -0.94468
gfz2010edzb   0.00000
gfz2010eexz  -0.37790
gfz2010eeyh  -0.40493
gfz2010efak   0.73776
gfz2010efbi  -1.05530
gfz2010efkc   0.52628
gfz2010efls  -0.83379
gfz2010efnf  -0.37109
gfz2010efsq  -0.79928
gfz2010eher  -0.59599
gfz2010ehft  -0.04681
gfz2010ehnl  -0.17685
gfz2010ehsy   0.19745
gfz2010ehvj   0.08657
gfz2010ehwg  -5.44500
gfz2010ehxz   0.60880
gfz2010eimf  -0.66444
gfz2010eioi  -0.48744
gfz2010eisx  -1.35340
gfz2010eixj  -0.57359
gfz2010ejae  -0.50707
gfz2010ejco   0.70529
gfz2010ejjg  -0.18360
gfz2010ejka  -0.19866
gfz2010ejma   0.96192
gfz2010ejxf  -0.07336
gfz2010ekoe  -0.05180
gfz2010ekrv   0.02038
gfz2010ekyc  -0.21932
gfz2010elhv  -0.07031
gfz2010elin  -1.09540
gfz2010eljf  -1.36330
gfz2010elpu  -0.37256
gfz2010elsw  -0.45448
gfz2010eltf   0.23997
gfz2010elvp  -0.52063
gfz2010elxi  -0.83997
gfz2010elyc  -1.71000
gfz2010elyo   0.48572
gfz2010elzf   1.18440
gfz2010elzl  -0.76114
gfz2010emoz   0.28635
gfz2010emyz  -0.68933
gfz2010encm   6.57060
gfz2010eohh  -1.46450
gfz2010epbe  -0.26656
gfz2010epxj  -0.53504
gfz2010epzk  -0.13569
gfz2010eqjg  -0.15424
gfz2010eqmu  -4.31870
gfz2010eqse  -0.00000
gfz2010eqwl   2.45120
gfz2010erda  -0.58589
gfz2010erdi   0.96088
gfz2010erfy  -0.55747
gfz2010erig  -0.24549
gfz2010erkn  -0.20837
gfz2010ermi  -4.43370
gfz2010erna  -0.08025
gfz2010erom   0.59946
gfz2010erum  -0.33515
gfz2010eruy  -0.79884
gfz2010erwn  -0.48340
gfz2010erxk   0.38655
gfz2010eryg  -0.09400
gfz2010esid  -0.31296
gfz2010esmg   0.05311
gfz2010esou  -1.65220
gfz2010euan   0.76953
gfz2010euii  -0.53959
gfz2010eujm  -0.21888
gfz2010eutw   0.18320
gfz2010euvl   0.03492
gfz2010euwb  -1.13930
gfz2010euxe  -0.02003
gfz2010ewbc   0.72326
gfz2010exhd  -0.03818
gfz2010exhw   0.29151
gfz2010exjw   1.19460
gfz2010exlm   0.29596
gfz2010exmc  -0.14491
gfz2010exno   0.30313
gfz2010exou  -0.11327
gfz2010exqu  -0.32765
gfz2010exts  -0.37084
gfz2010exyp   0.11089
gfz2010eyaz   0.79093
gfz2010ezax   0.10402
gfz2010ezck  -0.15176
gfz2010ezig   0.60476
gfz2010ezuj  -0.85919
gfz2010ezvg  -0.95302
gfz2010ezvt  -0.36367
gfz2010ezwz   0.25051
gfz2010ezxd   0.30693
gfz2010faeu  -0.64027
gfz2010fauz  -1.11550
gfz2010faxg  -0.45314
gfz2010fbeu  -1.11870
gfz2010fbpi  -0.41075
gfz2010fcax  -0.02720
gfz2010fcdw  -0.02126
gfz2010fciw   0.02582
gfz2010fcnn   0.13845
gfz2010fcnt  -0.21423
gfz2010fcxy   0.10291
gfz2010fcyj  -0.90762
gfz2010fczt  -0.07398
gfz2010fdab   0.66419
gfz2010fexw  -0.46979
gfz2010ffhq   0.29739
gfz2010ffjb  -0.17574
gfz2010ftlm  -0.03803
gfz2010fyen  -0.18608
gfz2010fync  -0.24274
gfz2010fzoi   0.02408
gfz2010fzyt   0.26726
gfz2010gcdn   0.26632
gfz2010gcrl  -0.17404
gfz2010gcrp  -0.47602
gfz2010gdch   1.26790
gfz2010gdld   0.03211
gfz2010geru   0.24114
gfz2010ginm  -0.36309
gfz2010gjvo   0.31744
gfz2010grjd  -0.36700
gfz2010gslu  -0.22686
gfz2010gwmp   0.95918
gfz2010gymo  -0.46948
gfz2010gyqp  -0.03117
gfz2010gzxr  -0.81306
gfz2010hbka   0.75393
gfz2010hcio  -0.21503
gfz2010hevz  -0.02532
gfz2010hgld  -0.32970
gfz2010hhls  -0.64408
gfz2010hjoc  -0.48988
gfz2010hlco  -0.75291
gfz2010hllj   1.36380
gfz2010hlln   0.31985
gfz2010hlmq  -0.74311
gfz2010hlvr  -0.65558
gfz2010hmhm  -0.25484
gfz2010hndk  -0.02209
gfz2010hnnf  -0.05757
gfz2010hnpi   0.99014
gfz2010hnzr  -0.34812
gfz2010homc   0.14383
gfz2010hptz   0.58515
gfz2010hrkr  -0.13900
gfz2010hrpr  -0.19118
gfz2010htdq   0.13131
gfz2010hxbs   0.40801
gfz2010hxgv   0.11805
gfz2010hzar   0.13096
gfz2010ibiy   0.18042
gfz2010iciq   1.29490
gfz2010icqq  -0.22755
gfz2010iefy   0.05797
gfz2010iibf  -0.32808
gfz2010iimu  -0.05860
gfz2010ijtk   0.37649
gfz2010imfv  -0.24503
gfz2010imsh  -0.15110
gfz2010iobp   0.38252
gfz2010iphd  -0.09038
gfz2010ipsg  -0.55715
gfz2010iqep   1.21700
gfz2010iqfm  -0.08191
gfz2010iqus   1.02100
gfz2010irvf  -0.36960
gfz2010iull  -0.29536
gfz2010ixyc   0.30083
gfz2010izzj   0.25349
gfz2010jagd  -0.36021
gfz2010jatq   0.09447
gfz2010jhie  -0.57815
gfz2010jipf   0.49499
gfz2010jitt   0.43953
gfz2010jkxj   0.25582
gfz2010jpss   0.49262
gfz2010jpyj   0.65433
gfz2010jqxx  -0.11812
gfz2010jssh   0.65286
gfz2010jsuh   0.78639
gfz2010jsuo  -0.51061
gfz2010jtal   1.54230
gfz2010jwpy   0.82987
gfz2010jxbm   0.00000
gfz2010jygz  -0.09138
gfz2010jzku   0.14688
gfz2010kcoo   0.14425
gfz2010kdyc   0.20870
gfz2010kgws  -0.40090
gfz2010kihf  -1.02270
gfz2010kmgg   0.51194
gfz2010kmsv   0.40467
gfz2010kown  -1.15200
gfz2010kyen  -0.06067
gfz2010kzml  -2.00910
gfz2010lcoq  -0.06979
gfz2010lczp  -0.41573
gfz2010lepw  -0.11032
gfz2010lfju   0.79900
gfz2010lgwy   0.41836
gfz2010liqs   0.26569
gfz2010lkcf  -0.41227
gfz2010lopz   0.44910
gfz2010lrlk  -0.29826
gfz2010lyfk  -0.12643
gfz2010mant   2.28140
gfz2010mbje   0.42278
gfz2010mdpq   0.62690
gfz2010mfpt   0.20168
gfz2010mgss  -0.51294
gfz2010mhjt  -0.27148
gfz2010miil   0.16729
gfz2010miqn   0.69851
gfz2010mkuu  -0.09947
gfz2010mlkz  -0.42948
gfz2010mlta  -1.66040
gfz2010mncc  -0.41303
gfz2010mnhm  -0.22439
gfz2010mnsz   0.66302
gfz2010moyw  -0.11379
gfz2010mpuy   0.50556
gfz2010msjj  -0.18630
gfz2010mtab  -0.73427
gfz2010muca  -0.22973
gfz2010mwdq  -0.43598
gfz2010mzjr   0.03674
gfz2010ncrl  -0.18855
gfz2010nfsj   0.72953
gfz2010nlkh  -0.04501
gfz2010nmpc  -1.52490
gfz2010nnny   0.16439
gfz2010nqwf   0.38071
gfz2010nqwo   0.03093
gfz2010nrew   0.48013
gfz2010nrjo   0.32527
gfz2010nsck   0.12070
gfz2010nsdf   1.20040
gfz2010nsjs   0.39728
gfz2010ntuo  -0.17748
gfz2010nubk  -0.71519
gfz2010nwef  -0.70687
gfz2010nxsy   0.36414
gfz2010nxum  -0.23476
gfz2010nzha   0.06691
gfz2010nzla  -0.41766
gfz2010ocxq   1.17220
gfz2010odpb   0.38507
gfz2010oedn  -0.41389
gfz2010okdm  -0.14601
gfz2010oluw   0.55377
gfz2010omla   0.27807
gfz2010onma  -0.09565
gfz2010osjs   0.77896
gfz2010pbdz  -0.62723
gfz2010pcxi  -0.29561
gfz2010pdtk  -0.39466
gfz2010pewa   0.60758
gfz2010pewx   0.02103
gfz2010pexf   0.15671
gfz2010pfyu   0.35530
gfz2010phvg  -0.45490
gfz2010plbg   0.23275
gfz2010pmqd   0.42993
gfz2010pqck  -0.85716
gfz2010pxak   0.60287
gfz2010pxgh   0.41823
gfz2010qjst  -0.03438
gfz2010qpcq  -0.24238
gfz2010qpum   0.13146
gfz2010qpvi   0.42299
gfz2010qwwx  -0.59527
gfz2010rhas  -0.17333
gfz2010rkfp  -0.54359
gfz2010rlbv  -0.22755
gfz2010rqwj  -0.38962
gfz2010rzrr  -1.49720
gfz2010rzsd  -2.36970
gfz2010sfee  -0.35359
gfz2010sfla  -0.42266
gfz2010sgzk  -0.38307
gfz2010skqo  -0.23432
gfz2010skve  -0.24743
gfz2010srdb  -0.36318
gfz2010suww  -0.71045
gfz2010svtn  -0.32803
gfz2010swcy  -0.34968
gfz2010sxwt  -0.52402
gfz2010szde  -0.43555
gfz2010szim   0.70420
gfz2010tcbr   0.43784
gfz2010tcrl  -0.31908
gfz2010titk   0.34301
gfz2010tlfm   0.53580
gfz2010truw  -0.49983
gfz2010txjs   0.41042
gfz2010uept  -0.14308
gfz2010upfb   0.12902
gfz2010upiw   0.65517
gfz2010urlq  -0.10356
gfz2010usho  -0.02455
gfz2010ustq  -0.27474
gfz2010utcg   0.19482
gfz2010utmc  -0.12321
gfz2010utvp  -0.03304
gfz2010uyhb   0.94466
gfz2010veri   0.75348
gfz2010vhuj   0.10060
gfz2010vppc   0.90192
gfz2010vtdg  -0.59748
gfz2010vyxd  -0.20422
gfz2010vzpr   0.31687
gfz2010wioh   0.47152
gfz2010wnty   0.59304
gfz2010wntz  -0.48472
gfz2010wofs  -1.06820
gfz2010wrxx  -1.09360
gfz2010xgfc   1.15210
gfz2010xgzw  -0.02175
gfz2010xmpr   0.46270
gfz2010xnxk   0.06014
gfz2010xxdb   0.47205
gfz2010xxzn  -0.17720
gfz2010yjev   1.29870
gfz2010ymfy   0.18913
gfz2010ymur  -0.17336
gfz2010yosr  -0.33827
gfz2010yqwx   0.92470
gfz2011aosc   0.19254
gfz2011ccpw   0.85211
gfz2011cndo  -0.03483
gfz2011ctbn  -1.48850
gfz2011cykd  -0.38943
gfz2011cylz   0.35478
gfz2011cynl  -0.10206
gfz2011cyre  -0.21225
gfz2011dbwt   0.47362
gfz2011deaf   0.05171
gfz2011dllz   0.87515
gfz2011dndz   0.12320
gfz2011dpaa   0.53858
gfz2011dpmx   0.15229
gfz2011dpqx  -0.36442
gfz2011eayc  -0.29485
gfz2011eazf  -0.27915
gfz2011edmm   0.75640
gfz2011ehzq   0.17676
gfz2011ejlp  -0.22138
gfz2011enva  -0.71301
gfz2011eocc   0.34902
gfz2011etje   0.52656
gfz2011fdzv   0.26166
gfz2011fgvr  -0.59474
gfz2011fhag   0.08653
gfz2011gbmx  -0.17980
gfz2011gcwb  -0.07022
gfz2011ggvf   0.95841
gfz2011gkey   0.29717
gfz2011gkzt   0.26721
gfz2011gzbr   0.18667
gfz2011haid  -0.92926
gfz2011hbex  -0.35697
gfz2011hebt  -0.60258
gfz2011hfkj   0.25717
gfz2011hlqw  -0.28083
gfz2011hlsa  -0.65599
gfz2011hlth  -0.36524
gfz2011hpgx  -0.28724
gfz2011hpqp  -0.15796
gfz2011hrhe   0.11011
gfz2011hrhu   0.82604
gfz2011hvbu  -0.59015
gfz2011ieie  -0.18251
gfz2011iwte   0.84495
gfz2011ixai  -0.12147
gfz2011izqa  -0.37090
gfz2011izto   1.25430
gfz2011jdsj   0.28221
gfz2011jghb   0.90105
gfz2011jmbn  -0.09133
gfz2011jnmi   0.86786
gfz2011jplh   0.01240
gfz2011jtlg   1.17010
gfz2011juid  -0.04123
gfz2011jxpl   0.41143
gfz2011knoo  -0.23112
gfz2011kqwo  -0.76474
gfz2011kqyg   0.52087
gfz2011kwhq  -0.20605
gfz2011kwid  -0.50526
gfz2011kwiy  -1.60110
gfz2011kwjx  -0.74754
gfz2011kwkw  -0.32902
gfz2011kwld   0.23248
gfz2011kwlq   0.14613
gfz2011kwni   0.86699
gfz2011kwqc  -0.49577
gfz2011kwsz   0.16550
gfz2011kxzp  -0.04698
gfz2011lcxq  -0.12965
gfz2011lczg   0.00000
gfz2011lgsg  -0.18982
gfz2011lhls  -0.09907
gfz2011lvjr  -0.59326
gfz2011lzwj   0.18286
gfz2011mdie   0.32985
gfz2011mepc  -0.18816
gfz2011mjom  -0.19932
gfz2011mllx  -0.04381
gfz2011mpme  -0.32054
gfz2011mprq  -0.43345
gfz2011myia  -0.07812
gfz2011nauw   1.63160
gfz2011nmnq   0.11296
gfz2011noud  -0.58352
gfz2011nrwc  -0.57593
gfz2011nrwv   1.66320
gfz2011ntkh  -0.06029
gfz2011nudm  -0.32633
gfz2011ogqk  -0.51631
gfz2011ohcy   0.36247
gfz2011oiqe  -0.44324
gfz2011oiwk   0.42186
gfz2011olkk   0.24047
gfz2011oolr   0.88187
gfz2011orgn  -0.35856
gfz2011ornx   0.25207
gfz2011pccd   0.37354
gfz2011phms  -0.36956
gfz2011pntf  -0.10707
gfz2011ptus  -0.02028
gfz2011qigx  -0.44039
gfz2011qvae  -0.57979
gfz2011qyms  -0.23935
gfz2011rabm   1.91390
gfz2011rdby  -0.36943
gfz2011rewa  -0.63621
gfz2011rgwp  -0.39181
gfz2011rqui   0.12520
gfz2011rsrh   0.42081
gfz2011rznl  -1.16780
gfz2011sagt  -0.25515
gfz2011shqm  -0.06387
gfz2011stal   0.12989
gfz2011svix   0.33098
gfz2011taps  -0.79244
gfz2011tbas   0.15424
gfz2011tcij   0.54696
gfz2011tivu   0.42131
gfz2011tjue  -0.08282
gfz2011tkfp  -0.28706
gfz2011tkog  -0.54093
gfz2011toub  -0.81168
gfz2011tpbl   0.42236
gfz2011tpfr  -0.31956
gfz2011tsfd   1.54030
gfz2011tsnp   0.59865
gfz2011tuea  -0.01907
gfz2011twov   0.11296
gfz2011uepx   0.87080
gfz2011ugzz  -0.21354
gfz2011ujze   0.29554
gfz2011ukmp  -0.08973
gfz2011uphh   0.41734
gfz2011urxy  -0.70788
gfz2011urzu  -0.59970
gfz2011vclt  -0.35653
gfz2011vhfi  -0.01047
gfz2011vxns  -0.70922
gfz2011wfja   0.03608
gfz2011wijj  -0.22494
gfz2011wjkf   1.67650
gfz2011wjul   0.15489
gfz2011wxfs   0.19137
gfz2011wxoj   0.12140
gfz2011wxtk   0.07073
gfz2011xesx   0.05102
gfz2011yhwz   0.24940
gfz2012attr   0.14509
gfz2012bpnl   0.38214
gfz2012bqeb   0.13528
gfz2012cnod   0.56074
gfz2012cxdn   0.40200
gfz2012czlw   0.54830
gfz2012deri   1.03770
gfz2012dfhq  -0.24649
gfz2012emjg   0.14416
gfz2012eskt   0.65555
gfz2012ewgo   0.00000
gfz2012fhnh   0.07621
gfz2012foeo   0.23785
gfz2012fqcg   0.09256
gfz2012fwfo  -1.00570
gfz2012fwtr   2.99860
gfz2012fzfa  -0.12015
gfz2012fzsq  -0.09477
gfz2012gkvr  -0.17465
gfz2012gocc  -0.10630
gfz2012gukw   0.70290
gfz2012hdbm  -0.20099
gfz2012hnul  -0.79444
gfz2012hogg   0.06809
gfz2012holl  -0.34079
gfz2012hwmz  -0.13170
gfz2012iamr   1.13620
gfz2012ibld   0.14867
gfz2012icmv  -1.10690
gfz2012ihdl  -0.01947
gfz2012iivw   0.14813
gfz2012ilvn  -0.30578
gfz2012imay  -0.65625
gfz2012iyrb   1.40060
gfz2012jgvj   0.30285
gfz2012jjzc  -0.03704
gfz2012jlox  -0.79348
gfz2012jqvn  -0.29125
gfz2012jshk   0.10297
gfz2012jupx  -0.34507
gfz2012kbjb   0.12112
gfz2012kbzj  -0.23035
gfz2012kdmb   0.89700
gfz2012keor  -0.32615
gfz2012kkup  -0.42221
gfz2012klba  -0.53057
gfz2012klhx  -0.19697
gfz2012kuct   0.49949
gfz2012kudo  -0.00000
gfz2012kvzv  -0.27736
gfz2012kwgo  -0.41711
gfz2012lczo  -0.49393
gfz2012ldxg  -0.29223
gfz2012ldzj  -0.58155
gfz2012lpvn   0.45697
gfz2012lrsv  -1.24130
gfz2012lsni   1.27550
gfz2012lxkv   0.18533
gfz2012mdmy   0.08474
gfz2012minr  -0.48317
gfz2012mkpn   0.92926
gfz2012mlyf   0.48889
gfz2012mpvy   0.33112
gfz2012mpyl  -0.23767
gfz2012mupa   0.49354
gfz2012mvwr  -0.22903
gfz2012mwij  -0.40520
gfz2012myqa  -0.55927
gfz2012naqz   0.22998
gfz2012nedn  -0.03305
gfz2012ngic  -0.10163
gfz2012njha   0.13710
gfz2012nkdf  -0.36685
gfz2012nolo   0.01042
gfz2012nqnk   1.83690
gfz2012nsbz  -0.48021
gfz2012ntzv  -0.74837
gfz2012nutf  -0.46110
gfz2012nxog  -0.37147
gfz2012nxyt   0.12871
gfz2012oazn   0.17345
gfz2012obgw  -0.13260
gfz2012oedb   0.05579
gfz2012omvo  -0.67675
gfz2012oqmw  -0.34205
gfz2012ovqs  -0.17399
gfz2012pciw  -0.18410
gfz2012pgcl   0.64435
gfz2012pkel   0.37250
gfz2012plbw  -0.18062
gfz2012plea   1.07300
gfz2012pqlt  -0.69574
gfz2012pqmu  -0.14017
gfz2012qurq  -0.36454
gfz2012qxcy   0.04157
gfz2012rats   0.31174
gfz2012rcnj  -0.49381
gfz2012snhi   0.12815
gfz2012spbj   0.13570
gfz2012sphd   0.11499
gfz2012sqmv  -0.54073
gfz2012ssyn   0.16683
gfz2012syvl   0.03492
gfz2012tazz  -0.11813
gfz2012teic  -0.59700
gfz2012thfx  -2.02050
gfz2012tmop  -0.42531
gfz2012ttoa  -0.23849
gfz2012tvmv   0.05486
gfz2012uciv  -0.27574
gfz2012ufew   0.16712
gfz2012uhup   0.09347
gfz2012usba  -0.68291
gfz2012uyxb   0.19122
gfz2012uzyj   0.38354
gfz2012vceo   5.15220
gfz2012vjgl   0.49081
gfz2012vntz   0.37799
gfz2012vrgb  -0.43841
gfz2012vrua  -0.19680
gfz2012vsev  -0.79023
gfz2012vxvr  -0.13832
gfz2012whku  -0.37842
gfz2012wklq  -1.55710
gfz2012wmsg  -0.34427
gfz2012wpeq  -0.67764
gfz2012wrir  -0.26448
gfz2012wtkr   0.02723
gfz2012wubh  -0.01453
gfz2012wvfl  -0.07983
gfz2012wxer   0.11978
gfz2012wxlg  -0.13270
gfz2012wybs   0.13435
gfz2012wypz  -0.01398
gfz2012xbjq  -0.40735
gfz2012xeul   5.01340
gfz2012xjyv   0.17281
gfz2012xslk   0.07850
gfz2012zemh   0.30472
gfz2012zfag  -1.20340
gfz2012zjpv  -0.51607
gfz2012zjre  -0.33367
gfz2013apmm   0.09133
gfz2013bnxc   0.39781
gfz2013cdan  -0.14785
gfz2013cnve   0.02686
gfz2013cwpn  -0.20593
gfz2013dsrk  -0.44886
gfz2013ewbo   1.24490
gfz2013fiud  -0.14627
gfz2013gdnq   4.49500
gfz2013gjdc   0.60952
gfz2013gngz   0.30276
gfz2013gock   0.02262
gfz2013ijsr   0.12176
gfz2013ikgo   0.12390
gfz2013ilug  -0.04694
gfz2013iunn   0.02347
gfz2013jesk  -0.46265
gfz2013jgij  -0.32696
gfz2013jgip   0.02488
gfz2013jkut   0.14083
gfz2013jokw  -0.00651
gfz2013jusj   0.66639
gfz2013jwvc  -0.44128
gfz2013jxoi  -0.21249
gfz2013kccc  -0.52630
gfz2013kdeo  -0.50144
gfz2013kheb   0.68888
gfz2013ldpc  -0.07848
gfz2013ldqb  -0.16846
gfz2013lgnl   0.53540
gfz2013lixa   0.04885
gfz2013lyko   0.35510
gfz2013mmlw  -0.36500
gfz2013mmwq   0.00000
gfz2013mnei  -0.39353
gfz2013mqik  -0.08288
gfz2013mqmv   0.24599
gfz2013mwbh   0.45823
gfz2013ncjp  -0.14259
gfz2013neuc  -0.29351
gfz2013nixj   0.00495
gfz2013nkgj  -0.24598
gfz2013nknw   0.02103
gfz2013nmac   0.16424
gfz2013nnzf  -0.05844
gfz2013nppd  -0.09381
gfz2013nqgw   1.55350
gfz2013nuvi  -0.42877
gfz2013nwdi  -0.34881
gfz2013ogde   0.04278
gfz2013oifr   0.94318
gfz2013oilg   0.51684
gfz2013oinc   0.15004
gfz2013ojti   1.38920
gfz2013oqsc  -0.46874
gfz2013orjg   0.24672
gfz2013orzn   1.95660
gfz2013ozrf   1.09240
gfz2013ozrp   1.19250
gfz2013pcos   0.81168
gfz2013pfbx   0.05700
gfz2013pfeb  -0.13473
gfz2013phef   0.07059
gfz2013pkbs   1.05180
gfz2013puag   0.54183
gfz2013pxsj  -0.25464
gfz2013qali   0.00000
gfz2013qmer   0.36865
gfz2013qnxc  -0.70402
gfz2013qzdq   0.52087
gfz2013rait  -0.17477
gfz2013rdoo   0.27126
gfz2013reym  -0.79380
gfz2013roki   0.18674
gfz2013rsnr  -0.57046
gfz2013rwfe  -1.32500
gfz2013sart  -0.32969
gfz2013sdus  -0.31100
gfz2013sebq   1.38340
gfz2013sfto  -0.16255
gfz2013shzy  -0.35226
gfz2013skkm   0.05328
gfz2013xmul  -0.15297
gfz2013xpfa  -1.39790
gfz2013xqnn  -0.26630
gfz2013ylbx  -0.07797
gfz2013yyhc  -0.11632
gfz2014adoj  -0.00000
gfz2014afmx   0.20784
gfz2014amsb   0.40056
gfz2014atgw  -0.01383
gfz2014bezu  -0.15669
gfz2014bmdh  -0.74891
gfz2014cvkm  -0.55186
gfz2014dffd   0.21310
gfz2014duqn  -0.19812
gfz2014egwu  -0.03795
gfz2014ehsf  -0.18187
gfz2014fcms   0.11056
gfz2014femz   0.48056
gfz2014fexu   0.35919
gfz2014ffdc   0.61202
gfz2014fgvi   0.13766
gfz2014fgvr   0.15057
gfz2014fgwt   2.29290
gfz2014fgxt  -0.12290
gfz2014fgxz   0.06171
gfz2014fgyo  -0.09003
gfz2014fgza  -1.12020
gfz2014fhbd  -0.09053
gfz2014fhdw   0.02941
gfz2014fhhp  -0.06933
gfz2014fhjd  -0.11018
gfz2014fhrq   0.25985
gfz2014fhsg  -0.51407
gfz2014fhwx   0.53534
gfz2014fkmr  -0.32184
gfz2014fkmx  -0.38368
gfz2014fnyg  -0.40197
gfz2014foio  -0.50563
gfz2014frez  -0.00000
gfz2014frwh   0.01376
gfz2014ftka   0.19831
gfz2014ftno  -0.43312
gfz2014ftoc   0.21909
gfz2014ftpw   0.12073
gfz2014ftrk  -0.18079
gfz2014fusc  -0.55461
gfz2014fusj  -0.19992
gfz2014fuub   0.23307
gfz2014fuup  -2.52990
gfz2014fvaa   0.20607
gfz2014fval   0.03983
gfz2014fvgh   0.21261
gfz2014fvjl  -0.49642
gfz2014fvpy  -1.23380
gfz2014fvrg   0.06727
gfz2014fwyr  -0.69401
gfz2014fxhd   0.49399
gfz2014geuy   0.07799
gfz2014gezs   0.00644
gfz2014gkgf  -0.32032
gfz2014gkgs   0.17144
gfz2014gkhy   0.27047
gfz2014gkjl   0.78872
gfz2014gkjt  -0.27349
gfz2014gkjw  -1.67670
gfz2014gkok  -0.47789
gfz2014glcu  -0.00000
gfz2014glcy  -0.00000
gfz2014glov   0.01333
gfz2014glsh   0.05971
gfz2014gltx  -0.22677
gfz2014glvn  -0.65998
gfz2014glvu   0.46575
gfz2014glxy   0.07434
gfz2014gmci   0.22488
gfz2014gmhr  -1.34520
gfz2014gmzl   0.30155
gfz2014gmzs   0.03084
gfz2014gnig  -0.99908
gfz2014gnnt   0.11552
gfz2014gnre   0.92077
gfz2014gnvw   0.47836
gfz2014gnwg   1.48040
gfz2014gnxb   0.09346
gfz2014goba  -0.40121
gfz2014gphr  -0.52662
gfz2014gpya   0.07348
gfz2014grcv  -0.45538
gfz2014grgn   0.09287
gfz2014grho  -1.35090
gfz2014gsqs   0.41816
gfz2014gutm  -0.23775
gfz2014gvhw  -1.20100
gfz2014gwgf  -0.24685
gfz2014gxkh  -0.15538
gfz2014gxxh  -0.36043
gfz2014gxxo   0.57819
gfz2014gyxd  -0.57805
gfz2014hagb   0.24656
gfz2014hasj   0.22605
gfz2014hauo   0.74483
gfz2014hbqb  -0.18291
gfz2014hcmj   0.05041
gfz2014hcns  -0.16031
gfz2014hfhl  -0.38752
gfz2014hjgh   0.08146
gfz2014hjgr  -0.00000
gfz2014hjij   0.28265
gfz2014hjlx  -0.01908
gfz2014hkcf   0.21851
gfz2014hkck   0.11616
gfz2014hoap  -0.63459
gfz2014hocg   0.23040
gfz2014hphw  -0.18140
gfz2014hqxs  -0.23701
gfz2014hrft   0.18577
gfz2014hriu   0.03525
gfz2014hrtn   0.72290
gfz2014hscz  -0.02402
gfz2014huaj   0.89194
gfz2014hyal   0.54638
gfz2014hymr  -0.54809
gfz2014iani   0.04840
gfz2014icqt   0.23868
gfz2014ifue  -0.63507
gfz2014imnn  -0.06696
gfz2014inbj   0.22651
gfz2014irci   0.44878
gfz2014issk  -0.27117
gfz2014isys   0.70928
gfz2014itab   0.21391
gfz2014itbe   0.31417
gfz2014itgh   0.34421
gfz2014itjx   0.15676
gfz2014itkw   0.27230
gfz2014itpj  -0.06913
gfz2014iuhq   0.20208
gfz2014iwnf   0.30872
gfz2014ixga  -1.26170
gfz2014iywt   0.15434
gfz2014jagg  -0.66015
gfz2014jatq  -0.10131
gfz2014jcjt   0.06767
gfz2014jfis  -0.16191
gfz2014jjhc  -0.26813
gfz2014jkxe   0.50503
gfz2014jmnk  -0.00000
gfz2014jnxm  -0.04772
gfz2014jnyv  -0.31891
gfz2014jomw  -0.11687
gfz2014jpep   0.18033
gfz2014jpxs   0.71557
gfz2014jwmh   0.43307
gfz2014kara  -0.66589
gfz2014kbuk  -0.03781
gfz2014khan   0.29405
gfz2014khlk  -0.53650
gfz2014kjzb  -2.00260
gfz2014kkhh   0.91546
gfz2014kmmt   0.30196
gfz2014kndc   0.12997
gfz2014knks   0.08763
gfz2014knxs  -0.08820
gfz2014ksdv   0.15024
gfz2014ksmz  -0.33390
gfz2014kwrg   0.49598
gfz2014kyan   0.02572
gfz2014kytf   0.14425
gfz2014kzzm   0.96205
gfz2014lddn  -1.45400
gfz2014lefs   0.22481
gfz2014lehw  -0.12250
gfz2014lgqn  -0.11004
gfz2014lhqn   0.04232
gfz2014lkyf   0.01856
gfz2014lmge  -0.14545
gfz2014lnqy   0.39774
gfz2014lpim  -0.44396
gfz2014lrzx  -0.04312
gfz2014lurd  -1.88940
gfz2014lxnc  -0.55033
gfz2014lyhk   0.59086
gfz2014lyhp   0.43510
gfz2014lynp   0.30639
gfz2014lzow   0.61803
gfz2014macx  -0.02222
gfz2014madw  -0.08416
gfz2014mcno   0.01659
gfz2014mcse   0.24007
gfz2014moaw  -0.29793
gfz2014mtum   0.27907
gfz2014mwor   0.38317
gfz2014mxkr  -0.56707
gfz2014navw   0.17651
gfz2014nhyb   1.13410
gfz2014nkdx   0.51165
gfz2014nnxd  -0.18982
gfz2014nowp  -0.03731
gfz2014npdk   0.15963
gfz2014npeo  -0.03889
gfz2014nphm  -0.14721
gfz2014nqfm   0.02063
gfz2014nrie  -0.17430
gfz2014ntdh  -0.03248
gfz2014nyeh   0.50607
gfz2014nyfb  -0.85985
gfz2014nylm  -0.23401
gfz2014odgv   0.34938
gfz2014oinz  -0.14346
gfz2014omyn   1.01610
gfz2014oqhw   0.17178
gfz2014orxs   0.21469
gfz2014oryw   0.43358
gfz2014osvx   0.03119
gfz2014osvz  -0.05075
gfz2014owxc  -0.38530
gfz2014oyly   0.19979
gfz2014pkll   0.15237
gfz2014ppzf   0.06039
gfz2014pqrc   0.04645
gfz2014pvch   0.11719
gfz2014pzml   0.49283
gfz2014pzni  -0.03413
gfz2014qlvc   0.37579
gfz2014qlxd  -0.12940
gfz2014qngj   0.00369
gfz2014qqhm  -0.48951
gfz2014raau  -0.24680
gfz2014rdsn  -0.21471
gfz2014rfeb   0.13300
gfz2014rghp  -0.33594
gfz2014riel  -0.05212
gfz2014rils  -0.16231
gfz2014romy  -0.49559
gfz2014rtcu   0.75002
gfz2014ryfb   0.02752
gfz2014sadu   0.98401
gfz2014shid   0.11802
gfz2014sjqw  -0.29956
gfz2014sptq  -0.62369
gfz2014sryn   0.01139
gfz2014ssds  -0.02607
gfz2014ssmv  -0.21898
gfz2014ssvz  -0.28940
gfz2014szzf  -0.32161
gfz2014tabg   0.19784
gfz2014tovs   0.35086
gfz2014tqdo   0.07738
gfz2014tqly   0.35358
gfz2014tqsf  -0.14925
gfz2014tzsd   0.25181
gfz2014ubwn   0.12676
gfz2014uohh   0.14770
gfz2014utac  -0.39893
gfz2014uvji   0.05813
gfz2014uvrk  -0.46164
gfz2014uxyg  -0.68769
gfz2014uyrq  -0.21220
gfz2014vcev   0.21049
gfz2014vhld   0.59116
gfz2014vhms   0.41082
gfz2014vjoz   0.58716
gfz2014vpus  -0.17449
gfz2014vqqa   2.77750
gfz2014waoo  -0.37537
gfz2014watn  -0.14447
gfz2014wqcp   0.31196
gfz2014wrkh  -0.38799
gfz2014wwib   0.37394
gfz2014xjri  -0.35516
gfz2014xoji   0.14401
gfz2014xqby  -0.34227
gfz2014ynhc   0.29966
gfz2015aqbq   0.06535
gfz2015arpd   0.03067
gfz2015aruz  -0.26663
gfz2015atxv  -0.39189
gfz2015berb   0.59734
gfz2015bkbj  -0.08011
gfz2015bphe   2.20500
gfz2015byfn  -0.03408
gfz2015byjd  -0.59567
gfz2015evpl   0.21782
gfz2015eyqs   0.63044
gfz2015fbbk  -0.17597
gfz2015fbew  -0.51424
gfz2015fcua   0.19891
gfz2015fdpr   0.31599
gfz2015fjhk   0.58575
gfz2015fkbc  -0.15959
gfz2015fkgt   0.41139
gfz2015fkic   0.10847
gfz2015fkkd   0.22211
gfz2015fpez   0.19540
gfz2015fsjj  -0.08383
gfz2015fwnf   0.06313
gfz2015fxbv   0.67053
gfz2015fxdi   0.03085
gfz2015fyvk   0.37583
gfz2015gckd  -0.09711
gfz2015ggjw   0.23972
gfz2015gjbr   0.43234
gfz2015hdbn  -5.05080
gfz2015hdcp   0.33492
gfz2015hgbk   0.33013
gfz2015hhbd  -0.01521
gfz2015hlqo   0.28501
gfz2015hpmk   0.19450
gfz2015hvgs   0.52003
gfz2015igsy   0.43244
gfz2015imty   0.15015
gfz2015imyp  -0.70813
gfz2015isim  -0.08830
gfz2015ixyy   0.23702
gfz2015jmlf   0.87429
gfz2015jmlu   0.28139
gfz2015jpap  -1.23820
gfz2015jwgl   0.08837
gfz2015jxbx  -0.51337
gfz2015jzcv   0.10365
gfz2015kakw  -0.25266
gfz2015kalm  -0.06003
gfz2015kcaa   0.16136
gfz2015kkth  -0.17343
gfz2015kphk   0.20009
gfz2015kquq   0.30980
gfz2015ksni   0.08257
gfz2015kvwz   0.31578
gfz2015lcma   0.12150
gfz2015lfma   0.32382
gfz2015lfud   0.21921
gfz2015lhjq  -0.11167
gfz2015lhjy   0.56263
gfz2015ltii  -0.04620
gfz2015ltro   0.46804
gfz2015lytv  -0.57759
gfz2015lzad  -0.16660
gfz2015mddr  -0.02217
gfz2015mfpy   0.57996
gfz2015mhym   3.10600
gfz2015mpte  -0.26818
gfz2015nerz   0.32880
gfz2015nqgf   0.59818
gfz2015ntpk  -0.20625
gfz2015nuxz   0.24331
gfz2015nwug  -0.63799
gfz2015ocdz   0.15916
gfz2015ofpd   0.17662
gfz2015okmq  -0.03256
gfz2015okpu   0.77938
gfz2015orkl   0.18202
gfz2015othd   0.74273
gfz2015oyfl   0.59612
gfz2015pcvt   0.06214
gfz2015pdri   0.82477
gfz2015plal   0.12354
gfz2015poni  -0.15809
gfz2015puah   0.01302
gfz2015puqp   0.27359
gfz2015qafb   0.12415
gfz2015qiit   0.20273
gfz2015qnho  -0.01273
gfz2015qnlv   0.02365
gfz2015qnto   0.07774
gfz2015qols  -0.09379
gfz2015qprd   0.22796
gfz2015qpvd   0.05876
gfz2015quzo  -0.92527
gfz2015rgov   0.59156
gfz2015rgrg   0.19082
gfz2015rkbq   0.23459
gfz2015rkrg  -0.24350
gfz2015rkzg   0.13257
gfz2015roac   0.26276
gfz2015rwsb  -0.26369
gfz2015rxmg  -0.62978
gfz2015saet  -0.27908
gfz2015sdfy   0.08070
gfz2015seuf  -0.02180
gfz2015sfdd  -0.17067
gfz2015sfdl  -0.09077
gfz2015sfdv  -0.11225
gfz2015sfdy   0.11101
gfz2015sfeo   0.95507
gfz2015sffn  -0.03033
gfz2015sfga  -0.02520
gfz2015sfhz  -0.35077
gfz2015sfiq  -1.42510
gfz2015sfkh  -0.06344
gfz2015sfko  -0.34075
gfz2015sfks   0.14659
gfz2015sfkz  -0.06211
gfz2015sflf   0.21419
gfz2015sfln  -0.64661
gfz2015sfmd   0.99495
gfz2015sfnb   0.31575
gfz2015sfno  -1.02510
gfz2015sfnv   0.90855
gfz2015sfoc  -0.30669
gfz2015sfoh  -0.09216
gfz2015sfoq  -0.13935
gfz2015sfpj  -0.48789
gfz2015sfps   0.06139
gfz2015sfqo  -0.01052
gfz2015sfqr  -0.73690
gfz2015sfrc  -0.88928
gfz2015sfrf   0.35772
gfz2015sfsi   0.52089
gfz2015sfte   0.17917
gfz2015sftu  -0.16393
gfz2015sfuc   0.70194
gfz2015sfuz   0.58555
gfz2015sfwf   0.56625
gfz2015sfxn  -0.33681
gfz2015sfzm  -0.00107
gfz2015sgad  -0.32321
gfz2015sgdn  -0.18985
gfz2015sggc   0.46045
gfz2015sghq   0.15478
gfz2015sgmm  -0.22698
gfz2015sgmr   0.10997
gfz2015sgxc   0.67542
gfz2015sgyd   0.35247
gfz2015shaq   0.23646
gfz2015shhg   0.51641
gfz2015shhu   0.08635
gfz2015shjn  -0.37425
gfz2015shjo  -0.09112
gfz2015shlp  -0.21707
gfz2015shqe  -0.42991
gfz2015shrg   0.04887
gfz2015shsz   0.86791
gfz2015sicf  -0.46227
gfz2015siem   0.14217
gfz2015siky   0.03132
gfz2015sing   0.22797
gfz2015siof  -0.72790
gfz2015sist  -1.01360
gfz2015sitn  -0.02093
gfz2015sixi   0.24686
gfz2015siyy  -0.00000
gfz2015sjbx  -0.69087
gfz2015sjeq   1.92850
gfz2015sjfi  -0.03590
gfz2015sjgk   0.01314
gfz2015sjjb   0.80091
gfz2015sjne  -0.56168
gfz2015sjoj  -0.15062
gfz2015sjpn   0.03254
gfz2015sjvu   0.18947
gfz2015sjwi  -0.45737
gfz2015skab   0.11165
gfz2015skgj   0.02536
gfz2015skhf  -2.87730
gfz2015sklu  -0.17901
gfz2015skpv   0.33027
gfz2015skuk   0.03486
gfz2015skxu  -0.01014
gfz2015sldx   0.08825
gfz2015slfn  -0.58898
gfz2015sljs  -0.35979
gfz2015slun   0.76716
gfz2015smgj  -0.21432
gfz2015smym   0.16454
gfz2015snhn   0.50371
gfz2015snmg   0.24251
gfz2015snmr  -0.20839
gfz2015snsf  -0.65554
gfz2015snwh  -0.73589
gfz2015snyd   0.03010
gfz2015soat   0.42005
gfz2015sopc  -0.06303
gfz2015soxc   0.04193
gfz2015sqbg   0.15517
gfz2015sqmy   0.18249
gfz2015sqvx   1.08380
gfz2015srat   0.10093
gfz2015ssrl   0.22852
gfz2015stfy   0.32639
gfz2015stso   0.12503
gfz2015subz  -0.28033
gfz2015supa  -0.21072
gfz2015susq   0.58698
gfz2015svjy  -0.50286
gfz2015svwm   0.02453
gfz2015swgn   0.13805
gfz2015swjx   0.07815
gfz2015swnc  -0.14047
