# Nsamples: 384  MAD:  0.570  mean: -0.024  variance:  0.759
gfz2010aerk   0.49943
gfz2010ahqi   0.01540
gfz2010bfzs   0.19388
gfz2010bjeb  -0.63948
gfz2010bxxs   0.10527
gfz2010ckeu   0.56535
gfz2010ckzm   0.96231
gfz2010cnwc   0.34135
gfz2010cqwl  -0.40085
gfz2010czps   0.40504
gfz2010dlgc  -0.22099
gfz2010eaoy  -0.18767
gfz2010eapn  -4.77300
gfz2010eaqe   0.21391
gfz2010eaqy  -0.08708
gfz2010earu  -1.45490
gfz2010easf  -0.29950
gfz2010easo   0.12946
gfz2010easu  -0.02915
gfz2010eawb  -0.98599
gfz2010eawu   0.61642
gfz2010eazu   0.55645
gfz2010ebhc  -0.11139
gfz2010ebnn  -0.41234
gfz2010ecua  -0.82095
gfz2010edvf   0.49663
gfz2010edyi   8.19600
gfz2010eevu  -0.05477
gfz2010eisx   0.68869
gfz2010ekyc   0.37106
gfz2010elhv  -2.12920
gfz2010eltf  -0.05950
gfz2010elyc  -0.33250
gfz2010eqjg   0.94188
gfz2010erkn   0.06120
gfz2010excp  -1.35860
gfz2010exdd   0.96052
gfz2010exno  -0.58750
gfz2010ezck  -0.65090
gfz2010fedq  -1.97560
gfz2010ffhq  -0.02857
gfz2010flha  -0.77134
gfz2010fqdu  -1.00070
gfz2010ftlm  -0.38504
gfz2010fwzd  -0.81664
gfz2010fync  -0.75042
gfz2010gcrl  -0.96305
gfz2010glxl   0.00094
gfz2010grjd  -0.06615
gfz2010hevz  -0.96958
gfz2010hrkr   0.48950
gfz2010hxhe  -0.08437
gfz2010iciq  -0.78959
gfz2010irvf   0.42396
gfz2010iull   0.28938
gfz2010jucj   0.24755
gfz2010lczp  -0.00000
gfz2010mkuu  -0.47200
gfz2010mncc  -0.90560
gfz2010moyw   0.50296
gfz2010nmpc  -0.63352
gfz2010nnny  -0.85895
gfz2010onma   0.44952
gfz2010pcxi   0.41620
gfz2010pfyu   0.14739
gfz2010rkfp  -0.52084
gfz2010rqwj   0.39254
gfz2010sfee   1.05990
gfz2010skqo   0.08470
gfz2010srdb  -0.40199
gfz2010sysw   0.74732
gfz2010upfb   0.22114
gfz2010vtdg  -0.48302
gfz2010wnty  -0.06962
gfz2010wntz   0.01764
gfz2010wofs  -0.61036
gfz2010yosr  -0.10977
gfz2011aatr   0.06246
gfz2011adjs  -0.42269
gfz2011bgrp  -0.34222
gfz2011csju  -1.09600
gfz2011ctbn  -0.42654
gfz2011cvcg  -0.13685
gfz2011cykd  -4.21110
gfz2011dbev  -0.38909
gfz2011dbig   0.20215
gfz2011dcqb   0.62035
gfz2011deaf   6.19080
gfz2011dpqx  -0.22187
gfz2011enva   0.22056
gfz2011flgj  -0.41561
gfz2011fnsw  -0.81119
gfz2011gbmx  -0.22947
gfz2011gjlx  -0.61052
gfz2011gkzt  -1.20590
gfz2011hlqw  -0.43017
gfz2011hlsa  -0.42553
gfz2011hlth  -0.40928
gfz2011ixai   0.51314
gfz2011izqa  -0.43283
gfz2011jplh   0.10023
gfz2011jxpl  -0.92554
gfz2011kxzp  -0.74463
gfz2011lcxq   0.86896
gfz2011lvjr   1.02260
gfz2011lzwj   0.21938
gfz2011mdie  -0.24200
gfz2011nauw   0.65791
gfz2011nrwv  -0.84233
gfz2011ntkh  -0.27947
gfz2011nudm  -0.58298
gfz2011ohcy   1.59060
gfz2011oiqe  -0.14737
gfz2011owvz   0.17290
gfz2011rewa  -0.28726
gfz2011rqui   0.58035
gfz2011sagt   0.42809
gfz2011sawg   0.02814
gfz2011tjue  -0.23519
gfz2011tkog  -0.38261
gfz2011toub   0.19735
gfz2011uepx   0.13134
gfz2011uphh   0.05879
gfz2011vhfi  -0.04411
gfz2011wjul  -1.14400
gfz2011wvzb   0.47657
gfz2011wxfs   0.78499
gfz2011xqru   0.55552
gfz2011xyxj  -0.36329
gfz2012bfah  -0.29220
gfz2012bpkx  -0.42447
gfz2012bszs  -0.42865
gfz2012cgvr   0.07488
gfz2012czlw   0.05124
gfz2012emjg   0.93890
gfz2012enno  -0.46611
gfz2012ewgo  -1.20000
gfz2012fzfa   0.17188
gfz2012gill   0.00763
gfz2012gomm   1.99880
gfz2012ilvn   0.75901
gfz2012imay   0.14271
gfz2012iyrb   0.21832
gfz2012jlox   0.30325
gfz2012jupx   0.88629
gfz2012klhx  -0.73236
gfz2012kuct   0.46581
gfz2012kudo   0.07556
gfz2012lczo   0.77631
gfz2012ldxg  -0.06163
gfz2012minr  -0.47269
gfz2012nojx  -0.31722
gfz2012nolo  -0.31299
gfz2012nqnk  -0.72334
gfz2012nsbz   0.57583
gfz2012oazn   0.34150
gfz2012pkel   0.58799
gfz2012rqlg  -0.80812
gfz2012sphd  -0.54774
gfz2012syvl  -0.03282
gfz2012uvqf   0.56961
gfz2012vpza  -0.03862
gfz2012vrgb  -0.14924
gfz2012wxlg  -0.41386
gfz2012wybs  -0.66499
gfz2012wypz  -0.31337
gfz2012xbjq   0.51576
gfz2012xjyv   0.10176
gfz2013aayj  -0.73241
gfz2013axoj   0.60680
gfz2013ccnr  -0.59144
gfz2013cwpn   1.69800
gfz2013dofo   0.28755
gfz2013drxz  -0.45791
gfz2013ifpq  -0.09667
gfz2013iodt  -0.58520
gfz2013ippu   0.70235
gfz2013iunn   0.01172
gfz2013jdrx  -0.74694
gfz2013jkut   0.32788
gfz2013kdeo   0.87565
gfz2013ldqb  -0.26360
gfz2013lljw  -0.04408
gfz2013malg  -0.65278
gfz2013mwbh  -0.15463
gfz2013ncjp   0.94507
gfz2013ndin   0.31574
gfz2013nixj   1.62970
gfz2013nkgj  -0.68702
gfz2013nknw  -0.32963
gfz2013nqgw   0.28839
gfz2013nwdi  -0.93155
gfz2013ogde  -0.61238
gfz2013pfbx  -0.50306
gfz2013qmer  -0.10006
gfz2013sdus  -0.29066
gfz2013snbr  -0.88496
gfz2013suvn  -1.59290
gfz2013svci   0.04567
gfz2013toxf  -1.29810
gfz2013tusd  -0.57152
gfz2013tvmw   0.00000
gfz2013uauo  -0.59274
gfz2013vexx  -0.17364
gfz2013viul   0.18137
gfz2013vjjc  -0.06374
gfz2013wjmm   0.62536
gfz2013xsdt  -0.03149
gfz2014afmx   0.37929
gfz2014ajlk   0.57958
gfz2014algk  -1.03400
gfz2014ande  -0.40446
gfz2014arpf   0.02343
gfz2014bwue   0.43738
gfz2014chdv   0.31024
gfz2014czqi   0.36141
gfz2014fedd   0.33166
gfz2014fgvi   0.11624
gfz2014fgvz  -0.63578
gfz2014fgyo   1.80120
gfz2014fgza  -0.13188
gfz2014fhbd  -0.33245
gfz2014fhdw  -0.31001
gfz2014fhla  -0.89818
gfz2014fhrq   0.45623
gfz2014fhsg   0.46207
gfz2014fhwx  -0.68920
gfz2014fimn   0.17151
gfz2014fjpb  -0.05925
gfz2014fjzd   0.26091
gfz2014fkmr  -0.22564
gfz2014fqpz   0.05178
gfz2014frdz   0.11170
gfz2014ftka  -0.81487
gfz2014ftoc   0.11906
gfz2014ftpw  -0.30786
gfz2014furx  -0.94680
gfz2014fusc   0.35437
gfz2014fusj   0.11903
gfz2014fval   0.41968
gfz2014fvrg   0.02032
gfz2014gbcz   0.47446
gfz2014ghpe  -0.60747
gfz2014gkgf  -0.38311
gfz2014gkgs  -0.05296
gfz2014gkhp   1.36610
gfz2014gkhy   0.15709
gfz2014gkjl  -1.40170
gfz2014gkjt   0.51347
gfz2014gkob   0.04230
gfz2014gkpj  -0.82347
gfz2014gkqf  -0.06919
gfz2014gkqu  -0.02044
gfz2014gksj   0.35321
gfz2014gksu  -0.04728
gfz2014gktq   0.86472
gfz2014gkxm  -1.84490
gfz2014glcu   0.46988
gfz2014glcy   0.39606
gfz2014gltx   0.29030
gfz2014gmge   0.01948
gfz2014gmhp  -0.10599
gfz2014gmhr   0.31222
gfz2014gmip  -0.02795
gfz2014gmnb   0.41486
gfz2014gmnw   0.67343
gfz2014goba  -0.05790
gfz2014gogv   0.56966
gfz2014goqw   0.33306
gfz2014gqer   1.62460
gfz2014gsqs   0.85237
gfz2014gtlu  -1.17900
gfz2014gufl  -2.10880
gfz2014gull  -0.10333
gfz2014gvhw  -1.00490
gfz2014gvqj  -1.11590
gfz2014gvrd  -2.67430
gfz2014gwab   1.23060
gfz2014gxkh   0.71755
gfz2014gxxo  -0.09274
gfz2014hagb   0.21260
gfz2014haos   0.19921
gfz2014hasj  -0.03179
gfz2014hfhl  -0.28072
gfz2014hgqo   0.84275
gfz2014hocg  -0.22646
gfz2014hqxs   0.49489
gfz2014huaj   0.34400
gfz2014hyvq   0.12087
gfz2014imnn   0.36677
gfz2014inbj  -0.41582
gfz2014itkw   0.64625
gfz2014jfis  -0.04915
gfz2014jjhc  -0.02002
gfz2014jjln   0.68916
gfz2014jpep   0.40212
gfz2014kbuk  -1.22960
gfz2014kitm  -0.39510
gfz2014kndc   0.20421
gfz2014kytf  -0.25972
gfz2014lgqn   0.45731
gfz2014lhqn  -0.18736
gfz2014lpim   0.73883
gfz2014lxnc  -0.41364
gfz2014lyhk   0.06747
gfz2014lyhp  -0.16506
gfz2014macx   0.55296
gfz2014madw   0.14615
gfz2014ncub   0.21996
gfz2014nhyb   0.34725
gfz2014niqj   0.14690
gfz2014nnxd   0.57317
gfz2014npeo   0.57498
gfz2014nphm   0.30334
gfz2014nqfm  -0.38076
gfz2014nrie   0.67769
gfz2014oinz  -0.90412
gfz2014owxc  -0.16169
gfz2014pvch   0.14844
gfz2014pzml   0.40951
gfz2014pzni   0.24078
gfz2014qlxd  -0.62447
gfz2014qqhm  -0.38274
gfz2014rdsn  -0.03449
gfz2014ssvz   0.53898
gfz2014ubwn  -0.38390
gfz2014vhms   0.44623
gfz2014vjoz  -0.25994
gfz2014watn  -0.04522
gfz2014wqcp  -0.57206
gfz2014wrkh  -0.01898
gfz2014xqqd   0.36001
gfz2014yhhm  -0.18984
gfz2015atxv   0.36839
gfz2015bphe   0.23451
gfz2015chhn  -0.28295
gfz2015chqn   0.96352
gfz2015cxxk   0.02577
gfz2015cyjd   0.07518
gfz2015egxq  -0.31418
gfz2015eiky  -0.51207
gfz2015fsjj   0.32272
gfz2015gckd  -0.39040
gfz2015ggjw  -0.06586
gfz2015gjbr   0.75705
gfz2015hgbk  -0.37752
gfz2015igsy  -0.05130
gfz2015ixyy  -0.26500
gfz2015jmlu   0.02273
gfz2015jzcv   0.32548
gfz2015kakw   0.36069
gfz2015kphk  -0.35114
gfz2015kquq   0.57484
gfz2015ksni  -0.39725
gfz2015kxxs   0.19979
gfz2015lhjy   0.61384
gfz2015ltii  -0.42998
gfz2015ltro   0.14776
gfz2015lytv  -0.15697
gfz2015mbgr   0.59414
gfz2015mpte  -0.09206
gfz2015okmq   0.13439
gfz2015qvxu   0.18682
gfz2015rkzg   0.10485
gfz2015sfdd  -0.10800
gfz2015sfdy  -0.78248
gfz2015sfhz  -0.19389
gfz2015sfnb   1.10030
gfz2015sfno  -0.26126
gfz2015sgdn   0.35382
gfz2015sjgk   0.43055
gfz2015sjoj   0.17203
gfz2015sjvu  -0.64163
gfz2015smym   0.44333
gfz2015snsf  -0.99139
gfz2015snwh  -0.07402
gfz2015snyd  -0.06117
gfz2015soat   0.13789
gfz2015soxc   1.03580
gfz2015subz  -0.11602
gfz2015svwm   0.26478
gfz2015szcb  -0.49459
gfz2015taml   0.42968
gfz2015tbdn  -0.44886
