%!PS-Adobe-3.0
%%BoundingBox: 0 0 595 842
%%HiResBoundingBox: 0 0 595 842
%%Title: GMT v5.1.1 (r12968) [64-bit] Document from psbasemap
%%Creator: GMT5
%%For: nooshiri
%%DocumentNeededResources: font Helvetica
%%CreationDate: Mon Nov  2 10:13:51 2015
%%LanguageLevel: 2
%%DocumentData: Clean7Bit
%%Orientation: Portrait
%%Pages: 1
%%EndComments

%%BeginProlog
250 dict begin
/! {bind def} bind def
/# {load def}!
/A /setgray #
/B /setdash #
/C /setrgbcolor #
/D /rlineto #
/E {dup stringwidth pop}!
/F /fill #
/G /rmoveto #
/H /sethsbcolor #
/I /setpattern #
/K /setcmykcolor #
/L /lineto #
/M /moveto #
/N /newpath #
/P /closepath #
/R /rotate #
/S /stroke #
/T /translate #
/U /grestore #
/V /gsave #
/W /setlinewidth #
/Y {findfont exch scalefont setfont}!
/Z /show #
/FP {true charpath flattenpath}!
/MU {matrix setmatrix}!
/MS {/SMat matrix currentmatrix def}!
/MR {SMat setmatrix}!
/edef {exch def}!
/FS {/fc edef /fs {V fc F U} def}!
/FQ {/fs {} def}!
/O0 {/os {N} def}!
/O1 {/os {P S} def}!
/FO {fs os}!
/Sa {M MS dup 0 exch G 0.726542528 mul -72 R dup 0 D 4 {72 R dup 0 D -144 R dup 0 D} repeat pop MR FO}!
/Sb {M dup 0 D exch 0 exch D neg 0 D FO}!
/SB {MS T /BoxR edef /BoxW edef /BoxH edef BoxR 0 M
  BoxW 0 BoxW BoxH BoxR arct BoxW BoxH 0 BoxH BoxR arct 0 BoxH 0 0 BoxR arct 0 0 BoxW 0 BoxR arct MR FO}!
/Sc {N 3 -1 roll 0 360 arc FO}!
/Sd {M 4 {dup} repeat 0 G neg dup dup D exch D D FO}!
/Se {N MS T R scale 0 0 1 0 360 arc MR FO}!
/Sg {M MS 22.5 R dup 0 exch G -22.5 R 0.765366865 mul dup 0 D 6 {-45 R dup 0 D} repeat pop MR FO}!
/Sh {M MS dup 0 G -120 R dup 0 D 4 {-60 R dup 0 D} repeat pop MR FO}!
/Si {M MS dup neg 0 exch G 60 R 1.732050808 mul dup 0 D 120 R 0 D MR FO}!
/Sj {M MS R dup -2 div 2 index -2 div G dup 0 D exch 0 exch D neg 0 D MR FO}!
/Sn {M MS dup 0 exch G -36 R 1.175570505 mul dup 0 D 3 {-72 R dup 0 D} repeat pop MR FO}!
/Sp {N 3 -1 roll 0 360 arc fs N}!
/SP {M {D} repeat FO}!
/Sr {M dup -2 div 2 index -2 div G dup 0 D exch 0 exch D neg 0 D FO}!
/SR {MS T /BoxR edef /BoxW edef /BoxH edef BoxR BoxW -2 div BoxH -2 div T BoxR 0 M
  BoxW 0 BoxW BoxH BoxR arct BoxW BoxH 0 BoxH BoxR arct 0 BoxH 0 0 BoxR arct 0 0 BoxW 0 BoxR arct MR FO}!
/Ss {M 1.414213562 mul dup dup dup -2 div dup G 0 D 0 exch D neg 0 D FO}!
/St {M MS dup 0 exch G -60 R 1.732050808 mul dup 0 D -120 R 0 D MR FO}!
/SV {0 exch M 0 D D D D D 0 D FO}!
/Sv {0 0 M D D 0 D D D D D 0 D D FO}!
/Sw {2 copy M 5 2 roll arc FO}!
/Sx {M 1.414213562 mul 5 {dup} repeat -2 div dup G D neg 0 G neg D S}!
/Sy {M dup 0 exch G dup -2 mul dup 0 exch D S}!
/S+ {M dup 0 G dup -2 mul dup 0 D exch dup G 0 exch D S}!
/S- {M dup 0 G dup -2 mul dup 0 D S}!
/sw {stringwidth pop}!
/sh {V MU 0 0 M FP pathbbox N 4 1 roll pop pop pop U}!
/sd {V MU 0 0 M FP pathbbox N pop pop exch pop U}!
/sH {V MU 0 0 M FP pathbbox N exch pop exch sub exch pop U}!
/sb {E exch sh}!
/bl {}!
/bc {E -2 div 0 G}!
/br {E neg 0 G}!
/ml {dup 0 exch sh -2 div G}!
/mc {dup E -2 div exch sh -2 div G}!
/mr {dup E neg exch sh -2 div G}!
/tl {dup 0 exch sh neg G}!
/tc {dup E -2 div exch sh neg G}!
/tr {dup E neg exch sh neg G}!
/mx {2 copy lt {exch} if pop}!
/PSL_xorig 0 def /PSL_yorig 0 def
/TM {2 copy T PSL_yorig add /PSL_yorig edef PSL_xorig add /PSL_xorig edef}!
/PSL_reencode {findfont dup length dict begin
  {1 index /FID ne {def}{pop pop} ifelse} forall
  exch /Encoding edef currentdict end definefont pop
}!
/PSL_eps_begin {
  /PSL_eps_state save def
  /PSL_dict_count countdictstack def
  /PSL_op_count count 1 sub def
  userdict begin
  /showpage {} def
  0 setgray 0 setlinecap 1 setlinewidth
  0 setlinejoin 10 setmiterlimit [] 0 setdash newpath
  /languagelevel where
  {pop languagelevel 1 ne {false setstrokeadjust false setoverprint} if} if
}!
/PSL_eps_end {
  count PSL_op_count sub {pop} repeat
  countdictstack PSL_dict_count sub {end} repeat
  PSL_eps_state restore
}!
/PSL_transp {
  /.setopacityalpha where {pop .setblendmode .setopacityalpha}{
  /pdfmark where {pop [ /BM exch /CA exch dup /ca exch /SetTransparency pdfmark}
  {pop pop} ifelse} ifelse
}!
/ISOLatin1+_Encoding [
/.notdef	/.notdef	/.notdef	/.notdef	/.notdef	/.notdef	/.notdef	/.notdef
/.notdef	/.notdef	/.notdef	/.notdef	/.notdef	/.notdef	/.notdef	/.notdef
/.notdef	/.notdef	/.notdef	/.notdef	/.notdef	/.notdef	/.notdef	/.notdef
/.notdef	/bullet		/ellipsis	/trademark	/emdash		/endash		/fi		/zcaron
/space		/exclam		/quotedbl	/numbersign	/dollar		/percent	/ampersand	/quoteright
/parenleft	/parenright	/asterisk	/plus		/comma		/minus		/period		/slash
/zero		/one		/two		/three		/four		/five		/six		/seven
/eight		/nine		/colon		/semicolon	/less		/equal		/greater	/question
/at		/A		/B		/C		/D		/E		/F		/G
/H		/I		/J		/K		/L		/M		/N		/O
/P		/Q		/R		/S		/T		/U		/V		/W
/X		/Y		/Z		/bracketleft	/backslash	/bracketright	/asciicircum	/underscore
/quoteleft	/a		/b		/c 		/d		/e		/f		/g
/h		/i		/j		/k		/l		/m		/n		/o
/p		/q		/r		/s		/t		/u		/v		/w
/x		/y		/z		/braceleft	/bar		/braceright	/asciitilde	/scaron
/OE		/dagger		/daggerdbl	/Lslash		/fraction	/guilsinglleft	/Scaron		/guilsinglright
/oe		/Ydieresis	/Zcaron		/lslash		/perthousand	/quotedblbase	/quotedblleft	/quotedblright
/dotlessi	/grave		/acute		/circumflex	/tilde		/macron		/breve		/dotaccent
/dieresis	/quotesinglbase	/ring		/cedilla	/quotesingle	/hungarumlaut	/ogonek		/caron
/space		/exclamdown	/cent		/sterling	/currency	/yen		/brokenbar	/section
/dieresis	/copyright	/ordfeminine	/guillemotleft	/logicalnot	/hyphen		/registered	/macron
/degree		/plusminus	/twosuperior	/threesuperior	/acute		/mu		/paragraph	/periodcentered
/cedilla	/onesuperior	/ordmasculine	/guillemotright	/onequarter	/onehalf	/threequarters	/questiondown
/Agrave		/Aacute		/Acircumflex	/Atilde		/Adieresis	/Aring		/AE		/Ccedilla
/Egrave		/Eacute		/Ecircumflex	/Edieresis	/Igrave		/Iacute		/Icircumflex	/Idieresis
/Eth		/Ntilde		/Ograve		/Oacute		/Ocircumflex	/Otilde		/Odieresis	/multiply
/Oslash		/Ugrave		/Uacute		/Ucircumflex	/Udieresis	/Yacute		/Thorn		/germandbls
/agrave		/aacute		/acircumflex	/atilde		/adieresis	/aring		/ae		/ccedilla
/egrave		/eacute		/ecircumflex	/edieresis	/igrave		/iacute		/icircumflex	/idieresis
/eth		/ntilde		/ograve		/oacute		/ocircumflex	/otilde		/odieresis	/divide
/oslash		/ugrave		/uacute		/ucircumflex	/udieresis	/yacute		/thorn		/ydieresis
] def
/PSL_font_encode 0 0 0 0 0 0 0 0 0 0 0 0 0 0 0 0 0 0 0 0 0 0 0 0 0 0 0 0 0 0 0 0 0 0 0 0 0 0 0 39 array astore def
/F0 {/Helvetica Y}!
/F1 {/Helvetica-Bold Y}!
/F2 {/Helvetica-Oblique Y}!
/F3 {/Helvetica-BoldOblique Y}!
/F4 {/Times-Roman Y}!
/F5 {/Times-Bold Y}!
/F6 {/Times-Italic Y}!
/F7 {/Times-BoldItalic Y}!
/F8 {/Courier Y}!
/F9 {/Courier-Bold Y}!
/F10 {/Courier-Oblique Y}!
/F11 {/Courier-BoldOblique Y}!
/F12 {/Symbol Y}!
/F13 {/AvantGarde-Book Y}!
/F14 {/AvantGarde-BookOblique Y}!
/F15 {/AvantGarde-Demi Y}!
/F16 {/AvantGarde-DemiOblique Y}!
/F17 {/Bookman-Demi Y}!
/F18 {/Bookman-DemiItalic Y}!
/F19 {/Bookman-Light Y}!
/F20 {/Bookman-LightItalic Y}!
/F21 {/Helvetica-Narrow Y}!
/F22 {/Helvetica-Narrow-Bold Y}!
/F23 {/Helvetica-Narrow-Oblique Y}!
/F24 {/Helvetica-Narrow-BoldOblique Y}!
/F25 {/NewCenturySchlbk-Roman Y}!
/F26 {/NewCenturySchlbk-Italic Y}!
/F27 {/NewCenturySchlbk-Bold Y}!
/F28 {/NewCenturySchlbk-BoldItalic Y}!
/F29 {/Palatino-Roman Y}!
/F30 {/Palatino-Italic Y}!
/F31 {/Palatino-Bold Y}!
/F32 {/Palatino-BoldItalic Y}!
/F33 {/ZapfChancery-MediumItalic Y}!
/F34 {/ZapfDingbats Y}!
/F35 {/Ryumin-Light-EUC-H Y}!
/F36 {/Ryumin-Light-EUC-V Y}!
/F37 {/GothicBBB-Medium-EUC-H Y}!
/F38 {/GothicBBB-Medium-EUC-V Y}!
/PSL_pathtextdict 26 dict def
/PSL_pathtext
  {PSL_pathtextdict begin
    /textheight exch def
    /just exch def
    /offset exch def
    /str exch def
    /pathdist 0 def
    /setdist offset def
    /charcount 0 def
    /justy just 4 idiv textheight mul 2 div neg def
    V flattenpath
	{movetoproc} {linetoproc}
	{curvetoproc} {closepathproc}
	pathforall
    U N
    end
  } def
PSL_pathtextdict begin
/movetoproc
  { /newy exch def /newx exch def
    /firstx newx def /firsty newy def
    /ovr 0 def
    newx newy transform
    /cpy exch def /cpx exch def
  } def
/linetoproc
  { /oldx newx def /oldy newy def
    /newy exch def /newx exch def
    /dx newx oldx sub def
    /dy newy oldy sub def
    /dist dx dup mul dy dup mul add sqrt def
    dist 0 ne
    { /dsx dx dist div ovr mul def
      /dsy dy dist div ovr mul def
      oldx dsx add oldy dsy add transform
      /cpy exch def /cpx exch def
      /pathdist pathdist dist add def
      {setdist pathdist le
	  {charcount str length lt
	      {setchar} {exit} ifelse}
	  { /ovr setdist pathdist sub def
	    exit}
	  ifelse
      } loop
    } if
  } def
/curvetoproc
  { (ERROR: No curveto's after flattenpath!)
    print
  } def
/closepathproc
  {firstx firsty linetoproc
    firstx firsty movetoproc
  } def
/setchar
  { /char str charcount 1 getinterval def
    /charcount charcount 1 add def
    /charwidth char stringwidth pop def
    V cpx cpy itransform T
      dy dx atan R
      0 justy M
      char show
      0 justy neg G
      currentpoint transform
      /cpy exch def /cpx exch def
    U /setdist setdist charwidth add def
  } def
end
/PSL_curved_text_labels
{ /bits exch def
  /PSL_clippath bits 1 and 1 eq def
  /PSL_placetext bits 2 and 0 eq def
  /PSL_strokeline bits 4 and 4 eq def
  /PSL_firstcall bits 32 and 32 eq def
  /PSL_lastcall bits 64 and 64 eq def
  /PSL_fillbox bits 128 and 128 eq def
  /PSL_drawbox bits 256 and 256 eq def
  /PSL_n1 PSL_n 1 sub def
  /PSL_m1 PSL_m 1 sub def
  /PSL_usebox PSL_fillbox PSL_drawbox or def
  PSL_CT_calcstringwidth
  PSL_CT_calclinedist
  PSL_CT_addcutpoints
  PSL_clippath PSL_firstcall and
  {clipsave N clippath} if
  PSL_setlinepen
  /PSL_nn1 PSL_nn 1 sub def
  /n 0 def
  /k 0 def
  /j 0 def
  /PSL_seg 0 def
  /PSL_xp PSL_nn array def
  /PSL_yp PSL_nn array def
  PSL_xp 0 PSL_xx 0 get put
  PSL_yp 0 PSL_yy 0 get put
  1 1 PSL_nn1
  { /i exch def
    /node_type PSL_kind i get def
    /j j 1 add def
    PSL_xp j PSL_xx i get put
    PSL_yp j PSL_yy i get put
    node_type 1 eq
    {n 0 eq
      {PSL_CT_drawline}
      {	PSL_CT_reversepath
	PSL_CT_textline} ifelse
      /j 0 def
      PSL_xp j PSL_xx i get put
      PSL_yp j PSL_yy i get put
    } if
  } for
  n 0 eq {PSL_CT_drawline} if
  PSL_lastcall
  {PSL_clippath
    {PSL_clip} if N
  } if
} def
/PSL_CT_textline
{PSL_placetext
  {PSL_clippath
    {PSL_CT_clippath} {PSL_CT_placelabel} ifelse
  } if
  /n 0 def /k k 1 add def PSL_setlinepen
} def
/PSL_CT_calcstringwidth
{ /PSL_width PSL_m array def
  0 1 PSL_m1
  { /i exch def
    PSL_width i PSL_str i get stringwidth pop put
  } for
} def
/PSL_CT_calclinedist
{ /PSL_newx PSL_x 0 get def
  /PSL_newy PSL_y 0 get def
  /dist 0.0 def
  /PSL_dist PSL_n array def
  PSL_dist 0 0.0 put
  1 1 PSL_n1
  { /i exch def
    /PSL_oldx PSL_newx def
    /PSL_oldy PSL_newy def
    /PSL_newx PSL_x i get def
    /PSL_newy PSL_y i get def
    /dx PSL_newx PSL_oldx sub def
    /dy PSL_newy PSL_oldy sub def
    /dist dist dx dx mul dy dy mul add sqrt add def
    PSL_dist i dist put
  } for
} def
/PSL_CT_addcutpoints
{ /k 0 def
  /PSL_nc PSL_m 2 mul 1 add def
  /PSL_cuts PSL_nc array def
  /PSL_nc1 PSL_nc 1 sub def
  0 1 PSL_m1
  { /i exch def
    /dist PSL_dist PSL_node i get get def
    /halfwidth PSL_width i get 2 div PSL_gap_x add def
    PSL_cuts k dist halfwidth sub put
    /k k 1 add def
    PSL_cuts k dist halfwidth add put
    /k k 1 add def
  } for
  PSL_cuts k 100000.0 put
  /PSL_nn PSL_n PSL_m 2 mul add def
  /PSL_xx PSL_nn array def
  /PSL_yy PSL_nn array def
  /PSL_kind PSL_nn array def
  /j 0 def
  /k 0 def
  /dist 0.0 def
  0 1 PSL_n1
  { /i exch def
    /last_dist dist def
    /dist PSL_dist i get def
    k 1 PSL_nc1
    { /kk exch def
      /this_cut PSL_cuts kk get def
      dist this_cut gt
      { /ds dist last_dist sub def
	/f ds 0.0 eq {0.0} {dist this_cut sub ds div} ifelse def
	/i1 i 0 eq {0} {i 1 sub} ifelse def
	PSL_xx j PSL_x i get dup PSL_x i1 get sub f mul sub put
	PSL_yy j PSL_y i get dup PSL_y i1 get sub f mul sub put
	PSL_kind j 1 put
	/j j 1 add def
	/k k 1 add def
      } if
    } for
    dist PSL_cuts k get le
    {PSL_xx j PSL_x i get put PSL_yy j PSL_y i get put
      PSL_kind j 0 put
      /j j 1 add def
    } if
  } for
} def
/PSL_CT_reversepath
{PSL_xp j get PSL_xp 0 get lt
  {0 1 j 2 idiv
    { /left exch def
      /right j left sub def
      /tmp PSL_xp left get def
      PSL_xp left PSL_xp right get put
      PSL_xp right tmp put
      /tmp PSL_yp left get def
      PSL_yp left PSL_yp right get put
      PSL_yp right tmp put
    } for
  } if
} def
/PSL_CT_placelabel
{
  PSL_usebox
  {PSL_CT_clippath
    PSL_fillbox
    {V PSL_setboxrgb fill U} if
    PSL_drawbox
    {PSL_setboxpen S} if N
  } if
  PSL_settxtrgb PSL_CT_placeline PSL_str k get PSL_gap_x PSL_just PSL_height PSL_pathtext
} def
/PSL_CT_clippath
{
  /H PSL_height 2 div PSL_gap_y add def
  /xoff j 1 add array def
  /yoff j 1 add array def
  /angle 0 def
  0 1 j {
    /ii exch def
    /x PSL_xp ii get def
    /y PSL_yp ii get def
    ii 0 eq {
      /x1 PSL_xp 1 get def
      /y1 PSL_yp 1 get def
      /dx x1 x sub def
      /dy y1 y sub def
    }
    { /i1 ii 1 sub def
      /x1 PSL_xp i1 get def
      /y1 PSL_yp i1 get def
      /dx x x1 sub def
      /dy y y1 sub def
    } ifelse
    dx 0.0 ne dy 0.0 ne and
    { /angle dy dx atan 90 add def} if
    /sina angle sin def
    /cosa angle cos def
    xoff ii H cosa mul put
    yoff ii H sina mul put
  } for
  PSL_xp 0 get xoff 0 get add PSL_yp 0 get yoff 0 get add M
  1 1 j {
    /ii exch def
    PSL_xp ii get xoff ii get add PSL_yp ii get yoff ii get add L
  } for
  j -1 0 {
    /ii exch def
    PSL_xp ii get xoff ii get sub PSL_yp ii get yoff ii get sub L
  } for P
} def
/PSL_CT_drawline
{
  /str 20 string def
  PSL_strokeline
  {PSL_CT_placeline PSL_setlinepen S} if
  /PSL_seg PSL_seg 1 add def
  /n 1 def
} def
/PSL_CT_placeline
{PSL_xp 0 get PSL_yp 0 get M
  1 1 j { /ii exch def PSL_xp ii get PSL_yp ii get L} for
} def
/PSL_straight_text_labels
{
  /bits exch def
  /PSL_clippath bits 1 and 0 eq def
  /PSL_rounded bits 16 and 16 eq def
  /PSL_fillbox bits 128 and 128 eq def
  /PSL_drawbox bits 256 and 256 eq def
  /PSL_m1 PSL_m 1 sub def
  /PSL_justx PSL_just 4 mod 1 sub 2 div neg def
  /PSL_justy PSL_just 4 idiv PSL_height mul 2 div neg def
  /PSL_usebox PSL_fillbox PSL_drawbox or def
  PSL_clippath
  {PSL_ST_clippath}
  {PSL_usebox {PSL_ST_clippath} if
    PSL_ST_placelabel
  } ifelse
} def
/PSL_ST_placelabel
{PSL_settxtrgb
  0 1 PSL_m1
  { /k exch def
    /xp PSL_txt_x k get def
    /yp PSL_txt_y k get def
    V PSL_txt_x k get PSL_txt_y k get T
    PSL_angle k get R
    /BoxW PSL_str k get stringwidth pop def
    BoxW PSL_justx mul PSL_justy M
    PSL_str k get show
    U
  } for
} def
/PSL_ST_clippath
{N
  PSL_usebox not {clipsave clippath} if
  PSL_rounded {PSL_ST_clippath_round} {PSL_ST_clippath_rect} ifelse
  PSL_usebox
  {PSL_fillbox
    {V PSL_setboxrgb fill U} if
    PSL_drawbox
    {PSL_setboxpen S} if N
  }
  {PSL_clip
  } ifelse
  N
} def
/PSL_ST_clippath_rect
{
  /BoxH PSL_height PSL_gap_y 2 mul add def
  /DelY BoxH BoxH 0 3 array astore def
  0 1 PSL_m1
  { /k exch def
    /xp PSL_txt_x k get def
    /yp PSL_txt_y k get def
    /MAT PSL_angle k get matrix R def
    /BoxW PSL_str k get stringwidth pop PSL_gap_x 2 mul add def
    /x0 0 BoxW PSL_justx mul add def
    /y0 0 PSL_justy add PSL_gap_y sub def
    /DelX 0 BoxW BoxW 3 array astore def
    x0 y0 MAT transform
    /dy exch def /dx exch def
    xp dx add yp dy add M
    0 1 2
    {
      /ii exch def
      x0 DelX ii get add y0 DelY ii get add MAT transform
      /dy exch def /dx exch def
      xp dx add yp dy add L
    } for P
  } for
} def
/PSL_ST_clippath_round
{
  /PSL_justy2 PSL_just 4 idiv 2 div neg def
  /BoxR PSL_gap_x PSL_gap_y lt {PSL_gap_x} {PSL_gap_y} ifelse def
  /BoxH PSL_height PSL_gap_y 2 mul add def
  /y0 PSL_height PSL_gap_y 2 mul add PSL_justy2 mul def
  0 1 PSL_m1
  { /k exch def
    /xp PSL_txt_x k get def
    /yp PSL_txt_y k get def
    /BoxW PSL_str k get stringwidth pop PSL_gap_x 2 mul add def
    /x0 BoxW PSL_justx mul def
    xp yp T PSL_angle k get R x0 y0 T
    BoxR 0 M
    BoxW 0 BoxW BoxH BoxR arct BoxW BoxH 0 BoxH BoxR arct 0 BoxH 0 0 BoxR arct 0 0 BoxW 0 BoxR arct P
    x0 neg y0 neg T PSL_angle k get neg R xp neg yp neg T
  } for
} def
/PSL_nclip 0 def
/PSL_clip {clip /PSL_nclip PSL_nclip 1 add def} def
/PSL_eoclip {eoclip /PSL_nclip PSL_nclip 1 add def} def
/PSL_cliprestore {cliprestore /PSL_nclip PSL_nclip 1 sub def} def
%%EndProlog

%%BeginSetup
/PSLevel /languagelevel where {pop languagelevel} {1} ifelse def
PSLevel 1 gt { << /PageSize [595 842] /ImagingBBox null >> setpagedevice } if
%%EndSetup

%%Page: 1 1

%%BeginPageSetup
V 0.06 0.06 scale
%%EndPageSetup

/PSL_page_xsize 9917 def
/PSL_page_ysize 14033 def
0 A
FQ
O0
3000 11400 TM

% PostScript produced by:
%%GMT: psbasemap -R-90.5/-62/0/650 -JX4i/-1.25i -Bxa5 -Bya100f50+lDepth [km] -BWeSn -X2.5i -Y9.5i -P -K
%%PROJ: xy -90.50000000 -62.00000000 0.00000000 650.00000000 -90.500 -62.000 650.000 -0.000 +xy +a=6378137.000 +b=6356752.314245
%%BeginObject PSL_Layer_1
0 setlinecap
0 setlinejoin
3.32551 setmiterlimit
2 setlinecap
/MM {neg exch M} def
/PSL_A0_y 83 def
/PSL_A1_y 0 def
25 W
0 1500 M 0 -1500 D S
8 W
0 1500 M -83 0 D S
0 1269 M -83 0 D S
0 1038 M -83 0 D S
0 808 M -83 0 D S
0 577 M -83 0 D S
0 346 M -83 0 D S
0 115 M -83 0 D S
/PSL_AH0 0
PSL_font_encode 0 get 0 eq {ISOLatin1+_Encoding /Helvetica /Helvetica PSL_reencode PSL_font_encode 0 1 put} if
200 F0
(0) sw mx
(100) sw mx
(200) sw mx
(300) sw mx
(400) sw mx
(500) sw mx
(600) sw mx
def
/PSL_A0_y PSL_A0_y 83 add def
1500 PSL_A0_y MM
(0) mr Z
1269 PSL_A0_y MM
(100) mr Z
1038 PSL_A0_y MM
(200) mr Z
808 PSL_A0_y MM
(300) mr Z
577 PSL_A0_y MM
(400) mr Z
346 PSL_A0_y MM
(500) mr Z
115 PSL_A0_y MM
(600) mr Z
/PSL_A0_y PSL_A0_y PSL_AH0 add def
0 1385 M -42 0 D S
0 1154 M -42 0 D S
0 923 M -42 0 D S
0 692 M -42 0 D S
0 462 M -42 0 D S
0 231 M -42 0 D S
0 0 M -42 0 D S
/PSL_LH 267 F0
(M) sh def
/PSL_L_y PSL_A0_y PSL_A1_y mx 133 add def
750 PSL_L_y MM
V 90 R (Depth \[km\]) bc Z U
4800 0 T
/MM {exch M} def
/PSL_A0_y 83 def
/PSL_A1_y 0 def
25 W
0 1500 M 0 -1500 D S
8 W
0 1500 M 83 0 D S
0 1269 M 83 0 D S
0 1038 M 83 0 D S
0 808 M 83 0 D S
0 577 M 83 0 D S
0 346 M 83 0 D S
0 115 M 83 0 D S
0 1385 M 42 0 D S
0 1154 M 42 0 D S
0 923 M 42 0 D S
0 692 M 42 0 D S
0 462 M 42 0 D S
0 231 M 42 0 D S
0 0 M 42 0 D S
/PSL_LH 0 def /PSL_L_y PSL_A0_y PSL_A1_y mx def
-4800 0 T
/MM {neg M} def
/PSL_A0_y 83 def
/PSL_A1_y 0 def
25 W
0 0 M 4800 0 D S
8 W
84 0 M 0 -83 D S
926 0 M 0 -83 D S
1768 0 M 0 -83 D S
2611 0 M 0 -83 D S
3453 0 M 0 -83 D S
4295 0 M 0 -83 D S
/PSL_AH0 0
200 F0
(-90) sh mx
(-85) sh mx
(-80) sh mx
(-75) sh mx
(-70) sh mx
(-65) sh mx
def
/PSL_A0_y PSL_A0_y 83 add PSL_AH0 add def
84 PSL_A0_y MM
(-90) bc Z
926 PSL_A0_y MM
(-85) bc Z
1768 PSL_A0_y MM
(-80) bc Z
2611 PSL_A0_y MM
(-75) bc Z
3453 PSL_A0_y MM
(-70) bc Z
4295 PSL_A0_y MM
(-65) bc Z
/PSL_LH 0 def /PSL_L_y PSL_A0_y PSL_A1_y mx def
0 1500 T
/MM {M} def
/PSL_A0_y 83 def
/PSL_A1_y 0 def
25 W
0 0 M 4800 0 D S
8 W
84 0 M 0 83 D S
926 0 M 0 83 D S
1768 0 M 0 83 D S
2611 0 M 0 83 D S
3453 0 M 0 83 D S
4295 0 M 0 83 D S
/PSL_LH 0 def /PSL_L_y PSL_A0_y PSL_A1_y mx def
0 -1500 T
0 setlinecap
%%EndObject
0 A
FQ
O0
0 0 TM

% PostScript produced by:
%%GMT: psxy -R-90.5/-62/0/650 -JX4i/-1.25i -Sc0.07 -GORANGE -Wthinnest -N -O -K
%%PROJ: xy -90.50000000 -62.00000000 0.00000000 650.00000000 -90.500 -62.000 650.000 -0.000 +xy +a=6378137.000 +b=6356752.314245
%%BeginObject PSL_Layer_2
0 setlinecap
0 setlinejoin
3.32551 setmiterlimit
4 W
V
{1 0.647 0 C} FS
O1
17 3582 1218 Sc
17 3404 1477 Sc
17 4482 1468 Sc
17 4492 1470 Sc
17 3500 1138 Sc
17 4268 535 Sc
17 3523 1218 Sc
17 3436 1223 Sc
17 3338 1417 Sc
17 3003 1477 Sc
17 3955 891 Sc
17 3611 1235 Sc
17 3540 1265 Sc
17 3326 1295 Sc
17 3835 1062 Sc
17 3850 1103 Sc
17 3603 1179 Sc
17 3527 1248 Sc
17 3225 1440 Sc
17 3508 1308 Sc
17 3540 1267 Sc
17 3596 1193 Sc
17 3247 1253 Sc
17 3560 1258 Sc
17 3520 1253 Sc
17 3480 1281 Sc
17 3533 1278 Sc
17 3537 1242 Sc
17 3517 1235 Sc
17 3582 1235 Sc
17 3533 1269 Sc
17 3574 1168 Sc
17 3422 1477 Sc
17 2920 1477 Sc
17 3493 1278 Sc
17 3475 1267 Sc
17 3512 1242 Sc
17 3555 1246 Sc
17 3574 1212 Sc
17 3629 1272 Sc
17 3336 1371 Sc
17 3867 1068 Sc
17 3471 1198 Sc
17 3559 1242 Sc
17 3417 1267 Sc
17 3464 1228 Sc
17 3079 1364 Sc
17 3565 1285 Sc
17 3640 1269 Sc
17 3539 1276 Sc
17 3094 1318 Sc
17 3569 1262 Sc
17 3210 1433 Sc
17 3476 1158 Sc
17 3547 1209 Sc
17 4083 831 Sc
17 3325 1477 Sc
17 3569 1267 Sc
17 3623 1274 Sc
17 3562 1248 Sc
17 3528 1170 Sc
17 3589 1251 Sc
17 3508 1175 Sc
17 3271 1445 Sc
17 3439 1387 Sc
17 3476 1085 Sc
17 3663 1221 Sc
17 4601 1477 Sc
17 4589 1477 Sc
17 4645 1477 Sc
17 3375 1422 Sc
17 4589 1417 Sc
17 3621 1147 Sc
17 3480 1332 Sc
17 3544 1177 Sc
17 3584 1191 Sc
17 3416 1387 Sc
17 3515 1265 Sc
17 3537 1221 Sc
17 3525 1200 Sc
17 3261 1477 Sc
17 3426 1188 Sc
17 3535 1202 Sc
17 3261 1477 Sc
17 3997 953 Sc
17 3584 1265 Sc
17 3269 1477 Sc
17 3264 1477 Sc
17 3341 1322 Sc
17 3528 1216 Sc
17 3330 1332 Sc
17 3294 1461 Sc
17 3306 1477 Sc
17 3352 1438 Sc
17 3572 1255 Sc
17 3298 1477 Sc
17 3540 1477 Sc
17 3298 1477 Sc
17 2978 1477 Sc
17 3313 1477 Sc
17 3146 1477 Sc
17 3277 1458 Sc
17 4485 1285 Sc
17 3491 1149 Sc
17 3560 1207 Sc
17 3427 1193 Sc
17 3276 1477 Sc
17 3274 1477 Sc
17 3267 1477 Sc
17 3277 1477 Sc
17 3200 1477 Sc
17 3936 893 Sc
17 3569 1165 Sc
17 3555 1200 Sc
17 3269 1415 Sc
17 3993 930 Sc
17 4519 1475 Sc
17 4509 1424 Sc
17 3512 1214 Sc
17 2877 1477 Sc
17 4541 1362 Sc
17 3224 1350 Sc
17 3565 1161 Sc
17 3567 1094 Sc
17 3085 1385 Sc
17 3448 1276 Sc
17 3611 1253 Sc
17 3621 1230 Sc
17 3564 1248 Sc
17 3589 1262 Sc
17 3520 1149 Sc
17 3245 1449 Sc
17 3586 1195 Sc
17 3582 1253 Sc
17 3532 1089 Sc
17 3569 1172 Sc
17 3604 1251 Sc
17 3256 1477 Sc
17 3599 1299 Sc
17 3609 1477 Sc
U
%%EndObject
0 A
FQ
O0
0 0 TM

% PostScript produced by:
%%GMT: pstext -R-90.5/-62/0/650 -JX4i/-1.25i -F+f14,31,+j -N -O -K
%%PROJ: xy -90.50000000 -62.00000000 0.00000000 650.00000000 -90.500 -62.000 650.000 -0.000 +xy +a=6378137.000 +b=6356752.314245
%%BeginObject PSL_Layer_3
0 setlinecap
0 setlinejoin
3.32551 setmiterlimit
0 1615 M PSL_font_encode 31 get 0 eq {ISOLatin1+_Encoding /Palatino-Bold /Palatino-Bold PSL_reencode PSL_font_encode 31 1 put} if
233 F31
(1) Z
4800 1615 M V MU 0 0 M (1) FP 0 82 G 163 F31 (') FP 0 -82 G pathbbox N pop exch pop add U neg 0 G
(1) Z
0 82 G 163 F31 (') Z
0 -82 G %%EndObject
0 A
FQ
O0
0 -2400 TM

% PostScript produced by:
%%GMT: psbasemap -R-90.5/-62/0/650 -JX4i/-1.25i -Bxa5 -Bya100f50+lDepth [km] -BWeSn -Y-2i -O -K
%%PROJ: xy -90.50000000 -62.00000000 0.00000000 650.00000000 -90.500 -62.000 650.000 -0.000 +xy +a=6378137.000 +b=6356752.314245
%%BeginObject PSL_Layer_4
0 setlinecap
0 setlinejoin
3.32551 setmiterlimit
2 setlinecap
/MM {neg exch M} def
/PSL_A0_y 83 def
/PSL_A1_y 0 def
25 W
0 1500 M 0 -1500 D S
8 W
0 1500 M -83 0 D S
0 1269 M -83 0 D S
0 1038 M -83 0 D S
0 808 M -83 0 D S
0 577 M -83 0 D S
0 346 M -83 0 D S
0 115 M -83 0 D S
/PSL_AH0 0
PSL_font_encode 0 get 0 eq {ISOLatin1+_Encoding /Helvetica /Helvetica PSL_reencode PSL_font_encode 0 1 put} if
200 F0
(0) sw mx
(100) sw mx
(200) sw mx
(300) sw mx
(400) sw mx
(500) sw mx
(600) sw mx
def
/PSL_A0_y PSL_A0_y 83 add def
1500 PSL_A0_y MM
(0) mr Z
1269 PSL_A0_y MM
(100) mr Z
1038 PSL_A0_y MM
(200) mr Z
808 PSL_A0_y MM
(300) mr Z
577 PSL_A0_y MM
(400) mr Z
346 PSL_A0_y MM
(500) mr Z
115 PSL_A0_y MM
(600) mr Z
/PSL_A0_y PSL_A0_y PSL_AH0 add def
0 1385 M -42 0 D S
0 1154 M -42 0 D S
0 923 M -42 0 D S
0 692 M -42 0 D S
0 462 M -42 0 D S
0 231 M -42 0 D S
0 0 M -42 0 D S
/PSL_LH 267 F0
(M) sh def
/PSL_L_y PSL_A0_y PSL_A1_y mx 133 add def
750 PSL_L_y MM
V 90 R (Depth \[km\]) bc Z U
4800 0 T
/MM {exch M} def
/PSL_A0_y 83 def
/PSL_A1_y 0 def
25 W
0 1500 M 0 -1500 D S
8 W
0 1500 M 83 0 D S
0 1269 M 83 0 D S
0 1038 M 83 0 D S
0 808 M 83 0 D S
0 577 M 83 0 D S
0 346 M 83 0 D S
0 115 M 83 0 D S
0 1385 M 42 0 D S
0 1154 M 42 0 D S
0 923 M 42 0 D S
0 692 M 42 0 D S
0 462 M 42 0 D S
0 231 M 42 0 D S
0 0 M 42 0 D S
/PSL_LH 0 def /PSL_L_y PSL_A0_y PSL_A1_y mx def
-4800 0 T
/MM {neg M} def
/PSL_A0_y 83 def
/PSL_A1_y 0 def
25 W
0 0 M 4800 0 D S
8 W
84 0 M 0 -83 D S
926 0 M 0 -83 D S
1768 0 M 0 -83 D S
2611 0 M 0 -83 D S
3453 0 M 0 -83 D S
4295 0 M 0 -83 D S
/PSL_AH0 0
200 F0
(-90) sh mx
(-85) sh mx
(-80) sh mx
(-75) sh mx
(-70) sh mx
(-65) sh mx
def
/PSL_A0_y PSL_A0_y 83 add PSL_AH0 add def
84 PSL_A0_y MM
(-90) bc Z
926 PSL_A0_y MM
(-85) bc Z
1768 PSL_A0_y MM
(-80) bc Z
2611 PSL_A0_y MM
(-75) bc Z
3453 PSL_A0_y MM
(-70) bc Z
4295 PSL_A0_y MM
(-65) bc Z
/PSL_LH 0 def /PSL_L_y PSL_A0_y PSL_A1_y mx def
0 1500 T
/MM {M} def
/PSL_A0_y 83 def
/PSL_A1_y 0 def
25 W
0 0 M 4800 0 D S
8 W
84 0 M 0 83 D S
926 0 M 0 83 D S
1768 0 M 0 83 D S
2611 0 M 0 83 D S
3453 0 M 0 83 D S
4295 0 M 0 83 D S
/PSL_LH 0 def /PSL_L_y PSL_A0_y PSL_A1_y mx def
0 -1500 T
0 setlinecap
%%EndObject
0 A
FQ
O0
0 0 TM

% PostScript produced by:
%%GMT: psxy -R-90.5/-62/0/650 -JX4i/-1.25i -Sc0.07 -GORANGE -Wthinnest -N -O -K
%%PROJ: xy -90.50000000 -62.00000000 0.00000000 650.00000000 -90.500 -62.000 650.000 -0.000 +xy +a=6378137.000 +b=6356752.314245
%%BeginObject PSL_Layer_5
0 setlinecap
0 setlinejoin
3.32551 setmiterlimit
4 W
V
{1 0.647 0 C} FS
O1
17 3667 1267 Sc
17 4515 261 Sc
17 4037 976 Sc
17 4007 1032 Sc
17 3998 1122 Sc
17 3985 1098 Sc
17 4057 898 Sc
17 3955 1094 Sc
17 3971 1156 Sc
17 3889 1020 Sc
17 4512 397 Sc
17 4049 1041 Sc
17 3941 1013 Sc
17 4094 972 Sc
17 3734 1253 Sc
17 3928 1080 Sc
17 3571 1306 Sc
17 4003 1059 Sc
17 4520 291 Sc
17 3668 1255 Sc
17 3594 1288 Sc
17 3951 1103 Sc
17 3929 1135 Sc
17 3656 1288 Sc
17 3906 921 Sc
17 3978 1087 Sc
17 4035 942 Sc
17 3965 1075 Sc
17 3571 1318 Sc
17 3899 1068 Sc
17 4123 872 Sc
17 3948 1101 Sc
17 3990 1062 Sc
17 3997 1087 Sc
17 3946 1068 Sc
17 4040 976 Sc
17 3609 1350 Sc
17 3357 1435 Sc
17 3966 1092 Sc
17 3961 1117 Sc
17 3966 1020 Sc
17 3981 1064 Sc
17 3912 1094 Sc
17 4017 1059 Sc
17 3995 1082 Sc
17 4066 1004 Sc
17 3589 1302 Sc
17 3862 1101 Sc
17 3917 1149 Sc
17 3645 1288 Sc
17 3704 1290 Sc
17 4003 1071 Sc
17 4057 863 Sc
17 4010 1043 Sc
17 3904 1059 Sc
17 3948 1124 Sc
17 3997 1080 Sc
17 3993 1085 Sc
17 4150 907 Sc
17 4010 1082 Sc
17 4032 999 Sc
17 4052 1048 Sc
17 4081 1034 Sc
17 3882 946 Sc
17 3688 1228 Sc
17 4525 265 Sc
17 3917 1115 Sc
17 3544 1308 Sc
17 3951 1002 Sc
17 4044 1018 Sc
17 4108 944 Sc
17 3965 1078 Sc
17 3970 1078 Sc
17 3987 1059 Sc
17 3981 1043 Sc
17 3998 1089 Sc
17 3924 907 Sc
17 4421 1465 Sc
17 4054 1036 Sc
17 4413 1375 Sc
17 3367 1422 Sc
17 4019 1057 Sc
17 3971 1101 Sc
17 4071 985 Sc
17 3581 1348 Sc
17 3965 1138 Sc
17 3596 1283 Sc
17 4121 972 Sc
17 3405 1417 Sc
17 3995 1043 Sc
17 4446 1477 Sc
17 3993 1062 Sc
17 3789 1214 Sc
17 3685 1251 Sc
17 3961 1064 Sc
17 4010 1066 Sc
17 3965 1119 Sc
17 4429 1477 Sc
17 3963 1073 Sc
17 4094 997 Sc
17 3987 1098 Sc
17 4120 951 Sc
17 3923 1110 Sc
17 3971 1078 Sc
17 3995 1066 Sc
17 3592 1318 Sc
17 4091 944 Sc
17 3997 1057 Sc
17 4037 1025 Sc
17 4039 1103 Sc
17 3981 1064 Sc
17 3370 1449 Sc
17 3357 1452 Sc
17 4529 252 Sc
17 3928 1177 Sc
17 4002 1048 Sc
17 4145 923 Sc
17 4504 286 Sc
17 3929 1022 Sc
17 3980 1068 Sc
17 3731 1281 Sc
17 3641 1295 Sc
17 3956 1115 Sc
17 3894 1085 Sc
17 3624 1355 Sc
17 4042 1043 Sc
17 3688 1239 Sc
17 4022 1048 Sc
17 3574 1276 Sc
17 3592 1352 Sc
17 3919 1117 Sc
17 4056 1034 Sc
17 3965 1133 Sc
17 4049 1119 Sc
17 3670 1283 Sc
17 3956 1117 Sc
17 3820 1225 Sc
17 3955 1117 Sc
17 3731 1246 Sc
17 4510 286 Sc
17 3495 1373 Sc
17 4308 1401 Sc
17 4104 935 Sc
17 3693 1258 Sc
17 4507 277 Sc
17 3781 1244 Sc
17 4012 1068 Sc
17 4000 1038 Sc
17 4509 284 Sc
17 4147 907 Sc
17 3885 967 Sc
17 3995 835 Sc
17 3560 1292 Sc
17 3567 1304 Sc
17 3761 1248 Sc
17 4263 1424 Sc
17 3968 1103 Sc
17 3608 1304 Sc
17 3732 1235 Sc
17 3907 974 Sc
17 3722 1255 Sc
17 4003 1052 Sc
17 3949 1110 Sc
17 3400 1396 Sc
17 3987 1066 Sc
17 3914 1082 Sc
17 3980 1071 Sc
17 3623 1302 Sc
17 3835 1045 Sc
17 3963 1101 Sc
17 3709 1278 Sc
17 3998 1075 Sc
17 3709 1285 Sc
17 4387 1465 Sc
17 3949 1110 Sc
17 4367 1394 Sc
17 3939 1115 Sc
17 3810 1255 Sc
17 4017 1057 Sc
17 3791 1214 Sc
17 3987 1119 Sc
17 3934 1108 Sc
17 3906 932 Sc
17 4005 1062 Sc
17 3941 1110 Sc
17 3998 1071 Sc
17 3768 1216 Sc
17 3990 1045 Sc
17 3987 1027 Sc
17 4037 1004 Sc
17 3727 1269 Sc
17 4051 1050 Sc
17 3518 1311 Sc
17 3998 1064 Sc
17 3759 1235 Sc
17 3685 1269 Sc
17 3672 1274 Sc
17 3864 1008 Sc
17 4003 1064 Sc
17 3635 1267 Sc
17 4083 965 Sc
17 3958 1066 Sc
17 3987 792 Sc
17 3323 1410 Sc
17 4044 905 Sc
17 4052 856 Sc
17 3980 1029 Sc
17 3512 1315 Sc
17 4138 893 Sc
17 3980 1075 Sc
17 3761 1195 Sc
17 3904 1198 Sc
17 3635 1306 Sc
17 4005 1052 Sc
17 3651 1272 Sc
17 3946 1112 Sc
17 4086 923 Sc
17 4003 944 Sc
17 3328 1454 Sc
17 3633 1290 Sc
17 3966 1094 Sc
17 3990 1055 Sc
17 4061 902 Sc
17 4047 1149 Sc
17 3832 1055 Sc
17 3683 1265 Sc
17 3921 1020 Sc
17 4002 1045 Sc
17 4054 895 Sc
17 3936 1128 Sc
17 4029 1062 Sc
17 3591 1318 Sc
17 4003 1029 Sc
17 3946 1103 Sc
17 3995 1048 Sc
17 4109 905 Sc
17 3414 1403 Sc
17 4022 1011 Sc
17 3971 1108 Sc
17 3683 1306 Sc
17 3813 1175 Sc
17 4098 939 Sc
17 3923 842 Sc
17 3677 1295 Sc
17 3998 1018 Sc
17 3995 1064 Sc
17 3963 1078 Sc
17 3810 1223 Sc
17 3845 1082 Sc
17 4040 891 Sc
17 3887 1122 Sc
17 3680 1265 Sc
17 3862 1027 Sc
17 3699 1278 Sc
17 3976 1064 Sc
17 3693 1290 Sc
17 3943 1477 Sc
17 3902 1085 Sc
17 3978 953 Sc
17 3419 1380 Sc
17 3601 1299 Sc
17 3798 1048 Sc
17 3628 1325 Sc
17 4044 1020 Sc
17 3771 1177 Sc
17 3621 1290 Sc
17 3707 1269 Sc
17 3923 1110 Sc
17 4020 1066 Sc
17 3912 1096 Sc
17 3923 1068 Sc
17 3778 1223 Sc
17 4007 1041 Sc
17 4022 1048 Sc
17 4056 1020 Sc
17 3693 1288 Sc
17 4002 1115 Sc
17 4000 1041 Sc
17 3289 1477 Sc
17 3975 1140 Sc
17 3308 1477 Sc
17 3973 1094 Sc
17 3746 1198 Sc
17 3906 1002 Sc
17 3530 1320 Sc
17 4086 995 Sc
17 3993 1073 Sc
17 3355 1456 Sc
17 3614 1288 Sc
17 3320 1468 Sc
17 4332 1378 Sc
17 3801 1232 Sc
17 3661 1207 Sc
17 3643 1295 Sc
17 4005 879 Sc
17 3464 1387 Sc
17 3973 1064 Sc
17 4525 263 Sc
17 4019 1050 Sc
17 4005 1029 Sc
17 4013 1064 Sc
17 3737 1205 Sc
17 3899 928 Sc
17 3571 1320 Sc
17 3501 1214 Sc
17 3981 1057 Sc
17 4020 1038 Sc
17 3992 1085 Sc
17 3645 1283 Sc
17 3987 1068 Sc
17 3963 1068 Sc
17 4027 1022 Sc
17 3859 1087 Sc
17 3609 1311 Sc
17 3781 1230 Sc
17 3719 1239 Sc
17 3946 1112 Sc
17 4520 293 Sc
17 4509 300 Sc
17 4007 1048 Sc
17 3990 1068 Sc
17 3429 1364 Sc
17 3751 1195 Sc
17 3941 1119 Sc
17 3997 1071 Sc
17 3946 1066 Sc
17 3980 985 Sc
17 3965 1018 Sc
17 4000 1045 Sc
17 3973 1101 Sc
17 3960 1122 Sc
17 4608 226 Sc
17 3934 1138 Sc
17 3357 1433 Sc
17 3946 1075 Sc
17 4027 1006 Sc
17 4002 1011 Sc
17 3971 1029 Sc
17 3944 1156 Sc
17 3980 1066 Sc
17 4007 1059 Sc
17 3530 1315 Sc
17 4101 944 Sc
17 3404 1362 Sc
17 3980 1073 Sc
17 3828 1149 Sc
17 3800 1198 Sc
17 4017 1045 Sc
17 3997 1032 Sc
17 3949 1110 Sc
17 3929 1080 Sc
17 4019 1052 Sc
17 3719 1221 Sc
17 3978 1038 Sc
17 3983 1064 Sc
17 4054 983 Sc
17 3949 1115 Sc
17 4061 999 Sc
17 3761 1202 Sc
17 3946 1029 Sc
17 3987 995 Sc
U
%%EndObject
0 A
FQ
O0
0 0 TM

% PostScript produced by:
%%GMT: pstext -R-90.5/-62/0/650 -JX4i/-1.25i -F+f14,31,+j -N -O -K
%%PROJ: xy -90.50000000 -62.00000000 0.00000000 650.00000000 -90.500 -62.000 650.000 -0.000 +xy +a=6378137.000 +b=6356752.314245
%%BeginObject PSL_Layer_6
0 setlinecap
0 setlinejoin
3.32551 setmiterlimit
0 1615 M PSL_font_encode 31 get 0 eq {ISOLatin1+_Encoding /Palatino-Bold /Palatino-Bold PSL_reencode PSL_font_encode 31 1 put} if
233 F31
(2) Z
4716 1615 M V MU 0 0 M (2) FP 0 82 G 163 F31 (') FP 0 -82 G pathbbox N pop exch pop add U neg 0 G
(2) Z
0 82 G 163 F31 (') Z
0 -82 G %%EndObject
0 A
FQ
O0
0 -2400 TM

% PostScript produced by:
%%GMT: psbasemap -R-90.5/-62/0/650 -JX4i/-1.25i -Bxa5 -Bya100f50+lDepth [km] -BWeSn -Y-2i -O -K
%%PROJ: xy -90.50000000 -62.00000000 0.00000000 650.00000000 -90.500 -62.000 650.000 -0.000 +xy +a=6378137.000 +b=6356752.314245
%%BeginObject PSL_Layer_7
0 setlinecap
0 setlinejoin
3.32551 setmiterlimit
2 setlinecap
/MM {neg exch M} def
/PSL_A0_y 83 def
/PSL_A1_y 0 def
25 W
0 1500 M 0 -1500 D S
8 W
0 1500 M -83 0 D S
0 1269 M -83 0 D S
0 1038 M -83 0 D S
0 808 M -83 0 D S
0 577 M -83 0 D S
0 346 M -83 0 D S
0 115 M -83 0 D S
/PSL_AH0 0
PSL_font_encode 0 get 0 eq {ISOLatin1+_Encoding /Helvetica /Helvetica PSL_reencode PSL_font_encode 0 1 put} if
200 F0
(0) sw mx
(100) sw mx
(200) sw mx
(300) sw mx
(400) sw mx
(500) sw mx
(600) sw mx
def
/PSL_A0_y PSL_A0_y 83 add def
1500 PSL_A0_y MM
(0) mr Z
1269 PSL_A0_y MM
(100) mr Z
1038 PSL_A0_y MM
(200) mr Z
808 PSL_A0_y MM
(300) mr Z
577 PSL_A0_y MM
(400) mr Z
346 PSL_A0_y MM
(500) mr Z
115 PSL_A0_y MM
(600) mr Z
/PSL_A0_y PSL_A0_y PSL_AH0 add def
0 1385 M -42 0 D S
0 1154 M -42 0 D S
0 923 M -42 0 D S
0 692 M -42 0 D S
0 462 M -42 0 D S
0 231 M -42 0 D S
0 0 M -42 0 D S
/PSL_LH 267 F0
(M) sh def
/PSL_L_y PSL_A0_y PSL_A1_y mx 133 add def
750 PSL_L_y MM
V 90 R (Depth \[km\]) bc Z U
4800 0 T
/MM {exch M} def
/PSL_A0_y 83 def
/PSL_A1_y 0 def
25 W
0 1500 M 0 -1500 D S
8 W
0 1500 M 83 0 D S
0 1269 M 83 0 D S
0 1038 M 83 0 D S
0 808 M 83 0 D S
0 577 M 83 0 D S
0 346 M 83 0 D S
0 115 M 83 0 D S
0 1385 M 42 0 D S
0 1154 M 42 0 D S
0 923 M 42 0 D S
0 692 M 42 0 D S
0 462 M 42 0 D S
0 231 M 42 0 D S
0 0 M 42 0 D S
/PSL_LH 0 def /PSL_L_y PSL_A0_y PSL_A1_y mx def
-4800 0 T
/MM {neg M} def
/PSL_A0_y 83 def
/PSL_A1_y 0 def
25 W
0 0 M 4800 0 D S
8 W
84 0 M 0 -83 D S
926 0 M 0 -83 D S
1768 0 M 0 -83 D S
2611 0 M 0 -83 D S
3453 0 M 0 -83 D S
4295 0 M 0 -83 D S
/PSL_AH0 0
200 F0
(-90) sh mx
(-85) sh mx
(-80) sh mx
(-75) sh mx
(-70) sh mx
(-65) sh mx
def
/PSL_A0_y PSL_A0_y 83 add PSL_AH0 add def
84 PSL_A0_y MM
(-90) bc Z
926 PSL_A0_y MM
(-85) bc Z
1768 PSL_A0_y MM
(-80) bc Z
2611 PSL_A0_y MM
(-75) bc Z
3453 PSL_A0_y MM
(-70) bc Z
4295 PSL_A0_y MM
(-65) bc Z
/PSL_LH 0 def /PSL_L_y PSL_A0_y PSL_A1_y mx def
0 1500 T
/MM {M} def
/PSL_A0_y 83 def
/PSL_A1_y 0 def
25 W
0 0 M 4800 0 D S
8 W
84 0 M 0 83 D S
926 0 M 0 83 D S
1768 0 M 0 83 D S
2611 0 M 0 83 D S
3453 0 M 0 83 D S
4295 0 M 0 83 D S
/PSL_LH 0 def /PSL_L_y PSL_A0_y PSL_A1_y mx def
0 -1500 T
0 setlinecap
%%EndObject
0 A
FQ
O0
0 0 TM

% PostScript produced by:
%%GMT: psxy -R-90.5/-62/0/650 -JX4i/-1.25i -Sc0.07 -GORANGE -Wthinnest -N -O -K
%%PROJ: xy -90.50000000 -62.00000000 0.00000000 650.00000000 -90.500 -62.000 650.000 -0.000 +xy +a=6378137.000 +b=6356752.314245
%%BeginObject PSL_Layer_8
0 setlinecap
0 setlinejoin
3.32551 setmiterlimit
4 W
V
{1 0.647 0 C} FS
O1
17 4172 1447 Sc
17 3343 1405 Sc
17 3919 1218 Sc
17 3309 1398 Sc
17 3289 1433 Sc
17 3763 1255 Sc
17 4601 215 Sc
17 3759 1394 Sc
17 3279 1419 Sc
17 4187 1424 Sc
17 3894 1202 Sc
17 3909 1216 Sc
17 4045 1163 Sc
17 3210 1332 Sc
17 3554 1276 Sc
17 3262 1394 Sc
17 3249 1410 Sc
17 3532 1265 Sc
17 3229 1382 Sc
17 3533 1352 Sc
17 4029 1145 Sc
17 4566 228 Sc
17 4584 240 Sc
17 4574 231 Sc
17 3348 1408 Sc
17 4005 1147 Sc
17 3266 1419 Sc
17 3458 1244 Sc
17 3976 1128 Sc
17 3845 1230 Sc
17 3848 1170 Sc
17 4600 166 Sc
17 3353 1401 Sc
17 4596 166 Sc
17 3865 1212 Sc
17 3272 1477 Sc
17 3390 1343 Sc
17 3267 1477 Sc
17 3571 1117 Sc
17 4568 242 Sc
17 4000 1098 Sc
17 3567 1295 Sc
17 3075 1477 Sc
17 3288 1412 Sc
17 4595 152 Sc
17 3266 1468 Sc
17 4601 152 Sc
17 4583 152 Sc
17 3441 1322 Sc
17 3283 1419 Sc
17 3368 1368 Sc
17 3559 1131 Sc
17 3212 1454 Sc
17 4022 1172 Sc
17 3384 1364 Sc
17 3188 1477 Sc
17 3953 1477 Sc
17 3454 1334 Sc
17 3569 1251 Sc
17 3296 1338 Sc
17 4020 1170 Sc
17 3230 1366 Sc
17 4035 1131 Sc
17 3424 1315 Sc
17 3417 1325 Sc
17 3202 1426 Sc
17 3288 1401 Sc
17 3540 1306 Sc
17 3333 1387 Sc
17 3283 1477 Sc
17 3899 1205 Sc
17 3328 1424 Sc
17 4040 1138 Sc
17 4593 168 Sc
17 3567 1458 Sc
17 3997 1191 Sc
17 3557 1288 Sc
17 3798 1278 Sc
17 3557 1278 Sc
17 3638 1274 Sc
17 4581 145 Sc
17 4362 1456 Sc
17 3419 1290 Sc
17 3094 1477 Sc
17 3987 1177 Sc
17 4024 1126 Sc
17 4012 1135 Sc
17 4013 1140 Sc
17 3869 1216 Sc
17 3537 1295 Sc
17 3109 1477 Sc
17 3636 1251 Sc
17 3643 1285 Sc
17 3286 1410 Sc
17 3394 1306 Sc
17 3818 1126 Sc
17 3906 1198 Sc
17 4199 1452 Sc
17 4317 1458 Sc
17 3267 1382 Sc
17 3894 1214 Sc
17 3892 1200 Sc
17 3215 1424 Sc
17 3875 1239 Sc
17 1541 1477 Sc
17 4005 1158 Sc
17 3966 1205 Sc
17 3965 1209 Sc
17 4019 1147 Sc
17 3867 1274 Sc
17 3990 1140 Sc
17 3990 1177 Sc
17 3978 1403 Sc
17 4024 1096 Sc
17 3867 1156 Sc
17 3513 1302 Sc
17 3808 1262 Sc
17 3995 1112 Sc
17 3256 1401 Sc
17 4061 1115 Sc
17 3222 1398 Sc
17 3956 1218 Sc
17 3277 1410 Sc
17 3663 1477 Sc
17 3685 1477 Sc
17 4652 69 Sc
17 3626 1274 Sc
17 3882 1251 Sc
17 4054 1103 Sc
17 3192 1426 Sc
17 3247 1417 Sc
17 3656 1304 Sc
17 4057 1297 Sc
17 3505 1308 Sc
17 3289 1449 Sc
17 3242 1401 Sc
17 3975 1124 Sc
17 3616 1253 Sc
17 3597 1297 Sc
17 3640 1299 Sc
17 4579 205 Sc
17 4019 1158 Sc
17 4022 1135 Sc
17 4049 1135 Sc
17 3286 1477 Sc
17 3244 1410 Sc
17 3315 1417 Sc
17 3569 1265 Sc
17 3183 1445 Sc
17 3299 1401 Sc
17 3885 1212 Sc
17 3016 1477 Sc
17 4637 111 Sc
17 3225 1477 Sc
17 4059 1105 Sc
17 3779 1477 Sc
17 3318 1477 Sc
17 3212 1458 Sc
17 3215 1477 Sc
17 3902 1396 Sc
17 3629 1290 Sc
17 3171 1470 Sc
17 3315 1299 Sc
17 3242 1431 Sc
17 3884 1221 Sc
17 3213 1419 Sc
17 3326 1433 Sc
17 3123 1477 Sc
17 3185 1477 Sc
U
%%EndObject
0 A
FQ
O0
0 0 TM

% PostScript produced by:
%%GMT: pstext -R-90.5/-62/0/650 -JX4i/-1.25i -F+f14,31,+j -N -O -K
%%PROJ: xy -90.50000000 -62.00000000 0.00000000 650.00000000 -90.500 -62.000 650.000 -0.000 +xy +a=6378137.000 +b=6356752.314245
%%BeginObject PSL_Layer_9
0 setlinecap
0 setlinejoin
3.32551 setmiterlimit
0 1615 M PSL_font_encode 31 get 0 eq {ISOLatin1+_Encoding /Palatino-Bold /Palatino-Bold PSL_reencode PSL_font_encode 31 1 put} if
233 F31
(3) Z
4716 1615 M V MU 0 0 M (3) FP 0 82 G 163 F31 (') FP 0 -82 G pathbbox N pop exch pop add U neg 0 G
(3) Z
0 82 G 163 F31 (') Z
0 -82 G %%EndObject
0 A
FQ
O0
0 -2400 TM

% PostScript produced by:
%%GMT: psbasemap -R-90.5/-62/0/650 -JX4i/-1.25i -Bxa5 -Bya100f50+lDepth [km] -BWeSn -Y-2i -O -K
%%PROJ: xy -90.50000000 -62.00000000 0.00000000 650.00000000 -90.500 -62.000 650.000 -0.000 +xy +a=6378137.000 +b=6356752.314245
%%BeginObject PSL_Layer_10
0 setlinecap
0 setlinejoin
3.32551 setmiterlimit
2 setlinecap
/MM {neg exch M} def
/PSL_A0_y 83 def
/PSL_A1_y 0 def
25 W
0 1500 M 0 -1500 D S
8 W
0 1500 M -83 0 D S
0 1269 M -83 0 D S
0 1038 M -83 0 D S
0 808 M -83 0 D S
0 577 M -83 0 D S
0 346 M -83 0 D S
0 115 M -83 0 D S
/PSL_AH0 0
PSL_font_encode 0 get 0 eq {ISOLatin1+_Encoding /Helvetica /Helvetica PSL_reencode PSL_font_encode 0 1 put} if
200 F0
(0) sw mx
(100) sw mx
(200) sw mx
(300) sw mx
(400) sw mx
(500) sw mx
(600) sw mx
def
/PSL_A0_y PSL_A0_y 83 add def
1500 PSL_A0_y MM
(0) mr Z
1269 PSL_A0_y MM
(100) mr Z
1038 PSL_A0_y MM
(200) mr Z
808 PSL_A0_y MM
(300) mr Z
577 PSL_A0_y MM
(400) mr Z
346 PSL_A0_y MM
(500) mr Z
115 PSL_A0_y MM
(600) mr Z
/PSL_A0_y PSL_A0_y PSL_AH0 add def
0 1385 M -42 0 D S
0 1154 M -42 0 D S
0 923 M -42 0 D S
0 692 M -42 0 D S
0 462 M -42 0 D S
0 231 M -42 0 D S
0 0 M -42 0 D S
/PSL_LH 267 F0
(M) sh def
/PSL_L_y PSL_A0_y PSL_A1_y mx 133 add def
750 PSL_L_y MM
V 90 R (Depth \[km\]) bc Z U
4800 0 T
/MM {exch M} def
/PSL_A0_y 83 def
/PSL_A1_y 0 def
25 W
0 1500 M 0 -1500 D S
8 W
0 1500 M 83 0 D S
0 1269 M 83 0 D S
0 1038 M 83 0 D S
0 808 M 83 0 D S
0 577 M 83 0 D S
0 346 M 83 0 D S
0 115 M 83 0 D S
0 1385 M 42 0 D S
0 1154 M 42 0 D S
0 923 M 42 0 D S
0 692 M 42 0 D S
0 462 M 42 0 D S
0 231 M 42 0 D S
0 0 M 42 0 D S
/PSL_LH 0 def /PSL_L_y PSL_A0_y PSL_A1_y mx def
-4800 0 T
/MM {neg M} def
/PSL_A0_y 83 def
/PSL_A1_y 0 def
25 W
0 0 M 4800 0 D S
8 W
84 0 M 0 -83 D S
926 0 M 0 -83 D S
1768 0 M 0 -83 D S
2611 0 M 0 -83 D S
3453 0 M 0 -83 D S
4295 0 M 0 -83 D S
/PSL_AH0 0
200 F0
(-90) sh mx
(-85) sh mx
(-80) sh mx
(-75) sh mx
(-70) sh mx
(-65) sh mx
def
/PSL_A0_y PSL_A0_y 83 add PSL_AH0 add def
84 PSL_A0_y MM
(-90) bc Z
926 PSL_A0_y MM
(-85) bc Z
1768 PSL_A0_y MM
(-80) bc Z
2611 PSL_A0_y MM
(-75) bc Z
3453 PSL_A0_y MM
(-70) bc Z
4295 PSL_A0_y MM
(-65) bc Z
/PSL_LH 0 def /PSL_L_y PSL_A0_y PSL_A1_y mx def
0 1500 T
/MM {M} def
/PSL_A0_y 83 def
/PSL_A1_y 0 def
25 W
0 0 M 4800 0 D S
8 W
84 0 M 0 83 D S
926 0 M 0 83 D S
1768 0 M 0 83 D S
2611 0 M 0 83 D S
3453 0 M 0 83 D S
4295 0 M 0 83 D S
/PSL_LH 0 def /PSL_L_y PSL_A0_y PSL_A1_y mx def
0 -1500 T
0 setlinecap
%%EndObject
0 A
FQ
O0
0 0 TM

% PostScript produced by:
%%GMT: psxy -R-90.5/-62/0/650 -JX4i/-1.25i -Sc0.07 -GORANGE -Wthinnest -N -O -K
%%PROJ: xy -90.50000000 -62.00000000 0.00000000 650.00000000 -90.500 -62.000 650.000 -0.000 +xy +a=6378137.000 +b=6356752.314245
%%BeginObject PSL_Layer_11
0 setlinecap
0 setlinejoin
3.32551 setmiterlimit
4 W
V
{1 0.647 0 C} FS
O1
17 3651 1195 Sc
17 3094 1428 Sc
17 3161 1435 Sc
17 3117 1445 Sc
17 3047 1442 Sc
17 2853 1477 Sc
17 3190 1440 Sc
17 3053 1449 Sc
17 3080 1424 Sc
17 3043 1415 Sc
17 3074 1431 Sc
17 2772 1477 Sc
17 3136 1435 Sc
17 2959 1452 Sc
17 3222 1373 Sc
17 3040 1438 Sc
17 3124 1475 Sc
17 3085 1447 Sc
17 3202 1392 Sc
17 3136 1463 Sc
17 2924 1428 Sc
17 3139 1401 Sc
17 3092 1440 Sc
17 3101 1445 Sc
17 2777 1477 Sc
17 3077 1475 Sc
17 3087 1475 Sc
17 3096 1458 Sc
17 3734 1458 Sc
17 3131 1454 Sc
17 3153 1472 Sc
17 2850 1477 Sc
17 2888 1454 Sc
17 3087 1477 Sc
17 3060 1458 Sc
17 3085 1449 Sc
17 2983 1470 Sc
17 2786 1477 Sc
17 2858 1452 Sc
17 2892 1463 Sc
17 2797 1477 Sc
17 3128 1440 Sc
17 2838 1458 Sc
17 2779 1477 Sc
17 3197 1403 Sc
17 3060 1438 Sc
17 2855 1445 Sc
17 2789 1454 Sc
17 3099 1438 Sc
17 3126 1435 Sc
17 3101 1431 Sc
17 3161 1431 Sc
17 2917 1445 Sc
17 3207 1477 Sc
17 3028 1431 Sc
17 3138 1424 Sc
17 3080 1445 Sc
17 3092 1458 Sc
17 2984 1477 Sc
17 3055 1428 Sc
17 3117 1447 Sc
17 2973 1461 Sc
17 3171 1403 Sc
17 3099 1477 Sc
17 3117 1442 Sc
17 3102 1477 Sc
17 3072 1477 Sc
17 3085 1477 Sc
17 3141 1452 Sc
17 3028 1477 Sc
17 3033 1477 Sc
17 3067 1477 Sc
17 2803 1477 Sc
17 3195 1477 Sc
17 3082 1477 Sc
17 3079 1477 Sc
17 3148 1452 Sc
17 2771 1435 Sc
17 3043 1440 Sc
17 3035 1442 Sc
17 3176 1433 Sc
17 3141 1477 Sc
17 3133 1454 Sc
17 3111 1435 Sc
17 3116 1456 Sc
17 3148 1412 Sc
17 3070 1445 Sc
17 3133 1477 Sc
17 3138 1458 Sc
17 3192 1472 Sc
17 3165 1440 Sc
17 3123 1456 Sc
17 3143 1447 Sc
17 3141 1452 Sc
17 3138 1458 Sc
17 3111 1447 Sc
17 3107 1477 Sc
17 3070 1477 Sc
17 3124 1477 Sc
17 3101 1456 Sc
17 3143 1454 Sc
17 3171 1468 Sc
17 3109 1447 Sc
17 3144 1454 Sc
17 3143 1454 Sc
17 3158 1477 Sc
17 3261 1454 Sc
17 3148 1447 Sc
17 3123 1477 Sc
17 3124 1477 Sc
17 3527 1477 Sc
17 3156 1412 Sc
17 3133 1477 Sc
17 3136 1482 Sc
17 3101 1477 Sc
17 3126 1415 Sc
17 3067 1477 Sc
17 4273 475 Sc
17 3059 1458 Sc
17 3129 1445 Sc
17 3144 1424 Sc
17 3126 1477 Sc
17 3165 1428 Sc
17 3075 1477 Sc
17 3102 1477 Sc
17 3134 1438 Sc
17 3173 1366 Sc
17 3148 1431 Sc
17 3042 1477 Sc
17 3242 1401 Sc
17 3134 1477 Sc
17 3109 1440 Sc
17 3161 1463 Sc
17 3133 1468 Sc
17 2919 1477 Sc
17 3060 1438 Sc
17 3092 1477 Sc
17 3141 1449 Sc
17 2996 1438 Sc
17 3254 1424 Sc
17 3101 1428 Sc
17 3153 1438 Sc
17 2986 1477 Sc
17 3079 1477 Sc
17 3134 1440 Sc
17 2877 1431 Sc
17 3042 1445 Sc
17 2806 1440 Sc
17 3123 1445 Sc
17 3117 1442 Sc
17 3055 1452 Sc
17 3107 1412 Sc
17 3143 1422 Sc
17 3193 1329 Sc
17 3104 1447 Sc
17 3141 1442 Sc
17 2838 1477 Sc
17 2806 1477 Sc
17 3116 1398 Sc
17 3089 1477 Sc
17 3114 1445 Sc
17 2917 1380 Sc
17 3286 1477 Sc
17 3136 1454 Sc
17 3170 1447 Sc
17 3183 1398 Sc
17 3112 1426 Sc
17 3077 1452 Sc
17 3175 1368 Sc
17 3126 1424 Sc
17 3198 1371 Sc
17 3114 1389 Sc
17 3121 1445 Sc
17 3080 1433 Sc
17 3080 1405 Sc
17 2912 1477 Sc
17 3096 1380 Sc
17 3065 1438 Sc
17 3096 1403 Sc
17 3119 1438 Sc
17 3616 1170 Sc
17 3087 1477 Sc
17 3079 1461 Sc
17 3099 1438 Sc
17 3107 1445 Sc
17 3163 1398 Sc
17 3138 1410 Sc
17 3084 1477 Sc
17 3119 1401 Sc
17 3097 1477 Sc
17 3311 1385 Sc
17 3094 1380 Sc
17 3697 1454 Sc
17 3741 1182 Sc
17 3860 1052 Sc
17 3067 1477 Sc
17 3397 1269 Sc
17 3481 1267 Sc
17 3682 1232 Sc
17 3080 1449 Sc
17 3488 1272 Sc
17 3053 1452 Sc
17 3055 1477 Sc
17 3379 1304 Sc
17 3037 1470 Sc
17 3464 1304 Sc
17 3119 1428 Sc
17 3862 1052 Sc
17 3106 1449 Sc
17 3112 1461 Sc
17 3080 1445 Sc
17 3091 1454 Sc
17 3085 1445 Sc
17 3114 1445 Sc
17 3064 1477 Sc
17 3069 1438 Sc
17 3129 1477 Sc
17 3631 1477 Sc
17 3107 1477 Sc
17 3491 1299 Sc
17 3126 1440 Sc
17 3117 1445 Sc
17 3087 1445 Sc
17 3062 1435 Sc
17 3139 1403 Sc
17 3146 1403 Sc
17 3340 1325 Sc
17 3151 1410 Sc
17 3146 1424 Sc
17 3084 1477 Sc
17 3365 1267 Sc
17 2952 1477 Sc
17 3547 1304 Sc
17 3096 1456 Sc
17 3417 1276 Sc
17 3133 1438 Sc
17 3880 1447 Sc
17 3079 1431 Sc
17 3079 1458 Sc
17 3059 1456 Sc
17 3067 1447 Sc
17 3405 1350 Sc
17 3422 1253 Sc
17 3234 1371 Sc
17 3072 1463 Sc
17 3099 1477 Sc
17 3092 1445 Sc
17 3116 1435 Sc
17 3139 1445 Sc
17 3148 1435 Sc
17 3107 1452 Sc
17 3261 1364 Sc
17 3185 1396 Sc
17 3210 1426 Sc
17 3027 1456 Sc
17 3104 1435 Sc
17 3023 1447 Sc
17 3010 1454 Sc
17 3087 1452 Sc
17 3827 1043 Sc
17 3434 1267 Sc
17 3116 1447 Sc
17 3114 1449 Sc
17 3062 1477 Sc
17 3170 1477 Sc
17 3069 1442 Sc
17 3237 1396 Sc
17 3117 1417 Sc
17 3136 1417 Sc
17 3094 1435 Sc
17 2870 1477 Sc
17 3148 1435 Sc
17 3109 1477 Sc
17 3112 1454 Sc
17 3111 1403 Sc
17 3380 1299 Sc
17 2942 1477 Sc
17 3097 1477 Sc
17 3084 1477 Sc
17 3269 1336 Sc
17 3175 1396 Sc
17 3936 1140 Sc
17 3176 1401 Sc
17 3045 1415 Sc
17 3798 1101 Sc
17 2893 1482 Sc
17 2875 1454 Sc
17 3870 1098 Sc
17 3085 1445 Sc
17 3424 1285 Sc
17 3429 1269 Sc
17 3097 1463 Sc
17 3089 1470 Sc
17 3085 1468 Sc
U
%%EndObject
0 A
FQ
O0
0 0 TM

% PostScript produced by:
%%GMT: pstext -R-90.5/-62/0/650 -JX4i/-1.25i -F+f14,31,+j -N -O -K
%%PROJ: xy -90.50000000 -62.00000000 0.00000000 650.00000000 -90.500 -62.000 650.000 -0.000 +xy +a=6378137.000 +b=6356752.314245
%%BeginObject PSL_Layer_12
0 setlinecap
0 setlinejoin
3.32551 setmiterlimit
0 1615 M PSL_font_encode 31 get 0 eq {ISOLatin1+_Encoding /Palatino-Bold /Palatino-Bold PSL_reencode PSL_font_encode 31 1 put} if
233 F31
(4) Z
4716 1615 M V MU 0 0 M (4) FP 0 82 G 163 F31 (') FP 0 -82 G pathbbox N pop exch pop add U neg 0 G
(4) Z
0 82 G 163 F31 (') Z
0 -82 G %%EndObject
0 A
FQ
O0
0 -2400 TM

% PostScript produced by:
%%GMT: psbasemap -R-90.5/-62/0/650 -JX4i/-1.25i -Bxa5+lLongitude [deg] -Bya100f50+lDepth [km] -BWeSn -Y-2i -O -K
%%PROJ: xy -90.50000000 -62.00000000 0.00000000 650.00000000 -90.500 -62.000 650.000 -0.000 +xy +a=6378137.000 +b=6356752.314245
%%BeginObject PSL_Layer_13
0 setlinecap
0 setlinejoin
3.32551 setmiterlimit
2 setlinecap
/MM {neg exch M} def
/PSL_A0_y 83 def
/PSL_A1_y 0 def
25 W
0 1500 M 0 -1500 D S
8 W
0 1500 M -83 0 D S
0 1269 M -83 0 D S
0 1038 M -83 0 D S
0 808 M -83 0 D S
0 577 M -83 0 D S
0 346 M -83 0 D S
0 115 M -83 0 D S
/PSL_AH0 0
PSL_font_encode 0 get 0 eq {ISOLatin1+_Encoding /Helvetica /Helvetica PSL_reencode PSL_font_encode 0 1 put} if
200 F0
(0) sw mx
(100) sw mx
(200) sw mx
(300) sw mx
(400) sw mx
(500) sw mx
(600) sw mx
def
/PSL_A0_y PSL_A0_y 83 add def
1500 PSL_A0_y MM
(0) mr Z
1269 PSL_A0_y MM
(100) mr Z
1038 PSL_A0_y MM
(200) mr Z
808 PSL_A0_y MM
(300) mr Z
577 PSL_A0_y MM
(400) mr Z
346 PSL_A0_y MM
(500) mr Z
115 PSL_A0_y MM
(600) mr Z
/PSL_A0_y PSL_A0_y PSL_AH0 add def
0 1385 M -42 0 D S
0 1154 M -42 0 D S
0 923 M -42 0 D S
0 692 M -42 0 D S
0 462 M -42 0 D S
0 231 M -42 0 D S
0 0 M -42 0 D S
/PSL_LH 267 F0
(M) sh def
/PSL_L_y PSL_A0_y PSL_A1_y mx 133 add def
750 PSL_L_y MM
V 90 R (Depth \[km\]) bc Z U
4800 0 T
/MM {exch M} def
/PSL_A0_y 83 def
/PSL_A1_y 0 def
25 W
0 1500 M 0 -1500 D S
8 W
0 1500 M 83 0 D S
0 1269 M 83 0 D S
0 1038 M 83 0 D S
0 808 M 83 0 D S
0 577 M 83 0 D S
0 346 M 83 0 D S
0 115 M 83 0 D S
0 1385 M 42 0 D S
0 1154 M 42 0 D S
0 923 M 42 0 D S
0 692 M 42 0 D S
0 462 M 42 0 D S
0 231 M 42 0 D S
0 0 M 42 0 D S
/PSL_LH 0 def /PSL_L_y PSL_A0_y PSL_A1_y mx def
-4800 0 T
/MM {neg M} def
/PSL_A0_y 83 def
/PSL_A1_y 0 def
25 W
0 0 M 4800 0 D S
8 W
84 0 M 0 -83 D S
926 0 M 0 -83 D S
1768 0 M 0 -83 D S
2611 0 M 0 -83 D S
3453 0 M 0 -83 D S
4295 0 M 0 -83 D S
/PSL_AH0 0
200 F0
(-90) sh mx
(-85) sh mx
(-80) sh mx
(-75) sh mx
(-70) sh mx
(-65) sh mx
def
/PSL_A0_y PSL_A0_y 83 add PSL_AH0 add def
84 PSL_A0_y MM
(-90) bc Z
926 PSL_A0_y MM
(-85) bc Z
1768 PSL_A0_y MM
(-80) bc Z
2611 PSL_A0_y MM
(-75) bc Z
3453 PSL_A0_y MM
(-70) bc Z
4295 PSL_A0_y MM
(-65) bc Z
/PSL_LH 267 F0
(M) sh def
/PSL_L_y PSL_A0_y PSL_A1_y mx 133 add PSL_LH add def
2400 PSL_L_y MM
(Longitude \[deg\]) bc Z
0 1500 T
/MM {M} def
/PSL_A0_y 83 def
/PSL_A1_y 0 def
25 W
0 0 M 4800 0 D S
8 W
84 0 M 0 83 D S
926 0 M 0 83 D S
1768 0 M 0 83 D S
2611 0 M 0 83 D S
3453 0 M 0 83 D S
4295 0 M 0 83 D S
/PSL_LH 0 def /PSL_L_y PSL_A0_y PSL_A1_y mx def
0 -1500 T
0 setlinecap
%%EndObject
0 A
FQ
O0
0 0 TM

% PostScript produced by:
%%GMT: psxy -R-90.5/-62/0/650 -JX4i/-1.25i -Sc0.07 -GORANGE -Wthinnest -N -O -K
%%PROJ: xy -90.50000000 -62.00000000 0.00000000 650.00000000 -90.500 -62.000 650.000 -0.000 +xy +a=6378137.000 +b=6356752.314245
%%BeginObject PSL_Layer_14
0 setlinecap
0 setlinejoin
3.32551 setmiterlimit
4 W
V
{1 0.647 0 C} FS
O1
17 2848 1431 Sc
17 2553 1445 Sc
17 2814 1452 Sc
17 2823 1408 Sc
17 2806 1428 Sc
17 2801 1445 Sc
17 2835 1456 Sc
17 2791 1440 Sc
17 2848 1401 Sc
17 2880 1477 Sc
17 2781 1456 Sc
17 2776 1477 Sc
17 2794 1465 Sc
17 2841 1456 Sc
17 2799 1468 Sc
17 2838 1440 Sc
17 2867 1456 Sc
17 2540 1472 Sc
17 2878 1463 Sc
17 2824 1445 Sc
17 2762 1477 Sc
17 2767 1477 Sc
17 2637 1477 Sc
17 2831 1468 Sc
17 3247 1477 Sc
17 2797 1445 Sc
17 3048 1477 Sc
17 2813 1440 Sc
17 2855 1477 Sc
17 2904 1477 Sc
17 2861 1477 Sc
17 2841 1477 Sc
17 2821 1475 Sc
17 2609 1477 Sc
17 2904 1422 Sc
17 2777 1456 Sc
17 2772 1465 Sc
17 2760 1477 Sc
17 2829 1477 Sc
17 2752 1477 Sc
17 2813 1477 Sc
17 2811 1477 Sc
17 2878 1477 Sc
17 2907 1477 Sc
17 2818 1449 Sc
17 2784 1477 Sc
17 2872 1477 Sc
17 2597 1477 Sc
17 2942 1477 Sc
17 2803 1477 Sc
17 2582 1477 Sc
17 2782 1477 Sc
17 2890 1442 Sc
17 2845 1398 Sc
17 2809 1452 Sc
17 2858 1477 Sc
17 2860 1449 Sc
17 2878 1454 Sc
17 3104 1193 Sc
17 2932 1442 Sc
17 2760 1477 Sc
17 2552 1452 Sc
17 2873 1433 Sc
17 2885 1447 Sc
17 2851 1449 Sc
17 2880 1431 Sc
17 2784 1445 Sc
17 2931 1463 Sc
17 2867 1461 Sc
17 2929 1424 Sc
17 2533 1477 Sc
17 2792 1454 Sc
17 2912 1359 Sc
17 2892 1472 Sc
17 2814 1456 Sc
17 2833 1461 Sc
17 2824 1454 Sc
17 2899 1442 Sc
17 2846 1461 Sc
17 2892 1428 Sc
17 2803 1477 Sc
17 2814 1449 Sc
17 3077 1315 Sc
17 2835 1465 Sc
17 2764 1458 Sc
17 2853 1488 Sc
17 2971 1426 Sc
17 2585 1465 Sc
17 2572 1477 Sc
17 2934 1454 Sc
17 2619 1456 Sc
17 2595 1477 Sc
17 2784 1477 Sc
17 2594 1477 Sc
17 2639 1477 Sc
17 2956 1477 Sc
17 2855 1477 Sc
17 2838 1452 Sc
17 2969 1445 Sc
17 2597 1477 Sc
17 2856 1458 Sc
17 2629 1477 Sc
17 2643 1477 Sc
17 2605 1477 Sc
17 2585 1477 Sc
17 2590 1477 Sc
17 2877 1424 Sc
17 2597 1477 Sc
17 2947 1428 Sc
17 2880 1449 Sc
17 2875 1477 Sc
17 2631 1477 Sc
17 2555 1477 Sc
17 2573 1477 Sc
17 2838 1449 Sc
17 2848 1477 Sc
17 2570 1477 Sc
17 2602 1477 Sc
U
%%EndObject
0 A
FQ
O0
0 0 TM

% PostScript produced by:
%%GMT: pstext -R-90.5/-62/0/650 -JX4i/-1.25i -F+f14,31,+j -N -O -K
%%PROJ: xy -90.50000000 -62.00000000 0.00000000 650.00000000 -90.500 -62.000 650.000 -0.000 +xy +a=6378137.000 +b=6356752.314245
%%BeginObject PSL_Layer_15
0 setlinecap
0 setlinejoin
3.32551 setmiterlimit
0 1615 M PSL_font_encode 31 get 0 eq {ISOLatin1+_Encoding /Palatino-Bold /Palatino-Bold PSL_reencode PSL_font_encode 31 1 put} if
233 F31
(5) Z
4716 1615 M V MU 0 0 M (5) FP 0 82 G 163 F31 (') FP 0 -82 G pathbbox N pop exch pop add U neg 0 G
(5) Z
0 82 G 163 F31 (') Z
0 -82 G %%EndObject
