# Nsamples: 190  MAD:  0.888  mean: -0.058  variance:  1.646
gfz2011fkbn   0.87190
gfz2011flgj   0.68540
gfz2011flhp   0.89590
gfz2011fnsw  -1.87070
gfz2011gbmx   0.12550
gfz2011gcwb  -1.12840
gfz2011gkzt  -1.23770
gfz2011gzbr  -0.29650
gfz2011haid  -1.37020
gfz2011hbex   0.55240
gfz2011hebt   1.16910
gfz2011hfkj  -1.06260
gfz2011hlqw   1.09980
gfz2011hlsa   0.46430
gfz2011hpgx  -1.36550
gfz2011hpqp   2.36560
gfz2011hrhu   0.46750
gfz2011hryk  -0.61190
gfz2011hsfj  -8.04340
gfz2011hvbu   0.53950
gfz2011ieie   1.54130
gfz2011iwte   0.55280
gfz2011izto  -0.40900
gfz2011jghb   0.14350
gfz2011jmbn  -2.42830
gfz2011jtlg   3.75670
gfz2011knbi   0.23640
gfz2011kqwo  -0.60340
gfz2011kqyg  -0.27980
gfz2011kweu   0.03580
gfz2011kwhq  -0.14230
gfz2011kwjx  -0.34730
gfz2011kwkw   0.07180
gfz2011kwld  -0.20960
gfz2011kwlq   0.34600
gfz2011kwni  -0.16360
gfz2011kwnu  -0.01780
gfz2011kwqc  -0.34220
gfz2011kwrf  -0.11410
gfz2011kwsz  -0.06290
gfz2011kxzp  -0.88620
gfz2011lcxq  -0.46720
gfz2011lggq   0.68460
gfz2011lvjr   1.21880
gfz2011lzwj  -0.79610
gfz2011mdie  -0.61220
gfz2011mepc  -0.25780
gfz2011mjom   0.55040
gfz2011mpme   0.61310
gfz2011myia  -1.12000
gfz2011nauw   0.48160
gfz2011noud  -1.07490
gfz2011nrwc   0.40340
gfz2011ntkh   0.14540
gfz2011nudm  -1.16980
gfz2011ogqk  -0.90700
gfz2011ohcy  -0.65130
gfz2011olkk   0.33490
gfz2011orgn   0.02880
gfz2011ornx  -0.22020
gfz2011owvz  -0.57490
gfz2011qigx   4.03140
gfz2011qoif  -0.27920
gfz2011qvae  -1.62950
gfz2011qyms   5.18550
gfz2011rabm  -0.10860
gfz2011rdby  -1.92560
gfz2011rewa  -0.87000
gfz2011rgwp  -0.16270
gfz2011rnut  -1.94640
gfz2011rqui  -0.70580
gfz2011rznl  -0.54260
gfz2011stal   0.97720
gfz2011tbas  -0.32300
gfz2011tcij  -0.16610
gfz2011tjrf  -0.24020
gfz2011tjue   0.98740
gfz2011tkfp   0.42250
gfz2011tkog   0.79760
gfz2011toub  -1.22580
gfz2011tpbl   0.98440
gfz2011tpfr   1.97950
gfz2011tsnp   0.97620
gfz2011ueni   0.15030
gfz2011ujze  -0.18770
gfz2011ukmp   0.62880
gfz2011uphh  -0.79460
gfz2011urxy  -0.28660
gfz2011urzu  -0.13930
gfz2011vhfi  -0.31290
gfz2011vkun   0.52710
gfz2011vldk   0.61160
gfz2011vnza   0.81810
gfz2011vqrj  -0.25710
gfz2011vrhg  -0.13950
gfz2011vxns  -0.78550
gfz2011vxod  -0.26720
gfz2011wcic   0.49330
gfz2011wjul   1.00900
gfz2011wxfs   0.25140
gfz2011wxoj  -1.85470
gfz2011wxtk  -0.51450
gfz2011wype  -0.42250
gfz2011xaan  -0.37170
gfz2011xcpv  -0.15850
gfz2011xyxj   0.41360
gfz2011yfdx  -0.16670
gfz2011zklv   0.17010
gfz2012ajtq  -0.08700
gfz2012bfah  -2.85470
gfz2012bpkx  -0.42410
gfz2012bpwl  -0.63820
gfz2012brhv  -0.16480
gfz2012cgvr   0.97480
gfz2012ckxi  -0.55530
gfz2012cmfy   0.28050
gfz2012cqnl  -1.02610
gfz2012cxdn  -0.00800
gfz2012dfhq   0.07300
gfz2012dimn  -0.29080
gfz2012dyyh   1.28050
gfz2012ekda  -0.08340
gfz2012ekzf  -0.05690
gfz2012emjg  -0.33280
gfz2012enno  -0.89340
gfz2012ewgo  -1.94530
gfz2012fbfo  -0.39350
gfz2012fhnh  -0.63600
gfz2012fwfo  -4.42970
gfz2012fzfa  -0.82310
gfz2012gkvr   0.21310
gfz2012gocc   3.07020
gfz2012gomm   0.92570
gfz2012gukw  -0.05470
gfz2012hnul  -2.99400
gfz2012hzbe  -0.00000
gfz2012icmv   0.55460
gfz2012iffo  -0.36110
gfz2012ihdl   0.56580
gfz2012ilvn  -0.71580
gfz2012jlox   0.02490
gfz2012joqe   0.76810
gfz2012jted   0.77380
gfz2012jupx  -0.33810
gfz2012keor  -1.02450
gfz2012kkup  -0.36260
gfz2012klhx   1.64260
gfz2012kuct  -0.63310
gfz2012kudo  -0.20960
gfz2012kwgo   1.36720
gfz2012lczo   0.32040
gfz2012ldxg   1.46860
gfz2012ldzj   1.17450
gfz2012llug   0.57200
gfz2012lrsv   0.14370
gfz2012maxy  -0.02790
gfz2012mcze   0.39660
gfz2012mlyf  -1.11460
gfz2012rwql   1.13040
gfz2012sphd   0.15010
gfz2012syvl   0.14920
gfz2012tazz  -0.96080
gfz2012tbbp  -0.61370
gfz2012teic   1.10220
gfz2012ttoa   0.23700
gfz2012uciv  -1.08100
gfz2012ufew  -0.57940
gfz2012uhup  -2.20100
gfz2012uvqf   0.58700
gfz2012vceo   2.03990
gfz2012vpza   0.38270
gfz2012vrgb   0.33520
gfz2012wdyx  -0.77350
gfz2012wizz   0.13040
gfz2012wklq  -0.70520
gfz2012wmsg  -1.63240
gfz2012wrir   0.71670
gfz2012wtkr  -1.35230
gfz2012wvfl  -2.35910
gfz2012wxlg  -0.05270
gfz2012wxnu  -0.47920
gfz2012wypz  -0.27050
gfz2012xbjq   1.98900
gfz2012xeul   1.00570
gfz2012xjyv   2.38580
gfz2012xslk  -1.69540
gfz2012xvwn   0.97800
gfz2012xwqa   0.83650
gfz2012xyqp   1.43180
gfz2012yfrp   0.92690
