# Nsamples: 866  MAD:  0.590  mean: -0.035  variance:  1.349
gfz2012mkpn  -0.08430
gfz2012mlyf  -1.06750
gfz2012mofm   0.09820
gfz2012mpvy   0.52040
gfz2012mpyl   0.02010
gfz2012mtiu  -0.60960
gfz2012nben   0.14590
gfz2012nbtn   1.49350
gfz2012nzpz  -0.12400
gfz2012obgw  -0.26280
gfz2012obnq   0.03130
gfz2012oedb  -0.13770
gfz2012ofpe   5.01110
gfz2012omvo   0.40210
gfz2012oycg  -0.33220
gfz2012pazr   0.12140
gfz2012peex  -1.22370
gfz2012pkel   0.13750
gfz2012pofl  -1.50350
gfz2012poju  -0.55090
gfz2012pqlt   0.79860
gfz2012pqmu   2.59500
gfz2012priv   0.40830
gfz2012pygp   0.15740
gfz2012qjhs   0.22210
gfz2012qouy  -0.03540
gfz2012qqxg  -0.64440
gfz2012qtgs  -1.44000
gfz2012qurq   0.23780
gfz2012quso   0.55950
gfz2012qxcy   0.63630
gfz2012rats   0.75220
gfz2012rboy   0.44270
gfz2012rcbq  -0.16190
gfz2012rcnj  -1.09750
gfz2012repv   0.38190
gfz2012rjsd  -0.07430
gfz2012rknn  -0.42300
gfz2012royy   4.62490
gfz2012rqlg   3.56020
gfz2012rubi  -0.04680
gfz2012rwko  -1.25150
gfz2012rwov   0.49360
gfz2012rwql  -0.77090
gfz2012rypu  -0.26910
gfz2012shtg  -0.27580
gfz2012sjea   0.20670
gfz2012snhi   0.26800
gfz2012spbj   0.27440
gfz2012sphd   0.58140
gfz2012vmeh   1.04720
gfz2012vnbk   0.03050
gfz2012vwvd   0.03350
gfz2012wecd  -0.06480
gfz2012wizz   0.17740
gfz2012wklq  -0.02490
gfz2012wmkd   0.02630
gfz2012wmsg  -1.12940
gfz2012wrir  -0.05120
gfz2012wtkr   0.14760
gfz2012wvfl   0.02820
gfz2012wxer   0.20970
gfz2012wxkg   0.26640
gfz2012wxlg   0.44990
gfz2012wxnt  -0.02520
gfz2012wybs   0.48250
gfz2012wypz  -0.67840
gfz2012xbjq   0.67290
gfz2012xdna  -0.34170
gfz2012xhci   2.01890
gfz2012xjyv  -0.04240
gfz2012xkkv   1.57120
gfz2012xslk  -0.20850
gfz2012xwqa   0.15020
gfz2012xyqp   0.88450
gfz2012xyua  -1.59300
gfz2012yfrp  -1.07520
gfz2012yldu  -0.37780
gfz2012yqjj  -0.07660
gfz2012yxxu  -0.54930
gfz2012zemh  -0.15810
gfz2012zfag   0.15770
gfz2012zitl   0.13550
gfz2012zjpv   0.08670
gfz2012zjre   0.09550
gfz2012zklq   0.08300
gfz2012zmbp   0.52970
gfz2012zmln  -0.95000
gfz2013aknp   0.45750
gfz2013apmm   0.00590
gfz2013bobq  -2.11080
gfz2013bokp  -0.39290
gfz2013bouj  -0.56420
gfz2013btjm   0.03610
gfz2013ccnr  -0.14420
gfz2013cdfj   0.76080
gfz2013cfyy   0.20130
gfz2013cnhh   1.93120
gfz2013cnve  -0.60540
gfz2013comh   0.47150
gfz2013cvad   0.30310
gfz2013cvqg  -0.23510
gfz2013cwpn  -0.51670
gfz2013cwps  -0.01980
gfz2013ddbh  -0.23880
gfz2013dddp  -2.29810
gfz2013dfhb   0.01080
gfz2013dofo   0.03270
gfz2013dqls  -0.98190
gfz2013drpk   2.51190
gfz2013drxz   0.27080
gfz2013dspt  -1.28780
gfz2013dvye  -0.30760
gfz2013dyop   0.08180
gfz2013enbx   0.41480
gfz2013eswe   0.10040
gfz2013eulz   0.04350
gfz2013fdoo   0.66250
gfz2013feep  -0.12540
gfz2013fepm  -0.09530
gfz2013figy   0.29460
gfz2013fiud   0.01280
gfz2013fkii   0.12200
gfz2013flox   0.11210
gfz2013fnzr  -0.32520
gfz2013fwxa  -1.53040
gfz2013fygc  -1.04240
gfz2013gbcn  -0.87330
gfz2013gcfx  -2.30600
gfz2013gdgf  -0.42150
gfz2013gdnq   0.32870
gfz2013geia  -0.53100
gfz2013gelv  -0.08730
gfz2013geno  -0.79390
gfz2013glcr   0.11250
gfz2013gngz  -0.60700
gfz2013gock   0.68200
gfz2013goux   0.85650
gfz2013govy  -1.16110
gfz2013gvet  -0.16690
gfz2013gvex   0.47650
gfz2013gvxh  -0.02090
gfz2013gwrd  -0.05570
gfz2013hbkh   0.30320
gfz2013hdnc   1.21650
gfz2013hfmp  -0.35410
gfz2013hisv   0.16090
gfz2013hkja   0.43790
gfz2013hklr   0.07500
gfz2013hlbe   1.19650
gfz2013hmbc   1.16510
gfz2013hsfw   1.46500
gfz2013hzdp   0.30450
gfz2013iayx   1.88690
gfz2013iexo   0.34290
gfz2013ifpq   2.40650
gfz2013ijsr  -0.20780
gfz2013ikgo  -0.52310
gfz2013ilug  -0.19530
gfz2013inux  -1.00090
gfz2013iodt  -0.15130
gfz2013iqzq  -0.41840
gfz2013itsu   0.19700
gfz2013iunn   0.22240
gfz2013iyqz   0.58370
gfz2013jdrx  -0.68110
gfz2013jesk  -0.41340
gfz2013jgij   0.42810
gfz2013jgip   1.26710
gfz2013jjsi   0.03610
gfz2013jkut  -0.37720
gfz2013jlst  -3.29880
gfz2013jusj  -2.36170
gfz2013jwcn   0.01590
gfz2013kccc  -0.50600
gfz2013kdeo  -0.79790
gfz2013kgmj  -0.31580
gfz2013kheb   0.10630
gfz2013khli  -0.05190
gfz2013kkzr  -0.17210
gfz2013kqln   0.31690
gfz2013krei   2.23180
gfz2013kvtk   0.77830
gfz2013lajn   0.17530
gfz2013lbiu  -0.14870
gfz2013ldqb  -1.14770
gfz2013lgbb  -1.01560
gfz2013lgnl  -0.03320
gfz2013lgxc   0.80610
gfz2013lixa  -0.13680
gfz2013lmqe  -0.68080
gfz2013lmrs   0.29620
gfz2013lwbk  -0.43800
gfz2013lxyn   0.01710
gfz2013lyko  -0.14130
gfz2013malg  -0.55470
gfz2013mded  -0.95380
gfz2013mnei  -0.09760
gfz2013mnju  -0.08330
gfz2013mqmv   0.35900
gfz2013mtqd  -2.97820
gfz2013mvgr  -0.03020
gfz2013mzwe  -0.11800
gfz2013nabl  -1.20530
gfz2013ncjp  -0.66520
gfz2013neuc   0.00000
gfz2013ngnt   0.40120
gfz2013nhjb  -0.19580
gfz2013nixj   1.46070
gfz2013nknw   3.40530
gfz2013nlxz  -0.00000
gfz2013nmac  -1.12420
gfz2013nppd  -0.15110
gfz2013nqgw   0.37890
gfz2013nuor  -0.05060
gfz2013nuvi   0.42610
gfz2013nvdj  -1.02120
gfz2013nwdi  -3.81580
gfz2013ogde   0.68810
gfz2013oqsc  -0.79870
gfz2013orjg  -0.18450
gfz2013ornz   1.48070
gfz2013ozku   0.73730
gfz2013oznn  -1.60150
gfz2013ozqm  -0.21110
gfz2013ozrp   3.40950
gfz2013pcos  -0.86720
gfz2013pfeb  -0.34890
gfz2013phef  -0.08330
gfz2013pkbs  -0.11080
gfz2013pqui  -1.88960
gfz2013puag  -0.08590
gfz2013pxsj   0.02840
gfz2013pxtx  -1.15200
gfz2013qali   0.08810
gfz2013qbca   0.57610
gfz2013qesa  -0.93410
gfz2013qidm   0.37170
gfz2013qmer  -1.97760
gfz2013qnxc  -0.48310
gfz2013qzdq  -1.31800
gfz2013rait   0.53260
gfz2013rdoo   0.55930
gfz2013roki   2.08850
gfz2013rqcy   1.07810
gfz2013rrza  -0.08480
gfz2013saez  -0.69470
gfz2013sart   0.03950
gfz2013scai   0.17210
gfz2013sdus  -0.37440
gfz2013sebq  -0.09450
gfz2013sfto   0.17040
gfz2013shlq  -0.02660
gfz2013shzy  -0.37800
gfz2013sjhg  -0.78540
gfz2013snbr   1.38040
gfz2013snyf  -0.94670
gfz2013sred  -0.42750
gfz2013stht  -0.03200
gfz2013svci  -0.35910
gfz2013svqv  -1.09230
gfz2013sxbw  -0.10940
gfz2013syqk  -0.55170
gfz2013tbzy   2.15840
gfz2013tcbk   1.09720
gfz2013tcxc  -0.16720
gfz2013tcxq   0.45160
gfz2013tdau   0.50900
gfz2013tlaf  -1.11330
gfz2013toea  -0.30390
gfz2013toxf   0.84260
gfz2013tqbb  -0.67050
gfz2013ttoz  -0.22190
gfz2013tvmw   1.80270
gfz2013twwf   1.83530
gfz2013txev   0.51180
gfz2013txtb  -0.45240
gfz2013uauo   2.65120
gfz2013ufku  -0.00520
gfz2013ufxk  -1.10250
gfz2013uqsp  -0.10100
gfz2013utsh  -0.76260
gfz2013uuzn   0.14370
gfz2013vdic   0.15160
gfz2013vefs  -0.01370
gfz2013vfyw   0.22570
gfz2013vfzp  -0.77590
gfz2013vgev   0.03310
gfz2013vgpf   0.94720
gfz2013vhnk  -0.07210
gfz2013vhzu   0.19490
gfz2013vjfe  -0.34860
gfz2013vjjc  -0.01470
gfz2013vjod   0.59670
gfz2013vmro  -0.41720
gfz2013vpnf  -0.56930
gfz2013vqot  -0.76710
gfz2013vrmy  -3.46470
gfz2013vsbl   0.56020
gfz2013vthd  -0.69780
gfz2013vvjh   0.38280
gfz2013vxta  -0.13680
gfz2013vzbo   6.25170
gfz2013waam  -0.28230
gfz2013wgeu  -0.77180
gfz2013wjmm   2.66140
gfz2013wkyk  -0.50980
gfz2013wmfd   0.64290
gfz2013wpga   0.37090
gfz2013wrgw  -0.39990
gfz2013wtzl  -0.18330
gfz2013wwii   0.02740
gfz2013xizq   2.96640
gfz2013xkbh   0.48660
gfz2013xklb  -0.86690
gfz2013xmqg   0.01640
gfz2013xmul   0.36420
gfz2013xpfa  -0.22970
gfz2013xqnn  -2.11780
gfz2013xsdt  -0.89770
gfz2013xvqd  -0.03000
gfz2013xvxf  -0.31350
gfz2013xvyl   0.34230
gfz2013xwda  -0.00000
gfz2013xwxn   0.06790
gfz2013xwzd   0.06250
gfz2013xxcc   0.60810
gfz2013xxwv  -0.08580
gfz2013xxxq   0.03180
gfz2013xzcg  -0.15870
gfz2013yach  -0.53680
gfz2013yctg   0.23110
gfz2013ylbx  -0.83960
gfz2013ymky  -1.06760
gfz2013ymxs   0.45020
gfz2013ynmw  -2.50140
gfz2013ypdc  -1.16270
gfz2013yqkv  -0.25380
gfz2013yrmc  -2.13880
gfz2013yyti   0.07440
gfz2013zfhu   0.19660
gfz2013ziyr  -0.10930
gfz2013zjel   0.01850
gfz2014algk  -1.19630
gfz2014alwz  -1.75760
gfz2014aqbk   0.36120
gfz2014ared  -1.77470
gfz2014arpf   0.13290
gfz2014arqr   0.55190
gfz2014atgw  -0.06980
gfz2014bagd   0.44780
gfz2014bbro   0.34340
gfz2014bekc   1.30250
gfz2014bezu  -0.56550
gfz2014bfqo   0.66620
gfz2014bjgt  -0.34290
gfz2014bjsy   0.17750
gfz2014bolf   0.70470
gfz2014bwue  -1.19540
gfz2014bzxy  -3.62020
gfz2014caop   0.08310
gfz2014cbtl   0.09420
gfz2014cgog   0.36730
gfz2014claq  -0.32320
gfz2014cmwb  -0.78830
gfz2014cqyo  -0.92150
gfz2014ctot   0.61610
gfz2014cueu  -3.64530
gfz2014cvkm   0.34020
gfz2014cybg  -0.52300
gfz2014cyvm  -1.12190
gfz2014czol   0.17560
gfz2014czua   0.80120
gfz2014dbdf  -0.07950
gfz2014dbyx  -0.44500
gfz2014dffd   5.15970
gfz2014dgiy  -2.03110
gfz2014dhxt   0.22710
gfz2014disp   0.12820
gfz2014dofa  -0.83580
gfz2014dpzx   0.10340
gfz2014duqn  -1.34610
gfz2014ebmc   0.35360
gfz2014edfx  -0.10000
gfz2014efkk   0.09000
gfz2014eght   1.53080
gfz2014egwu   1.39490
gfz2014ehsf  -0.32540
gfz2014ekcr  -0.11820
gfz2014ekdt  -0.16630
gfz2014eqpl  -0.29050
gfz2014erbj  -1.86720
gfz2014etqa   0.10700
gfz2014ettc  -0.21620
gfz2014ewcz  -0.29660
gfz2014ewrw  -0.20220
gfz2014exxa   0.10710
gfz2014ezgb  -0.88270
gfz2014fcms   0.28180
gfz2014femz   1.03290
gfz2014fgvi  -5.21090
gfz2014fhla  -1.71050
gfz2014fhrq   2.64780
gfz2014fiuj   0.26570
gfz2014fjdz  -1.24350
gfz2014fjyo   2.30170
gfz2014flfa  -2.01970
gfz2014fnyg  -0.36780
gfz2014foio  -0.32060
gfz2014fqpz  -4.23360
gfz2014frdz  -1.04430
gfz2014frel   1.95380
gfz2014ftka  -3.54660
gfz2014ftoc   4.27550
gfz2014furx   0.20960
gfz2014fuub   1.42120
gfz2014fvgh   1.41730
gfz2014fvjl  -0.46250
gfz2014fvrg  -3.68220
gfz2014fwtt   1.07350
gfz2014fwyr   0.24660
gfz2014fxpu  -1.67600
gfz2014gbcz   0.28130
gfz2014gbdq  -1.93010
gfz2014geuy   2.99550
gfz2014gkgf  -2.91820
gfz2014gkqf   0.40710
gfz2014gkqu   0.12720
gfz2014gktn   3.55340
gfz2014gktq  -0.47390
gfz2014gkut  -0.55350
gfz2014gmge  -0.26330
gfz2014gmhr  -0.00490
gfz2014gmnb  -0.20410
gfz2014gmuw  -1.24050
gfz2014gmzl   0.76630
gfz2014gntd  -0.44830
gfz2014goba   2.74720
gfz2014gogv  -0.74190
gfz2014goqw  -0.15700
gfz2014gori   0.31870
gfz2014gpdo  -0.57380
gfz2014gpya   0.22260
gfz2014gqro  -1.53540
gfz2014gsqs  -2.29310
gfz2014gtlu  -0.71670
gfz2014gtrb   4.68310
gfz2014gtwz  -0.93130
gfz2014gufl   0.83380
gfz2014gull  -2.74430
gfz2014gumd   0.39690
gfz2014gutm  -0.43880
gfz2014gwab   0.11000
gfz2014gwgf  -0.29190
gfz2014gxqu  -0.89210
gfz2014gxvf   0.61650
gfz2014gzrm  -0.26140
gfz2014hasj  -1.69870
gfz2014hauo  -0.32370
gfz2014heum  -0.56110
gfz2014hfhl   1.14970
gfz2014hiiz   2.07030
gfz2014hkcf   3.80740
gfz2014hqxs   0.28930
gfz2014hrft   0.14270
gfz2014hriu  -1.84020
gfz2014hscz   0.19110
gfz2014huaj  -0.81360
gfz2014hwan  -0.36870
gfz2014hyal   0.38930
gfz2014hyvq  -2.40040
gfz2014hzfw   0.06490
gfz2014hzgn  -0.03920
gfz2014hzhe  -0.16330
gfz2014hzze   0.37680
gfz2014iava   0.10760
gfz2014icqt   0.01960
gfz2014ieam  -0.31890
gfz2014ieho  -0.27480
gfz2014igur   0.28850
gfz2014ilwu  -2.32720
gfz2014imap  -1.48690
gfz2014imnn   0.58980
gfz2014inbj  -0.25800
gfz2014isys   0.47930
gfz2014itjx  -0.72350
gfz2014itpj  -2.62210
gfz2014ivep   0.28630
gfz2014ixky   2.11690
gfz2014iywt   6.74260
gfz2014jass   0.68920
gfz2014jatq   0.68390
gfz2014jcjt  -0.91870
gfz2014jjhc  -0.57450
gfz2014jjkh  -0.67440
gfz2014jkxe  -0.11210
gfz2014jlwb  -0.11870
gfz2014jmnk  -1.67000
gfz2014jnxm  -0.10060
gfz2014jnyv  -1.60030
gfz2014jomw  -3.06010
gfz2014jpep  -2.44590
gfz2014jpvx   0.05500
gfz2014jpxs  -0.29090
gfz2014jtcz  -0.65060
gfz2014jwmh   0.86020
gfz2014kara  -0.01790
gfz2014kbwm  -0.76910
gfz2014khlk  -0.30110
gfz2014kjee  -1.27720
gfz2014kjjq  -0.18080
gfz2014kmmt  -2.53840
gfz2014knxs  -0.15190
gfz2014krlg  -0.95130
gfz2014ksdv   0.49850
gfz2014ksmz   3.77040
gfz2014kyan  -0.71430
gfz2014kzzm  -0.44510
gfz2014lbcq  -1.06460
gfz2014lbxn   0.64570
gfz2014lddn   0.63440
gfz2014lefs  -0.17620
gfz2014lgqn   1.68850
gfz2014lkyf   0.07160
gfz2014lmge   0.68790
gfz2014lnmw  -1.74980
gfz2014lpim  -0.76320
gfz2014lwom  -3.05630
gfz2014lxnc   1.44800
gfz2014lyhk  -0.97650
gfz2014lynp   0.13370
gfz2014lzal  -0.36750
gfz2014madw   1.60560
gfz2014mcno  -0.53100
gfz2014mden  -0.40860
gfz2014mhgg   0.49480
gfz2014mioi   0.80260
gfz2014mtum  -0.54240
gfz2014mwor   0.19200
gfz2014mxkr   0.67410
gfz2014ndue  -0.93220
gfz2014ngnd  -0.25340
gfz2014niqj   1.53780
gfz2014nkdx  -0.41270
gfz2014nnxd  -0.37820
gfz2014nowp   1.10500
gfz2014npdk   0.48160
gfz2014npeo   0.52600
gfz2014nphm   1.91140
gfz2014nqfm  -3.99020
gfz2014nrie  -3.57410
gfz2014utac   0.08560
gfz2014uuuf  -0.46720
gfz2014uvji   0.04660
gfz2014uvrk   0.81760
gfz2014uxyg   0.05340
gfz2014uzaw  -0.08370
gfz2014vcev   0.14400
gfz2014vhld  -0.65920
gfz2014vhms   1.45330
gfz2014vjoz  -0.57120
gfz2014vljh  -0.00000
gfz2014vnxu  -0.53720
gfz2014vpus  -4.89090
gfz2014waoo   0.04270
gfz2014watn  -0.65310
gfz2014wjko   0.57330
gfz2014wmsc  -0.11490
gfz2014wqcp  -0.42300
gfz2014wrkh  -0.21080
gfz2014xhkc  -0.11070
gfz2014xqqd  -0.39960
gfz2014yazi   3.53360
gfz2014yrug   4.55360
gfz2014yula   0.06520
gfz2014zkys   3.19120
gfz2014zlgp  -0.05310
gfz2015abpw   0.44750
gfz2015aide  -0.93510
gfz2015alzx   0.00000
gfz2015apnk  -2.61870
gfz2015aqav   0.26390
gfz2015aqbq   0.20130
gfz2015arpd  -0.01690
gfz2015aruz  -2.04600
gfz2015atxv  -0.46800
gfz2015azzp   0.29250
gfz2015bavu   0.12020
gfz2015bdyd  -1.09970
gfz2015berb  -0.87900
gfz2015bfjm   0.24200
gfz2015bfzt  -0.19170
gfz2015bkbj  -0.40290
gfz2015bohx   1.24960
gfz2015bphe   1.39540
gfz2015bsnl   0.26520
gfz2015bucr  -0.96870
gfz2015bvsj   2.34640
gfz2015bvxx  -0.27460
gfz2015byfn  -0.84410
gfz2015byjd  -0.95430
gfz2015bzej   0.07690
gfz2015cewd   1.96200
gfz2015chhn   0.11000
gfz2015cpuo  -0.05730
gfz2015cxhx   0.53210
gfz2015cxrc  -0.85800
gfz2015cyjd  -1.69130
gfz2015dadj   2.10570
gfz2015dizn   0.72440
gfz2015djts  -0.50700
gfz2015dskr   1.58330
gfz2015dtqr  -0.18980
gfz2015ecgq   0.06320
gfz2015ednc  -0.85870
gfz2015eeyq   0.40310
gfz2015eezy  -0.48930
gfz2015egbk  -0.03520
gfz2015egxq   0.04090
gfz2015ehpz   0.77500
gfz2015eiky  -2.89570
gfz2015elgy  -0.57490
gfz2015eljz  -0.30260
gfz2015emin  -0.36110
gfz2015emtg   0.06070
gfz2015enth  -0.91350
gfz2015etai   0.57010
gfz2015evpl  -0.41220
gfz2015eyqs   0.88390
gfz2015fbbk  -0.38040
gfz2015fbew  -0.84690
gfz2015fcua   0.33500
gfz2015fjhk  -1.06880
gfz2015fkbc  -0.18010
gfz2015fkgt  -0.79980
gfz2015fkic  -0.20390
gfz2015fkkd  -0.25730
gfz2015fkuu   1.33330
gfz2015flis  -0.82780
gfz2015fpez  -0.03740
gfz2015fvoi   1.42690
gfz2015fwnf  -0.78250
gfz2015fxbv   0.16950
gfz2015fxdi   0.43620
gfz2015fyvk   0.03030
gfz2015gckd  -1.37910
gfz2015gjbr   0.41690
gfz2015gkwa  -0.04650
gfz2015gmgf   0.83580
gfz2015gnmy  -0.21430
gfz2015guhd   0.79910
gfz2015hdbn  -0.05170
gfz2015hdcp  -0.12960
gfz2015hepg   0.33550
gfz2015hgbk  -1.22150
gfz2015hhbd  -0.24670
gfz2015hlfq  -0.44120
gfz2015hlqo   0.18180
gfz2015hpmk  -1.67530
gfz2015hslo  -0.08830
gfz2015hvgs  -0.44450
gfz2015idho  -0.47880
gfz2015igsy  -0.36210
gfz2015ijmh   4.83890
gfz2015imty   0.98650
gfz2015isim  -0.80930
gfz2015iwqk  -2.11190
gfz2015ixyy   0.23620
gfz2015jkdw  -0.92720
gfz2015jmlu   0.32390
gfz2015jpap   0.78930
gfz2015jwgl   0.58280
gfz2015jxbx  -0.74440
gfz2015jxjd   0.07870
gfz2015kfsu  -2.14260
gfz2015kkqb   0.81150
gfz2015kkth  -0.15860
gfz2015ksni   0.14500
gfz2015kvwz  -0.25960
gfz2015lbcg  -0.07740
gfz2015lcma   0.35790
gfz2015lcuo   0.07270
gfz2015lhjq  -1.62210
gfz2015ltii  -0.76590
gfz2015lytv  -0.23970
gfz2015lzad  -0.46880
gfz2015mddr  -0.18210
gfz2015mfpy  -0.28710
gfz2015mhym  -0.86030
gfz2015micz  -0.88950
gfz2015mljd  -0.14930
gfz2015mpte   0.78680
gfz2015mvzk  -0.00000
gfz2015nbdc   2.31050
gfz2015nerz   0.02010
gfz2015nqgf  -1.08460
gfz2015ntpk  -0.29670
gfz2015nuxz  -0.81810
gfz2015nwug   0.35240
gfz2015ocdz   0.41790
gfz2015ojut  -0.45000
gfz2015okmq  -0.21310
gfz2015okpu   0.42010
gfz2015omab   0.20560
gfz2015opjp   0.45300
gfz2015othd  -0.99990
gfz2015oyfl  -0.46920
gfz2015pgxa  -0.95090
gfz2015pjgr  -0.23470
gfz2015prlr  -0.71630
gfz2015puqp   0.58620
gfz2015qafb  -0.40410
gfz2015qnho  -0.07910
gfz2015qprd   0.51390
gfz2015qpvd   0.37350
gfz2015qvxu   0.99930
gfz2015rddx   0.67860
gfz2015rgrg  -0.31180
gfz2015rkbq   0.25910
gfz2015rkrg   3.57090
gfz2015rkzg   0.39080
gfz2015rlnh   0.41030
gfz2015rnis  -0.55900
gfz2015roac   0.39670
gfz2015rpzn   0.82810
gfz2015rwsb   0.21290
gfz2015saet  -0.06540
gfz2015sfdd   1.40210
gfz2015sfdh   0.08200
gfz2015sfdy   0.03210
gfz2015sfeo  -0.08360
gfz2015sffn  -0.00000
gfz2015sfga  -0.04480
gfz2015sfho   0.02110
gfz2015sfhz   0.19120
gfz2015sfiq   0.26050
gfz2015sfkh   0.44800
gfz2015sfkz   0.17140
gfz2015sflf   0.21680
gfz2015sfln  -1.25850
gfz2015sfmd  -0.08660
gfz2015sfnb  -0.00970
gfz2015sfno   2.19250
gfz2015sfnv   0.02800
gfz2015sfoc  -0.18040
gfz2015sfoh   0.14790
gfz2015sfom  -0.33910
gfz2015sfoq  -0.12050
gfz2015sfpj   0.03840
gfz2015sfps  -0.41860
gfz2015sfrc   0.02030
gfz2015sfte   0.37250
gfz2015sfuz  -0.00000
gfz2015sfxn  -0.02030
gfz2015sfzm  -0.05750
gfz2015sgad   0.46990
gfz2015sgdj   0.02070
gfz2015sggc   0.06760
gfz2015sghq  -0.17700
gfz2015sgie  -0.33650
gfz2015sglg  -0.02390
gfz2015sgmm   0.37330
gfz2015sgmr   0.00000
gfz2015sgna  -0.02070
gfz2015sgoa   0.33460
gfz2015sgpu   0.69700
gfz2015sguf  -0.01710
gfz2015sgxc   0.04060
gfz2015sgyd  -0.04720
gfz2015shel  -0.24810
gfz2015shhu   0.58810
gfz2015shjn  -0.38160
gfz2015shlp   0.59700
gfz2015shov  -0.46820
gfz2015shqc  -0.00000
gfz2015shqe   0.02130
gfz2015shsb  -0.02310
gfz2015shsz   1.77470
gfz2015shwt  -0.01680
gfz2015sicf  -0.01150
gfz2015sicu  -0.16400
gfz2015siem   0.00000
gfz2015siky   0.06920
gfz2015sing   0.26440
gfz2015siof  -0.28390
gfz2015sist  -0.27160
gfz2015sitn   0.12630
gfz2015sixi  -0.00000
gfz2015sixs  -0.00000
gfz2015siyy  -0.42220
gfz2015sjbx   0.29680
gfz2015sjeq   0.80600
gfz2015sjfi  -0.00990
gfz2015sjgk   0.20960
gfz2015sjjb   0.27380
gfz2015sjne   0.37980
gfz2015sjoj   1.96580
gfz2015sjpn  -0.02020
gfz2015sjtz   0.00000
gfz2015sjwi  -0.09920
gfz2015skgj   0.52070
gfz2015skhf  -0.26560
gfz2015skia   0.03250
gfz2015sklu   0.32540
gfz2015skpv  -0.08150
gfz2015skxu   0.94700
gfz2015sldx  -0.22980
gfz2015slfn  -0.09080
gfz2015sljs   0.83260
gfz2015smgj  -0.05010
gfz2015smym   0.04420
gfz2015snhn  -0.46890
gfz2015snmg  -0.67570
gfz2015snmr  -0.76370
gfz2015snsf   0.37720
gfz2015snwh   0.21880
gfz2015soat   0.55020
gfz2015solh   0.07720
gfz2015sopc   0.00000
gfz2015sowu   0.16220
gfz2015soxc   1.11820
gfz2015sozw  -0.45930
gfz2015spal  -0.18470
gfz2015spxh   0.19720
gfz2015sqbg  -0.43530
gfz2015sqmy  -0.31020
gfz2015sqoz  -0.00000
gfz2015sqvx   0.61550
gfz2015sqwv   0.09640
gfz2015sqyh   0.69440
gfz2015srat  -0.28930
gfz2015srgf  -0.06330
gfz2015srxe   0.18070
gfz2015srxm  -0.97080
gfz2015ssaf  -0.68160
gfz2015sspn   0.13010
gfz2015ssrl  -0.06100
gfz2015stas  -0.04790
gfz2015stcv  -0.05740
gfz2015stfy   1.51870
gfz2015stso   0.01910
gfz2015subg  -0.55270
gfz2015subx  -0.05170
gfz2015sudm   0.05790
gfz2015sunp   0.06320
gfz2015supa  -0.31270
gfz2015susq  -0.03220
gfz2015svjy   0.29670
gfz2015svwm   1.47500
gfz2015swgn  -0.23230
gfz2015sxgd   0.03790
gfz2015sxmh  -2.79700
gfz2015sxxu  -0.27340
gfz2015sydc  -0.50120
gfz2015szcb   0.24970
gfz2015szfe   0.00000
gfz2015szfq   0.24880
gfz2015sztx  -0.57650
gfz2015taml  -2.33860
gfz2015tbdn   0.72380
gfz2015tbje  -0.10200
gfz2015tbxe  -0.58380
gfz2015tcem  -0.04820
gfz2015tdbb   0.15390
gfz2015tdcu   0.02480
gfz2015teje   0.04100
