# Nsamples: 1143  MAD:  0.382  mean:  0.097  variance:  0.563
gfz2012mkpn   1.25270
gfz2012mlyf   1.13970
gfz2012mofm  -0.44810
gfz2012mpyl   0.06740
gfz2012mtiu   0.04930
gfz2012nben  -0.00060
gfz2012nedn   1.57800
gfz2012nzpz  -0.45800
gfz2012obgw   0.05150
gfz2012obnq  -0.01030
gfz2012oedb   0.07070
gfz2012ofpe  -0.04050
gfz2012okhx   0.42040
gfz2012omvo  -0.18610
gfz2012oqmw   0.01440
gfz2012wmkd   2.80120
gfz2012wmsg   0.44130
gfz2012wpeq   0.22950
gfz2012wqnc  -0.12620
gfz2012wrir   1.72860
gfz2012wtkh   0.11260
gfz2012wubh  -0.04190
gfz2012wvfl  -0.13180
gfz2012wxer   0.18090
gfz2012wxkg  -0.47060
gfz2012wxnu  -0.43470
gfz2012wybs  -0.33610
gfz2012wypz   0.24520
gfz2012xbjq   0.23100
gfz2012xcgk  -0.35090
gfz2012xpmm  -0.10350
gfz2012xslk   0.06840
gfz2012xssa   0.46550
gfz2012xvwn  -0.17530
gfz2012xwqa   0.23210
gfz2012xyqp  -0.22900
gfz2012xyua  -0.23120
gfz2012yfrp   2.72560
gfz2012yldu  -0.07380
gfz2012yoie   0.18730
gfz2012yqjj  -0.34800
gfz2012yxxu   1.21130
gfz2012zemh   3.38510
gfz2012zfag  -0.21290
gfz2012zhmb  -0.04490
gfz2012ziml   0.19470
gfz2012zjpv   2.39550
gfz2012zklq   0.35240
gfz2012zmln   1.01730
gfz2013akgj  -0.15880
gfz2013aknp  -0.19130
gfz2013apmm   1.40180
gfz2013axoj  -0.23040
gfz2013biji  -3.91890
gfz2013bobq   0.09740
gfz2013bouj   3.06720
gfz2013btjm   0.11680
gfz2013ccnr   0.87850
gfz2013cdan  -0.09990
gfz2013cfyy  -0.12780
gfz2013ciaf   0.18640
gfz2013cnhh  -0.32870
gfz2013cnve   0.99430
gfz2013comh  -0.11130
gfz2013cwpn   1.46070
gfz2013cwps   1.37770
gfz2013czeq  -1.31140
gfz2013ddbh  -0.08290
gfz2013dddp   0.24760
gfz2013dfhb   0.84970
gfz2013dnnx  -0.06790
gfz2013dofo   0.29750
gfz2013dojq  -0.54020
gfz2013dqls   0.21140
gfz2013drpk  -0.38310
gfz2013drxz   2.80860
gfz2013dsog  -2.13260
gfz2013dspt  -1.58550
gfz2013dujm  -0.67000
gfz2013dvye   0.37770
gfz2013dvyh   0.26100
gfz2013dyop  -0.03920
gfz2013enbx   2.71550
gfz2013esnh  -0.22750
gfz2013eswe   0.11650
gfz2013eulz   0.29540
gfz2013fcto  -0.92610
gfz2013fdoo  -0.08260
gfz2013fdwq   0.01510
gfz2013feep   0.08090
gfz2013ffko  -0.04890
gfz2013figy  -0.12170
gfz2013fiud   0.01440
gfz2013fkcl   0.19930
gfz2013fkii  -0.27410
gfz2013flox  -0.14910
gfz2013fnzr  -0.09010
gfz2013ftso  -1.20290
gfz2013fwxa   0.56580
gfz2013fxge   0.71430
gfz2013fygc   0.15030
gfz2013gaie   1.24390
gfz2013gbcn   0.02980
gfz2013gbst   0.32520
gfz2013gcfx   0.49990
gfz2013gdgf   0.05630
gfz2013geno  -0.08150
gfz2013ggtf   0.48700
gfz2013gjdc  -0.30540
gfz2013glcr   0.03280
gfz2013gmor  -0.08270
gfz2013gngz   1.37990
gfz2013gnse  -0.25430
gfz2013gock  -0.21030
gfz2013govy   0.18550
gfz2013gras   1.23000
gfz2013gvdb   0.56990
gfz2013gvet   0.67880
gfz2013gvex  -0.04500
gfz2013gvxh  -0.11920
gfz2013gwrd  -0.02180
gfz2013gxsu  -0.33460
gfz2013hbkh  -0.42460
gfz2013hfmp  -0.02990
gfz2013hisv   1.56090
gfz2013hkja  -0.86110
gfz2013hklr   1.06990
gfz2013hlbe  -0.18820
gfz2013hmbc  -0.35220
gfz2013hpfq  -0.16480
gfz2013hudi   0.30930
gfz2013hxcx  -0.22630
gfz2013iapa  -0.14860
gfz2013iayx   0.24690
gfz2013icfh  -0.56190
gfz2013idbb   0.09880
gfz2013iexo  -0.13170
gfz2013ifpq   0.11760
gfz2013igmx  -0.17700
gfz2013ihcj   0.02210
gfz2013ijsr  -1.05760
gfz2013ikgo  -0.51690
gfz2013inux   0.17780
gfz2013iodt  -0.57310
gfz2013iqzq   0.25630
gfz2013itsu   0.21530
gfz2013iunn   0.21780
gfz2013iynu   0.03640
gfz2013iyqz  -0.04890
gfz2013jarl  -0.01680
gfz2013jdrx   1.04440
gfz2013jesk  -2.77950
gfz2013jfah   1.18530
gfz2013jgij   0.29980
gfz2013jgip  -2.40640
gfz2013jjsi  -0.08300
gfz2013jkut   0.34630
gfz2013jlst  -2.45500
gfz2013jmcc  -0.27690
gfz2013json   3.60900
gfz2013jusj   0.47200
gfz2013jwcn  -0.23910
gfz2013jxoi  -0.18200
gfz2013kdeo  -2.12620
gfz2013kgmj  -0.11030
gfz2013kheb  -2.96460
gfz2013khli  -0.23690
gfz2013kilx  -0.11520
gfz2013kkzr  -0.04320
gfz2013kqln   2.06220
gfz2013krei  -0.29520
gfz2013kvtk  -1.26880
gfz2013kweg   0.67800
gfz2013kwps  -0.20060
gfz2013lajg   0.56010
gfz2013lajn  -0.01800
gfz2013lbiu   0.67820
gfz2013ldpc   0.02250
gfz2013ldqb   0.23370
gfz2013lgbb   0.41280
gfz2013lgxc   0.08600
gfz2013lixa  -0.05390
gfz2013lljw   0.38330
gfz2013lmdy  -0.39840
gfz2013lmqe   2.34280
gfz2013lmrs   0.00000
gfz2013lsob   0.05450
gfz2013lupg   0.29470
gfz2013lwao  -0.01740
gfz2013lwbk   0.61000
gfz2013lxyn   1.43300
gfz2013lyko   0.15520
gfz2013lznu   0.15250
gfz2013malg   1.18300
gfz2013mded  -0.10980
gfz2013mghe   0.33030
gfz2013mmlw  -0.09990
gfz2013mnei  -1.43150
gfz2013mnju   0.31430
gfz2013mqmv  -0.88940
gfz2013mtqd  -0.82670
gfz2013mvgr   0.01770
gfz2013mxee   0.34970
gfz2013mzwe   0.04090
gfz2013nabl   0.06610
gfz2013ncjp  -0.34030
gfz2013nedo  -0.08540
gfz2013neuc  -0.03300
gfz2013nfwx   0.15540
gfz2013ngnt  -0.70580
gfz2013nhjb  -0.47980
gfz2013njnd   0.29390
gfz2013nkgj  -0.25140
gfz2013nlxz   0.23460
gfz2013nmac   0.17800
gfz2013nnzf  -0.04530
gfz2013npcg  -0.65600
gfz2013nppd  -0.30050
gfz2013nqgw  -0.07940
gfz2013nskg  -0.06240
gfz2013nttq   0.33210
gfz2013nuor   0.30480
gfz2013nvdj  -1.79320
gfz2013nwdi  -0.19400
gfz2013oejn   0.32600
gfz2013ofls  -0.07590
gfz2013ogde  -0.67650
gfz2013oifr   1.58000
gfz2013oinc   2.30690
gfz2013ojti   0.75250
gfz2013oksi   0.24570
gfz2013onjy  -1.01310
gfz2013orjg   0.29330
gfz2013ornz  -1.04960
gfz2013ozku  -0.04780
gfz2013oznn   0.02980
gfz2013ozqm   0.27130
gfz2013ozrf  -0.35270
gfz2013ozrp  -0.58920
gfz2013pakq  -0.59900
gfz2013pcos   0.25830
gfz2013pfbx  -0.65940
gfz2013pffm   0.08010
gfz2013phef   0.09340
gfz2013phmp  -0.20960
gfz2013pigb   0.58820
gfz2013piwd   0.17890
gfz2013piye   0.83440
gfz2013pkbs  -0.01430
gfz2013plhp  -0.62260
gfz2013pndn  -0.10450
gfz2013poxj   0.41990
gfz2013pqui   0.14680
gfz2013puag   0.36320
gfz2013pupd   0.36720
gfz2013pxsj  -0.42690
gfz2013pxtx   0.38040
gfz2013pxya  -0.57430
gfz2013qali  -0.12620
gfz2013qbca   0.03150
gfz2013qcck  -0.45150
gfz2013qfmm  -0.40790
gfz2013qfsq   0.18970
gfz2013qidm  -0.53530
gfz2013qjmk  -0.07460
gfz2013qmer  -0.46140
gfz2013sart  -0.21130
gfz2013scai   0.92280
gfz2013scub   0.02870
gfz2013sdus   0.96830
gfz2013sebq   0.19020
gfz2013sfds  -0.10190
gfz2013sfto  -0.17790
gfz2013shlq   0.33270
gfz2013shzy  -0.09400
gfz2013skkm  -0.37330
gfz2013sllq   0.06170
gfz2013snbr   0.06480
gfz2013snyf  -0.41560
gfz2013sqkb   0.81690
gfz2013sred   0.66580
gfz2013stcu   0.24610
gfz2013stht  -0.67860
gfz2013suln  -0.16040
gfz2013suvn  -0.39790
gfz2013svci   0.12360
gfz2013svqv   0.20680
gfz2013sxbw  -0.44460
gfz2013syqk   0.16490
gfz2013tbzy  -0.01780
gfz2013tdau   1.61510
gfz2013tdkk  -0.10310
gfz2013thtc  -0.53510
gfz2013tjlx  -0.22980
gfz2013toea   0.31460
gfz2013toxf  -0.26330
gfz2013tqbb  -0.19290
gfz2013ttoz  -0.18630
gfz2013tusd  -0.94720
gfz2013tuzv  -0.06940
gfz2013tvmw  -0.37420
gfz2013txev   0.64950
gfz2013uauo  -0.38040
gfz2013ufku   0.00000
gfz2013ufxk   1.27060
gfz2013ugax   2.48200
gfz2013uhlm   0.09820
gfz2013upcc  -0.08840
gfz2013upee   0.14710
gfz2013upiv  -0.09530
gfz2013uqsp   1.93910
gfz2013uthl  -0.20150
gfz2013utsh  -0.07100
gfz2013uysr  -0.40810
gfz2013vcoa  -0.18790
gfz2013vdic  -0.29270
gfz2013vefs   1.29500
gfz2013vfyw  -0.01660
gfz2013vfzp   1.71590
gfz2013vgau  -0.61750
gfz2013vgev  -0.24120
gfz2013vgpf  -1.94910
gfz2013vgrk  -0.11380
gfz2013vhnk   1.94180
gfz2013vhsb  -0.32200
gfz2013vhzu  -0.37510
gfz2013viul  -0.35350
gfz2013vjjc   0.24470
gfz2013vjod  -0.00690
gfz2013vlth  -0.07610
gfz2013vmro   0.09050
gfz2013vnfj  -0.00000
gfz2013vpnf   0.04050
gfz2013vqot   0.03620
gfz2013vrmy   0.66610
gfz2013vsxi  -0.26980
gfz2013vthd   0.07490
gfz2013vuja   0.22420
gfz2013vvrq   3.25560
gfz2013vxta   1.11870
gfz2013vzbo  -0.28550
gfz2013wbyr   1.18180
gfz2013wgeu   0.22310
gfz2013wjmm   4.25850
gfz2013wmfd   0.18300
gfz2013wnpr  -0.88430
gfz2013wnql  -0.24470
gfz2013woze   0.49890
gfz2013wpga  -0.03050
gfz2013wqhq   0.22320
gfz2013wrgw  -0.06860
gfz2013wtzl  -0.07660
gfz2013wuml   0.11050
gfz2013wuon  -0.16980
gfz2013wwii   0.02160
gfz2013xatc  -0.75760
gfz2013xcmp  -0.83330
gfz2013xgek   0.07120
gfz2013xgmp  -0.04170
gfz2013xizq   0.98110
gfz2013xkbh   1.04060
gfz2013xklb   1.08240
gfz2013xkwt   0.22830
gfz2013xmqg   0.05120
gfz2013xmul   0.15150
gfz2013xpfa  -0.25690
gfz2013xpsm  -0.32530
gfz2013xqnn  -0.03960
gfz2013xsdt   0.00760
gfz2013xtwj  -0.27120
gfz2013xvqd   0.94130
gfz2013xvxf   2.30190
gfz2013xvyl  -0.37960
gfz2013xwda  -0.40360
gfz2013xwzd  -0.92760
gfz2013xyzb   0.09190
gfz2013xzcg  -0.25440
gfz2013yach   0.08020
gfz2013yaig  -0.69480
gfz2013yewz   0.02360
gfz2013yghj  -0.29170
gfz2013yhbu   0.42150
gfz2013yhpk   0.10020
gfz2013yixl  -0.06720
gfz2013ylbx   1.76530
gfz2013ymky   0.79620
gfz2013ymxs  -0.31620
gfz2013ynmw   0.85050
gfz2013ypdc   0.04310
gfz2013yqkv   1.53190
gfz2013yrmc   1.26520
gfz2013yulx   2.26480
gfz2013yyti  -0.77930
gfz2013yzte  -0.17570
gfz2013zaxb   0.89710
gfz2014adjs  -0.50630
gfz2014algk  -0.22700
gfz2014alwz   1.90910
gfz2014amsb  -0.41700
gfz2014aqbk  -0.56160
gfz2014ared   2.80740
gfz2014arnc  -0.02790
gfz2014arpf   0.13370
gfz2014arqr  -0.01850
gfz2014arsr   0.09980
gfz2014atgw  -0.06350
gfz2014azqs  -0.08790
gfz2014bagd   0.37810
gfz2014bbro   0.01940
gfz2014bdfd   0.17550
gfz2014bekc  -0.90030
gfz2014bezu   0.17360
gfz2014bfqo  -0.06320
gfz2014bhhv   0.11740
gfz2014bhvd  -0.08680
gfz2014bjgt   0.29270
gfz2014bjsy  -0.35920
gfz2014bldx  -0.39720
gfz2014bmdh  -0.13800
gfz2014bmfv  -0.19710
gfz2014bmta  -0.40090
gfz2014bolf  -0.68250
gfz2014bwue   0.64620
gfz2014bzna   0.11810
gfz2014bztt   0.19310
gfz2014bzxy   0.91360
gfz2014caop  -0.19110
gfz2014capn   0.43290
gfz2014ccbz  -0.11870
gfz2014cgog   1.08240
gfz2014citw  -0.12900
gfz2014claq   1.15760
gfz2014clnj  -0.34990
gfz2014clnq   0.17530
gfz2014cmwb   1.76140
gfz2014crpy   0.16970
gfz2014ctot  -0.30480
gfz2014cueu  -0.05450
gfz2014cvxx  -0.19080
gfz2014cybg   0.61490
gfz2014cyvm   2.58790
gfz2014czno   0.08760
gfz2014czqi  -0.21510
gfz2014dbdf   0.24200
gfz2014dbyx   0.43840
gfz2014dcdy  -0.11530
gfz2014dddc   0.26410
gfz2014dffd  -0.39130
gfz2014dgiy  -0.03220
gfz2014dlri   0.25410
gfz2014dofa   0.33180
gfz2014dpzx   1.13510
gfz2014duqn   0.71040
gfz2014eage  -0.15110
gfz2014ebmc   0.13510
gfz2014efkk   0.00000
gfz2014eght   2.88930
gfz2014egwu  -0.26830
gfz2014ehfp   0.70560
gfz2014ejmt   0.11230
gfz2014ejvf  -0.07780
gfz2014ekcr  -0.38990
gfz2014eqpl   0.20150
gfz2014erbj  -0.06880
gfz2014etqa  -0.68210
gfz2014ettc   0.13960
gfz2014ewcz   0.65860
gfz2014ewrw  -0.47520
gfz2014exxa  -0.03290
gfz2014ezgb   0.47870
gfz2014fcms  -0.26250
gfz2014fcsy   0.28510
gfz2014fedd   0.35470
gfz2014fexu   0.26190
gfz2014fgvi  -1.29740
gfz2014fgxt  -0.20210
gfz2014fgza  -0.35550
gfz2014fhbd  -0.36290
gfz2014fhgb  -0.14150
gfz2014fhhp  -0.03810
gfz2014fhjd   0.37150
gfz2014fhla   0.18590
gfz2014fhqk   0.26130
gfz2014fhrq  -0.46490
gfz2014fhsg  -0.34160
gfz2014fhwx  -0.05560
gfz2014fhxm  -0.03560
gfz2014fhyb  -0.22700
gfz2014fimn  -0.49620
gfz2014fiuj   0.01040
gfz2014fjpb  -0.36800
gfz2014fjxd  -0.08730
gfz2014fjyo   0.15980
gfz2014fjzd   0.45400
gfz2014fjzw   0.05260
gfz2014fkmr  -0.80810
gfz2014fkmx  -0.50160
gfz2014fles  -0.14470
gfz2014flfa   0.60390
gfz2014fnyg   0.80240
gfz2014fqpz   0.01870
gfz2014frdz  -0.17650
gfz2014frel   0.91050
gfz2014frez   0.45270
gfz2014frgm   0.29080
gfz2014frjr   0.46670
gfz2014frnb  -0.11500
gfz2014frwh  -0.19740
gfz2014fstx   0.09930
gfz2014fsuh   0.21500
gfz2014fszc   0.22090
gfz2014ftgx  -0.34270
gfz2014ftka  -0.61360
gfz2014ftno  -0.05100
gfz2014ftoc   0.06920
gfz2014ftvc   0.62810
gfz2014furx  -0.36090
gfz2014fusj   0.52790
gfz2014fuup  -0.00000
gfz2014fuvk  -0.16880
gfz2014fuzi   0.61900
gfz2014fvaa   0.20780
gfz2014fval  -0.57280
gfz2014fvdx  -0.39220
gfz2014fvgh   1.47830
gfz2014fvhp   0.78580
gfz2014fvjl   0.11220
gfz2014fvpy   0.40390
gfz2014fvrg  -0.09350
gfz2014fwdr   0.64560
gfz2014fwtt  -0.64990
gfz2014fwyr   0.62260
gfz2014fxpu  -0.42620
gfz2014fyfr  -0.12300
gfz2014fzgx  -0.11350
gfz2014gbcz   0.71830
gfz2014gbdq  -0.30080
gfz2014gbjf   0.29140
gfz2014gcza   0.03740
gfz2014gdsq  -0.28760
gfz2014geuy  -0.91340
gfz2014gezs  -0.29450
gfz2014gfdj   0.31220
gfz2014ggsr   0.18830
gfz2014ghpe  -0.82170
gfz2014gilf   1.63370
gfz2014gkgf  -1.28410
gfz2014gkok   0.79820
gfz2014gkpd  -0.65310
gfz2014gkpj   0.54270
gfz2014gkqf  -0.98960
gfz2014gkqu  -1.13380
gfz2014gktn   1.57520
gfz2014gkvk   0.18200
gfz2014gkxm  -0.24640
gfz2014glcu  -1.09910
gfz2014glfn   0.06630
gfz2014glgo  -0.23850
gfz2014glov   0.18290
gfz2014glsh  -0.22680
gfz2014glvn   0.17980
gfz2014glvu   0.07700
gfz2014glxy   1.16210
gfz2014gmci  -0.68570
gfz2014gmes   0.07730
gfz2014gmge   0.05040
gfz2014gmhp   0.11150
gfz2014gmhr   0.75330
gfz2014gmku   0.05420
gfz2014gmlz   0.30520
gfz2014gmmk  -0.05460
gfz2014gmmt   0.78300
gfz2014gmnb   0.17300
gfz2014gmnw  -0.72220
gfz2014gmtb  -1.82550
gfz2014gmtj   0.46540
gfz2014gmvr   0.18940
gfz2014gmzl  -0.06730
gfz2014gndq  -0.11270
gfz2014gnfd   0.28670
gfz2014gnfs   0.29210
gfz2014gngg  -0.02090
gfz2014gnhk   0.00000
gfz2014gnig   0.08740
gfz2014gnmx  -0.48700
gfz2014gnno  -0.00000
gfz2014gnnt   0.06450
gfz2014gnom  -0.38460
gfz2014gnre   0.36670
gfz2014gnsi  -0.02750
gfz2014gntd   0.54640
gfz2014gnvw  -0.04030
gfz2014gnwg  -0.10330
gfz2014gnxb  -0.17300
gfz2014goba  -0.51780
gfz2014goei   0.18240
gfz2014gogv   0.16900
gfz2014gohm   0.01910
gfz2014golz  -0.03560
gfz2014gono   0.00000
gfz2014goqw  -0.65260
gfz2014gori  -1.93990
gfz2014goyx   1.06110
gfz2014gpac  -0.03230
gfz2014gpam  -0.40610
gfz2014gpbx   0.47990
gfz2014gpce   0.74090
gfz2014gpgd  -0.05760
gfz2014gphr  -0.43460
gfz2014gpmm   0.12270
gfz2014gpnf   0.36500
gfz2014gpqq   0.05860
gfz2014gpuk   0.01900
gfz2014gpvk  -0.14320
gfz2014gpxl   0.19270
gfz2014gpya   1.60880
gfz2014gqco  -0.22510
gfz2014gqed  -0.13190
gfz2014gqer   1.78040
gfz2014gqgf   0.44010
gfz2014gqiy   0.14520
gfz2014gqjr   0.54250
gfz2014gqqz   0.26950
gfz2014gqro   0.31570
gfz2014gqve  -0.07370
gfz2014grcv  -0.16210
gfz2014grfp   0.53690
gfz2014grgn   0.20430
gfz2014grho   1.24470
gfz2014gsgv  -0.16630
gfz2014gsjg  -0.03360
gfz2014gsqs   0.10100
gfz2014gtef   0.40510
gfz2014gtlu  -0.85520
gfz2014gtrb   0.03250
gfz2014gtwz   0.41490
gfz2014gufl   0.48870
gfz2014gull   0.50480
gfz2014gumd   0.49970
gfz2014gutm   1.13670
gfz2014gvhw   0.65930
gfz2014gvqj  -0.47290
gfz2014gvrd  -0.25100
gfz2014gwab  -0.16440
gfz2014gwqj   0.16310
gfz2014gxag  -0.11370
gfz2014gxkh   0.12800
gfz2014gxqu   0.55180
gfz2014gxqx  -0.26430
gfz2014gxvf   0.05220
gfz2014gxxh   0.42840
gfz2014gxxo  -0.12030
gfz2014gyxd   0.00000
gfz2014gzrm   0.21610
gfz2014gzue   0.80670
gfz2014haey  -0.12530
gfz2014hafk   0.20130
gfz2014hagb  -0.14900
gfz2014haos  -0.09960
gfz2014hasj   0.09750
gfz2014hauo  -0.88980
gfz2014hbjm  -0.40010
gfz2014hbjz  -0.30950
gfz2014hetr   0.07720
gfz2014heum  -0.05550
gfz2014heyq   0.20550
gfz2014hfad   0.10300
gfz2014hfhl  -0.63740
gfz2014hgqo  -0.04760
gfz2014hhfs   0.14000
gfz2014hhwx   0.19220
gfz2014hifp   0.08360
gfz2014hiih  -0.16400
gfz2014hiiz  -0.01740
gfz2014hjgh  -0.58900
gfz2014hjgr   0.84850
gfz2014hjhu  -0.09820
gfz2014hjij  -0.30430
gfz2014hjlx  -0.28470
gfz2014hkcf  -1.06820
gfz2014hlib   0.26140
gfz2014hmgf   0.62810
gfz2014hmrs  -0.03680
gfz2014hmvx   0.01470
gfz2014hmzg  -0.03940
gfz2014hnfm  -0.11700
gfz2014hoap  -0.30520
gfz2014hocg   1.70250
gfz2014hphw  -0.34000
gfz2014hppw   0.05510
gfz2014hpqz   1.63480
gfz2014hqxs   0.11000
gfz2014hqyx   0.18320
gfz2014hrft   0.13890
gfz2014hriu   0.35640
gfz2014hrtn  -0.31820
gfz2014hscz  -0.16870
gfz2014hsqo   0.00000
gfz2014hssr  -0.27000
gfz2014huaj  -1.07080
gfz2014hugz  -0.05210
gfz2014hvdm  -0.09210
gfz2014hwan  -0.04020
gfz2014hwwi  -0.04300
gfz2014hyal   0.25220
gfz2014hymr   0.17450
gfz2014hyvq  -0.18190
gfz2014hzdy  -0.26460
gfz2014hzfr  -0.06240
gfz2014hzgn   0.33960
gfz2014hzhe  -0.47120
gfz2014hzht  -0.32560
gfz2014hzig  -0.09410
gfz2014hzze   0.00000
gfz2014iani  -0.17850
gfz2014ieam  -0.55200
gfz2014ieho  -0.12580
gfz2014ifue   0.09710
gfz2014ifzj  -0.16880
gfz2014igsj  -0.09740
gfz2014igur  -0.16900
gfz2014ijvh  -0.27560
gfz2014ikbk  -0.42040
gfz2014ikvd   0.18320
gfz2014ilwu   0.19290
gfz2014imap  -0.86470
gfz2014immt   0.06820
gfz2014imnn  -0.58160
gfz2014inbj   1.95140
gfz2014iobd  -0.33240
gfz2014iqzj  -0.19770
gfz2014irci   0.14360
gfz2014ircq  -0.11720
gfz2014irrg   0.31230
gfz2014isdq  -0.00000
gfz2014isff   0.01820
gfz2014issk  -0.33430
gfz2014isub   0.62890
gfz2014isys   1.19590
gfz2014itab   0.04110
gfz2014itbe  -0.24520
gfz2014itbu   0.03480
gfz2014itfc   0.11310
gfz2014itgh  -0.34160
gfz2014itjx  -0.02090
gfz2014itkw  -0.58500
gfz2014itpj   0.73740
gfz2014iuhq  -0.11560
gfz2014ivep  -0.21140
gfz2014iwnf   0.09660
gfz2014iwwl   0.13820
gfz2014ixga  -0.23610
gfz2014ixky  -0.07440
gfz2014iywt   0.06750
gfz2014jagg  -0.26330
gfz2014jass  -0.25110
gfz2014jbyg  -0.11500
gfz2014jcjt   3.64920
gfz2014jcmt   0.46640
gfz2014jesb   1.25230
gfz2014jfis   0.03620
gfz2014jggm  -0.11400
gfz2014jhra  -0.21480
gfz2014jipr  -0.10380
gfz2014jird   0.37370
gfz2014jjhc  -0.12540
gfz2014jjkh   0.75430
gfz2014jjln  -1.39830
gfz2014jjqk   0.23730
gfz2014jkxe   0.01880
gfz2014jlwb   1.83150
gfz2014jmnk  -0.08220
gfz2014jnyv   0.55260
gfz2014jomw  -0.02140
gfz2014jpep  -0.49100
gfz2014jpez  -0.11540
gfz2014jpfn  -0.48970
gfz2014jpgu  -0.05470
gfz2014jpvx  -0.21180
gfz2014jpxs   0.41370
gfz2014jtcz  -0.19930
gfz2014jtfe   0.28960
gfz2014jvow   0.28870
gfz2014jwmh   1.08640
gfz2014jysj  -0.25270
gfz2014kara   0.24690
gfz2014kbuk   0.39130
gfz2014khan  -0.24550
gfz2014khlk   1.04090
gfz2014kitm   0.09110
gfz2014kizt  -0.44930
gfz2014kjee   0.20300
gfz2014kjjq  -0.38940
gfz2014kjzb   0.04200
gfz2014kkhh   0.02730
gfz2014kmmt   1.46010
gfz2014kndc  -0.44120
gfz2014knxs  -0.62890
gfz2014krlg   0.24320
gfz2014kscf  -0.01960
gfz2014ksdv  -1.92350
gfz2014ksmz   0.15870
gfz2014kssw   0.46580
gfz2014kwie   0.00000
gfz2014kwrg  -0.15660
gfz2014kwwg  -0.13650
gfz2014kxqf  -0.13420
gfz2014kyan   0.26540
gfz2014kytf   0.12620
gfz2014kzzm   0.27490
gfz2014lbxn   0.06430
gfz2014lchy  -0.07920
gfz2014lddn   1.71390
gfz2014lefs   0.89260
gfz2014lgqn   0.44980
gfz2014lhqn  -0.54270
gfz2014ljbr  -0.22600
gfz2014lkyf   1.87470
gfz2014lmge  -0.06940
gfz2014lnmw   0.16730
gfz2014lpfc   0.00000
gfz2014lpim   0.97960
gfz2014lrzx   0.11680
gfz2014lvgn  -0.27450
gfz2014lwom   0.29570
gfz2014lwvb   0.02740
gfz2014lxnc  -1.36720
gfz2014lxqr   0.13210
gfz2014lyhk  -0.31590
gfz2014lynp  -0.34790
gfz2014lzal  -0.28450
gfz2014lzow  -0.00300
gfz2014macx  -0.86830
gfz2014madw  -0.91480
gfz2014mawp  -0.26480
gfz2014mcno   0.07070
gfz2014mcse   0.37180
gfz2014mden  -0.46800
gfz2014mioi  -0.32310
gfz2014mmtb  -0.68370
gfz2014mogb  -0.63410
gfz2014mrbm   0.06450
gfz2014mtum   0.50410
gfz2014mwnj  -0.01840
gfz2014mxkr  -1.54720
gfz2014myqz   1.26900
gfz2014nafd   0.10820
gfz2014navw   0.16820
gfz2014ncub   0.16110
gfz2014ndue  -0.86230
gfz2014ngsk   0.35610
gfz2014nhyb   0.06990
gfz2014niqj   0.58730
gfz2014nkdx   0.46400
gfz2014nnih   0.45300
gfz2014nnxd  -0.73440
gfz2014nowp  -0.47500
gfz2014npeo   0.62180
gfz2014nphm  -0.48160
gfz2014nqbs  -0.13330
gfz2014nqfm  -0.45350
gfz2014nrie   0.23370
gfz2014ntdh   0.08900
gfz2014nvdi  -3.52470
gfz2014obbs   0.27280
gfz2014obxm  -0.09940
gfz2014odgv  -0.17920
gfz2014ofhm   0.26840
gfz2014oims   0.14320
gfz2014oinz  -0.66560
gfz2014ojdg  -0.25220
gfz2014okec  -0.13030
gfz2014okxu  -0.05250
gfz2014omyn   0.36300
gfz2014ooaa   0.30240
gfz2014opqr   0.23380
gfz2014oqhw  -0.02040
gfz2014orxs  -0.20940
gfz2014oryw   0.47050
gfz2014osvx  -0.18270
gfz2014owii  -0.01020
gfz2014owur  -0.01810
gfz2014owxc  -0.46910
gfz2014oxcc   0.27070
gfz2014oyly   0.08840
gfz2014pghi   0.16500
gfz2014pjer  -0.19350
gfz2014pjum  -0.17820
gfz2014pngj  -0.30840
gfz2014poap  -0.05960
gfz2014ppzf  -0.25820
gfz2014pqqp   1.56690
gfz2014pvch  -0.63490
gfz2014pxbu   0.13730
gfz2014pzml  -0.55340
gfz2014pzni   0.50930
gfz2014qbzi  -0.71270
gfz2014qcxs   0.35330
gfz2014qdog   1.58500
gfz2014qfzq  -0.28120
gfz2014qjfl   0.03380
gfz2014qlvc   0.53910
gfz2014qlxd  -0.70520
gfz2014qngj   0.46620
gfz2014qqfg   0.07950
gfz2014qqhm  -0.21760
gfz2014qsby  -0.30270
gfz2014qtwv  -0.12210
gfz2014raau   2.87600
gfz2014rbpx   1.66950
gfz2014rcyx   0.14490
gfz2014rdoz   0.04030
gfz2014rfeb   0.29030
gfz2014rffv   0.04210
gfz2014rghp   0.07980
gfz2014rhju  -0.01780
gfz2014rhwq   0.06850
gfz2014riel  -0.35260
gfz2014rils   0.66010
gfz2014rnrn  -1.56810
gfz2014roba   0.17780
gfz2014romy   0.31720
gfz2014royq  -0.29510
gfz2014rucz  -0.11400
gfz2014rwos   0.18410
gfz2014ryfb  -0.10100
gfz2014sadu   0.34660
gfz2014shid  -0.31740
gfz2014sptq   1.73350
gfz2014sryn   0.12580
gfz2014ssds   0.05940
gfz2014swgt   0.82960
gfz2014szzf   0.14780
gfz2014tabg  -0.00000
gfz2014tgcw   0.13700
gfz2014thrw  -0.44760
gfz2014tovs   0.45590
gfz2014tqdo  -0.60750
gfz2014tqly  -0.19830
gfz2014tqsf  -0.84400
gfz2014tqth  -0.94370
gfz2014tute  -0.54970
gfz2014tzsd   0.03440
gfz2014uapa  -0.03930
gfz2014ubyq   0.57160
gfz2014udgg  -0.40460
gfz2014uohh   1.71540
gfz2014utac   0.10860
gfz2014uuqa   0.23910
gfz2014uvrk   3.22330
gfz2014uxyg  -0.38460
gfz2014uyrq   0.58840
gfz2014uzaw  -0.05240
gfz2014vcev  -0.24080
gfz2014vdnh   0.09800
gfz2014veit  -1.98330
gfz2014vhld   0.74390
gfz2014vhms   0.08650
gfz2014vhuy   0.47940
gfz2014vljh   0.00350
gfz2014vnxu   0.39970
gfz2014vpus   0.41400
gfz2014vqqa   0.48800
gfz2014waoo   0.36110
gfz2014watn  -0.52660
gfz2014wjko  -0.45360
gfz2014wmsc  -0.59790
gfz2014wqcp   1.54840
gfz2014wrkh  -2.89860
gfz2014wsjh   0.24860
gfz2014wwib  -0.81460
gfz2014xaxx  -0.11320
gfz2014xbyr  -0.38960
gfz2014xhwk  -0.12580
gfz2014xjri  -0.48660
gfz2014xkdg   0.15750
gfz2014xmnp  -0.03660
gfz2014xoji  -0.11930
gfz2014xqby  -0.16820
gfz2014xqqd   0.04870
gfz2014yazi   0.08690
gfz2014yhhm  -0.13720
gfz2014ynhc   0.28450
gfz2014ynzy   0.00000
gfz2014yppv  -0.05790
gfz2014yrug  -0.81300
gfz2014yula   1.46390
gfz2014yyiy  -0.08390
gfz2014zcgo  -0.03880
gfz2014zdtl   0.00000
gfz2014zkys  -0.46480
gfz2014zlgp   0.23930
gfz2014zplq   0.12030
gfz2015abpw   0.04550
gfz2015aide   0.33350
gfz2015alzx   0.29350
gfz2015ansu   0.03830
gfz2015apnk   0.10140
gfz2015aqav  -0.68380
gfz2015aqbq  -0.78790
gfz2015arpd   0.13440
gfz2015aruz   0.01240
gfz2015atxv  -0.88800
gfz2015aush   0.07830
gfz2015bavu  -0.08250
gfz2015bdyd   0.19150
gfz2015berb   0.17550
gfz2015bfjm  -0.00170
gfz2015bfzt  -0.07080
gfz2015bkbj   0.71140
gfz2015bnho  -0.09680
gfz2015bohx  -0.06560
gfz2015bphe  -0.14610
gfz2015bpxl   0.16690
gfz2015bucr   0.44280
gfz2015bvsj   0.79520
gfz2015bvxx   0.97070
gfz2015byjd   1.98500
gfz2015bzej   0.17160
gfz2015cewd  -0.21300
gfz2015chhn   1.64030
gfz2015clrp   0.07090
gfz2015cpuo   0.05890
gfz2015cxhx  -0.51630
gfz2015cxrc  -0.09740
gfz2015cyjd  -0.45120
gfz2015ddhl   0.08240
gfz2015dizn  -0.48190
gfz2015djts   3.26280
gfz2015drlk  -0.28960
gfz2015dskr  -0.08960
gfz2015dtqr  -0.01850
gfz2015dvbn   0.07600
gfz2015ecgq   1.83460
gfz2015ednc   1.66830
gfz2015eezy   0.27390
gfz2015egbk  -0.05240
gfz2015egxq   0.08780
gfz2015ehou   0.47700
gfz2015ehpz  -0.20240
gfz2015eiky  -0.22230
gfz2015elgy   1.30580
gfz2015eljz   0.57860
gfz2015emcg   0.37240
gfz2015emtg   0.62380
gfz2015enth   2.91540
gfz2015esrj  -0.03020
gfz2015etai  -1.46380
gfz2015fbbk  -0.01980
gfz2015fbew   1.49860
gfz2015fcua   0.50520
gfz2015fdpr   0.22860
gfz2015fjhk  -0.38130
gfz2015fkbc   0.28180
gfz2015fkgt  -1.65540
gfz2015fkic   2.33600
gfz2015fkjs  -0.40240
gfz2015fkkd   0.48170
gfz2015fkuu  -0.46530
gfz2015fsjj  -1.51390
gfz2015fvoi  -0.19490
gfz2015fwkq   0.14640
gfz2015fwnf   0.32500
gfz2015fxdi  -0.04170
gfz2015fyvk   3.51640
gfz2015gckd  -0.47800
gfz2015ggjw  -0.21080
gfz2015gjbr   0.36650
gfz2015gkwa   0.26380
gfz2015gmgf  -0.10580
gfz2015guhd  -1.15070
gfz2015gwao  -0.03970
gfz2015gzja   0.71730
gfz2015hdbn  -0.19740
gfz2015hdcp   0.24480
gfz2015hepg   1.76820
gfz2015hgbk  -0.68250
gfz2015hhbd   0.53890
gfz2015hlfq   0.03240
gfz2015hlqo  -0.38610
gfz2015hpmk   0.23890
gfz2015hslo   0.11900
gfz2015hwkv   0.47620
gfz2015hwzw   0.29860
gfz2015idho   0.05910
gfz2015iele  -0.00110
gfz2015igsy   1.12900
gfz2015ijmh   0.40040
gfz2015imty  -0.25380
gfz2015imyp  -0.02690
gfz2015isim   0.76980
gfz2015iwqk   0.61690
gfz2015ixyy   0.03270
gfz2015jkdw  -0.04010
gfz2015jmlf  -0.97130
gfz2015jmlu   0.14840
gfz2015jpap  -0.38750
gfz2015jxbx  -0.16110
gfz2015jzcv  -0.66910
gfz2015kakw  -0.15030
gfz2015kalm  -0.24250
gfz2015kfsu  -0.01040
gfz2015kkqb  -0.19650
gfz2015kkth   0.20170
gfz2015kphk  -0.11810
gfz2015kquq  -0.48130
gfz2015lbcg   0.42960
gfz2015lcma  -0.18020
gfz2015lcuo   0.02130
gfz2015lfma   0.03910
gfz2015lfos  -0.17060
gfz2015lfud  -0.02430
gfz2015lhjq   0.29740
gfz2015lhjy  -1.14820
gfz2015ltii   0.08060
gfz2015ltro   0.20780
gfz2015lytv   1.47340
gfz2015lzad  -0.10910
gfz2015mddr  -0.16930
gfz2015mfpy   0.16930
gfz2015mhym   0.88470
gfz2015micz   0.33600
gfz2015mljd   0.10240
gfz2015mpte   0.84860
gfz2015nbdc  -0.23410
gfz2015nerz  -0.34040
gfz2015nqgf   0.69130
gfz2015nuxz  -0.12220
gfz2015nwug  -0.63510
gfz2015ocwr   0.00000
gfz2015ofpd   0.02050
gfz2015ojut   0.76470
gfz2015okmq   0.19200
gfz2015okpu  -0.18650
gfz2015omab  -0.51640
gfz2015opjp  -0.31660
gfz2015oumn  -0.88370
gfz2015oyfl   0.33210
gfz2015pdri  -0.27870
gfz2015pjgr   0.13250
gfz2015plal   0.03820
gfz2015poni   0.85320
gfz2015prlr   0.64650
