# Nsamples: 358  MAD:  0.734  mean: -0.369  variance:  2.214
gfz2011fgvr  -0.08200
gfz2011fhag   0.01470
gfz2011fhur  -0.02040
gfz2011flgj   2.59160
gfz2011fnsw  -0.37810
gfz2011gbmx   0.61950
gfz2011gcwb   0.18540
gfz2011gdgh   0.02040
gfz2011ghky   0.40950
gfz2011gkey  -0.14500
gfz2011gkzt  -1.96030
gfz2011gzbr  -0.15420
gfz2011haid   0.06250
gfz2011hbex   1.05250
gfz2011hbqk   0.28440
gfz2011hfkj  -0.36000
gfz2011hlqw   0.02610
gfz2011hlsa  -0.59700
gfz2011hlth   0.29470
gfz2011hpgx  -0.33250
gfz2011hpqp  -0.00000
gfz2011hrhu   0.32500
gfz2011hryk  -0.46440
gfz2011hvbu  -0.30120
gfz2011ieie  -0.04320
gfz2011iwte  -0.61730
gfz2011izqa  -0.68150
gfz2011jdsj   0.90110
gfz2011jmbn   0.30660
gfz2011jplh  -1.69310
gfz2011jtlg   0.10240
gfz2011jxpl  -1.29220
gfz2011knbi  -1.35020
gfz2011knoo  -1.05850
gfz2011kqwo   0.75360
gfz2011kqyg   0.38170
gfz2011kweu  -0.08900
gfz2011kwhq  -0.25490
gfz2011kwiy   1.56600
gfz2011kwjx   0.61600
gfz2011kwkw  -0.05280
gfz2011kwld   0.38080
gfz2011kwlq  -0.23540
gfz2011kwni   0.78800
gfz2011kwnu   0.34440
gfz2011kwqc   0.73410
gfz2011kwrf   0.40670
gfz2011kwsz   0.11560
gfz2011kxzp   0.56620
gfz2011lcxq  -4.17340
gfz2011lggq   0.33600
gfz2011lgsg  -3.93120
gfz2011lhls   7.03220
gfz2011lvjr   3.72480
gfz2011mdie  -3.64450
gfz2011mepc   0.06250
gfz2011mjom  -1.05800
gfz2011mpme  -0.64550
gfz2011mprq  -0.11880
gfz2011nmnq  -0.16730
gfz2011noud  -1.23130
gfz2011nowp  -0.34220
gfz2011nqpd   1.38030
gfz2011nrwc   1.44430
gfz2011nudm   0.18300
gfz2011ohcy  -1.94730
gfz2011olkk   0.57410
gfz2011orgn  -0.14220
gfz2011ornx   0.42200
gfz2011ozsl  -1.18490
gfz2011phms  -0.19950
gfz2011pntf  -0.11760
gfz2011ptus  -0.68740
gfz2011qigx   6.23700
gfz2011qoif  -0.22450
gfz2011qvae   0.02090
gfz2011qyms  -0.00000
gfz2011rabm  -0.91450
gfz2011rdby  -0.63750
gfz2011rewa  -0.42690
gfz2011rgwp   0.05090
gfz2011rsrh   0.12560
gfz2011runa  -0.57230
gfz2011rznl  -0.46660
gfz2011sagt   0.83360
gfz2011shqm   3.28800
gfz2011taps   0.09560
gfz2011tbas  -0.61650
gfz2011tcij  -0.19250
gfz2011tjrf  -0.35840
gfz2011tjue   1.72370
gfz2011tkfp   1.21910
gfz2011tkog  -0.38340
gfz2011toub  -3.05690
gfz2011tpbl  -0.53610
gfz2011tpfr  -0.46070
gfz2011udsq  -0.42960
gfz2011ueni  -4.64080
gfz2011ugzz  -0.09150
gfz2011ujze  -1.65100
gfz2011ukmp  -2.21740
gfz2011uphh  -1.37760
gfz2011urzu  -0.93590
gfz2011uzqv  -1.81430
gfz2011vhfi  -0.24940
gfz2011vkun  -1.64870
gfz2011vldk  -1.61280
gfz2011vnza  -1.70600
gfz2011vqrj  -0.37160
gfz2011vrhg  -1.17290
gfz2011vxns   0.05080
gfz2011vxod  -0.53790
gfz2011wcic   0.98900
gfz2011wijj   0.05650
gfz2011wjkf   0.40720
gfz2011wjul  -3.26550
gfz2011wwjs  -0.14440
gfz2011wxfs  -0.67350
gfz2011wxtk  -1.63950
gfz2011wype  -3.17050
gfz2011xcpv   0.54500
gfz2011xqru  -0.35600
gfz2011xyxj  -0.18500
gfz2011yfdx  -0.27500
gfz2011yhwz   0.27790
gfz2011zqhh   3.30510
gfz2012aqtq   0.61870
gfz2012bfyn   3.04230
gfz2012bngd   5.16150
gfz2012bpkx   0.21480
gfz2012bpnl   0.26910
gfz2012byad  -0.53410
gfz2012cbed  -0.37520
gfz2012cgvr   0.28020
gfz2012ckxi  -0.46360
gfz2012cmfy   0.40220
gfz2012covm   0.30650
gfz2012cqnl  -0.71100
gfz2012cxdn   0.58120
gfz2012czlw   0.77070
gfz2012dimn  -0.11170
gfz2012dinb   0.91870
gfz2012djwi   0.37120
gfz2012ekzf   3.38830
gfz2012enno  -0.63260
gfz2012fbfo   0.16030
gfz2012fhnh  -0.19570
gfz2012fivh   0.01910
gfz2012foeo  -1.43120
gfz2012fqcg  -5.84220
gfz2012fwfo   0.28430
gfz2012fzfa   0.11880
gfz2012fzsq   0.24620
gfz2012glss   0.08320
gfz2012gocc   0.01290
gfz2012gomm  -0.73380
gfz2012gukw  -1.10910
gfz2012gwqb  -0.67540
gfz2012hdbm   0.46200
gfz2012ihdl  -0.31560
gfz2012ilvn  -0.24720
gfz2012ilxh  -0.82700
gfz2012jjzc  -0.12160
gfz2012jlox  -5.70870
gfz2012jpeh   0.31140
gfz2012jqvn   0.27500
gfz2012jupx  -0.67480
gfz2012jxiy   1.90190
gfz2012kdmb  -0.41240
gfz2012keor   0.52950
gfz2012kkup  -0.76980
gfz2012klhx  -0.39540
gfz2012kuct  -1.34100
gfz2012kudo  -1.67510
gfz2012kvzv  -0.38660
gfz2012lboz  -0.81980
gfz2012lczo   0.35490
gfz2012ldgs  -0.08840
gfz2012ldxg  -1.83820
gfz2012ledy  -0.78980
gfz2012lpvn  -0.25420
gfz2012lrsv  -0.66570
gfz2012lxkv   1.86960
gfz2012lzmr  -1.34440
gfz2012mcze   0.16200
gfz2012mlyf  -0.56550
gfz2012mofm  -0.46880
gfz2012mpvy  -0.03390
gfz2012mpyl  -0.68760
gfz2012mvwr  -1.29640
gfz2012naqz  -0.22030
gfz2012nben  -0.20860
gfz2012nbtn  -1.53390
gfz2012nedn   1.17510
gfz2012ngic  -0.19540
gfz2012njha  -0.08940
gfz2012nsbz   0.30960
gfz2012obnq  -1.90580
gfz2012oedb   0.78560
gfz2012okhx   0.13550
gfz2012ostk  -2.73390
gfz2012pkel  -0.70540
gfz2012priv   0.09960
gfz2012qouy   0.02780
gfz2012qqqp   0.21890
gfz2012qqxg   0.24100
gfz2012qtgs  -0.19500
gfz2012quso  -1.59190
gfz2012qxcy  -0.67670
gfz2012rats  -0.17780
gfz2012rboy   0.05090
gfz2012repv  -0.21310
gfz2012rjsd  -0.05690
gfz2012rknn  -0.35950
gfz2012rqlg   3.99250
gfz2012rubi  -3.23860
gfz2012rwov   0.56810
gfz2012rwql   0.58400
gfz2012rypu  -0.03030
gfz2012sjea   0.04370
gfz2012spbj   0.03720
gfz2012sphd  -0.86190
gfz2012tazz   1.14880
gfz2012tbbp  -0.07110
gfz2012tpzx   0.63240
gfz2012ttoa   0.62920
gfz2012tzcc  -0.21410
gfz2012tzgb  -0.14330
gfz2012uafg  -0.68020
gfz2012uaqj  -1.10500
gfz2012uciv  -3.97280
gfz2012ueqo  -0.13820
gfz2012ufew  -0.41500
gfz2012uhup  -0.67880
gfz2012uqzp  -0.40560
gfz2012usba  -0.36260
gfz2012uvqf  -1.96170
gfz2012uyie  -1.53100
gfz2012uyxb   0.12890
gfz2012uzom  -4.81940
gfz2012uzyj  -0.38990
gfz2012vceo  -2.88880
gfz2012vdbt  -0.11990
gfz2012vmeh  -3.48720
gfz2012vnbk  -0.01410
gfz2012vrua  -0.83780
gfz2012vsev   0.22410
gfz2012wajj   0.16950
gfz2012wecd   0.16740
gfz2012wizz  -1.36680
gfz2012wklq  -1.59740
gfz2012wmkd  -0.07380
gfz2012wmsg  -5.48320
gfz2012wpeq   3.61110
gfz2012wrir   0.10260
gfz2012wtkr   0.02130
gfz2012wvfl  -0.17070
gfz2012wxer   0.01300
gfz2012wxlg   0.36490
gfz2012wxnt   0.08390
gfz2012wxnu   0.06450
gfz2012wypz  -1.51480
gfz2012xdna  -0.00000
gfz2012xeul   3.74380
gfz2012xhci   0.05710
gfz2012xjyv  -3.45500
gfz2012xkkv  -2.33720
gfz2012xwqa  -0.98970
gfz2012xyqp  -3.77940
gfz2012xyua  -3.60110
gfz2012yfrp   0.63880
gfz2012yxxu  -1.13380
gfz2012yzod  -0.83360
gfz2012zemh  -0.03860
gfz2012zfag  -0.52400
gfz2012zitl   0.66060
gfz2012zjpv  -0.59210
gfz2012zklq   0.15110
gfz2012zmbp  -0.33990
gfz2012zmln   2.49380
gfz2012zsqk   1.26490
gfz2013aayj  -1.04460
gfz2013acag  -0.16930
gfz2013adey  -0.59910
gfz2013apmm  -3.11690
gfz2013azzr   0.31660
gfz2013bdpu  -1.50520
gfz2013bobq   0.72020
gfz2013bokp  -0.70750
gfz2013bouj  -1.91770
gfz2013btjm   0.03410
gfz2013bzlb  -0.42200
gfz2013cbsm   0.01780
gfz2013ccnr  -1.03870
gfz2013ccon  -0.66360
gfz2013cdfj  -0.46060
gfz2013comh   0.28010
gfz2013cvad  -0.41080
gfz2013cwpn  -0.06050
gfz2013cwps   0.10100
gfz2013ddbh  -3.42020
gfz2013dfhb  -0.14980
gfz2013dkly   0.06670
gfz2013dkmz   0.12250
gfz2013dofo  -3.15200
gfz2013dojq   0.11740
gfz2013drxz  -0.75550
gfz2013dspt   0.96180
gfz2013dsrk  -2.45460
gfz2013dvye   0.13510
gfz2013dyop  -0.37540
gfz2013egpu  -0.92320
gfz2013enbx  -0.87770
gfz2013eswe  -0.95150
gfz2013eulz  -0.41350
gfz2013feep   0.39950
gfz2013fepm   0.47110
gfz2013figy   0.41180
gfz2013fiud  -2.53850
gfz2013fkii  -0.11310
gfz2013flox  -0.06990
gfz2013fnzr  -3.68660
gfz2013fwxa  -2.60680
gfz2013fygc  -0.87780
gfz2013gcfx   0.42990
gfz2013gdgf  -0.56220
gfz2013gdnq  -0.12730
gfz2013gelv   0.13750
gfz2013glcr  -2.54600
gfz2013gmor  -1.52620
gfz2013goux  -0.11790
gfz2013gvdb  -2.58150
gfz2013gvex  -0.20570
gfz2013gvxh   0.08180
gfz2013gwrd  -0.10610
gfz2013hdnc  -0.10350
gfz2013hfmp   0.84480
gfz2013hisv  -0.95160
gfz2013hkja   0.19060
gfz2013hklr  -3.36670
gfz2013hmbc  -1.38420
gfz2013hsfw   0.29430
gfz2013hzdp  -0.32190
gfz2013iayx  -1.44370
gfz2013ifpq  -1.42300
gfz2013ijsr  -1.30340
gfz2013ikgo   0.70840
gfz2013ilug   0.13660
gfz2013inux  -2.60410
gfz2013ippu  -1.39810
gfz2013iqzq  -3.08290
gfz2013iunn  -1.47990
gfz2013jdrx   0.15640
gfz2013jesk   1.50370
gfz2013jgip  -0.27640
gfz2013jjsi  -3.29300
gfz2013jkut   0.28670
gfz2013jlst   0.91790
