# Nsamples: 35  MAD:  0.417  mean: -0.090  variance:  0.614
gfz2010iull  -0.45350
gfz2010nmpc  -0.35410
gfz2011aatr  -0.13140
gfz2011enva   0.48140
gfz2011gjlx  -0.10740
gfz2011hlqw  -0.50570
gfz2011hlsa  -0.29580
gfz2011hlth   0.67380
gfz2011lcxq  -0.24900
gfz2011lzwj  -0.33890
gfz2011toub  -0.16600
gfz2011wxfs  -0.66960
gfz2012enno  -0.20770
gfz2012jlox  -0.37770
gfz2012kkup  -0.10110
gfz2012klhx   0.12180
gfz2012kudo  -0.46920
gfz2012ldxg  -0.87270
gfz2012wypz  -0.32410
gfz2013drxz   0.09950
gfz2013nwdi  -0.96570
gfz2013svci  -0.43640
gfz2013vjjc   3.33410
gfz2014fgvi  -1.03680
gfz2014fhla   0.64820
gfz2014ftka   0.31120
gfz2014gkgf  -1.57680
gfz2014gmhr   0.62640
gfz2014qqhm   0.49560
gfz2014ssvz  -0.04420
gfz2015chhn   0.14950
gfz2015cyjd   0.89700
gfz2015fsjj  -0.47690
gfz2015lhjy  -0.60110
gfz2015svwm  -0.22410
