# Nsamples: 52  MAD:  0.436  mean: -0.178  variance:  0.307
gfz2010ahqi  -0.05250
gfz2010bxxs  -0.23990
gfz2010cqwl  -0.62280
gfz2010ebhc  -0.45290
gfz2010grjd  -0.56450
gfz2010nmpc  -1.03710
gfz2010nwef  -0.48400
gfz2010usho   0.31540
gfz2011aatr  -0.11410
gfz2011alip   0.74070
gfz2011cfae   0.00000
gfz2011dpqx  -0.28460
gfz2011enva  -0.44610
gfz2011gkzt  -0.10740
gfz2011hlqw  -0.03180
gfz2011hlsa  -0.01650
gfz2011jplh   0.11910
gfz2011lcxq   0.11450
gfz2011lzwj   0.12420
gfz2011mdie   0.25840
gfz2011rewa   0.20310
gfz2011toub   0.20470
gfz2011vhfi   1.77900
gfz2011wxfs  -0.33790
gfz2011xyxj  -0.48220
gfz2012enno   0.62680
gfz2012jlox  -0.14880
gfz2012kkup  -0.27170
gfz2012klhx  -0.04150
gfz2012kuct   0.31240
gfz2012kudo  -0.21640
gfz2012ldxg  -0.79340
gfz2012ldzj   0.06850
gfz2012vrgb   0.33610
gfz2012wypz   0.10940
gfz2013drxz   0.22240
gfz2013jkut  -0.07190
gfz2013ldqb   0.24000
gfz2013nwdi  -0.68730
gfz2013pfbx  -0.36380
gfz2014ande  -0.40430
gfz2014bwue  -0.37040
gfz2014hqxs  -0.30780
gfz2014jjhc  -0.35720
gfz2014jpep  -1.06370
gfz2014lgqn   0.34980
gfz2014lyhk  -1.95220
gfz2014nqfm  -0.36910
gfz2014qlxd  -0.58380
gfz2014qqhm  -0.02970
gfz2014ssvz  -0.65280
gfz2014ubwn  -1.44100
