# Nsamples: 611  MAD:  0.457  mean:  0.061  variance:  0.364
gfz2012yxxu   1.35760
gfz2012yzod  -0.20300
gfz2012zemz  -1.01460
gfz2012zfag  -0.33170
gfz2012zitl   0.83950
gfz2012zjpv   0.05960
gfz2012zmbp   1.10910
gfz2012zmln  -0.07650
gfz2013aayj   0.71990
gfz2013aqaw   0.30780
gfz2013bobq   0.30210
gfz2013bokp   0.31320
gfz2013btjm  -0.07290
gfz2013bzzm   0.39110
gfz2013ccnr   0.55540
gfz2013cdan  -0.44290
gfz2013ciaf   0.19950
gfz2013cvqg   0.37550
gfz2013cwpn   0.07670
gfz2013cwps  -0.52210
gfz2013dddp  -0.23930
gfz2013dkly   0.26630
gfz2013dofo   0.27340
gfz2013dojq  -0.21270
gfz2013drxz   0.56410
gfz2013dsog  -0.45310
gfz2013dspt  -1.18730
gfz2013dsrk  -1.58670
gfz2013dvyh  -0.05100
gfz2013egni   0.08570
gfz2013egpu  -1.06360
gfz2013ekpm   0.11700
gfz2013ewbo  -0.49940
gfz2013fcto  -1.02100
gfz2013fdoo   0.03510
gfz2013feep   0.52150
gfz2013fiud   0.10560
gfz2013fkcl  -0.25240
gfz2013fkii   0.13400
gfz2013flox   0.15000
gfz2013ftso   4.43770
gfz2013fwxa  -0.58940
gfz2013fygc  -0.13860
gfz2013gbst  -0.28400
gfz2013gcfx  -1.15520
gfz2013gdnq  -0.26420
gfz2013gmor  -0.64900
gfz2013gngz   0.03690
gfz2013gnse  -0.57600
gfz2013gock   0.00000
gfz2013goux   0.29540
gfz2013gvdb  -0.32680
gfz2013gvex   0.11210
gfz2013gwrd  -0.02750
gfz2013hdnc   0.60370
gfz2013hfmp  -0.47880
gfz2013hkja  -0.30580
gfz2013huwr  -0.85590
gfz2013iayx  -0.04420
gfz2013idbb   1.88740
gfz2013ifpq  -0.55760
gfz2013igmx   0.32290
gfz2013ijsr   0.20390
gfz2013ikgo   0.02750
gfz2013ilug   0.27870
gfz2013inux  -0.97610
gfz2013iodt   0.36360
gfz2013iopd  -1.94320
gfz2013ippu   0.23760
gfz2013iunn   0.25550
gfz2013jesk  -0.61520
gfz2013jgij  -0.37460
gfz2013jgip   0.05120
gfz2013jkut   0.20350
gfz2013jmcc  -0.46850
gfz2013json   0.40970
gfz2013jwvc  -0.33530
gfz2013kccc  -0.68550
gfz2013kdeo  -0.65200
gfz2013kheb   0.01970
gfz2013khli   0.48500
gfz2013ldpc   0.05840
gfz2013ldqb  -0.18630
gfz2013lgbb  -0.60740
gfz2013lgnl  -0.12820
gfz2013lixa   0.24860
gfz2013lsob   0.19340
gfz2013lyko   0.42180
gfz2013mmlw   0.21430
gfz2013mmwq  -0.49840
gfz2013mqmv  -0.72760
gfz2013mtqd  -0.51800
gfz2013mwbh   0.09750
gfz2013ncjp  -0.36650
gfz2013ndin   0.42770
gfz2013nixj  -0.09820
gfz2013nkgj  -0.00000
gfz2013nmac   0.11790
gfz2013nojf   0.71650
gfz2013nqgw  -0.25670
gfz2013nuvi   0.62280
gfz2013nwdi   0.14990
gfz2013ogde  -0.21300
gfz2013oqsc  -0.57370
gfz2013ozrp  -0.45880
gfz2013pfbx   0.09090
gfz2013pffm  -0.42500
gfz2013pfnf   0.67250
gfz2013puag  -0.51770
gfz2013pupd  -0.18110
gfz2013pxsj   0.02790
gfz2013qali   0.31760
gfz2013qmer  -0.04500
gfz2013qzdq  -0.72630
gfz2013rdoo  -0.44620
gfz2013roki   1.11200
gfz2013sdus  -0.42590
gfz2013sfto   0.80490
gfz2013shzy   0.35100
gfz2013skkm   0.19680
gfz2013snbr  -0.45320
gfz2013snyf   0.03110
gfz2013stht   0.17780
gfz2013suvn   0.99700
gfz2013svci   0.59460
gfz2013tcxc   1.36670
gfz2013tcxq   0.10980
gfz2013toxf  -0.25020
gfz2013tusd  -0.08520
gfz2013tvmw  -0.36020
gfz2013txij  -0.52190
gfz2013ufxk   1.12140
gfz2013ufxm  -0.14240
gfz2013uqsp   1.04710
gfz2013uqvu   1.11650
gfz2013vexx   0.41490
gfz2013vfyw   0.09990
gfz2013vfzp  -0.16380
gfz2013vhzu   0.15350
gfz2013vjjc  -1.13650
gfz2013vrmy  -0.42870
gfz2013wgeu  -3.37870
gfz2013wjmm   0.41730
gfz2013wkyk   0.85640
gfz2013wmfd   0.57060
gfz2013wnpr   0.93230
gfz2013wuon  -0.03750
gfz2013xgmp  -0.12060
gfz2013xpfa   0.16310
gfz2013xqnn  -0.11720
gfz2013xsdt   0.53520
gfz2013xxcc  -0.17250
gfz2013xxxq  -0.21340
gfz2013xyzb   0.15480
gfz2013yctg  -0.07920
gfz2013yixl   0.44970
gfz2013ylbx   0.54440
gfz2013ypdc  -0.14360
gfz2013yqkv   0.64410
gfz2013yyhc   0.44470
gfz2013ziyr   1.11390
gfz2014abgd   0.44330
gfz2014adoj   0.36270
gfz2014afmx   0.29270
gfz2014ajlk  -2.01760
gfz2014algk  -0.17740
gfz2014amsb  -0.14330
gfz2014ande   0.21500
gfz2014arpf   0.58990
gfz2014atbl   0.03800
gfz2014atgw   0.53620
gfz2014bagd  -0.23830
gfz2014bdfd   0.03630
gfz2014bfng  -0.08500
gfz2014bfqo   0.58030
gfz2014bhvd   0.45120
gfz2014bldx  -0.39720
gfz2014bmta  -0.49540
gfz2014bwue   0.85920
gfz2014bzxy  -0.23800
gfz2014caop   0.10790
gfz2014capn   0.16920
gfz2014chdv  -0.10230
gfz2014claq  -0.49750
gfz2014cmwb  -0.29880
gfz2014crpy   0.15490
gfz2014cueu   0.39600
gfz2014cvkm  -0.20700
gfz2014cvxx   0.09820
gfz2014czno   0.46350
gfz2014czol   0.15940
gfz2014czqi  -0.07170
gfz2014czua   0.14860
gfz2014dbyx   0.36580
gfz2014dddc   0.40360
gfz2014dffd  -0.04320
gfz2014dhxt   0.15980
gfz2014disp  -0.86780
gfz2014dlri   0.23400
gfz2014dofa   0.01650
gfz2014duqn   0.33050
gfz2014egwu   0.49800
gfz2014ehsf  -0.45370
gfz2014ejmt   0.37600
gfz2014ekcr   0.19600
gfz2014ekdn   0.01960
gfz2014ekdt   0.14690
gfz2014emrg   0.16830
gfz2014enhi   0.21310
gfz2014etqa   0.24550
gfz2014ettc   0.81900
gfz2014exxa   0.01790
gfz2014fedd   0.05940
gfz2014femz  -0.15150
gfz2014fgvi   0.02250
gfz2014fgxt   0.14920
gfz2014fgyo  -1.90760
gfz2014fgza  -0.13730
gfz2014fhbd  -0.46340
gfz2014fhdw   0.23050
gfz2014fhjd  -0.68320
gfz2014fhla  -0.72270
gfz2014fhrq  -0.22840
gfz2014fhsg  -0.31070
gfz2014fhwx   0.39000
gfz2014fimn   0.29630
gfz2014fiuj   0.57590
gfz2014fjzd   0.67050
gfz2014fkmr   1.27440
gfz2014fkmx   0.27090
gfz2014fknp  -0.24270
gfz2014fnbh   0.47920
gfz2014fnyg  -0.01750
gfz2014fqpz  -0.24530
gfz2014frdz  -0.46060
gfz2014frez  -0.08400
gfz2014frfl   0.24430
gfz2014frwh   0.20350
gfz2014fsuh   0.19690
gfz2014ftka  -0.67950
gfz2014ftoc   0.33340
gfz2014ftpw   0.04180
gfz2014ftrk  -0.35900
gfz2014furx  -0.08950
gfz2014fusc  -0.12720
gfz2014fusj   0.09470
gfz2014fuub  -0.43030
gfz2014fvaa   0.00000
gfz2014fval  -0.51550
gfz2014fvgh  -0.28320
gfz2014fvjl   0.25060
gfz2014fvrg  -0.07180
gfz2014fwtt   0.26290
gfz2014gbcz  -0.35340
gfz2014gbdq   0.86030
gfz2014geuy   0.05680
gfz2014gezs  -0.41490
gfz2014ghpe  -0.07500
gfz2014gkgf  -0.74720
gfz2014gkhp  -0.32560
gfz2014gkhy   0.12750
gfz2014gkjl   0.55140
gfz2014gkjt  -0.47150
gfz2014gkmm  -0.27510
gfz2014gkob  -0.42940
gfz2014gkok  -0.51420
gfz2014gkpd   0.26610
gfz2014gkpj   1.33110
gfz2014gkqf  -0.46030
gfz2014gkqu   0.18970
gfz2014gksj   0.66740
gfz2014gksu   0.03300
gfz2014gktq   0.42750
gfz2014gkxm  -0.41140
gfz2014glcu   0.04830
gfz2014glcy  -0.08260
gfz2014glgo   1.54320
gfz2014gltx   0.00000
gfz2014glvu   0.21820
gfz2014gmci  -0.27420
gfz2014gmge  -0.50200
gfz2014gmhp   0.36270
gfz2014gmhr  -0.51300
gfz2014gmip   0.09910
gfz2014gmjo   0.12700
gfz2014gmku  -0.90890
gfz2014gmlz   0.32520
gfz2014gmmk   0.05030
gfz2014gmmt   0.90810
gfz2014gmnb   0.03880
gfz2014gmnw   0.08550
gfz2014gmor  -0.02160
gfz2014gmpy   0.11930
gfz2014gmrj  -0.21760
gfz2014gmtb  -0.27010
gfz2014gmuk   0.14170
gfz2014gmzl  -0.30780
gfz2014gndq   0.64550
gfz2014gngg  -0.30180
gfz2014gnnt  -0.06400
gfz2014gnre   0.44150
gfz2014gnxb   0.03710
gfz2014goba  -0.18360
gfz2014goqw   0.15940
gfz2014gori  -0.32370
gfz2014goyx   1.20290
gfz2014gpce   0.26380
gfz2014gphr  -0.22060
gfz2014gpuk  -0.37780
gfz2014gpya  -0.75660
gfz2014gqed   1.55110
gfz2014gqer   1.33910
gfz2014gqiy  -0.51430
gfz2014gqve  -0.15900
gfz2014grcv   0.09860
gfz2014grho   0.34540
gfz2014gsqs  -0.46910
gfz2014gtlu  -0.01740
gfz2014gtwz  -0.07170
gfz2014gull   0.64680
gfz2014gumd  -0.21940
gfz2014gvhw   1.23510
gfz2014gvqj  -0.35740
gfz2014gvra   0.59340
gfz2014gvrd   0.54660
gfz2014gwab   0.30190
gfz2014gxag  -0.17650
gfz2014gxkh  -0.84120
gfz2014gxxo  -0.60680
gfz2014gzue   2.12240
gfz2014hagb  -0.20020
gfz2014hasj   0.04120
gfz2014hauo   1.08410
gfz2014hbjm  -0.65750
gfz2014hbjz  -0.34850
gfz2014hbqb  -1.34980
gfz2014hetr   0.25350
gfz2014heum   0.24950
gfz2014heyq   0.50370
gfz2014hfad  -0.43340
gfz2014hfhl  -0.34040
gfz2014hfzf  -0.25390
gfz2014hgqo   0.17080
gfz2014hjgh   0.35160
gfz2014hjgr  -0.05840
gfz2014hjij  -0.04490
gfz2014hjlx   0.45220
gfz2014hkcf   0.54310
gfz2014hmvx  -0.37410
gfz2014hocg   1.20320
gfz2014hphw   0.00000
gfz2014hpqz   0.84890
gfz2014hqxs  -0.30650
gfz2014hrft  -0.48690
gfz2014hscz  -0.24340
gfz2014huaj   0.71220
gfz2014hyal   0.39040
gfz2014hymr  -0.09560
gfz2014hyvq   0.38800
gfz2014hzdy  -0.34370
gfz2014hzfw   0.16870
gfz2014hzgn  -0.43810
gfz2014hzig   1.02610
gfz2014icqt   0.45000
gfz2014ieam  -0.89100
gfz2014ifue   0.11560
gfz2014igur   1.81180
gfz2014ilwu   0.22100
gfz2014imnn   0.17090
gfz2014inbj   1.08640
gfz2014iobd  -0.42510
gfz2014irci   0.16170
gfz2014itab  -0.21720
gfz2014itgh  -0.07450
gfz2014itkw  -0.45540
gfz2014itpj  -0.39470
gfz2014iuhq   0.38660
gfz2014iwnf  -0.42430
gfz2014iywt  -0.31020
gfz2014jfis  -0.20600
gfz2014jjhc   0.72210
gfz2014jjln   0.00000
gfz2014jnyv   0.14280
gfz2014jomw   0.11110
gfz2014jpep  -0.27100
gfz2014jvow   0.05660
gfz2014jwmh   0.35650
gfz2014kara  -0.18720
gfz2014kbuk  -0.07100
gfz2014kitm   0.28020
gfz2014kkhh   1.02040
gfz2014kndc  -0.01280
gfz2014knks  -0.07360
gfz2014knxs  -0.02160
gfz2014kwrg   0.16940
gfz2014kyan   0.45030
gfz2014lddn  -0.28120
gfz2014lefs  -0.17300
gfz2014lgqn   0.00000
gfz2014ljbr  -0.18670
gfz2014lkyf  -0.41340
gfz2014lnqy  -0.17220
gfz2014lxnc  -0.52620
gfz2014lyhk  -0.13430
gfz2014macx   0.01640
gfz2014madw  -0.06070
gfz2014ngvt   1.53010
gfz2014nhyb   1.47440
gfz2014niqj   0.60700
gfz2014nnxd  -0.44570
gfz2014nowp  -0.29300
gfz2014npeo   0.38070
gfz2014nphm   0.46580
gfz2014nqfm   0.17150
gfz2014nrie  -0.13700
gfz2014oinz  -0.32580
gfz2014owxc   0.02280
gfz2014oxcc  -0.21710
gfz2014oyly  -0.26820
gfz2014pjum   0.00000
gfz2014ppzf   0.34950
gfz2014pvch   0.20290
gfz2014qlxd  -0.08570
gfz2014qngj  -1.51550
gfz2014qqhm   0.04490
gfz2014rdsn   0.06610
gfz2014riel   0.64150
gfz2014rkwl   0.27850
gfz2014sjqw   0.42230
gfz2014ssvz  -0.06980
gfz2014szzf  -0.11080
gfz2014tovs  -0.28500
gfz2014tqdo  -0.11080
gfz2014tqsf   0.28890
gfz2014tzsd   0.35020
gfz2014ubwn   0.31270
gfz2014udgg   0.40080
gfz2014uohh   0.12420
gfz2014vhld   0.95300
gfz2014vhms  -0.20570
gfz2014watn   0.10910
gfz2014wjko  -0.16220
gfz2014xbyr  -0.04380
gfz2014xjri  -0.41460
gfz2014xqqd   0.15570
gfz2014yhhm  -0.21460
gfz2014yula   0.57200
gfz2014zkys   1.13460
gfz2014zlgp  -0.36930
gfz2014zplq   0.29810
gfz2015abpw   0.21220
gfz2015apnk   0.00000
gfz2015aruz  -0.17200
gfz2015atxv  -0.47980
gfz2015berb   1.16490
gfz2015bfjm  -0.02760
gfz2015bkbj   0.02170
gfz2015bphe   0.25830
gfz2015bpxl  -0.37700
gfz2015bucr  -0.48290
gfz2015byfn   1.23810
gfz2015chhn   1.09060
gfz2015chqn  -0.12660
gfz2015cxhx  -0.26340
gfz2015cxxk   0.56530
gfz2015cyjd   0.80460
gfz2015czfv   0.21430
gfz2015dskr   0.34600
gfz2015dvbn  -0.14780
gfz2015ecgq   0.05000
gfz2015ednc   0.15870
gfz2015eeyq  -0.16100
gfz2015eezy   1.00990
gfz2015egxq   0.10920
gfz2015ehou  -0.38320
gfz2015eiky   0.09710
gfz2015elgy  -0.29210
gfz2015emtg  -0.11570
gfz2015etai   0.15020
gfz2015evpl   0.25880
gfz2015fbbk  -0.73090
gfz2015fcua   0.24080
gfz2015fjhk   0.24330
gfz2015fkbc  -0.03960
gfz2015fkgt   0.38670
gfz2015fkic  -0.03550
gfz2015fkkd   0.34730
gfz2015flis   0.68660
gfz2015fsjj   0.36270
gfz2015fvoi   0.22600
gfz2015fxbv   0.32510
gfz2015fxdi  -0.34770
gfz2015fyvk   0.84140
gfz2015gckd   0.01540
gfz2015ggjw   0.34660
gfz2015gjbr  -0.18070
gfz2015gkwa   0.03800
gfz2015gnmy  -0.52770
gfz2015gwao  -0.61130
gfz2015gzja   0.74240
gfz2015hdcp   0.66190
gfz2015hgbk  -0.12610
gfz2015hlqo   0.44250
gfz2015hpmk   0.19840
gfz2015iele  -1.01350
gfz2015igsy   0.74800
gfz2015imty  -0.32210
gfz2015isim   0.51550
gfz2015iwqk   0.08470
gfz2015jkdw   0.25780
gfz2015jmlf  -0.94620
gfz2015jmlu   0.32510
gfz2015jpap   3.64940
gfz2015jwgl  -0.12390
gfz2015jxbx  -0.37680
gfz2015jzcv   0.18660
gfz2015kakw   0.06150
gfz2015kalm  -0.97590
gfz2015kcaa  -0.36290
gfz2015kkqb  -2.98830
gfz2015kkth   0.23680
gfz2015kphk   0.30250
gfz2015kquq   0.09880
gfz2015ksni   0.10950
gfz2015kvwz   0.53770
gfz2015kxxs   0.60600
gfz2015lcuo   0.83630
gfz2015lfud  -1.01170
gfz2015lhjq   0.22500
gfz2015lhjy   0.49750
gfz2015ltii   0.10180
gfz2015lytv  -0.57030
gfz2015lzad  -0.50020
gfz2015mbgr  -0.08230
gfz2015mfpy  -0.34810
gfz2015mpte  -0.04270
gfz2015nqgf  -0.03590
gfz2015ntpk  -0.03060
gfz2015nuxz  -0.12940
gfz2015nwug  -0.21570
gfz2015ocdz  -0.42270
gfz2015okmq  -0.26740
gfz2015oyfl   0.04350
gfz2015pdri   0.20250
gfz2015prlr  -0.17570
gfz2015qnho  -0.15520
gfz2015qpvd   1.36940
gfz2015quzo  -0.41710
gfz2015qvxu   0.50500
gfz2015rddx  -0.55640
gfz2015rgrg  -0.15690
gfz2015rkrg   0.88150
gfz2015rkzg   1.08910
gfz2015sfdd   0.28730
gfz2015sfdl   0.24850
gfz2015sfdy  -0.39750
gfz2015sfeo   0.60550
gfz2015sffn  -0.03420
gfz2015sfga   0.52040
gfz2015sfiq  -0.63290
gfz2015sfkh  -0.93500
gfz2015sfkz  -0.33500
gfz2015sflf  -0.07990
gfz2015sfmd   1.49000
gfz2015sfnb   0.00000
gfz2015sfno  -0.57490
gfz2015sfnv  -0.30440
gfz2015sfoc   0.03170
gfz2015sfqo  -0.26750
gfz2015sfqr  -0.55730
gfz2015sfsi   0.99520
gfz2015sfwf   0.63000
gfz2015sfzm   0.37370
gfz2015sgad   0.13360
gfz2015sgdn  -0.16600
gfz2015sghq   0.42950
gfz2015sglg  -0.38040
gfz2015sgmr  -0.19410
gfz2015sgpu  -0.46050
gfz2015sguf   0.55340
gfz2015sgyd   0.37680
gfz2015shhg   0.35540
gfz2015shhu   0.13760
gfz2015shjn   0.05510
gfz2015shsz   1.94200
gfz2015sitn   0.06290
gfz2015sjbx  -0.05900
gfz2015sjgk   0.14640
gfz2015sjne   0.24100
gfz2015sjoj   0.19970
gfz2015sjvu   0.35390
gfz2015sjwi   0.55940
gfz2015sklu  -0.04000
gfz2015skpv  -0.00000
gfz2015skxu  -0.09670
gfz2015sldx   0.05020
gfz2015slun  -0.25620
gfz2015smym  -0.57860
gfz2015snmr   0.39520
gfz2015snsf  -0.26810
gfz2015snwh  -0.64910
gfz2015snyd   0.15010
gfz2015soat  -0.04990
gfz2015soxc  -0.02770
gfz2015srat  -0.04880
gfz2015stfy   0.37830
gfz2015svwm   0.39680
gfz2015sxmh   0.39220
gfz2015szcb  -0.53300
gfz2015taml   0.38110
gfz2015tdcu   0.54670
