# Nsamples: 234  MAD:  0.694  mean: -0.240  variance:  1.198
gfz2010eaoy   0.37560
gfz2010eapk  -0.98200
gfz2010eapn  -0.11380
gfz2010eaqe   0.21390
gfz2010eaqx  -0.33990
gfz2010eaqy   0.14140
gfz2010earq  -0.66260
gfz2010earu   0.42870
gfz2010easf   1.14250
gfz2010eask  -0.63320
gfz2010easo  -0.14820
gfz2010easu  -0.40600
gfz2010eati   0.50360
gfz2010eato  -0.00000
gfz2010eaul  -0.38420
gfz2010eavs   0.34220
gfz2010eawu  -1.11110
gfz2010eaxa  -1.12570
gfz2010eaxn   1.16260
gfz2010eayd  -1.91890
gfz2010eaze   1.13190
gfz2010eazu   0.61930
gfz2010ebdl   0.11440
gfz2010ebfa   0.31880
gfz2010ebhc  -1.90790
gfz2010ebih   0.36090
gfz2010ebin  -1.53440
gfz2010ebiv   0.17550
gfz2010ebjy   0.35950
gfz2010ebkj  -1.04330
gfz2010ebla  -0.16300
gfz2010ebll  -0.28980
gfz2010ebmb  -0.14310
gfz2010ebmi  -0.38060
gfz2010ebnn   0.33590
gfz2010ebvm  -3.09520
gfz2010ebvv  -1.88530
gfz2010ebwp   0.20900
gfz2010ebzk  -1.64880
gfz2010ebzr   0.32180
gfz2010ecay   0.04470
gfz2010echy  -0.09350
gfz2010ecps   0.76080
gfz2010ecsp   1.40560
gfz2010ecua   0.30260
gfz2010ecvt  -0.49210
gfz2010edbz  -1.02610
gfz2010edcp   4.68940
gfz2010edkp   0.13860
gfz2010edvf  -0.32090
gfz2010edyi   5.36900
gfz2010eeij  -2.02960
gfz2010eevu  -0.12730
gfz2010egld  -0.77840
gfz2010egqh   0.64030
gfz2010eisx   0.05310
gfz2010elhv   0.06060
gfz2010eltf   0.28270
gfz2010elyc   0.14590
gfz2010epxj   1.25410
gfz2010erom   0.23950
gfz2010evco   0.07540
gfz2010excp  -0.00000
gfz2010exdd  -0.20770
gfz2010exdl   0.04020
gfz2010exgb  -0.12910
gfz2010exjw   0.36500
gfz2010exmc  -0.16550
gfz2010exno   0.39080
gfz2010exsg   1.65860
gfz2010ezck   0.61110
gfz2010fedq   0.14720
gfz2010ffhq   0.12680
gfz2010ffjb   0.75650
gfz2010fjmu  -4.86230
gfz2010fpqy  -0.14260
gfz2010fync   0.40550
gfz2010gcrl   0.07820
gfz2010grjd  -1.31130
gfz2010hrpr  -0.10400
gfz2010hxgv   0.85990
gfz2010icqq   0.14820
gfz2010iibf   0.67920
gfz2010iobp  -0.00520
gfz2010iqnm  -0.74070
gfz2010iull  -0.88660
gfz2010jxbm   0.25010
gfz2010lepw  -1.15040
gfz2010lrlk  -0.44530
gfz2010mncc   0.02360
gfz2010ncrl   0.02800
gfz2010nmpc  -1.10600
gfz2010nqwf   0.30530
gfz2010nqwo  -0.35470
gfz2010nxum  -0.42110
gfz2010pmqd   0.45390
gfz2010pxgh  -1.21610
gfz2010rqwj  -0.57770
gfz2010upfb   0.19440
gfz2010utcg   0.33270
gfz2010xgzw   0.34310
gfz2011aatr  -0.51860
gfz2011adjs   0.82080
gfz2011alip  -2.10080
gfz2011csju   1.81510
gfz2011cykd   0.11590
gfz2011cyuk   2.72000
gfz2011dcqb   0.51360
gfz2011enva  -0.03220
gfz2011gbmx  -0.22870
gfz2011gkzt  -1.95510
gfz2011hlqw  -0.40720
gfz2011hlsa  -0.67760
gfz2011jplh  -1.17580
gfz2011kqwo  -0.11020
gfz2011kxzp  -0.05530
gfz2011lzwj  -1.05880
gfz2011mdie  -0.74960
gfz2011mpme   0.38350
gfz2011nudm   0.05520
gfz2011ohcy   0.13300
gfz2011olkk   0.20070
gfz2011owvz  -0.28910
gfz2011rewa  -0.54990
gfz2011rgwp   0.28900
gfz2011sagt   0.54440
gfz2011tbas  -0.35930
gfz2011tkfp   0.22790
gfz2011toub  -1.78650
gfz2011ujze  -2.22740
gfz2011uphh  -2.13060
gfz2011vhfi  -0.40800
gfz2011vrhg  -1.27460
gfz2011vxns  -0.12830
gfz2011wxfs  -0.55900
gfz2011xyxj  -0.17580
gfz2012aqgp  -0.04980
gfz2012bpkx  -0.11020
gfz2012bpwl  -1.01660
gfz2012cxdn   0.05850
gfz2012ekda  -0.35510
gfz2012enno  -0.54380
gfz2012fzfa  -0.81530
gfz2012hnul   0.16230
gfz2012rwko  -0.60740
gfz2012rwov  -1.55040
gfz2012wklq  -0.22750
gfz2012wtkr  -0.86140
gfz2012wxlg  -0.39900
gfz2012wypz  -1.22870
gfz2012zitl  -0.18170
gfz2013ccnr  -0.30820
gfz2013cvqg  -0.25420
gfz2013enbx  -1.33280
gfz2013ikgo  -0.59050
gfz2013ilug  -0.45970
gfz2013jgip  -0.50540
gfz2013jusj  -0.48410
gfz2013lyko   0.80860
gfz2013nwdi   0.12520
gfz2013pfbx  -0.73210
gfz2013vfyw  -0.62100
gfz2013vfzp   3.02380
gfz2013vjjc  -0.18070
gfz2013wjmm  -0.41850
gfz2013xsdt  -1.83340
gfz2013yqkv  -0.54590
gfz2014afmx  -1.16180
gfz2014ande  -0.17560
gfz2014arnc   0.28650
gfz2014bekc  -1.64580
gfz2014bwue  -0.87370
gfz2014fgvi  -0.70640
gfz2014fhla   4.02000
gfz2014frdz  -1.81800
gfz2014ftka  -0.93890
gfz2014furx   0.89290
gfz2014fusj  -1.03890
gfz2014fval  -0.51760
gfz2014fvrg  -1.00780
gfz2014gbcz   3.06830
gfz2014gkgf  -1.25080
gfz2014gmge   1.09620
gfz2014gmhr  -2.67470
gfz2014gmnb   0.13790
gfz2014goba  -0.02520
gfz2014grcv  -1.66240
gfz2014gull  -0.31170
gfz2014gxvf  -0.78650
gfz2014hasj  -0.85330
gfz2014hocg  -0.16520
gfz2014hscz  -1.64770
gfz2014hzfw  -0.42710
gfz2014inbj  -1.06690
gfz2014lxnc  -0.91580
gfz2014pvch   0.30590
gfz2014qngj  -0.53780
gfz2014ssvz  -2.08300
gfz2014szzf  -1.68100
gfz2014tqdo  -2.49590
gfz2015chhn  -0.86950
gfz2015cyjd  -1.52580
gfz2015fkgt  -0.45940
gfz2015fsjj  -1.71630
gfz2015gckd  -1.65190
gfz2015kkth  -0.23110
gfz2015lhjy   0.58110
gfz2015lytv   0.05290
gfz2015ntpk  -0.51950
gfz2015poni  -0.46290
gfz2015qnho  -0.60280
gfz2015sfdd   0.05610
gfz2015sfdy   0.13090
gfz2015sfnb   1.99450
gfz2015sfno  -0.38890
gfz2015sfnv  -0.07750
gfz2015sfoc  -0.84200
gfz2015sfoh   0.34490
gfz2015sjgk  -0.03890
gfz2015sjoj   0.30950
gfz2015sjvu  -0.03500
gfz2015sjwi  -0.22780
gfz2015skxu  -0.07390
gfz2015slun   0.35660
gfz2015smym  -0.34890
gfz2015snwh  -0.40040
gfz2015snyd   0.20530
gfz2015soat   0.39110
gfz2015soxc  -0.07130
gfz2015ssoe   0.12000
gfz2015stso   0.45810
gfz2015svwm   0.38050
gfz2015szcb  -0.49150
gfz2015taml  -2.03830
