# Nsamples: 15  MAD:  0.440  mean:  1.110  variance:  0.919
gfz2010iull   0.62910
gfz2011aatr   0.65840
gfz2011enva   0.75380
gfz2012ttoa   2.00080
gfz2012vrgb   1.15510
gfz2012wypz   0.69910
gfz2013jkut   1.46700
gfz2013nwdi   4.16090
gfz2013svci   1.20720
gfz2014bwue  -0.22220
gfz2014fgvi   0.34540
gfz2014gkgf   0.46360
gfz2014qqhm   1.19760
gfz2015cyjd   0.95550
gfz2015taml   1.18150
