# Nsamples: 39  MAD:  0.606  mean: -0.292  variance:  0.468
gfz2011aatr  -0.93280
gfz2011enva   0.61580
gfz2011lcxq  -0.57250
gfz2011lzwj  -0.17070
gfz2011wxfs  -0.28540
gfz2012dyyh  -0.49530
gfz2012jlox  -0.29000
gfz2012kudo  -0.16760
gfz2013nwdi  -0.66740
gfz2013svci  -0.73060
gfz2013vjjc   1.64320
gfz2014bwue  -0.92430
gfz2014fgvi  -0.73260
gfz2014fhla  -0.37980
gfz2014frdz  -0.33750
gfz2014frez   0.37510
gfz2014ftka  -0.61440
gfz2014fval  -1.46970
gfz2014ghpe  -0.71750
gfz2014gkgf  -0.81570
gfz2014gkqf   0.11890
gfz2014gltx   0.39900
gfz2014gmge   0.54300
gfz2014gmhr  -2.27870
gfz2014gmnb  -1.00400
gfz2014gmnw  -0.64810
gfz2014goba  -0.20040
gfz2014gsqs   0.68320
gfz2014gull   0.32860
gfz2014gxxo   0.61300
gfz2014hasj   0.43230
gfz2014hjgr  -0.01230
gfz2014itkw  -0.24810
gfz2015cyjd  -0.30740
gfz2015fsjj  -0.22990
gfz2015gckd  -0.33770
gfz2015lhjy  -0.26680
gfz2015sfdd   0.00000
gfz2015snwh  -1.29780
