# Nsamples: 22  MAD:  0.924  mean: -0.155  variance:  1.551
gfz2011enva   4.35150
gfz2011lcxq   0.95050
gfz2011lzwj   1.50590
gfz2011rewa  -1.05750
gfz2011wxfs  -0.50450
gfz2012jlox  -0.66290
gfz2012kkup   0.58980
gfz2012kudo   0.29450
gfz2013dnnx   0.21190
gfz2013jkut  -0.02380
gfz2013nkgj  -0.78500
gfz2013nwdi  -1.40470
gfz2013svci  -0.15670
gfz2014ftka  -0.32120
gfz2014gkgf  -1.16190
gfz2014gmhr  -0.95520
gfz2015cyjd   0.50290
gfz2015lhjy  -0.44680
gfz2015sfdd  -1.14050
gfz2015snwh  -1.35220
gfz2015svwm  -0.87530
gfz2015taml  -0.96420
