# Nsamples: 67  MAD:  0.423  mean: -0.178  variance:  0.564
gfz2010ebhc  -0.36680
gfz2010fync   1.80190
gfz2010iull  -0.36700
gfz2010mkuu  -1.69470
gfz2010nmpc  -1.08430
gfz2010nwef   0.13360
gfz2010usho  -0.41210
gfz2011aatr  -0.15830
gfz2011dpqx  -1.52430
gfz2011enva  -0.64060
gfz2011gkzt  -1.82860
gfz2011hlqw  -0.27020
gfz2011hlsa  -0.44870
gfz2011jplh  -0.24090
gfz2011lcxq  -0.13140
gfz2011lzwj   0.05580
gfz2011mdie   0.04840
gfz2011owvz   1.71190
gfz2011rewa   0.08550
gfz2011toub   0.34150
gfz2011vhfi   0.90150
gfz2011wxfs  -0.42900
gfz2011xyxj   0.05430
gfz2012enno  -0.00000
gfz2012jlox  -0.07570
gfz2012kkup  -0.39870
gfz2012klhx  -0.46300
gfz2012kuct  -0.62820
gfz2012kudo  -0.26470
gfz2012ldxg   0.03790
gfz2012ldzj  -0.15180
gfz2012vrgb  -0.26390
gfz2012wypz   0.04440
gfz2013drxz  -0.10000
gfz2013jkut  -0.13360
gfz2013mwbh   0.16590
gfz2013nkgj   0.62780
gfz2013nwdi  -0.94160
gfz2013pfbx  -0.92690
gfz2013svci  -0.19310
gfz2013xsdt  -0.08020
gfz2014ande  -0.55010
gfz2014bwue  -0.30860
gfz2014fgvi  -0.59200
gfz2014fhla   1.37050
gfz2014gkgf  -1.79730
gfz2014gkqf  -1.15620
gfz2014gmhr   2.17830
gfz2014gull   1.43650
gfz2014hasj  -0.13420
gfz2014lgqn  -0.43640
gfz2014lyhk  -0.72810
gfz2014nqfm  -0.27920
gfz2014oinz  -1.13860
gfz2014qqhm   0.13440
gfz2014ssvz  -0.03030
gfz2014vjoz  -0.58710
gfz2015cyjd   0.22390
gfz2015fsjj  -0.40110
gfz2015kxxs   0.57490
gfz2015lhjy   0.15790
gfz2015mpte  -0.16340
gfz2015sfdd   0.17760
gfz2015smym  -0.53950
gfz2015snwh  -1.03870
gfz2015svwm  -0.13850
gfz2015taml   0.04000
