# Nsamples: 37  MAD:  0.524  mean: -0.322  variance:  1.026
gfz2010bxxs  -0.66380
gfz2010grjd  -3.02130
gfz2010iull  -0.19940
gfz2012jlox  -0.01150
gfz2012kkup  -0.28530
gfz2012klhx  -0.45080
gfz2012kuct  -0.27310
gfz2012kudo  -0.00910
gfz2012ldxg  -0.86400
gfz2012vrgb  -0.66950
gfz2012wypz  -0.01590
gfz2013jkut  -0.03010
gfz2013nwdi  -0.53450
gfz2013svci  -0.09960
gfz2013vjjc   3.28590
gfz2013xsdt  -0.55130
gfz2014bwue  -0.10350
gfz2014fgvi  -0.66040
gfz2014fhla  -0.39740
gfz2014gkgf  -1.35530
gfz2014gkqf  -0.62630
gfz2014gmhr  -3.39710
gfz2014gull  -1.23250
gfz2014lgqn   0.35890
gfz2014qqhm   0.23450
gfz2014ssvz   0.92060
gfz2015cyjd  -0.81590
gfz2015fsjj  -0.64760
gfz2015kxxs   0.84920
gfz2015lhjy   0.14330
gfz2015mpte   0.03390
gfz2015sfdd  -0.27780
gfz2015sfdy   0.05950
gfz2015smym  -0.19540
gfz2015snwh  -0.59810
gfz2015svwm   0.11300
gfz2015taml   0.08350
