# Nsamples: 82  MAD:  1.177  mean: -0.420  variance:  3.384
gfz2010lepw   3.27480
gfz2010lluj   1.25190
gfz2010mncc   0.25750
gfz2010moyw  -1.08470
gfz2010nmpc  -0.88460
gfz2010nqwf  -0.90030
gfz2010nqwo  -1.14220
gfz2010nwef  -1.03420
gfz2010onma  -0.93700
gfz2010pqck  -2.14980
gfz2010pxgh  -1.78730
gfz2010rkfp   2.82280
gfz2010rqwj  -1.34310
gfz2010sfee   0.47910
gfz2010srdb   3.06940
gfz2010tcrl   2.01590
gfz2010upfb  -1.33470
gfz2010utcg  -1.06690
gfz2010xxzn  -4.42350
gfz2010yjev   1.21030
gfz2011adjs  -1.68600
gfz2011alip   0.60220
gfz2011aqxf   0.25210
gfz2011ctbn   6.34650
gfz2011cykd  -1.94370
gfz2011cyre  -0.03460
gfz2011cyuk   1.81620
gfz2011dbwt  -1.47540
gfz2011dcqb  -0.88040
gfz2011dpqx  -1.08330
gfz2011ecaj  -1.05570
gfz2011enva   0.53280
gfz2011gbmx  -1.34990
gfz2011gkzt  -0.72510
gfz2011hfkj   0.12330
gfz2011hlqw  -1.04490
gfz2011hlsa  -1.01670
gfz2011hpgx  -2.05270
gfz2011hvbu   3.02030
gfz2011jplh  -0.50350
gfz2011jtlg   3.99210
gfz2011kxzp  -1.09350
gfz2011lzwj  -0.39420
gfz2011mdie  -1.85410
gfz2011ozsl  -0.44630
gfz2011rdby  -4.27940
gfz2011rewa  -1.37050
gfz2011rgwp  -0.65160
gfz2011taps   1.30400
gfz2011tbas  -0.26030
gfz2011tkfp  -1.53060
gfz2011udsq   2.39910
gfz2011uphh  -0.48630
gfz2011uzqv  -1.82480
gfz2012jlox  -0.40530
gfz2012lczo  -0.43680
gfz2012ldxg   0.25080
gfz2012minr   3.81260
gfz2012oedb  -2.42840
gfz2012okhx  -0.13680
gfz2012peex  -2.35750
gfz2012ttoa   0.31420
gfz2012uafg  -2.04750
gfz2012wklq  -0.44140
gfz2012wvfl  -3.18430
gfz2012wypz  -0.35800
gfz2014lyhk   2.39030
gfz2014nnih  -2.86400
gfz2014nqfm  -0.18770
gfz2014nyko  -0.11310
gfz2014qlxd  -0.02090
gfz2014qngj  -1.83140
gfz2014qqhm  -0.98860
gfz2014raau  -3.40970
gfz2014sptq  -0.35730
gfz2014ssvz  -0.86140
gfz2015fkgt  -1.38250
gfz2015fsjj  -0.07830
gfz2015gckd  -0.51230
gfz2015gzja  -3.83260
gfz2015lhjy  -0.06290
gfz2015lytv  -0.51420
