# Nsamples: 31  MAD:  0.472  mean: -0.335  variance:  0.932
gfz2010gtzt   1.82530
gfz2010iull  -0.46340
gfz2010nmpc  -0.55070
gfz2011bnzn   0.09900
gfz2011enva  -0.67130
gfz2011lcxq  -0.40070
gfz2011lzwj  -0.83760
gfz2011toub  -0.41490
gfz2011wxfs  -0.64920
gfz2012jlox  -0.53050
gfz2012kudo  -0.83620
gfz2012ldxg   1.09780
gfz2012wypz  -0.20150
gfz2013dspt   0.89690
gfz2013kdeo   0.13280
gfz2013nknw   2.57780
gfz2013nwdi  -0.84400
gfz2013svci  -1.11220
gfz2014bwue  -0.93260
gfz2014fgvi  -0.90940
gfz2014ftka  -0.30200
gfz2014fval   1.25160
gfz2014ghpe  -1.49760
gfz2014gkgf  -0.71410
gfz2014gmnb  -0.95230
gfz2014gmnw  -2.42730
gfz2014goba  -0.60850
gfz2014ubwn  -0.61820
gfz2015cyjd  -0.26330
gfz2015fvoi  -0.58140
gfz2015mpte  -0.95730
