# Nsamples: 212  MAD:  0.676  mean: -0.157  variance:  0.571
gfz2010ahqi  -0.60160
gfz2010bjeb  -0.44920
gfz2010bowy  -0.48730
gfz2010bxxs  -0.40540
gfz2010cdbt  -0.52450
gfz2010chnv  -1.48550
gfz2010ckzm  -0.14560
gfz2010cqwl   0.16030
gfz2010czps  -0.37500
gfz2010dlgc  -1.21630
gfz2010eaoy  -2.53990
gfz2010eaqy  -1.04580
gfz2010ecua  -0.61130
gfz2010eisx  -0.78180
gfz2010ekyc   0.31620
gfz2010eltf   2.74220
gfz2010elyc  -1.24750
gfz2010eruy   2.87610
gfz2010excp  -0.99040
gfz2010exdd   0.54870
gfz2010ezck  -1.42510
gfz2010ffhq  -1.36900
gfz2010fqdu   0.74550
gfz2010ftlm   0.28750
gfz2010fync  -2.38950
gfz2010grjd   0.31750
gfz2010gyqp  -1.09470
gfz2010hrkr  -0.04320
gfz2010irvf   0.54960
gfz2010iull   0.25730
gfz2010nmpc  -0.34530
gfz2010nqwo  -0.43170
gfz2010nwef  -0.87930
gfz2010onma  -1.22940
gfz2010pfyu  -1.74790
gfz2010rqwj   0.40940
gfz2010sfee  -0.27450
gfz2010skqo   0.18790
gfz2010upfb  -2.40380
gfz2010usho   0.10130
gfz2010vtdg   1.01060
gfz2011aatr  -0.19260
gfz2011adjs  -0.35220
gfz2011bgrp  -0.66680
gfz2011dpqx  -0.51630
gfz2011enva   0.27050
gfz2011flgj   0.38270
gfz2011gkzt  -0.78050
gfz2011hlqw  -0.72530
gfz2011hlsa  -0.69220
gfz2011hlth  -0.86880
gfz2011jplh   0.30070
gfz2011lcxq   0.79160
gfz2011lhls   0.24030
gfz2011mdie  -0.35910
gfz2011owvz   0.74960
gfz2011rewa  -0.73320
gfz2011rqui  -0.16250
gfz2011tkog   0.06210
gfz2011toub   0.15150
gfz2011ujze  -0.06850
gfz2011uphh  -0.32010
gfz2011vhfi  -0.58660
gfz2011vrhg   0.18470
gfz2011wxfs   0.50680
gfz2011xyxj   0.20070
gfz2012bfah  -0.78880
gfz2012czlw   0.42940
gfz2012enno  -0.51740
gfz2012fzfa  -1.59440
gfz2012hnul  -0.67560
gfz2012jlox   0.30110
gfz2012jupx   0.99290
gfz2012kkup  -0.78960
gfz2012klhx  -0.85810
gfz2012kuct  -0.25950
gfz2012kudo  -0.11710
gfz2012ldxg   0.56690
gfz2012ldzj   0.02070
gfz2012minr  -0.34150
gfz2012omvo  -0.40650
gfz2012rqlg   0.45370
gfz2012sphd  -0.15310
gfz2012teic  -0.21930
gfz2012ttoa   0.14180
gfz2012tvmv  -1.19950
gfz2012uafg  -0.79040
gfz2012uaqj  -0.32830
gfz2012vrgb  -0.11050
gfz2012wypz   0.18230
gfz2013aqaw   0.77660
gfz2013ccnr  -0.18850
gfz2013dofo   0.40520
gfz2013drxz  -0.62400
gfz2013iunn   1.82750
gfz2013jkut   0.50670
gfz2013kdeo   0.43540
gfz2013ldqb  -0.37750
gfz2013mwbh  -0.48640
gfz2013ndin  -0.41710
gfz2013nkgj   0.11570
gfz2013nqgw  -0.10610
gfz2013nwdi  -0.66450
gfz2013oifr   0.68780
gfz2013ojti   0.38830
gfz2013pfbx   0.03460
gfz2013qmer  -0.51910
gfz2013suvn   0.88340
gfz2013svci   0.70840
gfz2013tusd  -0.00520
gfz2013uauo  -0.70630
gfz2013vjjc  -0.21740
gfz2013wjmm  -0.42170
gfz2013wtzl  -0.57280
gfz2013xsdt  -0.67980
gfz2014afmx   0.17100
gfz2014ande  -0.23870
gfz2014arpf   0.33850
gfz2014bwue   0.16300
gfz2014czqi   0.40620
gfz2014fgvi  -0.27320
gfz2014fhdw   0.40370
gfz2014fhla  -1.54310
gfz2014fhlh   0.36320
gfz2014fhwx   0.18000
gfz2014fimn   0.16610
gfz2014fkmr   0.14410
gfz2014fnyg  -0.39350
gfz2014frdz   0.18640
gfz2014frez   0.42960
gfz2014ftka  -0.30010
gfz2014ftoc  -0.18640
gfz2014fval   0.16840
gfz2014gkgf   0.02580
gfz2014gkgs   1.02870
gfz2014gkhy   0.41220
gfz2014gkqf   0.28630
gfz2014gkqu   0.73580
gfz2014glcu  -1.55590
gfz2014gltx   0.51910
gfz2014gmge  -0.20300
gfz2014gmhr  -0.72580
gfz2014gmnb  -0.00680
gfz2014gmnw   0.13880
gfz2014goba   0.18170
gfz2014goqw   0.83340
gfz2014gqer   1.92850
gfz2014gsqs   0.32940
gfz2014gull   0.51260
gfz2014gwab   0.11570
gfz2014gxxo   0.07130
gfz2014hagb  -0.00000
gfz2014hasj   0.03170
gfz2014hfhl   0.36260
gfz2014hgqo   0.15380
gfz2014hhwx  -0.72770
gfz2014hjgr   0.33240
gfz2014hjij  -1.72030
gfz2014hkcf  -0.35200
gfz2014hocg  -0.35030
gfz2014hqxs   0.62870
gfz2014huaj  -0.57690
gfz2014jjhc   0.02270
gfz2014jpep   0.25430
gfz2014kndc  -1.03190
gfz2014kwrg  -0.27540
gfz2014lgqn   0.75180
gfz2014lxnc   0.31790
gfz2014lyhk  -0.34810
gfz2014lyhp  -0.64260
gfz2014macx   0.36050
gfz2014madw   0.71810
gfz2014nqfm   0.06340
gfz2014nrie   0.26690
gfz2014nyeh   1.23630
gfz2014oinz   0.20140
gfz2014pvch  -0.76600
gfz2014qlxd   0.00150
gfz2014qqhm   0.49880
gfz2014rdsn  -0.09780
gfz2014riel  -0.50800
gfz2014vhms   0.22950
gfz2014wwib   0.12880
gfz2015atxv   0.11100
gfz2015chhn  -0.68020
gfz2015cxxk   0.03820
gfz2015cyjd  -0.04500
gfz2015fsjj   0.23370
gfz2015gckd  -0.37430
gfz2015ggjw  -1.32570
gfz2015igsy  -0.65930
gfz2015jzcv  -0.18900
gfz2015kphk   0.03450
gfz2015kxxs   0.55610
gfz2015lhjy   0.65030
gfz2015lytv  -0.24790
gfz2015mpte   0.72430
gfz2015nwug  -1.44920
gfz2015okmq  -0.15150
gfz2015sfdd  -1.02180
gfz2015sfdy  -0.78960
gfz2015sfnb   0.81750
gfz2015sfno  -0.67400
gfz2015sjoj  -0.61060
gfz2015smym  -1.25520
gfz2015snwh  -1.89770
gfz2015soat  -0.92760
gfz2015soxc  -0.89510
gfz2015svwm  -0.63980
gfz2015szcb  -1.32770
gfz2015taml   0.05940
gfz2015tbdn  -0.85770
