# Nsamples: 51  MAD:  0.526  mean: -0.226  variance:  0.616
gfz2010bxxs  -0.29070
gfz2010ebhc   0.06720
gfz2010grjd  -0.87710
gfz2010iull  -0.11490
gfz2010nmpc  -0.03430
gfz2011aatr   0.08410
gfz2011enva  -0.58550
gfz2011gkzt  -1.06290
gfz2011hlqw  -0.00750
gfz2011hlsa   0.10060
gfz2011lcxq  -0.30220
gfz2011lzwj   0.08760
gfz2011rewa   0.61060
gfz2011toub  -0.02050
gfz2011wxfs  -0.30160
gfz2012enno   0.37230
gfz2012jlox  -0.12250
gfz2012kkup   0.18030
gfz2012klhx   0.10090
gfz2012kudo  -0.17590
gfz2012ldxg   0.44310
gfz2012ldzj  -0.00000
gfz2012teic  -0.22540
gfz2012vrgb  -0.32410
gfz2012wypz   0.09810
gfz2013drxz   0.48270
gfz2013kdeo   0.35250
gfz2013nwdi  -0.98710
gfz2013pfbx  -0.34930
gfz2013svci   0.23200
gfz2014bwue  -0.51110
gfz2014fgvi  -0.89870
gfz2014fhla   1.50950
gfz2014gkgf  -1.93290
gfz2014gkhy  -1.29690
gfz2014gkqf  -0.46930
gfz2014gmhr   0.84920
gfz2014goba  -0.44750
gfz2014hasj  -0.73720
gfz2014jpep  -0.31110
gfz2014lxnc  -0.70920
gfz2014nqfm  -1.73460
gfz2014nyeh  -3.04130
gfz2014qqhm   0.27410
gfz2014ssvz  -1.05080
gfz2014vhld   0.48950
gfz2015cyjd   1.80590
gfz2015fsjj  -0.88060
gfz2015gckd  -0.11870
gfz2015lhjy  -0.16930
gfz2015mpte   0.42340
