# Nsamples: 1213  MAD:  0.536  mean: -0.003  variance:  0.779
gfz2010aban  -0.01790
gfz2010aerk  -0.13860
gfz2010ahla   0.34130
gfz2010ahqi   0.35960
gfz2010aphp  -0.12290
gfz2010awfi   0.14630
gfz2010aykj   3.22150
gfz2010bedu   0.21610
gfz2010bfzs  -0.36440
gfz2010bgth   1.16560
gfz2010bhhq  -1.06420
gfz2010bifb   0.59550
gfz2010bjeb  -1.21300
gfz2010bjsl  -1.90230
gfz2010bkob  -0.28800
gfz2010bkos  -0.06700
gfz2010boxo   1.83190
gfz2010chnv  -0.85160
gfz2010cind   0.03750
gfz2010civi  -0.43590
gfz2010cjmx   0.64440
gfz2010cjqh   0.15000
gfz2010cjrf  -0.65430
gfz2010ckeu   0.19220
gfz2010ckzm  -0.87990
gfz2010cnwc   0.33630
gfz2010cptb   0.12560
gfz2010cqwl   0.27580
gfz2010cres   0.05660
gfz2010ctuw  -2.52380
gfz2010czps   1.38180
gfz2010dtmx   0.71120
gfz2010dumm   0.02910
gfz2010eaoy   2.63300
gfz2010eapk   1.47230
gfz2010earq   0.23850
gfz2010eask   1.59900
gfz2010eavp   0.00000
gfz2010eavs   1.06600
gfz2010eawb   0.66120
gfz2010eawu  -1.22510
gfz2010eaxa   0.11960
gfz2010eaxn   1.32340
gfz2010eaya  -4.22270
gfz2010eayp   1.06600
gfz2010eayx   0.10980
gfz2010eaze  -5.66190
gfz2010eazu   1.32430
gfz2010ebbd   0.21430
gfz2010ebbx   2.37850
gfz2010ebby   0.96650
gfz2010ebdl   0.33310
gfz2010ebeh   0.36430
gfz2010ebfa   2.28800
gfz2010ebfx   0.41290
gfz2010ebgj  -0.93850
gfz2010ebhc   0.95440
gfz2010ebih  -0.53210
gfz2010ebin  -0.43450
gfz2010ebiv  -0.11000
gfz2010ebjg   0.53760
gfz2010ebjy  -0.36920
gfz2010ebkj  -0.33440
gfz2010ebkx  -0.34050
gfz2010ebla   0.28520
gfz2010ebll   1.89540
gfz2010ebmb   0.55180
gfz2010ebmi   0.17680
gfz2010ebnn   0.87100
gfz2010ebpa   1.85880
gfz2010ebqt   0.81130
gfz2010ebqz  -1.53250
gfz2010ebrm   1.26610
gfz2010ebtk   0.61450
gfz2010ebvm   0.53900
gfz2010ebvv   0.46650
gfz2010ebwp   0.59990
gfz2010ebxl   0.56430
gfz2010ebze   0.36640
gfz2010ebzk  -0.45610
gfz2010ebzr  -0.28850
gfz2010ecam   0.24870
gfz2010ecay  -0.77020
gfz2010ecbi   0.65200
gfz2010eccq   0.38610
gfz2010ecdu  -0.92910
gfz2010eced   0.74510
gfz2010ecft  -1.34350
gfz2010ecfx   0.68770
gfz2010ecfy   0.93610
gfz2010echc   1.35370
gfz2010echt  -0.26550
gfz2010echy   0.17310
gfz2010ecka  -0.13030
gfz2010ecls  -0.76670
gfz2010ecml   2.03840
gfz2010ecnm   0.69600
gfz2010ecns   1.78640
gfz2010ecro  -1.66560
gfz2010ecua   0.59430
gfz2010ecuv   0.37190
gfz2010ecvt   0.35480
gfz2010ecyr   0.23960
gfz2010edad   0.55700
gfz2010edat  -0.96110
gfz2010eday   0.48870
gfz2010edbz   2.35100
gfz2010edcp  -4.32200
gfz2010edde   0.91920
gfz2010edhr   0.24830
gfz2010edhv  -0.77500
gfz2010edim   0.00000
gfz2010edji   0.54700
gfz2010edkp   0.60340
gfz2010edoq   0.45410
gfz2010edpb  -0.17430
gfz2010edqd  -0.79350
gfz2010edqh  -1.57870
gfz2010edyi  -0.58340
gfz2010eedu  -0.06640
gfz2010eedz   0.08260
gfz2010eefh   2.25670
gfz2010eefo  -0.94210
gfz2010eegn   0.71150
gfz2010eeia   0.52780
gfz2010eeij   0.46750
gfz2010eekg  -0.06000
gfz2010eekq  -0.47990
gfz2010eell  -0.66490
gfz2010eeng  -0.40220
gfz2010eeqy  -2.28160
gfz2010eerh   0.00850
gfz2010eern   1.16810
gfz2010eexz   0.83980
gfz2010eeyh   0.15270
gfz2010efak   1.85840
gfz2010efkc   0.38370
gfz2010efnf  -1.06830
gfz2010efsq  -0.21140
gfz2010efwo   0.91970
gfz2010efxf  -0.49460
gfz2010egap  -0.13970
gfz2010eghq  -0.21690
gfz2010egld  -0.33960
gfz2010egln  -0.00750
gfz2010egmp   0.00000
gfz2010egqh   0.43070
gfz2010egsw   0.40580
gfz2010egsy   0.18140
gfz2010egyy   0.45310
gfz2010ehaj   0.04500
gfz2010eher   0.60900
gfz2010ehft   0.25200
gfz2010ehnl  -0.04250
gfz2010ehnm  -0.78020
gfz2010ehrq   0.96270
gfz2010ehsy  -3.08380
gfz2010ehvj   0.48920
gfz2010ehxz   1.29200
gfz2010eimf   0.98830
gfz2010eioi   0.89160
gfz2010eiqi   0.90110
gfz2010eisx   1.80170
gfz2010eixj  -0.40620
gfz2010ejae   0.68830
gfz2010ejco   0.20270
gfz2010ejjg   0.24560
gfz2010ejju  -0.43580
gfz2010ejka   0.02690
gfz2010ejma   0.65920
gfz2010ejxf   0.70640
gfz2010ekaw   0.79310
gfz2010ekyc   0.34340
gfz2010elhv  -0.54520
gfz2010elin  -4.05760
gfz2010eljf  -1.32830
gfz2010elsw  -0.80300
gfz2010eltf   1.21940
gfz2010elvp   0.26740
gfz2010elxi   0.30940
gfz2010elyc   0.63390
gfz2010elyo  -0.10850
gfz2010elzf  -0.76220
gfz2010elzl   1.01870
gfz2010emoz   2.05180
gfz2010emyz  -0.18180
gfz2010erig  -0.41450
gfz2010eruy   0.50040
gfz2010erwn  -0.56130
gfz2010erxb   0.06750
gfz2010erxk   0.01990
gfz2010eryg  -0.18190
gfz2010esmg   0.40820
gfz2010eted  -1.18600
gfz2010etfw  -0.81250
gfz2010euae   0.36310
gfz2010euan   0.21930
gfz2010eugj   4.38820
gfz2010eujm   0.24850
gfz2010eutw  -1.00830
gfz2010euvl  -0.28120
gfz2010euxe   0.07950
gfz2010evco   0.25430
gfz2010evgf   0.19800
gfz2010evjv  -1.02140
gfz2010evkd   1.35060
gfz2010ewbc   0.06040
gfz2010ewpq   0.35790
gfz2010ewvc   0.11010
gfz2010ewyu   0.52640
gfz2010excp   0.43060
gfz2010exdd   1.55430
gfz2010exdl   0.69400
gfz2010exed   1.24940
gfz2010exel  -0.01050
gfz2010exfb   0.42220
gfz2010exgb   0.21660
gfz2010exhd   1.27180
gfz2010exhw   0.26490
gfz2010exjw   0.80350
gfz2010exlm  -0.26160
gfz2010exmc  -0.12790
gfz2010exno  -0.28070
gfz2010exou   1.35040
gfz2010exqu  -0.09900
gfz2010exyp   0.37790
gfz2010eyaz   0.44970
gfz2010eybj   0.35130
gfz2010eymr   0.56400
gfz2010eymx   0.60100
gfz2010eyqe   0.37740
gfz2010eyvq  -1.10590
gfz2010eyxe   0.19540
gfz2010ezax   0.67800
gfz2010ezck  -2.64460
gfz2010ezig   0.10050
gfz2010ezjk   0.67880
gfz2010ezuj   0.51730
gfz2010ezvg   0.42560
gfz2010ezvt  -1.24050
gfz2010ezwz  -0.82480
gfz2010ezxd   0.51500
gfz2010faeu  -0.86370
gfz2010falm   0.70450
gfz2010fauz  -0.27500
gfz2010faxg  -1.31140
gfz2010fbeu  -1.16450
gfz2010fbpi  -0.88470
gfz2010fbwe   1.18330
gfz2010fcax   0.19430
gfz2010fciw  -0.34820
gfz2010fcnn   0.52660
gfz2010fcnt  -0.09330
gfz2010fcxy  -0.51820
gfz2010fcyj   0.66190
gfz2010fczt   0.09370
gfz2010fdxr   0.38420
gfz2010fedq  -0.11970
gfz2010fefr  -5.21470
gfz2010fexw  -0.40840
gfz2010ffhq   1.87220
gfz2010ffjb  -0.26660
gfz2010ffui   0.66930
gfz2010fhbl   0.11330
gfz2010figq  -0.07730
gfz2010fihj  -1.92470
gfz2010fika   0.41600
gfz2010fisf   0.01850
gfz2010fixr  -1.92130
gfz2010fjal  -0.41740
gfz2010fjas  -0.05740
gfz2010fjmu  -1.36460
gfz2010fjni  -0.53390
gfz2010fkhd   0.59280
gfz2010fkia   0.77310
gfz2010fknh  -0.78360
gfz2010fkvg  -0.15010
gfz2010flha   0.23540
gfz2010floi  -1.25710
gfz2010flrt   0.27800
gfz2010flxi   0.08350
gfz2010fmhb   0.22430
gfz2010fmip  -0.18520
gfz2010fmpy  -1.65180
gfz2010fmwb   0.42910
gfz2010fneu  -0.24370
gfz2010fnrk  -4.90180
gfz2010fobc   0.29580
gfz2010fona   0.53650
gfz2010fpmv   0.00000
gfz2010fpqy   0.48760
gfz2010fqdu  -0.06190
gfz2010fqtj  -0.91620
gfz2010fser  -0.17020
gfz2010fsmy   0.11660
gfz2010fsth   1.04090
gfz2010ftlm   0.81630
gfz2010ftsx  -1.60020
gfz2010fupn   0.29650
gfz2010fuuy   0.09910
gfz2010fuwa  -0.73990
gfz2010fvuc  -0.45950
gfz2010fwkk  -5.93230
gfz2010fwlb   0.35680
gfz2010fwny  -0.89690
gfz2010fwpv   0.39510
gfz2010fwzd   0.18990
gfz2010fyed   1.14660
gfz2010fyen   0.25410
gfz2010fync   0.67190
gfz2010fzoi  -0.28030
gfz2010fzsg   0.01910
gfz2010fzyt  -0.44670
gfz2010gcdn   1.62780
gfz2010gceb   0.10400
gfz2010gcrl   0.37670
gfz2010gdch  -2.04800
gfz2010gdld   0.08130
gfz2010geru  -0.55840
gfz2010ghyk  -0.21860
gfz2010glqr  -0.57890
gfz2010glxl  -0.19940
gfz2010gmib   0.86360
gfz2010govu   0.12160
gfz2010grjd   0.70270
gfz2010grss   0.03670
gfz2010grxb  -0.10510
gfz2010gslu  -0.14890
gfz2010gtqs   1.41080
gfz2010gtzt   0.01960
gfz2010gvya   0.11720
gfz2010gwmp   0.03010
gfz2010gymo   0.41850
gfz2010gyqp  -0.21760
gfz2010gzxr   0.53830
gfz2010hbka   0.87260
gfz2010hcio   0.13370
gfz2010hevz  -1.26640
gfz2010hgld  -1.41740
gfz2010hhls   0.03660
gfz2010hjoc  -0.26630
gfz2010hlco   0.43260
gfz2010hllj   0.39920
gfz2010hlln   0.92900
gfz2010hlmq  -0.00000
gfz2010hlvr  -0.11910
gfz2010hmhm   0.76890
gfz2010hndk   0.49780
gfz2010hnnf   0.60990
gfz2010hnpi   1.19960
gfz2010hnzr   1.10850
gfz2010homc  -1.14340
gfz2010hptz   0.73850
gfz2010hrkr   0.22480
gfz2010hrpr   0.90790
gfz2010htdq  -1.26920
gfz2010hufk   0.95660
gfz2010hxgv   0.79940
gfz2010hxhe   0.10430
gfz2010hykt  -0.05550
gfz2010ibiy  -0.31400
gfz2010ibxj   0.05480
gfz2010iciq   0.32950
gfz2010icqq   0.48730
gfz2010iefy   0.40860
gfz2010izzj   0.44750
gfz2010jant  -0.20340
gfz2010jatq  -1.58380
gfz2010jhie  -0.02020
gfz2010jitt   1.64110
gfz2010jkxj  -1.70180
gfz2010jlhj  -0.36730
gfz2010jpss   1.23770
gfz2010jpyj   0.49210
gfz2010jssh   0.90720
gfz2010jsuh   0.31470
gfz2010jsuo  -3.12700
gfz2010jtal  -1.00260
gfz2010jucj   0.20060
gfz2010jwpy   0.28250
gfz2010jxbm   0.08820
gfz2010jygz   2.61590
gfz2010jzku  -0.03200
gfz2010kcoo   0.02060
gfz2010kdyc  -0.14410
gfz2010kgws  -0.20300
gfz2010kjmp  -2.67260
gfz2010kmgg   1.62730
gfz2010kmsv   0.72870
gfz2010kown   0.94270
gfz2010kqyh   0.26110
gfz2010kraw  -0.01720
gfz2010kyen   0.25540
gfz2010kyvj  -2.16000
gfz2010lcoq  -0.54830
gfz2010lczp   0.06480
gfz2010lepw   0.33410
gfz2010lfju  -0.09490
gfz2010lgwy  -0.20710
gfz2010liqs   0.28150
gfz2010lkcf  -0.30360
gfz2010lluj   0.30750
gfz2010lopz  -0.03890
gfz2010lrlk   0.49330
gfz2010lruw   1.09050
gfz2010lwuq   0.25560
gfz2010lyfk  -0.06860
gfz2010mant  -0.89650
gfz2010mbje  -0.61820
gfz2010mcrx  -0.71130
gfz2010mdpq   0.00220
gfz2010mgss  -0.68770
gfz2010miil   0.31760
gfz2010mipi  -0.10070
gfz2010miqn   0.79850
gfz2010mkuu  -0.55620
gfz2010mlkz  -0.00000
gfz2010mlta  -0.57030
gfz2010mncc  -0.33480
gfz2010mnhm  -0.61070
gfz2010moyw   0.77480
gfz2010mpuy   1.05530
gfz2010msjj  -0.27080
gfz2010mtab   0.97990
gfz2010mwdq  -0.96710
gfz2010mzjr   0.05300
gfz2010ncrl   0.41320
gfz2010ndxl  -0.37210
gfz2010nlkh   0.02150
gfz2010nmpc   1.33070
gfz2010nnny   1.02490
gfz2010nqwf  -0.01640
gfz2010nqwo   1.08240
gfz2010nrew   0.72040
gfz2010nrjo  -0.72710
gfz2010nsck   0.74700
gfz2010nsdf   0.19110
gfz2010nsfx  -0.45180
gfz2010nsjs   0.09250
gfz2010ntuo  -0.28100
gfz2010nubk  -0.14120
gfz2010nwef   0.89020
gfz2010nxsy  -0.93750
gfz2010nxum  -1.00720
gfz2010nzha  -0.04370
gfz2010nzla   0.27090
gfz2010ocxq   0.14780
gfz2010odpb   0.23150
gfz2010oedn   0.34620
gfz2010okdm   1.12800
gfz2010oluw   0.02640
gfz2010omla   0.08670
gfz2010onma   0.05130
gfz2010osjs   0.44610
gfz2010osqo  -0.18920
gfz2010otbn  -0.08500
gfz2010oyqy  -0.12260
gfz2010pbdz   0.04780
gfz2010pcxi   0.21600
gfz2010pdtk   0.28170
gfz2010pets   0.01910
gfz2010pewa   0.54730
gfz2010pewx  -0.08440
gfz2010pexf  -0.16490
gfz2010pfyu   0.47480
gfz2010phvg   0.92060
gfz2010plbg   0.00000
gfz2010pmqd   1.14880
gfz2010pqck  -5.03600
gfz2010pxak   0.40190
gfz2010pxgh   0.63040
gfz2010pxls   0.14540
gfz2010qbng   0.02600
gfz2010qpcq   0.11880
gfz2010qttw   0.08170
gfz2010qwwx   0.24520
gfz2010rkfp   0.44360
gfz2010rlbv  -0.62380
gfz2010rqwj   0.03090
gfz2010rywq  -0.16040
gfz2010rzrr  -0.43500
gfz2010rzsd   0.00000
gfz2010sfee  -0.02870
gfz2010sfla  -1.43500
gfz2010sgzk   1.41310
gfz2010skqo  -0.18200
gfz2010skve   0.02200
gfz2010srdb  -0.50970
gfz2010svtn   0.37650
gfz2010svve   0.88470
gfz2010swcy   0.26860
gfz2010sxfq  -0.09330
gfz2010sxwt   0.27450
gfz2010sysw   0.09520
gfz2010szde   1.45800
gfz2010szim   0.50240
gfz2010tcbr  -0.10710
gfz2010tcrl  -2.00860
gfz2010tlfm   0.30990
gfz2010truw   0.33420
gfz2010txjs  -0.04840
gfz2010tzzk  -0.07000
gfz2010uept  -0.11240
gfz2010uouo  -0.61010
gfz2010upiw   0.46950
gfz2010urlq   0.88600
gfz2010usho  -1.21080
gfz2010ustq   1.69590
gfz2010utcg   0.46760
gfz2010utmc  -0.02590
gfz2010utvp  -0.65620
gfz2010uyhb  -1.55770
gfz2010uzon   0.19010
gfz2010veri  -1.93450
gfz2010vhuj  -0.43640
gfz2010vppc  -0.40150
gfz2010vtdg   0.37940
gfz2010vxvs   0.21160
gfz2010vzpr  -0.05560
gfz2010vzzz  -0.19500
gfz2010wioh  -0.53080
gfz2010wnty   0.81600
gfz2010wntz   0.20250
gfz2010wofs   0.60810
gfz2010wrxx  -0.84570
gfz2010wxqa  -0.17530
gfz2010xbcr  -0.12620
gfz2010xbdv  -0.10680
gfz2010xbgs  -0.17630
gfz2010xcdh  -0.50650
gfz2010xche  -0.00000
gfz2010xcij   0.00000
gfz2010xden   0.32660
gfz2010xgzw   0.40270
gfz2010xjck   0.18060
gfz2010xjsj  -0.30040
gfz2010xmpr   0.48860
gfz2010xnxk  -0.74930
gfz2010yfsv  -1.30670
gfz2010yjev  -1.41700
gfz2010ymfy  -0.17260
gfz2010ymur   0.02700
gfz2010yosr   0.17020
gfz2010yoyx   0.16510
gfz2010yqqb  -0.01230
gfz2010yqqv  -0.94900
gfz2010yqwx  -2.32320
gfz2010zdpo   0.37020
gfz2010zeeh   0.04780
gfz2011aatr  -0.41020
gfz2011adjs   1.48930
gfz2011adlj   1.36580
gfz2011adne  -0.69270
gfz2011adpw   1.16970
gfz2011adqk   0.33930
gfz2011aeay  -0.20330
gfz2011alwf   1.64990
gfz2011anur   0.10130
gfz2011aosc   0.11220
gfz2011aqxf   0.39730
gfz2011blsi  -0.34880
gfz2011bnzn  -0.06000
gfz2011bpkd  -0.40530
gfz2011bswz   0.00000
gfz2011cfae   0.54630
gfz2011crdy   0.75510
gfz2011ctbn  -0.61670
gfz2011cvcg   0.10000
gfz2011cvfg  -0.88620
gfz2011cwgn   1.11050
gfz2011cykd   1.30630
gfz2011cylz   0.05820
gfz2011cynl   0.48440
gfz2011cyre   0.27410
gfz2011cyuk   0.54150
gfz2011czwj   1.18050
gfz2011dbev   0.84100
gfz2011dbig   0.50140
gfz2011dbli  -2.27030
gfz2011dbon   0.25870
gfz2011dbwt  -1.08230
gfz2011dcqb   0.51070
gfz2011ddao   0.07560
gfz2011dddh  -2.39190
gfz2011deaf   0.61350
gfz2011dkyi  -0.13890
gfz2011dllz  -1.38830
gfz2011dlyx  -0.41940
gfz2011dmat  -0.00000
gfz2011dndz  -0.23220
gfz2011dpaa   0.61240
gfz2011dpmx   0.45750
gfz2011dpqx   2.31020
gfz2011dtpy   0.14050
gfz2011eayc   0.41570
gfz2011eazf   0.08750
gfz2011ecaj   0.61240
gfz2011edmm  -0.31900
gfz2011efgv   0.00000
gfz2011ehzq   0.05710
gfz2011eiis  -0.16150
gfz2011ejlp   0.00990
gfz2011ekpr   0.44480
gfz2011eltw   0.10430
gfz2011enva   0.24780
gfz2011eocc  -1.00090
gfz2011etje  -1.39640
gfz2011fgvr  -0.15000
gfz2011fhag   0.16070
gfz2011fhbm   0.08150
gfz2011fhur  -1.29870
gfz2011fkbn   0.28370
gfz2011fnsw  -0.30640
gfz2011gbmx   0.43770
gfz2011gcwb  -0.12710
gfz2011gdgh  -0.91130
gfz2011ggvf  -0.12660
gfz2011ghky  -0.30610
gfz2011gjlx   0.26090
gfz2011gkey   0.69050
gfz2011gkzt  -0.20870
gfz2011gzbr  -1.03430
gfz2011haid   0.05820
gfz2011hbex   0.32070
gfz2011hbqk   0.76400
gfz2011hebt  -0.02750
gfz2011hfkj  -0.41920
gfz2011hlqw  -0.44040
gfz2011hlsa  -0.25480
gfz2011hlth  -0.89330
gfz2011hpgx  -0.48150
gfz2011hpqp  -0.16220
gfz2011hrhe  -0.28360
gfz2011hrhu   0.93660
gfz2011hryk   0.74940
gfz2011hsfj  -0.17770
gfz2011hvbu  -0.66000
gfz2011iwte   0.27600
gfz2011ixai   0.40930
gfz2011izto  -1.18320
gfz2011jbbc  -0.26730
gfz2011jdsj  -0.02080
gfz2011jghb   0.59440
gfz2011jnmi  -0.03990
gfz2011jplh   0.28450
gfz2011jtlg  -0.68560
gfz2011juid  -0.63170
gfz2011jxpl  -0.27700
gfz2011knbi   0.22640
gfz2011knoo  -0.12830
gfz2011kqwo   0.52130
gfz2011kqyg   0.73630
gfz2011ksiu  -1.83610
gfz2011kweu   0.84710
gfz2011kwid  -0.06280
gfz2011kwjx   0.06890
gfz2011kwkw  -0.32090
gfz2011kwld  -0.34160
gfz2011kwlq   0.32350
gfz2011kwni   0.59610
gfz2011kwnu  -0.31350
gfz2011kwqc  -0.02250
gfz2011kwrf  -0.46150
gfz2011kwsz  -0.45580
gfz2011kxzp   0.73250
gfz2011lcxq  -0.14170
gfz2011lczg  -0.00000
gfz2011lggq   1.55160
gfz2011lgsg   0.13070
gfz2011lhls   0.25340
gfz2011lvjr   0.60890
gfz2011mdie  -0.31500
gfz2011mepc   0.94320
gfz2011mjom  -0.25960
gfz2011mllx   0.15300
gfz2011mlvw   0.01770
gfz2011mpme  -0.70410
gfz2011mprq   0.12860
gfz2011nauw  -0.21140
gfz2011nkaz  -0.00000
gfz2011nmnq  -0.72720
gfz2011nmqj   0.11500
gfz2011nowp   0.55420
gfz2011npgs   0.91150
gfz2011nqpd   0.41560
gfz2011nrwc   0.27080
gfz2011nrwv   0.16140
gfz2011nsex   0.08550
gfz2011ntkh   0.22230
gfz2011ntrv  -0.09460
gfz2011nudm  -0.50560
gfz2011ogqk   1.37530
gfz2011ohcy   0.70530
gfz2011oiqe   0.14340
gfz2011olkk   0.51000
gfz2011oolr  -0.53940
gfz2011orgn   0.98900
gfz2011ornx   0.66550
gfz2011owvz  -1.15820
gfz2011ozsl  -0.87840
gfz2011pccd  -0.49410
gfz2011pdpt   0.45570
gfz2011pdst  -0.15630
gfz2011phms   0.00000
gfz2011pntf   1.73930
gfz2011ptus  -2.71280
gfz2011qigx   3.17310
gfz2011qvae  -0.37410
gfz2011qyms   3.61480
gfz2011rabm  -2.69210
gfz2011rdby  -0.99620
gfz2011rewa  -0.78840
gfz2011rqui  -0.40000
gfz2011rsrh   0.03880
gfz2011runa   0.15960
gfz2011rznl  -0.45350
gfz2011sagt   0.57010
gfz2011sawg   0.44730
gfz2011shqm   0.32920
gfz2011stal  -3.24020
gfz2011sthv  -0.05170
gfz2011svix   0.54220
gfz2011syjd   0.02690
gfz2011taps   0.13330
gfz2011tbas   0.55010
gfz2011tcij  -1.85840
gfz2011tivu   0.84470
gfz2011tjrf  -1.30770
gfz2011tjue  -0.14780
gfz2011tkfp   1.13810
gfz2011tkog  -1.92220
gfz2011tnag  -0.02530
gfz2011toub   0.10120
gfz2011tpbl  -0.26830
gfz2011tpfr   0.01880
gfz2011tsfd   1.45380
gfz2011tsnp   0.45000
gfz2011tuea  -0.06350
gfz2011twov  -0.09870
gfz2011udsq   0.05600
gfz2011ueni   0.37640
gfz2011uepx   0.87240
gfz2011ugzz   0.04550
gfz2011uiul   0.06870
gfz2011ujze   0.26090
gfz2011ukmp   0.33340
gfz2011unkx  -0.04290
gfz2011uphh  -0.04680
gfz2011urxy   0.06190
gfz2011urzu  -0.00000
gfz2011uzqv   0.08740
gfz2011vclt   0.96410
gfz2011vhfi   0.86990
gfz2011vkun   0.20290
gfz2011vldk   0.29240
gfz2011vnza  -0.68580
gfz2011vqnr   0.05350
gfz2011vqrj  -0.34960
gfz2011vrhg   0.50950
gfz2011vusi  -0.11150
gfz2011wcic  -0.14170
gfz2011wfja  -0.09230
gfz2011wijj  -0.45700
gfz2011wjkf  -0.12440
gfz2011wjul   0.14070
gfz2011wtmq  -0.70170
gfz2011wwjs   0.41760
gfz2011wxoj  -1.58230
gfz2011wxtk  -0.51740
gfz2011wype   0.32670
gfz2011xcpv  -0.21010
gfz2011xesx   0.45470
gfz2011xqru   0.50940
gfz2011xyxj  -0.01640
gfz2011yfdx   0.22360
gfz2011yfys   0.05950
gfz2011yhwz  -0.25180
gfz2011ytnu  -0.00000
gfz2011yybo   0.03220
gfz2011zjap   0.04730
gfz2011zlfg  -0.08180
gfz2011zlrd   0.09180
gfz2011zqhh   0.71340
gfz2012ablh   2.05900
gfz2012ajtq   0.52110
gfz2012aqgp   0.66990
gfz2012aqtq  -0.03940
gfz2012bfah   0.50420
gfz2012bfyn   0.23740
gfz2012bngd   0.23300
gfz2012bpnl  -0.27830
gfz2012cbed   0.01980
gfz2012ckxi  -1.25160
gfz2012cnod  -0.01960
gfz2012covm   0.34250
gfz2012cqtc   0.00000
gfz2012cxdn  -0.20580
gfz2012dfhq  -0.17870
gfz2012dimn   0.55700
gfz2012djwi  -1.46630
gfz2012dves   0.03450
gfz2012dyyh  -0.18470
gfz2012ekzf  -0.97700
gfz2012elce  -0.27270
gfz2012enno  -0.59370
gfz2012eskt  -0.04510
gfz2012ewgo  -0.19960
gfz2012ezvr   0.04890
gfz2012fbfo   0.25870
gfz2012fhnh  -0.29250
gfz2012fivh  -0.19300
gfz2012foeo   0.30810
gfz2012fqcg   0.86650
gfz2012fwfo  -0.52790
gfz2012fwob  -0.73700
gfz2012fzfa   0.29710
gfz2012gill   0.25030
gfz2012gkvr   0.08020
gfz2012glss   0.16510
gfz2012gocc   0.11460
gfz2012gomm   0.24070
gfz2012gwqb  -0.09590
gfz2012hdbm  -0.16640
gfz2012hnul   0.42910
gfz2012hogg   0.18440
gfz2012hsex   0.36640
gfz2012hwyo  -0.08100
gfz2012icmv   0.17260
gfz2012idje   0.16630
gfz2012iffo   0.04210
gfz2012ihdl   0.13320
gfz2012iivw  -0.05690
gfz2012ilvn   0.27960
gfz2012intn  -0.29370
gfz2012iyrb  -0.30050
gfz2012jgvj   0.09450
gfz2012jjzc   0.06030
gfz2012joqe   0.00000
gfz2012jpeh  -0.22350
gfz2012jpgs   0.07490
gfz2012jqvn   0.12950
gfz2012jshk  -1.29550
gfz2012jted   0.18900
gfz2012jupx   0.48590
gfz2012jwhu  -0.10310
gfz2012jxiy  -0.12290
gfz2012kbzj   0.04300
gfz2012kdmb  -0.51270
gfz2012keor  -0.62270
gfz2012kkcp   0.04280
gfz2012kkup  -0.95550
gfz2012klhx  -0.36780
gfz2012kudo  -0.58870
gfz2012kwgo  -0.22650
gfz2012lboz  -0.83220
gfz2012ledy  -0.38270
gfz2012lltr  -1.03710
gfz2012llug  -0.00000
gfz2012lpvn  -0.70520
gfz2012lrol   0.01880
gfz2012lsni   0.02110
gfz2012lxkv  -0.60770
gfz2012maxy  -0.02580
gfz2012mcze   0.23050
gfz2012mdmy  -0.02880
gfz2012mkpn  -0.38550
gfz2012mlyf  -1.76450
gfz2012mpvy  -0.91070
gfz2012mupa  -0.00000
gfz2012mwij   1.17930
gfz2012myqa   0.34030
gfz2012naqz   0.32680
gfz2012nbtn  -0.73920
gfz2012nedn  -1.65540
gfz2012ngic   0.64840
gfz2012njha  -0.90990
gfz2012ntzv  -1.71220
gfz2012nutf   1.15230
gfz2012obgw  -2.39800
gfz2012oedb   0.02420
gfz2012ofpe   0.18290
gfz2012okhx  -0.04810
gfz2012omvo  -0.46740
gfz2012pciw  -0.55190
gfz2012plbw   0.03570
gfz2012plea  -0.01940
gfz2012pqlt   0.40910
gfz2012pqmu  -0.48190
gfz2012pygp   0.02300
gfz2012qqqp   0.09730
gfz2012rcbq  -0.02470
gfz2012rtqi  -0.10160
gfz2012rwko   0.08430
gfz2012rwov   1.35210
gfz2012shtg   0.37790
gfz2012sjea  -0.37140
gfz2012spbj   0.42980
gfz2012sqvi   0.11360
gfz2012tazz  -0.57260
gfz2012tbbp   1.23290
gfz2012tzcc   0.09070
gfz2012ufew  -1.85720
gfz2012uhup   0.47180
gfz2012uxnz  -0.07300
gfz2012vdbt  -1.41590
gfz2012vmeh   0.67190
gfz2012wtkh   0.30850
gfz2012wtkr   0.06590
gfz2012wypz   0.21740
gfz2012xssa   0.03640
gfz2012yoie  -0.36770
gfz2012zsqk   0.01650
gfz2013adey   0.40840
gfz2013aeee   0.13500
gfz2013akgj   0.00000
gfz2013apmm   0.09140
gfz2013azzr   0.29030
gfz2013bnxc  -0.94490
gfz2013bobq  -0.12540
gfz2013bouj  -0.04160
gfz2013btjm   0.38100
gfz2013bzlb  -0.01740
gfz2013ccnr  -1.05000
gfz2013ccon  -0.75300
gfz2013ciaf   0.31130
gfz2013cwps  -0.43550
gfz2013czeq   0.39860
gfz2013dddp  -0.40410
gfz2013dkmz  -1.26660
gfz2013dyop  -0.46590
gfz2013eswe  -0.02960
gfz2013eulz  -1.33690
gfz2013fdoo  -0.04600
gfz2013feep  -0.46290
gfz2013flox  -0.88900
gfz2013ftso  -0.20650
gfz2013fygc  -0.29740
gfz2013gbcn  -1.29960
gfz2013geno  -0.62300
gfz2013gngz  -0.61060
gfz2013govy   0.19610
gfz2013gvex   1.56910
gfz2013gvxh  -1.31200
gfz2013gxsu   0.33010
gfz2013hbkq  -0.41970
gfz2013hisv  -1.92020
gfz2013hmbc  -0.19460
gfz2013hzdp  -3.20360
gfz2013ihcj  -0.01570
gfz2013iodt  -0.00000
gfz2013iopd  -0.01500
gfz2013iynu   0.01030
gfz2013jfah   0.03180
gfz2013jjsi  -0.34170
gfz2013jlst  -0.45120
gfz2013jusj  -1.76480
gfz2013jwcn  -0.31510
gfz2013lbiu  -0.41580
gfz2013ldos  -0.37380
gfz2013lfyb   0.02880
gfz2013lgbb  -0.29880
gfz2013lgnl   1.48890
gfz2013lgxc   0.14790
gfz2013lwbk  -0.12120
gfz2013mghe  -0.35920
gfz2013mvgr   0.86510
gfz2013mzwe   0.36740
gfz2013ngnt  -0.38680
gfz2013njnd   0.26020
gfz2013npcg  -0.05900
gfz2013nttq   0.07120
gfz2013onjy  -0.16070
gfz2013oqsc  -2.19580
gfz2013ornz   0.27800
gfz2013oznn   0.27880
gfz2013ozqm  -2.26330
gfz2013pcos   0.10420
gfz2013pfeb  -1.12580
gfz2013pfnf   1.27510
gfz2013pqui  -0.29680
gfz2013pupd  -0.03570
gfz2013pxsj   0.41610
gfz2013pxtx  -1.85530
gfz2013qbca  -0.31690
gfz2013qesa  -0.27490
gfz2013qidm   0.39500
gfz2013qmer   0.32670
gfz2013qvcr  -0.14790
gfz2013ryxm  -0.19330
gfz2013scai   0.10450
gfz2013sebq   0.26980
gfz2013snyf  -0.83620
gfz2013sqkb   0.24640
gfz2013sred  -0.49520
gfz2013thtc   0.47620
gfz2013tqbb   0.02800
gfz2013ttoz   0.27960
gfz2013tusd   0.59970
gfz2013tuzv  -0.00000
gfz2013ugax  -0.22010
gfz2013umya   0.37220
gfz2013vefs   0.52140
gfz2013vfzp   0.70230
gfz2013vsxi  -0.59170
gfz2013vthd   0.14350
gfz2013wqhq  -0.06610
gfz2013wuml   0.00970
gfz2013xcmp  -0.14110
gfz2013xkbh   0.01580
gfz2013xqnn  -0.01760
gfz2013xsdt   0.07620
gfz2013xvqd   0.41740
gfz2013xwzd  -0.29460
gfz2013yhpk  -0.10030
gfz2013yixl  -0.01730
gfz2013ylbx  -0.42910
gfz2013yrmc  -2.27090
gfz2013yulx  -0.23770
gfz2013ziyr   0.19160
gfz2014adoj  -0.47360
gfz2014agyz  -0.14870
gfz2014alwz  -0.54390
gfz2014arpf  -0.06710
gfz2014cgog  -1.21010
gfz2014clnj   0.09770
gfz2014cvkm  -0.48080
gfz2014czno   0.49070
gfz2014disp  -0.49710
gfz2014dpzx  -0.59560
gfz2014efkk  -0.41040
gfz2014ekdt   0.38640
gfz2014ezgb  -0.59560
gfz2014fhla  -0.73510
gfz2014foio  -2.41040
gfz2014frdz  -0.35380
gfz2014gkln  -0.10180
gfz2014gktn   0.15580
gfz2014glfn  -0.16440
gfz2014glvu   0.10470
gfz2014gntd   0.26370
gfz2014gtlu  -0.06000
gfz2014gwgf   0.43720
gfz2014gxvf   0.29000
gfz2014hcmj   0.70360
gfz2014hvdm  -0.01400
gfz2014hyal   0.58080
gfz2014hzhe   0.17710
gfz2014hzze  -0.84320
gfz2014ieho  -0.50910
gfz2014jdoy  -0.76840
gfz2014jipr   0.01650
gfz2014jmnk  -0.61000
gfz2014jpep   0.11550
gfz2014jpfn  -1.95190
gfz2014jpxs  -0.25330
gfz2014jtcz  -0.37650
gfz2014jtfe  -0.06640
gfz2014jvow   0.01760
gfz2014jysj   0.42300
gfz2014kbwm   0.02310
gfz2014khlk  -0.69020
gfz2014kitm   0.03060
gfz2014kjjq   1.20460
gfz2014kndc   1.16250
gfz2014ksdv   0.38660
gfz2014kssw   0.03490
gfz2014lbcq   0.14130
gfz2014lbxn  -0.11550
gfz2014ldhu   0.62990
gfz2014lefs   1.23930
gfz2014lmge  -0.40620
gfz2014lxnc   0.96090
gfz2014lxqr   0.21800
gfz2014lyhp  -0.44160
gfz2014lzal  -1.77710
gfz2014mawp  -0.16450
gfz2014mden   0.91300
gfz2014mhgg  -1.24300
gfz2014moaw   0.80380
gfz2014mogb  -0.07370
gfz2014mrbm  -0.06000
gfz2014mvza  -0.14440
gfz2014mxkr   0.31230
gfz2014myqz   0.49230
gfz2014ncub   0.17650
gfz2014ndue   0.13760
gfz2014ngvt   0.44270
gfz2014nkdx  -0.09090
gfz2014nnih   0.12860
gfz2014nqbs   0.32490
gfz2014nylm  -0.43100
gfz2014oims   0.05480
gfz2014okec   0.51780
gfz2014okxu   0.17820
gfz2014omyn  -0.67600
gfz2014opqr  -0.46990
gfz2014orgz   0.15050
gfz2014osvz  -0.24140
gfz2014pghi   0.01350
gfz2014pjum   0.44850
gfz2014pngj   0.46150
gfz2014ppyi  -0.01910
gfz2014qbzi   0.61160
gfz2014qdog   1.32970
gfz2014qjfl   0.33270
gfz2014qjgp   0.29530
gfz2014qlvc   0.53130
gfz2014qsby   0.05390
gfz2014raau  -0.76620
gfz2014rcyx   0.25700
gfz2014rfeb  -0.12310
gfz2014rils  -1.70240
gfz2014rkwl   0.45810
gfz2014roba  -1.23820
gfz2014uvrk  -0.07720
gfz2014vnxu  -0.01600
gfz2014wrkh   0.26640
gfz2014yula   0.18410
gfz2015cxxk  -0.64430
gfz2015dadj  -0.95090
gfz2015ednc  -0.10270
gfz2015eiky   0.27310
gfz2015elgy  -0.12100
gfz2015eljz   0.98260
gfz2015emin   0.51600
gfz2015enth  -0.23580
gfz2015etai   0.85790
gfz2015fcua  -0.53860
gfz2015fjhk   2.12110
gfz2015fkgt  -0.27990
gfz2015fwkq   0.22150
gfz2015fwnf  -0.29850
gfz2015gwao   0.30490
gfz2015gzja  -0.27060
gfz2015hepg   0.26210
gfz2015hgbk   0.49930
gfz2015kfsu   0.12140
gfz2015kxxs  -0.14900
gfz2015lcuo   0.15850
gfz2015lytv   1.32000
gfz2015mhym  -0.49780
gfz2015micz  -0.22110
gfz2015mxcu  -2.27740
gfz2015ntpk   0.52610
gfz2015ocdz   1.23330
gfz2015ojut   0.54730
gfz2015pdri  -0.36360
gfz2015pgxa  -0.41150
gfz2015pjgr   0.14610
gfz2015puah   0.52630
gfz2015qiit   0.07630
gfz2015qisx  -1.89300
gfz2015qnho  -0.03340
gfz2015rnis   0.00000
gfz2015saet   0.74390
gfz2015sfkh  -0.42010
gfz2015sfko   0.04480
gfz2015sfks   0.08560
gfz2015sfmd   1.75400
gfz2015sfpj  -0.27150
gfz2015sfrf  -0.30690
gfz2015sftu  -0.22470
gfz2015sfwf   0.55410
gfz2015sfxn   0.18800
gfz2015sgdj  -1.38580
gfz2015sgdn   0.32610
gfz2015sgmm  -0.30480
gfz2015sgoa   0.64850
gfz2015sgpu   0.05430
gfz2015sgyd   0.81540
gfz2015shel   0.17800
gfz2015shlp  -0.01470
gfz2015shov   0.34790
gfz2015shrg  -0.77200
gfz2015shsb   0.13440
gfz2015shsz  -0.09840
gfz2015sicu   1.05530
gfz2015siem   0.43680
gfz2015sixs   0.19150
gfz2015siyy   0.68870
gfz2015sjbx   0.17340
gfz2015sjtz   0.14130
gfz2015sjwi  -0.03720
gfz2015skab   0.17730
gfz2015skia  -0.72880
gfz2015sklu   1.20880
gfz2015snwh  -0.38560
gfz2015soxc   0.25380
gfz2015spal  -0.06880
gfz2015spxh   0.13900
gfz2015sqoz   0.41630
gfz2015sqwv  -0.48930
gfz2015srgf   0.21340
gfz2015ssoe   0.19800
gfz2015sspn   0.05120
gfz2015ssrl   0.18280
gfz2015stcv   0.17630
gfz2015stso  -0.25990
gfz2015subg   0.23950
gfz2015sunp   0.28240
gfz2015supa   0.36510
gfz2015svwm   1.37750
gfz2015sxgd  -1.16390
gfz2015sxmh   1.47710
gfz2015szcb  -0.24730
gfz2015tbdn  -1.47560
gfz2015tbje   0.48510
gfz2015tbxe   0.61120
gfz2015tcem   0.73720
gfz2015tdbb   0.27700
gfz2015tdcu   0.46470
gfz2015tdhb  -0.03920
gfz2015teje  -0.06170
