# Nsamples: 62  MAD:  0.786  mean: -0.231  variance:  0.825
gfz2010bjeb   0.16020
gfz2010cqwl  -0.15160
gfz2010eaoy  -1.63910
gfz2010eazu  -1.72210
gfz2010ecua  -0.65810
gfz2010edcp  -1.95810
gfz2010eeij  -1.38180
gfz2010eisx   0.30740
gfz2010ekyc   0.16370
gfz2010eltf  -0.47420
gfz2010elyc  -1.11470
gfz2010excp  -1.20410
gfz2010exdd   0.92860
gfz2010ffhq  -1.04410
gfz2010fync   1.78540
gfz2010gcdn  -1.33540
gfz2010iull   0.30060
gfz2010nmpc  -0.40970
gfz2010nwef  -0.01840
gfz2010qpvi  -0.60370
gfz2010rqwj  -0.66130
gfz2010usho   0.68150
gfz2010yjev   0.40790
gfz2011aatr  -0.04210
gfz2011adjs  -1.27910
gfz2011cykd  -0.07370
gfz2011enva   2.25570
gfz2011gkzt  -0.25070
gfz2011hlsa  -0.01560
gfz2011lcxq   0.89410
gfz2011lzwj   0.16950
gfz2011mdie  -1.12850
gfz2011owvz   0.63860
gfz2011pdpt   1.11610
gfz2011rewa  -0.41720
gfz2011toub   0.16760
gfz2011vhfi  -1.70830
gfz2011vrhg  -0.29300
gfz2011wxfs   0.67800
gfz2011xyxj   0.08210
gfz2012bpkx  -1.20280
gfz2012enno  -0.26520
gfz2012fzfa  -2.01410
gfz2012hnul  -2.30630
gfz2012jlox   0.59790
gfz2012kkup  -0.74580
gfz2012klhx  -0.58710
gfz2012kudo   0.05190
gfz2012ldxg   0.85910
gfz2012minr  -0.05980
gfz2012teic  -0.25190
gfz2012ttoa  -0.30450
gfz2012tvmv  -0.70460
gfz2012wxlg   0.97350
gfz2012wypz  -0.02520
gfz2013ccnr  -0.15450
gfz2013drxz  -0.16990
gfz2013jkut   0.73240
gfz2013ldqb   0.25900
gfz2013nkgj   0.72960
gfz2013nwdi   0.12350
gfz2013qmer  -1.01250
