# Nsamples: 45  MAD:  0.757  mean: -0.199  variance:  1.207
gfz2010bjeb  -0.54960
gfz2010cqwl  -0.14420
gfz2010czps  -0.92210
gfz2010eaoy  -2.08820
gfz2010ecua  -0.46010
gfz2010eisx  -0.81910
gfz2010ekyc   0.26180
gfz2010eltf   1.01820
gfz2010elyc  -0.23560
gfz2010excp  -1.21340
gfz2010exdd   1.22140
gfz2010ffhq  -3.06950
gfz2010fync   0.12910
gfz2010grjd  -0.41940
gfz2010iull   0.38780
gfz2010mkuu   0.03870
gfz2010nlkh   0.36630
gfz2010nmpc   0.36470
gfz2010nqwo  -0.50820
gfz2010nwef  -0.75720
gfz2010onma  -0.63140
gfz2010rqwj   0.34850
gfz2010usho  -0.15500
gfz2010ustq  -1.52480
gfz2011aatr  -0.54770
gfz2011adjs  -0.95410
gfz2011cykd   0.50720
gfz2011dpqx  -1.07990
gfz2011enva   0.12850
gfz2011gkzt  -1.72220
gfz2011hlqw   1.48810
gfz2011hlsa  -0.56550
gfz2011jplh  -0.12910
gfz2011lcxq   1.25340
gfz2011lzwj   0.03700
gfz2011mdie  -0.03760
gfz2011nrwv   3.76650
gfz2011owvz  -0.47150
gfz2011qvae   0.26620
gfz2011rewa  -0.78110
gfz2011toub  -0.11350
gfz2011vhfi  -2.42500
gfz2011vrhg   0.70000
gfz2011wxfs   0.64710
gfz2011xyxj   0.43750
