# Nsamples: 45  MAD:  1.034  mean:  0.486  variance:  1.621
gfz2010bpda  -0.58330
gfz2010czps   0.66470
gfz2010eaoy   0.15050
gfz2010earu  -1.23170
gfz2010eaxa   0.70030
gfz2010eayx  -0.77680
gfz2010ekyc   2.27120
gfz2010eltf   0.14540
gfz2010excp   0.41860
gfz2010fync   0.32480
gfz2010nmpc   1.52000
gfz2010phvg   1.76040
gfz2010rqwj  -0.57390
gfz2011aatr   0.80640
gfz2011dbig   0.96610
gfz2011dcqb   0.63190
gfz2011enva   2.19850
gfz2011rewa   0.69380
gfz2011sawg  -4.58960
gfz2011wxfs   2.15930
gfz2012cgvr  -0.11760
gfz2012kkup   0.05900
gfz2012wklq   0.84920
gfz2012wypz   2.08930
gfz2013axoj   0.90850
gfz2013dnnx  -0.21530
gfz2013geno  -0.19180
gfz2013ornz  -0.63150
gfz2013ufxk   0.84330
gfz2013vdic   0.01000
gfz2013yulx  -0.65470
gfz2014bwue   2.11990
gfz2014ccbz   0.13100
gfz2014fedd  -0.39850
gfz2014fgvi   2.44240
gfz2014gkgf  -0.28450
gfz2014gmhr   0.89510
gfz2014jpez   0.61710
gfz2014nqbs  -0.38450
gfz2015chhn   0.48230
gfz2015cyjd   3.16180
gfz2015fcua   1.28610
gfz2015lytv   0.38210
gfz2015ojut  -1.00790
gfz2015sfdd   1.81600
