# Nsamples: 557  MAD:  0.518  mean: -0.069  variance:  0.594
gfz2010aerk   0.02720
gfz2010ahqi  -1.22410
gfz2010bfzs   0.52230
gfz2010bgth  -0.01810
gfz2010bhhq  -0.69920
gfz2010bifb  -2.96540
gfz2010bjeb  -0.67510
gfz2010bjjx   0.31740
gfz2010bjsl  -3.48140
gfz2010bkob   0.02170
gfz2010bowy  -1.45970
gfz2010bxxs  -0.90100
gfz2010caft  -0.08000
gfz2010cbkg   0.38600
gfz2010civi  -1.14360
gfz2010cjqh   0.14940
gfz2010cqwl  -0.06100
gfz2010ctuw  -0.13510
gfz2010czps  -0.03570
gfz2010dejx   0.31210
gfz2010diqn   0.61310
gfz2010dlgc  -0.18730
gfz2010eaoy   0.03680
gfz2010eapk  -1.26540
gfz2010eapn   0.86180
gfz2010eaqe  -0.77990
gfz2010eaqx   0.04530
gfz2010eaqy  -0.11810
gfz2010earq   0.15810
gfz2010earu  -0.79110
gfz2010easo  -0.36560
gfz2010easu  -0.33630
gfz2010eato   0.21330
gfz2010eatt   1.54630
gfz2010eaty   0.53000
gfz2010eaul  -0.47590
gfz2010eavp   0.54850
gfz2010eavs   0.24090
gfz2010eawb  -0.93990
gfz2010eawu   0.13980
gfz2010eaxa  -0.08150
gfz2010eayx  -0.76920
gfz2010eaze  -0.86910
gfz2010eazu   1.02140
gfz2010ebbd  -0.28410
gfz2010ebdl   0.03910
gfz2010ebek   0.47800
gfz2010ebhc  -1.08160
gfz2010ebla   0.35480
gfz2010ebmb  -1.14510
gfz2010ebnn  -0.52100
gfz2010ebvm   0.67930
gfz2010ebwp  -0.23840
gfz2010ebzr  -0.08790
gfz2010ecam  -0.14550
gfz2010ecay  -0.41060
gfz2010eced   0.06720
gfz2010echc   0.59830
gfz2010ecns   0.46950
gfz2010ecps   0.38130
gfz2010ecua   0.13460
gfz2010ecuv  -0.55710
gfz2010ecvt   0.77000
gfz2010edat   0.38880
gfz2010eday  -0.14560
gfz2010edbz  -0.30410
gfz2010edcp   4.73870
gfz2010edpb   0.34190
gfz2010edsk  -0.25450
gfz2010edvf  -0.07770
gfz2010edyi  -0.93320
gfz2010edzb  -0.58410
gfz2010eedu   0.22460
gfz2010eedz  -0.38000
gfz2010eeij  -0.92830
gfz2010eekq   0.10500
gfz2010eerh  -0.20660
gfz2010eern   0.98770
gfz2010eevu  -0.36310
gfz2010egld  -0.26800
gfz2010ehft   0.73830
gfz2010ehnm   0.38030
gfz2010eltf  -0.17670
gfz2010elvp  -0.68070
gfz2010elyc   0.70130
gfz2010epbe  -0.26170
gfz2010epxj   0.69500
gfz2010eqmu   1.90040
gfz2010erkn   0.24020
gfz2010erna  -0.70630
gfz2010erom   0.12940
gfz2010erum   6.00640
gfz2010eruy  -0.28570
gfz2010erwn  -0.41660
gfz2010erxb  -0.81600
gfz2010eryg  -1.59870
gfz2010eujm  -0.15110
gfz2010evco   1.48890
gfz2010ewvc  -0.43370
gfz2010excp   0.09100
gfz2010exdd  -0.07340
gfz2010exel   0.55320
gfz2010exgb  -0.15340
gfz2010exhw   0.01280
gfz2010exmc   0.28380
gfz2010exno   0.20400
gfz2010exsg   0.06340
gfz2010eymr   0.13280
gfz2010eymx  -0.89720
gfz2010eyqe  -1.31730
gfz2010eyvq  -0.60220
gfz2010ezck  -0.13040
gfz2010fcax  -0.38850
gfz2010fciw  -0.06720
gfz2010fczt  -0.05750
gfz2010fedq   0.29910
gfz2010ffhq  -0.02680
gfz2010ffjb   0.25890
gfz2010fika   0.18620
gfz2010fjas  -0.40000
gfz2010flrt   0.38060
gfz2010flxi   0.21490
gfz2010fobc  -0.02130
gfz2010fona  -1.29810
gfz2010fpqy  -0.32670
gfz2010fser   0.69280
gfz2010ftlm  -0.61320
gfz2010fuuy   0.17950
gfz2010fwpv   0.13990
gfz2010fyen   0.40350
gfz2010fync   0.40710
gfz2010gcdn   0.76790
gfz2010gcrl  -0.17720
gfz2010gcrp   0.48730
gfz2010gjia   0.62800
gfz2010glqr  -0.00000
gfz2010glxl   0.15020
gfz2010gslu  -0.36200
gfz2010gyqp  -0.19550
gfz2010gzxr  -1.12480
gfz2010hbka  -0.35450
gfz2010hcio  -0.41390
gfz2010hlmq  -0.06130
gfz2010hnnf  -0.08780
gfz2010homc  -1.96750
gfz2010hptz  -0.15580
gfz2010hrkr  -0.13050
gfz2010hrpr  -0.79320
gfz2010hufk  -0.23420
gfz2010hxgv  -0.31210
gfz2010ibiy   0.08250
gfz2010icqq   0.05040
gfz2010iobp   0.38200
gfz2010iqnm  -0.36010
gfz2010irqr   0.71830
gfz2010irvf   0.13640
gfz2010itpb   0.07260
gfz2010iull  -0.18310
gfz2010izzj   0.04050
gfz2010jkxj  -2.08570
gfz2010jxbm   0.57250
gfz2010kcoo   0.38190
gfz2010kdyc   0.31290
gfz2010kihf   1.66670
gfz2010kmgg  -0.30530
gfz2010lepw   0.95230
gfz2010liqs   1.52300
gfz2010lkcf   0.59840
gfz2010mant   0.02850
gfz2010mkuu  -0.07030
gfz2010moyw   0.05220
gfz2010nnny  -0.14830
gfz2010nqwf  -2.45450
gfz2010nqwo   0.47300
gfz2010nrjo   1.62490
gfz2010nsck  -0.15660
gfz2010nsdf   1.05990
gfz2010nsjs  -0.34410
gfz2010ntuo   0.00000
gfz2010nwef   0.39830
gfz2010nxsy   0.49460
gfz2010nxum  -0.76010
gfz2010odpb   0.36270
gfz2010oedn  -0.33390
gfz2010okdm   0.02120
gfz2010onma  -0.10500
gfz2010osjs  -0.06760
gfz2010otbn   0.42010
gfz2010pcxi  -0.09130
gfz2010pfyu  -0.39490
gfz2010plbg  -0.93300
gfz2010pmqd   0.42450
gfz2010pxgh  -2.34200
gfz2010qjst   0.45820
gfz2010qpvi  -0.26970
gfz2010rkfp   0.00000
gfz2010rqwj  -0.32230
gfz2010sfee   0.37970
gfz2010srdb  -0.17550
gfz2010szde  -0.17300
gfz2010szim  -0.22640
gfz2010txjs  -0.38470
gfz2010upfb   0.65910
gfz2010usho   1.82110
gfz2010ustq  -0.30840
gfz2010utcg   0.95350
gfz2010veri   0.36360
gfz2010wioh  -0.30230
gfz2010yjev   0.59110
gfz2011aatr  -0.88630
gfz2011adjs  -0.45440
gfz2011ahfw  -0.67110
gfz2011alip   0.09530
gfz2011bgrp   0.19070
gfz2011bhha   0.38730
gfz2011blsi   3.58610
gfz2011bnzn  -2.46800
gfz2011ccpw   0.08980
gfz2011csju  -0.41450
gfz2011cykd  -0.50460
gfz2011cyre   1.06560
gfz2011dbev   0.52960
gfz2011dbig   0.45240
gfz2011dbon  -0.07460
gfz2011dcqb  -0.50190
gfz2011dcqf  -0.23050
gfz2011dlyx  -0.53650
gfz2011dpqx  -0.98620
gfz2011eayc   0.10810
gfz2011eazf  -0.40370
gfz2011ecaj   0.00000
gfz2011ehzq   0.27400
gfz2011enva  -0.22060
gfz2011etje  -0.12780
gfz2011fgvr   1.20330
gfz2011gbmx   0.39860
gfz2011gcwb   0.27420
gfz2011gkzt  -0.68890
gfz2011gzbr  -0.18520
gfz2011hfkj  -0.15360
gfz2011hlqw  -0.88480
gfz2011hlsa  -0.82340
gfz2011hpgx  -0.55190
gfz2011hpqp   0.32060
gfz2011ieie   0.86510
gfz2011izqa  -0.24060
gfz2011jmbn  -0.06230
gfz2011jnmi   0.55070
gfz2011jplh  -0.97050
gfz2011kqwo   2.29140
gfz2011kxzp  -0.55330
gfz2011lcxq   0.43700
gfz2011lvjr   0.13450
gfz2011mdie  -0.64710
gfz2011mpme   0.73570
gfz2011myia   0.20870
gfz2011necz   0.97120
gfz2011phms   0.19560
gfz2011ptus  -1.48160
gfz2011qvae  -0.62570
gfz2011rsrh   0.19620
gfz2011sagt  -0.07490
gfz2011uphh   0.18150
gfz2011urxy   0.96520
gfz2011vhfi  -0.27410
gfz2011vldk  -0.21920
gfz2011wwjs   0.27200
gfz2011wxfs  -1.06780
gfz2011wxtk  -0.82400
gfz2011xaan  -0.52530
gfz2011xyxj   0.93310
gfz2012bfah   2.32790
gfz2012bfyn   1.16940
gfz2012bngd  -0.80800
gfz2012bpkx  -0.29750
gfz2012bpwl  -0.33780
gfz2012byad   0.09530
gfz2012cevz  -0.27290
gfz2012covm   0.38340
gfz2012cxdn   0.53270
gfz2012dinb  -0.05880
gfz2012dyyh   0.34260
gfz2012ekda   0.02150
gfz2012enno  -0.79270
gfz2012ewgo   0.25240
gfz2012fwfo   0.06840
gfz2012fzfa  -1.56420
gfz2012fzsq  -1.75370
gfz2012glss   0.59610
gfz2012hnul  -0.54510
gfz2012hnuw  -0.97060
gfz2012ihdl  -0.05410
gfz2012ilvn  -0.15360
gfz2012intn   0.41150
gfz2012jgvj  -1.19100
gfz2012jlox  -0.17280
gfz2012jupx  -0.52240
gfz2012kudo  -1.06880
gfz2012lczo  -0.37000
gfz2012ldxg   0.04500
gfz2012ldzj   0.89290
gfz2012llug  -0.57520
gfz2012rjsd   0.02000
gfz2012rwov  -0.30920
gfz2012rypu  -0.03110
gfz2012sjea   0.82870
gfz2012spbj  -0.41500
gfz2012syvl   0.33210
gfz2012teic  -0.00000
gfz2012thfx   0.40180
gfz2012ttoa   0.31040
gfz2012tvmv   0.43340
gfz2012tzcc   0.00800
gfz2012uafg   0.21810
gfz2012uaqj  -1.12160
gfz2012uhup  -0.23260
gfz2012ulpd  -0.11080
gfz2012uzyj   0.15290
gfz2012vrgb  -0.30820
gfz2012wklq   0.35160
gfz2012wmkd  -0.75710
gfz2012wmsg  -0.62610
gfz2012wtkr   0.40150
gfz2012wvfl   0.07760
gfz2012wxer   0.69450
gfz2012wxlg  -0.13380
gfz2012wxnu  -0.13170
gfz2012wypz  -0.97990
gfz2012xyqp  -0.56870
gfz2012zemz  -0.45070
gfz2012zitl  -0.00000
gfz2012zmbp  -1.22980
gfz2012zmln  -0.15090
gfz2013aahq  -0.18910
gfz2013axoj   0.14580
gfz2013ccnr   0.35680
gfz2013cvqg   0.28600
gfz2013cwpn  -0.22630
gfz2013dkly   0.42190
gfz2013dofo  -0.90110
gfz2013drxz  -1.12320
gfz2013fkcl   0.52260
gfz2013gvdb   0.72770
gfz2013gvex   0.11840
gfz2013huwr  -0.21500
gfz2013ifpq   1.23810
gfz2013ijsr   0.44300
gfz2013ikgo   0.15730
gfz2013jesk   1.49450
gfz2013jgij   0.94250
gfz2013jgip  -0.43900
gfz2013jkut   0.08060
gfz2013lajn   0.01740
gfz2013lbiu   0.29140
gfz2013lixa  -0.21340
gfz2013lmrs  -0.48890
gfz2013lwbk   0.29470
gfz2013lyko   0.61110
gfz2013mvgr  -1.27430
gfz2013mwbh   0.68480
gfz2013ncjp   0.05610
gfz2013neuc  -0.69110
gfz2013nfwx  -0.37590
gfz2013nixj   0.55060
gfz2013nkgj   0.14920
gfz2013nnzf   0.09630
gfz2013nqgw   0.44650
gfz2013nvdj  -1.58480
gfz2013nwdi  -0.30550
gfz2013ozrf  -1.46740
gfz2013ozrp   0.20490
gfz2013pfbx   0.81140
gfz2013pxsj   0.64300
gfz2013qali   0.38390
gfz2013qmer  -0.37040
gfz2013qzdq  -1.07390
gfz2013skkm   0.39570
gfz2013stht   0.12040
gfz2013svci   0.43390
gfz2013tcbk  -0.36130
gfz2013tcxc  -1.14160
gfz2013tcxq  -1.44280
gfz2013tlaf  -1.07400
gfz2013tusd   0.00000
gfz2013tvmw   0.32420
gfz2013tyas  -2.44330
gfz2013ugax   0.09710
gfz2013vfyw  -0.27950
gfz2013vfzp   0.39550
gfz2013vjjc  -0.89300
gfz2013wjmm   0.14370
gfz2013wmfd  -1.30070
gfz2013wnpr   0.06880
gfz2013xmqg   0.50140
gfz2013xpsm  -1.98180
gfz2013xsdt   0.16540
gfz2013xvqd   0.28250
gfz2013xvxf  -0.15290
gfz2013xwda   0.30210
gfz2013xxwv  -0.10830
gfz2013xxxq  -0.10280
gfz2013xyzb   0.49980
gfz2013yctg   0.00290
gfz2013yqkv  -0.15610
gfz2013zmoc  -0.44370
gfz2014adoj  -0.03830
gfz2014algk   0.11310
gfz2014arpf  -1.04640
gfz2014arqr  -0.97650
gfz2014arsr   0.73080
gfz2014bagd   0.04410
gfz2014bekc  -0.76960
gfz2014bldx  -0.13570
gfz2014cmwb  -0.08710
gfz2014cvkm  -0.33040
gfz2014czno   0.41600
gfz2014czol   0.29190
gfz2014czqi   0.10200
gfz2014czua  -0.21930
gfz2014dddc   1.11340
gfz2014dffd   0.04980
gfz2014ebmc   0.45820
gfz2014ekcr   0.38560
gfz2014ekdt   0.07970
gfz2014enhi   0.44170
gfz2014ettc  -0.95050
gfz2014ezgb   0.00000
gfz2014femz  -0.32240
gfz2014fgvi   0.01070
gfz2014fhla  -0.68090
gfz2014fjxd   0.36750
gfz2014fkmr   0.43790
gfz2014fkmx   0.30530
gfz2014fknp  -0.70220
gfz2014flfa   0.19850
gfz2014frdz   0.14460
gfz2014frel   1.39930
gfz2014frez   0.03100
gfz2014ftka   0.23680
gfz2014fvaa  -0.58690
gfz2014fval   0.08350
gfz2014fvjl  -0.15980
gfz2014fvrg  -0.46020
gfz2014gbcz  -0.25370
gfz2014gbdq   0.02130
gfz2014ghpe   0.36280
gfz2014gkgf  -0.60540
gfz2014gkgs  -0.49430
gfz2014gkok   0.02040
gfz2014gkqf  -0.05330
gfz2014gktq  -1.85160
gfz2014gmge  -0.24080
gfz2014gmhr  -0.71310
gfz2014gmnb   0.85860
gfz2014gmnw   0.28690
gfz2014gmuw   0.34950
gfz2014goba   0.54510
gfz2014gpya  -0.90280
gfz2014gull   0.17790
gfz2014hbqb  -0.15850
gfz2014hfhl   0.25710
gfz2014hgqo   0.38240
gfz2014hjgr   0.56100
gfz2014hocg  -0.75170
gfz2014hqxs   1.25360
gfz2014hscz  -0.19840
gfz2014huaj   0.12680
gfz2014hyvq   0.63200
gfz2014hzdy  -0.24190
gfz2014hzfw  -0.09690
gfz2014hzgn  -0.68180
gfz2014icqt  -0.33700
gfz2014inbj  -0.99890
gfz2014itfc   0.16890
gfz2014itjx  -0.47690
gfz2014itkw   0.28400
gfz2014itpj  -1.01250
gfz2014jjhc   0.41250
gfz2014jwmh   0.49600
gfz2014kara  -0.37590
gfz2014kbuk   0.19190
gfz2014kndc   0.02380
gfz2014knks   0.55680
gfz2014ksdv   0.00000
gfz2014lddn  -1.44930
gfz2014lefs  -0.07120
gfz2014lgqn  -0.09150
gfz2014lkyf  -0.08270
gfz2014lxnc  -0.23350
gfz2014lyhk   0.31450
gfz2014lyhp  -0.35100
gfz2014lynp   0.37950
gfz2014macx  -0.19730
gfz2014madw  -1.09820
gfz2014mhgg  -0.65700
gfz2014nkdx  -0.25830
gfz2014nowp   0.24840
gfz2014npdk  -1.02380
gfz2014npeo   0.43980
gfz2014nqfm   0.17140
gfz2014nrie  -0.36170
gfz2014ntdh  -0.03260
gfz2014oinz   0.25710
gfz2014owxc   0.49400
gfz2014oxcc   0.42090
gfz2014oyly  -0.23510
gfz2014pkll   0.54460
gfz2014ppzf   0.26100
gfz2014pvch   0.10450
gfz2014qlxd  -0.01440
gfz2014qngj   0.01860
gfz2014qqhm  -0.45230
gfz2014rbsl  -0.74570
gfz2014ssmv   0.10330
gfz2014ssvz  -0.03880
gfz2014szzf   0.11360
gfz2014tovs  -1.75830
gfz2014tqdo   0.12280
gfz2014ubwn  -1.44900
gfz2014uvji  -1.01240
gfz2014vhld  -1.04970
gfz2014vhms  -0.58580
gfz2014watn  -0.32620
gfz2014wmsc   0.55050
gfz2014xbyr  -0.14400
gfz2014xqqd  -1.71730
gfz2014yula  -0.30830
gfz2014zlgp   0.25030
gfz2015alzx  -0.46510
gfz2015apnk  -0.16920
gfz2015aruz  -0.89470
gfz2015berb  -1.16720
gfz2015bucr  -0.35600
gfz2015chhn  -0.84020
gfz2015chqn   0.16780
gfz2015cxhx   0.05530
gfz2015cxrc  -0.34100
gfz2015cxxk  -0.09900
gfz2015cyjd   0.65110
gfz2015dizn  -1.26520
gfz2015dvbn   0.07080
gfz2015egxq   0.05910
gfz2015eiky   0.63100
gfz2015elgy   0.04100
gfz2015eljz  -0.10840
gfz2015emtg   0.67520
gfz2015etai  -0.03790
gfz2015eyqs  -0.24260
gfz2015fcua   0.07470
gfz2015fjhk   0.13070
gfz2015fkbc  -0.13590
gfz2015fkgt  -0.71440
gfz2015fkic   0.26710
gfz2015fsjj   0.13680
gfz2015fxdi  -0.14570
gfz2015gckd   0.20660
gfz2015gkwa   0.00380
