# Nsamples: 23  MAD:  0.603  mean: -0.144  variance:  3.208
gfz2010iull  -0.29170
gfz2010nmpc   0.42750
gfz2011lcxq  -0.42160
gfz2011lzwj   0.23820
gfz2011rewa   0.64180
gfz2011toub   0.23640
gfz2011wxfs  -0.37820
gfz2012enno  -0.02550
gfz2012jlox  -0.21160
gfz2012kudo   0.11180
gfz2012ldxg  -0.77400
gfz2012wypz   0.03670
gfz2013yzte   3.19440
gfz2014afmx  -4.80850
gfz2014ande  -0.70950
gfz2014bwue   0.06470
gfz2014fgvi  -0.55720
gfz2014gkqf  -4.96470
gfz2014gmnb   0.08570
gfz2014ssvz  -0.36990
gfz2014uapa   3.26810
gfz2015cyjd   1.68390
gfz2015lhjy   0.20430
