# Nsamples: 98  MAD:  1.183  mean: -0.424  variance:  1.549
gfz2010czps  -1.03870
gfz2010eaoy   0.12280
gfz2010eapk  -0.04310
gfz2010eaqe  -0.26240
gfz2010eaqy  -0.59790
gfz2010earq  -1.77280
gfz2010earu  -0.61620
gfz2010easf  -1.06940
gfz2010easo  -0.64010
gfz2010easu  -0.59620
gfz2010eaty   0.34420
gfz2010eavs   1.91340
gfz2010eawb  -1.72320
gfz2010eawu   0.70390
gfz2010eaya   0.00000
gfz2010eayx   0.11330
gfz2010ebhc  -1.56330
gfz2010ebnn  -0.06150
gfz2010ebvm  -3.33830
gfz2010ebvv  -1.47720
gfz2010ebwp   0.07970
gfz2010ecua  -0.02430
gfz2010edyi   5.72330
gfz2010eisx   1.16170
gfz2010ejjg   0.54140
gfz2010eltf  -0.72600
gfz2010elyc   0.49140
gfz2010evco   0.96550
gfz2010excp   0.28960
gfz2010exdd   0.14000
gfz2010exdl  -0.54950
gfz2010exno   0.66660
gfz2010ezck   0.29420
gfz2010gcrl   0.17370
gfz2010gcrp  -0.28330
gfz2010gdld  -0.81860
gfz2010grjd  -2.34300
gfz2010rqwj  -0.38660
gfz2011aatr  -1.59680
gfz2011adjs  -0.60930
gfz2011cykd   0.31120
gfz2011dbig  -0.27310
gfz2011hfkj  -0.34350
gfz2011hlsa  -0.84440
gfz2011kxzp  -0.45440
gfz2011lcxq  -2.15270
gfz2011nudm  -0.28440
gfz2011rewa  -1.09090
gfz2011vxns  -0.53410
gfz2011wxfs  -0.77390
gfz2012enno  -0.68110
gfz2012fzfa   0.73820
gfz2012hnul   1.15120
gfz2012jlox  -2.44300
gfz2012kudo  -0.73110
gfz2013jusj   1.83710
gfz2013nwdi   0.93890
gfz2013pfbx  -2.92900
gfz2013svci  -0.72010
gfz2013vjjc   0.36060
gfz2013xxxq   1.72330
gfz2014bwue  -0.16200
gfz2014fgvi  -2.58790
gfz2014fhla   1.91340
gfz2014ftka  -1.64490
gfz2014gkgf  -1.21150
gfz2014gkgs  -0.93170
gfz2014gkqf  -1.94940
gfz2014gmge   0.42140
gfz2014gmhr  -2.14690
gfz2014gmnb  -1.55210
gfz2014gmnw  -1.05550
gfz2014goba  -1.78430
gfz2014hasj  -1.43900
gfz2014qngj  -1.62250
gfz2014ssvz   0.22710
gfz2015cyjd   1.09730
gfz2015fjhk  -1.38370
gfz2015fsjj  -1.84090
gfz2015lytv  -0.75640
gfz2015sfdd  -0.98820
gfz2015sfdy  -0.99030
gfz2015sfiq   0.36800
gfz2015sfnb   1.13380
gfz2015sfno  -0.00410
gfz2015sggc   0.44110
gfz2015shov  -1.46070
gfz2015shsz  -0.67400
gfz2015sjgk  -0.33140
gfz2015sjoj  -1.14680
gfz2015sjvu   1.34160
gfz2015snwh  -1.84920
gfz2015snyd  -0.43630
gfz2015soat  -1.02760
gfz2015soxc  -1.36810
gfz2015srgf  -0.58650
gfz2015svwm  -0.65540
gfz2015teje   0.72200
