# Nsamples: 229  MAD:  0.689  mean: -0.121  variance:  1.103
gfz2010czps   0.26340
gfz2010dejx  -1.30320
gfz2010dlgc  -2.05600
gfz2010eaoy   0.45210
gfz2010eapk   0.72930
gfz2010eaqe   0.09530
gfz2010eaqy  -0.31390
gfz2010earu   1.19200
gfz2010easf  -0.23560
gfz2010easo  -0.35470
gfz2010eawb  -0.95190
gfz2010eawu   1.08700
gfz2010eaya  -0.15130
gfz2010eayx   1.47010
gfz2010ebfa  -0.83750
gfz2010ebhc  -0.86600
gfz2010ebiv   3.13840
gfz2010ebll  -0.48580
gfz2010ebnn  -0.82700
gfz2010ebvv  -0.64620
gfz2010ebwp   0.83410
gfz2010ebzr  -0.08670
gfz2010ecua   0.30380
gfz2010edyi   6.03660
gfz2010eegn   0.08150
gfz2010eeij  -2.62020
gfz2010eell  -0.51050
gfz2010eevu   0.00380
gfz2010ehft  -0.82570
gfz2010eisx  -0.97320
gfz2010ejjg  -0.21680
gfz2010elhv   1.12810
gfz2010elyc  -0.18400
gfz2010erkn  -2.50970
gfz2010erom  -0.05110
gfz2010eruy  -0.18510
gfz2010evco   0.68150
gfz2010excp   0.23960
gfz2010exdd  -0.56040
gfz2010exdl   0.09500
gfz2010exno  -1.07540
gfz2010ezck   0.65370
gfz2010fqdu  -0.02910
gfz2010fwzd   0.06390
gfz2010fync  -0.59100
gfz2010gdld  -0.56090
gfz2010grjd  -0.25240
gfz2010homc  -1.60270
gfz2010hxgv  -0.55770
gfz2010hxhe  -0.63980
gfz2010iobp   0.99440
gfz2010iull   0.20130
gfz2010lepw  -1.31190
gfz2010nmpc  -0.51820
gfz2010nnny  -0.65160
gfz2010nqwo   1.00750
gfz2010qpvi  -0.94860
gfz2010rqwj  -0.15470
gfz2010sfee   0.63360
gfz2010urlq  -0.98290
gfz2010usho  -0.63790
gfz2010vbmd   1.30050
gfz2010vxvs  -1.70310
gfz2010xden   0.28020
gfz2011aatr  -1.00170
gfz2011adjs   1.25570
gfz2011cykd   0.22660
gfz2011dbig  -1.30930
gfz2011dcqb  -0.73770
gfz2011enva  -0.58960
gfz2011eocc   4.25610
gfz2011gbmx  -0.09910
gfz2011hfkj   0.85730
gfz2011hlsa  -0.62660
gfz2011hpqp   0.58350
gfz2011ixai  -1.20410
gfz2011jplh  -1.01920
gfz2011kxzp  -0.70490
gfz2011lcxq  -0.24800
gfz2011mdie  -1.88650
gfz2011mjom  -0.20760
gfz2011nrwc  -0.70390
gfz2011nrwv  -0.10510
gfz2011nsex  -0.76220
gfz2011ntkh  -0.71160
gfz2011nudm   0.10280
gfz2011ornx   0.41160
gfz2011owvz  -0.69650
gfz2011sagt  -0.03470
gfz2011urzu  -0.77300
gfz2011vnza   0.79400
gfz2011wvzb  -0.89570
gfz2011wxfs   0.06130
gfz2012byad  -1.34700
gfz2012czlw  -0.30210
gfz2012enno  -0.53980
gfz2012fzfa  -0.00000
gfz2012gwmu   1.07160
gfz2012hnul  -0.51190
gfz2012jlox  -0.10200
gfz2012jshk  -0.90920
gfz2012jupx  -0.82920
gfz2012kkup  -0.89160
gfz2012klhx  -0.79390
gfz2012kudo  -0.92260
gfz2012ldxg  -0.22000
gfz2012ldzj  -0.29240
gfz2012minr  -0.61330
gfz2012mvwr  -0.04400
gfz2012nqnk  -0.78820
gfz2012ruks  -0.11850
gfz2012sphd  -0.00000
gfz2012ttoa  -0.57640
gfz2012tvmv   0.87700
gfz2012uafg   0.37220
gfz2012vpza  -0.72850
gfz2012wxlg  -0.69110
gfz2012wypz  -0.98510
gfz2013bnxc   2.99880
gfz2013ccnr  -1.15390
gfz2013cwpn  -0.30130
gfz2013dojq   0.17880
gfz2013drxz  -1.07170
gfz2013ftso   3.37990
gfz2013idbb  -0.07640
gfz2013inux  -0.24870
gfz2013kdeo  -0.48670
gfz2013ldqb  -1.99300
gfz2013mqmv  -0.71570
gfz2013mtqd  -0.43980
gfz2013nkgj   0.23890
gfz2013nwdi  -0.75240
gfz2013pfbx  -0.19060
gfz2013sdus  -0.41060
gfz2013suvn  -2.11230
gfz2013svci  -0.41490
gfz2013toea   2.57130
gfz2013toxf  -1.23250
gfz2013tusd  -2.86060
gfz2014afmx  -0.42730
gfz2014ajlk  -0.32240
gfz2014ande  -0.41080
gfz2014bwue  -0.31650
gfz2014ekcr  -0.25110
gfz2014femz  -0.42790
gfz2014fgvi  -0.10820
gfz2014fhdw  -0.23990
gfz2014fhrq   0.69240
gfz2014fimn  -0.70050
gfz2014fjzd   0.13470
gfz2014fkmr  -0.23460
gfz2014frdz   1.63160
gfz2014frel   2.06740
gfz2014frez  -0.04110
gfz2014ftka  -1.19180
gfz2014ftrk  -0.87730
gfz2014furx  -0.68180
gfz2014fusj  -0.14270
gfz2014fuub  -1.26540
gfz2014fval   0.23570
gfz2014fvgh   0.09520
gfz2014fvrg  -0.60950
gfz2014gbcz   3.06350
gfz2014hqxs   1.95830
gfz2014hzgn   0.49380
gfz2014jggm   1.99350
gfz2014jjhc  -1.17910
gfz2014jpep  -0.74240
gfz2014jwmh   0.45430
gfz2014kwrg  -0.79090
gfz2014lgqn  -0.91120
gfz2014lyhk  -0.01690
gfz2014macx   0.15400
gfz2014madw   0.01440
gfz2014nqfm  -0.19560
gfz2014nrie  -0.89410
gfz2014oinz  -0.20680
gfz2014owxc  -1.88230
gfz2014pvch  -0.04120
gfz2014qlxd  -0.24410
gfz2014qngj  -0.24500
gfz2014qqhm  -0.29070
gfz2015okmq   0.40350
gfz2015rddx  -0.63110
gfz2015sfdd   0.03990
gfz2015sfdy  -0.18190
gfz2015sfeo   1.50360
gfz2015sfiq  -0.13790
gfz2015sfnb   0.89500
gfz2015sfnv  -0.31860
gfz2015sfwf  -0.46750
gfz2015sfzm  -0.24550
gfz2015sgad   1.21240
gfz2015sgdj  -0.29890
gfz2015sgdn   0.11240
gfz2015sggc  -0.58950
gfz2015sghq   0.47840
gfz2015sglg  -0.18260
gfz2015sgmr   0.27860
gfz2015sguf  -0.11360
gfz2015sgyd   0.26430
gfz2015shjn   0.32610
gfz2015shrg   1.95990
gfz2015shsz  -0.65380
gfz2015siem  -0.04400
gfz2015sixi   0.19620
gfz2015sjbx  -0.58870
gfz2015sjfi   1.40720
gfz2015sjgk  -0.32450
gfz2015sjne  -0.29010
gfz2015sjoj   0.01640
gfz2015sjpn   0.34240
gfz2015sjvu   0.59610
gfz2015sjwi   0.94890
gfz2015skxu  -0.64500
gfz2015sldx   0.44660
gfz2015slun   0.09360
gfz2015snsf  -0.15120
gfz2015snwh  -0.94900
gfz2015snyd  -0.27690
gfz2015soat  -0.36710
gfz2015soxc   0.74100
gfz2015stfy  -0.03950
gfz2015stso  -0.40330
gfz2015svwm   0.34340
gfz2015sxmh   0.67590
gfz2015sxxu   0.15530
gfz2015szcb  -0.73650
gfz2015taml  -1.90710
