# Nsamples: 79  MAD:  0.852  mean:  0.584  variance:  2.079
gfz2010bxxs   0.49510
gfz2010czps   0.89160
gfz2010eaoy  -1.60060
gfz2010eapk   0.29830
gfz2010eapn  -0.33400
gfz2010eaqe   0.76300
gfz2010eaqx   0.60190
gfz2010eaqy  -0.05110
gfz2010earu   0.47580
gfz2010easo   0.16130
gfz2010easu   0.04680
gfz2010eato   0.54200
gfz2010eatt   3.59860
gfz2010eaty   1.11510
gfz2010eavs  -1.07990
gfz2010eawu   0.42590
gfz2010eaxa   0.19660
gfz2010eazu   1.16290
gfz2010ebla  -0.53770
gfz2010ebll   1.63600
gfz2010eltf  -1.30590
gfz2010elyc  -0.21540
gfz2010elyo   1.30720
gfz2010epxj   8.40510
gfz2010excp  -1.62840
gfz2010exdd  -0.52530
gfz2010exdl   0.22130
gfz2010ezck   0.00580
gfz2010fedq  -1.46370
gfz2010fync   0.53040
gfz2010fzoi  -0.53630
gfz2010glxl   0.49510
gfz2010gyqp   0.41670
gfz2010tcrl   1.82190
gfz2010upfb   0.86270
gfz2011aatr  -0.48840
gfz2011adjs   1.41660
gfz2011cykd   2.80340
gfz2011dcqb   0.69680
gfz2011owvz   1.52650
gfz2011rewa   0.53740
gfz2011vhfi   1.57700
gfz2012fzfa   1.03060
gfz2012hnul   0.76140
gfz2012tzcc   0.38960
gfz2012uafg   0.58750
gfz2012wklq   0.32840
gfz2013ccnr   1.09870
gfz2013dofo   0.77720
gfz2013drxz   0.35250
gfz2013jusj  -0.53180
gfz2013stht  -0.95330
gfz2013vfzp  -0.17490
gfz2013vjjc   1.90460
gfz2013xsdt   1.52060
gfz2014enhi   0.20220
gfz2014gkgf  -0.59080
gfz2014gmge   0.93250
gfz2014gmhr   5.57210
gfz2014osvz   0.70320
gfz2014qngj  -1.54480
gfz2015chhn   1.09650
gfz2015cyjd  -0.41670
gfz2015gzja   0.67690
gfz2015lytv   1.55210
gfz2015qnho  -0.80320
gfz2015sfdd   0.20450
gfz2015sfdl   0.17170
gfz2015sfdy  -0.55830
gfz2015sfhz  -0.09870
gfz2015sfnb   3.30530
gfz2015sfno   0.67480
gfz2015sfnv   0.18940
gfz2015sfoc   0.70720
gfz2015sghq   0.02090
gfz2015smym  -0.04990
gfz2015snwh  -0.23840
gfz2015soxc   1.22580
gfz2015svwm   0.83640
