# Nsamples: 37  MAD:  0.705  mean: -0.305  variance:  1.032
gfz2013nkgj  -0.87290
gfz2013nwdi   0.10260
gfz2013svci   0.29580
gfz2013vjjc   1.57530
gfz2014bwue   0.09520
gfz2014fgvi  -0.27260
gfz2014fhla  -0.88240
gfz2014ftka   0.16430
gfz2014gkgf  -0.48740
gfz2014gkqf  -0.31340
gfz2014gmge  -2.36780
gfz2014gmhr  -1.60380
gfz2014gmnb  -0.15300
gfz2014gmnw  -0.61420
gfz2014goba   0.38550
gfz2014hasj  -0.24210
gfz2014jjhc   0.05500
gfz2014jpep  -0.70240
gfz2014lxnc   2.52130
gfz2014lyhp  -0.59050
gfz2014nqfm  -2.32430
gfz2014oinz  -1.57350
gfz2014ssvz  -0.20990
gfz2015chhn  -0.32300
gfz2015cyjd   1.95860
gfz2015fjhk  -0.42070
gfz2015fsjj  -1.05220
gfz2015kxxs   0.75460
gfz2015mpte  -0.03500
gfz2015sfdd  -0.50570
gfz2015sfdy  -0.42810
gfz2015sfno  -1.64990
gfz2015smym  -0.43530
gfz2015snwh  -0.94420
gfz2015soxc  -1.01400
gfz2015svwm  -0.53070
gfz2015taml   1.34420
