# Nsamples: 15  MAD:  0.412  mean:  0.465  variance:  0.843
gfz2010bxxs   0.17130
gfz2010grjd  -0.26360
gfz2010iull  -0.05750
gfz2011aatr  -0.09780
gfz2011enva   0.38500
gfz2011rewa   1.32090
gfz2011toub   0.00420
gfz2011wxfs  -0.20600
gfz2012ldxg   1.65340
gfz2012wypz  -0.14520
gfz2013jkut   0.87190
gfz2013nwdi   3.14700
gfz2014bwue   0.01420
gfz2014oinz  -0.36400
gfz2015taml   0.53900
