# Nsamples: 45  MAD:  0.768  mean: -0.177  variance:  1.604
gfz2010iull  -0.75490
gfz2010nmpc   0.19200
gfz2010usho  -0.60030
gfz2011aatr  -0.30980
gfz2011gkzt  -0.35410
gfz2011hlqw   3.23160
gfz2011hlsa   0.57990
gfz2011toub   0.15580
gfz2011wxfs  -0.37760
gfz2012enno  -0.42180
gfz2012kkup  -0.45480
gfz2012ldxg  -0.82750
gfz2012ldzj  -0.20320
gfz2012minr   1.47050
gfz2012nqnk   0.13250
gfz2012teic  -1.40100
gfz2012ttoa  -0.99020
gfz2012uaqj  -0.48170
gfz2012wypz   0.11230
gfz2013ccnr  -0.12150
gfz2013xsdt  -1.07910
gfz2014afmx   0.82630
gfz2014bwue  -0.99630
gfz2014fkmr  -1.28570
gfz2014frdz  -0.69080
gfz2014ftka  -0.57080
gfz2014gkgf  -1.20760
gfz2014gkqf  -1.16670
gfz2014gmge   1.17190
gfz2014gmhr  -2.55960
gfz2014gmnb  -0.01220
gfz2014gmnw  -0.27480
gfz2014goba   1.11050
gfz2014hasj   0.05330
gfz2014hqxs  -1.11760
gfz2014jjhc   1.06270
gfz2014jpep   1.92380
gfz2014lxnc   1.59090
gfz2014lyhk   0.99190
gfz2014macx   1.26020
gfz2014ssvz   0.52950
gfz2015fsjj  -0.73350
gfz2015gckd  -0.34550
gfz2015ggjw   0.01030
gfz2015hgbk  -5.04970
