# Nsamples: 1583  MAD:  0.439  mean: -0.013  variance:  0.415
gfz2010aerk  -0.30730
gfz2010ahla   3.15560
gfz2010ahqi   0.12890
gfz2010bfzs  -0.23050
gfz2010bgth   0.00000
gfz2010bhhq  -1.09980
gfz2010bifb  -1.41640
gfz2010bjeb  -0.36850
gfz2010bjsl   0.61410
gfz2010bkob  -0.06430
gfz2010bkos   0.26330
gfz2010bowy  -0.29470
gfz2010boxo  -0.34990
gfz2010bxxs  -0.57150
gfz2010caft  -1.03200
gfz2010cbkg  -0.31970
gfz2010cind   0.19330
gfz2010ckeu  -0.35120
gfz2010ckzm   0.87560
gfz2010cnwc  -0.63770
gfz2010cqwl   0.11400
gfz2010cres   0.39250
gfz2010czps  -0.46960
gfz2010ddzo  -0.13860
gfz2010dejx   0.19540
gfz2010dfru   0.17220
gfz2010diqn   0.89030
gfz2010dlgc   0.66850
gfz2010dumm  -0.16710
gfz2010eaoy  -0.07230
gfz2010eapk   0.36030
gfz2010eapn   1.27990
gfz2010eaqe   1.40210
gfz2010eaqx   0.16950
gfz2010eaqy   0.76520
gfz2010earq  -0.39360
gfz2010earu  -0.48210
gfz2010easf   0.91710
gfz2010eask   2.14750
gfz2010easo  -0.06090
gfz2010easu  -0.37480
gfz2010eati   0.34840
gfz2010eato   0.41660
gfz2010eatt  -2.07870
gfz2010eaty   0.41370
gfz2010eaul   0.23290
gfz2010eavd  -0.65950
gfz2010eavp   0.00470
gfz2010eavs  -0.24760
gfz2010eawb   0.02090
gfz2010eaxa   0.42890
gfz2010eayd   0.52400
gfz2010eayp   0.29640
gfz2010eayx  -0.39180
gfz2010eaze   0.01060
gfz2010eazu  -2.53860
gfz2010ebbd   0.47560
gfz2010ebbx  -1.83180
gfz2010ebby   1.12870
gfz2010ebdl  -0.40150
gfz2010ebeh  -0.46160
gfz2010ebek   0.47690
gfz2010ebfa   0.74900
gfz2010ebfx  -0.35730
gfz2010ebgj   0.29900
gfz2010ebhc   0.37690
gfz2010ebih  -0.22420
gfz2010ebin  -1.85820
gfz2010ebiv   0.27690
gfz2010ebjy   0.02430
gfz2010ebkj  -0.22010
gfz2010ebla   0.07010
gfz2010ebll   0.20330
gfz2010ebmb   0.76940
gfz2010ebmi  -0.27660
gfz2010ebnn  -0.49620
gfz2010ebpa  -0.02640
gfz2010ebqt  -0.20860
gfz2010ebqz  -0.91280
gfz2010ebrm   0.23530
gfz2010ebsv   0.39450
gfz2010ebtk   0.33330
gfz2010ebvm   0.19910
gfz2010ebvv   0.31640
gfz2010ebwp  -0.31080
gfz2010ebxl   0.39750
gfz2010ebze  -0.34540
gfz2010ebzk   0.09540
gfz2010ebzr  -0.13510
gfz2010ecam   0.68750
gfz2010ecay  -0.04240
gfz2010ecbi   0.50540
gfz2010eccq   0.42310
gfz2010ecdu  -0.43870
gfz2010eced  -0.73570
gfz2010ecft   0.38570
gfz2010ecfx  -1.39340
gfz2010ecgh  -0.64190
gfz2010echc  -0.25960
gfz2010echt   0.10940
gfz2010echy   0.25020
gfz2010ecls   0.73840
gfz2010ecml   0.71550
gfz2010ecnm  -0.48710
gfz2010ecps  -0.32810
gfz2010ecro  -0.50740
gfz2010ecsp   0.97080
gfz2010ectq   0.96720
gfz2010ecua  -0.34640
gfz2010ecuv   0.40140
gfz2010ecvt   0.53540
gfz2010ecyr  -0.24740
gfz2010edad  -0.34290
gfz2010edat  -0.12370
gfz2010eday  -0.06430
gfz2010edbz   0.50650
gfz2010edcp  -0.07970
gfz2010edde  -0.62220
gfz2010edhr   0.05220
gfz2010edhv   0.98940
gfz2010edim   0.02430
gfz2010edji  -0.32060
gfz2010edkp   0.02080
gfz2010edoq  -0.49900
gfz2010edpb  -0.26110
gfz2010edqd  -0.47220
gfz2010edqh  -0.07570
gfz2010edsk   0.19640
gfz2010edsn   0.10660
gfz2010edsy   0.21980
gfz2010edun  -0.13030
gfz2010edvf  -0.18530
gfz2010edyi  -0.77810
gfz2010edzb   0.68290
gfz2010eedu  -0.38090
gfz2010eefh   0.13090
gfz2010eefo   0.00000
gfz2010eegn   0.10220
gfz2010eeia   0.05000
gfz2010eeij  -0.35650
gfz2010eekg   0.39100
gfz2010eekq  -0.20000
gfz2010eell   1.50170
gfz2010eeng  -0.22000
gfz2010eeqy  -1.84090
gfz2010eerh   0.59020
gfz2010eern   0.06980
gfz2010eesf   0.58550
gfz2010eevu   0.04940
gfz2010eexz  -0.28710
gfz2010eeyh  -0.06070
gfz2010efak   0.05870
gfz2010efbh  -0.10950
gfz2010efbi   0.14510
gfz2010efkc  -0.54190
gfz2010efls   0.31220
gfz2010efnf   0.65320
gfz2010efsq  -0.95190
gfz2010efwo  -0.09260
gfz2010efxf  -0.44600
gfz2010egap  -0.07520
gfz2010eghq   0.00000
gfz2010egld   0.11320
gfz2010egln   0.20230
gfz2010egmp   0.45390
gfz2010egqh   0.26430
gfz2010egsw   0.32320
gfz2010egsy  -0.08850
gfz2010egyy   0.31240
gfz2010ehaj   1.05060
gfz2010eher   0.01980
gfz2010ehft  -0.34040
gfz2010ehnl  -0.58400
gfz2010ehrq   2.98060
gfz2010ehsy   0.02220
gfz2010ehvj   0.13460
gfz2010ehwg  -0.53460
gfz2010ehxz   0.79010
gfz2010eimf  -0.34620
gfz2010eioi   0.13550
gfz2010eisx  -1.27620
gfz2010eixj  -0.46970
gfz2010ejae   0.02890
gfz2010ejco  -0.43500
gfz2010ejjg   0.11670
gfz2010ejju   1.61190
gfz2010ejka  -1.36360
gfz2010ejma  -0.74280
gfz2010ejxf   0.31090
gfz2010ekaw  -0.52660
gfz2010ekoe   0.27900
gfz2010ekrv   0.14610
gfz2010ekyc  -0.27270
gfz2010elhv   0.16510
gfz2010elin  -0.23380
gfz2010eljf  -0.42530
gfz2010elsw   0.09590
gfz2010eltf   0.20530
gfz2010elvp  -1.27150
gfz2010elxi   0.03130
gfz2010elyc  -1.22040
gfz2010elyo   0.72790
gfz2010elzf  -0.44080
gfz2010elzl   0.01000
gfz2010emoz  -0.27240
gfz2010emyz  -0.29110
gfz2010encm  -0.21200
gfz2010engw  -0.50050
gfz2010enpa  -0.60330
gfz2010ensu   0.89710
gfz2010enzl   0.06710
gfz2010eoao   1.11110
gfz2010eohh  -1.62730
gfz2010epbe  -0.27820
gfz2010epxj   0.15680
gfz2010epzk  -0.90650
gfz2010eqcn  -0.07180
gfz2010eqjg  -0.16930
gfz2010eqmu  -3.34160
gfz2010eqse   1.56920
gfz2010eqwl   2.05770
gfz2010erda  -0.83950
gfz2010erdi  -0.00000
gfz2010erfy  -0.23850
gfz2010erig   1.13670
gfz2010erkn   0.42780
gfz2010ermi   0.22580
gfz2010erna  -0.13310
gfz2010erom   0.29170
gfz2010erum   0.06370
gfz2010eruy  -0.83510
gfz2010erwn  -0.57260
gfz2010erxk   0.63760
gfz2010eryg  -0.17770
gfz2010esid  -0.21270
gfz2010esou   6.10360
gfz2010eted   0.67170
gfz2010euae   0.49220
gfz2010euan  -0.05800
gfz2010eujm  -0.28740
gfz2010eutw   0.11730
gfz2010euvl  -0.59270
gfz2010euwb   0.57570
gfz2010euxe  -0.91240
gfz2010evco   0.00000
gfz2010evgf  -0.35650
gfz2010evjv  -0.08300
gfz2010ewbc   0.77160
gfz2010ewvc   0.27040
gfz2010ewyu  -2.08050
gfz2010excp  -0.32990
gfz2010exdd  -0.20420
gfz2010exdl   0.58810
gfz2010exed   0.36720
gfz2010exel   0.46680
gfz2010exgb   0.18200
gfz2010exhd  -0.12640
gfz2010exhw  -0.32710
gfz2010exjw  -0.37190
gfz2010exlm  -0.10190
gfz2010exmc  -0.28770
gfz2010exno   0.24700
gfz2010exou  -0.13490
gfz2010exqu  -0.02720
gfz2010exsg   0.57540
gfz2010exts   0.53730
gfz2010exyp   0.32150
gfz2010eyaz  -0.95000
gfz2010eybj  -0.34270
gfz2010eyhh   0.32650
gfz2010eyiv  -0.88020
gfz2010eymr   0.12200
gfz2010eymx  -0.30500
gfz2010eyvq   0.38370
gfz2010ezax  -0.15620
gfz2010ezck   0.17350
gfz2010ezuj  -0.64860
gfz2010ezvg  -0.49770
gfz2010ezvt  -0.06550
gfz2010ezwz  -0.59710
gfz2010faeu  -0.35080
gfz2010falm   0.50800
gfz2010fauz  -0.49230
gfz2010fbeu   0.00000
gfz2010fbpi   0.60850
gfz2010fcax  -0.37870
gfz2010fcdw   0.24900
gfz2010fcnn   0.08670
gfz2010fcnt  -0.33730
gfz2010fcxy   0.10340
gfz2010fcyj  -0.24960
gfz2010fczt  -0.17130
gfz2010fdab  -0.73150
gfz2010fedq  -1.26050
gfz2010fefr  -1.69000
gfz2010fexw  -0.15790
gfz2010ffhq  -0.01990
gfz2010ffjb   0.40600
gfz2010ffui  -0.89940
gfz2010fhbl   0.99340
gfz2010figq  -0.34040
gfz2010fihj   2.58380
gfz2010fika   0.81680
gfz2010fixr   0.25200
gfz2010fjal  -0.22840
gfz2010fjas  -0.49450
gfz2010fjmu  -0.83790
gfz2010fjni   0.86840
gfz2010fkvg   0.38860
gfz2010flha  -0.40620
gfz2010flkj  -0.40110
gfz2010flrt  -0.10650
gfz2010flxi  -0.30770
gfz2010fmhb  -0.68420
gfz2010fmwb  -1.34730
gfz2010fneu  -0.31930
gfz2010fnrk   0.83700
gfz2010fpmv   0.72370
gfz2010fpqy   0.11760
gfz2010fqdu  -0.56670
gfz2010fser  -0.36990
gfz2010fsmy   0.04100
gfz2010ftlm   0.21140
gfz2010fupn  -0.18560
gfz2010fuuy   0.21910
gfz2010fvuc   0.83280
gfz2010fwkk   1.41650
gfz2010fwlb   0.15690
gfz2010fwny   0.44760
gfz2010fwpv   0.23860
gfz2010fyen   0.11200
gfz2010fync   0.32660
gfz2010fzoi  -0.05150
gfz2010gcdn   0.48360
gfz2010gceb  -0.46650
gfz2010gcrl   0.07990
gfz2010gcrp  -0.77100
gfz2010gdld  -0.01660
gfz2010geru  -0.91880
gfz2010gjia   0.03390
gfz2010gjvo   0.30410
gfz2010glqr   0.05470
gfz2010glxl   0.16570
gfz2010gmib   0.44810
gfz2010grjd   0.11540
gfz2010gslu   0.10430
gfz2010gtqs   0.56030
gfz2010gtzt   0.58130
gfz2010gwmp  -0.07050
gfz2010gymo  -0.31440
gfz2010gyqp  -0.20890
gfz2010gzxr  -0.06640
gfz2010hakh   2.28130
gfz2010hbka  -0.09210
gfz2010hcio  -0.39660
gfz2010hgld   0.19830
gfz2010hllj  -0.10030
gfz2010hlln  -0.06070
gfz2010hlmq  -0.08060
gfz2010hlvr   0.19960
gfz2010hmhm  -0.74060
gfz2010hnnf  -0.87830
gfz2010hnpi  -0.64200
gfz2010hnzr   0.49900
gfz2010homc   0.55710
gfz2010hptz   1.04180
gfz2010hrkr   0.37660
gfz2010htdq   0.71390
gfz2010hxbs   0.58370
gfz2010hxgv  -0.42910
gfz2010hxhe   0.11550
gfz2010hykt   0.19660
gfz2010hzar  -0.22130
gfz2010ibiy  -0.20000
gfz2010iciq   1.22800
gfz2010iefy  -1.16620
gfz2010iibf   1.07930
gfz2010iimu   0.03940
gfz2010ijtk   0.19440
gfz2010imfv  -0.31640
gfz2010imsh  -0.06090
gfz2010iobp  -0.32060
gfz2010iphd   0.49040
gfz2010ipsg   0.28810
gfz2010iqep   0.16980
gfz2010iqfm  -0.23680
gfz2010irqr   0.86550
gfz2010irvf  -0.07790
gfz2010itpb  -0.34270
gfz2010iull  -0.14600
gfz2010izzj  -0.06760
gfz2010jagd   0.84840
gfz2010jant   2.07000
gfz2010jatq   0.05950
gfz2010jhie   0.27290
gfz2010jipf  -0.36600
gfz2010jlhj  -0.66170
gfz2010jpss   0.61920
gfz2010jpyj   0.63020
gfz2010jqxx  -0.23490
gfz2010jssh   0.11630
gfz2010jsuh  -0.93520
gfz2010jsuo  -0.00000
gfz2010jxbm   0.20950
gfz2010jygz   0.15200
gfz2010jzku  -0.02100
gfz2010kcoo   0.24990
gfz2010kdyc   0.36770
gfz2010kgws  -1.40300
gfz2010kmgg  -0.10470
gfz2010kmsv  -0.07890
gfz2010kyvj  -0.13530
gfz2010lczp  -1.36400
gfz2010lepw   0.41180
gfz2010lgwy  -0.13260
gfz2010liqs  -0.17880
gfz2010lkcf  -0.21990
gfz2010lopz  -0.41190
gfz2010lrlk  -0.40910
gfz2010lyfk   0.32090
gfz2010mant   0.21010
gfz2010mdpq  -0.37240
gfz2010mgss   0.23910
gfz2010mhjt  -0.03090
gfz2010miil   0.55400
gfz2010miqn   0.09870
gfz2010mkuu   0.20760
gfz2010mlkz  -0.54290
gfz2010mlta  -1.62310
gfz2010mncc  -0.03770
gfz2010mnhm  -0.29840
gfz2010mnsz   1.42500
gfz2010moyw  -0.04060
gfz2010mpuy   0.16110
gfz2010msjj   0.32300
gfz2010muca  -0.12480
gfz2010mwdq  -0.23220
gfz2010mzjr   1.14460
gfz2010ncrl  -0.07830
gfz2010nfsj  -0.08460
gfz2010nlkh  -0.25300
gfz2010nmpc  -1.23830
gfz2010nnny   0.35920
gfz2010nqwf   0.74080
gfz2010nqwo  -0.13240
gfz2010nrjo  -0.08640
gfz2010nsck   0.08400
gfz2010nsdf   0.22020
gfz2010ntuo   0.13530
gfz2010nubk  -0.13660
gfz2010nwef  -0.12460
gfz2010nxsy  -0.22340
gfz2010nxum   0.02090
gfz2010nzha   0.05730
gfz2010nzla  -0.34250
gfz2010ocxq   0.75520
gfz2010odpb   0.59660
gfz2010oedn   0.32520
gfz2010okdm   0.25990
gfz2010oluw  -0.05590
gfz2010onma   0.01810
gfz2010osjs  -0.41480
gfz2010oyqy   0.05490
gfz2010pbdz  -0.28040
gfz2010pcxi  -0.19690
gfz2010pdtk  -0.04410
gfz2010pets   0.36310
gfz2010pewa  -0.23540
gfz2010pewx   0.14250
gfz2010pfyu   0.21340
gfz2010phvg   0.06730
gfz2010plbg  -0.45620
gfz2010pmqd   0.04590
gfz2010pqck  -0.70170
gfz2010pxak   0.35110
gfz2010pxgh   0.79670
gfz2010qjst   0.37340
gfz2010qpcq   0.06650
gfz2010qpum   0.46190
gfz2010qpvi   0.63150
gfz2010rhas   0.69970
gfz2010rkfp   0.08270
gfz2010rqwj  -0.57730
gfz2010rxjw   2.95290
gfz2010rzrr  -0.70700
gfz2010rzsd   0.51320
gfz2010sfee  -0.00880
gfz2010sfla   0.02200
gfz2010sgzk   0.22610
gfz2010skqo  -0.33410
gfz2010skve   1.13330
gfz2010srdb  -0.13980
gfz2010suww  -0.55130
gfz2010svtn  -0.71590
gfz2010swcy  -0.20280
gfz2010sxfq  -0.60960
gfz2010sxwt  -0.40380
gfz2010sysw   0.03790
gfz2010szde  -0.19990
gfz2010szim   0.25640
gfz2010tcbr  -0.03520
gfz2010tcrl  -0.19930
gfz2010titk   0.36750
gfz2010tlfm   0.06450
gfz2010truw  -0.80360
gfz2010txjs  -0.36190
gfz2010uept  -0.07000
gfz2010upfb  -0.17610
gfz2010urlq  -0.15450
gfz2010usho   0.21070
gfz2010ustq   0.35170
gfz2010utcg   0.17840
gfz2010utmc   0.03310
gfz2010utvp   0.46570
gfz2010uvhf   0.00000
gfz2010uyhb  -0.82150
gfz2010veri  -0.30870
gfz2010vhuj  -0.10970
gfz2010vtdg  -0.32700
gfz2010vyxd  -0.00000
gfz2010vzpr   0.20600
gfz2010wioh  -0.29790
gfz2010wnty   0.34450
gfz2010wntz   1.65710
gfz2010wofs  -0.68840
gfz2010wrxx   0.20510
gfz2010wxqa   1.63680
gfz2010xbdv  -0.41740
gfz2010xbgs  -0.21150
gfz2010xche  -0.20290
gfz2010xcij  -0.53950
gfz2010xden   0.09220
gfz2010xgfc   0.63520
gfz2010xgzw  -0.15300
gfz2010xjck  -0.54490
gfz2010xjsj   0.16870
gfz2010xmpr   0.22690
gfz2010xnxk   0.06040
gfz2010xxdb  -0.03760
gfz2010xxzn   0.29190
gfz2010yjev  -0.79360
gfz2010ymfy  -0.51970
gfz2010ymur  -0.66860
gfz2010yosr   0.15620
gfz2010yqqb  -0.07450
gfz2010yqwx   0.78040
gfz2011aatr   0.09050
gfz2011adjs  -1.00570
gfz2011adlj   0.59810
gfz2011adpw  -0.30080
gfz2011adqk   0.37640
gfz2011aeay  -0.30210
gfz2011aldv  -0.52170
gfz2011alip   0.32750
gfz2011alsa  -0.65440
gfz2011alwf  -3.02690
gfz2011anur   0.08430
gfz2011aosc  -0.12320
gfz2011aqxf  -0.67820
gfz2011blsi   1.36820
gfz2011bpkd   0.19920
gfz2011ccpw   0.06520
gfz2011cfae   0.23060
gfz2011cndo  -0.39820
gfz2011coxh  -0.17610
gfz2011csju  -0.20630
gfz2011cvfg  -0.67940
gfz2011cykd  -0.80960
gfz2011cylz   0.69240
gfz2011cynl   0.19860
gfz2011cyre   1.54030
gfz2011cyuk   0.73120
gfz2011czwj  -0.68170
gfz2011dbev   0.32120
gfz2011dbig  -0.02440
gfz2011dbon  -0.09840
gfz2011dbwt   0.15630
gfz2011dcqb   0.25850
gfz2011dcqf  -0.60200
gfz2011dddh  -0.54750
gfz2011deaf  -0.40490
gfz2011dkyi   0.22550
gfz2011dllz  -2.16660
gfz2011dlyx   0.33770
gfz2011dmat   0.11090
gfz2011dndz  -0.31730
gfz2011dpqx   0.12300
gfz2011duyr  -0.02150
gfz2011ecaj   0.36340
gfz2011ecsc  -0.80700
gfz2011edmm   0.81960
gfz2011eebc   0.32200
gfz2011ehzq   0.27520
gfz2011ejlp  -0.17990
gfz2011eltw  -0.47510
gfz2011enva  -0.51860
gfz2011etje   0.59610
gfz2011fdzv  -0.20190
gfz2011fgvr  -0.31950
gfz2011fhag   1.34130
gfz2011fhur  -0.20010
gfz2011flgj  -0.39210
gfz2011fnsw  -0.33680
gfz2011gbmx  -0.04720
gfz2011gcwb  -0.18490
gfz2011gdgh  -0.32100
gfz2011ghky  -0.12080
gfz2011gkey   0.02110
gfz2011gkzt  -0.75090
gfz2011gzbr  -0.42280
gfz2011haid  -0.95690
gfz2011hbex  -0.21800
gfz2011hbqk  -0.61380
gfz2011hebt  -0.29980
gfz2011hfkj  -0.23640
gfz2011hlqw  -0.38710
gfz2011hlsa  -0.44850
gfz2011hpgx   1.08230
gfz2011hpqp  -0.56530
gfz2011hrhe   0.11760
gfz2011hrhu  -0.67730
gfz2011hryk  -0.30680
gfz2011hsfj  -0.78200
gfz2011hvbu  -0.27220
gfz2011ieie   0.60520
gfz2011knoo   0.36460
gfz2011kqwo  -0.99380
gfz2011kqyg   0.20810
gfz2011kwid   0.21670
gfz2011kwjx   0.24990
gfz2011kwkw   0.31570
gfz2011kwqc  -0.17460
gfz2011kwrf  -0.17490
gfz2011kwsz   0.15890
gfz2011kxzp   0.21100
gfz2011lcxq   0.50080
gfz2011lczg   0.12660
gfz2011lgsg   0.07160
gfz2011lhls   0.38340
gfz2011lvjr  -0.57950
gfz2011lzwj   0.22010
gfz2011mdie   0.07450
gfz2011mepc  -0.41920
gfz2011mjom   0.34150
gfz2011mllx   0.15850
gfz2011mpme   0.08320
gfz2011mprq   0.23380
gfz2011myia  -0.43940
gfz2011nauw   0.14430
gfz2011nkaz   0.20120
gfz2011nmnq  -0.44050
gfz2011noud   0.02100
gfz2011nrwc  -0.04100
gfz2011nsex  -0.10240
gfz2011ntkh   0.19020
gfz2011nudm  -0.30200
gfz2011ogqk  -1.40590
gfz2011ohcy   0.41030
gfz2011oiqe   0.28340
gfz2011oiwk   0.54840
gfz2011olkk   0.67520
gfz2011orgn   1.85980
gfz2011ornx   0.31080
gfz2011phms  -0.06730
gfz2011pntf  -0.40940
gfz2011qvae  -1.28610
gfz2011qyms   0.02220
gfz2011rabm   0.30250
gfz2011rdby   2.64290
gfz2011rewa  -0.39470
gfz2011rgwp  -0.38640
gfz2011rqui  -0.45310
gfz2011rsrh  -0.17790
gfz2011rznl   0.41980
gfz2011sagt  -0.62000
gfz2011shqm   0.70000
gfz2011stal   0.59390
gfz2011svix   1.30910
gfz2011tbas   0.63870
gfz2011tcij  -1.06800
gfz2011tivu  -0.38620
gfz2011tjue  -0.05660
gfz2011tkfp  -0.01980
gfz2011tkog  -0.47930
gfz2011toub   0.51540
gfz2011tpbl   0.26320
gfz2011tpfr  -0.13200
gfz2011tsfd   0.84730
gfz2011tsnp   4.63330
gfz2011tuea   0.29250
gfz2011udsq  -0.35880
gfz2011uepx   0.82740
gfz2011ugzz   0.24090
gfz2011ujze  -0.06130
gfz2011uphh   0.04350
gfz2011urxy  -0.54790
gfz2011urzu  -0.20450
gfz2011uzqv   0.40850
gfz2011vclt   0.13390
gfz2011vhfi   0.24130
gfz2011vnza  -0.01330
gfz2011vrhg  -0.42270
gfz2011vxns  -0.11290
gfz2011wcic   0.32860
gfz2011wfja   0.27380
gfz2011wijj  -0.10390
gfz2011wjul   0.22950
gfz2011wwjs   0.16460
gfz2011wxfs   0.49680
gfz2011wxoj  -0.01970
gfz2011wxtk  -0.28740
gfz2011wype   0.91330
gfz2011xcpv   0.44390
gfz2011xesx  -0.10100
gfz2011xqru  -1.24490
gfz2011xyxj  -0.00420
gfz2011yfdx   0.19100
gfz2011yfys  -0.03810
gfz2011yybo   0.27040
gfz2011yzwq  -0.32490
gfz2011zklv  -0.02860
gfz2011zlrd  -0.22400
gfz2011zqhh   0.33510
gfz2012ajtq   0.36940
gfz2012aqgp  -0.68930
gfz2012aqtq  -0.02150
gfz2012attr  -0.06280
gfz2012bfah  -0.06080
gfz2012bfyn   0.49030
gfz2012bngd   0.24440
gfz2012bpkx   0.19550
gfz2012bpnl   0.31300
gfz2012bpwl   0.00760
gfz2012bszs   0.21190
gfz2012byad  -0.23170
gfz2012cgvr   0.92710
gfz2012cmfy  -0.05000
gfz2012cnod  -0.76010
gfz2012covm   0.16490
gfz2012cqnl  -0.17940
gfz2012cxdn  -0.00000
gfz2012czlw   0.74470
gfz2012deri   0.21740
gfz2012dfhq   0.47700
gfz2012dimn   0.45940
gfz2012dinb   0.01970
gfz2012dyyh   0.06910
gfz2012ekda  -0.15220
gfz2012ekzf  -0.19620
gfz2012elce   0.16670
gfz2012emjg   0.43340
gfz2012enno   0.08550
gfz2012ewgo  -0.08190
gfz2012ewkj  -1.64800
gfz2012fhnh  -0.49220
gfz2012foeo   0.70750
gfz2012fwfo  -0.51650
gfz2012fwob   0.45490
gfz2012fzfa  -0.64190
gfz2012fzsq   0.75970
gfz2012gkvr  -0.11650
gfz2012gocc  -0.63610
gfz2012hdbm   0.32550
gfz2012hnul  -0.18090
gfz2012holl   0.28960
gfz2012hyaa   0.22760
gfz2012iamr  -0.81960
gfz2012icmv  -1.03380
gfz2012ilvn   0.24040
gfz2012imay   0.33150
gfz2012jgvj   0.47370
gfz2012jjzc   0.92440
gfz2012jlox  -0.19950
gfz2012jshk  -1.24200
gfz2012jupx  -0.03080
gfz2012kdmb   0.35520
gfz2012keor  -0.39800
gfz2012kkup  -0.13160
gfz2012klba  -0.07410
gfz2012klhx  -0.20990
gfz2012kuct  -0.30320
gfz2012kudo   0.22620
gfz2012kvzv  -0.62850
gfz2012kwgo  -0.09760
gfz2012lczo  -0.78900
gfz2012ldxg   0.05600
gfz2012ldzj  -0.33540
gfz2012ljql  -1.36440
gfz2012lltr   0.57140
gfz2012llug   1.18850
gfz2012lrsv  -1.06590
gfz2012lxkv  -0.25410
gfz2012mdmy   0.35390
gfz2012minr  -0.07670
gfz2012mkpn   0.31500
gfz2012mpvy   0.21650
gfz2012mupa  -0.15330
gfz2012mvwr  -0.11730
gfz2012mwij   0.21670
gfz2012myqa   0.08690
gfz2012nedn  -1.02380
gfz2012nojx   0.14870
gfz2012nolo  -0.40820
gfz2012nsbz  -0.35930
gfz2012ntzv   3.07310
gfz2012nutf  -0.37550
gfz2012nxog   0.09330
gfz2012oazn  -0.29080
gfz2012oedb   0.07790
gfz2012omvo  -0.74440
gfz2012pciw   0.40170
gfz2012peki  -0.31430
gfz2012pgcl   0.26650
gfz2012pkel  -0.09890
gfz2012pqlt  -0.78820
gfz2012pqmu  -0.48350
gfz2012qurq  -0.42160
gfz2012qxcy  -0.19250
gfz2012rats  -0.32540
gfz2012repv  -1.53760
gfz2012rjsd   0.63680
gfz2012ronz  -0.38620
gfz2012royy   0.17460
gfz2012rwko   0.11550
gfz2012rwov  -0.16210
gfz2012rypu  -0.19290
gfz2012sfer  -0.30370
gfz2012snhi  -0.38080
gfz2012spbj  -0.45300
gfz2012sphd   0.03150
gfz2012sqmv  -0.08560
gfz2012ssyn  -0.08380
gfz2012syvl   0.24300
gfz2012teic  -0.20860
gfz2012tmop   0.12520
gfz2012tpzx   0.88310
gfz2012ttoa   0.02120
gfz2012tvmv  -0.26390
gfz2012tyxl  -0.96340
gfz2012uciv  -0.45730
gfz2012ueqo   1.31460
gfz2012ufew   0.26790
gfz2012uhup   0.52900
gfz2012ulpd  -0.05890
gfz2012usba   0.39340
gfz2012uvqf   1.03900
gfz2012uyxb  -0.57940
gfz2012vntz   0.21330
gfz2012vpza  -0.35340
gfz2012vrgb  -0.04880
gfz2012vsev  -0.37120
gfz2012vxvr   0.42910
gfz2012whku   0.03250
gfz2012wklq  -0.24040
gfz2012wmsg  -0.09940
gfz2012wpeq  -0.04910
gfz2012wrir  -0.17410
gfz2012wtkh  -1.01540
gfz2012wtkr  -0.28580
gfz2012wubh   0.00000
gfz2012wvfl  -0.08390
gfz2012wxer   0.11300
gfz2012wxnu   0.04870
gfz2012wybs   0.46620
gfz2012wypz   0.73270
gfz2012xbjq   0.03620
gfz2012xcgk   0.68630
gfz2012xeul  -1.01000
gfz2012xjyv  -0.09220
gfz2012xmxy   0.39930
gfz2012xslk  -0.03980
gfz2012yfrp  -0.35930
gfz2012zemh   0.32330
gfz2012zemz  -0.54240
gfz2012zfag  -0.19840
gfz2012zitl  -0.95310
gfz2012zjpv  -0.43130
gfz2012zjre  -0.54440
gfz2012zmln  -0.10120
gfz2013aahq  -0.00000
gfz2013aayj  -0.11390
gfz2013aqaw  -0.78020
gfz2013bdke  -1.04590
gfz2013bdpu  -0.63740
gfz2013bnxc   0.35200
gfz2013bokp   0.43510
gfz2013bouj  -0.58640
gfz2013btjm  -0.25960
gfz2013cbsm  -0.23580
gfz2013ccnr  -0.09100
gfz2013cdan   0.63660
gfz2013cvqg   0.10790
gfz2013cwpn  -0.16860
gfz2013dkly  -0.51370
gfz2013dofo  -0.32530
gfz2013dojq  -0.15050
gfz2013drpk   0.08330
gfz2013drxz  -0.55050
gfz2013dsog  -1.02440
gfz2013dspt  -1.61010
gfz2013dsrk  -1.25700
gfz2013dvyh   0.33510
gfz2013egni   0.55090
gfz2013egpu  -0.64680
gfz2013ewbo  -0.29350
gfz2013fiud  -0.20010
gfz2013fkcl  -0.72810
gfz2013flox  -0.37580
gfz2013ftso  -0.01730
gfz2013fwxa   0.12670
gfz2013fygc  -0.21450
gfz2013gcfx  -2.09360
gfz2013gdgf   1.01320
gfz2013gdnq  -0.09830
gfz2013gjdc  -0.88310
gfz2013gmor   0.31060
gfz2013gngz  -0.03170
gfz2013gnse  -0.29800
gfz2013gock  -0.22150
gfz2013hdnc   0.03350
gfz2013hfmp  -0.57620
gfz2013hkja   0.16460
gfz2013huwr   0.42800
gfz2013iayx   0.07280
gfz2013idbb   0.03510
gfz2013ifpq  -0.05660
gfz2013ijsr   0.05400
gfz2013ikgo   0.03770
gfz2013ilug  -0.15560
gfz2013ippu   0.07400
gfz2013iunn  -0.40860
gfz2013jesk  -0.34370
gfz2013jgij  -0.33660
gfz2013jgip   0.21630
gfz2013jkut   0.44320
gfz2013jusj  -0.19590
gfz2013jwvc  -0.21210
gfz2013kccc  -0.18180
gfz2013kdeo  -0.35090
gfz2013kheb  -0.49670
gfz2013kqln  -0.70080
gfz2013krei   0.21430
gfz2013lajg  -0.22970
gfz2013ldos  -1.95610
gfz2013ldpc  -0.37690
gfz2013ldqb  -0.11950
gfz2013lgnl  -0.03730
gfz2013lixa   0.08310
gfz2013lsob   0.60550
gfz2013lyko   0.47680
gfz2013mmwq  -0.05490
gfz2013mnei  -0.82540
gfz2013mqik  -0.37400
gfz2013mqmv   0.13910
gfz2013mwbh  -0.29110
gfz2013mxee  -0.25010
gfz2013ncjp  -0.14580
gfz2013ndin   0.19740
gfz2013neuc  -0.01300
gfz2013nixj  -0.05520
gfz2013nkgj  -0.37700
gfz2013nknw   0.47890
gfz2013nmac  -0.32660
gfz2013nqgw   1.94110
gfz2013nuvi   0.23140
gfz2013nwdi   0.18000
gfz2013oejn   0.22340
gfz2013ogde   0.33050
gfz2013oifr   0.38400
gfz2013oinc  -0.03960
gfz2013oqsc  -0.35220
gfz2013orzn  -0.29260
gfz2013ozrp   0.07380
gfz2013pcos   0.44220
gfz2013pfbx   0.45470
gfz2013pfeb  -0.21260
gfz2013pffm  -0.13690
gfz2013pfnf   0.09990
gfz2013poxj   0.17460
gfz2013pxsj  -0.04950
gfz2013qali  -0.15330
gfz2013qesa  -1.27080
gfz2013qmer  -0.00300
gfz2013qnxc  -0.02110
gfz2013qzdq  -0.88490
gfz2013rait  -0.04050
gfz2013reym  -0.47160
gfz2013roki   0.98220
gfz2013rsnr  -0.69480
gfz2013sart  -0.16620
gfz2013sdus   0.28420
gfz2013sfto  -0.09500
gfz2013shzy  -0.20440
gfz2013sjhg   0.80810
gfz2013skkm  -0.11400
gfz2013snbr  -0.49410
gfz2013suvn   0.76580
gfz2013svci   0.97930
gfz2013tcbk   0.67250
gfz2013tcxq  -0.17450
gfz2013tdau  -0.11320
gfz2013tlaf  -0.66290
gfz2013toxf   0.63090
gfz2013tusd  -0.14470
gfz2013tvmw   0.01270
gfz2013txij  -0.22490
gfz2013txtb  -0.36820
gfz2013tyas  -0.42540
gfz2013uauo   0.17730
gfz2013ufxk  -1.45460
gfz2013ufxm  -0.14550
gfz2013uqsp  -0.39000
gfz2013vexx   0.80530
gfz2013vfyw  -0.13170
gfz2013vfzp   0.21330
gfz2013viul  -0.35860
gfz2013vjjc  -0.83480
gfz2013vrmy  -0.34970
gfz2013vvrq   0.17300
gfz2013vzbo  -0.35910
gfz2013waam   0.21510
gfz2013wjmm  -0.55050
gfz2013wkyk  -1.45090
gfz2013wnpr  -0.37730
gfz2013xizq  -1.00660
gfz2013xklb   0.74530
gfz2013xsdt   0.09020
gfz2013xvxf   0.56230
gfz2013xxxq   0.28750
gfz2013yaig   0.24770
gfz2013yctg  -0.42090
gfz2013yhpk  -0.08370
gfz2013ylbx   0.26430
gfz2013yqkv  -0.12990
gfz2013yrmc   1.13970
gfz2013yyhc   0.15340
gfz2013zjtw   0.06840
gfz2014aawc  -0.16820
gfz2014adoj  -1.94210
gfz2014afmx  -0.12300
gfz2014ajlk  -0.21140
gfz2014algk  -0.06490
gfz2014alwz   0.12900
gfz2014ande   0.08380
gfz2014atgw  -0.26700
gfz2014bagd  -0.00000
gfz2014bezu   0.12800
gfz2014bfng  -0.03100
gfz2014bldx  -0.01450
gfz2014bmta  -0.41920
gfz2014bwue   0.63320
gfz2014bzxy  -0.01260
gfz2014chdv   0.04880
gfz2014cmwb   0.02620
gfz2014cqyo   0.83140
gfz2014cvkm  -0.50420
gfz2014cvxx   0.13880
gfz2014czno   0.25880
gfz2014czol  -0.59030
gfz2014czqi  -0.20350
gfz2014czua   0.06150
gfz2014dffd   0.39220
gfz2014dhxt   0.23950
gfz2014disp  -1.19000
gfz2014duqn   0.10850
gfz2014eght  -1.13940
gfz2014egwu   0.77520
gfz2014ehsf  -0.17010
gfz2014ekcr   0.10070
gfz2014ekdn   0.19180
gfz2014enhi  -0.12750
gfz2014eqpl  -2.60090
gfz2014ettc  -0.08190
gfz2014fcms  -2.16140
gfz2014fedd  -1.14150
gfz2014femz   0.07880
gfz2014fexu  -0.74280
gfz2014fgvi   0.07360
gfz2014fgvr   0.14960
gfz2014fgxt  -0.26660
gfz2014fgxz  -0.06820
gfz2014fgyo   0.63620
gfz2014fgza  -0.18000
gfz2014fhbd   0.08640
gfz2014fhdw   0.18310
gfz2014fhhp   0.06100
gfz2014fhjd   0.77810
gfz2014fhla  -0.61640
gfz2014fhlh   0.13600
gfz2014fhrq   0.25920
gfz2014fhsg  -0.38470
gfz2014fhwx   0.59570
gfz2014fimn   0.10030
gfz2014fjpb   0.45630
gfz2014fjzd   0.09940
gfz2014fkmr  -0.65580
gfz2014fkmx  -0.20140
gfz2014fknp   0.01020
gfz2014flfa  -0.19370
gfz2014frdz   0.08010
gfz2014frel   0.92970
gfz2014frez  -0.24900
gfz2014frwh   0.59000
gfz2014fszc   0.16300
gfz2014ftka  -0.58810
gfz2014ftoc  -0.17480
gfz2014ftpw   0.28930
gfz2014ftrk  -0.38330
gfz2014furx   0.37350
gfz2014fusc  -0.12060
gfz2014fusj  -0.00000
gfz2014fusu   0.19920
gfz2014fuub  -0.80720
gfz2014fuup   0.61290
gfz2014fval   0.04700
gfz2014fvgh   0.07000
gfz2014fvpy   0.12770
gfz2014fvrg   0.12850
gfz2014fwyr   1.00770
gfz2014gbcz  -0.73230
gfz2014gbdq   0.67170
gfz2014geuy  -0.44370
gfz2014gezs  -0.20190
gfz2014ghpe   0.11150
gfz2014gkgf  -0.93960
gfz2014gkgs   0.14720
gfz2014gkhp  -0.57350
gfz2014gkhy  -0.43410
gfz2014gkjl   0.49380
gfz2014gkjt  -0.48710
gfz2014gkjw   0.27500
gfz2014gklq   0.40700
gfz2014gklv  -0.09590
gfz2014gkmm   0.20520
gfz2014gkob  -0.39310
gfz2014gkok  -0.06070
gfz2014gkpd  -0.68120
gfz2014gkpj  -0.59670
gfz2014gkqf  -0.26480
gfz2014gkqu   0.04230
gfz2014gksj  -0.34360
gfz2014gksu   0.08740
gfz2014gktq   0.30370
gfz2014gkut   0.86450
gfz2014gkxm  -0.48360
gfz2014glcu   0.15070
gfz2014glcy  -0.42660
gfz2014glgo  -0.41020
gfz2014gltx  -0.01120
gfz2014glvu  -0.43620
gfz2014gmci   0.00000
gfz2014gmge  -0.56390
gfz2014gmhp   1.00280
gfz2014gmhr  -0.47200
gfz2014gmic   0.08510
gfz2014gmjo   0.43230
gfz2014gmku   0.53940
gfz2014gmlz   0.63790
gfz2014gmmk  -0.75380
gfz2014gmmt  -1.79430
gfz2014gmnb  -0.29980
gfz2014gmnw  -0.12150
gfz2014gmor  -0.08930
gfz2014gmpy   0.63000
gfz2014gmrj   0.63020
gfz2014gmtb   0.12370
gfz2014gmuk   0.10920
gfz2014gmvr   0.58930
gfz2014gmzl   0.40570
gfz2014gmzs   0.10040
gfz2014gnfd   0.56240
gfz2014gngg   0.23590
gfz2014gnnt   0.51710
gfz2014gnxb   0.05330
gfz2014goba  -0.28560
gfz2014goei  -0.24240
gfz2014gogv  -0.00000
gfz2014gohm  -0.85480
gfz2014goqw   0.37590
gfz2014gori   0.05400
gfz2014gpce   0.63810
gfz2014gphr  -0.28820
gfz2014gpqq  -4.17420
gfz2014gpuk  -0.47480
gfz2014gpvk  -1.10830
gfz2014gpya  -0.15670
gfz2014gqbj   0.45510
gfz2014gqer   1.17360
gfz2014gqiy   0.21650
gfz2014gqqz  -0.26410
gfz2014gqve   0.10820
gfz2014gsqs  -0.44350
gfz2014gull   0.04360
gfz2014gulp  -0.19450
gfz2014gumd   0.70790
gfz2014gutm  -0.48950
gfz2014gvhw   0.40290
gfz2014gvqj  -0.74580
gfz2014gvra  -1.23750
gfz2014gvrd   0.44670
gfz2014gwab   0.76820
gfz2014gwqj  -1.21980
gfz2014gxkh  -1.15350
gfz2014gxxh  -1.07190
gfz2014gxxo  -0.47120
gfz2014gyxd   0.28660
gfz2014hagb  -0.17240
gfz2014hasj  -0.00790
gfz2014hauo   0.42190
gfz2014hbjm   0.32580
gfz2014hbjz   0.24370
gfz2014hbqb  -0.00000
gfz2014hcmj   0.16740
gfz2014hfhl   0.22760
gfz2014hgqo   0.18450
gfz2014hjgh   0.02160
gfz2014hjgr   0.02640
gfz2014hjij  -0.15850
gfz2014hjlx  -0.45090
gfz2014hkcf   0.34190
gfz2014hkck  -0.03770
gfz2014hmgf  -0.81940
gfz2014hocg   0.02540
gfz2014hphw   0.44860
gfz2014hqxs   0.10150
gfz2014hrft  -0.31840
gfz2014hrtn   0.76300
gfz2014hscz  -0.51830
gfz2014huaj   0.34180
gfz2014hzdy  -0.27510
gfz2014hzfw   0.18450
gfz2014hzgn   0.12320
gfz2014hzhe   0.46580
gfz2014iani  -0.12960
gfz2014iava   0.32400
gfz2014icqt   0.30890
gfz2014ieam   0.15540
gfz2014ifue   0.21080
gfz2014imnn   0.28210
gfz2014inbj  -0.50150
gfz2014iobd   0.11360
gfz2014irci  -0.08350
gfz2014ircq  -0.45430
gfz2014issk   0.42380
gfz2014isub  -0.62070
gfz2014itab   0.04720
gfz2014itbe   0.41190
gfz2014itgh  -0.18300
gfz2014itjx  -0.06880
gfz2014itkw  -0.35880
gfz2014itpj   0.21570
gfz2014iuhq   0.55890
gfz2014jcjt  -0.14510
gfz2014jcmt   0.89360
gfz2014jjhc  -0.02210
gfz2014jjln   0.07380
gfz2014jjqk   0.42240
gfz2014jnxm   0.18130
gfz2014jnyv  -0.07880
gfz2014jomw  -0.30060
gfz2014jpep  -0.04340
gfz2014jpgu   0.13770
gfz2014jtfe  -0.41360
gfz2014jwmh   0.52200
gfz2014kbuk   0.09000
gfz2014khan   0.06680
gfz2014khlk  -0.43030
gfz2014kjzb   0.94200
gfz2014kkhh   0.36240
gfz2014kmmt  -0.09060
gfz2014kndc   0.15520
gfz2014knks   0.02460
gfz2014knxs  -0.36270
gfz2014ksmz   0.52300
gfz2014kwrg   0.37330
gfz2014kyan   0.09160
gfz2014kytf   0.18800
gfz2014kzzm   0.64810
gfz2014lddn  -1.58670
gfz2014lefs   0.69310
gfz2014lgqn   0.40270
gfz2014lkyf   0.38480
gfz2014lnqy   0.17240
gfz2014lpim   1.01460
gfz2014lrzx   0.39020
gfz2014lurd   0.08730
gfz2014lvgn  -0.44970
gfz2014lxnc   0.03360
gfz2014lxqr   0.82960
gfz2014lyhk  -0.03240
gfz2014lyhp   0.59970
gfz2014lynp   0.24980
gfz2014macx  -0.12420
gfz2014madw  -0.22850
gfz2014mcno  -0.09150
gfz2014mlqw  -1.93680
gfz2014moaw  -0.35980
gfz2014mtum  -0.61700
gfz2014mwor   0.21600
gfz2014mxkr  -0.77210
gfz2014ncub   0.15120
gfz2014nowp  -0.30850
gfz2014npdk  -1.40640
gfz2014npeo  -0.32360
gfz2014nphm   0.19200
gfz2014nqfm  -0.13980
gfz2014nrie  -0.12690
gfz2014nyeh   0.35000
gfz2014nyfb   0.16790
gfz2014nyko   0.38190
gfz2014nylm   0.05420
gfz2014odgv   0.29430
gfz2014oinz   0.15120
gfz2014orxs   0.52810
gfz2014oryw   0.34230
gfz2014owxc  -0.12780
gfz2014oyly   0.00000
gfz2014pkll  -0.27420
gfz2014ppzf  -0.02660
gfz2014pqqp  -3.60530
gfz2014pvch   0.02270
gfz2014pzni  -0.12550
gfz2014qlxd   0.03180
gfz2014qngj  -0.18800
gfz2014qqhm  -0.20550
gfz2014raau   0.17520
gfz2014rbpx   1.21800
gfz2014rdsn   0.00870
gfz2014riel  -0.04610
gfz2014rkwl  -0.18310
gfz2014romy   0.18340
gfz2014rtcu   0.06040
gfz2014sadu   0.40120
gfz2014shid   0.07780
gfz2014sjqw   0.11830
gfz2014sptq  -0.57010
gfz2014ssmv  -0.26400
gfz2014ssvz  -0.28430
gfz2014szzf   0.06340
gfz2014tabg   0.32010
gfz2014tovs  -0.41160
gfz2014tqdo  -0.12370
gfz2014tqsf  -0.06140
gfz2014tqth   0.57200
gfz2014tzsd  -0.02500
gfz2014uapa   0.05560
gfz2014ubwn   0.70280
gfz2014udgg  -0.53360
gfz2014uohh  -0.11380
gfz2014uvji   1.86990
gfz2014uvrk  -0.37610
gfz2014vhld   0.38310
gfz2014vhms   0.10410
gfz2014vjoz   0.43510
gfz2014vpus   0.04400
gfz2014waoo  -0.78350
gfz2014watn  -0.12830
gfz2014wjko   0.00200
gfz2014wmsc   0.42890
gfz2014wrkh   0.32470
gfz2014wwib   0.21960
gfz2014xaxx   0.46010
gfz2014xbyr   0.25090
gfz2014xjri   0.06740
gfz2014xoji   0.44880
gfz2014xqby  -0.09370
gfz2014xqqd   0.00000
gfz2014yhhm   0.10520
gfz2014ynhc  -3.58300
gfz2014ynzy  -0.54930
gfz2014yppv   0.14940
gfz2014yrug   0.62540
gfz2014yula   0.11010
gfz2014zkys  -0.58490
gfz2014zlgp  -0.00000
gfz2014zplq  -0.19960
gfz2015abpw   0.02460
gfz2015apnk  -0.02940
gfz2015aqav   0.01940
gfz2015aqbq  -0.94450
gfz2015arpd   0.06630
gfz2015aruz  -0.11010
gfz2015atxv  -0.37450
gfz2015berb   0.51380
gfz2015bfjm  -0.07720
gfz2015bkbj  -0.12240
gfz2015bphe   1.12240
gfz2015bsnl   0.31030
gfz2015bucr  -3.12220
gfz2015bvsj   0.52490
gfz2015byfn   0.54260
gfz2015byjd   0.34980
gfz2015cewd   0.23660
gfz2015chhn   0.15450
gfz2015chqn  -0.14470
gfz2015cxhx  -0.11150
gfz2015cxxk   0.41870
gfz2015cyjd   0.97090
gfz2015czfv   0.00000
gfz2015dizn  -0.11090
gfz2015djts   0.24950
gfz2015drlk  -0.25320
gfz2015dskr   0.28200
gfz2015dvbn   0.06410
gfz2015ecgq   0.62720
gfz2015ednc   0.96170
gfz2015eeyq   0.26990
gfz2015egxq  -0.10420
gfz2015eiky   0.52890
gfz2015elgy  -0.11660
gfz2015eljz  -0.35380
gfz2015emtg   0.07550
gfz2015etai  -0.16670
gfz2015evpl  -0.04860
gfz2015fbbk  -0.18830
gfz2015fcua  -0.02770
gfz2015fdpr   0.66880
gfz2015fjhk   0.56020
gfz2015fkgt   0.16330
gfz2015fkic   0.03110
gfz2015fkjs  -1.38020
gfz2015fkkd   0.08860
gfz2015flis   0.10860
gfz2015fpez   0.10010
gfz2015fsjj   0.45120
gfz2015fvoi   0.21260
gfz2015fxbv   0.17920
gfz2015fxdi  -0.11010
gfz2015gckd   0.11200
gfz2015gjbr   0.65100
gfz2015gkwa  -0.00260
gfz2015gmgf  -0.08570
gfz2015gnmy  -0.12320
gfz2015gzja  -0.09310
gfz2015hgbk   0.15040
gfz2015hlqo   0.40120
gfz2015hpmk   0.34950
gfz2015iele  -0.15940
gfz2015imty  -0.54670
gfz2015ixyy   0.30870
gfz2015jkdw  -0.26380
gfz2015jmlf   0.98840
gfz2015jmlu  -0.35400
gfz2015jwgl   0.10230
gfz2015jxbx  -0.41070
gfz2015jzcv  -0.70240
gfz2015kakw   0.15980
gfz2015kalm   0.05350
gfz2015kcaa   0.13600
gfz2015kfsu  -0.00610
gfz2015kkqb   0.58750
gfz2015kkth  -0.04020
gfz2015kphk   0.44090
gfz2015kquq   0.38410
gfz2015ksni  -0.19940
gfz2015kvwz   0.29590
gfz2015lfma   0.50730
gfz2015lhjq   0.87320
gfz2015lhjy   0.43200
gfz2015ltii  -0.59430
gfz2015ltro   0.88370
gfz2015lytv   0.01770
gfz2015lzad   0.00000
gfz2015mddr  -0.22340
gfz2015mhym   2.21690
gfz2015mpte  -0.02070
gfz2015nerz  -0.00000
gfz2015nqgf   0.18530
gfz2015nuxz  -0.10180
gfz2015nwug  -0.66290
gfz2015ocdz  -0.07710
gfz2015okmq  -0.07600
gfz2015okpu   0.44740
gfz2015orkl   0.32450
gfz2015plal  -0.05960
gfz2015poni   0.20850
gfz2015qisx   0.48770
gfz2015qnde  -0.94720
gfz2015qnho   0.01110
gfz2015qnto   0.06820
gfz2015qprd  -0.17140
gfz2015qpvd  -0.42250
gfz2015quzo  -0.61600
gfz2015rgov   0.69550
gfz2015rgrg   0.26120
gfz2015rkrg   0.00000
gfz2015rkzg  -0.11370
gfz2015rtnv   0.13590
gfz2015rwsb  -0.05660
gfz2015rxmg   0.30560
gfz2015saet   0.68680
gfz2015sdeo  -0.07320
gfz2015sdfy  -0.03660
gfz2015sevh   0.10160
gfz2015sfdd   0.18090
gfz2015sfdl  -0.81830
gfz2015sfdy   0.33560
gfz2015sfeo  -0.25780
gfz2015sffn   0.32070
gfz2015sfga   0.20980
gfz2015sfho   0.77650
gfz2015sfhz  -1.27990
gfz2015sfiq  -0.43900
gfz2015sfkh  -0.35930
gfz2015sfks   0.67200
gfz2015sfkz  -0.10610
gfz2015sflf   0.21400
gfz2015sfnb   0.24560
gfz2015sfno  -0.06040
gfz2015sfnv  -0.11820
gfz2015sfoc  -0.19250
gfz2015sfoq   1.17300
gfz2015sfps  -0.05730
gfz2015sfqo  -1.51790
gfz2015sfqr  -0.34650
gfz2015sfrf   0.05860
gfz2015sfsi   0.36110
gfz2015sfte  -0.13570
gfz2015sftu   0.08580
gfz2015sfuz   0.14860
gfz2015sfwf   0.15520
gfz2015sfxn  -0.18370
gfz2015sfzm  -0.80000
gfz2015sgad   0.26080
gfz2015sgmr   0.35740
gfz2015sgxc   0.07870
gfz2015sgyd   0.84050
gfz2015shaq   0.23000
gfz2015shhg  -2.51860
gfz2015shhu  -0.27590
gfz2015shjn  -0.07770
gfz2015shjo   0.37070
gfz2015shqe  -0.49060
gfz2015shrg   0.04880
gfz2015shsz  -0.49950
gfz2015siky   0.56060
gfz2015sing  -0.11360
gfz2015sist   0.04390
gfz2015sitn   0.15660
gfz2015siyy  -0.42110
gfz2015sjbx   0.66120
gfz2015sjfi   0.22660
gfz2015sjgk  -0.40570
gfz2015sjjb  -0.09560
gfz2015sjne   0.17490
gfz2015sjoj   0.23020
gfz2015sjpn   0.32910
gfz2015sjvu   0.36330
gfz2015sjwi  -0.81150
gfz2015skab   0.05220
gfz2015skgj   0.46040
gfz2015sklu  -0.67820
gfz2015skpv  -0.36290
gfz2015skxu  -0.14130
gfz2015sldx   0.24240
gfz2015sljs   2.12510
gfz2015slun  -0.18060
gfz2015smym  -0.42990
gfz2015snmr  -0.19510
gfz2015snsf   0.22570
gfz2015snwh  -0.34310
gfz2015snyd  -0.01780
gfz2015soat   0.11140
gfz2015sopc  -0.04230
gfz2015sowu   0.88630
gfz2015soxc   0.19230
gfz2015sqmy  -0.08750
gfz2015srat   0.42760
gfz2015stfy   0.61740
gfz2015stso   0.46710
gfz2015subz   0.18460
gfz2015svjy   0.39240
gfz2015svwm   0.34830
gfz2015sxmh  -0.61540
gfz2015sxxu   0.15500
gfz2015szcb  -0.50040
gfz2015szfe  -0.57630
gfz2015sztx   0.19900
gfz2015taml   0.66930
gfz2015tbdn   0.12180
gfz2015tbxe   0.50890
gfz2015tdhb  -0.19580
gfz2015teje  -0.49170
