# Nsamples: 1533  MAD:  0.446  mean: -0.003  variance:  0.516
gfz2010aban   0.67610
gfz2010aerk   0.43340
gfz2010ahqi   0.37400
gfz2010aykj  -1.03660
gfz2010bfzs   0.19220
gfz2010bgth  -0.12700
gfz2010bhhq  -0.60670
gfz2010bifb  -0.74580
gfz2010bjeb  -0.26020
gfz2010bjjx   1.06730
gfz2010bjsl  -1.17690
gfz2010bkob   0.24150
gfz2010bowy   0.03950
gfz2010boxo   0.01110
gfz2010bpda  -0.16410
gfz2010bxxs  -0.37140
gfz2010caft  -0.30340
gfz2010cbkg  -0.13390
gfz2010cdbt   0.59970
gfz2010chnv   0.10270
gfz2010cind   0.26330
gfz2010civi   0.12360
gfz2010ckeu  -0.36650
gfz2010ckzm  -0.41830
gfz2010cnwc  -1.91750
gfz2010cqwl   0.33350
gfz2010cres   0.64220
gfz2010ctuw  -0.43170
gfz2010czps  -0.35390
gfz2010ddzo   0.32420
gfz2010dejx  -0.28850
gfz2010dfru   0.77580
gfz2010diqn   0.87490
gfz2010dlgc   0.37630
gfz2010dtmx   0.18590
gfz2010dumm  -0.41090
gfz2010eaoy   0.14500
gfz2010eapn   0.59680
gfz2010eaqe   0.51780
gfz2010eaqx   0.61400
gfz2010eaqy   0.30870
gfz2010earu  -0.53630
gfz2010easf   1.52480
gfz2010eask  -6.47390
gfz2010easo  -0.28440
gfz2010easu   0.16910
gfz2010eati  -0.13500
gfz2010eato   0.12450
gfz2010eatt  -1.52230
gfz2010eaty   0.97580
gfz2010eaul   0.31320
gfz2010eavs  -0.13410
gfz2010eawb   0.40820
gfz2010eawu  -7.46850
gfz2010eaxa   0.42250
gfz2010eaya  -3.34890
gfz2010eayd  -0.05180
gfz2010eayp  -0.40740
gfz2010eayx  -0.14120
gfz2010eaze   0.12130
gfz2010eazu  -2.98660
gfz2010ebbd  -0.36700
gfz2010ebbx  -3.01110
gfz2010ebby   1.46210
gfz2010ebdl   0.68280
gfz2010ebeh  -0.71180
gfz2010ebek   0.52130
gfz2010ebfa   0.05160
gfz2010ebfx   0.53680
gfz2010ebgj  -0.03920
gfz2010ebhc   0.93700
gfz2010ebih  -0.20410
gfz2010ebin  -2.06700
gfz2010ebiv   0.52070
gfz2010ebjy  -0.12850
gfz2010ebkj  -0.10310
gfz2010ebla   0.35580
gfz2010ebll  -0.25000
gfz2010ebmb   0.15260
gfz2010ebmi  -0.99260
gfz2010ebnn   0.71990
gfz2010ebqt  -0.75270
gfz2010ebrm   0.22880
gfz2010ebsv   0.53530
gfz2010ebvm   0.27380
gfz2010ebvv   0.06930
gfz2010ebwp   0.14080
gfz2010ebxl   0.32200
gfz2010ebze  -0.35470
gfz2010ebzk   0.23920
gfz2010ebzr  -0.10760
gfz2010ecam   0.02290
gfz2010ecay  -0.78060
gfz2010ecbi   0.32590
gfz2010eccq   0.38480
gfz2010ecdu  -0.19130
gfz2010eced   0.31510
gfz2010ecft  -0.10800
gfz2010ecfx  -0.29790
gfz2010ecgh   0.95850
gfz2010echc   0.01730
gfz2010echt   0.06420
gfz2010echy   0.26930
gfz2010ecka  -0.57730
gfz2010ecls  -0.53750
gfz2010ecml  -1.10900
gfz2010ecns   0.02970
gfz2010ecps   0.10590
gfz2010ecro  -0.22660
gfz2010ecsp   0.07330
gfz2010ectq  -0.34740
gfz2010ecua  -0.18370
gfz2010ecuv   0.24220
gfz2010ecvt   0.66810
gfz2010ecyr  -0.28480
gfz2010edad   1.23800
gfz2010edat  -0.06130
gfz2010edbz   0.25620
gfz2010edcp   0.14050
gfz2010edde  -0.30530
gfz2010edhr   0.16650
gfz2010edhv   0.33200
gfz2010edim  -0.10740
gfz2010edkp  -0.35100
gfz2010edoq   0.08850
gfz2010edpb  -0.12890
gfz2010edqd  -0.22280
gfz2010edsk  -0.09610
gfz2010edsn   0.13630
gfz2010edun  -0.31090
gfz2010edvf  -0.01440
gfz2010edyi  -0.87510
gfz2010edzb   0.25450
gfz2010eedu  -0.56310
gfz2010eefh  -0.12040
gfz2010eefo  -0.37290
gfz2010eegn  -0.20820
gfz2010eeia   0.50100
gfz2010eeij  -0.10750
gfz2010eekg   0.88700
gfz2010eekq  -0.48170
gfz2010eeng  -0.64310
gfz2010eerh   0.39840
gfz2010eern   0.11640
gfz2010eesf  -0.09070
gfz2010eevu   0.26410
gfz2010eexz  -0.45980
gfz2010eeyh   0.59630
gfz2010efak   0.27490
gfz2010efbh  -0.44590
gfz2010efbi  -0.56380
gfz2010efls  -0.14960
gfz2010efnf  -0.17100
gfz2010efsq  -0.70050
gfz2010efwo  -0.75400
gfz2010egap   0.44670
gfz2010eghq   0.25420
gfz2010egld   0.58870
gfz2010egln  -0.73530
gfz2010egmp   0.57090
gfz2010egqh  -0.36640
gfz2010egsw   0.83720
gfz2010egsy  -0.11490
gfz2010egyy   0.29940
gfz2010ehaj  -0.04400
gfz2010ehft  -0.32720
gfz2010ehnl   0.13160
gfz2010ehsy   0.09350
gfz2010ehvj   0.08640
gfz2010ehwg  -0.41140
gfz2010ehxz   0.30810
gfz2010eioi  -0.59600
gfz2010eisx  -1.08800
gfz2010eixj   0.07250
gfz2010ejco   0.10750
gfz2010ejjg   0.83110
gfz2010ejju   0.82600
gfz2010ejka   0.33710
gfz2010ejma  -0.35920
gfz2010ejxf   0.19020
gfz2010ekaw  -0.08590
gfz2010ekoe  -0.10560
gfz2010ekrv   0.15690
gfz2010ekyc  -0.11670
gfz2010elhv   0.11280
gfz2010elin  -0.57410
gfz2010eljf  -1.30310
gfz2010elsw  -1.58860
gfz2010eltf   0.29290
gfz2010elvp   0.31090
gfz2010elyc  -1.27000
gfz2010elyo  -1.01270
gfz2010elzf  -0.15470
gfz2010elzl   0.41010
gfz2010emoz  -0.82350
gfz2010emyz   0.32770
gfz2010encm   5.70020
gfz2010ensu  -0.68570
gfz2010enzl  -0.28140
gfz2010eoao  -5.12140
gfz2010eohh   2.49640
gfz2010epbe   0.80880
gfz2010epxj  -0.44160
gfz2010epzk   0.43670
gfz2010eqcn   0.26920
gfz2010eqjg   0.11990
gfz2010eqmu  -2.50340
gfz2010eqse   0.72300
gfz2010eqwl   1.84460
gfz2010erdi   0.80000
gfz2010erig  -0.25740
gfz2010erkn   0.19890
gfz2010erna  -0.31690
gfz2010erom  -0.24800
gfz2010erum   0.22080
gfz2010eruy  -0.67050
gfz2010erwn  -0.28770
gfz2010erxk   0.80590
gfz2010esid  -0.48360
gfz2010esmg  -0.65560
gfz2010euae  -0.11380
gfz2010euan   0.20270
gfz2010euii  -0.87980
gfz2010eujm  -0.33660
gfz2010euvl   0.43930
gfz2010euwb  -2.71870
gfz2010euxe   0.00000
gfz2010evco  -0.24920
gfz2010evgf   0.14190
gfz2010evjv   0.60450
gfz2010ewbc   0.46630
gfz2010ewvc   0.13880
gfz2010ewyu   0.02980
gfz2010excp  -0.38850
gfz2010exdd  -0.24100
gfz2010exdl  -0.98310
gfz2010exed   0.93190
gfz2010exel   0.79540
gfz2010exgb   0.20290
gfz2010exhd  -0.06980
gfz2010exhw  -0.02330
gfz2010exjw  -0.00000
gfz2010exlm   0.42990
gfz2010exmc  -0.22400
gfz2010exno   0.31200
gfz2010exou   0.46230
gfz2010exqu  -0.22700
gfz2010exts   1.58510
gfz2010exyp   0.03710
gfz2010eyaz   1.70450
gfz2010eybj   2.10920
gfz2010eyhh   0.04590
gfz2010eyiv  -0.08800
gfz2010eymr   0.33560
gfz2010eymx  -0.18390
gfz2010eyqe   0.33870
gfz2010eyvq   0.35890
gfz2010ezax  -0.09380
gfz2010ezck   0.11560
gfz2010ezig  -0.34070
gfz2010ezvg  -1.25690
gfz2010ezvt   0.43140
gfz2010ezwz  -0.17150
gfz2010ezxd   0.78620
gfz2010faeu  -0.42260
gfz2010falm   0.38870
gfz2010fauz  -0.32170
gfz2010faxg   0.27420
gfz2010fbeu   0.19590
gfz2010fbpi  -0.36340
gfz2010fcax  -0.19010
gfz2010fcdw  -0.49420
gfz2010fciw  -0.41370
gfz2010fcnn   0.42030
gfz2010fcnt  -0.04950
gfz2010fcxy  -0.46250
gfz2010fcyj   0.26420
gfz2010fczt  -0.03600
gfz2010fdab   0.15850
gfz2010fdxr   2.15180
gfz2010fedq  -0.68040
gfz2010fefr  -0.85260
gfz2010fexw  -0.30200
gfz2010ffhq   0.22380
gfz2010ffjb   0.67660
gfz2010ffui  -0.57860
gfz2010figq  -0.00000
gfz2010fihj  -0.36260
gfz2010fika   0.16180
gfz2010fixr   0.51900
gfz2010fjal  -0.16700
gfz2010fjas  -0.56180
gfz2010fjmu   0.68800
gfz2010fjni   0.47730
gfz2010fkia   1.51780
gfz2010fknh   0.29000
gfz2010fkvg  -0.26810
gfz2010flha  -0.10040
gfz2010flrt   0.67430
gfz2010flxi  -0.13540
gfz2010fmhb  -0.23190
gfz2010fmwb  -1.79630
gfz2010fneu  -0.40380
gfz2010fnrk   0.92980
gfz2010fpmv  -0.44590
gfz2010fpqy   0.23910
gfz2010fqdu  -0.39740
gfz2010fser  -0.86190
gfz2010ftlm   0.25970
gfz2010fupn   0.01760
gfz2010fuuy   1.19300
gfz2010fwlb   0.07940
gfz2010fwny   0.26990
gfz2010fwpv  -0.14850
gfz2010fwzd   0.72930
gfz2010fyed  -1.15900
gfz2010fyen   0.07510
gfz2010fync   0.30840
gfz2010fzoi   0.84050
gfz2010fzsg  -0.16050
gfz2010gcdn  -0.04980
gfz2010gcrl  -0.07340
gfz2010gcrp   0.38630
gfz2010gdch   1.93660
gfz2010gdld   0.28270
gfz2010ghyk  -0.29450
gfz2010gjia  -0.11230
gfz2010gjvo   0.20040
gfz2010glxl   0.51170
gfz2010gmib   0.07000
gfz2010govu  -0.11010
gfz2010grjd  -0.04540
gfz2010grss  -0.81920
gfz2010gslu   0.14760
gfz2010gtqs  -0.05750
gfz2010gtzt   0.42020
gfz2010gymo  -0.25460
gfz2010gyqp  -0.17250
gfz2010gzxr  -0.33180
gfz2010hbka   0.78290
gfz2010hcio  -0.36540
gfz2010hevz  -0.30750
gfz2010hgld  -0.07110
gfz2010hhls   0.45970
gfz2010hjoc   0.06710
gfz2010hllj   0.04570
gfz2010hlln  -0.09420
gfz2010hlmq   0.12810
gfz2010hlvr   0.11490
gfz2010hmhm   0.58240
gfz2010hndk  -0.59010
gfz2010hnnf  -0.20470
gfz2010hnpi   0.44490
gfz2010homc   0.94210
gfz2010hptz   0.84350
gfz2010hrkr   0.43360
gfz2010hrpr   0.18780
gfz2010htdq  -0.19860
gfz2010hxbs   0.92270
gfz2010hxgv  -0.58600
gfz2010hxhe  -0.13530
gfz2010hzar  -0.15760
gfz2010ibiy   0.27370
gfz2010iciq   1.28830
gfz2010icqq   0.22310
gfz2010iimu  -0.02080
gfz2010ijtk  -0.53160
gfz2010imfv   1.97440
gfz2010imsh   0.08200
gfz2010iobp  -0.15490
gfz2010iphd  -0.24200
gfz2010ipsg  -0.16680
gfz2010iqep  -0.67820
gfz2010iqfm   0.23920
gfz2010iqus   1.69850
gfz2010irqr   0.43600
gfz2010irvf  -0.09140
gfz2010ited  -0.07870
gfz2010itpb  -0.30230
gfz2010iull  -0.27030
gfz2010izzj   0.21030
gfz2010jagd   0.05490
gfz2010jatq   0.12520
gfz2010jhie  -0.45080
gfz2010jipf   0.22220
gfz2010jkxj  -0.56390
gfz2010jpss  -0.41000
gfz2010jqxx  -0.20480
gfz2010jssh   0.68260
gfz2010jsuh  -3.99470
gfz2010jsuo  -0.43090
gfz2010jucj   0.28660
gfz2010jwpy  -1.93560
gfz2010jxbm   0.22820
gfz2010jygz   0.15030
gfz2010jzku   0.41920
gfz2010kcoo   0.40130
gfz2010kdyc  -1.07170
gfz2010kgws  -0.38520
gfz2010kihf  -1.03160
gfz2010kjmp   0.01940
gfz2010kmgg  -0.07830
gfz2010lczp  -1.36640
gfz2010lepw   0.13260
gfz2010lfju   0.32910
gfz2010lgwy   0.62150
gfz2010liqs  -0.13950
gfz2010lkcf   0.03990
gfz2010lopz   0.43950
gfz2010lrlk  -0.51550
gfz2010lyfk  -0.25470
gfz2010mdpq  -0.33080
gfz2010mgss  -0.18110
gfz2010miil   0.05390
gfz2010mipi   0.56700
gfz2010miqn  -0.15940
gfz2010mkuu   0.36130
gfz2010mlkz  -0.11260
gfz2010mlta  -1.56080
gfz2010mncc  -0.37170
gfz2010mnhm   0.87950
gfz2010mnsz   0.69560
gfz2010moyw  -0.53780
gfz2010mpuy  -0.55090
gfz2010msjj  -0.10630
gfz2010mtab  -0.44190
gfz2010muca   0.03910
gfz2010mwdq  -0.11910
gfz2010mzjr  -0.11690
gfz2010ncrl  -0.09970
gfz2010ndxl   1.47830
gfz2010nfsj   0.37290
gfz2010nlkh   0.04720
gfz2010nmpc  -1.09880
gfz2010nnny   0.18980
gfz2010nqwf   0.51550
gfz2010nqwo   0.64250
gfz2010nrjo   0.64670
gfz2010nsck  -0.82180
gfz2010nsdf   1.56890
gfz2010nsjs   0.24440
gfz2010ntuo  -0.13840
gfz2010nubk  -0.50650
gfz2010nwef  -0.08630
gfz2010nxsy   1.16120
gfz2010nxum   0.16010
gfz2010nzla  -0.45710
gfz2010ocxq   0.15680
gfz2010odpb   0.45230
gfz2010oedn   0.21810
gfz2010okdm   0.06210
gfz2010oluw   0.42440
gfz2010omla   0.13130
gfz2010onma   0.17670
gfz2010otbn   0.11080
gfz2010oyqy  -1.19810
gfz2010pbdz  -0.11730
gfz2010pcxi  -0.21960
gfz2010pdtk  -0.33170
gfz2010pets   0.19640
gfz2010pewa   0.15610
gfz2010pewx   1.04370
gfz2010pexf   0.62090
gfz2010pfyu   0.16470
gfz2010phvg  -0.30150
gfz2010plbg  -1.01170
gfz2010pmqd  -0.34600
gfz2010pqck  -0.34940
gfz2010pxak   0.08400
gfz2010pxgh   0.56470
gfz2010pxls   0.37510
gfz2010qbng  -0.41130
gfz2010qitd  -0.39730
gfz2010qjst   0.19560
gfz2010qpcq  -0.21180
gfz2010qpum   0.53720
gfz2010qpvi   0.16750
gfz2010qwwx   0.10720
gfz2010rhas  -0.18530
gfz2010rkfp   0.05400
gfz2010rlbv   4.85560
gfz2010rqwj  -0.56910
gfz2010rzrr  -0.21170
gfz2010rzsd   1.23270
gfz2010sfee   0.04490
gfz2010sfla  -0.13710
gfz2010sgzk  -0.31390
gfz2010skqo  -0.27360
gfz2010skve  -0.20070
gfz2010srdb  -0.31830
gfz2010suww   0.21000
gfz2010svtn  -0.34990
gfz2010svve   0.70890
gfz2010swcy  -0.01980
gfz2010sxfq  -0.38060
gfz2010sxwt  -0.36800
gfz2010szde  -0.37790
gfz2010szim  -0.04370
gfz2010tcbr   0.06780
gfz2010tcrl   0.58250
gfz2010titk   0.67510
gfz2010tlfm   0.50520
gfz2010truw   0.44680
gfz2010txjs   0.41490
gfz2010uept   0.35290
gfz2010upfb  -0.44490
gfz2010upiw   2.66460
gfz2010urlq   0.40440
gfz2010usho   0.11060
gfz2010ustq   0.12770
gfz2010utcg   0.08100
gfz2010utmc   0.11070
gfz2010uvhf  -0.16130
gfz2010uyhb  -1.38200
gfz2010uzon  -0.24660
gfz2010veri  -0.10340
gfz2010vhuj   0.15820
gfz2010vppc  -0.27290
gfz2010vtdg  -0.26120
gfz2010vyxd   0.03380
gfz2010vzpr   0.27110
gfz2010wioh  -0.66910
gfz2010wnty   0.15520
gfz2010wntz   0.15330
gfz2010wofs  -0.46420
gfz2010wrxx   0.26250
gfz2010wxqa  -0.15480
gfz2010xbcr   0.07280
gfz2010xbdv  -0.38900
gfz2010xbgs  -0.26300
gfz2010xcdh  -0.42910
gfz2010xche  -0.17960
gfz2010xcij  -0.67830
gfz2010xden   0.06170
gfz2010xgfc   0.43480
gfz2010xgzw  -0.41190
gfz2010xjck  -0.28860
gfz2010xjsj  -0.09400
gfz2010xmpr   0.91460
gfz2010xnxk  -0.02870
gfz2010xxdb  -1.61000
gfz2010yjev  -0.98870
gfz2010ymfy   0.02110
gfz2010ymur  -0.81790
gfz2010yosr  -0.11780
gfz2010yqqv  -0.01950
gfz2010yqwx   0.83420
gfz2011aatr   0.66980
gfz2011adjs  -1.00860
gfz2011adlj  -0.18110
gfz2011adpw  -1.60360
gfz2011adqk   0.76840
gfz2011aeay   0.41590
gfz2011aldv   0.24470
gfz2011alip  -0.04190
gfz2011alsa   0.15340
gfz2011anur  -0.23610
gfz2011aosc  -0.34040
gfz2011aqxf  -0.09960
gfz2011blsi  -2.24440
gfz2011bnzn   0.80880
gfz2011bpkd   0.35070
gfz2011bswz   0.44270
gfz2011ccpw   0.13480
gfz2011cfae  -0.31550
gfz2011cndo   0.93650
gfz2011coxh  -0.56990
gfz2011csju  -0.56340
gfz2011cvfg  -0.71780
gfz2011cykd  -0.52410
gfz2011cylz  -0.62890
gfz2011cynl   0.25430
gfz2011cyre   1.26130
gfz2011cyuk   0.34360
gfz2011czwj  -0.18860
gfz2011dbev   0.03820
gfz2011dbig  -0.43680
gfz2011dbon  -0.07700
gfz2011dbwt  -0.47320
gfz2011dcqb  -1.43430
gfz2011dcqf   0.13990
gfz2011dddh  -0.71960
gfz2011deaf  -0.57970
gfz2011dkyi   0.18860
gfz2011dlyx   0.28890
gfz2011dmat   0.14630
gfz2011dndz   0.77770
gfz2011dpaa   0.49230
gfz2011dpmx  -0.15630
gfz2011dpqx   1.03680
gfz2011duyr   0.67090
gfz2011eayc   0.14940
gfz2011eazf  -0.06640
gfz2011ecaj   0.11970
gfz2011edmm   0.92320
gfz2011eebc  -0.54960
gfz2011ehzq  -0.39120
gfz2011ejlp   0.25540
gfz2011eltw  -0.56370
gfz2011enva  -0.55180
gfz2011eocc   0.90020
gfz2011etje   0.69900
gfz2011fdzv   0.45440
gfz2011fgvr  -0.10280
gfz2011fhag   0.19600
gfz2011fhbm   0.09480
gfz2011fhur   0.15020
gfz2011fkbn  -0.21570
gfz2011flgj  -0.26320
gfz2011fnsw   0.19350
gfz2011gbmx  -0.05690
gfz2011gcwb   0.02460
gfz2011gdgh  -0.24910
gfz2011ggvf  -0.57140
gfz2011ghky  -0.42150
gfz2011gkey  -0.95210
gfz2011gkzt  -0.95900
gfz2011gzbr  -0.32550
gfz2011haid  -0.35660
gfz2011hbex  -0.27670
gfz2011hbqk   0.55810
gfz2011hebt  -0.62770
gfz2011hfkj   0.16900
gfz2011hlqw   0.01490
gfz2011hlsa  -0.32920
gfz2011hlth  -0.12360
gfz2011hpgx   0.15620
gfz2011hpqp  -0.22560
gfz2011hrhe   0.12530
gfz2011hryk   0.34450
gfz2011hsfj   2.78720
gfz2011hvbu  -0.35350
gfz2011icxe   0.47200
gfz2011ieie   0.58480
gfz2011knoo   0.32740
gfz2011kqwo  -0.80880
gfz2011kqyg  -0.72110
gfz2011kwid  -0.16850
gfz2011kwjx  -0.33710
gfz2011kwkw   0.01950
gfz2011kwlq  -0.01850
gfz2011kwqc  -0.56130
gfz2011kxzp   0.49400
gfz2011lcxq   0.53740
gfz2011lczg   0.10790
gfz2011lgsg  -0.12750
gfz2011lhls   0.10430
gfz2011lvjr  -0.49340
gfz2011lzwj   0.39530
gfz2011mdie   0.67350
gfz2011mepc   0.07330
gfz2011mjom   0.38550
gfz2011mllx   0.09460
gfz2011mlvw   0.35850
gfz2011mpme   0.18830
gfz2011mprq   0.00520
gfz2011myia   0.05230
gfz2011nauw  -0.43540
gfz2011nmnq   0.66080
gfz2011noud   0.57290
gfz2011nqpd  -0.21290
gfz2011nrwc  -0.22450
gfz2011nrwv   0.22000
gfz2011nsex  -0.44710
gfz2011ntkh  -0.05910
gfz2011ntrv   0.35980
gfz2011nudm  -0.00000
gfz2011ogqk   0.10030
gfz2011ohcy   0.33880
gfz2011oiqe   0.14230
gfz2011oiwk   0.78330
gfz2011olkk   0.55000
gfz2011oolr  -0.06250
gfz2011orgn   0.48830
gfz2011ornx   0.35880
gfz2011pccd  -0.00000
gfz2011pdpt   0.18330
gfz2011pdst   0.24970
gfz2011phms   0.32530
gfz2011pntf  -0.32220
gfz2011ptus  -0.32920
gfz2011qigx  -0.46760
gfz2011qvae   1.25160
gfz2011qyms  -0.09080
gfz2011rabm   0.27080
gfz2011rdby  -3.87760
gfz2011rewa  -0.20310
gfz2011rgwp  -0.56360
gfz2011rqui  -0.54080
gfz2011rsrh  -0.49810
gfz2011sagt  -0.26670
gfz2011shqm  -0.19850
gfz2011stal   0.82470
gfz2011svix   1.07330
gfz2011tbas   0.11630
gfz2011tcij  -0.99020
gfz2011tivu  -0.43700
gfz2011tjue  -0.26970
gfz2011tkfp   1.71740
gfz2011tkog  -0.26740
gfz2011toub   0.92900
gfz2011tpbl  -0.34540
gfz2011tpfr  -0.92870
gfz2011tsfd  -0.23780
gfz2011tsnp   1.10450
gfz2011tuea   0.50210
gfz2011twov  -0.03630
gfz2011udsq   0.33240
gfz2011uepx   0.15700
gfz2011ugzz   0.26420
gfz2011ujze   0.14770
gfz2011ukmp   0.46090
gfz2011uphh   0.31430
gfz2011urxy  -0.42500
gfz2011urzu  -0.36490
gfz2011uzqv   0.86310
gfz2011vclt   0.21560
gfz2011vhfi   0.19420
gfz2011vldk  -0.22290
gfz2011vnza   0.31540
gfz2011vrhg   0.26410
gfz2011vxns  -0.24550
gfz2011vxod  -0.08880
gfz2011vxxg   0.60730
gfz2011wcic   0.38280
gfz2011wfja  -0.15820
gfz2011wjul   0.18610
gfz2011wtmq  -0.42270
gfz2011wvzb   0.55420
gfz2011wwjs   0.11920
gfz2011wxfs   0.94490
gfz2011wxoj   0.29860
gfz2011wxtk  -0.10820
gfz2011wype   0.62930
gfz2011xaan  -1.09760
gfz2011xcpv   0.00000
gfz2011xesx   0.43530
gfz2011xqru  -1.61230
gfz2011xyxj   0.14570
gfz2011yfdx   0.10420
gfz2011yfys   0.65930
gfz2011ytnu  -0.11610
gfz2011yybo  -0.02890
gfz2011yzwq  -0.09080
gfz2011zjap  -0.01940
gfz2011zklv  -0.20490
gfz2011zlrd   0.06080
gfz2011zqhh   0.24790
gfz2012ajtq   0.30990
gfz2012aqgp  -0.04610
gfz2012aqtq  -0.21070
gfz2012attr  -0.14480
gfz2012bfah  -0.16410
gfz2012bfyn   0.75890
gfz2012bpkx   0.59800
gfz2012bpnl  -0.26160
gfz2012bpwl  -0.04600
gfz2012bqeb   0.03080
gfz2012brhv   1.07700
gfz2012bszs  -0.26540
gfz2012byad  -0.52940
gfz2012cgvr   0.65190
gfz2012cmfy  -0.64300
gfz2012cnod  -0.46470
gfz2012covm   0.63210
gfz2012cqnl   0.09870
gfz2012cxdn   0.02560
gfz2012czlw   0.37440
gfz2012ddma   0.27390
gfz2012deri  -0.24090
gfz2012dimn  -0.24270
gfz2012dinb   0.52880
gfz2012dyyh   0.03610
gfz2012ekda  -0.19440
gfz2012ekzf  -0.22160
gfz2012elce   0.33620
gfz2012emjg   0.52900
gfz2012enno   0.57230
gfz2012eskt  -0.58510
gfz2012ewgo   0.04400
gfz2012fbfo  -0.07750
gfz2012fhnh  -0.40540
gfz2012fivh   1.93870
gfz2012foeo   0.43200
gfz2012fqcg   0.66880
gfz2012fwfo   0.86150
gfz2012fwob  -0.52040
gfz2012fwtr   0.98770
gfz2012fzfa  -0.07050
gfz2012fzsq   0.08430
gfz2012gcgn  -0.46420
gfz2012gill  -0.27220
gfz2012gkvr  -0.54000
gfz2012gnvh   0.00000
gfz2012gocc  -0.06830
gfz2012gomm   0.72640
gfz2012gwqb   0.37600
gfz2012hdbm  -0.05550
gfz2012hnul   0.17050
gfz2012hogg  -0.13890
gfz2012holl   0.15360
gfz2012hwmz   0.77660
gfz2012hyaa  -0.15120
gfz2012hzbe  -0.06300
gfz2012icmv   2.79620
gfz2012iffo   0.29740
gfz2012ihdl   0.02780
gfz2012iivw  -0.59360
gfz2012ilvn  -0.13730
gfz2012imay   0.47600
gfz2012jgvj   0.23100
gfz2012jjzc   0.16280
gfz2012jlox  -0.22860
gfz2012jqvn   0.11800
gfz2012jshk   0.44950
gfz2012jupx  -0.09960
gfz2012jwhu   0.22140
gfz2012kbzj   0.05240
gfz2012kdmb  -0.31980
gfz2012keor  -0.21670
gfz2012kkcp   0.65730
gfz2012kkup   0.10950
gfz2012klba  -0.02210
gfz2012klhx  -0.05970
gfz2012kuct   0.26310
gfz2012kudo   0.19420
gfz2012kvzv  -0.16590
gfz2012kwgo   0.10630
gfz2012lczo  -0.27520
gfz2012ldgs   0.06500
gfz2012ldxg  -0.09840
gfz2012ldzj  -0.63940
gfz2012lltr  -0.73400
gfz2012llug   0.96440
gfz2012lpvn   0.25920
gfz2012lrol  -0.13750
gfz2012lrsv   1.83860
gfz2012lsni  -0.59870
gfz2012lxkv   0.22830
gfz2012mdmy  -0.39310
gfz2012minr  -0.33050
gfz2012mkpn  -0.46230
gfz2012mofm   0.06420
gfz2012mpvy  -0.52080
gfz2012mpyl  -0.36360
gfz2012mupa  -0.53020
gfz2012mvwr  -0.12930
gfz2012mwij   0.27080
gfz2012myqa  -0.04210
gfz2012naqz  -0.24100
gfz2012nedn  -0.87670
gfz2012ngic  -0.50140
gfz2012njha  -0.39480
gfz2012nkdf  -0.92410
gfz2012nojx  -1.01670
gfz2012nolo  -0.18190
gfz2012nsbz  -0.19710
gfz2012nutf  -0.51890
gfz2012nxog  -0.34410
gfz2012nxyt   0.20880
gfz2012oazn   0.40080
gfz2012obgw  -0.21390
gfz2012oedb  -0.07070
gfz2012ofpe  -0.02770
gfz2012omvo  -0.68770
gfz2012oqmw  -0.65220
gfz2012ovqs   0.02170
gfz2012oycg  -1.02360
gfz2012pazr   0.18470
gfz2012peki  -0.10050
gfz2012pgcl   0.06430
gfz2012pkel  -0.00000
gfz2012plbw  -0.09860
gfz2012plea  -0.11090
gfz2012pqlt  -0.93340
gfz2012pqmu  -0.12240
gfz2012priv  -0.56270
gfz2012prlt  -0.01990
gfz2012qjhs   0.49840
gfz2012qqxg   0.69220
gfz2012qxcy  -0.05340
gfz2012rats  -0.48110
gfz2012rcnj   0.25360
gfz2012repv   0.22470
gfz2012rjsd   0.17220
gfz2012ronz  -0.44930
gfz2012royy  -0.51970
gfz2012rqlg  -0.20010
gfz2012ruks   0.90770
gfz2012rwko  -0.10250
gfz2012rwov  -0.02090
gfz2012rwql   0.70710
gfz2012rypu   0.33330
gfz2012sfer  -0.24990
gfz2012snhi  -1.04500
gfz2012spbj   0.34590
gfz2012sphd   0.10070
gfz2012sqmv  -0.21650
gfz2012ssyn  -0.72140
gfz2012svpr  -0.03890
gfz2012syvl   0.35230
gfz2012taou  -0.74210
gfz2012tazz   0.09770
gfz2012teic  -0.12800
gfz2012tmop  -0.27060
gfz2012tpzx   0.91620
gfz2012ttoa   0.22620
gfz2012tvmv   0.29200
gfz2012tzgb   1.11200
gfz2012uaqj   1.02390
gfz2012uciv  -0.16870
gfz2012uhup   0.75150
gfz2012ulpd   0.31630
gfz2012usba  -0.47160
gfz2012uvqf   0.64950
gfz2012uyxb  -0.23100
gfz2012uzom  -1.90970
gfz2012vceo  -0.53940
gfz2012viab   0.42180
gfz2012vjgl  -0.25500
gfz2012vmeh  -1.26570
gfz2012vntz   0.17350
gfz2012vpza  -0.09310
gfz2012vrgb   0.17040
gfz2012vrua   0.01910
gfz2012vxvr   0.32190
gfz2012wdyx   1.28250
gfz2012whku  -0.16990
gfz2012wklq  -0.39000
gfz2012wmsg  -0.66670
gfz2012wpeq   0.44330
gfz2012wrir  -0.83210
gfz2012wtkh  -0.01850
gfz2012wtkr  -0.33220
gfz2012wubh  -0.02450
gfz2012wvfl  -0.53990
gfz2012wxer   0.18720
gfz2012wxkg   0.39280
gfz2012wxnu  -0.12800
gfz2012wybs   0.02640
gfz2012wypz   0.96200
gfz2012xbjq  -0.21880
gfz2012xcgk  -0.31040
gfz2012xevt  -0.26970
gfz2012xjyv  -0.06200
gfz2012xkkv  -1.85690
gfz2012xpmm   0.14200
gfz2012xslk  -0.56770
gfz2012xvwn  -0.37230
gfz2012xwqa  -0.55820
gfz2012xyqp   0.11520
gfz2012xyua  -0.74010
gfz2012yfrp  -0.40240
gfz2012yoie   0.32000
gfz2012yqjj  -0.44780
gfz2012yzod   0.22840
gfz2012zemh  -0.09160
gfz2012zemz  -0.37760
gfz2012zfag  -0.29810
gfz2012ziml   0.05750
gfz2012zitl  -0.07720
gfz2012zjpv  -0.28280
gfz2012zklq  -0.31210
gfz2012zmbp  -0.24670
gfz2012zmln  -0.01950
gfz2013aahq  -0.53690
gfz2013aayj  -0.48190
gfz2013acag  -0.94830
gfz2013adey   0.55450
gfz2013apmm  -0.14410
gfz2013aqaw  -0.77940
gfz2013bdpu   0.08040
gfz2013bnxc   0.01340
gfz2013bobq   0.20410
gfz2013bokp   0.33980
gfz2013btjm  -0.04740
gfz2013ccnr   0.23730
gfz2013cdan   0.65690
gfz2013ciaf  -0.34160
gfz2013cnve  -0.11990
gfz2013cvqg  -0.11110
gfz2013cwpn   0.74820
gfz2013cwps   0.14440
gfz2013ddbh  -0.01690
gfz2013dddp   0.30840
gfz2013diuf   0.30420
gfz2013dofo  -0.16700
gfz2013dojq  -0.19260
gfz2013dqls   0.09830
gfz2013drpk   0.05590
gfz2013drxz  -0.42610
gfz2013dspt  -0.66200
gfz2013dsrk  -0.32080
gfz2013dvyh  -0.22860
gfz2013egni   0.15940
gfz2013egpu  -0.64670
gfz2013ekpm  -0.09850
gfz2013enbx  -1.01430
gfz2013erse   0.10950
gfz2013esnh  -0.07940
gfz2013ewbo   0.11040
gfz2013fdoo  -0.17820
gfz2013fdwq  -0.12470
gfz2013feep   1.02740
gfz2013fiud   0.01010
gfz2013fkcl   0.38290
gfz2013flox  -0.02190
gfz2013fwxa   0.22570
gfz2013fygc  -0.09210
gfz2013gbcn   0.35470
gfz2013gbst  -0.03140
gfz2013gcfx  -1.44250
gfz2013gdgf  -0.08340
gfz2013gdnq   0.39300
gfz2013ggtf  -0.33580
gfz2013gihf  -0.32070
gfz2013gjdc  -1.36010
gfz2013glcr   0.36200
gfz2013gmor  -0.22260
gfz2013gngz   0.51840
gfz2013gock  -0.30620
gfz2013goux   0.32440
gfz2013govy   0.08330
gfz2013gras   0.31300
gfz2013gvex  -0.05480
gfz2013gwrd   0.00720
gfz2013gxsu  -0.07550
gfz2013hbkh   0.70390
gfz2013hbkq   0.68620
gfz2013hdnc   0.47660
gfz2013hfmp   0.11720
gfz2013hkja  -0.42800
gfz2013hklr  -1.95710
gfz2013hlbe   0.87060
gfz2013hmbc  -0.80440
gfz2013hpfq  -0.94170
gfz2013hudi  -0.24570
gfz2013huwr  -0.35200
gfz2013hxcx  -0.52390
gfz2013iapa  -0.86440
gfz2013iayx  -0.34820
gfz2013icfh  -0.78140
gfz2013idbb  -0.11500
gfz2013iexo  -0.23510
gfz2013ifpq  -0.20290
gfz2013igmx   0.38680
gfz2013ijsr   0.07510
gfz2013ikgo   0.19270
gfz2013ilug   0.39500
gfz2013ippu   0.10320
gfz2013iqzq   0.30020
gfz2013iunn   0.05490
gfz2013iyqz  -0.13440
gfz2013jesk  -0.33210
gfz2013jgij  -0.36020
gfz2013jgip   0.39330
gfz2013jjsi  -0.16840
gfz2013jkut   0.35090
gfz2013jphq   0.16670
gfz2013jwvc  -0.44180
gfz2013jxoi   0.06980
gfz2013kccc  -0.36030
gfz2013kdeo  -0.43490
gfz2013kheb   0.30150
gfz2013khli  -0.28890
gfz2013kilx  -0.27800
gfz2013krei  -0.50490
gfz2013kvtk  -0.06970
gfz2013kwps  -0.59360
gfz2013lajg   0.57640
gfz2013lbiu   0.41300
gfz2013ldpc  -0.11410
gfz2013ldqb  -0.22830
gfz2013lgnl  -0.20310
gfz2013lixa  -0.01070
gfz2013lljw  -0.03360
gfz2013lmrs   0.08310
gfz2013lwbk   0.17960
gfz2013lyko  -0.39050
gfz2013lznu   0.29300
gfz2013malg  -0.09420
gfz2013mmwq  -0.23450
gfz2013mnei  -1.18240
gfz2013mnju  -0.06240
gfz2013mqik  -0.02880
gfz2013mqmv   0.01160
gfz2013mwbh  -0.83420
gfz2013mxee  -0.16940
gfz2013ncjp  -0.20380
gfz2013ndin   0.12400
gfz2013neuc   0.58870
gfz2013ngnt  -0.05300
gfz2013nixj   0.52040
gfz2013nkgj  -0.04440
gfz2013nknw   0.20350
gfz2013nmac   0.20070
gfz2013nnzf   0.13830
gfz2013nppd  -0.31430
gfz2013nqgw  -0.46470
gfz2013nuor   0.13250
gfz2013nuvi   0.82390
gfz2013nwdi   0.27580
gfz2013oejn  -0.70700
gfz2013ogde   0.15890
gfz2013oifr  -0.49090
gfz2013oilg  -0.27720
gfz2013oinc  -0.89300
gfz2013ojti  -0.36200
gfz2013oqsc  -0.46630
gfz2013orjg   0.01570
gfz2013orzn  -0.48720
gfz2013ozrf   0.09330
gfz2013ozrp  -0.02110
gfz2013pcos  -3.11780
gfz2013pfbx   0.58450
gfz2013pfeb  -0.47550
gfz2013pffm  -0.02110
gfz2013pfnf   0.78920
gfz2013phef  -0.02320
gfz2013pkbs  -0.48540
gfz2013pndn  -0.95390
gfz2013poxj  -0.37180
gfz2013puag   0.08410
gfz2014lrzx   0.23420
gfz2014lurd   0.54020
gfz2014lvgn   0.28840
gfz2014lwom  -0.19560
gfz2014lxnc   0.20670
gfz2014lxqr   0.45540
gfz2014lyhp   0.75090
gfz2014lynp   0.12800
gfz2014lzal  -0.25320
gfz2014lzow   0.56320
gfz2014macx   0.07990
gfz2014madw  -0.25870
gfz2014mcno  -0.05580
gfz2014mcse   0.28390
gfz2014mioi   1.48570
gfz2014mlrr   0.53680
gfz2014moaw   0.58340
gfz2014mogb   0.13770
gfz2014mtum   0.15560
gfz2014mwnj   0.48890
gfz2014mwor  -0.05520
gfz2014ncub  -0.10930
gfz2014nhyb   0.37190
gfz2014niqj  -3.81400
gfz2014nkdx   0.24130
gfz2014nnih   1.00090
gfz2014nnxd  -0.37120
gfz2014nowp   0.12850
gfz2014npdk  -0.39280
gfz2014npeo   0.31670
gfz2014nphm   0.26150
gfz2014nqbs  -0.58070
gfz2014nqfm  -0.07580
gfz2014nrie   0.15470
gfz2014ntdh   0.00520
gfz2014nvdi  -0.72440
gfz2014nyeh  -0.50560
gfz2014nyfb   0.22820
gfz2014nyko   0.73070
gfz2014nylm   0.15060
gfz2014odgv   0.35460
gfz2014ofhm  -0.31710
gfz2014oinz  -0.03630
gfz2014omyn  -0.47970
gfz2014ooaa  -0.15150
gfz2014oqhw  -1.90130
gfz2014orxs   0.04870
gfz2014oryw  -0.10920
gfz2014osvx   0.24970
gfz2014owxc  -0.05220
gfz2014oxcc   0.10950
gfz2014oyly   0.21760
gfz2014pjer   0.35840
gfz2014pkll   0.26770
gfz2014ppzf   0.27050
gfz2014pqqp   3.13390
gfz2014pvch   0.17780
gfz2014pzml   0.45010
gfz2014pzni   0.06270
gfz2014qbzi  -0.53680
gfz2014qfzq   0.49920
gfz2014qlvc   0.45550
gfz2014qlxd  -0.15380
gfz2014qngj  -1.01010
gfz2014qqhm  -0.42530
gfz2014raau  -2.59230
gfz2014rdsn  -0.13660
gfz2014rfeb   0.37930
gfz2014rghp  -0.56110
gfz2014rhnz   0.70300
gfz2014rhwq   0.49900
gfz2014riel  -0.05180
gfz2014rils  -0.12150
gfz2014roba  -0.28800
gfz2014romy   0.27330
gfz2014rtcu   0.73440
gfz2014rwos  -0.11590
gfz2014ryfb   0.27150
gfz2014sadu  -1.20060
gfz2014shid   0.24950
gfz2014sjqw   0.02370
gfz2014sptq   1.87170
gfz2014sryn  -0.20390
gfz2014ssds  -0.39560
gfz2014ssmv   0.29620
gfz2014ssvz   0.01160
gfz2014swgt  -1.85540
gfz2014szzf   0.35360
gfz2014tabg   0.54340
gfz2014tfgn  -0.61950
gfz2014tovs   0.17770
gfz2014tqdo   0.31330
gfz2014tqly   0.02790
gfz2014tqsf   0.42930
gfz2014tqth  -0.08240
gfz2014tzsd   0.50200
gfz2014uapa   0.26540
gfz2014ubwn   0.81130
gfz2014ubyq   0.02750
gfz2014udgg   0.48450
gfz2014uohh   0.17590
gfz2014utac  -0.08900
gfz2014uuuf  -0.68610
gfz2014uvji   0.09270
gfz2014uvrk  -2.74630
gfz2014uyrq   0.64650
gfz2014vcev   0.34320
gfz2014vdnh  -0.13290
gfz2014veit  -0.22370
gfz2014vhld   0.60510
gfz2014vhms   0.31640
gfz2014vjoz   0.63370
gfz2014vnxu  -0.84140
gfz2014vpus  -0.04250
gfz2014vqqa  -0.53460
gfz2014waoo   0.42120
gfz2014watn   0.12310
gfz2014wjko  -0.20880
gfz2014wmsc   0.46760
gfz2014wqcp   0.66200
gfz2014wrkh   0.49430
gfz2014wsjh  -0.39750
gfz2014wwib  -0.10800
gfz2014xaxx  -0.58260
gfz2014xbyr  -0.24940
gfz2014xhkc   0.10480
gfz2014xhwk  -0.12420
gfz2014xjri  -0.15090
gfz2014xkdg   0.93770
gfz2014xmnp   2.08780
gfz2014xoji   0.14820
gfz2014xqby   0.02790
gfz2014xqqd  -0.17530
gfz2014yhhm   0.01410
gfz2014ynhc  -1.08120
gfz2014ynzy   0.57260
gfz2014yppv   0.18030
gfz2014yrug   0.21720
gfz2014yula  -0.23870
gfz2014yyiy  -0.16930
gfz2014zcgo   0.13590
gfz2014zdtl   1.37310
gfz2014zkys   0.00000
gfz2014zlgp   0.13580
gfz2015abpw  -0.00000
gfz2015aide  -0.04840
gfz2015ansu  -0.75850
gfz2015apnk  -0.20370
gfz2015aqbq  -0.35960
gfz2015arpd  -0.03710
gfz2015aruz   0.04490
gfz2015atxv  -0.02690
gfz2015aush   0.16530
gfz2015azzp  -0.28470
gfz2015bavu  -0.94250
gfz2015bdyd   0.38940
gfz2015berb   0.74940
gfz2015bfjm   0.20700
gfz2015bkbj   0.06740
gfz2015bnho   0.20320
gfz2015bphe   1.10950
gfz2015bsnl   0.04480
gfz2015bucr   0.42770
gfz2015cewd  -2.73860
gfz2015chhn   0.73670
gfz2015chqn  -0.10780
gfz2015clrp   1.07570
gfz2015cxhx  -0.10480
gfz2015cxrc  -0.10180
gfz2015cxxk   0.61820
gfz2015cyjd   0.97840
gfz2015czfv  -0.31550
gfz2015dadj  -2.47540
gfz2015ddhl   1.15200
gfz2015dizn  -0.65510
gfz2015djts   0.34290
gfz2015drlk  -0.92960
gfz2015dskr   0.17480
gfz2015dvbn   0.14280
gfz2015ednc   0.85040
gfz2015eeyq   0.50960
gfz2015eezy   0.43840
gfz2015egbk   0.20670
gfz2015egxq  -0.14700
gfz2015ehpz   0.20620
gfz2015eiky   0.21260
gfz2015elgy   0.24130
gfz2015eljz   0.46650
gfz2015emtg  -0.07990
gfz2015fkbc   0.60490
gfz2015fkgt   0.43680
gfz2015fkjs  -1.10930
gfz2015flis   0.39630
gfz2015fsjj   0.45280
gfz2015fvoi   0.43110
gfz2015fwkq  -0.48000
gfz2015fwnf   0.96930
gfz2015fxbv   0.31890
gfz2015fxdi   0.12590
gfz2015fyvk  -0.30080
gfz2015gckd   0.33390
gfz2015ggjw   0.19170
gfz2015gjbr   0.33680
gfz2015gkwa  -0.34220
gfz2015gmgf   0.20870
gfz2015gnmy   0.03790
gfz2015gwao   0.45010
gfz2015gzja   0.00380
gfz2015hdbn   0.35240
gfz2015hdcp  -0.02120
gfz2015hgbk   0.22390
gfz2015hhbd   0.16300
gfz2015hlfq   0.43530
gfz2015hlqo   0.02080
gfz2015hpmk   0.26160
gfz2015hslo   1.09840
gfz2015hwkv   0.78510
gfz2015idho   1.10420
gfz2015iele  -0.10970
gfz2015igsy   0.58710
gfz2015ijmh  -2.61840
gfz2015imty  -0.22730
gfz2015imyp   0.28970
gfz2015isim   0.46550
gfz2015ixyy   0.35660
gfz2015jkdw  -0.14810
gfz2015jmlf  -0.31760
gfz2015jmlu   0.78960
gfz2015jpap  -1.28640
gfz2015jwgl   0.11300
gfz2015jxbx  -0.18670
gfz2015jxjd   0.22030
gfz2015jzcv  -0.00000
gfz2015kakw  -0.04300
gfz2015kalm   0.09420
gfz2015kcaa   0.28550
gfz2015kkqb   0.12680
gfz2015kkth  -0.03000
gfz2015kphk   0.62020
gfz2015kquq   0.40940
gfz2015ksni   0.04190
gfz2015kvwz  -0.22470
gfz2015lcma   0.65400
gfz2015lcuo   0.47360
gfz2015lfma   0.26880
gfz2015lfos  -0.98850
gfz2015lfud   0.22980
gfz2015lhjq  -0.11910
gfz2015lhjy   0.77780
gfz2015ltii  -0.01160
gfz2015ltro   0.60790
gfz2015lytv  -0.61400
gfz2015lzad   0.67400
gfz2015mddr   0.17460
gfz2015mfpy   0.37110
gfz2015mhym   0.99540
gfz2015micz   0.44800
gfz2015nuxz  -0.08360
gfz2015okmq   0.03100
gfz2015okpu   0.58360
gfz2015omab   0.19330
gfz2015orkl   0.21940
gfz2015oyfl   0.53990
gfz2015pcvt  -0.32660
gfz2015pdri   0.30890
gfz2015pjgr  -0.09270
gfz2015plal   0.01140
gfz2015poni   0.05730
gfz2015puah  -0.58830
gfz2015puqp  -0.13840
gfz2015qafb   0.26450
gfz2015qbme  -0.47640
gfz2015qiit  -0.08680
gfz2015qnde   0.51480
gfz2015qnho  -0.14650
gfz2015qnlv   0.06520
gfz2015qnto  -0.01470
gfz2015qols   0.24150
gfz2015qprd  -0.12440
gfz2015qpvd   0.21720
gfz2015quzo  -0.34460
gfz2015rddx  -0.02980
gfz2015rgov   0.20980
gfz2015rgrg  -0.25950
gfz2015rkbq   0.37520
gfz2015rkrg  -0.26980
gfz2015rkzg   0.40480
gfz2015rpzn  -0.44100
gfz2015rtnv   0.41730
gfz2015rwsb   0.12530
gfz2015rxmg  -0.11660
gfz2015saet   0.89960
gfz2015sdeo   0.25110
gfz2015sdfy   0.24040
gfz2015seuf   0.28150
gfz2015sevh   0.18170
gfz2015sfdd   0.21190
gfz2015sfdy   0.22620
gfz2015sfeo  -0.69750
gfz2015sffn  -0.42260
gfz2015sfga   0.75090
gfz2015sfho   0.70380
gfz2015sfhz  -1.32310
gfz2015sfiq   0.42970
gfz2015sfjf  -1.80930
gfz2015sfkh  -0.11610
gfz2015sfko  -0.34860
gfz2015sfks   0.47580
gfz2015sfkz   0.21010
gfz2015sflf   0.39560
gfz2015sfln  -1.40550
gfz2015sfmd   1.16860
gfz2015sfnb   0.05240
gfz2015sfno  -0.07010
gfz2015sfnv   0.15360
gfz2015sfoc  -0.20350
gfz2015sfoh  -0.04270
gfz2015sfoq   0.07840
gfz2015sfps  -0.02800
gfz2015sfqo  -0.26690
gfz2015sfqr  -0.39300
gfz2015sfrc  -0.59840
gfz2015sfrf   0.58060
gfz2015sfsi   1.09410
gfz2015sfte   0.72510
gfz2015sftu   0.29080
gfz2015sfuz   0.11130
gfz2015sfwf   0.47750
gfz2015sfxn  -0.21800
gfz2015sfzm   0.23660
gfz2015sgad   0.26810
gfz2015sgmm   0.32190
gfz2015sgmr  -0.36270
gfz2015sgna   0.40750
gfz2015sgxc  -1.01750
gfz2015sgyd   0.48860
gfz2015shaq   0.38650
gfz2015shhg   0.53590
gfz2015shhu   0.26200
gfz2015shjn  -0.33850
gfz2015shjo  -0.02270
gfz2015shqc  -1.42700
gfz2015shqe  -1.26270
gfz2015shrg   0.37580
gfz2015shsb  -0.02790
gfz2015shsz   1.04530
gfz2015siky  -0.06770
gfz2015sing   0.29950
gfz2015siof  -0.01960
gfz2015sist   1.19490
gfz2015sitn  -0.33650
gfz2015sixi  -0.02190
gfz2015sixs   0.00960
gfz2015siyy   0.43840
gfz2015sjbx   0.55610
gfz2015sjeq   1.10200
gfz2015sjfi   0.36820
gfz2015sjgk  -0.27560
gfz2015sjjb   0.31310
gfz2015sjne  -0.71640
gfz2015sjoj   0.19540
gfz2015sjpn   0.02510
gfz2015sjtz  -0.01820
gfz2015sjvu   0.36410
gfz2015sjwi  -0.27670
gfz2015skab   0.32310
gfz2015skgj   0.11340
gfz2015sklu  -0.07150
gfz2015skpv   0.47510
gfz2015skuk   0.00000
gfz2015skxu   0.20380
gfz2015sldx  -0.14780
gfz2015slfn   0.29610
gfz2015sljs   0.94360
gfz2015slun  -0.04440
gfz2015smgj  -0.02050
gfz2015smym  -0.63720
gfz2015snhn  -1.27660
gfz2015snmg   0.11580
gfz2015snmr  -0.33400
gfz2015snsf  -0.15290
gfz2015snwh  -0.91910
gfz2015snyd  -0.07770
gfz2015soat   0.14340
gfz2015sopc   0.01580
gfz2015sowu   0.44610
gfz2015soxc   0.18410
gfz2015sqbg   0.22800
gfz2015sqmy   0.16050
gfz2015sqvx   0.21460
gfz2015srat   0.59930
gfz2015sspn   0.25230
gfz2015ssrl   0.64960
gfz2015stfy   0.73260
gfz2015stso   0.44730
gfz2015subz  -0.26330
gfz2015susq  -0.92650
gfz2015svjy  -0.06910
gfz2015svwm   0.78630
gfz2015swgn  -0.43300
gfz2015sxmh  -0.10860
gfz2015sydc  -1.30340
gfz2015szcb  -0.58020
gfz2015szfe   0.08300
gfz2015sztx   0.26620
gfz2015taml  -0.02700
gfz2015tbdn   0.44060
gfz2015tchx   1.00640
gfz2015tdcu  -0.26130
gfz2015teje   0.18190
