# Nsamples: 11  MAD:  0.712  mean:  1.195  variance:  2.798
gfz2010eaoy   1.64740
gfz2010earu   1.16730
gfz2010eisx   2.29930
gfz2010eltf   4.09610
gfz2010excp   1.08450
gfz2011adjs   0.87340
gfz2013jusj   1.09460
gfz2013vjjc   2.05730
gfz2014jcjt   0.67260
gfz2015sfdd  -3.24990
gfz2015svwm   1.39860
