# Nsamples: 7  MAD:  1.677  mean:  1.519  variance:  2.183
gfz2010eaoy   1.17970
gfz2010earu   0.70860
gfz2010eisx   2.31100
gfz2010exdd   3.04490
gfz2012lltr   3.82770
gfz2013jusj   0.07170
gfz2015sfdd  -0.51330
