# Nsamples: 8  MAD:  0.364  mean: -0.541  variance:  1.663
gfz2012vdbt  -3.76960
gfz2013iapa   0.26010
gfz2013iyqz  -0.04840
gfz2013jokw  -0.13970
gfz2013jusj  -0.92100
gfz2013kweg   0.65520
gfz2014ejmt  -0.13480
gfz2014szzf  -0.23160
