# Nsamples: 113  MAD:  0.822  mean:  0.004  variance:  1.429
gfz2012tbbp  -0.46110
gfz2012ttoa   1.04630
gfz2012uafg  -0.62670
gfz2012uhup  -0.13280
gfz2012uvqf   0.04010
gfz2012wklq  -0.05340
gfz2012wvfl   0.55700
gfz2012wypz  -0.03450
gfz2012xslk  -1.78520
gfz2012zfag   0.25190
gfz2012zklq  -0.21720
gfz2013axoj  -0.14340
gfz2013azzr  -0.12490
gfz2013bokp   0.34540
gfz2013ccnr  -1.86830
gfz2013cwpn  -0.19280
gfz2013dkly   1.06510
gfz2013dofo   0.60390
gfz2013drxz  -0.97490
gfz2013dvyh   0.24180
gfz2013egpu   1.11130
gfz2013feep   0.48590
gfz2013fiud   0.26110
gfz2013gdnq   1.13160
gfz2013jgip   2.16840
gfz2013jusj   0.64440
gfz2013kdeo   1.95660
gfz2013kqln   0.40440
gfz2013lyko   2.05960
gfz2013mwbh   0.30400
gfz2013nkgj   0.81020
gfz2013qzdq  -1.17850
gfz2013rait   0.06880
gfz2013scai  -1.31030
gfz2013svci  -0.57360
gfz2013vfzp   3.01910
gfz2013vgau  -1.57290
gfz2013vjjc  -3.49700
gfz2013xmul  -0.39990
gfz2013ylbx  -1.45430
gfz2014adjs   0.03660
gfz2014arpf  -0.36710
gfz2014arsr  -0.15010
gfz2014bagd   0.30100
gfz2014bwue  -0.53810
gfz2014czqi  -0.06640
gfz2014czua  -0.26150
gfz2014dcdy   1.07820
gfz2014disp   0.31720
gfz2014eght  -0.89010
gfz2014ekcr   0.22030
gfz2014fgvi   0.57790
gfz2014fgvr   1.20350
gfz2014fhyb  -3.42560
gfz2014fkmr   2.42020
gfz2014ftrk  -1.62860
gfz2014gbcz   1.84070
gfz2014gbdq   1.20620
gfz2014gkgf   0.51840
gfz2014gmge  -0.99510
gfz2014gmhr   0.32040
gfz2014goba   1.86970
gfz2014gori   0.58410
gfz2014gsqs  -3.06030
gfz2014gull   0.78180
gfz2014gutm  -0.70980
gfz2014gxvf   0.25090
gfz2014imap   0.39460
gfz2014itpj  -2.75850
gfz2014jpxs  -2.99440
gfz2014nkdx  -0.67660
gfz2014nowp   1.16330
gfz2014osvz   3.45370
gfz2014qlxd   0.90090
gfz2014qqhm   0.59460
gfz2014raau   0.00000
gfz2014rdsn   0.69640
gfz2014sptq  -0.33940
gfz2014tute  -0.09660
gfz2014uvrk   0.91430
gfz2014vcev   0.69380
gfz2014zlgp  -0.41940
gfz2015abpw  -0.23480
gfz2015berb   0.10480
gfz2015bfjm  -1.44950
gfz2015chhn  -2.05690
gfz2015cyjd   0.16510
gfz2015dizn   0.30610
gfz2015djts   1.82990
gfz2015emtg   0.19250
gfz2015enth  -0.08500
gfz2015fbew   1.75690
gfz2015fkgt  -0.11550
gfz2015flis  -0.07410
gfz2015fsjj   0.31390
gfz2015fxdi  -0.27730
gfz2015gckd   0.14840
gfz2015gjbr  -0.75660
gfz2015gkwa  -1.34640
gfz2015gzja  -1.37730
gfz2015hdcp  -0.14480
gfz2015jkdw  -0.08720
gfz2015jwgl   0.04520
gfz2015kfsu  -0.36260
gfz2015kkth   0.14960
gfz2015ksni  -0.17600
gfz2015lcma  -1.89490
gfz2015nuxz   0.30320
gfz2015oyfl  -0.66240
gfz2015prlr   1.02890
gfz2015qisx  -0.68080
gfz2015qnho  -0.10730
gfz2015qnto   1.03820
