# Nsamples: 80  MAD:  0.445  mean: -0.060  variance:  0.397
gfz2010bxxs  -0.15560
gfz2010cqwl  -0.53340
gfz2010ebhc  -0.83860
gfz2010grjd   0.21010
gfz2010iull  -0.57080
gfz2010nmpc  -0.85000
gfz2010nwef  -1.18130
gfz2010sysw  -0.00000
gfz2010usho   0.43410
gfz2011aatr  -0.15600
gfz2011dpqx  -0.29660
gfz2011enva  -0.54940
gfz2011gkzt   1.69750
gfz2011hlqw  -0.43020
gfz2011hlsa  -0.43450
gfz2011jplh  -0.37870
gfz2011lcxq   0.15470
gfz2011lzwj  -0.52920
gfz2011mdie   0.09360
gfz2011rewa  -0.27540
gfz2011toub   0.10090
gfz2011wxfs  -0.32870
gfz2012enno  -0.50360
gfz2012jlox  -0.24530
gfz2012kkup  -0.13160
gfz2012klhx  -0.22780
gfz2012kuct  -0.11890
gfz2012kudo  -0.30830
gfz2012ldxg   0.32850
gfz2012ldzj  -0.09250
gfz2012teic   1.19740
gfz2012ttoa   0.27690
gfz2012vrgb  -0.08090
gfz2012wypz  -0.01450
gfz2013drxz   0.03240
gfz2013jkut   0.12730
gfz2013kdeo   1.92240
gfz2013ldqb   2.50400
gfz2013nkgj   0.16590
gfz2013nwdi  -1.25250
gfz2013pfbx  -0.01070
gfz2013svci  -0.12310
gfz2013xsdt   0.03280
gfz2014ande  -0.90480
gfz2014bwue  -0.46750
gfz2014fgvi   0.10890
gfz2014fhla  -0.59560
gfz2014fkmr  -0.31820
gfz2014ftka  -0.01720
gfz2014gkgf  -0.44080
gfz2014gkjt   0.17020
gfz2014gkqf  -0.51680
gfz2014glcu  -0.33550
gfz2014gmge   0.63800
gfz2014gmhr   1.19930
gfz2014gmnb  -0.34090
gfz2014goba  -0.85090
gfz2014gull   0.55040
gfz2014hasj   0.06180
gfz2014jjhc  -0.09050
gfz2014jpep   0.50260
gfz2014lgqn   0.28130
gfz2014lxnc   0.57990
gfz2014lyhk  -0.64990
gfz2014macx  -0.62020
gfz2014nqfm   0.04170
gfz2014nrie   0.31100
gfz2014oinz  -0.72340
gfz2014qlxd  -0.63330
gfz2014qqhm  -0.03670
gfz2014ssvz  -0.24640
gfz2014ubwn  -0.32820
gfz2015berb  -0.30850
gfz2015cyjd   0.00980
gfz2015fsjj  -0.50250
gfz2015lhjy  -0.49430
gfz2015mpte   0.11170
gfz2015sfdd   0.34680
gfz2015svwm  -0.25670
gfz2015taml   1.33100
