# Nsamples: 82  MAD:  0.726  mean:  0.049  variance:  0.918
gfz2013dojq  -0.90620
gfz2013dspt   0.26450
gfz2013dsrk   1.30570
gfz2013fiud   0.24170
gfz2013ippu  -0.79010
gfz2013jkut  -0.71700
gfz2013jwvc  -0.34860
gfz2013kdeo  -0.26630
gfz2013ldpc   0.63030
gfz2013lixa   0.90100
gfz2013lsob   0.17900
gfz2013mqmv   0.22640
gfz2013nkgj   1.06970
gfz2013nwdi   0.07480
gfz2013pfbx   0.67830
gfz2013qmer   0.26400
gfz2013svci  -0.72260
gfz2013xsdt   0.17840
gfz2013yqkv   1.11990
gfz2014afmx   1.34600
gfz2014algk  -0.32480
gfz2014ande  -0.11020
gfz2014bzxy   0.39310
gfz2014chdv  -1.93070
gfz2014czqi  -0.43550
gfz2014fgvi  -0.08960
gfz2014fhla   1.26710
gfz2014fkmr   1.49890
gfz2014frdz   0.36430
gfz2014frez   0.43280
gfz2014ftka  -0.18000
gfz2014furx  -0.80000
gfz2014fusj   0.83650
gfz2014fval   0.28730
gfz2014fvrg   0.44600
gfz2014ghpe   0.47820
gfz2014gkjl   0.55540
gfz2014gkqf   0.76440
gfz2014gktq  -1.32110
gfz2014gltx  -3.85240
gfz2014gmhr   0.93090
gfz2014gmnb   0.62040
gfz2014gmnw   0.53890
gfz2014goba  -0.25800
gfz2014goqw  -0.21740
gfz2014gqer   1.92790
gfz2014gull   0.41730
gfz2014hasj  -0.11360
gfz2014hbqb  -2.40840
gfz2014hgqo   0.38140
gfz2014hjgr   0.42690
gfz2014hkcf  -0.96660
gfz2014hphw   2.61040
gfz2014hqxs   0.75520
gfz2014itkw   0.93460
gfz2014jnyv  -0.12820
gfz2014jpep  -0.08930
gfz2014kbuk  -0.87760
gfz2014lgqn  -0.24130
gfz2014lyhk  -0.58060
gfz2014macx   0.15600
gfz2014nqfm   1.12720
gfz2014nrie  -0.39630
gfz2014nyeh  -1.70630
gfz2014pvch   0.38780
gfz2014qlxd   1.72910
gfz2014qqhm  -0.74350
gfz2014ssvz  -0.22670
gfz2014ubwn  -0.24840
gfz2014vhms  -0.45900
gfz2014watn   0.14850
gfz2014wjko   0.24160
gfz2014wrkh  -0.86400
gfz2014xqqd  -1.45230
gfz2015aruz  -0.66380
gfz2015atxv  -0.67220
gfz2015eiky   0.03190
gfz2015fjhk  -0.01640
gfz2015gckd   0.51500
gfz2015jzcv   1.30400
gfz2015lhjy   0.09090
gfz2015mpte  -0.96770
