# Nsamples: 234  MAD:  0.756  mean: -0.271  variance:  1.257
gfz2010eaoy   0.38430
gfz2010eapk  -0.98200
gfz2010eapn  -0.11380
gfz2010eaqe   0.21390
gfz2010eaqx  -0.33990
gfz2010eaqy   0.14140
gfz2010earq  -0.66260
gfz2010earu   0.42870
gfz2010easf   1.14250
gfz2010eask  -0.63320
gfz2010easo  -0.14820
gfz2010easu  -0.40600
gfz2010eati   0.50360
gfz2010eato  -0.00000
gfz2010eaul  -0.38420
gfz2010eavs   0.34220
gfz2010eawu  -1.11110
gfz2010eaxa  -1.12570
gfz2010eaxn   1.16260
gfz2010eayd  -1.91890
gfz2010eaze   1.13190
gfz2010eazu   0.61930
gfz2010ebdl   0.11440
gfz2010ebfa   0.22350
gfz2010ebhc  -2.12820
gfz2010ebih   0.36090
gfz2010ebin  -1.53440
gfz2010ebiv   0.18100
gfz2010ebjy   0.35950
gfz2010ebkj  -1.04330
gfz2010ebla  -0.16300
gfz2010ebll  -0.27440
gfz2010ebmb  -0.14310
gfz2010ebmi  -0.38060
gfz2010ebnn   0.33590
gfz2010ebvm  -3.09520
gfz2010ebvv  -1.88530
gfz2010ebwp   0.20900
gfz2010ebzk  -1.64880
gfz2010ebzr   0.32180
gfz2010ecay   0.04470
gfz2010echy  -0.09350
gfz2010ecps   0.76080
gfz2010ecsp   1.40560
gfz2010ecua   0.30260
gfz2010ecvt  -0.49210
gfz2010edbz  -1.02610
gfz2010edcp   4.68940
gfz2010edkp   0.13860
gfz2010edvf  -0.32090
gfz2010edyi   5.36900
gfz2010eeij  -2.02960
gfz2010eevu  -0.12730
gfz2010egld  -0.77840
gfz2010egqh   0.64030
gfz2010eisx   0.00000
gfz2010elhv   0.05660
gfz2010eltf   0.13470
gfz2010elyc  -0.04470
gfz2010epxj   1.06980
gfz2010erom   0.45380
gfz2010evco  -0.36880
gfz2010excp   0.04430
gfz2010exdd  -0.20020
gfz2010exdl  -0.15500
gfz2010exgb  -0.16480
gfz2010exjw   0.67300
gfz2010exmc  -0.26940
gfz2010exno   0.30270
gfz2010exsg   1.54750
gfz2010ezck   0.77790
gfz2010fedq  -0.03580
gfz2010ffhq   0.01410
gfz2010ffjb   0.63280
gfz2010fjmu  -5.07110
gfz2010fpqy  -0.25090
gfz2010fync   0.51690
gfz2010gcrl  -0.32070
gfz2010grjd  -1.58790
gfz2010hrpr  -0.29240
gfz2010hxgv   0.78560
gfz2010icqq  -0.06980
gfz2010iibf   0.61410
gfz2010iobp   0.59440
gfz2010iqnm  -0.68870
gfz2010iull  -0.86350
gfz2010jxbm  -0.17830
gfz2010lepw  -1.38240
gfz2010lrlk  -0.32920
gfz2010mncc  -0.19970
gfz2010ncrl  -0.21590
gfz2010nmpc  -1.35100
gfz2010nqwf   0.37980
gfz2010nqwo  -0.41040
gfz2010nxum  -0.54380
gfz2010pmqd   0.50750
gfz2010pxgh  -1.28070
gfz2010rqwj  -0.62840
gfz2010upfb   0.45950
gfz2010utcg   0.28990
gfz2010xgzw   0.22620
gfz2011aatr  -0.59190
gfz2011adjs   0.61520
gfz2011alip  -2.15770
gfz2011csju   1.72340
gfz2011cykd  -0.00500
gfz2011cyuk   2.56350
gfz2011dcqb   0.43610
gfz2011enva  -0.30120
gfz2011gbmx  -0.30990
gfz2011gkzt  -1.71080
gfz2011hlqw  -0.66440
gfz2011hlsa  -0.83750
gfz2011jplh  -1.24200
gfz2011kqwo   0.02000
gfz2011kxzp  -0.20120
gfz2011lzwj  -1.35930
gfz2011mdie  -0.64180
gfz2011mpme  -0.23280
gfz2011nudm  -0.02060
gfz2011ohcy   0.70070
gfz2011olkk   0.08520
gfz2011owvz  -0.02720
gfz2011rewa  -0.91400
gfz2011rgwp   0.23460
gfz2011sagt   1.11970
gfz2011tbas  -0.87310
gfz2011tkfp  -0.21130
gfz2011toub  -2.56010
gfz2011ujze  -2.11270
gfz2011uphh  -2.01090
gfz2011vhfi  -0.39820
gfz2011vrhg  -1.25630
gfz2011vxns  -0.20290
gfz2011wxfs  -0.45150
gfz2011xyxj  -0.15580
gfz2012aqgp  -0.15460
gfz2012bpkx  -0.08690
gfz2012bpwl  -1.09210
gfz2012cxdn  -0.11760
gfz2012ekda  -0.25350
gfz2012enno  -0.84060
gfz2012fzfa  -0.45590
gfz2012hnul  -0.11200
gfz2012rwko  -0.73320
gfz2012rwov  -0.77380
gfz2012wklq   0.13750
gfz2012wtkr  -1.00030
gfz2012wxlg  -0.38380
gfz2012wypz  -1.15910
gfz2012zitl  -0.13640
gfz2013ccnr   0.05850
gfz2013cvqg  -0.35040
gfz2013enbx  -1.99900
gfz2013ikgo  -0.54460
gfz2013ilug  -0.42990
gfz2013jgip  -0.81580
gfz2013jusj  -0.41850
gfz2013lyko   0.63090
gfz2013nwdi  -0.06730
gfz2013pfbx  -1.23230
gfz2013vfyw  -0.58910
gfz2013vfzp   3.21710
gfz2013vjjc  -0.24300
gfz2013wjmm  -0.69130
gfz2013xsdt  -1.85850
gfz2013yqkv  -0.31800
gfz2014afmx  -1.53710
gfz2014ande  -0.72710
gfz2014arnc   0.52140
gfz2014bekc  -1.51830
gfz2014bwue  -0.78680
gfz2014fgvi  -1.15380
gfz2014fhla   3.93680
gfz2014frdz  -2.00530
gfz2014ftka  -0.70250
gfz2014furx   0.62430
gfz2014fusj  -1.39110
gfz2014fval  -0.21950
gfz2014fvrg  -1.22300
gfz2014gbcz   3.24960
gfz2014gkgf  -1.26200
gfz2014gmge   0.77420
gfz2014gmhr  -2.62720
gfz2014gmnb  -0.05540
gfz2014goba  -0.32760
gfz2014grcv  -1.43980
gfz2014gull  -0.40840
gfz2014gxvf   0.21150
gfz2014hasj  -1.01700
gfz2014hocg  -0.16540
gfz2014hscz  -1.71770
gfz2014hzfw  -0.34270
gfz2014inbj  -1.14590
gfz2014lxnc  -1.25150
gfz2014pvch  -0.11870
gfz2014qngj  -0.29330
gfz2014ssvz  -2.07240
gfz2014szzf  -1.68850
gfz2014tqdo  -2.93680
gfz2015chhn  -0.80320
gfz2015cyjd  -1.83150
gfz2015fkgt  -0.43140
gfz2015fsjj  -2.05270
gfz2015gckd  -1.75720
gfz2015kkth  -0.04850
gfz2015lhjy   0.60730
gfz2015lytv   0.12920
gfz2015ntpk  -0.53480
gfz2015poni  -0.40470
gfz2015qnho  -0.55140
gfz2015sfdd   0.14530
gfz2015sfdy   0.13310
gfz2015sfnb   1.99450
gfz2015sfno  -0.37560
gfz2015sfnv  -0.09860
gfz2015sfoc  -0.84830
gfz2015sfoh   0.34490
gfz2015sjgk   0.44340
gfz2015sjoj   0.32820
gfz2015sjvu  -0.11890
gfz2015sjwi  -0.23180
gfz2015skxu  -0.03010
gfz2015slun   0.21120
gfz2015smym  -0.34890
gfz2015snwh   0.21260
gfz2015snyd   0.20740
gfz2015soat   0.38020
gfz2015soxc   0.39240
gfz2015ssoe  -0.09100
gfz2015stso   0.35790
gfz2015svwm   0.45270
gfz2015szcb   0.08110
gfz2015taml  -1.38180
