# Nsamples: 38  MAD:  0.462  mean: -0.158  variance:  0.417
gfz2010bxxs   0.00660
gfz2010grjd  -1.39650
gfz2010iull  -0.22520
gfz2010nmpc  -0.71160
gfz2011aatr   0.19940
gfz2011enva  -0.55710
gfz2011gkzt   1.82340
gfz2011hlqw  -0.19960
gfz2011hlsa  -0.20600
gfz2011lcxq  -0.23550
gfz2011lzwj  -0.46410
gfz2011mdie   0.05350
gfz2011rewa  -0.48160
gfz2011toub   0.06290
gfz2011wxfs  -0.39030
gfz2012enno   0.60150
gfz2012jlox  -0.42900
gfz2012kkup   0.17250
gfz2012klhx   0.97620
gfz2012kudo  -0.16350
gfz2012teic   0.21300
gfz2013drxz   0.34240
gfz2013nwdi  -1.60180
gfz2013svci   0.03160
gfz2014bwue  -0.51760
gfz2014fgvi  -0.77260
gfz2014fhla  -1.37100
gfz2014ftka   0.50050
gfz2014gkgf  -0.02860
gfz2014gkqf  -0.27530
gfz2014gmnb  -0.50680
gfz2014goba  -0.20180
gfz2014hasj  -0.18930
gfz2014jjhc  -0.82820
gfz2014nqfm  -0.59930
gfz2014qqhm   0.37960
gfz2014ssvz  -0.00000
gfz2015cyjd   0.98710
