# Nsamples: 21  MAD:  0.531  mean: -0.201  variance:  0.723
gfz2010grjd   0.40620
gfz2010iull  -0.72650
gfz2011aatr  -0.53190
gfz2011enva   1.00780
gfz2011lcxq  -0.44120
gfz2011lzwj  -0.73140
gfz2011wxfs  -0.69200
gfz2012enno  -0.76200
gfz2012jlox  -0.54990
gfz2012kkup   0.80830
gfz2012kudo  -0.26890
gfz2012wypz  -0.37320
gfz2013drxz   1.68200
gfz2013nwdi  -0.10570
gfz2014bwue  -0.54310
gfz2014fgvi  -1.92390
gfz2014ftka   0.25950
gfz2014gkgf  -0.16770
gfz2014gkqf  -1.83080
gfz2014gmnb   0.61590
gfz2015cyjd   0.64300
