# Nsamples: 39  MAD:  0.644  mean: -0.256  variance:  0.429
gfz2011aatr  -0.88380
gfz2011enva   0.60460
gfz2011lcxq  -0.60500
gfz2011lzwj  -0.27180
gfz2011wxfs  -0.19020
gfz2012dyyh  -0.60200
gfz2012jlox  -0.34140
gfz2012kudo  -0.16940
gfz2013nwdi  -0.80250
gfz2013svci  -0.85970
gfz2013vjjc   1.45080
gfz2014bwue  -0.89040
gfz2014fgvi  -0.92520
gfz2014fhla  -0.33670
gfz2014frdz  -0.40020
gfz2014frez   0.37220
gfz2014ftka  -0.12790
gfz2014fval  -0.87360
gfz2014ghpe  -0.77600
gfz2014gkgf  -0.45080
gfz2014gkqf   0.76200
gfz2014gltx   0.38550
gfz2014gmge   0.45220
gfz2014gmhr  -1.92790
gfz2014gmnb  -1.00910
gfz2014gmnw  -0.85360
gfz2014goba  -0.34370
gfz2014gsqs   1.27650
gfz2014gull   0.41980
gfz2014gxxo   0.36690
gfz2014hasj   0.44360
gfz2014hjgr  -0.24610
gfz2014itkw  -0.27320
gfz2015cyjd  -0.62820
gfz2015fsjj  -0.36100
gfz2015gckd  -0.44350
gfz2015lhjy  -0.23320
gfz2015sfdd  -0.01370
gfz2015snwh  -0.68160
