# Nsamples: 21  MAD:  0.642  mean: -0.352  variance:  0.834
gfz2011aatr  -0.54960
gfz2011enva   1.01350
gfz2011lcxq  -0.18910
gfz2011wxfs  -0.05880
gfz2012enno   0.12220
gfz2012jlox  -0.41140
gfz2012kudo  -0.74820
gfz2012ldxg   0.43980
gfz2013jkut  -0.76830
gfz2013nwdi   0.38540
gfz2013svci  -0.84450
gfz2014fgvi  -0.97850
gfz2014ghpe  -2.59810
gfz2014gkgf  -1.63050
gfz2014gmge   1.44470
gfz2014gmhr   1.09580
gfz2014gmnb  -0.19180
gfz2014gmnw  -1.24070
gfz2015cyjd  -0.23150
gfz2015fsjj  -0.64980
gfz2015lhjy  -0.80850
