# Nsamples: 53  MAD:  0.516  mean: -0.227  variance:  0.680
gfz2010bjeb  -0.36790
gfz2010bxxs  -0.56200
gfz2010cqwl  -0.02000
gfz2010ebhc  -0.76940
gfz2010fqdu   0.14180
gfz2010fync   1.86680
gfz2010grjd  -0.63980
gfz2010iull  -0.66000
gfz2012jlox  -0.56170
gfz2012kuct  -0.41090
gfz2012kudo  -0.40380
gfz2012ldxg  -1.39270
gfz2012ldzj   1.14830
gfz2012ttoa   0.76370
gfz2012wypz  -0.10270
gfz2013drxz  -0.42390
gfz2013jkut  -0.47850
gfz2013kdeo   0.76100
gfz2013pfbx  -1.13160
gfz2013svci  -0.48250
gfz2013xsdt  -0.36800
gfz2014ande  -1.08960
gfz2014bwue  -0.69930
gfz2014fgvi  -1.02210
gfz2014fhla   0.90510
gfz2014fkmr   0.42460
gfz2014ftka   1.65260
gfz2014gkgf  -1.26950
gfz2014gkqf  -0.16470
gfz2014glcu  -0.80080
gfz2014gmhr   1.37040
gfz2014gmnb   0.39330
gfz2014gull  -0.65880
gfz2014hasj   0.48260
gfz2014hocg  -0.81670
gfz2014itkw  -2.80480
gfz2014lxnc   0.05340
gfz2014lyhk  -0.33630
gfz2014nqfm  -0.68070
gfz2014qlxd  -0.85650
gfz2014qqhm  -0.21740
gfz2014ssvz  -0.34090
gfz2015cyjd  -0.90890
gfz2015fsjj  -0.93650
gfz2015lhjy  -0.19370
gfz2015mpte  -0.19810
gfz2015sfdd  -0.08690
gfz2015sfdy  -0.31800
gfz2015sfno   1.59150
gfz2015smym  -0.47240
gfz2015snwh   0.34270
gfz2015svwm  -0.12320
gfz2015taml  -0.17990
