# Nsamples: 8  MAD:  1.064  mean:  2.039  variance:  0.679
gfz2010eaoy   0.69300
gfz2010earu   2.90850
gfz2010eisx   2.36410
gfz2010elyc   1.17640
gfz2010exdd   3.26260
gfz2011aatr   2.47820
gfz2011adjs   1.95740
gfz2014arpf   1.47330
