# Nsamples: 927  MAD:  0.786  mean:  0.017  variance:  0.842
gfz2010wnty  -1.67010
gfz2010wofs   1.61760
gfz2010wrxx   1.39090
gfz2010wxqa  -1.72510
gfz2010xbcr   0.23850
gfz2010xbdv  -3.06660
gfz2010xcdh   2.20150
gfz2010xden  -0.09130
gfz2010xgzw   0.24900
gfz2010yfsv   1.15120
gfz2010yjev  -0.82820
gfz2010ymfy  -1.77110
gfz2010ymur   0.62990
gfz2010yosr   0.07170
gfz2010yqqv   0.11810
gfz2010zdpo  -0.77710
gfz2011aatr   0.66270
gfz2011adjs   0.86040
gfz2011adlj   0.49360
gfz2011adpw  -0.49000
gfz2011adqk   0.18870
gfz2011ahfw  -0.16320
gfz2011aldv   0.04330
gfz2011alip   0.65920
gfz2011alsa  -0.91450
gfz2011anur   1.69700
gfz2011aosc  -0.21480
gfz2011aqxf  -0.89360
gfz2011asru  -0.87860
gfz2011bgrp  -0.28280
gfz2011bhha   0.81060
gfz2011blsi   0.99870
gfz2011bpkd   3.13270
gfz2011bswz   0.72660
gfz2011cndo   0.35260
gfz2011crdy  -0.74720
gfz2011csju   1.58750
gfz2011ctbn   2.36400
gfz2011cvfg   0.49990
gfz2011cwgn   0.53510
gfz2011cykd   0.76540
gfz2011cylz  -0.48840
gfz2011cynl  -0.31970
gfz2011cyre   0.50100
gfz2011cyuk   0.69710
gfz2011czwj   0.53840
gfz2011dbev   0.12490
gfz2011dbig  -0.22420
gfz2011dbli   1.54210
gfz2011dbon  -0.67210
gfz2011dbwt  -0.20970
gfz2011dcqb   0.61070
gfz2011dcqf   0.34750
gfz2011ddao   1.11350
gfz2011dddh  -0.56470
gfz2011deaf  -0.76460
gfz2011dkyi   0.18450
gfz2011dllz   0.63470
gfz2011dlyx  -0.89870
gfz2011dmat   1.05000
gfz2011dndz   0.10190
gfz2011dpaa   0.14170
gfz2011dpmx  -0.19990
gfz2011dpqx   2.74340
gfz2011duyr  -0.02300
gfz2011eayc   0.05880
gfz2011eazf  -0.35320
gfz2011ecaj  -0.45450
gfz2011edmm  -1.14890
gfz2011eiis  -0.85970
gfz2011ekpr   0.72510
gfz2011eltw   0.45970
gfz2011enva   0.00480
gfz2011etje   0.16100
gfz2011fdzv   0.09800
gfz2011fgvr  -1.05650
gfz2011fhag  -0.09750
gfz2011fhbm  -0.38320
gfz2011fhur   0.50370
gfz2011fkbn  -0.90450
gfz2011flgj   0.06660
gfz2011flhp   0.26020
gfz2011fnsw   0.72140
gfz2011gbmx  -0.27830
gfz2011gcwb  -0.50740
gfz2011gdgh   0.55070
gfz2011ggvf   0.76200
gfz2011gjlx  -0.19180
gfz2011gkey   0.29010
gfz2011gkzt  -1.37030
gfz2011haid   0.44270
gfz2011hbex  -1.12310
gfz2011hbqk  -0.56760
gfz2011hebt  -0.35230
gfz2011hfkj  -0.29720
gfz2011hlqw  -0.95390
gfz2011hlsa   0.13160
gfz2011hlth  -0.50040
gfz2011hpgx  -0.54900
gfz2011hpqp  -0.21930
gfz2011hrhe  -0.17320
gfz2011hryk   0.98980
gfz2011hvbu  -0.68390
gfz2011icxe  -0.77790
gfz2011ieie   0.24490
gfz2011iwte  -0.42280
gfz2011izqa   0.17670
gfz2011jdsj  -0.11920
gfz2011jghb   0.45500
gfz2011jplh  -0.56490
gfz2011jtlg   1.14110
gfz2011knoo  -0.01720
gfz2011kqwo   0.35120
gfz2011kqyg  -0.32630
gfz2011kxzp   0.23060
gfz2011lcxq  -0.81970
gfz2011lczg   0.24350
gfz2011lgsg  -1.40680
gfz2011lhls   1.60440
gfz2011lzwj   0.60660
gfz2011mdie   0.55600
gfz2011mjom   0.69740
gfz2011mllx  -0.40460
gfz2011mpme   0.20960
gfz2011mprq   1.00000
gfz2011nauw  -0.43960
gfz2011necz  -0.83810
gfz2011nmnq   0.12390
gfz2011nmqj   0.22860
gfz2011noud  -0.68360
gfz2011nowp  -0.72580
gfz2011nqpd  -0.57160
gfz2011nrwc   0.00790
gfz2011nsex   1.28130
gfz2011ntkh  -0.11220
gfz2011nudm  -1.12940
gfz2011ohcy   0.98060
gfz2011oiqe  -0.26730
gfz2011oiwk  -0.16850
gfz2011olkk  -0.97170
gfz2011orgn   0.00310
gfz2011ornx  -0.62220
gfz2011owvz   0.07430
gfz2011pccd   1.18960
gfz2011pdpt  -0.13530
gfz2011phms   0.41940
gfz2011ptus   1.69940
gfz2011qoif   2.15900
gfz2011qvae  -0.11820
gfz2011rewa  -0.03930
gfz2011rgwp   0.50480
gfz2011rnut   0.72570
gfz2011rqui  -0.28810
gfz2011rsrh  -0.77180
gfz2011rznl  -0.10770
gfz2011sagt  -0.31190
gfz2011sawg  -0.92730
gfz2011shqm   0.28740
gfz2011tbas  -0.37510
gfz2011tcij   0.00900
gfz2011tivu  -2.36920
gfz2011tjrf  -0.44550
gfz2011tjue  -0.41580
gfz2011tkog   0.65250
gfz2011toub   0.20660
gfz2011tpbl   0.37300
gfz2011tpfr  -1.04810
gfz2011ueni   0.13060
gfz2011uepx   3.40670
gfz2011ugzz  -0.25510
gfz2011ujze   0.00000
gfz2011ukmp   0.29100
gfz2011uphh   0.44900
gfz2011vhfi   0.53710
gfz2011vnza   0.28850
gfz2011vqrj   1.30390
gfz2011vrhg  -1.98840
gfz2011vxns  -0.80550
gfz2011vxod   0.35140
gfz2011wcic  -1.02490
gfz2011wfja  -1.42080
gfz2011wwjs  -0.49570
gfz2011wxfs   0.12880
gfz2011wxtk  -0.88160
gfz2011xesx  -0.46850
gfz2012bfah  -0.26970
gfz2012bfyn   1.57430
gfz2012bpkx  -0.44970
gfz2012bpwl  -0.69790
gfz2012byad  -0.14670
gfz2012cbed  -0.64340
gfz2012cgvr  -1.56890
gfz2012cmfy  -0.98800
gfz2012cnod   0.27940
gfz2012covm  -0.23520
gfz2012cxdn  -0.45060
gfz2012czlw  -0.82320
gfz2012dimn   0.22750
gfz2012dinb   0.23690
gfz2012dyyh  -0.32580
gfz2012ekda   1.02650
gfz2012ekzf  -1.43440
gfz2012elce  -1.42770
gfz2012emjg  -0.03440
gfz2012enno  -0.37930
gfz2012ewgo  -0.55500
gfz2012ezvr  -0.53060
gfz2012fbfo  -0.68710
gfz2012fivh  -0.58690
gfz2012foeo  -0.79950
gfz2012fwfo   0.15620
gfz2012fwob   0.74440
gfz2012fwtr   0.88080
gfz2012fzfa   1.00570
gfz2012fzsq   1.05760
gfz2012gill  -0.28040
gfz2012gkvr  -0.11060
gfz2012glss   0.56690
gfz2012gocc   0.45770
gfz2012gwqb  -0.03670
gfz2012hdbm  -0.45640
gfz2012hnul  -0.22590
gfz2012hwmz   0.21540
gfz2012hwyo  -0.12600
gfz2012ihdl   0.73930
gfz2012ilvn   0.92400
gfz2012jgvj  -0.28240
gfz2012jlox  -0.09060
gfz2012jpeh   0.36360
gfz2012jpgs   0.56090
gfz2012jshk   0.76680
gfz2012jted   0.09590
gfz2012jupx  -0.93970
gfz2012jxiy  -0.90940
gfz2012kdmb   0.62930
gfz2012keor  -0.62780
gfz2012kkcp  -0.12910
gfz2012kkup  -0.05480
gfz2012klhx   0.42740
gfz2012kuct   0.99750
gfz2012kudo  -0.63230
gfz2012kvzv   0.13920
gfz2012kwgo  -1.67870
gfz2012lboz  -0.25610
gfz2012lczo   0.59360
gfz2012ldxg  -0.34320
gfz2012lpvn   1.76030
gfz2012lrol  -0.70810
gfz2012lxkv   3.23350
gfz2012lzmr   0.07990
gfz2012minr  -0.57880
gfz2012mpvy  -1.39230
gfz2012mtiu   0.61580
gfz2012mupa  -0.58570
gfz2012mvwr  -1.07470
gfz2012mwij   0.05900
gfz2012myqa   0.23300
gfz2012naqz  -0.14060
gfz2012nbtn   0.76710
gfz2012ngic  -0.48070
gfz2012nkdf   3.34270
gfz2012nsbz   0.57110
gfz2012ntzv  -1.17470
gfz2012nxog   0.18350
gfz2012oazn  -0.05040
gfz2012obgw   0.35680
gfz2012oedb  -0.24650
gfz2012omvo   0.38320
gfz2012ostk  -0.64760
gfz2012peki   0.31370
gfz2012pkel   0.95540
gfz2012qqxg   0.26990
gfz2012quso   1.14940
gfz2012rats  -0.68000
gfz2012rboy   0.58950
gfz2012rknn  -0.62840
gfz2012ronz   1.76530
gfz2012royy  -0.97330
gfz2012rqlg   0.05840
gfz2012rwov   2.38530
gfz2012snhi  -2.23130
gfz2012sphd   0.56800
gfz2012sqmv   0.11970
gfz2012syvl  -0.53280
gfz2012tazz  -0.23580
gfz2012tbbp  -1.73250
gfz2012teic  -0.55900
gfz2012tmop  -1.02230
gfz2012ttoa  -0.73550
gfz2012tzgb   0.91000
gfz2012uafg   0.98050
gfz2012uaqj   0.29310
gfz2012uciv  -2.35160
gfz2012uhup   0.16120
gfz2012ulpd  -0.26290
gfz2012uqzp  -0.34250
gfz2012usba   0.77760
gfz2012uvqf   0.28130
gfz2012uxnz  -0.23570
gfz2012uyxb  -0.37520
gfz2012uzom   0.15320
gfz2012uzyj   1.18360
gfz2012vceo   0.25250
gfz2012vdbt   0.46500
gfz2012viab   3.67430
gfz2012vjgl   1.18770
gfz2012vntz   1.62150
gfz2012vrua  -0.69010
gfz2012vsev  -0.00870
gfz2012vxvr  -0.62580
gfz2012wdyx   0.53870
gfz2012wecd  -0.04690
gfz2012whku   1.02900
gfz2012wizz   4.00910
gfz2012wklq  -1.63380
gfz2012wmkd  -1.47020
gfz2012wmsg  -0.40650
gfz2012wpeq  -0.75260
gfz2012wrir  -0.70120
gfz2012wtkr  -0.44100
gfz2012wubh   0.16930
gfz2012wvfl  -0.97060
gfz2012wxer   0.34020
gfz2012wxlg  -0.26380
gfz2012wxnu  -0.89400
gfz2012wybs  -0.46120
gfz2012wypz  -0.70380
gfz2012xbjq  -1.36570
gfz2012xjyv  -0.73130
gfz2012xmxy  -1.14510
gfz2012xyqp  -0.85870
gfz2012xyua  -0.27450
gfz2012yqjj   1.05880
gfz2012yxxu   0.86560
gfz2012zemh   0.75800
gfz2012zemz  -0.60500
gfz2012zfag   1.35440
gfz2012ziml  -0.98570
gfz2012zitl  -0.46830
gfz2012zjpv   0.09980
gfz2012zjre  -0.58410
gfz2013akgj   0.86980
gfz2013aknp   0.53240
gfz2013apmm  -1.13310
gfz2013azzr   2.61470
gfz2013bdpu   0.46460
gfz2013bokp   0.78670
gfz2013bouj  -1.59570
gfz2013ccnr   0.37190
gfz2013ccon  -0.01120
gfz2013cfyy  -0.62900
gfz2013ciaf  -0.05470
gfz2013cnhh   0.25440
gfz2013comh   0.09070
gfz2013cwpn  -0.65500
gfz2013cwps  -0.74080
gfz2013czeq  -0.22250
gfz2013dddp   0.31370
gfz2013diuf  -0.98860
gfz2013dkly  -0.84480
gfz2013dkmz   0.42070
gfz2013dkym  -0.19290
gfz2013dnnx  -1.16510
gfz2013dofo   0.18540
gfz2013dojq  -0.30210
gfz2013egni  -0.99840
gfz2013egpu  -1.51860
gfz2013esnh   0.52220
gfz2013ewbo  -0.25670
gfz2013fiud   1.87510
gfz2013fkcl  -0.04790
gfz2013fkii   0.35170
gfz2013fwxa  -0.52380
gfz2013fygc  -0.23540
gfz2013gbcn  -3.42760
gfz2013gdnq   0.02480
gfz2013geia  -0.16100
gfz2013gihf  -0.35970
gfz2013gjdc   0.57430
gfz2013gngz   0.33940
gfz2013gock  -0.05520
gfz2013gras  -0.53390
gfz2013hkja  -0.60100
gfz2013hlbe  -0.24790
gfz2013hpfq  -0.90530
gfz2013hsfw   0.76380
gfz2013hxcx   0.20350
gfz2013iapa  -1.13680
gfz2013iayx   0.25310
gfz2013iexo  -0.41660
gfz2013ifpq  -0.24580
gfz2013igmx   2.14660
gfz2013ikgo   1.20380
gfz2013ilug   0.76820
gfz2013iodt   0.75100
gfz2013iopd   1.03250
gfz2013iqzq  -1.12400
gfz2013jdrx   1.37960
gfz2013jesk   2.06730
gfz2013jfah  -0.43380
gfz2013jgij  -0.01950
gfz2013jgip  -1.74830
gfz2013jkut  -0.22640
gfz2013jusj   1.46190
gfz2013kdeo   0.88690
gfz2013kheb   0.67340
gfz2013khli  -0.20260
gfz2013kvtk  -0.91560
gfz2013lajn   1.05260
gfz2013ldpc  -0.88170
gfz2013ldqb  -0.99050
gfz2013lfyb  -1.14390
gfz2013lixa  -0.83360
gfz2013lljw   0.08240
gfz2013lmqe  -0.10620
gfz2013lwao  -0.02860
gfz2013lwbk  -0.10010
gfz2013lyko  -0.26490
gfz2013mqmv   0.87510
gfz2013mtqd  -1.72510
gfz2013mwbh  -0.45710
gfz2013nabl  -0.42640
gfz2013ncjp  -0.32140
gfz2013ndin  -0.50010
gfz2013nixj  -0.28780
gfz2013nkgj  -0.30830
gfz2013nknw   0.32780
gfz2013nnzf  -0.74360
gfz2013nojf  -0.65720
gfz2013npcg   0.00000
gfz2013nqgw   1.88490
gfz2013nskg  -0.86990
gfz2013nvdj   0.99900
gfz2013nwdi   0.44590
gfz2013pqui   0.15660
gfz2013pxsj   0.20710
gfz2013qmer  -0.03370
gfz2013rsnr   1.42830
gfz2013sdus   0.46930
gfz2013sebq   0.01780
gfz2013sfds   1.70450
gfz2013shzy   0.62160
gfz2013skkm   0.87300
gfz2013snbr  -0.29310
gfz2013snyf  -0.63900
gfz2013sred  -0.00000
gfz2013stcu   0.59120
gfz2013suvn  -0.97780
gfz2013svci  -0.10140
gfz2013syqk   0.10130
gfz2013tcbk  -0.02070
gfz2013tcxc  -0.74670
gfz2013tcxq  -0.17030
gfz2013tdau  -1.84130
gfz2013tect  -0.96780
gfz2013tjlx   1.46920
gfz2013toea   0.08130
gfz2013toxf   1.03730
gfz2013ttoz   0.08650
gfz2013tusd  -0.59430
gfz2013twwf   1.24370
gfz2013txij   0.50980
gfz2013uauo   0.06650
gfz2013ufxk   0.47880
gfz2013uqsp   0.33610
gfz2013utsh  -0.36570
gfz2013uxej   1.16320
gfz2013vexx   1.14000
gfz2013vfyw  -0.05150
gfz2013vfzp  -1.81640
gfz2013vgrk   0.23130
gfz2013vhnk   0.49210
gfz2013vijl   0.29240
gfz2013viul   1.11640
gfz2013vjjc   0.48260
gfz2013vqot   0.96310
gfz2013vrmy   0.50370
gfz2013vzbo  -0.36840
gfz2013waam   0.36020
gfz2013wgeu   1.27580
gfz2013wjmm   1.43330
gfz2013wkyk   0.61390
gfz2013wrgw  -0.68950
gfz2013wuon  -0.57070
gfz2013xizq  -0.36640
gfz2013xkwt  -0.16750
gfz2013xmqg  -0.19100
gfz2013xmul   0.80510
gfz2013xsdt   0.22240
gfz2013xtwj  -1.22250
gfz2013xwda  -0.13280
gfz2013xxwv   0.32270
gfz2013xxxq   0.06020
gfz2013xyzb  -0.01780
gfz2013yctg   0.49010
gfz2013yhpk  -0.57260
gfz2013ylbx  -0.34030
gfz2013ymky  -0.14720
gfz2013ymxs  -0.33680
gfz2013ynmw   0.18870
gfz2013ypdc   0.07620
gfz2013yqkv  -0.36860
gfz2014algk  -0.56170
gfz2014ande  -0.10930
gfz2014aqbk   0.19970
gfz2014arpf  -0.20840
gfz2014azqs  -0.54170
gfz2014bagd   0.92700
gfz2014bbro   0.25220
gfz2014bdfd  -0.27550
gfz2014bezu  -0.21780
gfz2014bfng  -0.03260
gfz2014bldx   0.23570
gfz2014bmta  -0.76900
gfz2014bwue   0.12550
gfz2014bzna  -0.24690
gfz2014bzxy  -0.73660
gfz2014capn  -0.54630
gfz2014cbtl   0.36000
gfz2014cgog  -0.57640
gfz2014chdv  -0.17330
gfz2014claq  -0.48940
gfz2014cmwb  -0.13620
gfz2014crpy  -0.64170
gfz2014cvkm  -1.71240
gfz2014cvxx  -0.06200
gfz2014cybg  -0.67990
gfz2014czno  -0.19730
gfz2014czqi  -0.33680
gfz2014czua  -0.00960
gfz2014dffd  -0.20500
gfz2014dhxt   0.11790
gfz2014edfx  -0.97470
gfz2014egwu   0.67620
gfz2014ehfp  -0.43270
gfz2014ehsf   0.85160
gfz2014ekcr  -0.55340
gfz2014ekdn   0.28920
gfz2014ekdt   0.02600
gfz2014emzb   0.51210
gfz2014enhi  -0.42300
gfz2014eqpl   0.06300
gfz2014etqa   0.50840
gfz2014ewrw   0.36440
gfz2014fcms  -0.72260
gfz2014fcsy  -0.80150
gfz2014femz   0.14360
gfz2014fexu   0.22850
gfz2014ffdc   0.13790
gfz2014fgvi  -2.88860
gfz2014fgxt   1.50310
gfz2014fgyo   0.97220
gfz2014fhdw  -0.66970
gfz2014fhla   0.32180
gfz2014fhrq   2.07000
gfz2014fhwx  -0.82770
gfz2014fimn   1.87650
gfz2014fiuj   0.81880
gfz2014fjyo   0.88920
gfz2014fjzd   0.18480
gfz2014fkmr  -0.50560
gfz2014fkmx   1.03520
gfz2014fnbh   0.27260
gfz2014fnyg   0.81910
gfz2014foio  -1.12810
gfz2014fqpz  -0.79800
gfz2014frdz   0.14780
gfz2014frel   1.14780
gfz2014frez   0.21250
gfz2014frfl   0.69750
gfz2014frwh   2.34710
gfz2014ftka  -2.06300
gfz2014ftoc  -0.17260
gfz2014ftrk   1.84900
gfz2014furx  -0.96200
gfz2014fusj  -0.73680
gfz2014fuub  -0.97080
gfz2014fval   0.33240
gfz2014fvgh  -0.84240
gfz2014fvrg  -1.03810
gfz2014fwtt  -0.77090
gfz2014fwyr  -0.31470
gfz2014gbcz  -0.75870
gfz2014gbdq  -1.21600
gfz2014geuy   2.21660
gfz2014gkgf  -2.59060
gfz2014gkjl   0.09720
gfz2014gkjt  -0.78710
gfz2014gkln   1.28080
gfz2014gkmm   1.57830
gfz2014gkmw  -1.31930
gfz2014gkok   0.72480
gfz2014gkpd   0.29760
gfz2014gkpj  -0.04370
gfz2014gkqf  -0.54970
gfz2014gkqu  -2.75320
gfz2014gksu   1.20330
gfz2014gktn   0.76490
gfz2014gktq  -1.09400
gfz2014gkxm  -1.26030
gfz2014glcu  -0.83340
gfz2014glcy  -1.30380
gfz2014glgo   1.05990
gfz2014gltx   1.46060
gfz2014gmci  -0.84980
gfz2014gmge  -2.87210
gfz2014gmhp  -0.78960
gfz2014gmhr  -0.74770
gfz2014gmjo   0.63290
gfz2014gmnb   0.11780
gfz2014gmnw   0.50510
gfz2014gmor  -0.19620
gfz2014gmuw  -1.46450
gfz2014gmzs   0.08580
gfz2014gnfd   0.63860
gfz2014gnwg   0.76310
gfz2014goba  -1.84520
gfz2014goqw  -0.70310
gfz2014gori   1.65480
gfz2014gpce   1.09310
gfz2014gpuk  -0.16820
gfz2014gpya   0.19520
gfz2014gqer   0.61220
gfz2014gqjr   1.96250
gfz2014gqve   2.45550
gfz2014gsqs   0.73460
gfz2014gtef   0.89850
gfz2014gtwz  -0.00740
gfz2014gufl   1.13960
gfz2014gull  -0.58480
gfz2014gutm   2.17320
gfz2014gvhw   0.79260
gfz2014gvqj  -2.43870
gfz2014gvrd   0.88250
gfz2014gwab  -1.67770
gfz2014gxag   0.05550
gfz2014gxkh   0.43420
gfz2014gxxo   0.51240
gfz2014gzrm  -2.36630
gfz2014gzue  -1.67300
gfz2014hagb  -1.36450
gfz2014hasj  -0.84250
gfz2014hauo   0.14470
gfz2014hcmj  -0.18830
gfz2014heyq   0.09480
gfz2014hfhl   1.35350
gfz2014hgqo   0.42180
gfz2014hjgh  -0.21880
gfz2014hjgr  -0.31440
gfz2014hmrs   0.07900
gfz2014hqxs   0.05650
gfz2014hrft  -1.04280
gfz2014hriu   0.22870
gfz2014hsqo   0.11860
gfz2014huaj  -0.96480
gfz2014ieam   1.47260
gfz2014ikun   0.78080
gfz2014iobd  -0.07930
gfz2014itkw   0.53260
gfz2014iwwl  -0.23610
gfz2014ixky  -0.48480
gfz2014iywt   0.47830
gfz2014jbyg   1.15030
gfz2014jggm   1.38010
gfz2014jjln  -0.47670
gfz2014jmnk   0.07240
gfz2014jnxm  -0.46520
gfz2014jnyv   0.96320
gfz2014jpep  -0.47530
gfz2014jpxs  -0.11210
gfz2014jvow   0.75470
gfz2014jwmh  -1.08290
gfz2014khlk   0.61880
gfz2014kitm  -0.42820
gfz2014kizt  -0.52170
gfz2014kjjq  -0.27150
gfz2014kndc   0.77860
gfz2014knxs  -0.18650
gfz2014ksdv   0.75280
gfz2014ksmz  -0.78860
gfz2014kwrg  -0.01400
gfz2014kyan   0.12110
gfz2014mtum  -0.31450
gfz2014mwnj   0.83010
gfz2014mwor   0.44370
gfz2014mxkr  -1.37940
gfz2014ndue   0.84820
gfz2014ngnd   0.58800
gfz2014niqj  -0.94400
gfz2014nowp   0.81840
gfz2014npeo   0.77350
gfz2014nphm  -0.13510
gfz2014nqfm   0.13090
gfz2014nrie   0.36330
gfz2014obbs   0.04190
gfz2014obxm  -0.43990
gfz2014odgv   1.82750
gfz2014oinz  -0.03400
gfz2014osvz   0.30090
gfz2014owxc   0.23980
gfz2014oxcc   0.34880
gfz2014oyly   0.64790
gfz2014pjum  -0.14730
gfz2014pkll   0.08060
gfz2014ppyi   0.83750
gfz2014ppzf  -0.32380
gfz2014pvch  -0.83230
gfz2014pzni  -0.36880
gfz2014qdog   0.83700
gfz2014qfzq   1.36320
gfz2014qjgp  -0.30480
gfz2014qlvc  -0.46930
gfz2014qlxd  -0.02020
gfz2014qngj  -1.37180
gfz2014qqhm  -0.21480
gfz2014raau   0.74830
gfz2014rbsl  -0.47850
gfz2014rdoz  -0.05910
gfz2014riel   1.78040
gfz2014rils   1.27410
gfz2014rkwl   0.47820
gfz2014ryfb  -0.38530
gfz2014sryn  -0.28670
gfz2014ssmv   0.75970
gfz2014ssvz  -0.29580
gfz2014szzf  -0.53900
gfz2014tfgn  -0.31760
gfz2014tovs   0.23320
gfz2014tqdo  -0.29040
gfz2014tqly   1.43750
gfz2014tqsf   2.07760
gfz2014tzsd   0.93370
gfz2014uapa  -0.36010
gfz2014ubwn  -1.15150
gfz2014udgg  -0.24040
gfz2014utac   0.95610
gfz2014uuqa  -0.01700
gfz2014uuuf   0.65340
gfz2014uvji   0.09050
gfz2014uxyg   0.67330
gfz2014vcev   0.21170
gfz2014vdnh  -0.27160
gfz2014vhms  -1.34890
gfz2014watn  -0.45350
gfz2014wjko  -0.76970
gfz2014wmsc  -0.10380
gfz2014wqcp   0.33850
gfz2014wwib  -0.57170
gfz2014xbyr  -1.22210
gfz2014xjri  -0.72230
gfz2014xqqd  -0.26750
gfz2014yazi   0.38050
gfz2014yhhm  -1.20310
gfz2014yrug  -0.31360
gfz2014yyiy  -0.48170
gfz2014zkys  -0.93260
gfz2014zplq  -0.66560
gfz2015aide  -0.21290
gfz2015aqav   0.57560
gfz2015aqbq   0.86890
gfz2015aruz  -0.24620
gfz2015atxv   1.74930
gfz2015aush  -0.96510
gfz2015bavu  -0.79150
gfz2015bdyd  -0.48440
gfz2015bfjm   0.70300
gfz2015bkbj   0.04200
gfz2015bohx  -0.65340
gfz2015bphe  -0.44280
gfz2015bsnl  -0.13020
gfz2015bvsj  -0.77020
gfz2015bvxx  -0.35430
gfz2015bzej   0.95930
gfz2015cewd  -0.56810
gfz2015chhn   1.57720
gfz2015chqn  -0.82800
gfz2015clrp   0.01370
gfz2015cxhx  -0.89760
gfz2015cyjd  -0.43910
gfz2015drlk  -1.53960
gfz2015dskr  -0.22880
gfz2015dtqr  -0.53350
gfz2015dvbn  -0.30230
gfz2015ecgq   0.93840
gfz2015eezy   0.03620
gfz2015egxq  -0.11670
gfz2015eiky  -0.92700
gfz2015elgy   0.52050
gfz2015emcg   0.26010
gfz2015emin  -1.03750
gfz2015emtg   0.61820
gfz2015fbbk   0.92170
gfz2015fcua   1.42470
gfz2015fjhk  -0.00000
gfz2015fkgt   0.67120
gfz2015fkic  -0.06900
gfz2015fkkd  -0.12940
gfz2015fkuu   0.89760
gfz2015flis   0.12610
gfz2015fpez  -0.41220
gfz2015fsjj  -1.03070
gfz2015fvoi   0.43880
gfz2015fwnf   0.38320
gfz2015fxbv   0.17950
gfz2015fxdi  -0.08180
gfz2015gckd   0.10500
gfz2015ggjw   0.77070
gfz2015gjbr   0.32460
gfz2015gkwa   0.74980
gfz2015gmgf  -0.98430
gfz2015gnmy  -0.41460
gfz2015hdcp  -1.17430
gfz2015hepg   0.04020
gfz2015hgbk  -0.29220
gfz2015hlfq  -0.70340
gfz2015hlqo   2.06100
gfz2015hpmk  -0.09140
gfz2015hvgs   0.69180
gfz2015igsy   0.57600
gfz2015ijmh  -0.70620
gfz2015imty  -0.56140
gfz2015imyp  -0.75640
gfz2015ixyy   3.48490
gfz2015jkdw   0.46280
gfz2015jmlf   2.19520
gfz2015jxbx  -2.09300
gfz2015jxjd  -0.41650
gfz2015jzcv  -0.41540
gfz2015kakw  -0.23730
gfz2015kcaa  -0.40680
gfz2015kfsu   0.00000
gfz2015kkqb   0.38630
gfz2015kkth  -0.07540
gfz2015kphk  -0.57870
gfz2015ksni  -0.15830
gfz2015kvwz   0.02380
gfz2015kxxs   0.71020
gfz2015lcma   2.79270
gfz2015lfma   0.86830
gfz2015lfud  -0.13050
gfz2015lhjq  -0.14980
gfz2015lhjy   0.56840
gfz2015lytv   0.65570
gfz2015lzad  -0.93080
gfz2015mddr  -0.86190
gfz2015mpte  -0.12350
gfz2015nerz  -0.71050
gfz2015nqgf  -2.78420
gfz2015nuxz   1.71230
gfz2015nwug   0.16050
gfz2015ocdz   0.26080
gfz2015ocwr  -0.31030
gfz2015ofsr   0.04590
gfz2015ojut  -0.59080
gfz2015okmq  -0.13740
gfz2015orkl   0.05720
gfz2015othd   0.01930
gfz2015oumn  -1.03440
gfz2015oyfl  -0.17000
gfz2015pgxa   0.56740
gfz2015pjgr  -0.28290
gfz2015plal  -0.19780
gfz2015prlr  -0.68580
gfz2015puqp   0.07810
gfz2015qiit   0.20770
gfz2015qnho  -0.20200
gfz2015qnlv  -0.14410
gfz2015qnto   0.39210
gfz2015quzo  -1.50650
gfz2015qvxu   0.62840
gfz2015rddx   0.19950
gfz2015rgrg  -1.62210
gfz2015sdeo  -0.99780
gfz2015sdfy   0.24390
gfz2015sglg   0.10510
gfz2015sgmm  -0.51570
gfz2015sgmr  -0.21640
gfz2015shlp  -0.25510
gfz2015shqc   0.21040
gfz2015shqe  -1.79610
gfz2015shrg   0.18240
gfz2015shsz   0.01010
gfz2015sicf  -0.03840
gfz2015siem   0.44850
gfz2015siky  -0.35230
gfz2015sing  -0.93850
gfz2015sitn   1.22990
gfz2015siyy   0.04500
gfz2015sjbx   0.33670
gfz2015sjgk   0.64060
gfz2015sjne   0.84140
gfz2015sjoj   0.26920
gfz2015snhn   0.19770
gfz2015snmg   2.85870
gfz2015snmr  -1.51540
gfz2015snsf  -0.71820
gfz2015snwh   0.42720
gfz2015snyd  -0.01110
gfz2015soat  -0.79210
gfz2015sowu  -1.29520
gfz2015soxc   1.46360
gfz2015sozw  -1.06980
gfz2015spal   0.46850
gfz2015sqbg  -0.18410
gfz2015sqmy   0.19780
gfz2015srat   0.70590
gfz2015srxe   1.21410
gfz2015ssaf   3.39830
gfz2015ssoe  -1.52010
gfz2015sspn   1.25960
gfz2015stas   0.62160
gfz2015stfy   0.47750
gfz2015stso  -0.17330
gfz2015subg   0.32210
gfz2015sunp   0.42470
gfz2015supa   0.49220
gfz2015susq   0.27100
gfz2015svjy   0.05290
gfz2015svwm   0.50650
gfz2015sxmh   1.01990
gfz2015taml  -1.14350
gfz2015tbje   0.95930
gfz2015tbxe  -0.01930
gfz2015tcem   0.25910
gfz2015tdbb  -0.39130
gfz2015tdcu   0.14900
gfz2015teje   0.25080
