# Nsamples: 74  MAD:  0.685  mean: -0.184  variance:  0.819
gfz2010bgth  -2.07260
gfz2010bxxs  -0.08960
gfz2010cqwl  -3.56050
gfz2010czps   0.03540
gfz2010eaoy  -0.51550
gfz2010eapk  -0.11830
gfz2010eapn   0.74490
gfz2010eaqe   0.59770
gfz2010eaqy  -0.89510
gfz2010earu   0.78760
gfz2010easo   0.59490
gfz2010eavs   0.81590
gfz2010eaxa   0.06330
gfz2010ebhc  -0.32420
gfz2010ecua   0.44520
gfz2010ekyc  -0.06150
gfz2010eltf  -0.31610
gfz2010elyc  -1.24220
gfz2010evco  -0.36660
gfz2010excp   0.38500
gfz2010exdd   0.77380
gfz2010exdl  -0.61920
gfz2010ezck  -0.34630
gfz2010fedq  -1.24440
gfz2010ffhq  -1.75630
gfz2010fync   0.46520
gfz2010hxgv  -0.38280
gfz2010iobp   0.20700
gfz2010iull   0.28610
gfz2010nqwo  -0.76610
gfz2010rqwj  -0.56720
gfz2011aatr   0.02810
gfz2011adjs   0.18500
gfz2011dbig   0.79340
gfz2011dcqb  -1.31170
gfz2011dpqx  -1.52570
gfz2011enva   1.21940
gfz2011gkzt   0.19960
gfz2011lzwj   0.07650
gfz2011rewa  -0.53790
gfz2011toub  -1.76510
gfz2011vrhg   1.11420
gfz2011wxfs   0.29520
gfz2012enno  -0.32300
gfz2012fzfa   0.46260
gfz2012hnul  -1.97240
gfz2012kkup  -0.24500
gfz2012minr   0.93140
gfz2012ttoa  -0.60000
gfz2012vrgb   0.38570
gfz2012wklq   0.04070
gfz2012wypz  -0.08160
gfz2013ccnr   0.34440
gfz2013drxz  -0.72150
gfz2013zjel  -2.77010
gfz2014fgvi  -0.43400
gfz2014fhla   1.58040
gfz2014gmhr   1.00580
gfz2014hocg  -0.47060
gfz2014ssvz  -0.31480
gfz2014tqdo   0.74280
gfz2015chhn  -0.00550
gfz2015cyjd   0.10320
gfz2015fkgt  -0.17890
gfz2015fsjj   0.76610
gfz2015gckd   0.28630
gfz2015kfsu  -0.60360
gfz2015lhjy  -0.31130
gfz2015lytv  -1.32630
gfz2015sjoj  -0.01150
gfz2015snwh  -0.30440
gfz2015soxc   0.17120
gfz2015svwm  -0.20840
gfz2015taml   0.70860
