# Nsamples: 26  MAD:  0.574  mean: -0.298  variance:  0.376
gfz2010bxxs  -0.03940
gfz2010homc  -0.62640
gfz2010iull   0.08410
gfz2010nmpc  -0.55410
gfz2011aatr  -0.83330
gfz2011enva   0.50280
gfz2011lcxq   1.04030
gfz2011lzwj  -0.59850
gfz2011rewa  -0.43840
gfz2011wxfs  -0.32400
gfz2012jlox   0.36900
gfz2012kudo  -0.52150
gfz2012vrgb  -0.06820
gfz2012wypz  -0.50040
gfz2013drxz  -0.66450
gfz2013jkut   0.26180
gfz2013nwdi   0.97550
gfz2013pfbx  -0.87600
gfz2013svci  -0.23870
gfz2014fgvi  -1.47770
gfz2014gmhr   0.24880
gfz2014oinz  -0.99900
gfz2014ssvz  -0.81330
gfz2015cyjd  -1.33680
gfz2015fsjj  -0.08930
gfz2015sfdd  -0.23190
