# Nsamples: 7  MAD:  0.951  mean:  3.800  variance:  2.849
gfz2010eaqy   3.88100
gfz2010ecua   2.11850
gfz2011aatr   3.23970
gfz2011adjs   2.64950
gfz2011hlsa   7.66700
gfz2011rewa   3.95140
gfz2012enno   3.09570
