# Nsamples: 40  MAD:  0.390  mean: -0.148  variance:  0.570
gfz2012vrgb  -0.25680
gfz2012wypz   0.01180
gfz2013pfbx   0.12180
gfz2013svci   0.12100
gfz2013uauo   0.02000
gfz2014afmx  -1.14280
gfz2014ande  -2.82790
gfz2014bwue   0.01460
gfz2014fgvi  -0.26590
gfz2014fhla  -0.03340
gfz2014frdz   0.41350
gfz2014ftka  -0.33270
gfz2014ftoc  -0.50920
gfz2014gkgf  -1.05940
gfz2014gkqf   0.25220
gfz2014gltx  -0.02620
gfz2014gmhr   2.29950
gfz2014gmnb  -0.16960
gfz2014goba  -0.77910
gfz2014hasj   0.13640
gfz2014hocg   0.38130
gfz2014huaj  -1.30150
gfz2014jjhc   0.17970
gfz2014jpep  -0.31610
gfz2014lgqn   0.54790
gfz2014lxnc  -0.12530
gfz2014nqfm  -1.06370
gfz2014nrie   0.09660
gfz2014qlxd  -0.51530
gfz2014qqhm   0.24180
gfz2014ssvz   0.03460
gfz2014ubwn   0.25980
gfz2015berb  -0.20750
gfz2015chhn   0.46230
gfz2015cyjd   0.48600
gfz2015fsjj  -1.38980
gfz2015jzcv  -0.14530
gfz2015lhjy  -0.17800
gfz2015mpte   0.33780
gfz2015taml   0.32410
