# Nsamples: 62  MAD:  0.832  mean: -0.261  variance:  0.815
gfz2010bjeb   0.18620
gfz2010cqwl  -0.00920
gfz2010eaoy  -1.64030
gfz2010eazu  -1.72210
gfz2010ecua  -0.65810
gfz2010edcp  -1.95810
gfz2010eeij  -1.38180
gfz2010eisx   0.31360
gfz2010ekyc   0.01820
gfz2010eltf  -0.57340
gfz2010elyc  -1.17550
gfz2010excp  -1.26190
gfz2010exdd   0.88340
gfz2010ffhq  -1.01790
gfz2010fync   1.86350
gfz2010gcdn  -1.08090
gfz2010iull   0.19530
gfz2010nmpc  -0.71290
gfz2010nwef  -0.31040
gfz2010qpvi  -0.78930
gfz2010rqwj  -0.71060
gfz2010usho   0.54910
gfz2010yjev   0.34640
gfz2011aatr  -0.00000
gfz2011adjs  -1.26170
gfz2011cykd  -0.15970
gfz2011enva   2.16740
gfz2011gkzt   0.41000
gfz2011hlsa  -0.02700
gfz2011lcxq   0.85760
gfz2011lzwj  -0.00870
gfz2011mdie  -1.08960
gfz2011owvz   0.58280
gfz2011pdpt   1.28000
gfz2011rewa  -0.54950
gfz2011toub   0.09850
gfz2011vhfi  -1.75850
gfz2011vrhg  -0.30240
gfz2011wxfs   0.76230
gfz2011xyxj  -0.16170
gfz2012bpkx  -1.16280
gfz2012enno  -0.35270
gfz2012fzfa  -1.79650
gfz2012hnul  -2.52190
gfz2012jlox   0.52780
gfz2012kkup  -0.75090
gfz2012klhx  -0.67550
gfz2012kudo   0.05650
gfz2012ldxg   0.70350
gfz2012minr  -0.05420
gfz2012teic  -0.27120
gfz2012ttoa  -0.43940
gfz2012tvmv  -0.70460
gfz2012wxlg   0.98690
gfz2012wypz  -0.00900
gfz2013ccnr  -0.04690
gfz2013drxz  -0.21830
gfz2013jkut   0.63820
gfz2013ldqb   0.21190
gfz2013nkgj   0.54720
gfz2013nwdi  -0.07170
gfz2013qmer  -0.98520
