# Nsamples: 126  MAD:  0.965  mean: -0.102  variance:  1.657
gfz2010bjeb  -1.40900
gfz2010bxxs  -0.71180
gfz2010cqwl  -0.38760
gfz2010czps   1.20550
gfz2010ddzo  -0.41090
gfz2010eaoy   0.85010
gfz2010ebhc   0.83370
gfz2010ebnn  -0.06380
gfz2010ecnm  -2.37650
gfz2010ecua  -0.33240
gfz2010edsn  -2.17180
gfz2010edyi   0.41790
gfz2010eefo   0.88260
gfz2010eisx  -0.55940
gfz2010eixj  -0.04270
gfz2010ekyc  -1.12030
gfz2010excp  -0.24670
gfz2010exdd   1.44600
gfz2010exdl  -0.52410
gfz2010exno  -0.82850
gfz2010ezck   0.11690
gfz2010ezxd  -0.94660
gfz2010fedq  -1.16010
gfz2010ffhq   0.54420
gfz2010ffjb   0.81500
gfz2010flha   0.94480
gfz2010fona  -6.39900
gfz2010gcrl  -4.93240
gfz2010iobp   0.63030
gfz2010iull   0.08580
gfz2010lfju  -1.36910
gfz2010nqwo  -0.93180
gfz2010pexf  -3.29750
gfz2010pfyu   0.28090
gfz2010upfb  -2.75370
gfz2011aatr   0.55390
gfz2011adjs   1.43940
gfz2011bgrp  -0.20780
gfz2011csju   0.70870
gfz2011cykd  -0.21390
gfz2011dbev   0.30610
gfz2011dbig   0.56250
gfz2011dcqb   0.37720
gfz2011dpqx   0.54850
gfz2011enva   0.10310
gfz2011flgj   0.27680
gfz2011gkzt  -0.09950
gfz2011hlsa   0.84450
gfz2011lcxq   1.42590
gfz2011lzwj  -0.20970
gfz2011rewa   0.12130
gfz2011toub   1.70610
gfz2011vrhg  -0.77620
gfz2011wxfs   0.72430
gfz2012bpkx  -0.41080
gfz2012enno   0.41640
gfz2012fzfa   0.04010
gfz2012hnul  -1.13410
gfz2012jlox   0.80200
gfz2012jupx   1.03450
gfz2012kkup   1.08290
gfz2012klhx   1.35100
gfz2012ldxg  -0.29480
gfz2012vrgb   0.26590
gfz2012wklq   0.03150
gfz2012yoie   0.32880
gfz2013lixa  -0.82180
gfz2013mvgr  -3.49600
gfz2013nkgj   0.19950
gfz2013nwdi   1.60880
gfz2013pfbx  -0.79080
gfz2013svci  -0.36230
gfz2013vjjc   0.03650
gfz2014ande  -0.04330
gfz2014bwue   1.26140
gfz2014bzxy  -0.25910
gfz2014fgvi   0.25680
gfz2014fhla   0.77480
gfz2014fkmr   0.59240
gfz2014ftka   0.41380
gfz2014gkgf   0.02350
gfz2014gkgl  -0.62850
gfz2014gkqf   0.53950
gfz2014gmge  -0.10320
gfz2014gmhr   0.65510
gfz2014gmnb   1.58630
gfz2014goba   1.08980
gfz2014gwab  -0.77730
gfz2014gxvf   0.47640
gfz2014hasj   0.17370
gfz2014hgqo   0.82080
gfz2014hhfs   0.32720
gfz2014hocg   0.34650
gfz2014ieho  -3.57170
gfz2014jjhc   0.07730
gfz2014mxkr  -1.04650
gfz2014qlvc   2.30110
gfz2014ssvz  -1.48620
gfz2014tqdo  -0.57980
gfz2014watn  -2.09020
gfz2015chhn  -0.22540
gfz2015cyjd  -2.00590
gfz2015fkgt   1.14530
gfz2015fsjj   0.10480
gfz2015gckd  -0.11940
gfz2015hepg  -0.67150
gfz2015jmlu   2.15990
gfz2015kfsu  -0.43270
gfz2015lytv  -0.36910
gfz2015sfdd   0.31220
gfz2015sfdy   0.39670
gfz2015sfno   1.51840
gfz2015sgdj  -0.97330
gfz2015sghq   0.07970
gfz2015sgpu  -1.03970
gfz2015sjgk   2.27690
gfz2015sjoj  -0.16420
gfz2015smym  -0.91550
gfz2015snwh   0.25100
gfz2015soxc   1.51000
gfz2015sqyh  -0.03440
gfz2015svwm   0.96380
gfz2015sxmh   0.75470
gfz2015szfq  -1.37730
gfz2015taml  -0.57720
gfz2015tbje  -0.67220
