# Nsamples: 119  MAD:  0.668  mean: -0.329  variance:  0.420
gfz2010pcxi   0.16340
gfz2010rqwj  -0.97760
gfz2010upfb  -0.70000
gfz2010usho   0.18820
gfz2010vbmd  -1.09540
gfz2010ymfy  -0.15220
gfz2011aatr   0.03190
gfz2011adjs  -1.12360
gfz2011bgrp   0.83770
gfz2011cykd  -0.56880
gfz2011dbev   0.06090
gfz2011dbig   0.04710
gfz2011dcqb  -0.92410
gfz2011dpqx  -0.83180
gfz2011eazf  -0.22420
gfz2011ecaj  -0.31430
gfz2011enva  -0.56080
gfz2011hbex  -0.19270
gfz2011hlsa   0.64390
gfz2011izqa  -0.23220
gfz2011kqwo   0.78840
gfz2011kxzp  -0.72700
gfz2011lzwj  -0.02330
gfz2011mdie  -0.42580
gfz2011ntkh   0.35460
gfz2011olkk  -1.11420
gfz2011owvz   0.40950
gfz2011rewa  -0.14160
gfz2011toub  -1.30180
gfz2011uphh  -1.06660
gfz2011wxfs  -0.16180
gfz2011wxtk  -0.68280
gfz2012bpkx  -0.57680
gfz2012enno  -0.33820
gfz2012ewgo   0.35250
gfz2012fzfa  -1.00570
gfz2012hnul  -0.95790
gfz2012jlox  -1.00280
gfz2012jupx  -1.01770
gfz2012kkup   0.33540
gfz2012kudo  -0.14450
gfz2012sphd  -0.17150
gfz2012syvl  -0.34870
gfz2012ttoa  -0.07220
gfz2012tvmv  -0.82000
gfz2012vrgb   1.43870
gfz2012wypz   0.35470
gfz2012zemz  -1.88550
gfz2013axoj  -0.48140
gfz2013ccnr  -0.82230
gfz2013dofo  -1.19530
gfz2013drxz  -0.79520
gfz2013jusj  -0.46580
gfz2013ldpc   0.35190
gfz2013ldqb  -1.14970
gfz2013lixa   0.45290
gfz2013lyko  -0.22290
gfz2013nixj   0.12770
gfz2013nkgj  -0.16040
gfz2013nnzf  -0.15590
gfz2013nwdi   0.09240
gfz2013qmer  -0.15260
gfz2013svci  -0.71310
gfz2013tusd  -1.10480
gfz2013vjjc  -1.96390
gfz2013wjmm  -1.01470
gfz2013xsdt  -0.39470
gfz2013xyzb  -0.19920
gfz2013yqkv  -0.22980
gfz2014bwue   0.13350
gfz2014fgvi  -0.19090
gfz2014fhla   0.94100
gfz2014ftka  -0.01750
gfz2014gbcz  -0.55220
gfz2014ghpe   0.13810
gfz2014gkgf  -1.05630
gfz2014gkgs  -1.17250
gfz2014gkqf  -0.00000
gfz2014gltx  -1.00220
gfz2014gmge  -1.00580
gfz2014gmhr  -0.60580
gfz2014gmip  -0.26220
gfz2014gmnb   0.62740
gfz2014gmnw  -0.04070
gfz2014gmuw  -0.19950
gfz2014goba  -0.00250
gfz2014knks  -0.26210
gfz2014lxnc  -0.55770
gfz2014nqfm   0.23960
gfz2014oims  -0.19460
gfz2014oinz   0.63020
gfz2014owxc   0.51340
gfz2014pvch  -1.05290
gfz2014qlxd   0.60620
gfz2014qngj  -1.38150
gfz2015chhn  -0.68020
gfz2015cyjd  -0.64890
gfz2015dvbn  -0.21160
gfz2015eiky  -0.91920
gfz2015fkgt   0.20210
gfz2015fsjj  -0.37440
gfz2015gckd   0.15600
gfz2015kfsu   0.30950
gfz2015lhjy   0.34920
gfz2015lytv  -1.28160
gfz2015poni  -0.82730
gfz2015qnho  -1.09480
gfz2015rddx   0.69060
gfz2015sfdd  -0.85630
gfz2015sfdy  -0.53200
gfz2015sfno   1.62430
gfz2015sjoj  -0.42340
gfz2015sjpn  -1.64500
gfz2015smym  -0.97100
gfz2015snwh  -0.55580
gfz2015soxc  -0.28520
gfz2015svwm  -0.37380
gfz2015szcb   0.21350
gfz2015taml   0.77560
