# Nsamples: 447  MAD:  0.655  mean: -0.158  variance:  0.838
gfz2010ahqi  -0.91920
gfz2010bfzs   0.74090
gfz2010bgth  -0.58380
gfz2010bjeb   0.24000
gfz2010boxo  -3.19090
gfz2010bpda  -0.39620
gfz2010bxxs   0.32790
gfz2010cbkg   1.06500
gfz2010civi  -0.71370
gfz2010cqwl   1.13380
gfz2010czps  -0.54370
gfz2010dlgc  -0.55860
gfz2010eaoy   0.23430
gfz2010eapk   0.13720
gfz2010eapn   1.42980
gfz2010eaqe   0.80090
gfz2010eaqx   0.46580
gfz2010eaqy   0.48170
gfz2010earu  -0.70650
gfz2010easo  -0.00870
gfz2010easu   0.11470
gfz2010eato  -0.19620
gfz2010eavs   0.79400
gfz2010eawb  -3.41700
gfz2010eawu  -0.43550
gfz2010eaxa   0.46170
gfz2010ebfx  -0.36580
gfz2010ebhc   0.04440
gfz2010ebin   4.25780
gfz2010ebiv   0.33780
gfz2010ebjy  -0.26970
gfz2010ebkj   1.60520
gfz2010ebnn   0.96690
gfz2010ebvm   0.49840
gfz2010ebvv   1.20530
gfz2010ebwp  -0.95330
gfz2010ebzr   0.66840
gfz2010eccq  -0.34140
gfz2010eced  -0.24370
gfz2010ecua   0.14740
gfz2010ecvt   0.43810
gfz2010edat   0.48100
gfz2010edbz  -0.35190
gfz2010edcp  -1.31780
gfz2010edvf   0.02220
gfz2010edyi   6.74080
gfz2010eegn  -2.86390
gfz2010eevu   0.15450
gfz2010ehnm   0.12380
gfz2010eisx  -0.62640
gfz2010ekyc   0.46880
gfz2010eltf   1.26800
gfz2010elyc   0.27820
gfz2010epxj   0.75400
gfz2010eqmu   1.81660
gfz2010erdi   1.33980
gfz2010erom   0.31340
gfz2010erum   0.34330
gfz2010eruy   0.52440
gfz2010erwn  -0.47440
gfz2010erxk   0.00000
gfz2010eryg   0.44900
gfz2010euii  -2.44490
gfz2010eujm  -1.29930
gfz2010ewpq  -1.41480
gfz2010excp   0.39570
gfz2010exdd  -0.29570
gfz2010exdl  -0.22080
gfz2010exed  -0.01960
gfz2010exel  -0.55650
gfz2010exgb   0.28880
gfz2010exhd   0.21820
gfz2010exjw   0.30270
gfz2010exmc   0.31090
gfz2010exno   0.33820
gfz2010ezax   0.04160
gfz2010ezck  -0.25750
gfz2010ffhq  -0.19570
gfz2010figq  -0.42240
gfz2010fika  -0.56090
gfz2010flha  -0.49670
gfz2010fpqy   0.20070
gfz2010fqdu  -1.41980
gfz2010fync   0.58260
gfz2010gcrl   0.00000
gfz2010gcrp   1.44100
gfz2010gdld  -0.24090
gfz2010glqr  -0.18880
gfz2010glxl  -0.83260
gfz2010grjd  -0.18680
gfz2010gslu  -0.59470
gfz2010gzxr  -0.70130
gfz2010hakh  -0.50790
gfz2010homc  -1.46470
gfz2010hxhe  -2.15330
gfz2010iobp   0.46880
gfz2010irvf  -0.84990
gfz2010itpb  -0.07730
gfz2010iull   0.46800
gfz2010jpyj  -1.48570
gfz2010jxbm  -0.16400
gfz2010kdyc  -0.26170
gfz2010lepw  -2.18080
gfz2010lfju  -0.76300
gfz2010lkcf   0.18840
gfz2010mdpq  -1.12140
gfz2010mkuu  -0.21040
gfz2010mlta   1.97120
gfz2010mncc  -0.37100
gfz2010moyw   0.27190
gfz2010mwdq   0.06620
gfz2010ncrl  -0.34870
gfz2010nfsj  -1.51940
gfz2010nmpc  -0.63460
gfz2010nnny  -1.61570
gfz2010nqwf   0.09360
gfz2010nqwo  -0.32370
gfz2010nrjo  -0.23270
gfz2010nsck  -0.30860
gfz2010ntuo  -0.09180
gfz2010nwef  -0.36580
gfz2010nxsy  -0.87700
gfz2010ocxq  -0.27160
gfz2010pbdz   0.04050
gfz2010pcxi  -0.18440
gfz2010pfyu   0.03660
gfz2010pxgh  -1.42250
gfz2010qpvi  -0.56840
gfz2010rqwj  -0.25340
gfz2010srdb   0.41030
gfz2010tcrl   1.19600
gfz2010upfb   0.20420
gfz2010usho  -1.30680
gfz2010utcg  -0.65240
gfz2011aatr   0.34990
gfz2011adjs  -0.45890
gfz2011alip  -0.71150
gfz2011bpkd  -0.03130
gfz2011cfae  -0.91580
gfz2011cndo   0.34870
gfz2011csju  -0.80670
gfz2011cykd   0.05220
gfz2011dbig   0.03720
gfz2011dcqb   0.88290
gfz2011dpqx  -0.69330
gfz2011enva  -0.08920
gfz2011fnsw  -0.40950
gfz2011gbmx  -0.33270
gfz2011gkzt   0.46460
gfz2011hbex   0.15800
gfz2011hlsa   0.42990
gfz2011hpqp   1.68430
gfz2011jplh  -0.41570
gfz2011kqwo  -1.38370
gfz2011kxzp   0.30890
gfz2011lcxq  -0.51110
gfz2011lhls   0.48230
gfz2011lzwj   0.42640
gfz2011mdie  -0.41070
gfz2011mjom  -1.10550
gfz2011mpme  -0.25520
gfz2011ntkh   0.25250
gfz2011nudm  -0.32330
gfz2011ohcy   0.78270
gfz2011oiwk  -0.78790
gfz2011ornx   0.82770
gfz2011owvz  -0.17980
gfz2011rewa  -0.07670
gfz2011sagt   0.54400
gfz2011toub  -1.48160
gfz2011twov  -0.61660
gfz2011uepx  -1.33890
gfz2011ujze  -0.04930
gfz2011uphh  -0.10980
gfz2011wjul  -1.39600
gfz2011wwjs  -0.18760
gfz2011wxfs  -0.05350
gfz2011wxtk  -0.44540
gfz2011xyxj   0.70420
gfz2012aqgp   0.24800
gfz2012bfah  -0.23630
gfz2012bpkx  -0.64600
gfz2012cxdn  -1.39580
gfz2012emjg  -0.52650
gfz2012enno  -0.11600
gfz2012foeo  -0.09470
gfz2012fwfo  -0.14040
gfz2012fzfa  -0.34600
gfz2012hnul  -1.55970
gfz2012ilvn   1.05550
gfz2012intn   0.00000
gfz2012iyrb  -1.21060
gfz2012jlox  -0.45470
gfz2012jupx  -0.09390
gfz2012keor  -0.52210
gfz2012kkup  -0.33590
gfz2012klhx  -0.56880
gfz2012kudo  -0.72470
gfz2012lczo   0.00000
gfz2012ldxg  -1.86370
gfz2012llug  -1.26800
gfz2012lxkv   0.02520
gfz2012mwij  -0.19700
gfz2012nolo  -1.71300
gfz2012oazn   0.42220
gfz2012ostk  -1.85410
gfz2012quso  -0.67290
gfz2012rwov  -0.26830
gfz2012sphd   0.41800
gfz2012ttoa  -0.34250
gfz2012tvmv   0.11580
gfz2012uaqj  -0.89440
gfz2012uciv  -0.51490
gfz2012uhup   0.17190
gfz2012uvqf  -0.42430
gfz2012vrgb  -0.36810
gfz2012wmsg  -0.31200
gfz2012wxlg   0.21980
gfz2012wypz  -0.45970
gfz2012zitl   0.09900
gfz2013aahq   0.81100
gfz2013apmm  -0.01830
gfz2013aqaw  -1.68240
gfz2013btjm  -0.75820
gfz2013ccnr   0.58160
gfz2013dofo  -1.11130
gfz2013drxz  -0.20570
gfz2013fkcl  -0.42630
gfz2013fkii  -0.14470
gfz2013gdnq  -0.21810
gfz2013ifpq  -0.72210
gfz2013igmx  -0.39290
gfz2013ijsr   0.94170
gfz2013ikgo  -0.13170
gfz2013ilug  -0.00000
gfz2013ippu   1.20270
gfz2013jgip  -1.14530
gfz2013jkut  -0.87080
gfz2013jusj  -2.89360
gfz2013lyko   0.28790
gfz2013mqmv  -1.49880
gfz2013mwbh   0.09820
gfz2013ncjp  -1.17980
gfz2013nixj  -0.08210
gfz2013nkgj   0.76640
gfz2013nwdi  -1.25410
gfz2013pfbx   0.05220
gfz2013pxsj  -0.25580
gfz2013qali   0.84960
gfz2013qmer  -0.20410
gfz2013qzdq   0.16880
gfz2013sdus  -2.06560
gfz2013shzy  -0.86460
gfz2013snbr  -0.77450
gfz2013snyf   2.04130
gfz2013suvn   0.41270
gfz2013svci  -0.66020
gfz2013vfyw  -0.78080
gfz2013vfzp  -0.56840
gfz2013viul   0.17680
gfz2013vjjc  -0.15800
gfz2013xatc   2.77500
gfz2013xsdt   0.51160
gfz2013xxxq  -1.56550
gfz2013yqkv   0.55010
gfz2014bwue  -0.01210
gfz2014bzxy   0.10090
gfz2014cmwb  -0.31110
gfz2014cqyo  -1.75430
gfz2014czua  -0.61790
gfz2014dhxt   0.40060
gfz2014exxa  -0.23470
gfz2014femz  -0.60590
gfz2014fgvi   0.19790
gfz2014fgvr   0.23950
gfz2014fhdw  -0.26380
gfz2014fhla  -0.72690
gfz2014fhrq  -0.74780
gfz2014fhyb   0.34590
gfz2014fimn   0.37690
gfz2014fkmr  -0.15380
gfz2014fkmx  -0.45570
gfz2014fknp  -0.37350
gfz2014frdz  -0.46650
gfz2014frel  -0.28900
gfz2014frez   0.16280
gfz2014ftka  -0.24760
gfz2014furx  -0.25620
gfz2014fval   0.80590
gfz2014fvrg  -0.62090
gfz2014gkgf  -0.25870
gfz2014gkgl  -1.97440
gfz2014gkgs  -0.53620
gfz2014gkhp   0.79940
gfz2014gkhy  -3.09800
gfz2014gkob  -0.12010
gfz2014gkok  -0.59330
gfz2014gkqf   0.21470
gfz2014gkqu   0.59680
gfz2014glcu   0.24720
gfz2014glcy  -0.05250
gfz2014gltx  -0.05890
gfz2014gmes  -0.53070
gfz2014gmge  -0.44640
gfz2014gmhr  -1.11210
gfz2014gmic  -0.38840
gfz2014gmip  -0.00320
gfz2014gmku   0.56220
gfz2014gmnb   0.41680
gfz2014gmnw  -0.03070
gfz2014gmuk   0.39430
gfz2014gmvr   0.74260
gfz2014gmzl  -0.22000
gfz2014gndq   0.79900
gfz2014gnfd   0.45290
gfz2014gnfs   0.17000
gfz2014gngg   0.13140
gfz2014goba   0.11430
gfz2014goqw  -1.12440
gfz2014gori   0.59070
gfz2014gpce  -0.14070
gfz2014gqer   0.54460
gfz2014gsqs   0.91700
gfz2014gull   0.35000
gfz2014gulp  -0.18650
gfz2014gwab  -0.67990
gfz2014gxxo   0.13590
gfz2014hasj   0.57350
gfz2014hbqb   0.01690
gfz2014heum  -0.56400
gfz2014hfhl   0.57310
gfz2014hgqo   0.31980
gfz2014hjgr   0.45320
gfz2014hphw   0.07920
gfz2014hqxs  -0.71110
gfz2014huaj  -0.25450
gfz2014irci  -0.07550
gfz2014isdq   0.62750
gfz2014itkw  -0.19700
gfz2014iwnf  -1.20480
gfz2014jcmt   0.44810
gfz2014jfis  -2.02700
gfz2014jjhc   0.13490
gfz2014jjln  -0.34560
gfz2014jnyv  -0.26500
gfz2014jpep   0.49320
gfz2014jwmh   0.65090
gfz2014kndc  -0.31580
gfz2014knks  -0.24180
gfz2014kwrg   0.81650
gfz2014kytf   0.02560
gfz2014lddn  -3.16960
gfz2014ldhu   0.02000
gfz2014lefs  -0.55230
gfz2014lgqn  -0.65460
gfz2014lxnc   0.12240
gfz2014lyhk  -0.67010
gfz2014lyhp   0.18660
gfz2014macx  -0.37430
gfz2014madw  -0.47770
gfz2014npeo   0.58170
gfz2014nphm   0.66220
gfz2014nqfm  -0.05170
gfz2014oinz   0.16390
gfz2014ppzf  -0.10560
gfz2014pvch   0.09940
gfz2014qlxd   0.26970
gfz2014qngj  -0.63660
gfz2014qqhm  -1.03680
gfz2014riel  -0.68870
gfz2014ssvz  -1.02750
gfz2014szzf   0.00180
gfz2014tqdo  -0.37550
gfz2014ubwn  -1.20440
gfz2014watn  -0.61550
gfz2014yhhm  -0.73900
gfz2015chhn  -0.08510
gfz2015cyjd   0.14490
gfz2015eeyq  -0.08070
gfz2015egxq   0.99920
gfz2015fcua   0.37940
gfz2015fjhk  -1.69600
gfz2015fkgt  -1.35820
gfz2015fsjj   0.17030
gfz2015fvoi  -5.49060
gfz2015gckd   0.04380
gfz2015hgbk   0.50300
gfz2015iwqk  -0.56750
gfz2015kakw   0.09430
gfz2015kkth   0.43780
gfz2015kquq  -1.39980
gfz2015kxxs   0.31670
gfz2015lhjy   0.85690
gfz2015lytv  -1.35030
gfz2015mpte  -0.63330
gfz2015nwug  -0.41220
gfz2015okmq   0.04960
gfz2015oyfl  -0.07540
gfz2015poni   0.13120
gfz2015qnho   0.28170
gfz2015qpvd  -0.46730
gfz2015sevh  -0.17360
gfz2015sfdd   0.66570
gfz2015sfdl   0.54060
gfz2015sfdv   0.02980
gfz2015sfdy  -0.89030
gfz2015sfeo   0.46780
gfz2015sffn   0.70910
gfz2015sfga  -1.30270
gfz2015sfhz   0.35690
gfz2015sfiq  -0.12940
gfz2015sfmd   0.58910
gfz2015sfnb   0.13960
gfz2015sfno  -0.06370
gfz2015sfnv  -0.15030
gfz2015sfoc   0.43720
gfz2015sfom   0.31420
gfz2015sfpj  -0.56740
gfz2015sfqr   0.26440
gfz2015sfrv   0.49400
gfz2015sfsi  -0.55820
gfz2015sftu   0.11090
gfz2015sfwf  -0.25110
gfz2015sgad  -2.13290
gfz2015sgyd   1.09920
gfz2015shhu   0.24550
gfz2015shjn   0.65590
gfz2015shsz   0.00100
gfz2015sjbx  -0.17300
gfz2015sjgk   1.45310
gfz2015sjne   0.02830
gfz2015sjoj   0.27900
gfz2015sjpn  -1.14000
gfz2015sjvu  -0.05440
gfz2015skxu   0.04780
gfz2015sldx   0.39400
gfz2015smym  -0.02140
gfz2015snwh   0.45680
gfz2015snyd   0.44500
gfz2015soat   0.46250
gfz2015soxc   0.67880
gfz2015sqvx  -0.19580
gfz2015stfy   0.59720
gfz2015svwm   0.78800
gfz2015sxmh   0.05460
gfz2015szcb  -0.11830
gfz2015taml  -0.42250
