# Nsamples: 549  MAD:  0.633  mean: -0.066  variance:  0.959
gfz2010aerk  -0.19220
gfz2010ahqi  -1.01000
gfz2010bfzs   0.18100
gfz2010bifb  -2.62630
gfz2010bjeb  -0.46760
gfz2010bkob   0.99060
gfz2010bowy  -0.79260
gfz2010bxxs   0.34170
gfz2010caft  -0.29350
gfz2010cbkg   0.68630
gfz2010czps   0.65580
gfz2010eaoy  -1.50790
gfz2010eapk   0.54980
gfz2010eapn   0.10210
gfz2010eaqe   0.07810
gfz2010eaqx  -1.63620
gfz2010eaqy  -1.52440
gfz2010earu  -1.71380
gfz2010easf  -0.48300
gfz2010easo   0.32890
gfz2010eato  -2.89350
gfz2010eatt   0.79710
gfz2010eaty  -0.18780
gfz2010eavd   1.86090
gfz2010eavs  -0.94410
gfz2010eawb  -1.18050
gfz2010eawu  -0.88310
gfz2010eaxa  -1.20520
gfz2010eaxn  -0.74100
gfz2010eayp   0.21350
gfz2010eaze  -1.00050
gfz2010eazu  -0.11430
gfz2010ebbx   1.34560
gfz2010ebby  -0.24330
gfz2010ebdl  -0.06930
gfz2010ebhc  -0.16760
gfz2010ebin   2.69590
gfz2010ebjy  -0.29490
gfz2010ebkj   0.50080
gfz2010ebla   0.03160
gfz2010ebll  -1.91600
gfz2010ebmb   0.26520
gfz2010ebnn   1.54800
gfz2010ebrm  -0.45470
gfz2010ebvm  -0.21370
gfz2010ebwp  -0.35730
gfz2010ebxl  -1.40590
gfz2010ebze   6.17410
gfz2010ebzk  -0.80680
gfz2010ebzr  -0.83770
gfz2010ecam  -0.04160
gfz2010ecay  -0.07720
gfz2010ecbi   1.95580
gfz2010eccq   0.04610
gfz2010ecft   1.47680
gfz2010ecfx  -0.45730
gfz2010ecfy  -0.71910
gfz2010echc   0.33260
gfz2010echt   0.63620
gfz2010ecls   1.14970
gfz2010ecns  -0.58640
gfz2010ecps  -1.13870
gfz2010ecro   0.87530
gfz2010ecsp  -1.01460
gfz2010ectq  -0.38270
gfz2010ecua  -0.56900
gfz2010ecuv  -3.08940
gfz2010ecvt  -0.07000
gfz2010eday  -0.90000
gfz2010edcp  -0.74580
gfz2010edhr   0.30750
gfz2010edim  -1.40490
gfz2010edkp  -0.64300
gfz2010edyi   0.42650
gfz2010eedu   1.68960
gfz2010eern  -1.52320
gfz2010efsq  -0.42990
gfz2010egap   0.48560
gfz2010eisx  -0.61100
gfz2010eixj  -1.39380
gfz2010ejae   0.01950
gfz2010ejjg  -0.74700
gfz2010ejju   2.42340
gfz2010ekoe  -0.37660
gfz2010ekrv   0.90170
gfz2010ekyc  -0.27790
gfz2010elhv  -0.17270
gfz2010elin   1.19160
gfz2010eltf   0.75480
gfz2010elyc  -0.17990
gfz2010elyo  -0.71640
gfz2010emyz   0.26390
gfz2010epxj   0.24260
gfz2010eqmu   1.71120
gfz2010erkn  -0.61160
gfz2010erom  -1.71950
gfz2010eruy  -0.34700
gfz2010erwn  -0.54150
gfz2010erxb   0.13780
gfz2010eujm  -0.02010
gfz2010euxe  -1.30770
gfz2010evgf  -2.21570
gfz2010ewvc  -0.66360
gfz2010excp  -0.26270
gfz2010exdd  -0.64470
gfz2010exdl  -0.04090
gfz2010exel  -0.89640
gfz2010exfb  -0.73470
gfz2010exgb  -0.82980
gfz2010exhd  -0.75530
gfz2010exhw  -1.18610
gfz2010exmc  -0.20170
gfz2010exno   0.37670
gfz2010exqu   0.44830
gfz2010exsg   0.59050
gfz2010ezck  -0.43200
gfz2010faeu   2.04830
gfz2010falm  -1.04800
gfz2010fauz   1.29160
gfz2010fcax  -0.68030
gfz2010fcnn   0.20930
gfz2010fczt  -0.69990
gfz2010fdab  -1.38880
gfz2010fedq   0.28040
gfz2010ffhq  -0.82290
gfz2010ffjb   0.56360
gfz2010figq  -0.82810
gfz2010fihj  -0.41580
gfz2010fjal   0.46680
gfz2010fkvg   4.75980
gfz2010flha  -1.91610
gfz2010flrt  -0.84600
gfz2010flxi  -0.05850
gfz2010fmhb   1.05880
gfz2010fneu   3.01740
gfz2010fpqy   0.80220
gfz2010fqdu   0.00000
gfz2010fqtj  -0.92400
gfz2010fser   1.45560
gfz2010ftlm  -0.48680
gfz2010fync   0.66850
gfz2010gcrl  -0.95000
gfz2010gdld  -0.76220
gfz2010gjia   0.77970
gfz2010glxl  -0.10760
gfz2010grjd  -0.82130
gfz2010gyqp   0.01140
gfz2010gzxr  -1.09410
gfz2010hcio   1.37730
gfz2010homc  -0.56780
gfz2010hptz  -1.94530
gfz2010hxgv  -0.64510
gfz2010iibf   0.26340
gfz2010iobp   0.36030
gfz2010iqnm   0.56650
gfz2010irvf  -0.41050
gfz2010iull   0.32490
gfz2010izzj   0.43840
gfz2010jxbm   0.20600
gfz2010lepw  -1.47420
gfz2010lkcf   0.59400
gfz2010mkuu   0.11860
gfz2010mncc  -0.22730
gfz2010mnsz  -0.26930
gfz2010moyw  -1.11580
gfz2010nmpc  -1.27960
gfz2010nqwo  -1.51350
gfz2010nrjo  -0.28950
gfz2010nsck  -0.43780
gfz2010nsdf  -2.68970
gfz2010nubk  -0.28950
gfz2010nwef  -0.32900
gfz2010nxsy   0.19470
gfz2010nzla   0.71960
gfz2010okdm  -0.63810
gfz2010onma   0.08030
gfz2010qjst  -0.19540
gfz2010rhas   0.02170
gfz2010rkfp   0.08070
gfz2010rqwj   3.76470
gfz2010rxjw   1.39630
gfz2010sfee  -0.08930
gfz2010svtn  -0.32130
gfz2010swcy   0.05940
gfz2010sxwt  -0.63950
gfz2010szde   0.33210
gfz2010tcrl  -0.57510
gfz2010truw  -0.95140
gfz2010upfb   0.87590
gfz2010usho   1.73680
gfz2010ustq   0.80200
gfz2010utcg  -1.45170
gfz2010vbmd   0.19980
gfz2010vhuj   0.84210
gfz2010vtdg   0.07080
gfz2010wioh   0.01400
gfz2010wrxx   3.43200
gfz2010xbdv   0.67650
gfz2010xjsj   0.03690
gfz2010xmpr  -0.39210
gfz2010xnxk  -0.46250
gfz2010yjev   0.28460
gfz2011aatr  -0.26250
gfz2011adjs  -1.29300
gfz2011ahfw   0.61870
gfz2011alip  -0.02800
gfz2011bgrp   0.11010
gfz2011bhha   0.80170
gfz2011blsi   2.55360
gfz2011bpkd   0.31780
gfz2011ccpw   0.94440
gfz2011ecaj  -0.79870
gfz2011ehzq   0.03220
gfz2011enva   0.11510
gfz2011fgvr  -0.36630
gfz2011fhbm   1.75840
gfz2011fhur  -0.17110
gfz2011flgj   0.75600
gfz2011fnsw  -0.45120
gfz2011gbmx  -2.02360
gfz2011gcwb  -1.43800
gfz2011gkzt  -0.40760
gfz2011hbex   0.49630
gfz2011hebt  -0.01010
gfz2011hfkj  -0.40700
gfz2011hlqw  -0.66260
gfz2011hlsa  -0.55880
gfz2011hlth  -0.37730
gfz2011hpqp   0.91700
gfz2011icxe  -0.09390
gfz2011ieie   0.93320
gfz2011iwte  -1.14130
gfz2011izqa   0.10660
gfz2011jmbn   0.87640
gfz2011jnmi   0.05580
gfz2011jplh  -0.13510
gfz2011lcxq   0.74890
gfz2011ugzz   0.79900
gfz2011ujze   0.06590
gfz2011uphh   0.38340
gfz2011urxy   0.51120
gfz2011urzu  -0.10900
gfz2011vhfi  -0.56930
gfz2011vnza  -0.08860
gfz2011vxns  -0.67170
gfz2011wcic  -0.92860
gfz2011wijj  -1.30340
gfz2011wjul  -1.46590
gfz2011wxfs   0.06980
gfz2011wxtk  -0.04520
gfz2011xyxj  -0.00000
gfz2011zklv   0.40200
gfz2011zqhh  -1.62340
gfz2012bfah  -0.76520
gfz2012ekda   0.51640
gfz2012gomm   2.11180
gfz2012hnul  -0.53910
gfz2012ilvn   0.38600
gfz2012intn   0.28710
gfz2012jlox  -0.21570
gfz2012jshk   0.93270
gfz2012jupx  -0.66800
gfz2012kkup  -0.74740
gfz2012klhx  -0.41740
gfz2012kudo  -0.52700
gfz2012kwgo  -0.02560
gfz2012lczo  -0.55770
gfz2012ldxg  -1.04060
gfz2012ldzj   0.03320
gfz2012lxkv  -0.72960
gfz2012minr   0.00210
gfz2012mwij  -0.01400
gfz2012nojx  -0.95830
gfz2012nolo  -1.28170
gfz2012oazn  -0.22430
gfz2012pgcl  -0.21840
gfz2012pkel   1.33780
gfz2012pqmk  -1.24760
gfz2012quso   1.45610
gfz2012royy  -0.42390
gfz2012rwov   0.36260
gfz2012sphd  -0.54380
gfz2012syvl   0.10600
gfz2012teic   1.02570
gfz2012tmop   0.04780
gfz2012ttoa  -0.07840
gfz2012uafg  -0.45400
gfz2012uciv  -0.23620
gfz2012uhup   0.02960
gfz2012uxnz  -0.35090
gfz2012vrgb  -1.32550
gfz2012wklq   0.03110
gfz2012wmsg   0.02340
gfz2012wtkr   0.34360
gfz2012wvfl  -0.21020
gfz2012wxer  -0.71250
gfz2012wxlg  -0.31000
gfz2012wxnu   0.16930
gfz2012wybs  -0.48890
gfz2012wypz  -0.07180
gfz2012xbjq   0.61330
gfz2013dkly   1.33930
gfz2013dofo  -1.87640
gfz2013drxz  -0.91410
gfz2013dvyh   0.44250
gfz2013egpu   1.57440
gfz2013enbx  -2.12020
gfz2013fygc  -0.52430
gfz2013gdnq   2.30310
gfz2013ijsr   0.74570
gfz2013ikgo  -0.47240
gfz2013jesk   0.64330
gfz2013jgij   0.14250
gfz2013jgip   0.49110
gfz2013jkut  -0.77100
gfz2013jusj   1.42000
gfz2013kccc   0.75340
gfz2013kdeo   0.07050
gfz2013ldpc   0.17000
gfz2013ldqb   0.11950
gfz2013lixa   0.38020
gfz2013lyko  -0.00000
gfz2013mqmv  -0.07680
gfz2013mwbh   0.12180
gfz2013ncjp  -0.18140
gfz2013ndin   0.06130
gfz2013nixj  -0.44690
gfz2013nkgj  -0.03650
gfz2013nknw   0.50530
gfz2013nqgw  -0.60360
gfz2013nwdi  -0.86590
gfz2013ozrp  -0.14160
gfz2013pfbx  -0.16690
gfz2013qali   0.75410
gfz2013qmer  -0.25450
gfz2013qzdq  -0.29490
gfz2013roki  -0.40570
gfz2013suvn   1.16060
gfz2013svci  -0.33780
gfz2013tusd  -0.05400
gfz2013tvmw  -0.02640
gfz2013txij   0.88160
gfz2013ufxk  -0.76570
gfz2013ufxm  -0.09780
gfz2013ugax   0.22690
gfz2013vfzp   1.00110
gfz2013vjjc  -0.27860
gfz2013wjmm  -1.57890
gfz2013wkyk  -0.60980
gfz2013xsdt   0.44600
gfz2013yctg  -0.11530
gfz2013yqkv  -0.12000
gfz2013ziyr  -4.58890
gfz2013zjel  -0.19880
gfz2014afmx  -0.05580
gfz2014algk   0.31060
gfz2014ande   0.55400
gfz2014bagd   0.25280
gfz2014bwue   0.14550
gfz2014bzxy   0.15970
gfz2014chdv  -1.07680
gfz2014cvkm  -1.33420
gfz2014cvxx  -0.08430
gfz2014czqi  -0.25330
gfz2014disp  -0.16460
gfz2014ekcr  -0.10420
gfz2014enhi  -0.31490
gfz2014fgvi  -0.15810
gfz2014fhdw   0.28750
gfz2014fhla  -0.98830
gfz2014fhrq  -0.14410
gfz2014fimn   0.28060
gfz2014fjzd  -0.54080
gfz2014fkmr  -0.86310
gfz2014frdz   0.80020
gfz2014frel   0.66790
gfz2014frez   0.95430
gfz2014frwh   0.72710
gfz2014ftka   1.19990
gfz2014ftrk   0.78340
gfz2014furx   0.26050
gfz2014fusc  -2.57490
gfz2014fusj  -0.12450
gfz2014fval   0.62750
gfz2014fvgh   0.51370
gfz2014fvrg   0.25220
gfz2014gbcz  -0.29820
gfz2014gbdq   0.47260
gfz2014ghpe   0.05680
gfz2014gkgf  -0.39870
gfz2014gkgs   0.28970
gfz2014gkhp   0.76840
gfz2014gkhy   0.08670
gfz2014gkjl  -0.64750
gfz2014gkjt  -0.27590
gfz2014gkmm   0.06590
gfz2014gkob   0.50190
gfz2014gkpj   2.90010
gfz2014gkqf   0.23360
gfz2014gkqu  -2.84230
gfz2014gksu   0.12820
gfz2014gktq  -0.05580
gfz2014glcu  -3.25700
gfz2014glgo  -0.72380
gfz2014gltx  -2.94080
gfz2014gmge  -0.04670
gfz2014gmhr   0.34170
gfz2014gmip   0.51550
gfz2014gmku  -0.38910
gfz2014gmnb   0.23220
gfz2014gmnw   0.77500
gfz2014gmor   0.19720
gfz2014goba   0.35320
gfz2014goqw  -0.41110
gfz2014gpya  -1.58650
gfz2014gqer  -0.79270
gfz2014gqve   0.36630
gfz2014gsqs  -0.16210
gfz2014gull   0.57190
gfz2014gvhw  -0.17960
gfz2014gvrd   0.06460
gfz2014gwab   0.09820
gfz2014gxkh   0.68010
gfz2014gxxo  -0.24960
gfz2014hasj  -0.02910
gfz2014hbqb  -0.47970
gfz2014hgqo   0.74860
gfz2014hjgr   0.45350
gfz2014hkcf  -0.18700
gfz2014hocg  -0.24450
gfz2014hqxs   0.10310
gfz2014hrft  -0.73110
gfz2014huaj   0.12750
gfz2014imnn   0.00750
gfz2014issk   0.32890
gfz2014itgh   0.36730
gfz2014itkw   3.59320
gfz2014jjhc  -0.32220
gfz2014jnyv   0.00780
gfz2014jpep   0.01650
gfz2014jwmh  -0.05150
gfz2014kndc   0.82270
gfz2014knks   0.15550
gfz2014kyan  -0.00480
gfz2014kytf  -0.11070
gfz2014lgqn  -0.10930
gfz2014lxnc   0.07520
gfz2014lyhk   0.05620
gfz2014lyhp  -0.40850
gfz2014macx   0.67470
gfz2014madw  -0.24310
gfz2014nkdx  -2.06230
gfz2014nnxd  -0.17900
gfz2014nowp  -0.98630
gfz2014npeo  -0.37870
gfz2014nphm   0.14060
gfz2014nqfm   0.01650
gfz2014nrie  -0.42650
gfz2014oinz  -0.04420
gfz2014oryw  -0.45870
gfz2014ppzf  -0.03260
gfz2014pvch  -0.01200
gfz2014qlxd  -0.09270
gfz2014qngj  -0.55770
gfz2014qqhm   0.02230
gfz2014riel  -2.34430
gfz2014shid  -2.59900
gfz2014ssmv  -2.08010
gfz2014ssvz  -0.27050
gfz2014tovs   0.08330
gfz2014tqdo  -0.23680
gfz2014tqsf  -0.01620
gfz2014utac  -0.66570
gfz2014vhld  -0.54550
gfz2014vjoz  -0.35790
gfz2014watn  -0.21100
gfz2014wjko   0.19910
gfz2014xbyr  -0.33290
gfz2014xqqd  -0.22070
gfz2014yhhm   0.45830
gfz2015apnk   0.05860
gfz2015aruz  -0.27670
gfz2015berb  -0.29070
gfz2015bfjm  -0.26010
gfz2015bucr  -0.74610
gfz2015chhn  -0.70050
gfz2015cxxk  -0.01170
gfz2015cyjd   0.38090
gfz2015dskr   0.55740
gfz2015dvbn   0.31820
gfz2015egxq   0.35730
gfz2015eiky  -0.28290
gfz2015etai  -0.15280
gfz2015fcua  -0.74960
gfz2015fjhk   0.25240
gfz2015fkgt  -0.48250
gfz2015fkic   2.21770
gfz2015fsjj   0.22550
gfz2015gckd   0.34430
gfz2015gkwa   0.62630
gfz2015jzcv   0.08700
gfz2015kfsu   0.09850
gfz2015kkth  -0.08550
gfz2015kphk  -0.13680
gfz2015kquq   0.33240
gfz2015ksni  -0.24500
gfz2015lhjy   0.51320
gfz2015okmq   0.12290
gfz2015oyfl  -0.51620
gfz2015rddx  -0.42540
gfz2015rkzg  -1.52890
gfz2015sfdd  -0.27390
gfz2015sfdl   0.37230
gfz2015sfdy  -0.64800
gfz2015sfeo   0.35710
gfz2015sffn   0.12300
gfz2015sfhz   0.01120
gfz2015sfiq   1.14050
gfz2015sfnb  -0.78230
gfz2015sfno   2.37310
gfz2015sfoc  -0.11830
gfz2015sfps   0.15480
gfz2015sfqo   0.49680
gfz2015sfqr   1.55430
gfz2015sfsi   1.03510
gfz2015sgad   0.03580
gfz2015sgyd   0.53440
gfz2015shhu  -0.03260
gfz2015shjn  -0.14330
gfz2015shrg   0.50870
gfz2015sjfi  -0.23270
gfz2015sjgk   0.60480
gfz2015sjne   1.18220
gfz2015sjoj  -0.09300
gfz2015sjvu   0.11790
gfz2015skpv   0.69520
gfz2015skxu   0.04960
gfz2015sldx   0.37310
gfz2015sljs   0.06420
gfz2015smym  -0.66610
gfz2015snsf  -0.05750
gfz2015snwh   0.02410
gfz2015snyd  -0.08050
gfz2015soat   0.32890
gfz2015soxc   0.17940
gfz2015stfy  -1.72100
gfz2015svwm   0.30310
gfz2015szcb   0.55430
gfz2015taml   0.86700
