# Nsamples: 449  MAD:  0.526  mean:  0.116  variance:  0.527
gfz2010aerk  -0.73100
gfz2010ahqi   0.38900
gfz2010bifb   0.00000
gfz2010bjeb  -0.07240
gfz2010bjsl  -0.80760
gfz2010bowy  -0.14340
gfz2010boxo   0.02420
gfz2010bxxs   0.12220
gfz2010caft  -0.11460
gfz2010cind   0.25150
gfz2010dlgc   0.38070
gfz2010ehsy  -0.27520
gfz2010eiqi   0.56640
gfz2010eisx  -1.09240
gfz2010eixj   0.14000
gfz2010ejae   0.44260
gfz2010ejjg   0.13710
gfz2010eryg   1.12760
gfz2010ezck   0.01780
gfz2010ezjk  -0.50730
gfz2010fcax   0.35240
gfz2010fcnt   2.17020
gfz2010fedq   1.04870
gfz2010ffhq   0.25580
gfz2010ffjb  -0.30420
gfz2010figq   0.18990
gfz2010fika  -0.20200
gfz2010fkhd   0.06270
gfz2010fknh  -0.00530
gfz2010fmpy   0.73560
gfz2010fpqy   0.13180
gfz2010gcrl   0.16380
gfz2010gcrp  -0.27970
gfz2010glqr   0.59310
gfz2010grjd   0.48700
gfz2010gzxr   0.17960
gfz2010hbka   0.34140
gfz2010hcio   0.60480
gfz2010hevz   0.71190
gfz2010hlco   0.27230
gfz2010hlmq  -0.14290
gfz2010hmhm   0.07980
gfz2010hnnf  -0.33260
gfz2010hptz   0.33260
gfz2010hxgv  -0.05760
gfz2010iobp   0.61370
gfz2010iqnm   0.26230
gfz2010ited   0.18790
gfz2010iull   0.07100
gfz2010izzj   0.38730
gfz2010jatq   1.00530
gfz2010jxbm   0.56470
gfz2010kdyc  -0.29730
gfz2010kihf  -0.04410
gfz2010lluj   1.72930
gfz2010lopz  -3.36250
gfz2010mgss   0.17930
gfz2010mkuu   1.94160
gfz2010mlta  -0.06650
gfz2010mncc   0.21610
gfz2010moyw  -0.05790
gfz2010ncrl  -0.84770
gfz2010nfsj  -0.47230
gfz2010nqwf   0.17360
gfz2010nqwo   0.90350
gfz2010nsck   0.97230
gfz2010nwef   0.11570
gfz2010nxsy   0.39990
gfz2010nxum  -0.93280
gfz2010ocxq  -0.06630
gfz2010onma   0.29280
gfz2010pcxi  -0.48860
gfz2010pewa   0.63570
gfz2010pewx  -0.92660
gfz2010pexf  -0.14770
gfz2010pmqd  -0.46260
gfz2010pxgh   1.75760
gfz2010qjst  -0.33460
gfz2010rlbv   0.19230
gfz2010rqwj  -1.11450
gfz2010rxjw   0.45410
gfz2010rywq   0.15200
gfz2010sfee   0.16990
gfz2010sfla   0.35690
gfz2010skqo   0.33960
gfz2010skve   0.42400
gfz2010srdb   0.37060
gfz2010svtn  -0.33450
gfz2010swcy   0.31440
gfz2010sxwt   0.88260
gfz2010tcrl  -0.49390
gfz2010tlfm   0.14650
gfz2010upfb   0.46110
gfz2010usho   0.08950
gfz2010ustq  -0.18650
gfz2010utcg  -0.14960
gfz2010utmc   0.19940
gfz2010vhuj   0.25570
gfz2010vzpr  -0.32180
gfz2010wioh  -0.30110
gfz2010wrxx   0.82700
gfz2010wxqa   1.55570
gfz2010xgzw   0.32690
gfz2010xjck  -0.58820
gfz2010xjsj  -1.17240
gfz2010xxzn  -3.97000
gfz2010yjev   0.43350
gfz2010yqwx  -0.25250
gfz2011aatr   0.89450
gfz2011adjs  -0.65670
gfz2011ahfw   1.30120
gfz2011alip  -0.24640
gfz2011alsa   0.97990
gfz2011aqxf   0.16980
gfz2011asru  -0.95580
gfz2011bhha  -0.77440
gfz2011blsi  -0.22330
gfz2011ccpw   0.49280
gfz2011cfae  -0.15230
gfz2011csju  -0.12930
gfz2011cvcg  -0.03070
gfz2011cvfg  -0.29240
gfz2011cwgn   0.52400
gfz2011cykd   0.02370
gfz2011cylz   0.36010
gfz2011cynl   0.15160
gfz2011cyre   0.71610
gfz2011cyuk  -0.43940
gfz2011dbev  -0.06540
gfz2011dbig   0.35320
gfz2011dbon  -0.22260
gfz2011dbwt  -0.01980
gfz2011dcqb  -0.16840
gfz2011dkyi   0.84510
gfz2011dlyx  -0.73620
gfz2011dpqx   1.10370
gfz2011duyr   0.30890
gfz2011eayc   0.08970
gfz2011ecaj   0.33960
gfz2011enva   0.84400
gfz2011etje   0.29600
gfz2011fgvr   0.65960
gfz2011fhag   0.93030
gfz2011fhur   0.20130
gfz2011fkbn  -0.71200
gfz2011flgj   4.40290
gfz2011gcwb   0.38070
gfz2011gdgh  -0.14230
gfz2011haid   0.44280
gfz2011hbex   2.04550
gfz2011hebt  -0.77910
gfz2011hlqw  -0.19990
gfz2011hlsa  -0.04610
gfz2011hlth   0.23410
gfz2011hpgx   0.06710
gfz2011hpqp   0.71490
gfz2011hvbu   0.28840
gfz2011ieie   1.24960
gfz2011iwte  -1.04110
gfz2011izqa  -0.07600
gfz2011jtlg   0.41350
gfz2011kqwo  -0.27600
gfz2011kqyg  -0.49320
gfz2011kxzp   0.46050
gfz2011lcxq   1.48660
gfz2011mpme   0.84780
gfz2011nqpd  -0.54350
gfz2011ntkh   0.53770
gfz2011nudm  -0.10180
gfz2011ohcy  -0.34840
gfz2011olkk   0.51020
gfz2011orgn  -0.84150
gfz2011ornx   0.00000
gfz2011owvz   0.72110
gfz2011pccd   0.42730
gfz2011qvae  -0.24020
gfz2011qyms   0.48970
gfz2011rgwp  -0.77970
gfz2011rqui  -0.14020
gfz2011sagt  -1.19960
gfz2011shqm   0.43340
gfz2011tbas   0.06560
gfz2011tcij  -1.04710
gfz2011tkog   0.51390
gfz2011tpfr  -0.13620
gfz2011tsfd  -0.32750
gfz2011ugzz   1.31230
gfz2011ujze   0.27090
gfz2011ukmp   0.33000
gfz2011uphh   0.27160
gfz2011vhfi   0.58590
gfz2011vnza  -0.29430
gfz2011vrhg  -0.08120
gfz2011vxns  -0.77830
gfz2011vxxg  -0.52890
gfz2011wcic  -0.20910
gfz2011wjul   0.68200
gfz2011wwjs   0.47480
gfz2011wxfs  -0.44770
gfz2011wxtk  -0.74960
gfz2011xyxj   0.25010
gfz2011yhwz   0.20420
gfz2011zklv  -0.46930
gfz2011zqhh   0.12000
gfz2012aqgp   0.06220
gfz2012bfah   0.00000
gfz2012bfyn  -0.30090
gfz2012bpkx   0.36580
gfz2012bszs  -0.18310
gfz2012byad   0.26130
gfz2012cxdn   0.12100
gfz2012deri  -0.06240
gfz2012dimn   0.63490
gfz2012ekda  -0.20320
gfz2012emjg   1.62980
gfz2012enno   0.99940
gfz2012ezvr   0.22530
gfz2012fbfo   0.02930
gfz2012fqcg  -0.66360
gfz2012fwfo   1.24120
gfz2012fzfa   0.44740
gfz2012gill   0.00000
gfz2012glss  -0.72040
gfz2012gocc   0.94920
gfz2012hnul  -0.01980
gfz2012hzbe   0.03270
gfz2012ihdl   0.36890
gfz2012ilvn  -0.39290
gfz2012jgvj  -0.37650
gfz2012jjzc  -0.15960
gfz2012jlox   0.86140
gfz2012jshk  -0.65310
gfz2012jted   0.13520
gfz2012jupx   0.88630
gfz2012keor  -0.29470
gfz2012kkup   0.20320
gfz2012klhx   0.40590
gfz2012kuct   0.41380
gfz2012kudo   0.22100
gfz2012lczo   0.38680
gfz2012ldxg   2.29060
gfz2012ldzj  -0.52910
gfz2012lpvn   0.24660
gfz2012lxkv  -2.20260
gfz2012minr   0.03300
gfz2012mwij   0.71540
gfz2012naqz   0.04860
gfz2012nedn  -1.11790
gfz2012oazn   0.76140
gfz2012omvo   0.61390
gfz2012pkel   0.26980
gfz2012quso   0.60220
gfz2012rats  -0.18120
gfz2012repv  -0.60680
gfz2012rqlg   0.49600
gfz2012rwov   0.83840
gfz2012sphd  -0.01330
gfz2012syvl   0.31320
gfz2012teic   1.01280
gfz2012tmop  -0.60430
gfz2012ttoa   0.23820
gfz2012tvmv   0.06980
gfz2012uafg   0.85320
gfz2012uaqj   0.22950
gfz2012uhup   0.83140
gfz2012ulpd   0.29920
gfz2012uqzp  -0.38880
gfz2012wizz   0.42720
gfz2012wklq  -0.73200
gfz2012wmkd   0.29930
gfz2012wxlg  -0.59680
gfz2012wxnu  -1.05610
gfz2012wypz   0.58580
gfz2012xbjq   2.07580
gfz2012xjyv   0.04680
gfz2012yxxu  -0.16430
gfz2012zfag   0.62000
gfz2012zitl  -0.08740
gfz2012zjpv   0.48290
gfz2013aayj   0.53800
gfz2013acag  -0.64570
gfz2013bdpu  -0.19760
gfz2013bokp   0.14490
gfz2013ccnr   0.25170
gfz2013cfyy   0.00000
gfz2013ciaf   0.08760
gfz2013cwpn   0.15660
gfz2013cwps   0.10490
gfz2013dnnx  -0.13190
gfz2013dofo   0.39570
gfz2013drxz   0.11460
gfz2013dvyh  -0.89820
gfz2013egpu   0.78110
gfz2013ekpm  -0.10850
gfz2013fkii   0.00000
gfz2013gdnq   0.18580
gfz2013hisv   0.64660
gfz2013hkja  -0.41460
gfz2013ippu   1.27610
gfz2013iunn   0.16680
gfz2013jesk  -0.69180
gfz2013jgip  -0.81180
gfz2013jusj  -1.45350
gfz2013kheb  -0.36890
gfz2013mqmv   0.32780
gfz2013mwbh  -0.18940
gfz2013ncjp  -0.36960
gfz2013nqgw  -0.36090
gfz2013pxsj  -0.13190
gfz2013qali   1.08020
gfz2013qfmm  -0.62970
gfz2013qmer   0.34480
gfz2013svci  -0.63220
gfz2013tcxc  -0.14750
gfz2013tcxq   0.58770
gfz2013vfyw  -0.21020
gfz2013vfzp   0.40590
gfz2013viul   0.54610
gfz2013vjjc  -1.28090
gfz2013wjmm   0.55050
gfz2013wtzl   0.46960
gfz2013xizq  -0.89180
gfz2013xmul   0.63950
gfz2013xsdt  -0.08950
gfz2013xvqd   0.70270
gfz2013xxxq  -1.21600
gfz2013yctg  -0.24680
gfz2013yyhc   0.48330
gfz2014afmx   0.33020
gfz2014algk   1.33580
gfz2014ande  -0.07130
gfz2014cvkm  -1.62560
gfz2014dhxt   0.43900
gfz2014enhi  -1.48550
gfz2014etqa  -0.81060
gfz2014gmhr  -0.16360
gfz2014jpep   1.78520
gfz2014jwmh  -0.32460
gfz2014khlk   0.42800
gfz2014knks   1.01420
gfz2014knxs   0.15520
gfz2014kyan   0.28560
gfz2014lddn   0.72840
gfz2014lwom  -0.51810
gfz2014mhgg  -0.23220
gfz2014mtum   0.53530
gfz2014mwor   0.00450
gfz2014oryw   0.19970
gfz2014oxcc   0.46530
gfz2014oyly  -0.32200
gfz2014pkll   0.43810
gfz2014ppzf  -0.11010
gfz2014pvch   1.03950
gfz2014qlxd   1.40390
gfz2014qngj  -1.32770
gfz2014ubwn   0.69040
gfz2014vcev   0.45210
gfz2014vhld  -1.96150
gfz2014vjoz   0.20240
gfz2014watn   0.25410
gfz2014wqcp   0.61790
gfz2014zlgp   0.41300
gfz2015aruz   0.33370
gfz2015bavu   0.85470
gfz2015berb   0.17540
gfz2015bfjm  -0.00920
gfz2015bsnl  -0.02060
gfz2015bzej  -1.35010
gfz2015chhn   0.36350
gfz2015cpuo   0.56850
gfz2015dskr   0.63030
gfz2015dvbn   0.21630
gfz2015etai   0.78620
gfz2015fsjj  -0.30330
gfz2015fxbv   0.49250
gfz2015fxdi   0.04950
gfz2015jmlu  -0.15760
gfz2015jxjd   0.13960
gfz2015kkqb   0.30180
gfz2015kkth  -0.90530
gfz2015nwug   0.55530
gfz2015ocdz   0.70650
gfz2015plal  -2.76600
gfz2015sfdd   0.68220
gfz2015sfdh  -0.43820
gfz2015sfdv   0.41090
gfz2015sfdy  -0.05370
gfz2015sfeo   0.54430
gfz2015sffn   0.04960
gfz2015sfga  -0.28300
gfz2015sfhz   0.30550
gfz2015sfiq  -0.65730
gfz2015sfkz  -0.24070
gfz2015sfmd   1.14900
gfz2015sfnb  -0.20900
gfz2015sfnv  -0.39090
gfz2015sfoc  -0.12820
gfz2015sfoq   0.95770
gfz2015sfpj  -1.20340
gfz2015sfqo  -0.73660
gfz2015sfqr  -0.56530
gfz2015sfrc  -0.70400
gfz2015sftu  -0.15260
gfz2015sfzm   1.46510
gfz2015sgmm  -0.45920
gfz2015sgyd   0.37640
gfz2015shaq   0.32350
gfz2015shel   0.07770
gfz2015shhg   0.51860
gfz2015shhu  -0.25200
gfz2015shjn   0.59430
gfz2015shrg   0.02580
gfz2015shsz   0.73660
gfz2015siky   1.88480
gfz2015siyy   0.02520
gfz2015sjbx  -2.00110
gfz2015sjfi   0.84330
gfz2015sjgk   1.04480
gfz2015sjjb   0.03360
gfz2015sjne   0.11480
gfz2015sjoj   0.33720
gfz2015sjvu   0.04410
gfz2015sjwi   0.45440
gfz2015skab   0.77900
gfz2015skgj   0.22270
gfz2015skia   0.01980
gfz2015skpv   0.01490
gfz2015skxu  -0.20270
gfz2015sldx   0.93730
gfz2015sljs   0.57870
gfz2015slun  -0.24290
gfz2015smym  -0.05780
gfz2015snmr   1.11790
gfz2015snsf   0.26970
gfz2015snwh   0.02980
gfz2015snyd   0.62990
gfz2015soat  -0.86440
gfz2015soxc   0.59400
gfz2015sqbg  -0.30270
gfz2015srat   0.43530
gfz2015stfy  -0.41320
gfz2015subg   0.09730
gfz2015svwm   0.77980
gfz2015sxmh   0.37220
gfz2015szcb   0.47670
gfz2015szfe  -0.52210
gfz2015taml  -0.39110
gfz2015tbdn   0.44580
gfz2015tchx   0.25290
