# Nsamples: 627  MAD:  0.893  mean: -0.337  variance:  1.036
gfz2013kilx  -0.65690
gfz2013kqln  -0.21900
gfz2013krei  -0.29510
gfz2013kvtk  -0.53080
gfz2013kwag  -2.60420
gfz2013kweg  -1.07780
gfz2013lajn  -0.15930
gfz2013lbiu   0.20790
gfz2013ldos   0.19440
gfz2013ldpc   1.57230
gfz2013ldqb  -0.84540
gfz2013lfyb   2.58400
gfz2013lgbb   0.51840
gfz2013lgnl  -1.15130
gfz2013lixa  -1.03120
gfz2013lljw  -1.01890
gfz2013lmdy  -2.78850
gfz2013lmqe  -0.68610
gfz2013lmrs   0.14890
gfz2013lsob  -6.30040
gfz2013lupg  -0.16890
gfz2013lwao  -0.90000
gfz2013lwbk   0.07430
gfz2013lxyn  -0.71320
gfz2013lyko  -0.34610
gfz2013lznu  -0.40820
gfz2013malg  -0.70140
gfz2013mded  -1.58830
gfz2013mmlw  -1.09850
gfz2013mmwq  -0.60170
gfz2013mnei  -0.13530
gfz2013mqmv  -0.05700
gfz2013mtqd  -1.76790
gfz2013mvgr   0.08980
gfz2013mwbh  -0.32180
gfz2013mxee  -1.18360
gfz2013mzwe   0.46050
gfz2013nabl  -0.05780
gfz2013ncjp  -0.01570
gfz2013ndin  -0.41060
gfz2013neuc   0.56210
gfz2013nfwx  -0.53210
gfz2013ngnt  -0.82870
gfz2013nhjb   0.47760
gfz2013nixj  -0.10720
gfz2013njnd  -1.29390
gfz2013nkgj  -0.55460
gfz2013nknw   0.30380
gfz2013nppd   0.48330
gfz2013nqgw  -2.59480
gfz2013nskg  -1.56920
gfz2013nuvi  -1.49510
gfz2013nvdj  -0.02750
gfz2013nwdi   1.61460
gfz2013oejn  -1.47490
gfz2013ogde  -0.68180
gfz2013oqsc  -0.11480
gfz2013orjg   0.09520
gfz2013ornz  -0.15570
gfz2013orzn  -0.30090
gfz2013ouvt  -0.72020
gfz2013ozku  -1.26820
gfz2013oznn  -1.13640
gfz2013ozrf  -0.47050
gfz2013ozrp   0.00670
gfz2013pakq   0.46660
gfz2013pcos  -0.32330
gfz2013pfbx  -0.30600
gfz2013pfeb  -1.72440
gfz2013pffm  -0.53650
gfz2013pfnf   0.83520
gfz2013phmp  -1.19880
gfz2013pkbs   0.06480
gfz2013plhp   0.03090
gfz2013poxj  -0.93520
gfz2013pqui   0.70020
gfz2013pupd  -0.13680
gfz2013pxsj   0.29810
gfz2013pxya  -0.62950
gfz2013qidm  -0.09670
gfz2013qmer  -0.47510
gfz2013qwbv   1.24160
gfz2013qzdq   0.38610
gfz2013rdoo   0.79350
gfz2013reav   0.28710
gfz2013reym  -0.68740
gfz2013rklb  -0.39930
gfz2013roki  -0.52150
gfz2013rqmp   0.31120
gfz2013rsnr   0.07570
gfz2013rvsm   0.02690
gfz2013rwfe  -1.45330
gfz2013sart  -0.62340
gfz2013sdus   1.76330
gfz2013sebq   0.27890
gfz2013sfto  -0.78260
gfz2013shzy   0.31630
gfz2013skkm   0.13910
gfz2013snbr  -0.80940
gfz2013snyf  -1.16410
gfz2013sqkb  -0.61050
gfz2013sred  -0.00940
gfz2013stht   0.17440
gfz2013suln  -0.66320
gfz2013suvn   0.34970
gfz2013svci   1.59690
gfz2013sxbw   0.15620
gfz2013tbzy   0.37760
gfz2013tcxc  -0.69860
gfz2013tcxq  -1.97600
gfz2013tdau  -1.55830
gfz2013tdkk  -0.54560
gfz2013tect   0.00820
gfz2013toea  -0.02130
gfz2013toxf   0.69870
gfz2013tpeb  -1.56130
gfz2013tusd  -0.88600
gfz2013tvmw  -0.87190
gfz2013txev  -1.13880
gfz2013txij   0.27350
gfz2013uauo   0.58400
gfz2013ufxk   1.96660
gfz2013uhlm  -0.87500
gfz2013upee  -0.72240
gfz2013uqsp   0.70100
gfz2013uthl   0.70620
gfz2013utsh   0.50450
gfz2013uuzn   0.35580
gfz2013uxej   1.44880
gfz2013vcoa   0.86420
gfz2013vdic   0.46180
gfz2013vexx   0.19380
gfz2013vfyw   0.63160
gfz2013vfzp  -0.44510
gfz2013vgau  -0.59630
gfz2013vgpf   1.23430
gfz2013vgrk  -0.62690
gfz2013vhnk  -0.06730
gfz2013vhsb  -0.27430
gfz2013vhzu   1.06240
gfz2013vijl  -0.52140
gfz2013viul   0.65900
gfz2013vjjc  -0.07560
gfz2013vlth   0.05680
gfz2013vmro  -0.45130
gfz2013vpnf   0.39530
gfz2013vqot   1.39880
gfz2013vrmy  -1.07030
gfz2013vsbl   0.43850
gfz2013vthd  -0.51240
gfz2013vvjh  -0.16900
gfz2013vvrq  -0.74950
gfz2013vzbo  -0.65610
gfz2013wbyr   3.93700
gfz2014efkk   0.55250
gfz2014eght  -1.66490
gfz2014ehfp  -2.03650
gfz2014ehsf   0.40040
gfz2014ekcr   0.23760
gfz2014ekdn   1.08500
gfz2014ekdt   0.16200
gfz2014emzb  -1.63770
gfz2014enhi   0.93560
gfz2014eqpl   0.80370
gfz2014etqa   0.11530
gfz2014ettc   0.32830
gfz2014exxa  -0.11440
gfz2014fcms   0.75170
gfz2014fcsy  -0.75410
gfz2014fedd   0.35120
gfz2014femz   0.11520
gfz2014fexu  -0.57490
gfz2014ffdc  -0.37430
gfz2014fgvi  -0.96840
gfz2014fgvz   2.32290
gfz2014fgwt  -1.33250
gfz2014fgxt  -0.57470
gfz2014fgyo  -0.76980
gfz2014fhbd  -0.62390
gfz2014fhdw  -0.53900
gfz2014fhgb  -0.30040
gfz2014fhjd  -0.73070
gfz2014fhla  -2.02610
gfz2014fhlh   1.57090
gfz2014fhqk  -0.67310
gfz2014fhrq  -0.77190
gfz2014fhsg  -0.08350
gfz2014fhwx  -0.46910
gfz2014fhxm  -1.74410
gfz2014fhyb  -0.55780
gfz2014fimn  -0.01450
gfz2014fiuj   0.50310
gfz2014fiwq  -1.21020
gfz2014fjdz  -0.73970
gfz2014fjpb  -0.85160
gfz2014fjxd  -1.17960
gfz2014fjyo  -0.33700
gfz2014fjzd  -1.38270
gfz2014fjzw  -1.18900
gfz2014fkmr  -0.66440
gfz2014fkmx   2.23990
gfz2014fknp   0.83400
gfz2014fles  -0.89930
gfz2014flfa  -0.20600
gfz2014fnbh   0.42180
gfz2014fnyg   0.67770
gfz2014fqpz  -1.17150
gfz2014frdz  -0.48010
gfz2014frez  -1.03030
gfz2014frfl  -1.22070
gfz2014frgm  -0.87780
gfz2014frjr  -0.41220
gfz2014frwh  -1.40130
gfz2014fsuh  -1.24390
gfz2014fszc  -0.62920
gfz2014ftgx  -1.01940
gfz2014ftka  -0.64220
gfz2014ftpw  -0.52080
gfz2014ftrk  -1.24050
gfz2014furx  -0.64710
gfz2014fusj  -0.34490
gfz2014fusu  -1.56070
gfz2014fuub  -0.67450
gfz2014fuup  -0.81080
gfz2014fuvk  -1.67580
gfz2014fuzi  -0.67700
gfz2014fval  -0.17210
gfz2014fvdx  -0.57320
gfz2014fvgh  -0.67070
gfz2014fvhp  -0.30690
gfz2014fvjl   0.12100
gfz2014fvpy  -0.79720
gfz2014fvrg  -0.89550
gfz2014fvve  -1.10670
gfz2014fwdr  -0.50640
gfz2014fwtt  -1.62510
gfz2014fwyr  -0.08550
gfz2014fxpu  -0.96170
gfz2014gbcz   0.41830
gfz2014gbdq   1.95630
gfz2014gbjf   0.62350
gfz2014gcza  -0.78530
gfz2014geuy  -0.93560
gfz2014gkgf  -1.68750
gfz2014gkhy   0.33380
gfz2014gkjl  -2.21360
gfz2014gkjt  -0.48190
gfz2014gkjw  -0.27740
gfz2014gkln   1.64930
gfz2014gklq  -1.97420
gfz2014gklv  -0.39620
gfz2014gkmm   0.50580
gfz2014gkmw  -1.20590
gfz2014gkok   0.47030
gfz2014gkpd  -1.27950
gfz2014gkpj  -0.60830
gfz2014gkqf  -1.09020
gfz2014gkqu  -2.23720
gfz2014gksj  -1.01100
gfz2014gksu  -0.27160
gfz2014gktn   1.31110
gfz2014gktq  -0.98150
gfz2014gkut  -0.99220
gfz2014gkvk  -1.62750
gfz2014gkxm  -1.51310
gfz2014glcu  -1.78820
gfz2014glfn  -2.07150
gfz2014glgo  -1.67370
gfz2014glhs  -1.55770
gfz2014glsh  -2.12200
gfz2014gltx  -1.53540
gfz2014glvn  -0.18930
gfz2014glvu  -0.57490
gfz2014glxd  -0.93430
gfz2014glxy   0.17230
gfz2014gmci  -0.92810
gfz2014gmes  -1.48390
gfz2014gmge  -2.04400
gfz2014gmhp  -0.19370
gfz2014gmhr  -0.63110
gfz2014gmip  -0.39140
gfz2014gmjo  -0.69270
gfz2014gmku  -0.17030
gfz2014gmlz   1.30810
gfz2014gmmk  -1.23120
gfz2014gmnw  -2.21890
gfz2014gmor  -0.11950
gfz2014gmpy  -0.68950
gfz2014gmtb  -0.80600
gfz2014gmtj   0.94760
gfz2014gmuk  -0.38660
gfz2014gmuw  -2.71120
gfz2014gmvr  -0.27150
gfz2014gmzl  -0.52630
gfz2014gmzs  -1.32190
gfz2014gnfd  -1.05870
gfz2014gnfs  -0.67170
gfz2014gngg  -0.95630
gfz2014gnhk  -0.55650
gfz2014gnig  -0.59010
gfz2014gnmp  -0.06840
gfz2014gnmx  -1.05360
gfz2014gnno  -0.60730
gfz2014gnnt  -1.05660
gfz2014gnom  -2.59980
gfz2014gnoz   0.31300
gfz2014gnqt  -0.33880
gfz2014gnre  -0.95040
gfz2014gnvw   0.67690
gfz2014gnwg  -1.96390
gfz2014gnxb  -1.18020
gfz2014goba  -0.91060
gfz2014goei   0.15780
gfz2014gogv  -1.27040
gfz2014gohm  -0.73320
gfz2014gono   0.40800
gfz2014goyx   1.54940
gfz2014gpam  -0.69500
gfz2014gpbx  -0.73270
gfz2014gpgd  -1.07930
gfz2014gphr  -0.85680
gfz2014gpnf   0.06720
gfz2014gpqq  -0.23690
gfz2014gpuk  -0.16880
gfz2014gpya   0.06060
gfz2014gqbj  -0.17680
gfz2014gqco   1.22940
gfz2014gqed  -1.38220
gfz2014gqer   1.24650
gfz2014gqgf   0.33560
gfz2014gqiy  -0.54660
gfz2014gqjr  -0.99410
gfz2014gqqz   2.33500
gfz2014gqro  -0.08110
gfz2014gqve   0.28430
gfz2014grcv   0.38580
gfz2014grfp  -0.69160
gfz2014grgn  -0.89350
gfz2014grho  -0.84190
gfz2014gsgv   0.83450
gfz2014gsjg  -0.03020
gfz2014gsqs  -1.07740
gfz2014gtef   2.08910
gfz2014gtlu  -1.92170
gfz2014gtwz  -1.43600
gfz2014gufl  -0.82000
gfz2014gull  -1.65190
gfz2014gumd  -1.31470
gfz2014gutm   0.68510
gfz2014gvhw   0.19780
gfz2014gvqj  -0.81110
gfz2014gvra  -1.22250
gfz2014gvrd  -0.49990
gfz2014gwab   0.23050
gfz2014gwgf   0.04880
gfz2014gwqj  -1.57290
gfz2014gxag   0.84130
gfz2014gxkh  -0.08150
gfz2014gxqu   0.17060
gfz2014gxqx  -1.42520
gfz2014gxvf   1.37510
gfz2014gxxh   0.80940
gfz2014gxxo  -0.41710
gfz2014gyxd   1.52250
gfz2014gzrm  -0.04410
gfz2014gzue  -1.06770
gfz2014haey  -1.04250
gfz2014hcmj  -0.21910
gfz2014heum  -1.28150
gfz2014heyq   0.44460
gfz2014hfad  -1.33820
gfz2014hfhl  -1.09390
gfz2014hfzf   1.10700
gfz2014hgqo  -1.04760
gfz2014hhfs  -1.75930
gfz2014hhwx  -0.31040
gfz2014hifp  -0.51740
gfz2014hiih  -0.81250
gfz2014hjgh  -0.91040
gfz2014hjgr  -0.67830
gfz2014hjhu   0.25300
gfz2014hjij  -1.65020
gfz2014hjlx  -1.10130
gfz2014hkcf  -0.19830
gfz2014hlib  -0.38340
gfz2014hmrs   0.51930
gfz2014hmvx   1.77440
gfz2014hmzg  -1.00080
gfz2014hnfm  -0.83190
gfz2014hocg   0.80180
gfz2014hphw  -0.27580
gfz2014hqxs  -1.14490
gfz2014hrft   1.50470
gfz2014hriu   0.11520
gfz2014hrtn  -0.65950
gfz2014hscz   0.60350
gfz2014hssr  -0.52630
gfz2014huaj   0.17770
gfz2014hugz  -0.25020
gfz2014hvdm   2.95280
gfz2014hwwi  -0.83110
gfz2014hyal   0.39780
gfz2014hyvq  -0.95750
gfz2014hzdy  -1.86370
gfz2014hzfr  -0.31590
gfz2014hzfw   0.39000
gfz2014hzgn  -1.02920
gfz2014hzht   0.10630
gfz2014hzig  -1.31820
gfz2014hzze   0.37170
gfz2014icqt  -0.40710
gfz2014ieho  -0.22210
gfz2014ifue  -0.82310
gfz2014ifzj  -1.68530
gfz2014igsj  -0.97940
gfz2014ijvh  -1.24620
gfz2014ikbk  -1.08320
gfz2014ilwu  -0.98510
gfz2014immt  -1.04960
gfz2014imnn  -0.47380
gfz2014inbj  -0.01110
gfz2014iobd  -0.87080
gfz2014iqzj  -0.16950
gfz2014irci  -0.50770
gfz2014isdq  -1.13570
gfz2014isff  -0.41960
gfz2014isub  -0.59350
gfz2014isys   1.30580
gfz2014itab  -1.23570
gfz2014itbe  -0.71740
gfz2014itgh  -0.70350
gfz2014itkw  -1.09530
gfz2014itpj  -0.38730
gfz2014iuhq  -1.48500
gfz2014jagg  -0.21040
gfz2014jass  -2.10360
gfz2014jatq  -0.18920
gfz2014jbyg  -1.33190
gfz2014jcjt   0.22300
gfz2014jcmt  -0.18100
gfz2014jesb  -1.13880
gfz2014jggm  -1.13190
gfz2014jhra  -1.20460
gfz2014jird  -0.52340
gfz2014jjhc   0.58710
gfz2014jjln  -0.94530
gfz2014jjqk  -1.11310
gfz2014jomw   0.76030
gfz2014jpep  -1.83990
gfz2014jtfe   1.35970
gfz2014jwmh   0.34310
gfz2014jysj   0.18550
gfz2014kbuk   0.54310
gfz2014kbwm  -2.62250
gfz2014khan   0.15810
gfz2014khlk   2.56110
gfz2014kitm  -1.26610
gfz2014kizt  -0.45420
gfz2014kjee   1.19260
gfz2014kjzb  -0.49900
gfz2014kmmt  -0.53670
gfz2014kndc  -2.15580
gfz2014knks  -2.19530
gfz2014knxs   0.90990
gfz2014krlg  -0.64620
gfz2014ksdv   0.97290
gfz2014ksmz   0.64220
gfz2014kwie  -1.84470
gfz2014kwrg  -0.36920
gfz2014kwwg  -1.02890
gfz2014kxqf  -1.36320
gfz2014kyan   0.35720
gfz2014kytf  -0.00510
gfz2014lbcq  -1.48220
gfz2014lchy  -0.71460
gfz2014ldhu   0.84160
gfz2014lefs  -0.28570
gfz2014lehw   0.00000
gfz2014lgqn   0.51900
gfz2014lhqn  -1.24920
gfz2014ljbr   0.33230
gfz2014lkyf  -0.37290
gfz2014lnmw  -0.63390
gfz2014lnqy  -0.07000
gfz2014lpim   0.59250
gfz2014lrzx   1.30990
gfz2014lwom   0.89940
gfz2014lxnc  -0.76940
gfz2014lyhk  -0.74620
gfz2014lyhp  -0.50170
gfz2014lzow  -0.26040
gfz2014macx  -1.12060
gfz2014madw  -0.89920
gfz2014mawp  -0.49250
gfz2014mlqw   0.73640
gfz2014mmtb   0.13340
gfz2014moaw   3.45570
gfz2014mrbm   3.10290
gfz2014mtum   0.21450
gfz2014mwnj   0.17980
gfz2014mwor  -0.17140
gfz2014mxkr  -1.98660
gfz2014myqz   4.65200
gfz2014nafd   1.28970
gfz2014ncub  -0.68650
gfz2014ndue   0.20610
gfz2014ngsk   0.50110
gfz2014ngvt  -2.62900
gfz2014niqj  -0.82710
gfz2014nnih  -0.70910
gfz2014nnxd   0.60310
gfz2014nowp  -0.26760
gfz2014npdk   0.13160
gfz2014npeo   1.13580
gfz2014nphm   0.76900
gfz2014nqfm  -1.20690
gfz2014nrie  -0.25940
gfz2014ntdh  -1.27340
gfz2014nyfb  -1.04690
gfz2014nyko  -0.22400
gfz2014nylm  -0.20510
gfz2014obbs   0.46000
gfz2014obxm   0.35980
gfz2014odgv  -0.88830
gfz2014ofhm  -0.54110
gfz2014oims   0.07320
gfz2014oinz  -0.05320
gfz2014ojdg  -0.26180
gfz2014okec  -0.87320
gfz2014okjw  -0.82770
gfz2014omyn   0.74900
gfz2014ooaa  -0.62910
gfz2014oqhw  -0.10310
gfz2014orgz   0.04170
gfz2014orxs  -0.46010
gfz2014oryw   0.21410
gfz2014osvx  -1.48410
gfz2014osvz  -0.95330
gfz2014owii  -1.09700
gfz2014owur   0.35750
gfz2014owxc  -0.51280
gfz2014oxcc   0.90530
gfz2014oyly   0.52260
gfz2014raau  -1.25310
gfz2014rdoz  -0.76240
gfz2014rdsn   0.65270
gfz2014rhju  -0.21400
gfz2014ryfb  -1.05050
gfz2015cewd  -0.39630
gfz2015chhn   0.73940
gfz2015chqn  -0.31250
gfz2015cpuo  -0.01640
gfz2015cxxk   0.06730
gfz2015cyjd   0.43260
gfz2015czfv   1.32260
gfz2015dadj  -1.50610
gfz2015dizn   0.36480
gfz2015drlk  -0.45910
gfz2015dskr   0.02670
gfz2015dtqr  -0.02530
gfz2015dvbn  -0.22610
gfz2015ednc  -5.75620
gfz2015eeyq   0.11440
gfz2015eezy   0.62070
gfz2015egbk   0.10310
gfz2015egxq   0.56100
gfz2015ehou  -2.02740
gfz2015ehpz   0.90300
gfz2015eiky  -1.85970
gfz2015elgy   0.73590
gfz2015emcg  -1.24370
gfz2015emin  -0.19060
gfz2015emtg  -0.08320
gfz2015enth  -0.54130
gfz2015esrj  -1.34090
gfz2015etai   0.87200
gfz2015eyqs  -0.76790
gfz2015fbbk   0.19460
gfz2015fbew  -1.15450
gfz2015fcua   1.10730
gfz2015fjhk  -0.06700
gfz2015fkbc  -0.45560
gfz2015fkgt  -0.09940
gfz2015fkic  -0.00310
gfz2015fkkd   0.67930
gfz2015fkuu   0.13400
gfz2015flis  -0.44620
gfz2015fpez   0.34300
gfz2015fsjj  -0.19470
gfz2015fvoi  -0.51890
gfz2015fwkq  -0.21790
gfz2015fxbv  -0.69040
gfz2015fxdi  -0.28560
gfz2015fyvk   1.07540
gfz2015gckd  -0.23200
gfz2015ggjw   0.73300
gfz2015gjbr   0.90460
gfz2015gkwa   0.64860
gfz2015gmgf  -0.99340
gfz2015guhd  -0.81750
gfz2015gwao  -0.95890
gfz2015gzja  -1.51040
gfz2015hdbn   0.45470
gfz2015hepg  -1.02000
gfz2015hgbk  -1.06450
gfz2015hhbd   2.88000
gfz2015hlfq   0.36930
gfz2015hlqo   1.55050
gfz2015hpmk  -0.87310
gfz2015hwkv  -1.42910
gfz2015hwzw   0.06340
gfz2015imty  -0.11850
gfz2015jkdw   0.52060
gfz2015jmlf  -1.27410
gfz2015jmlu   0.19120
gfz2015jpap   0.56080
gfz2015jwgl  -0.19350
gfz2015jxjd  -0.45700
gfz2015jzcv  -1.37420
gfz2015kakw   0.14460
gfz2015kalm  -1.07890
gfz2015kcaa  -0.57840
gfz2015kfsu  -0.08120
gfz2015kkqb   0.54510
gfz2015kkth   0.49140
gfz2015kphk  -0.74900
gfz2015kquq  -0.02500
