# Nsamples: 17  MAD:  1.334  mean:  0.606  variance:  5.163
gfz2010eaoy   2.94150
gfz2010eaqx  -5.67710
gfz2010earu   2.35910
gfz2010elyc   3.21730
gfz2010rqwj   0.70570
gfz2011ccpw  -3.92820
gfz2011wxfs   0.33620
gfz2012jlox   1.70450
gfz2012wklq   1.48790
gfz2013nwdi   0.28570
gfz2013svci   0.80470
gfz2013vjjc   2.02340
gfz2014ssvz   2.28140
gfz2015cyjd   1.23580
gfz2015lytv   1.30370
gfz2015sfdd  -1.50840
gfz2015snwh   0.73550
