# Nsamples: 38  MAD:  0.902  mean:  0.728  variance:  2.132
gfz2010bfzs  -0.29930
gfz2010bxxs   1.03480
gfz2010civi  -0.65970
gfz2010eaoy  -0.19390
gfz2010eapn   0.85080
gfz2010earq   0.27880
gfz2010earu   0.62510
gfz2010eazu   1.34230
gfz2010eiqi   0.36870
gfz2010eisx   6.97870
gfz2010elyc   1.63640
gfz2010excp   0.76100
gfz2010exdd   1.13340
gfz2010fync   1.14700
gfz2010nqwo   1.53590
gfz2010rqwj  -0.15570
gfz2011aatr  -0.04690
gfz2011adjs   0.65180
gfz2011cykd   2.26050
gfz2011rewa   0.61220
gfz2012rypu   0.20810
gfz2012wklq   0.88220
gfz2013ccnr   1.09990
gfz2013jusj  -0.89760
gfz2013vjjc   1.28200
gfz2013xsdt   1.54210
gfz2014claq  -0.23260
gfz2014gmhr   3.97570
gfz2014mioi  -2.66840
gfz2014rhwq  -0.54490
gfz2014thrw   0.27590
gfz2015chhn   0.26340
gfz2015enth  -0.43880
gfz2015fkgt  -0.22500
gfz2015fsjj   0.78950
gfz2015lytv   1.21110
gfz2015sfdd   0.39850
gfz2015snwh   0.89580
