# Nsamples: 26  MAD:  0.488  mean: -0.187  variance:  1.229
gfz2010iull  -0.50370
gfz2010nmpc  -0.04430
gfz2010nubk  -5.06390
gfz2011lcxq   0.15730
gfz2011lzwj   0.21830
gfz2011rewa   0.53570
gfz2011toub   0.14090
gfz2011wxfs  -0.11400
gfz2012jlox  -0.44050
gfz2012kudo   0.15520
gfz2012ldxg   0.81350
gfz2012ldzj   1.20710
gfz2012wypz   0.06100
gfz2013jkut  -0.33210
gfz2013nwdi   0.79300
gfz2013pfbx  -0.37070
gfz2013svci  -0.08360
gfz2014fgvi  -0.76460
gfz2014fhla   1.00090
gfz2014fkmr  -0.13580
gfz2014gkgf  -0.89170
gfz2014hasj   0.42440
gfz2014oinz  -0.58960
gfz2015cyjd  -0.29330
gfz2015fsjj  -0.55750
gfz2015lhjy  -0.17520
