# Nsamples: 17  MAD:  0.696  mean:  0.632  variance:  0.419
gfz2010nmpc   0.88690
gfz2011aatr   0.01500
gfz2011enva   2.09280
gfz2011lzwj   0.70700
gfz2011rewa   0.08940
gfz2011toub   0.08510
gfz2011wxfs   0.31330
gfz2012kudo   1.85050
gfz2012ldxg   0.63040
gfz2012wypz   0.63850
gfz2013nwdi   1.26800
gfz2013yaig  -0.54030
gfz2014bwue   0.16890
gfz2014fgvi   0.13440
gfz2014gkqf   0.90650
gfz2014gmnb   0.84170
gfz2015lhjy   0.65910
