# Nsamples: 29  MAD:  0.407  mean: -0.177  variance:  0.665
gfz2010iull  -0.89780
gfz2010nmpc  -0.47730
gfz2010usho  -1.06830
gfz2011aatr  -0.34260
gfz2011enva   0.60500
gfz2011lcxq   0.22280
gfz2011lzwj   0.06120
gfz2011rewa   1.00260
gfz2011toub  -0.54980
gfz2011wxfs  -0.70650
gfz2012jlox  -0.67700
gfz2012kudo  -0.01000
gfz2012wypz  -0.41660
gfz2013jkut  -0.50520
gfz2013nwdi   0.62070
gfz2013svci  -0.64740
gfz2014bwue  -0.19350
gfz2014fgvi  -1.36180
gfz2014fhla   1.11050
gfz2014gkgf  -1.82140
gfz2014gkqf  -0.43170
gfz2014gmhr   2.26700
gfz2014hasj  -0.30260
gfz2014ssvz  -0.56670
gfz2015cyjd   0.36400
gfz2015fsjj  -0.45000
gfz2015lhjy  -0.52000
gfz2015mpte  -0.43300
gfz2015taml   0.99980
