# Nsamples: 22  MAD:  0.729  mean: -0.406  variance:  0.948
gfz2013dofo  -1.16490
gfz2013drxz  -1.59120
gfz2013jusj   0.60420
gfz2013lyko  -0.65480
gfz2013nwdi  -0.08500
gfz2013qmer  -0.96980
gfz2013qzdq  -0.99140
gfz2013svci   0.55210
gfz2013vjjc  -2.15050
gfz2013wjmm  -1.54240
gfz2013xsdt  -0.79000
gfz2014fhla   1.84100
gfz2014ftka   0.31630
gfz2014gkgf  -0.51910
gfz2014gkgs   0.82470
gfz2014gmhr   1.47230
gfz2014qngj  -0.42210
gfz2014ssvz  -0.83590
gfz2015chhn  -0.97130
gfz2015cyjd  -0.54320
gfz2015fkgt  -1.06900
gfz2015fsjj  -0.23520
