# Nsamples: 52  MAD:  0.631  mean: -0.287  variance:  0.467
gfz2013nkgj  -0.50350
gfz2013nwdi  -1.13870
gfz2013qmer  -0.76730
gfz2013svci   0.03000
gfz2013uauo   0.13390
gfz2013xsdt   0.07130
gfz2014afmx  -0.16210
gfz2014ande  -0.84760
gfz2014bwue  -0.31970
gfz2014fgvi  -0.79210
gfz2014fhla  -0.72930
gfz2014fkmr  -1.16170
gfz2014ftka   0.73250
gfz2014gkgf  -0.17820
gfz2014gkqf   1.00670
gfz2014gmhr   1.82970
gfz2014gmnb  -0.66110
gfz2014goba  -0.67320
gfz2014gull   0.10180
gfz2014hasj   0.22800
gfz2014hocg   0.17510
gfz2014jjhc  -0.14870
gfz2014jpep  -0.76650
gfz2014lgqn   0.43210
gfz2014lxnc  -1.31470
gfz2014lyhk  -0.95780
gfz2014macx  -0.94810
gfz2014nqfm  -0.30320
gfz2014nrie   0.61480
gfz2014oinz  -0.58990
gfz2014owxc  -2.04130
gfz2014qlxd  -0.53300
gfz2014qqhm  -1.64210
gfz2014ssvz  -0.06480
gfz2014ubwn   0.17630
gfz2015chhn  -0.22770
gfz2015cyjd  -0.00000
gfz2015fsjj   0.22860
gfz2015gckd   0.51360
gfz2015kquq  -0.98690
gfz2015kxxs   0.58370
gfz2015lhjy  -0.27260
gfz2015mpte  -0.16710
gfz2015sfdd  -1.04990
gfz2015sfdy  -0.88470
gfz2015sfno  -0.37030
gfz2015sjgk  -0.58420
gfz2015smym  -0.43660
gfz2015snwh   0.17210
gfz2015soxc   0.59200
gfz2015svwm  -0.07460
gfz2015taml  -0.22460
