# Nsamples: 14  MAD:  0.499  mean:  0.530  variance:  0.758
gfz2010bxxs   0.51640
gfz2010grjd   0.03340
gfz2010iull  -0.12320
gfz2011aatr  -0.03880
gfz2011enva   0.38430
gfz2011rewa   1.22140
gfz2011toub  -0.10990
gfz2012ldxg   1.50430
gfz2012wypz  -0.11930
gfz2013jkut   0.76690
gfz2013nwdi   2.98270
gfz2014bwue   0.04660
gfz2014oinz  -0.44700
gfz2015taml   0.80710
