# Nsamples: 1535  MAD:  0.450  mean:  0.018  variance:  0.507
gfz2010aban   0.99150
gfz2010aerk   0.32770
gfz2010ahqi   0.47050
gfz2010aykj  -1.09790
gfz2010bfzs   0.48040
gfz2010bgth  -0.71070
gfz2010bhhq   0.03710
gfz2010bifb  -1.37680
gfz2010bjeb  -0.23220
gfz2010bjjx   0.49340
gfz2010bjsl  -0.99930
gfz2010bkob   0.24390
gfz2010bowy  -0.16610
gfz2010boxo  -0.28640
gfz2010bpda  -0.19100
gfz2010bxxs   0.05750
gfz2010caft  -0.16700
gfz2010cbkg  -0.18320
gfz2010cdbt   0.57550
gfz2010chnv   0.38190
gfz2010cind   0.17360
gfz2010civi   0.32990
gfz2010ckeu  -0.30980
gfz2010ckzm  -0.18670
gfz2010cnwc  -1.72920
gfz2010cqwl   0.51050
gfz2010cres   0.26150
gfz2010ctuw   0.45710
gfz2010czps  -0.13310
gfz2010ddzo   0.69920
gfz2010dejx  -0.01760
gfz2010dfru   0.84870
gfz2010diqn   0.16990
gfz2010dlgc   0.41830
gfz2010dtmx   0.38380
gfz2010dumm  -0.48240
gfz2010eaoy   0.14440
gfz2010eapn   0.59680
gfz2010eaqe   0.51780
gfz2010eaqx   0.61400
gfz2010eaqy   0.30870
gfz2010earu  -0.53630
gfz2010easf   1.52480
gfz2010eask  -6.47390
gfz2010easo  -0.28440
gfz2010easu   0.16910
gfz2010eati  -0.13500
gfz2010eato   0.12450
gfz2010eatt  -1.52230
gfz2010eaty   0.97580
gfz2010eaul   0.31320
gfz2010eavs  -0.13410
gfz2010eawb   0.40820
gfz2010eawu  -7.46850
gfz2010eaxa   0.42250
gfz2010eaya  -3.34890
gfz2010eayd  -0.05180
gfz2010eayp  -0.40740
gfz2010eayx  -0.14120
gfz2010eaze   0.12130
gfz2010eazu  -2.98660
gfz2010ebbd  -0.36700
gfz2010ebbx  -3.01110
gfz2010ebby   1.46210
gfz2010ebdl   0.68280
gfz2010ebeh  -0.64460
gfz2010ebek   0.52130
gfz2010ebfa   0.00000
gfz2010ebfx   0.50930
gfz2010ebgj  -0.08230
gfz2010ebhc   0.88100
gfz2010ebih  -0.20410
gfz2010ebin  -2.06700
gfz2010ebiv   0.52630
gfz2010ebjy  -0.12850
gfz2010ebkj  -0.10310
gfz2010ebla   0.35580
gfz2010ebll  -0.26990
gfz2010ebmb   0.15260
gfz2010ebmi  -0.99260
gfz2010ebnn   0.71990
gfz2010ebqt  -0.75270
gfz2010ebrm   0.22880
gfz2010ebsv   0.53530
gfz2010ebvm   0.27380
gfz2010ebvv   0.06930
gfz2010ebwp   0.14080
gfz2010ebxl   0.32200
gfz2010ebze  -0.35470
gfz2010ebzk   0.23920
gfz2010ebzr  -0.10760
gfz2010ecam   0.02290
gfz2010ecay  -0.78060
gfz2010ecbi   0.32590
gfz2010eccq   0.38480
gfz2010ecdu  -0.19130
gfz2010eced   0.31510
gfz2010ecft  -0.10800
gfz2010ecfx  -0.29790
gfz2010ecgh   0.95850
gfz2010echc   0.01730
gfz2010echt   0.06420
gfz2010echy   0.26930
gfz2010ecka  -0.57730
gfz2010ecls  -0.53750
gfz2010ecml  -1.10900
gfz2010ecns   0.02970
gfz2010ecps   0.10590
gfz2010ecro  -0.22660
gfz2010ecsp   0.07330
gfz2010ectq  -0.34740
gfz2010ecua  -0.18370
gfz2010ecuv   0.24220
gfz2010ecvt   0.66810
gfz2010ecyr  -0.28480
gfz2010edad   1.23800
gfz2010edat  -0.06130
gfz2010edbz   0.25620
gfz2010edcp   0.14050
gfz2010edde  -0.30530
gfz2010edhr   0.16650
gfz2010edhv   0.33200
gfz2010edim  -0.10740
gfz2010edkp  -0.35100
gfz2010edoq   0.08850
gfz2010edpb  -0.12890
gfz2010edqd  -0.22280
gfz2010edsk  -0.09610
gfz2010edsn   0.13630
gfz2010edun  -0.31090
gfz2010edvf  -0.01440
gfz2010edyi  -0.87510
gfz2010edzb   0.25450
gfz2010eedu  -0.56310
gfz2010eefh  -0.12040
gfz2010eefo  -0.37290
gfz2010eegn  -0.20820
gfz2010eeia   0.50100
gfz2010eeij  -0.10750
gfz2010eekg   0.88700
gfz2010eekq  -0.48170
gfz2010eeng  -0.64310
gfz2010eerh   0.39840
gfz2010eern   0.11640
gfz2010eesf  -0.09070
gfz2010eevu   0.26410
gfz2010eexz  -0.45980
gfz2010eeyh   0.59630
gfz2010efak   0.27490
gfz2010efbh  -0.44590
gfz2010efbi  -0.56380
gfz2010efls  -0.14960
gfz2010efnf  -0.17100
gfz2010efsq  -0.70050
gfz2010efwo  -0.75400
gfz2010egap   0.44670
gfz2010eghq   0.25420
gfz2010egld   0.58870
gfz2010egln  -0.73530
gfz2010egmp   0.57090
gfz2010egqh  -0.36640
gfz2010egsw   0.83720
gfz2010egsy  -0.11490
gfz2010egyy   0.29940
gfz2010ehaj  -0.04400
gfz2010ehft  -0.32720
gfz2010ehnl   0.13160
gfz2010ehsy   0.09350
gfz2010ehvj   0.08640
gfz2010ehwg  -0.41140
gfz2010ehxz   0.30810
gfz2010eioi  -0.63560
gfz2010eisx  -0.93200
gfz2010eixj   0.13990
gfz2010ejco   0.14250
gfz2010ejjg   0.81760
gfz2010ejju   0.79060
gfz2010ejka   0.28740
gfz2010ejma  -0.21460
gfz2010ejxf   0.24750
gfz2010ekaw  -0.06640
gfz2010ekoe  -0.12050
gfz2010ekrv   0.06110
gfz2010ekyc  -0.06040
gfz2010elhv   0.12140
gfz2010elin  -0.58590
gfz2010eljf  -1.27880
gfz2010elsw  -1.64200
gfz2010eltf   0.23440
gfz2010elvp   0.24850
gfz2010elyc  -1.35280
gfz2010elyo  -1.10520
gfz2010elzf  -0.08140
gfz2010elzl   0.52350
gfz2010emoz  -0.82350
gfz2010emyz   0.72210
gfz2010encm   5.59540
gfz2010ensu  -0.76660
gfz2010enzl  -0.22980
gfz2010eoao  -5.48650
gfz2010eohh   2.91440
gfz2010epbe   0.70530
gfz2010epxj  -0.56220
gfz2010epzk   0.36530
gfz2010eqcn   0.22880
gfz2010eqjg  -0.20590
gfz2010eqmu  -2.97850
gfz2010eqse   0.37780
gfz2010eqwl   2.19660
gfz2010erdi   0.89290
gfz2010erig  -0.24360
gfz2010erkn   0.15540
gfz2010erna  -0.28800
gfz2010erom  -0.27360
gfz2010erum   0.11290
gfz2010eruy  -0.50740
gfz2010erwn  -0.35350
gfz2010erxk   0.76350
gfz2010esid  -0.28960
gfz2010esmg  -0.53220
gfz2010euae  -0.26410
gfz2010euan   0.12940
gfz2010euii  -0.77050
gfz2010eujm  -0.29900
gfz2010euvl   0.45470
gfz2010euwb  -3.56110
gfz2010euxe  -0.13140
gfz2010evco  -0.46220
gfz2010evgf   0.11750
gfz2010evjv   0.62470
gfz2010ewbc   0.91080
gfz2010ewvc   0.19980
gfz2010ewyu  -0.06170
gfz2010excp  -0.43240
gfz2010exdd  -0.26240
gfz2010exdl  -0.99080
gfz2010exed   1.00490
gfz2010exel   0.78930
gfz2010exgb   0.27180
gfz2010exhd  -0.12120
gfz2010exhw   0.08620
gfz2010exjw   0.06930
gfz2010exlm   0.41640
gfz2010exmc  -0.20190
gfz2010exno   0.28370
gfz2010exou   0.21890
gfz2010exqu  -0.40570
gfz2010exts   1.10410
gfz2010exyp   0.09570
gfz2010eyaz   1.59750
gfz2010eybj   1.72290
gfz2010eyhh   0.12420
gfz2010eyiv   0.11490
gfz2010eymr   0.17160
gfz2010eymx  -0.00370
gfz2010eyqe   0.23120
gfz2010eyvq   0.21920
gfz2010ezax  -0.08760
gfz2010ezck   0.09760
gfz2010ezig  -0.26590
gfz2010ezvg  -1.25690
gfz2010ezvt   0.27460
gfz2010ezwz  -0.13650
gfz2010ezxd   0.71580
gfz2010faeu  -0.54650
gfz2010falm   0.27120
gfz2010fauz  -0.23740
gfz2010faxg   0.29540
gfz2010fbeu   0.18890
gfz2010fbpi  -0.58060
gfz2010fcax  -0.15240
gfz2010fcdw  -0.49420
gfz2010fciw   0.02500
gfz2010fcnn   0.43670
gfz2010fcnt  -0.12550
gfz2010fcxy  -0.35020
gfz2010fcyj   0.24680
gfz2010fczt  -0.07030
gfz2010fdab   0.20390
gfz2010fdxr   0.03150
gfz2010fedq  -0.71900
gfz2010fefr  -0.53540
gfz2010fexw  -0.41490
gfz2010ffhq   0.20780
gfz2010ffjb   0.65610
gfz2010ffui  -0.13380
gfz2010figq   0.06380
gfz2010fihj  -0.52400
gfz2010fika   0.17440
gfz2010fixr   0.29620
gfz2010fjal  -0.23520
gfz2010fjas  -0.59130
gfz2010fjmu   0.61460
gfz2010fjni  -0.06320
gfz2010fkia   1.39890
gfz2010fknh   0.13530
gfz2010fkvg  -0.21400
gfz2010flha  -0.31720
gfz2010flrt   0.60950
gfz2010flxi  -0.17110
gfz2010fmhb  -0.48250
gfz2010fmwb  -1.73170
gfz2010fneu  -0.36640
gfz2010fnrk   1.28380
gfz2010fpmv  -0.32140
gfz2010fpqy   0.18330
gfz2010fqdu  -0.37470
gfz2010fser  -0.81890
gfz2010ftlm   0.11110
gfz2010fupn   0.02150
gfz2010fuuy   1.10640
gfz2010fwlb   0.13730
gfz2010fwny   0.35270
gfz2010fwpv  -0.14850
gfz2010fwzd   0.50380
gfz2010fyed  -0.62500
gfz2010fyen   0.09450
gfz2010fync   0.39670
gfz2010fzoi   0.75290
gfz2010fzsg  -0.52280
gfz2010gcdn  -0.17690
gfz2010gcrl  -0.18890
gfz2010gcrp   0.38630
gfz2010gdch   1.93720
gfz2010gdld   0.30430
gfz2010ghyk   0.18240
gfz2010gjia  -0.14550
gfz2010gjvo  -0.05760
gfz2010glxl   0.52950
gfz2010gmib   0.08440
gfz2010govu   0.47810
gfz2010grjd  -0.02010
gfz2010grss  -0.03900
gfz2010gslu   0.04170
gfz2010gtqs  -0.23240
gfz2010gtzt   0.16210
gfz2010gymo  -0.19760
gfz2010gyqp   0.05890
gfz2010gzxr  -0.16990
gfz2010hbka   0.97100
gfz2010hcio  -0.15350
gfz2010hevz  -0.21930
gfz2010hgld  -0.21630
gfz2010hhls   0.04790
gfz2010hjoc   0.13210
gfz2010hllj  -0.25700
gfz2010hlln  -0.42810
gfz2010hlmq   0.02190
gfz2010hlvr   0.12370
gfz2010hmhm   0.42850
gfz2010hndk   0.03970
gfz2010hnnf  -0.07930
gfz2010hnpi   0.26980
gfz2010homc   0.94230
gfz2010hptz   0.72220
gfz2010hrkr   0.33080
gfz2010hrpr   0.27350
gfz2010htdq   0.29820
gfz2010hxbs   0.94360
gfz2010hxgv  -0.60450
gfz2010hxhe  -0.53630
gfz2010hzar  -0.39370
gfz2010ibiy   0.20310
gfz2010iciq   1.43930
gfz2010icqq   0.13080
gfz2010iimu  -0.02070
gfz2010ijtk  -0.34050
gfz2010imfv   1.92400
gfz2010imsh   0.16700
gfz2010iobp   0.08400
gfz2010iphd  -0.25810
gfz2010ipsg  -0.18830
gfz2010iqep  -0.73480
gfz2010iqfm   0.11230
gfz2010iqus   0.77360
gfz2010irqr  -0.10950
gfz2010irvf  -0.05030
gfz2010ited   0.02040
gfz2010itpb  -0.35050
gfz2010iull  -0.08820
gfz2010izzj   0.20090
gfz2010jagd  -0.28490
gfz2010jatq   0.02220
gfz2010jhie  -0.41690
gfz2010jipf   0.53690
gfz2010jkxj   0.47200
gfz2010jpss  -0.43950
gfz2010jqxx  -0.19270
gfz2010jssh   0.72110
gfz2010jsuh  -4.04160
gfz2010jsuo  -0.30650
gfz2010jucj   0.51860
gfz2010jwpy  -1.86240
gfz2010jxbm   0.02530
gfz2010jygz   0.19900
gfz2010jzku   0.42640
gfz2010kcoo   0.42350
gfz2010kdyc  -1.14900
gfz2010kgws  -0.11270
gfz2010kihf  -0.90880
gfz2010kjmp   0.01940
gfz2010kmgg   0.28440
gfz2010lczp  -0.12350
gfz2010lepw   0.48330
gfz2010lfju   0.37670
gfz2010lgwy   0.32900
gfz2010liqs  -0.19090
gfz2010lkcf   0.15240
gfz2010lopz   0.48790
gfz2010lrlk  -0.30100
gfz2010lyfk  -0.25140
gfz2010mdpq  -0.09560
gfz2010mgss  -0.24160
gfz2010miil   0.21300
gfz2010mipi   0.14950
gfz2010miqn  -0.16120
gfz2010mkuu   0.33230
gfz2010mlkz  -0.32140
gfz2010mlta  -1.55090
gfz2010mncc  -0.35820
gfz2010mnhm   0.99060
gfz2010mnsz   0.18110
gfz2010moyw  -0.61080
gfz2010mpuy  -0.57990
gfz2010msjj  -0.00000
gfz2010mtab  -0.42020
gfz2010muca   0.10160
gfz2010mwdq  -0.11120
gfz2010mzjr  -0.42210
gfz2010ncrl  -0.03880
gfz2010ndxl   0.07890
gfz2010nfsj   0.30680
gfz2010nlkh  -0.00000
gfz2010nmpc  -1.13500
gfz2010nnny   0.38820
gfz2010nqwf   0.46920
gfz2010nqwo   0.62240
gfz2010nrjo   0.63340
gfz2010nsck  -0.92510
gfz2010nsdf   1.52050
gfz2010nsjs   0.21030
gfz2010ntuo  -0.08460
gfz2010nubk  -0.51620
gfz2010nwef  -0.31060
gfz2010nxsy   1.00350
gfz2010nxum   0.07290
gfz2010nzla  -0.70530
gfz2010ocxq   0.02250
gfz2010odpb   0.37490
gfz2010oedn  -0.01740
gfz2010okdm   0.15660
gfz2010oluw   0.30530
gfz2010omla   0.28480
gfz2010onma   0.19050
gfz2010otbn   0.24470
gfz2010oyqy  -0.86190
gfz2010pbdz   0.01970
gfz2010pcxi  -0.16860
gfz2010pdtk  -0.28940
gfz2010pets   0.33710
gfz2010pewa   0.12680
gfz2010pewx   0.95750
gfz2010pexf   0.58130
gfz2010pfyu   0.41210
gfz2010phvg  -0.25870
gfz2010plbg  -0.80530
gfz2010pmqd  -0.29540
gfz2010pqck  -0.28170
gfz2010pxak  -0.14090
gfz2010pxgh   0.68120
gfz2010pxls   0.44330
gfz2010qbng  -0.22270
gfz2010qitd  -0.26660
gfz2010qjst   0.20120
gfz2010qpcq  -0.20330
gfz2010qpum   0.66600
gfz2010qpvi  -0.07740
gfz2010qwwx  -0.32300
gfz2010rhas  -0.49350
gfz2010rkfp   0.05220
gfz2010rlbv   4.46640
gfz2010rqwj  -0.61850
gfz2010rzrr  -1.33020
gfz2010rzsd   1.06650
gfz2010sfee   0.06240
gfz2010sfla  -0.26790
gfz2010sgzk  -0.25040
gfz2010skqo  -0.32890
gfz2010skve  -0.17580
gfz2010srdb  -0.28680
gfz2010suww   0.13950
gfz2010svtn  -0.45990
gfz2010svve   0.23640
gfz2010swcy   0.00870
gfz2010sxfq  -0.38440
gfz2010sxwt  -0.15050
gfz2010szde  -0.16790
gfz2010szim   0.01970
gfz2010tcbr   0.05880
gfz2010tcrl   0.42260
gfz2010titk   0.35490
gfz2010tlfm   0.44160
gfz2010truw   0.23840
gfz2010txjs   0.51810
gfz2010uept   0.50480
gfz2010upfb  -0.35560
gfz2010upiw   2.50590
gfz2010urlq   0.58320
gfz2010usho   0.26970
gfz2010ustq   0.11330
gfz2010utcg   0.03830
gfz2010utmc   0.13810
gfz2010uvhf  -0.10410
gfz2010uyhb  -1.41460
gfz2010uzon  -0.09570
gfz2010veri   0.48370
gfz2010vhuj   0.04850
gfz2010vppc  -0.05020
gfz2010vtdg  -0.14800
gfz2010vyxd   0.24930
gfz2010vzpr   0.18530
gfz2010wioh  -0.65380
gfz2010wnty   0.21500
gfz2010wntz  -0.32100
gfz2010wofs  -0.43480
gfz2010wrxx   0.09770
gfz2010wxqa   0.09180
gfz2010xbcr   0.10350
gfz2010xbdv   0.08340
gfz2010xbgs  -0.41120
gfz2010xcdh  -0.18200
gfz2010xche  -0.41220
gfz2010xcij  -0.52760
gfz2010xden   0.11900
gfz2010xgfc   0.19520
gfz2010xgzw  -0.23670
gfz2010xjck  -0.02290
gfz2010xjsj  -0.18120
gfz2010xmpr   0.64860
gfz2010xnxk   0.12290
gfz2010xxdb  -1.31730
gfz2010yjev  -1.13980
gfz2010ymfy   0.62320
gfz2010ymur  -0.88770
gfz2010yosr  -0.10120
gfz2010yqqv   0.01740
gfz2010yqwx   0.17740
gfz2011aatr   0.71190
gfz2011adjs  -1.07220
gfz2011adlj  -0.44730
gfz2011adpw  -1.81060
gfz2011adqk   0.72440
gfz2011aeay   0.44960
gfz2011aldv   0.24970
gfz2011alip  -0.03300
gfz2011alsa  -0.05440
gfz2011anur  -0.30240
gfz2011aosc  -0.33830
gfz2011aqxf  -0.02190
gfz2011blsi  -2.42810
gfz2011bnzn   1.00230
gfz2011bpkd  -0.06000
gfz2011bswz   0.94380
gfz2011ccpw   0.63780
gfz2011cfae  -0.25910
gfz2011cndo   0.94870
gfz2011coxh  -0.77710
gfz2011csju  -0.66150
gfz2011cvfg   0.18330
gfz2011cykd  -0.51010
gfz2011cylz  -0.69710
gfz2011cynl   0.30130
gfz2011cyre   1.14620
gfz2011cyuk   0.19020
gfz2011czwj  -0.42820
gfz2011dbev  -0.06650
gfz2011dbig  -0.43980
gfz2011dbon  -0.13620
gfz2011dbwt  -0.49090
gfz2011dcqb  -1.46280
gfz2011dcqf   0.11670
gfz2011dddh  -0.49750
gfz2011deaf  -0.55620
gfz2011dkyi   0.16260
gfz2011dlyx   0.14340
gfz2011dmat   0.09690
gfz2011dndz   0.68350
gfz2011dpaa   0.39240
gfz2011dpmx  -0.33910
gfz2011dpqx   0.49260
gfz2011duyr   0.47720
gfz2011eayc   0.13200
gfz2011eazf   0.12980
gfz2011ecaj   0.10820
gfz2011edmm   0.65570
gfz2011eebc  -0.55070
gfz2011ehzq  -0.47240
gfz2011ejlp   0.15000
gfz2011eltw  -0.61230
gfz2011enva  -0.36810
gfz2011eocc   0.54530
gfz2011etje   0.87520
gfz2011fdzv   0.80160
gfz2011fgvr  -0.22670
gfz2011fhag   0.28890
gfz2011fhbm   0.02100
gfz2011fhur   0.12590
gfz2011fkbn  -0.25930
gfz2011flgj  -0.19650
gfz2011fnsw  -0.21410
gfz2011gbmx  -0.01810
gfz2011gcwb  -0.02790
gfz2011gdgh  -0.04840
gfz2011ggvf  -0.52330
gfz2011ghky  -0.29980
gfz2011gkey  -1.04060
gfz2011gkzt  -0.44170
gfz2011gzbr  -0.21360
gfz2011haid  -0.34830
gfz2011hbex  -0.29330
gfz2011hbqk   0.76010
gfz2011hebt  -0.48930
gfz2011hfkj   0.23330
gfz2011hlqw   0.04270
gfz2011hlsa  -0.30480
gfz2011hlth  -0.08450
gfz2011hpgx  -0.11570
gfz2011hpqp  -0.25910
gfz2011hrhe   0.16990
gfz2011hryk   0.32310
gfz2011hsfj   2.51900
gfz2011hvbu  -0.44690
gfz2011icxe   0.49360
gfz2011ieie  -0.41540
gfz2011knoo   0.52500
gfz2011kqwo  -0.75370
gfz2011kqyg  -0.82810
gfz2011kwid  -0.12130
gfz2011kwjx  -0.41700
gfz2011kwkw  -0.11420
gfz2011kwlq  -0.39420
gfz2011kwqc  -0.48140
gfz2011kxzp   0.52580
gfz2011lcxq   0.50600
gfz2011lczg   0.34440
gfz2011lgsg   0.08230
gfz2011lhls   0.06800
gfz2011lvjr  -0.35770
gfz2011lzwj   0.44310
gfz2011mdie   0.70890
gfz2011mepc   0.14070
gfz2011mjom   0.40750
gfz2011mllx   0.11440
gfz2011mlvw   0.65820
gfz2011mpme  -0.23580
gfz2011mprq  -0.22410
gfz2011myia   0.00000
gfz2011nauw  -0.51720
gfz2011nmnq   1.14920
gfz2011noud   0.05060
gfz2011nqpd  -0.13500
gfz2011nrwc  -0.10140
gfz2011nrwv   0.32390
gfz2011nsex  -0.17170
gfz2011ntkh  -0.10900
gfz2011ntrv  -0.01500
gfz2011nudm  -0.08770
gfz2011ogqk  -0.00000
gfz2011ohcy   0.34390
gfz2011oiqe   0.26650
gfz2011oiwk   0.46490
gfz2011olkk   0.51530
gfz2011oolr  -0.00000
gfz2011orgn   0.44610
gfz2011ornx   0.30490
gfz2011pccd   0.09960
gfz2011pdpt   0.28540
gfz2011pdst   0.35820
gfz2011phms  -0.09570
gfz2011pntf  -0.27040
gfz2011ptus  -0.28650
gfz2011qigx  -0.10530
gfz2011qvae   1.20820
gfz2011qyms  -0.06110
gfz2011rabm   0.24070
gfz2011rdby  -4.92890
gfz2011rewa  -0.30420
gfz2011rgwp  -0.60620
gfz2011rqui  -0.06810
gfz2011rsrh  -0.52410
gfz2011sagt  -0.00900
gfz2011shqm  -0.18780
gfz2011stal   0.64930
gfz2011svix   0.20380
gfz2011tbas  -0.11110
gfz2011tcij  -1.01810
gfz2011tivu   0.13740
gfz2011tjue  -0.50570
gfz2011tkfp   1.53000
gfz2011tkog  -0.25000
gfz2011toub   0.10130
gfz2011tpbl  -0.37450
gfz2011tpfr  -0.82220
gfz2011tsfd   0.00000
gfz2011tsnp   1.02100
gfz2011tuea   0.21320
gfz2011twov   0.40360
gfz2011udsq   0.28800
gfz2011uepx   0.18540
gfz2011ugzz   0.34070
gfz2011ujze   0.32910
gfz2011ukmp   0.56520
gfz2011uphh   0.51930
gfz2011urxy  -0.09640
gfz2011urzu  -0.34250
gfz2011uzqv   0.75550
gfz2011vclt   0.23330
gfz2011vhfi   0.21150
gfz2011vldk  -0.30610
gfz2011vnza   0.25250
gfz2011vrhg   0.33250
gfz2011vxns  -0.41950
gfz2011vxod   0.64260
gfz2011vxxg   0.33000
gfz2011wcic   0.37830
gfz2011wfja  -0.20740
gfz2011wjul   0.28670
gfz2011wtmq  -0.21640
gfz2011wvzb   0.73320
gfz2011wwjs   0.14380
gfz2011wxfs   1.08880
gfz2011wxoj   0.53630
gfz2011wxtk   0.07370
gfz2011wype   0.33130
gfz2011xaan  -0.95090
gfz2011xcpv  -0.08190
gfz2011xesx   0.52390
gfz2011xqru  -1.52580
gfz2011xyxj  -0.13400
gfz2011yfdx   0.00000
gfz2011yfys   0.66650
gfz2011ytnu   0.00950
gfz2011yybo   0.11300
gfz2011yzwq  -0.00930
gfz2011zjap   0.16370
gfz2011zklv  -0.18970
gfz2011zlrd   0.41400
gfz2011zqhh  -0.54530
gfz2012ajtq   0.03960
gfz2012aqgp   0.00000
gfz2012aqtq   0.01160
gfz2012attr   0.23600
gfz2012bfah  -0.15460
gfz2012bfyn   0.42630
gfz2012bpkx   0.59180
gfz2012bpnl  -0.29030
gfz2012bpwl  -0.07400
gfz2012bqeb   0.06400
gfz2012brhv   1.00890
gfz2012bszs  -0.25550
gfz2012byad  -0.49400
gfz2012cgvr   0.32390
gfz2012cmfy  -0.49840
gfz2012cnod  -0.26390
gfz2012covm   0.62710
gfz2012cqnl  -0.03240
gfz2012cxdn  -0.03620
gfz2012czlw   0.37680
gfz2012ddma   0.35700
gfz2012deri  -0.18170
gfz2012dimn  -0.40330
gfz2012dinb   0.33580
gfz2012dyyh   0.02210
gfz2012ekda  -0.16120
gfz2012ekzf  -0.50500
gfz2012elce   0.14880
gfz2012emjg   0.09890
gfz2012enno   0.44150
gfz2012eskt  -0.62220
gfz2012ewgo   0.24050
gfz2012fbfo   0.01950
gfz2012fhnh  -0.40660
gfz2012fivh   1.50940
gfz2012foeo   0.06090
gfz2012fqcg   0.70350
gfz2012fwfo   0.46560
gfz2012fwob  -0.24970
gfz2012fwtr   1.03780
gfz2012fzfa   0.20080
gfz2012fzsq   0.03040
gfz2012gcgn  -0.67890
gfz2012gill  -0.01510
gfz2012gkvr  -0.44250
gfz2012gnvh   0.08110
gfz2012gocc   0.07760
gfz2012gomm   0.68020
gfz2012gwqb   0.51980
gfz2012hdbm   0.01030
gfz2012hnul   0.04860
gfz2012hogg  -0.18790
gfz2012holl  -0.26750
gfz2012hwmz   0.42410
gfz2012hyaa  -0.24220
gfz2012hzbe  -1.11290
gfz2012icmv   2.68960
gfz2012iffo  -0.31250
gfz2012ihdl   0.05890
gfz2012iivw  -0.47590
gfz2012ilvn  -0.03910
gfz2012imay   0.09100
gfz2012jgvj   0.31810
gfz2012jjzc   0.18420
gfz2012jlox  -0.20010
gfz2012jqvn   0.11800
gfz2012jshk   0.42640
gfz2012jupx   0.00000
gfz2012jwhu   0.12020
gfz2012kbzj   0.12300
gfz2012kdmb   0.34160
gfz2012keor  -0.23850
gfz2012kkcp   0.96870
gfz2012kkup  -0.22560
gfz2012klba   0.06180
gfz2012klhx  -0.02110
gfz2012kuct   0.41050
gfz2012kudo   0.18490
gfz2012kvzv  -0.05090
gfz2012kwgo   0.02390
gfz2012lczo  -0.12910
gfz2012ldgs   0.06240
gfz2012ldxg  -0.50330
gfz2012ldzj  -0.59200
gfz2012lltr  -0.81610
gfz2012llug   1.11150
gfz2012lpvn   0.15570
gfz2012lrol  -0.24230
gfz2012lrsv   1.31670
gfz2012lsni  -0.38140
gfz2012lxkv   0.35440
gfz2012mdmy  -0.58960
gfz2012minr  -0.32790
gfz2012mkpn  -0.62900
gfz2012mofm  -0.56520
gfz2012mpvy  -0.52600
gfz2012mpyl  -0.30330
gfz2012mupa  -0.42700
gfz2012mvwr  -0.16120
gfz2012mwij   0.24530
gfz2012myqa  -0.06310
gfz2012naqz  -0.25260
gfz2012nedn  -0.61410
gfz2012ngic  -0.38270
gfz2012njha  -0.39480
gfz2012nkdf   0.05590
gfz2012nojx  -0.98550
gfz2012nolo   0.16110
gfz2012nsbz  -0.26000
gfz2012nutf  -0.39290
gfz2012nxog  -0.69330
gfz2012nxyt  -0.09770
gfz2012oazn   0.43640
gfz2012obgw   0.34770
gfz2012oedb  -0.11870
gfz2012ofpe  -0.16650
gfz2012omvo  -0.59460
gfz2012oqmw  -0.49860
gfz2012ovqs  -0.28840
gfz2012oycg   0.44280
gfz2012pazr   0.05770
gfz2012peki  -0.52110
gfz2012pgcl   0.08440
gfz2012pkel   0.89140
gfz2012plbw  -0.56150
gfz2012plea  -0.54160
gfz2012pqlt  -0.60890
gfz2012pqmu  -0.19510
gfz2012priv  -0.32940
gfz2012prlt  -0.27030
gfz2012qjhs   0.51320
gfz2012qqxg   0.67460
gfz2012qxcy  -0.13940
gfz2012rats  -0.42100
gfz2012rcnj   0.15890
gfz2012repv   0.59070
gfz2012rjsd   0.17220
gfz2012ronz  -0.47850
gfz2012royy  -0.51230
gfz2012rqlg  -0.41400
gfz2012ruks   0.74280
gfz2012rwko  -0.07510
gfz2012rwov   0.48810
gfz2012rwql   0.52530
gfz2012rypu   0.30810
gfz2012sfer  -0.26860
gfz2012snhi  -1.05670
gfz2012spbj   0.37490
gfz2012sphd   0.15420
gfz2012sqmv  -0.10610
gfz2012ssyn  -0.71780
gfz2012svpr  -0.10000
gfz2012syvl   0.13070
gfz2012taou  -0.57750
gfz2012tazz   0.18820
gfz2012teic   0.01740
gfz2012tmop  -0.37620
gfz2012tpzx   1.10750
gfz2012ttoa   0.05860
gfz2012tvmv   0.29200
gfz2012tzgb   1.00750
gfz2012uaqj   1.05070
gfz2012uciv  -0.03160
gfz2012uhup   0.40950
gfz2012ulpd   0.36780
gfz2012usba  -0.63190
gfz2012uvqf   0.24500
gfz2012uyxb  -0.54230
gfz2012uzom  -1.51140
gfz2012vceo  -0.60650
gfz2012viab   0.22880
gfz2012vjgl  -0.23770
gfz2012vmeh  -0.89220
gfz2012vntz  -0.13800
gfz2012vpza   0.43450
gfz2012vrgb   0.07060
gfz2012vrua   0.01570
gfz2012vxvr   0.44480
gfz2012wdyx   1.11800
gfz2012whku  -0.35750
gfz2012wklq  -0.10870
gfz2012wmsg  -0.34110
gfz2012wpeq   0.28650
gfz2012wrir  -0.92010
gfz2012wtkh   0.59020
gfz2012wtkr  -0.37920
gfz2012wubh  -0.13530
gfz2012wvfl  -0.45920
gfz2012wxer   0.15410
gfz2012wxkg   0.46660
gfz2012wxnu  -0.09970
gfz2012wybs   0.07900
gfz2012wypz   1.06290
gfz2012xbjq  -0.19470
gfz2012xcgk  -0.75430
gfz2012xevt  -0.37980
gfz2012xjyv   0.06780
gfz2012xkkv  -0.53340
gfz2012xpmm   0.26100
gfz2012xslk  -0.36210
gfz2012xvwn  -0.40010
gfz2012xwqa  -0.40150
gfz2012xyqp   0.21590
gfz2012xyua  -0.00320
gfz2012yfrp  -0.32070
gfz2012yoie   0.20840
gfz2012yqjj  -0.04610
gfz2012yzod   0.34400
gfz2012zemh  -0.14020
gfz2012zemz   0.14390
gfz2012zfag  -0.21230
gfz2012ziml   0.08000
gfz2012zitl  -0.02320
gfz2012zjpv  -0.34760
gfz2012zklq  -0.18700
gfz2012zmbp  -0.24260
gfz2012zmln   0.01950
gfz2013aahq  -0.75320
gfz2013aayj  -0.39650
gfz2013acag  -0.59910
gfz2013adey   0.43040
gfz2013apmm  -0.32070
gfz2013aqaw  -1.21310
gfz2013bdpu   0.14270
gfz2013bnxc  -0.10460
gfz2013bobq  -0.15640
gfz2013bokp   0.30540
gfz2013btjm  -0.06270
gfz2013ccnr   0.34540
gfz2013cdan   0.67220
gfz2013ciaf  -0.14300
gfz2013cnve  -0.95650
gfz2013cvqg  -0.24170
gfz2013cwpn   0.73870
gfz2013cwps   0.14440
gfz2013ddbh   0.41940
gfz2013dddp   0.45160
gfz2013diuf   0.16510
gfz2013dofo  -0.14990
gfz2013dojq  -0.28900
gfz2013dqls   0.62970
gfz2013drpk   0.23000
gfz2013drxz  -0.51600
gfz2013dspt  -0.48630
gfz2013dsrk  -0.19210
gfz2013dvyh  -0.32960
gfz2013egni  -0.24580
gfz2013egpu  -0.51370
gfz2013ekpm   0.02670
gfz2013enbx  -1.47660
gfz2013erse   0.56090
gfz2013esnh   0.12920
gfz2013ewbo   0.13250
gfz2013fdoo  -0.03900
gfz2013fdwq   0.18070
gfz2013feep   1.11010
gfz2013fiud   0.63500
gfz2013fkcl   0.61990
gfz2013flox  -0.12030
gfz2013fwxa   0.40830
gfz2013fygc  -0.25800
gfz2013gbcn   0.11990
gfz2013gbst  -0.25280
gfz2013gcfx  -0.26070
gfz2013gdgf  -0.14820
gfz2013gdnq   0.43900
gfz2013ggtf  -0.60250
gfz2013gihf  -0.30590
gfz2013gjdc  -1.07770
gfz2013glcr   0.46170
gfz2013gmor  -0.16530
gfz2013gngz   0.29630
gfz2013gock  -0.27300
gfz2013goux   0.32440
gfz2013govy   0.41840
gfz2013gras   0.05030
gfz2013gvex  -0.78840
gfz2013gwrd   0.08700
gfz2013gxsu  -0.62030
gfz2013hbkh   0.38930
gfz2013hbkq   0.32510
gfz2013hdnc   0.47660
gfz2013hfmp   0.10560
gfz2013hkja  -0.35220
gfz2013hklr  -0.98390
gfz2013hlbe   0.70880
gfz2013hmbc  -0.84770
gfz2013hpfq  -0.50930
gfz2013hudi   0.46050
gfz2013huwr  -0.40420
gfz2013hxcx  -0.45480
gfz2013iapa  -0.18130
gfz2013iayx  -0.32800
gfz2013icfh  -0.48860
gfz2013idbb  -0.21600
gfz2013iexo   0.01000
gfz2013ifpq  -0.13300
gfz2013igmx   0.29730
gfz2013ijsr   0.00000
gfz2013ikgo   0.24970
gfz2013ilug   0.43470
gfz2013ippu   0.21910
gfz2013iqzq   0.25570
gfz2013iunn   0.08960
gfz2013iyqz   0.08130
gfz2013jesk  -0.40690
gfz2013jgij  -0.25320
gfz2013jgip   0.17740
gfz2013jjsi  -0.03970
gfz2013jkut   0.04360
gfz2013jokw   0.11550
gfz2013jphq  -0.08500
gfz2013jwvc  -0.43370
gfz2013jxoi  -0.31020
gfz2013kccc  -0.64140
gfz2013kdeo  -0.24780
gfz2013kheb   0.22210
gfz2013khli  -0.20860
gfz2013kilx  -0.06950
gfz2013krei  -0.71900
gfz2013kvtk   0.00000
gfz2013kwps  -0.43120
gfz2013lajg   0.11080
gfz2013lbiu   0.32160
gfz2013ldpc   0.00000
gfz2013ldqb  -0.16440
gfz2013lgnl  -0.11340
gfz2013lixa   0.00230
gfz2013lljw  -0.00000
gfz2013lmrs   0.15280
gfz2013lwbk   0.25090
gfz2013lyko  -0.45010
gfz2013lznu   0.70970
gfz2013malg  -0.10760
gfz2013mmwq  -0.16410
gfz2013mnei  -1.40460
gfz2013mnju   0.98090
gfz2013mqik  -0.08860
gfz2013mqmv   0.30870
gfz2013mwbh  -0.83090
gfz2013mxee  -0.19580
gfz2013ncjp  -0.19280
gfz2013ndin  -0.11240
gfz2013neuc   0.64570
gfz2013ngnt  -0.07890
gfz2013nixj   0.19530
gfz2013nkgj  -0.02800
gfz2013nknw   0.16100
gfz2013nmac   0.20330
gfz2013nnzf   0.16530
gfz2013nppd  -0.33380
gfz2013nqgw  -0.46210
gfz2013nuor   0.40000
gfz2013nuvi   0.33590
gfz2013nwdi   0.23480
gfz2013oejn  -0.75330
gfz2013ogde   0.27050
gfz2013oifr   0.03310
gfz2013oilg   0.05140
gfz2013oinc  -0.36630
gfz2013ojti   0.44950
gfz2013oqsc  -0.52680
gfz2013orjg   0.15090
gfz2013orzn  -0.44750
gfz2013ozrf   0.35730
gfz2013ozrp   0.03360
gfz2013pcos  -2.98420
gfz2013pfbx   0.38200
gfz2013pfeb  -0.45550
gfz2013pffm  -0.11560
gfz2013pfnf   0.59600
gfz2013phef   0.07710
gfz2013piwd  -0.79180
gfz2013pkbs  -0.35610
gfz2013pndn  -0.74460
gfz2013poxj  -0.47780
gfz2013puag   0.11130
gfz2014lrzx   0.14630
gfz2014lurd   0.28690
gfz2014lvgn   0.48360
gfz2014lwom   0.33180
gfz2014lxnc   0.24390
gfz2014lxqr   1.08420
gfz2014lyhp   0.67430
gfz2014lynp   0.12800
gfz2014lzal  -0.08090
gfz2014lzow   0.67730
gfz2014macx   0.22520
gfz2014madw  -0.08310
gfz2014mcno   0.04590
gfz2014mcse   0.70800
gfz2014mioi   1.52410
gfz2014mlrr   1.15060
gfz2014moaw   0.69260
gfz2014mogb   0.12630
gfz2014mtum   0.12270
gfz2014mwnj   0.29880
gfz2014mwor  -0.02740
gfz2014ncub   0.16240
gfz2014nhyb   0.18360
gfz2014niqj  -3.76980
gfz2014nkdx   0.70690
gfz2014nnih   0.49240
gfz2014nnxd  -0.28330
gfz2014nowp   0.13450
gfz2014npdk  -0.06410
gfz2014npeo   0.20500
gfz2014nphm   0.08730
gfz2014nqbs  -0.51040
gfz2014nqfm   0.09800
gfz2014nrie   0.15870
gfz2014ntdh   0.10780
gfz2014nvdi  -0.84070
gfz2014nyeh  -0.13840
gfz2014nyfb   0.85220
gfz2014nyko   0.67770
gfz2014nylm   0.19590
gfz2014odgv   0.35990
gfz2014ofhm  -0.32830
gfz2014oinz  -0.02310
gfz2014omyn  -0.59700
gfz2014ooaa  -0.35510
gfz2014oqhw  -1.79590
gfz2014orxs  -0.08680
gfz2014oryw  -0.08530
gfz2014osvx  -0.00000
gfz2014owxc   0.18860
gfz2014oxcc   0.07430
gfz2014oyly   0.28730
gfz2014pjer   0.51040
gfz2014pkll   0.11130
gfz2014ppzf   0.25130
gfz2014pqqp   3.45260
gfz2014pvch   0.11090
gfz2014pzml   0.30420
gfz2014pzni   0.49830
gfz2014qbzi  -0.34600
gfz2014qfzq   0.59030
gfz2014qlvc   0.63420
gfz2014qlxd  -0.06460
gfz2014qngj  -0.95690
gfz2014qqhm  -0.37660
gfz2014raau  -2.75020
gfz2014rdsn  -0.29440
gfz2014rfeb   0.59860
gfz2014rghp  -0.35540
gfz2014rhnz   1.50950
gfz2014rhwq   0.60450
gfz2014riel  -0.22960
gfz2014rils   0.35200
gfz2014roba   0.47650
gfz2014romy   0.22790
gfz2014rtcu   0.67780
gfz2014rwos  -0.03130
gfz2014ryfb   0.55400
gfz2014sadu  -0.57620
gfz2014shid   0.20560
gfz2014sjqw   0.07540
gfz2014sptq   1.81590
gfz2014sryn  -0.07430
gfz2014ssds  -0.30260
gfz2014ssmv   0.35740
gfz2014ssvz   0.06150
gfz2014swgt  -1.07520
gfz2014szzf   0.35860
gfz2014tabg   0.64840
gfz2014tfgn  -0.03910
gfz2014tovs   0.59220
gfz2014tqdo   0.35170
gfz2014tqly   0.58610
gfz2014tqsf   0.40670
gfz2014tqth   0.54290
gfz2014tzsd   0.57630
gfz2014uapa   0.24580
gfz2014ubwn   0.62340
gfz2014ubyq  -0.86900
gfz2014udgg   0.47580
gfz2014uohh   0.30420
gfz2014utac  -0.02070
gfz2014uuuf  -0.67740
gfz2014uvji   0.10510
gfz2014uvrk  -2.92770
gfz2014uyrq   0.61900
gfz2014vcev   0.25900
gfz2014vdnh   0.14400
gfz2014veit   0.41860
gfz2014vhld   0.65910
gfz2014vhms   0.30420
gfz2014vjoz   0.76590
gfz2014vnxu   0.25850
gfz2014vpus  -0.22470
gfz2014vqqa  -0.44530
gfz2014waoo   0.33340
gfz2014watn   0.07370
gfz2014wjko   0.04620
gfz2014wmsc   0.50910
gfz2014wqcp   0.75850
gfz2014wrkh   0.46440
gfz2014wsjh   0.16840
gfz2014wwib   0.08320
gfz2014xaxx  -0.87830
gfz2014xbyr  -0.12810
gfz2014xhkc   0.44270
gfz2014xhwk   0.05240
gfz2014xjri   0.12020
gfz2014xkdg   0.62000
gfz2014xmnp   2.16760
gfz2014xoji   0.51800
gfz2014xqby   0.30850
gfz2014xqqd  -0.16740
gfz2014yhhm   0.30330
gfz2014ynhc  -0.99430
gfz2014ynzy   0.45150
gfz2014yppv   0.20830
gfz2014yrug   0.15370
gfz2014yula  -0.24280
gfz2014yyiy   0.05150
gfz2014zcgo   0.26360
gfz2014zdtl   1.15060
gfz2014zkys   0.11970
gfz2014zlgp  -0.00000
gfz2015abpw  -0.02430
gfz2015aide   0.21130
gfz2015ansu  -0.44250
gfz2015apnk  -0.06440
gfz2015aqbq  -0.37290
gfz2015arpd   0.08910
gfz2015aruz   0.15630
gfz2015atxv   0.23220
gfz2015aush  -0.23650
gfz2015azzp  -0.29840
gfz2015bavu  -0.63370
gfz2015bdyd   0.49380
gfz2015berb   0.75470
gfz2015bfjm   0.22260
gfz2015bkbj   0.08950
gfz2015bnho   1.22010
gfz2015bphe   1.14920
gfz2015bsnl   0.05790
gfz2015bucr   0.42250
gfz2015cewd  -2.19850
gfz2015chhn   0.64880
gfz2015chqn   0.26410
gfz2015clrp   0.59380
gfz2015cxhx  -0.04250
gfz2015cxrc   0.51780
gfz2015cxxk   0.61160
gfz2015cyjd   0.72630
gfz2015czfv  -0.65880
gfz2015dadj  -2.71670
gfz2015ddhl   1.33040
gfz2015dizn  -0.70140
gfz2015djts   0.34640
gfz2015drlk   0.58260
gfz2015dskr   0.53110
gfz2015dvbn   0.24360
gfz2015ednc   0.64870
gfz2015eeyq   0.48040
gfz2015eezy   0.65600
gfz2015egbk   0.20930
gfz2015egxq   0.11730
gfz2015ehpz  -0.04680
gfz2015eiky  -0.27050
gfz2015elgy   0.20610
gfz2015eljz   0.05880
gfz2015emtg   0.41140
gfz2015fkbc   0.94000
gfz2015fkgt   0.38640
gfz2015fkjs  -0.78470
gfz2015flis   0.33640
gfz2015fsjj   0.46260
gfz2015fvoi   0.62790
gfz2015fwkq  -0.13370
gfz2015fwnf   0.87780
gfz2015fxbv   0.29710
gfz2015fxdi   0.03780
gfz2015fyvk  -0.37460
gfz2015gckd   0.35670
gfz2015ggjw   0.14750
gfz2015gjbr   0.61430
gfz2015gkwa   0.24720
gfz2015gmgf   0.55130
gfz2015gnmy   0.08600
gfz2015gwao   0.49880
gfz2015gzja  -0.12500
gfz2015hdbn   0.22360
gfz2015hdcp  -0.00770
gfz2015hgbk   0.33860
gfz2015hhbd   0.46290
gfz2015hlfq   0.74770
gfz2015hlqo   0.09690
gfz2015hpmk   0.43250
gfz2015hslo   1.02870
gfz2015hwkv   0.92860
gfz2015idho   0.96790
gfz2015iele  -0.11530
gfz2015igsy   0.57620
gfz2015ijmh  -2.43470
gfz2015imty  -0.19560
gfz2015imyp   0.43990
gfz2015isim   0.73730
gfz2015ixyy   0.13160
gfz2015jkdw   0.03690
gfz2015jmlf  -0.24830
gfz2015jmlu   0.62300
gfz2015jpap  -1.64110
gfz2015jwgl   0.12740
gfz2015jxbx   0.12390
gfz2015jxjd   0.21080
gfz2015jzcv   0.09460
gfz2015kakw  -0.05650
gfz2015kalm   0.26980
gfz2015kcaa   0.27840
gfz2015kkqb   0.14390
gfz2015kkth  -0.01490
gfz2015kphk   0.67010
gfz2015kquq   0.57870
gfz2015ksni   0.05230
gfz2015kvwz  -0.20980
gfz2015lcma   0.23490
gfz2015lcuo   0.65480
gfz2015lfma   0.43750
gfz2015lfos  -0.25740
gfz2015lfud   0.31400
gfz2015lhjq  -0.00000
gfz2015lhjy   0.97770
gfz2015ltii   0.40510
gfz2015ltro   0.45610
gfz2015lytv  -0.54460
gfz2015lzad   0.67550
gfz2015mddr   0.24770
gfz2015mfpy   0.26450
gfz2015mhym   0.87830
gfz2015micz   0.28390
gfz2015nuxz   0.27040
gfz2015okmq   0.10910
gfz2015okpu   0.70060
gfz2015omab   0.06750
gfz2015orkl   0.27290
gfz2015oyfl   0.48790
gfz2015pcvt  -0.30220
gfz2015pdri  -0.22500
gfz2015pjgr   0.09010
gfz2015plal   0.17760
gfz2015poni   0.06070
gfz2015puah  -0.58830
gfz2015puqp  -0.23450
gfz2015qafb   0.24640
gfz2015qbme   0.14220
gfz2015qiit   0.35040
gfz2015qnde   0.32620
gfz2015qnho  -0.03820
gfz2015qnlv  -0.19350
gfz2015qnto  -0.02090
gfz2015qols   0.48550
gfz2015qprd   0.19380
gfz2015qpvd   0.58120
gfz2015quzo   0.00000
gfz2015rddx   0.15450
gfz2015rgov   0.20090
gfz2015rgrg  -0.14420
gfz2015rkbq   0.46950
gfz2015rkrg  -0.46330
gfz2015rkzg   0.42660
gfz2015rpzn  -0.36340
gfz2015rtnv   0.79560
gfz2015rwsb   0.20230
gfz2015rxmg  -0.11660
gfz2015saet   0.71140
gfz2015sdeo   0.27000
gfz2015sdfy   0.11580
gfz2015seuf   0.52520
gfz2015sevh   0.40930
gfz2015sfdd   0.20600
gfz2015sfdy   0.22850
gfz2015sfeo  -0.69750
gfz2015sffn  -0.42260
gfz2015sfga   0.75090
gfz2015sfho   0.69710
gfz2015sfhz  -0.21210
gfz2015sfiq   0.44370
gfz2015sfjf  -1.80930
gfz2015sfkh  -0.10380
gfz2015sfko  -0.34860
gfz2015sfks   0.49710
gfz2015sfkz   0.21010
gfz2015sflf   0.41720
gfz2015sfln  -2.19810
gfz2015sfmd   1.15140
gfz2015sfnb   0.05240
gfz2015sfno  -0.05690
gfz2015sfnv   0.13030
gfz2015sfoc  -0.19880
gfz2015sfoh  -0.04270
gfz2015sfoq   0.07840
gfz2015sfps  -0.02800
gfz2015sfqo  -0.26680
gfz2015sfqr  -0.39300
gfz2015sfrc  -0.57820
gfz2015sfrf   0.58060
gfz2015sfsi   1.20700
gfz2015sfte   0.72510
gfz2015sftu   0.27030
gfz2015sfuz   0.11130
gfz2015sfwf   0.46200
gfz2015sfxn  -0.19610
gfz2015sfzm   0.23340
gfz2015sgad   0.30390
gfz2015sgmm   0.31430
gfz2015sgmr  -0.27200
gfz2015sgna   0.40750
gfz2015sgxc  -1.01750
gfz2015sgyd   0.48860
gfz2015shaq   0.38100
gfz2015shhg   0.50880
gfz2015shhu   0.28270
gfz2015shjn  -0.34720
gfz2015shjo  -0.02270
gfz2015shqc  -1.48830
gfz2015shqe  -1.26270
gfz2015shrg   0.37580
gfz2015shsb  -0.02790
gfz2015shsz   1.04040
gfz2015siky  -0.05320
gfz2015sing   0.27720
gfz2015siof   0.50900
gfz2015sist   1.17800
gfz2015sitn  -0.23660
gfz2015sixi   0.17720
gfz2015sixs   0.04150
gfz2015siyy   0.42120
gfz2015sjbx   0.55600
gfz2015sjeq   1.11460
gfz2015sjfi   0.36820
gfz2015sjgk  -0.18740
gfz2015sjjb  -0.08980
gfz2015sjne  -0.23410
gfz2015sjoj   0.19590
gfz2015sjpn   0.17710
gfz2015sjtz  -0.01820
gfz2015sjvu   0.36140
gfz2015sjwi  -0.26940
gfz2015skab   0.26980
gfz2015skgj   0.10100
gfz2015sklu  -0.05150
gfz2015skpv   0.46960
gfz2015skuk  -0.02130
gfz2015skxu   0.21850
gfz2015sldx  -0.14160
gfz2015slfn   0.22050
gfz2015sljs   1.21590
gfz2015slun  -0.14220
gfz2015smgj  -0.22510
gfz2015smym  -0.63720
gfz2015snhn  -1.23570
gfz2015snmg   0.36570
gfz2015snmr  -0.55700
gfz2015snsf  -0.12250
gfz2015snwh  -0.31210
gfz2015snyd  -0.03740
gfz2015soat   0.14460
gfz2015sopc   0.07400
gfz2015sowu   0.42600
gfz2015soxc   0.45180
gfz2015sqbg   0.30310
gfz2015sqmy   0.13170
gfz2015sqvx   0.19550
gfz2015srat   0.57800
gfz2015sspn   0.25230
gfz2015ssrl   0.60970
gfz2015stfy   0.73260
gfz2015stso   0.36150
gfz2015subz  -0.13030
gfz2015susq  -0.94630
gfz2015svjy   0.12200
gfz2015svwm   0.77360
gfz2015swgn  -0.22870
gfz2015sxmh  -0.05590
gfz2015sydc  -1.29210
gfz2015szcb  -0.03190
gfz2015szfe   0.09530
gfz2015sztx   0.24490
gfz2015taml   0.62570
gfz2015tbdn   0.41230
gfz2015tchx   1.10460
gfz2015tdcu  -0.24670
gfz2015teje   0.15620
