# Nsamples: 25  MAD:  1.410  mean:  0.823  variance:  3.378
gfz2010eaoy   0.98940
gfz2010earq  -3.54980
gfz2010earu   0.58170
gfz2010eavs   0.77320
gfz2010eaxa   0.58020
gfz2010eisx   3.43310
gfz2010eltf   3.54300
gfz2010elyc  -1.70610
gfz2010excp  -1.32120
gfz2010exdd   0.23220
gfz2010ezck  -0.06490
gfz2010ffhq   0.61190
gfz2010glxl   0.56840
gfz2010rqwj   3.18650
gfz2010upfb  -0.31530
gfz2011adjs  -0.36960
gfz2011cykd   2.94940
gfz2011dcqb   3.27210
gfz2011kqwo   1.32640
gfz2011kxzp  -0.90720
gfz2013jusj   4.20810
gfz2013vjjc   2.35040
gfz2015sfdd   0.58920
gfz2015snwh  -0.80120
gfz2015soxc   0.41910
