# Nsamples: 758  MAD:  0.439  mean: -0.016  variance:  0.426
gfz2010bfzs  -0.09130
gfz2010bifb   0.69920
gfz2010bjeb   0.07460
gfz2010bxxs  -0.35810
gfz2010caft   0.24430
gfz2010cbkg   0.30560
gfz2010dlgc  -0.55280
gfz2010eaoy  -0.69120
gfz2010eapk  -0.58320
gfz2010eapn  -0.53880
gfz2010eaqy   0.17930
gfz2010earq  -0.29790
gfz2010earu  -1.29700
gfz2010easo   0.11850
gfz2010easu  -0.05870
gfz2010eato   0.28640
gfz2010eazu  -2.24330
gfz2010ebhc   0.07170
gfz2010ebnn  -0.42510
gfz2010ebvm   0.61670
gfz2010ebvv   0.29820
gfz2010ecua   0.15790
gfz2010edhv  -2.69660
gfz2010eisx  -4.93610
gfz2010ejjg   0.06780
gfz2010ekyc   0.08040
gfz2010eltf  -0.63190
gfz2010elyc  -0.19190
gfz2010excp  -1.57380
gfz2010exdd   1.56670
gfz2010exgb   2.67480
gfz2010fedq  -3.11640
gfz2010ffhq   2.00240
gfz2010fync   0.77110
gfz2010gcrl   1.59760
gfz2010gdld   0.43480
gfz2010gyqp   0.16220
gfz2010gzxr  -0.21330
gfz2010hcio  -0.10410
gfz2010hlco   0.02830
gfz2010hllj   1.16080
gfz2010hlmq  -0.44290
gfz2010hmhm   0.12040
gfz2010hnnf  -0.47600
gfz2010hnpi  -0.36800
gfz2010homc  -0.10820
gfz2010hptz   0.10450
gfz2010hrkr   0.58860
gfz2010hrpr  -0.28090
gfz2010hxgv   0.35250
gfz2010icqq  -1.03240
gfz2010ihrq   0.65500
gfz2010iibf   0.01970
gfz2010iimu  -0.21910
gfz2010imfv  -0.06160
gfz2010iobp   0.27320
gfz2010iqnm  -0.89600
gfz2010iull  -0.32280
gfz2010izzj   0.01980
gfz2010jant  -1.00600
gfz2010jatq  -0.21230
gfz2010jhie  -1.23900
gfz2010jipf  -0.11960
gfz2010jpyj   0.37440
gfz2010jqxx  -0.24460
gfz2010jssh   0.13880
gfz2010jwpy   0.00000
gfz2010jxbm  -0.15610
gfz2010jygz  -0.20590
gfz2010kdyc   0.34670
gfz2010kqyh  -0.29600
gfz2010lcoq  -1.37500
gfz2010lgwy   0.39670
gfz2010lluj   0.07780
gfz2010lopz   0.43950
gfz2010mant  -1.84960
gfz2010mbje   0.59520
gfz2010ncrl   0.28160
gfz2010nmpc  -1.43830
gfz2010nqwf  -0.03470
gfz2010nqwo   0.28670
gfz2010nrjo   0.08270
gfz2010nsck  -0.13070
gfz2010ntuo  -0.81260
gfz2010nwef   0.04530
gfz2010nxsy   0.40520
gfz2010nxum   0.37640
gfz2010ocxq  -0.21090
gfz2010okdm  -0.44650
gfz2010oluw  -1.14900
gfz2010osjs  -0.27230
gfz2010osqo   0.05980
gfz2010otbn   0.15080
gfz2010pets  -0.79520
gfz2010pewx  -0.60700
gfz2010pexf  -0.16690
gfz2010pmqd  -0.79730
gfz2010pqck  -1.18400
gfz2010qitd  -0.04870
gfz2010qjst   0.19840
gfz2010qpum  -0.04710
gfz2010qpvi   0.14310
gfz2010rqwj  -1.93040
gfz2010sfee  -0.34300
gfz2010sysw   0.27070
gfz2010truw  -0.15840
gfz2010txjs  -0.28450
gfz2010upfb  -0.51180
gfz2010upiw   0.36820
gfz2010uzon  -0.04610
gfz2010vbmd   0.49610
gfz2010vyxd   0.18650
gfz2010wntz   0.01990
gfz2010xden   0.98800
gfz2010xjck  -0.20250
gfz2010xjsj   0.68230
gfz2010xmpr   0.00000
gfz2010xxdb   0.63700
gfz2010ymfy  -0.01920
gfz2011cndo   0.51430
gfz2011csju   0.21880
gfz2011cvfg  -0.60350
gfz2011cykd  -1.54200
gfz2011cyre  -0.74440
gfz2011dbev   0.23030
gfz2011dbig  -0.32710
gfz2011dbon  -0.04460
gfz2011dcqb  -0.74600
gfz2011dcqf   0.46230
gfz2011dkyi   0.33520
gfz2011dlyx  -0.28390
gfz2011dpqx  -0.63730
gfz2011eazf   0.28070
gfz2011ecaj   0.84330
gfz2011enva  -0.47950
gfz2011eocc  -0.25020
gfz2011etje   0.07350
gfz2011fhur   0.32170
gfz2011fnsw  -0.00610
gfz2011gbmx   0.01090
gfz2011gcwb   0.05120
gfz2011gjlx  -0.21590
gfz2011gkzt  -1.01030
gfz2011hfkj   0.24590
gfz2011hlqw  -0.34230
gfz2011hlsa  -0.24750
gfz2011hpgx  -1.07310
gfz2011ieie   1.35130
gfz2011iwte  -0.07930
gfz2011jghb  -0.18900
gfz2011jmbn  -0.37510
gfz2011jplh   0.34980
gfz2011juid  -0.61320
gfz2011kqyg   0.38440
gfz2011kwni   0.53750
gfz2011kxzp   0.23040
gfz2011lcxq   0.58420
gfz2011lgsg  -0.27940
gfz2011lzwj  -0.11330
gfz2011mdie   0.53930
gfz2011mpme  -0.18960
gfz2011nmnq  -0.04720
gfz2011ntkh   0.39290
gfz2011ogqk  -1.07800
gfz2011oiqe   0.06870
gfz2011orgn   1.11770
gfz2011owvz   0.20020
gfz2011ozsl   0.46440
gfz2011pccd  -0.69710
gfz2011pdpt   0.09180
gfz2011qvae   0.04310
gfz2011rabm  -1.09320
gfz2011rewa  -0.50830
gfz2011rgwp   0.28850
gfz2011rsrh  -0.21770
gfz2011rznl   0.53890
gfz2011sagt  -0.10430
gfz2011sawg   0.17840
gfz2011taps  -0.56010
gfz2011tbas   0.71110
gfz2011tcij   0.18630
gfz2011tjrf   0.49960
gfz2011tkfp  -0.94350
gfz2011toub  -0.37590
gfz2011ujze   0.05790
gfz2011ukmp  -0.32500
gfz2011uphh  -0.00000
gfz2011vhfi  -0.34440
gfz2011vldk  -0.03570
gfz2011vnza   0.39410
gfz2011vxns  -0.76210
gfz2011vxod   0.64770
gfz2011wcic  -0.49110
gfz2011wjul   0.21200
gfz2011wwjs   0.10760
gfz2011wxfs   0.70480
gfz2011wxtk  -0.38200
gfz2011wype  -1.05770
gfz2011xaan  -0.06760
gfz2011xcpv  -0.03930
gfz2011xesx   0.24770
gfz2011xyxj  -0.43630
gfz2011yfdx   0.53620
gfz2011yhwz  -0.38570
gfz2011yybo   0.40940
gfz2011zklv   0.09910
gfz2012aqgp   0.23360
gfz2012bpkx   0.46740
gfz2012enno   0.12590
gfz2012fzfa  -0.13490
gfz2012hnul  -0.36300
gfz2012hzbe   0.07170
gfz2012ihdl   0.23110
gfz2012ilvn   0.42750
gfz2012imay   0.09820
gfz2012intn  -0.27470
gfz2012jlox  -0.17260
gfz2012jshk   1.86980
gfz2012jupx  -0.09140
gfz2012kbjb   0.29700
gfz2012kuct  -0.00380
gfz2012kudo  -0.13990
gfz2012ldxg  -0.28430
gfz2012mkpn   0.18150
gfz2012mvwr  -0.47260
gfz2012ngic  -0.12010
gfz2012njha   0.21610
gfz2012nkdf  -0.65810
gfz2012nxyt  -0.38140
gfz2012oazn  -0.48770
gfz2012obgw   0.21250
gfz2012oedb  -0.39480
gfz2012oycg  -0.62370
gfz2012peki  -0.48270
gfz2012repv   0.16090
gfz2012rwko   0.22190
gfz2012rwov  -0.06070
gfz2012rypu   0.15360
gfz2012sphd  -0.32470
gfz2012tbbp   0.09790
gfz2012tpzx   1.67170
gfz2012ttoa  -0.26990
gfz2012tvmv  -0.17700
gfz2012tyig   0.40960
gfz2012tzcc   0.35980
gfz2012uafg  -0.42630
gfz2012uaqj   0.56490
gfz2012uciv  -0.14930
gfz2012uyxb   0.00000
gfz2012uzom  -1.10660
gfz2012vntz  -0.31260
gfz2012vrgb   0.14900
gfz2012wklq  -0.21490
gfz2012wmkd  -0.35830
gfz2012wmsg  -0.11310
gfz2012wtkr   0.33610
gfz2012wxer  -0.29970
gfz2012wxkg  -0.14180
gfz2012wxlg  -0.28310
gfz2012wxnu  -0.47500
gfz2012wypz   0.63310
gfz2012zfag  -0.34020
gfz2012zitl  -0.00340
gfz2012zmbp   1.49120
gfz2013ccnr   1.32380
gfz2013drxz   1.10330
gfz2013fdoo   2.59930
gfz2013fiud   0.06830
gfz2013fygc  -0.56220
gfz2013gbcn  -0.15190
gfz2013gdnq  -0.06840
gfz2013gngz   0.30580
gfz2013gras   0.18820
gfz2013hfmp   0.18820
gfz2013hkja  -0.18940
gfz2013hmbc  -0.10900
gfz2013iapa  -0.03310
gfz2013ijsr   0.43570
gfz2013ilug  -0.02730
gfz2013ippu   0.65760
gfz2013iunn   0.01970
gfz2013jesk  -0.73890
gfz2013jgij   0.47390
gfz2013jgip   0.12590
gfz2013jkut   0.33980
gfz2013jusj  -1.44490
gfz2013kdeo   0.12910
gfz2013kheb  -0.80490
gfz2013kvtk  -0.53130
gfz2013kweg   0.56340
gfz2013lajn  -0.11180
gfz2013lbiu   0.54120
gfz2013ldos   0.70790
gfz2013ldqb  -0.40860
gfz2013lixa   0.17380
gfz2013lsob   0.76650
gfz2013lyko  -0.16980
gfz2013mded   0.77300
gfz2013mqmv   0.78160
gfz2013mvgr  -0.32250
gfz2013mwbh  -0.25810
gfz2013ncjp   2.09040
gfz2013ngnt   0.00000
gfz2013nixj   0.41310
gfz2013nkgj   0.95730
gfz2013nlxz   0.42400
gfz2013nmac  -0.11870
gfz2013nojf   0.18270
gfz2013nwdi   0.14810
gfz2013ornz   0.29760
gfz2013pcos  -0.18430
gfz2013pfbx   0.27920
gfz2013pfeb  -0.76420
gfz2013pffm   0.04270
gfz2013phef   0.38450
gfz2013puag   0.32580
gfz2013pxsj   0.17750
gfz2013qfmm  -0.44770
gfz2013qmer   0.00400
gfz2013qzdq  -0.98430
gfz2013rdoo  -0.37380
gfz2013rrza   0.41800
gfz2013sdus   0.36730
gfz2013sebq  -0.01350
gfz2013shlq  -0.02960
gfz2013shzy   0.17560
gfz2013skkm  -0.23350
gfz2013sllq  -0.39780
gfz2013snyf   0.34070
gfz2013sred  -0.08680
gfz2013stht   0.71800
gfz2013suln   0.73660
gfz2013suvn   0.85990
gfz2013svci  -0.21740
gfz2013tbzy  -0.90130
gfz2013tcxc   0.21320
gfz2013tcxq  -0.06000
gfz2013toea  -0.40420
gfz2013toxf   0.44030
gfz2013tusd   0.13790
gfz2013tvmw   0.60420
gfz2013txtb   0.76070
gfz2013uauo  -0.27000
gfz2013uqsp   0.06030
gfz2013uuzn   0.21800
gfz2013vdic   0.24920
gfz2013vexx   0.09590
gfz2013vfyw  -0.69200
gfz2013vfzp  -0.28620
gfz2013vgau   1.30200
gfz2013vgrk   0.04390
gfz2013viul   0.23490
gfz2013vjfe   0.63500
gfz2013vjjc  -1.14610
gfz2013vsbl  -0.06560
gfz2013vsxi  -1.71910
gfz2013vvrq  -0.32480
gfz2013vzbo  -0.51210
gfz2013wjmm  -0.88150
gfz2013wkyk  -0.53430
gfz2013wtzl  -0.37680
gfz2013wuon   0.58000
gfz2013xmul  -0.03450
gfz2013xsdt   0.15940
gfz2013xvqd   0.62690
gfz2013xwda   0.88170
gfz2013xwzd   0.89690
gfz2013xxwv  -0.30850
gfz2013xxxq  -0.11030
gfz2013yctg   0.37140
gfz2013yghj  -0.19690
gfz2013yhpk  -0.80210
gfz2013ylbx  -0.61900
gfz2013ypdc   0.34430
gfz2013yqkv   0.39740
gfz2013yyhc  -4.61990
gfz2013zjel   0.10000
gfz2014adoj  -0.12030
gfz2014afmx   0.16840
gfz2014agyz  -0.21030
gfz2014ande  -0.19380
gfz2014arpf  -0.17180
gfz2014bagd   0.12430
gfz2014bezu  -0.58040
gfz2014bjsy   0.36360
gfz2014bmta  -0.28220
gfz2014bwue   0.39870
gfz2014bzxy   1.07390
gfz2014czol   0.40660
gfz2014czqi  -0.05340
gfz2014czua   0.47380
gfz2014dhxt   0.50490
gfz2014disp  -0.94450
gfz2014ekcr   0.72010
gfz2014enhi  -0.68580
gfz2014fhdw  -0.10280
gfz2014fhla  -0.60000
gfz2014fhrq   0.01730
gfz2014fjzd   0.16560
gfz2014fkmr   1.55200
gfz2014fnyg  -0.03990
gfz2014frdz   1.29970
gfz2014frez   0.42110
gfz2014ftka  -0.71500
gfz2014ftoc   0.52560
gfz2014ftpw  -0.75410
gfz2014furx   0.42020
gfz2014fusj  -0.41100
gfz2014fuup   0.56440
gfz2014fvaa   0.99050
gfz2014fval   0.02080
gfz2014fvrg   0.40650
gfz2014fxhd  -0.41440
gfz2014gbdq  -1.74090
gfz2014ghpe   0.90850
gfz2014gkgf  -1.00870
gfz2014gkgs   0.28070
gfz2014gkhp  -0.89380
gfz2014gkjt   0.71620
gfz2014gkob  -3.90550
gfz2014gkpj  -0.99140
gfz2014gkqf  -0.01230
gfz2014gkqu   0.48970
gfz2014gktq  -0.06320
gfz2014glcu  -0.10300
gfz2014glcy   0.14960
gfz2014gmge   0.02550
gfz2014gmhp  -0.44800
gfz2014gmhr  -1.79440
gfz2014gmnb  -0.10340
gfz2014gmnw   0.10870
gfz2014gndq  -0.20770
gfz2014goba   1.45680
gfz2014goqw   0.25620
gfz2014gori  -0.18950
gfz2014gpya   0.49060
gfz2014gqbj   0.57120
gfz2014gqer   0.99200
gfz2014gqve   0.07980
gfz2014gsqs   0.29630
gfz2014gull   0.18540
gfz2014gulp  -0.15640
gfz2014gwab   0.56170
gfz2014gwgf  -0.51460
gfz2014gxxo  -0.49130
gfz2014hasj  -0.36210
gfz2014hauo   0.37880
gfz2014hbqb   0.23130
gfz2014hfhl   0.39430
gfz2014hgqo  -0.14760
gfz2014hkcf   1.28880
gfz2014hocg   0.46030
gfz2014huaj   0.27300
gfz2014hyal   0.00370
gfz2014hyvq   0.29880
gfz2014hzdy   0.11090
gfz2014hzfw   0.15170
gfz2014hzhe   0.12170
gfz2014ikun  -0.20930
gfz2014imnn  -0.10050
gfz2014inbj   0.30500
gfz2014iobd   0.09550
gfz2014isys  -0.16560
gfz2014itkw   0.43270
gfz2014iywt  -1.39320
gfz2014jatq  -0.22040
gfz2014jcmt   0.26890
gfz2014jjhc   0.14010
gfz2014jjln  -0.12120
gfz2014jlwb   0.30470
gfz2014jmnk   0.12070
gfz2014jnxm   1.81950
gfz2014jnyv  -0.05260
gfz2014jomw   0.07830
gfz2014jpep  -0.00000
gfz2014jpxs   0.50520
gfz2014jwmh   0.04510
gfz2014kndc  -0.09970
gfz2014knks  -0.11730
gfz2014knxs  -0.02110
gfz2014krlg   0.28190
gfz2014ksdv   0.40180
gfz2014kyan   0.09430
gfz2014kytf  -0.84270
gfz2014kzzm  -0.50140
gfz2014lbxn   0.14940
gfz2014ldhu   0.05770
gfz2014lefs  -0.36480
gfz2014lkyf   0.10670
gfz2014lmge  -0.71260
gfz2014lpim  -0.00000
gfz2014lrzx  -0.49380
gfz2014lxnc   0.16530
gfz2014lyhk   0.22190
gfz2014lyhp   0.24320
gfz2014lzow  -0.39140
gfz2014macx   0.07400
gfz2014madw   0.06330
gfz2014mawp   0.12560
gfz2014mhgg  -0.52960
gfz2014mtum   0.24870
gfz2014mwor  -0.18740
gfz2014ngnd   0.01950
gfz2014niqj  -0.53100
gfz2014nkdx   0.50020
gfz2014nowp   0.01910
gfz2014npdk  -0.47710
gfz2014npeo   0.12960
gfz2014nphm  -0.10460
gfz2014nqfm   0.43900
gfz2014nrie   0.30350
gfz2014nylm  -0.22450
gfz2014odgv  -0.19170
gfz2014oinz   0.52580
gfz2014omyn   0.30620
gfz2014owxc  -0.09030
gfz2014oxcc  -0.29410
gfz2014pjer   0.01840
gfz2014pkll   0.06740
gfz2014ppyi  -0.09800
gfz2014ppzf   0.12050
gfz2014pqqp  -0.35200
gfz2014pvch   0.07540
gfz2014qcxs   0.11080
gfz2014qlvc  -0.38970
gfz2014qlxd   0.80770
gfz2014qngj  -0.27780
gfz2014qqhm   0.33570
gfz2014raau   0.26130
gfz2014rbsl   0.48570
gfz2014rdsn  -0.59070
gfz2014rhju   0.20360
gfz2014riel  -0.04230
gfz2014rkwl   0.34880
gfz2014romy  -0.36230
gfz2014rtcu   0.15340
gfz2014rucz  -1.16860
gfz2014sadu  -0.44480
gfz2014sjqw  -0.78210
gfz2014sptq  -0.62740
gfz2014sryn   0.44450
gfz2014ssmv   0.09160
gfz2014ssvz  -0.36730
gfz2014szzf  -0.40020
gfz2014tfgn   0.08760
gfz2014tovs  -0.45770
gfz2014tqdo   0.27710
gfz2014tute   0.75050
gfz2014tzsd  -0.00000
gfz2014ubwn  -0.05860
gfz2014udgg   0.05950
gfz2014uohh  -0.16380
gfz2014uuuf  -0.66480
gfz2014uvji   0.39430
gfz2014vcev   0.29880
gfz2014vhms  -0.06660
gfz2014vjoz  -0.14110
gfz2014vpus  -0.27840
gfz2014wmsc  -0.29650
gfz2014wrkh  -0.00000
gfz2014xbyr  -1.08790
gfz2014xhkc  -0.56040
gfz2014xjri  -0.91370
gfz2014xqqd  -0.13070
gfz2014yhhm   0.07830
gfz2015alzx   0.01040
gfz2015aruz   0.05210
gfz2015berb   0.58100
gfz2015chhn   0.34020
gfz2015fkgt   0.07990
gfz2015fsjj  -0.14010
gfz2015gckd   0.39020
gfz2015ggjw   0.45870
gfz2015gkwa  -0.74490
gfz2015guhd   0.28030
gfz2015hdcp   0.64060
gfz2015hgbk   0.85490
gfz2015hpmk   0.25050
gfz2015idho   0.48950
gfz2015igsy   0.55080
gfz2015ixyy  -0.56470
gfz2015jpap   0.44610
gfz2015jwgl   0.15010
gfz2015jxbx   0.59200
gfz2015jxjd  -0.05090
gfz2015jzcv  -0.36890
gfz2015kakw   0.15410
gfz2015kkth   0.04020
gfz2015kquq   0.04410
gfz2015ksni  -0.02150
gfz2015kvwz  -0.29480
gfz2015kxxs   0.87070
gfz2015lcma  -0.16470
gfz2015lhjq   0.15720
gfz2015lhjy   0.11080
gfz2015ltii   0.54760
gfz2015lytv  -0.54560
gfz2015lzad   0.42420
gfz2015mddr   0.21780
gfz2015mfpy  -0.04560
gfz2015mljd  -0.27660
gfz2015mpte  -0.18150
gfz2015nqgf   0.22730
gfz2015ntpk  -0.35230
gfz2015nuxz  -0.02100
gfz2015nwug  -0.27810
gfz2015ocdz   0.50100
gfz2015ofsr  -0.43430
gfz2015okmq  -0.20220
gfz2015okpu   0.47650
gfz2015opjp  -0.54820
gfz2015orkl  -1.39250
gfz2015othd   0.21920
gfz2015oyfl   0.41960
gfz2015pjgr  -0.00000
gfz2015poni  -0.15380
gfz2015prlr  -0.07250
gfz2015qnho  -0.16700
gfz2015qnto   0.02110
gfz2015rddx   0.03650
gfz2015rkbq   0.21030
gfz2015rkrg   0.56120
gfz2015rkzg   0.52090
gfz2015rpzn   0.15500
gfz2015rwsb   0.60050
gfz2015saet   0.34490
gfz2015sdeo  -0.02190
gfz2015sfdd   0.46700
gfz2015sfdl   0.33480
gfz2015sfdv  -0.20140
gfz2015sfdy  -0.40890
gfz2015sfeo  -0.05270
gfz2015sffn   0.04550
gfz2015sfga   0.09650
gfz2015sfhz  -1.44960
gfz2015sfiq  -1.18700
gfz2015sfjf   0.00000
gfz2015sfkh  -0.25090
gfz2015sfko   0.05730
gfz2015sfks  -0.30230
gfz2015sfkz  -0.13060
gfz2015sflf  -0.13600
gfz2015sfmd   0.85580
gfz2015sfnb  -1.74070
gfz2015sfno  -0.28100
gfz2015sfnv  -0.19530
gfz2015sfoc   0.22300
gfz2015sfoh   0.48260
gfz2015sfoq   0.53900
gfz2015sfpj   0.02870
gfz2015sfps   0.28020
gfz2015sfqo   0.31000
gfz2015sfqr  -1.71810
gfz2015sfrc  -0.14030
gfz2015sfrv   2.12350
gfz2015sfte   0.40420
gfz2015sftu  -0.17100
gfz2015sfuz   0.83110
gfz2015sfwf   0.13980
gfz2015sfxn   0.19550
gfz2015sfzm   0.06960
gfz2015sgad  -0.33620
gfz2015sgdj  -0.06780
gfz2015sgdn  -0.21990
gfz2015sgey   0.08080
gfz2015sggc   0.02040
gfz2015sghq   0.13130
gfz2015sgie   0.23580
gfz2015sglg   0.05500
gfz2015sgmm   0.49980
gfz2015sgmr  -0.17650
gfz2015sgoa  -0.26740
gfz2015sguf  -0.33430
gfz2015sgyd   0.62560
gfz2015shaq  -0.06950
gfz2015shel   0.23020
gfz2015shhg  -0.12190
gfz2015shhu   0.06040
gfz2015shjn   0.41850
gfz2015shjo  -0.26930
gfz2015shlp   0.62140
gfz2015shov   1.11270
gfz2015shqc   0.63680
gfz2015shqe   0.63730
gfz2015shrg  -0.26820
gfz2015shsz   0.30530
gfz2015sicf   0.32590
gfz2015sicu   0.02230
gfz2015siem   0.38350
gfz2015siky  -0.66370
gfz2015sing  -0.59970
gfz2015sist   0.97890
gfz2015sitn  -0.32310
gfz2015sixi   0.11320
gfz2015siyy   0.21390
gfz2015sjbx   0.00030
gfz2015sjeq  -2.40440
gfz2015sjfi  -0.02060
gfz2015sjgk  -0.09380
gfz2015sjjb   0.03580
gfz2015sjne   0.21890
gfz2015sjoj   0.09780
gfz2015sjpn   0.37110
gfz2015sjvu  -0.25790
gfz2015sjwi  -0.78580
gfz2015skab   1.06520
gfz2015skgj  -0.02170
gfz2015skia  -0.35450
gfz2015sklu   0.37390
gfz2015skpv   0.02110
gfz2015sldx   0.46040
gfz2015slfn  -0.14060
gfz2015sljs  -0.24740
gfz2015slun  -0.00000
gfz2015smgj   0.81210
gfz2015smym  -0.55680
gfz2015snmr   0.52580
gfz2015snsf   0.41140
gfz2015snwh  -0.68140
gfz2015snyd   0.29980
gfz2015soat   0.11580
gfz2015soxc   0.01750
gfz2015sozw   0.31330
gfz2015sqbg  -0.23460
gfz2015sqmy   0.28110
gfz2015sqoz  -1.68530
gfz2015sqvx  -0.13820
gfz2015sqwv  -0.22600
gfz2015srat   0.14860
gfz2015srgf   0.21700
gfz2015ssoe  -0.10920
gfz2015ssrl   1.02930
gfz2015stas  -0.03760
gfz2015stcv  -0.14530
gfz2015stfy  -0.08010
gfz2015stso   0.25940
gfz2015subg  -0.44490
gfz2015subz  -0.03840
gfz2015sudm  -0.20640
gfz2015sunp  -0.71660
gfz2015supa   0.68370
gfz2015susq  -0.04990
gfz2015svjy  -0.17370
gfz2015svwm   0.58680
gfz2015swgn  -0.56160
gfz2015sxgd  -0.30140
gfz2015sxmh   0.15350
gfz2015sxxu   0.04710
gfz2015szcb  -0.47670
gfz2015szfe  -0.71190
gfz2015sztx   0.10630
gfz2015taml   0.19780
gfz2015tbdn   0.26830
gfz2015tbje   0.07930
gfz2015tbxe   1.03090
gfz2015tdbb  -0.28220
gfz2015tdcu   0.04940
gfz2015teje   0.06550
