# Nsamples: 526  MAD:  0.773  mean: -0.030  variance:  0.902
gfz2012ostk   0.11840
gfz2012oycg  -1.27540
gfz2012pazr   0.80280
gfz2012pciw  -0.64700
gfz2012peex   2.07120
gfz2012pofl   0.76920
gfz2012poju   0.87690
gfz2012pqmk   0.85840
gfz2012priv   0.41830
gfz2012prlt   0.32500
gfz2012pspd   0.46440
gfz2012qouy  -0.58950
gfz2012qqqp   0.77890
gfz2012qqxg  -0.36030
gfz2012qtgs   0.07490
gfz2012qurq  -0.62330
gfz2012quso  -0.09840
gfz2012qxcy   0.17070
gfz2012rats  -0.19840
gfz2012rboy  -0.79370
gfz2012rcds  -0.26700
gfz2012repv  -0.78250
gfz2012rknn  -0.50070
gfz2012royy  -0.41650
gfz2012rqlg  -0.25700
gfz2012rtqi  -1.79410
gfz2012rubi  -2.68170
gfz2012ruks  -0.07540
gfz2012rwov  -0.70710
gfz2012rwql  -0.21840
gfz2012rypu  -1.11350
gfz2012shtg  -0.07560
gfz2012sjea  -1.01660
gfz2012spbj  -0.97180
gfz2012sphd   0.07770
gfz2012szla  -0.00700
gfz2012taou  -0.18430
gfz2012tazz  -1.30640
gfz2012tbbp  -2.03940
gfz2012teic  -0.89980
gfz2012thfx   0.30340
gfz2012tpzx   0.11010
gfz2012ttoa   0.02430
gfz2012tzcc  -0.16470
gfz2012tzgb   0.30490
gfz2012uciv  -0.27870
gfz2012ueqo  -0.30960
gfz2012ufew  -0.09540
gfz2012ulpd   0.23130
gfz2012uqzp   0.42540
gfz2012usba  -0.10150
gfz2012uvqf   1.41250
gfz2012uxnz  -0.74030
gfz2012uyie   0.84120
gfz2012uyxb  -1.12780
gfz2012vceo  -0.02070
gfz2012viab   1.57760
gfz2012vnbk   0.47290
gfz2012vntz   0.67250
gfz2012vpza   0.59020
gfz2012vrua   0.79570
gfz2012vsev  -0.50720
gfz2012vtxe  -0.59660
gfz2012wajj   0.45060
gfz2012wdyx   0.35240
gfz2012wecd  -0.33970
gfz2012whku   0.94800
gfz2012wklq  -1.31330
gfz2012wmkd   0.26930
gfz2012wmsg  -0.90830
gfz2012wpeq  -0.91650
gfz2012wqnc  -1.65960
gfz2012wrir   0.35460
gfz2012wtkr   0.36630
gfz2012wubh  -0.72920
gfz2012wvfl   0.17920
gfz2012wxer   0.48560
gfz2012wxlg  -0.86800
gfz2012wxnt  -0.42100
gfz2012wxnu   0.80760
gfz2012wybs   1.50870
gfz2012wypz   0.42440
gfz2012xbjq  -1.09200
gfz2012xdna  -0.07950
gfz2012xeul   0.59300
gfz2012xevt   0.35190
gfz2012xjyv  -1.24850
gfz2012xkkv   1.78690
gfz2012xmxy   1.72010
gfz2012xslk   1.92610
gfz2012xyqp  -0.98790
gfz2012xyua  -3.01470
gfz2012yfrp  -0.39130
gfz2012yoie   0.29970
gfz2012yxxu   1.17520
gfz2012zemh   0.07380
gfz2012zfag   0.10890
gfz2012ziml   0.64600
gfz2012zitl  -0.86860
gfz2012zjpv  -1.01340
gfz2012zjre  -0.64230
gfz2012zklq  -0.25110
gfz2012zsqk  -1.14610
gfz2013aahq   0.79980
gfz2013aayj  -0.13770
gfz2013acag   2.43310
gfz2013adey  -0.28770
gfz2013apmm  -1.11220
gfz2013axoj  -0.13110
gfz2013biji   1.04450
gfz2013bnxc   0.72130
gfz2013bouj   0.47020
gfz2013btjm   0.44350
gfz2013bzlb   0.75290
gfz2013bzzm   0.50670
gfz2013cbsm  -0.21530
gfz2013ccnr  -1.58850
gfz2013ccon   0.89740
gfz2013cfyy  -0.39020
gfz2013ciaf  -0.31620
gfz2013cnhh  -1.28650
gfz2013comh   0.14830
gfz2013cvad  -0.81010
gfz2013cwpn   0.61490
gfz2013cwps   0.27170
gfz2013czeq   2.25900
gfz2013ddbh  -0.48100
gfz2013dddp  -0.22950
gfz2013diuf  -0.55550
gfz2013dkly  -0.49790
gfz2013dkmz   0.44530
gfz2013dkym   2.96100
gfz2013dnnx  -0.07980
gfz2013dofo  -0.65530
gfz2013dojq   1.52690
gfz2013drpk   0.09180
gfz2013drxz  -0.78960
gfz2013dsog   1.41540
gfz2013dspt  -0.39080
gfz2013dvye  -0.32790
gfz2013dvyh  -0.46470
gfz2013dyop   0.97320
gfz2013egni  -1.53130
gfz2013egpu  -0.95240
gfz2013ekpm   1.62450
gfz2013enbx  -0.48930
gfz2013esnh   0.54230
gfz2013eswe   0.55450
gfz2013eulz  -0.03500
gfz2013ewbo  -0.37350
gfz2013fdoo  -0.03580
gfz2013feep  -0.04860
gfz2013fepm   0.04730
gfz2013ffko  -0.84060
gfz2013figy  -0.57810
gfz2013fiud  -1.25630
gfz2013fkii  -0.09210
gfz2013flox  -0.94270
gfz2013fwxa   0.50870
gfz2013fxge   0.07700
gfz2013fygc  -0.06840
gfz2013gbst   0.21030
gfz2013gdnq  -1.14370
gfz2013geia   0.85090
gfz2013ggtf   0.12990
gfz2013gihf   0.86610
gfz2013gjdc   2.63550
gfz2013glcr  -1.37350
gfz2013gmor  -0.05020
gfz2013gngz  -1.37970
gfz2013gnse   0.72800
gfz2013gock   0.02230
gfz2013goux   0.77540
gfz2013gvex  -1.08250
gfz2013gvxh  -0.81930
gfz2013gwrd  -1.42130
gfz2013hbkh  -0.85140
gfz2013hdnc   0.34180
gfz2013hfmp   2.40590
gfz2013hisv   0.73990
gfz2013hkja   1.27690
gfz2013hlbe  -0.78440
gfz2013hmbc   2.80310
gfz2013hpfq  -0.66620
gfz2013hsfw  -0.50060
gfz2013huwr   1.09310
gfz2013hydf  -0.39240
gfz2013hzdp   0.09110
gfz2013iapa   0.43640
gfz2013iayx  -0.15490
gfz2013icfh  -0.23210
gfz2013idbb   0.21900
gfz2013iexo   0.10490
gfz2013ifpq  -0.47510
gfz2013ihcj  -0.18230
gfz2013ikgo  -0.73370
gfz2013inux   0.92770
gfz2013iodt  -0.74190
gfz2013iunn  -1.58570
gfz2013jarl  -1.46290
gfz2013jdrx   1.31730
gfz2013jesk   1.49320
gfz2013jgij   0.82730
gfz2013jgip   0.49560
gfz2013jjsi  -1.03910
gfz2013jkut   1.52450
gfz2013jlst   2.06790
gfz2013json   0.17650
gfz2013jusj   0.89680
gfz2013jxoi   0.33840
gfz2013kccc   2.32290
gfz2013kdeo  -0.34100
gfz2013kheb  -0.02780
gfz2013kqln   0.85320
gfz2013mded  -0.16220
gfz2013mghe   0.40210
gfz2013mmlw   0.44640
gfz2013mmwq   0.08770
gfz2013mnju  -0.40420
gfz2013mqik  -0.17560
gfz2013mqmv   0.68380
gfz2013mwbh  -0.58480
gfz2013oqsc  -0.29780
gfz2013orjg   0.73900
gfz2013ornz  -0.38380
gfz2013orzn   0.77870
gfz2013ouvt   1.29380
gfz2013ozku  -0.24150
gfz2013oznn   0.58670
gfz2013ozqm  -0.54780
gfz2013ozrp  -0.77380
gfz2013pakq   0.40780
gfz2013pcos   1.30670
gfz2013pfbx   0.75430
gfz2013pfeb   0.26030
gfz2013pffm   0.34240
gfz2013qzdq  -2.72520
gfz2013rait  -0.29290
gfz2013reym  -0.42100
gfz2013roki  -0.38030
gfz2013rsnr   0.18820
gfz2013rwfe   1.33230
gfz2013saez  -0.03700
gfz2013scai   0.05450
gfz2013sdus   0.76680
gfz2013sebq  -1.66470
gfz2013sfds  -0.69960
gfz2013sfto  -0.45790
gfz2013sjhg   1.67550
gfz2013skkm  -0.02710
gfz2013snbr  -0.01940
gfz2013snyf  -2.10420
gfz2013sred  -0.78010
gfz2013suln   1.59460
gfz2013suvn   0.34410
gfz2013svci   0.76500
gfz2013svqv   2.06220
gfz2013tcbk  -0.53660
gfz2013tcxc  -0.20780
gfz2013tcxq  -0.25060
gfz2013tdau  -0.16190
gfz2013tect   0.04030
gfz2013tlaf  -1.44640
gfz2013toea  -0.40880
gfz2013toxf  -0.12980
gfz2013tpeb  -0.22230
gfz2013tusd  -0.12060
gfz2013twwf  -0.00000
gfz2013txev  -2.82840
gfz2013txij   0.08400
gfz2013txtb   0.68930
gfz2013tyas   0.86450
gfz2013uauo  -0.14880
gfz2013ufxk   1.69930
gfz2013ugax   0.03550
gfz2013uhlm  -0.01790
gfz2013upiv   0.10670
gfz2013uqsp   1.10410
gfz2013utsh  -0.67510
gfz2013uuzn  -1.20420
gfz2013uxej   1.32020
gfz2013vcoa   0.31300
gfz2013vefs  -1.62560
gfz2013vexx   1.09760
gfz2013vfyw  -0.70020
gfz2013vfzp  -0.02310
gfz2013vgau  -0.40180
gfz2013vgpf  -0.14940
gfz2013vhnk  -0.14850
gfz2013vhzu   0.72730
gfz2013vjfe  -0.34190
gfz2013vjjc  -2.70250
gfz2013vlth   0.83550
gfz2013vnfj   0.13530
gfz2013vrmy   0.71290
gfz2013vsbl  -0.39220
gfz2013vvjh   0.17150
gfz2013vvrq  -0.36610
gfz2013vzbo   0.15090
gfz2013waam   0.18260
gfz2013wjmm   2.47400
gfz2013wkyk   1.54430
gfz2013wmfd  -0.50390
gfz2013wnpr   0.89720
gfz2013wrgw  -0.31320
gfz2013wtzl   0.64820
gfz2013wuon  -1.48410
gfz2013wwii   0.92920
gfz2013xcmp   2.26720
gfz2013xgek   0.11430
gfz2013xizq   0.60550
gfz2013xklb   0.32930
gfz2013xkwt  -0.15540
gfz2013xmqg   0.89030
gfz2013xmul  -0.77510
gfz2013xpfa  -0.01790
gfz2013xpsm  -1.38600
gfz2013xqnn   0.70210
gfz2013xsdt  -2.17150
gfz2013xtwj   0.84160
gfz2013xvqd  -0.53490
gfz2013xvxf  -0.54100
gfz2013xwda  -0.96860
gfz2013xxcc   0.86190
gfz2013xxwv  -0.99610
gfz2013xxxq  -0.93340
gfz2013xyzb   0.04820
gfz2013xzcg  -1.01190
gfz2013yaig  -0.80410
gfz2013yctg  -0.81130
gfz2013yewz  -0.02150
gfz2013yhpk   0.33630
gfz2013yixl  -0.84360
gfz2013ylbx  -0.67110
gfz2013ymky   0.42610
gfz2013ymxs  -0.15580
gfz2013ynmw   0.34460
gfz2013ypdc  -0.29420
gfz2013yqkv  -0.99180
gfz2013yrmc  -0.31200
gfz2013yyti  -1.40730
gfz2013zmoc  -0.61350
gfz2013zmtb   0.24030
gfz2014algk   0.96610
gfz2014alwz   0.75000
gfz2014aqbk   0.26970
gfz2014ared   2.02910
gfz2014arpf  -1.75770
gfz2014arqr  -1.52270
gfz2014arsr  -0.72430
gfz2014atgw  -1.00010
gfz2014bagd  -0.81330
gfz2014bbro  -1.02920
gfz2014bekc  -2.11390
gfz2014bezu   0.13740
gfz2014bfqo   0.20170
gfz2014bhhv  -1.54480
gfz2014bhvd   2.09760
gfz2014bldx  -0.99690
gfz2014bmfv   0.26490
gfz2014fcms  -0.04010
gfz2014fcsy   0.44320
gfz2014femz  -0.64840
gfz2014fexu   0.88780
gfz2014fgvi  -0.89140
gfz2014fgvr   0.14090
gfz2014fgvz  -0.94230
gfz2014fgwt  -0.05780
gfz2014fgxt   0.35130
gfz2014fgyo   0.33610
gfz2014fhbd   0.16430
gfz2014fhdw  -0.16320
gfz2014fhla   0.68860
gfz2014fhlh  -0.02410
gfz2014fhrq   0.03230
gfz2014fhsg   0.10360
gfz2014fhwx  -0.22610
gfz2014fhxm   0.24710
gfz2014fiuj  -2.87940
gfz2014fjpb   0.43260
gfz2014fjyo  -0.71450
gfz2014fjzd   0.11090
gfz2014fjzw  -1.04860
gfz2014fkmr  -0.85200
gfz2014fkmx   0.71480
gfz2014fknp  -0.54960
gfz2014flfa  -1.95370
gfz2014fnyg  -1.49670
gfz2014foio   0.44420
gfz2014fqpz   0.03960
gfz2014frdz   0.81050
gfz2014frel   0.47600
gfz2014frez   1.32530
gfz2014fstx  -0.73800
gfz2014ftka   0.12330
gfz2014ftoc  -1.35670
gfz2014ftrk   0.30380
gfz2014fusj   0.07540
gfz2014fuub  -2.51630
gfz2014fuvk  -0.08900
gfz2014fval   0.29240
gfz2014fvgh  -0.25950
gfz2014fvpy   0.00000
gfz2014fvrg   0.32220
gfz2014fvve   1.14490
gfz2014fwdr  -0.18270
gfz2014fwtt   0.08060
gfz2014gbcz  -1.35490
gfz2014gbdq   0.87080
gfz2014geuy   2.24220
gfz2014gkgf  -1.88420
gfz2014gkhp   0.35830
gfz2014gkjl  -1.14990
gfz2014gkjt   0.02760
gfz2014gkjw  -0.28510
gfz2014gklq  -1.04650
gfz2014gkmw   5.06090
gfz2014gkob  -0.80670
gfz2014gkok  -0.44230
gfz2014gkpd  -0.11030
gfz2014gkpj   0.62690
gfz2014gkqf  -1.44480
gfz2014gkqu  -0.45920
gfz2014gksj   0.09470
gfz2014gktq   1.28310
gfz2014gkut  -0.40430
gfz2014gkvk  -1.51830
gfz2014gkxm   1.17960
gfz2014glcu  -0.32580
gfz2014glcy  -0.15500
gfz2014glfn  -2.70070
gfz2014glgo   0.13850
gfz2014gltx  -0.67970
gfz2014glvu  -0.73260
gfz2014gmci   0.09170
gfz2014gmge  -0.20200
gfz2014gmhp  -0.25580
gfz2014gmhr  -2.13370
gfz2014gmip   0.10430
gfz2014gmjo   0.02120
gfz2014gmku   0.21610
gfz2014gmmk   0.36560
gfz2014gmmt  -0.55730
gfz2014gmnb  -0.31120
gfz2014gmnw  -0.03190
gfz2014gmor  -0.65480
gfz2014gmpy   0.73090
gfz2014gmtb   1.74190
gfz2014gmuk  -0.11490
gfz2014gmuw   0.25610
gfz2014gmzl   0.33650
gfz2014gnfd  -0.82480
gfz2014gngg   0.22640
gfz2014gnno  -0.00040
gfz2014gnnt  -0.79000
gfz2014gnom   1.02650
gfz2014gnoz   0.22210
gfz2014gnre   0.30630
gfz2014gnsi   0.41060
gfz2014gntd   1.51740
gfz2014gnvw   0.24490
gfz2014gnwg   0.22880
gfz2014gnxb   0.35110
gfz2014goba   0.00450
gfz2014goei   1.62020
gfz2014gogv  -1.32390
gfz2014gohm   0.33310
gfz2014goqw   0.47890
gfz2014goyx  -0.41530
gfz2014gpac  -0.08580
gfz2014gpce   0.61310
gfz2014gpgd   0.68440
gfz2014gphr   0.51370
gfz2014gpnf  -0.30160
gfz2014gpqq   0.84250
gfz2014gpuk  -0.36780
gfz2014gpvk   0.67970
gfz2014gpya   0.13610
gfz2014gqbj  -0.06990
gfz2014gqco  -0.36410
gfz2014gqed  -0.65190
gfz2014gqer   0.52860
gfz2014gqiy  -1.81090
gfz2014gqjr   1.30100
gfz2014gqqz  -0.10840
gfz2014gqro   0.23460
gfz2014gqve   0.16180
gfz2014grgn   0.08380
gfz2014grho   0.18210
gfz2014gsqs  -0.07970
gfz2014gtef   0.25380
gfz2014gtrb  -0.31620
gfz2014gtwz   0.06880
gfz2014gufl   0.49280
gfz2014gull   0.37580
gfz2014gumd  -1.03440
gfz2014gutm   0.89800
gfz2014gvhw   1.15050
gfz2014gvqj  -0.35120
gfz2014gvra  -0.89290
gfz2014gvrd  -0.24510
gfz2014gwab  -1.74130
gfz2014gwgf  -0.63820
gfz2014gxag   0.37920
gfz2014gxkh  -0.53450
gfz2014gxqx   0.54380
gfz2014gxvf  -0.57300
gfz2014gxxh   0.18830
gfz2014gxxo  -0.73270
gfz2014hcmj   0.32930
gfz2014hetr  -0.32370
gfz2014heyq  -1.12020
gfz2014hfhl  -0.38610
gfz2014hgqo   0.82020
gfz2014hocg  -0.28700
gfz2014hrft  -0.91450
gfz2014hriu   0.90970
gfz2015jmlu  -0.88240
gfz2015jpap   0.02130
gfz2015jwgl  -0.64390
gfz2015jxjd  -0.46440
gfz2015jzcv  -0.18900
gfz2015kakw   0.28840
gfz2015kcaa   0.09760
gfz2015kfsu   1.44050
gfz2015kphk  -0.16670
