# Nsamples: 23  MAD:  0.454  mean: -0.307  variance:  0.297
gfz2010bowy  -0.08370
gfz2010bxxs  -0.43200
gfz2010grjd  -0.86130
gfz2013kdeo   0.45120
gfz2013nwdi  -1.81510
gfz2013svci   0.37380
gfz2014bwue  -0.24520
gfz2014fgvi  -0.60750
gfz2014fhla  -0.30110
gfz2014ftka  -0.14650
gfz2014fval  -0.59910
gfz2014gkgf  -1.14820
gfz2014gkqf  -0.87590
gfz2014gmnb  -0.01660
gfz2014goba  -0.44590
gfz2014gull   0.55150
gfz2014jjhc  -0.33300
gfz2014jpep  -0.42150
gfz2014nqfm  -0.63280
gfz2014qqhm   0.10790
gfz2014ssvz  -0.18010
gfz2014ubwn   0.25240
gfz2015cyjd   0.35420
