# Nsamples: 38  MAD:  0.448  mean: -0.184  variance:  0.389
gfz2010bxxs  -0.34060
gfz2010grjd  -1.66050
gfz2010iull  -0.16810
gfz2010nmpc  -0.45130
gfz2011aatr   0.14280
gfz2011enva  -0.54050
gfz2011gkzt   1.14540
gfz2011hlqw  -0.22770
gfz2011hlsa  -0.21740
gfz2011lcxq  -0.19830
gfz2011lzwj  -0.34100
gfz2011mdie   0.01860
gfz2011rewa  -0.37450
gfz2011toub   0.22020
gfz2011wxfs  -0.48260
gfz2012enno   0.67540
gfz2012jlox  -0.39130
gfz2012kkup   0.18170
gfz2012klhx   1.00520
gfz2012kudo  -0.17290
gfz2012teic   0.19180
gfz2013drxz   0.38160
gfz2013nwdi  -1.43760
gfz2013svci   0.13110
gfz2014bwue  -0.55000
gfz2014fgvi  -0.50890
gfz2014fhla  -1.40270
gfz2014ftka   0.05130
gfz2014gkgf  -0.35050
gfz2014gkqf  -0.87700
gfz2014gmnb  -0.51650
gfz2014goba  -0.04610
gfz2014hasj  -0.23490
gfz2014jjhc  -0.84010
gfz2014nqfm  -0.53300
gfz2014qqhm   0.37880
gfz2014ssvz   0.00970
gfz2015cyjd   1.34690
