# Nsamples: 16  MAD:  0.252  mean:  0.333  variance:  0.138
gfz2011enva  -0.21250
gfz2011hlsa   0.17250
gfz2011rewa   0.31880
gfz2011toub   0.10000
gfz2011wxfs   0.54340
gfz2012jlox   0.34150
gfz2012kkup   0.15880
gfz2012klhx   0.29980
gfz2012kudo   0.24820
gfz2012ldxg   1.12030
gfz2012ttoa   1.15300
gfz2012wypz   0.19500
gfz2013ccnr   0.08400
gfz2013drxz   0.58200
gfz2013jkut   0.43940
gfz2013nwdi  -0.22110
