# Nsamples: 43  MAD:  0.649  mean: -0.228  variance:  0.750
gfz2010bxxs  -1.29190
gfz2010ebhc  -0.79480
gfz2010iull  -0.24720
gfz2010nmpc   0.17710
gfz2011aatr  -0.87220
gfz2011enva   0.52370
gfz2011hlsa  -0.98280
gfz2011lcxq  -0.37910
gfz2011lzwj  -0.33680
gfz2011rewa  -0.74020
gfz2011toub  -0.97190
gfz2011wxfs  -0.46970
gfz2012enno  -0.71100
gfz2012jlox  -0.67930
gfz2012kkup  -1.18910
gfz2012klhx  -0.80610
gfz2012kuct  -1.01430
gfz2012kudo  -0.82520
gfz2012wypz  -0.60390
gfz2013jkut   0.06180
gfz2013nwdi  -0.64100
gfz2013svci  -0.29780
gfz2013ypdc   2.15880
gfz2014fgvi   0.03220
gfz2014fhla   0.66520
gfz2014ftka   0.77480
gfz2014gkgf  -0.16640
gfz2014gmge   1.50240
gfz2014gmhr  -1.78880
gfz2014gmnb   0.92350
gfz2014gmnw   0.41350
gfz2014goba   2.12080
gfz2014hhwx   1.05960
gfz2014jpep  -0.45930
gfz2014nqfm  -0.51850
gfz2014oinz  -0.79400
gfz2014ssvz  -1.06660
gfz2015chhn  -0.86900
gfz2015cyjd   0.67610
gfz2015fsjj  -0.24840
gfz2015lhjy  -0.49980
gfz2015snwh   0.29780
gfz2015svwm  -0.90760
