# Nsamples: 60  MAD:  0.462  mean: -0.043  variance:  0.817
gfz2010bxxs  -0.39210
gfz2010ebhc   0.29570
gfz2010grjd  -2.34850
gfz2010iull  -0.42800
gfz2010nmpc  -0.06810
gfz2010usho   1.16250
gfz2011aatr  -0.13580
gfz2011cfae   0.24810
gfz2011enva  -0.68520
gfz2011gkzt  -2.13940
gfz2011hlqw  -0.42030
gfz2011hlsa  -0.11150
gfz2011rewa   0.80940
gfz2012jlox  -0.42810
gfz2012kkup  -0.12540
gfz2012klhx   0.49620
gfz2012kudo  -0.25410
gfz2012ldxg   0.18170
gfz2012ldzj  -0.30340
gfz2012teic   0.96610
gfz2012vrgb   0.32150
gfz2012wypz   0.02710
gfz2012xcgk   1.76900
gfz2013drxz   0.57620
gfz2013jkut  -0.16960
gfz2013kdeo   0.63750
gfz2013nwdi  -0.94120
gfz2013pfbx   0.18400
gfz2013svci   0.04910
gfz2014afmx   0.73350
gfz2014ande  -3.13410
gfz2014bwue  -0.32700
gfz2014fgvi   0.14650
gfz2014fhla   0.17610
gfz2014fhwx  -0.49600
gfz2014ftka  -0.92630
gfz2014fval   0.02130
gfz2014gkgf  -1.02770
gfz2014gkhy   0.21430
gfz2014gkjt  -0.11380
gfz2014gkqf  -0.13830
gfz2014gltx  -0.11740
gfz2014gmnb  -0.40080
gfz2014gmvr   2.14160
gfz2014goba  -0.23990
gfz2014gull   0.08490
gfz2014hasj  -1.31810
gfz2014jjhc  -0.08610
gfz2014jpep   0.22940
gfz2014lxnc   0.22230
gfz2014nqfm  -0.55980
gfz2014qqhm   0.60940
gfz2014ssvz  -0.24750
gfz2014ubwn  -0.14250
gfz2015berb  -0.18720
gfz2015cyjd   1.40040
gfz2015lhjy  -0.40290
gfz2015mpte   0.04590
gfz2015pdri   2.64230
gfz2015taml  -0.15510
