# Nsamples: 1354  MAD:  0.526  mean:  0.043  variance:  0.639
gfz2010aerk   0.17140
gfz2010ahla  -0.40740
gfz2010ahqi   0.77030
gfz2010awfi   0.12080
gfz2010bfzs   0.60490
gfz2010bgth   0.60050
gfz2010bhhq  -0.53900
gfz2010bifb  -0.33790
gfz2010bjeb   0.12890
gfz2010bjjx  -0.00000
gfz2010bjsl  -1.10410
gfz2010bkob  -0.45760
gfz2010bowy   1.47450
gfz2010boxo   1.50390
gfz2010bpda  -0.74410
gfz2010caft  -0.53900
gfz2010cbkg  -0.47020
gfz2010cdbt   0.17110
gfz2010cjqh   1.04430
gfz2010ckeu   0.38220
gfz2010ckzm   0.64800
gfz2010cnwc  -1.35890
gfz2010cptb  -0.06590
gfz2010cqwl   0.02230
gfz2010ctuw  -0.04170
gfz2010czps   0.74130
gfz2010dtmx   0.77030
gfz2010dumm  -0.63000
gfz2010eaoy   0.40270
gfz2010eapk  -0.04460
gfz2010eapn  -4.07940
gfz2010eaqe   0.30660
gfz2010eaqx   0.48160
gfz2010eaqy   1.32520
gfz2010earq  -0.76840
gfz2010earu  -0.90930
gfz2010easf   0.31440
gfz2010eask   0.80300
gfz2010easo   0.14610
gfz2010easu  -0.24690
gfz2010eati   0.48930
gfz2010eato   0.17500
gfz2010eatt   0.82140
gfz2010eaty  -0.16830
gfz2010eaul   1.21380
gfz2010eavd   1.45680
gfz2010eavp  -0.60610
gfz2010eavs   0.71340
gfz2010eawb   0.56900
gfz2010eaxa  -0.10400
gfz2010eaya   0.54070
gfz2010eayd  -0.31370
gfz2010eayp   0.70350
gfz2010eayx  -0.53910
gfz2010eaze  -0.64820
gfz2010eazu  -0.15110
gfz2010ebbd  -0.49330
gfz2010ebbx  -2.57520
gfz2010ebby  -0.80190
gfz2010ebdl   0.59290
gfz2010ebeh   0.46510
gfz2010ebek  -0.10490
gfz2010ebfa  -0.40070
gfz2010ebfx  -0.39440
gfz2010ebgj  -0.97930
gfz2010ebhc   1.00360
gfz2010ebih   0.23850
gfz2010ebin  -0.29620
gfz2010ebiv  -0.32240
gfz2010ebjg  -0.60370
gfz2010ebjy   0.31510
gfz2010ebkj  -0.16240
gfz2010ebkx  -1.01190
gfz2010ebla  -0.47820
gfz2010ebll   0.52130
gfz2010ebmb   0.20810
gfz2010ebmi  -0.11470
gfz2010ebnn   0.15610
gfz2010ebqt   0.85540
gfz2010ebqz  -3.30970
gfz2010ebrm   0.22960
gfz2010ebsv   1.00240
gfz2010ebtk   0.33370
gfz2010ebvm   0.63910
gfz2010ebvv   0.21740
gfz2010ebwp   0.34910
gfz2010ebxl  -0.21460
gfz2010ebzk  -0.62950
gfz2010ebzr   0.04940
gfz2010ecam  -0.27480
gfz2010ecay  -1.04590
gfz2010ecbi   0.47480
gfz2010eced   0.35940
gfz2010ecft   0.06450
gfz2010echc  -0.34070
gfz2010echt  -0.69530
gfz2010echy   0.20060
gfz2010ecka  -0.49690
gfz2010ecls   0.67300
gfz2010ecnm   0.53710
gfz2010ecns   0.39470
gfz2010ecpg  -0.50830
gfz2010ecps   0.04030
gfz2010ecsp   0.37550
gfz2010ectq   0.07540
gfz2010ecua   0.27770
gfz2010ecuv   0.13330
gfz2010ecvt   0.48050
gfz2010edad  -1.16240
gfz2010edat   0.08090
gfz2010eday  -1.42080
gfz2010edbz   0.24070
gfz2010edcp  -0.56680
gfz2010edde   0.17620
gfz2010edhr  -0.25640
gfz2010edhv   0.10830
gfz2010edim   0.02200
gfz2010edji  -0.01010
gfz2010edkp  -0.01890
gfz2010edpb  -1.01160
gfz2010edqh   0.49610
gfz2010edsk   0.06680
gfz2010edsn   0.84820
gfz2010edvf   0.12790
gfz2010edyi  -0.93390
gfz2010edzb  -0.69010
gfz2010eedz   0.42910
gfz2010eeia  -2.61550
gfz2010eeij   0.92810
gfz2010eekg  -0.48820
gfz2010eekq  -0.43660
gfz2010eell   0.81920
gfz2010eeng   0.27700
gfz2010eeqy  -1.03540
gfz2010eerh  -0.47850
gfz2010eern   0.11360
gfz2010eesf   0.08550
gfz2010eevu   0.35150
gfz2010eexz  -0.23580
gfz2010eeyh   0.67700
gfz2010efak  -0.02080
gfz2010efnf  -0.13240
gfz2010efsq   0.31100
gfz2010efwo   1.24030
gfz2010efxf  -0.35970
gfz2010egap   2.00200
gfz2010eghq  -0.49750
gfz2010egld   0.35420
gfz2010egmp  -0.57150
gfz2010egqh  -0.92550
gfz2010egsw  -0.23060
gfz2010egsy   1.03380
gfz2010egyy  -0.34480
gfz2010ehaj  -0.16380
gfz2010eher  -0.71290
gfz2010ehft   0.35550
gfz2010ehsy  -0.02410
gfz2010ehxz  -0.96960
gfz2010eimf  -0.00000
gfz2010eiqi   0.96530
gfz2010eisx   0.10660
gfz2010eixj   0.43030
gfz2010ejae   0.04940
gfz2010ejju  -0.49680
gfz2010ejka  -0.30770
gfz2010ejma   0.28610
gfz2010ejxf  -0.41220
gfz2010ekaw   0.82320
gfz2010ekyc   0.15830
gfz2010elhv  -0.21530
gfz2010elin   2.00180
gfz2010elsw  -0.13260
gfz2010eltf   0.62690
gfz2010elvp  -0.20130
gfz2010elyc   0.27890
gfz2010elyo  -0.41520
gfz2010elzf  -0.66020
gfz2010elzl  -0.02460
gfz2010enpa   2.54590
gfz2010eoao   0.35500
gfz2010eomb   0.32850
gfz2010epbe  -0.02210
gfz2010epud   0.33790
gfz2010epxj   0.05320
gfz2010epzk  -0.25120
gfz2010eqjg   0.25650
gfz2010eqmu  -1.34010
gfz2010erda   0.00000
gfz2010erdi   0.64940
gfz2010erkn   0.71960
gfz2010erna  -0.74600
gfz2010erom   0.00000
gfz2010eruy  -0.16240
gfz2010erwn   0.56660
gfz2010erxk   0.07250
gfz2010eryg   0.77490
gfz2010eted   5.41850
gfz2010euae   0.40990
gfz2010euan   0.67490
gfz2010euii   0.95950
gfz2010eujm   0.14080
gfz2010evco   0.46070
gfz2010evgf   0.11490
gfz2010evkd   0.15770
gfz2010ewbc  -0.85520
gfz2010ewvc   0.28110
gfz2010ewyu  -0.18340
gfz2010excp   0.51550
gfz2010exdd  -0.77990
gfz2010exdl  -0.61030
gfz2010exed  -0.16840
gfz2010exel  -0.38100
gfz2010exfb  -0.59430
gfz2010exgb  -0.39990
gfz2010exhd  -0.54500
gfz2010exhw   0.21360
gfz2010exjw   0.17190
gfz2010exmc  -0.05570
gfz2010exno   0.35050
gfz2010exqu   0.02080
gfz2010exts   0.06700
gfz2010eyaz   0.01930
gfz2010eymr   1.81120
gfz2010eymx  -0.63940
gfz2010eyvq   0.49240
gfz2010eyxe   0.00000
gfz2010ezax   0.06330
gfz2010ezck   0.14650
gfz2010ezjk   0.08490
gfz2010ezvt   0.43170
gfz2010ezwz   0.16560
gfz2010ezxd  -0.08660
gfz2010falm  -0.46830
gfz2010fauz   4.41870
gfz2010faxg   1.45350
gfz2010fbeu  -0.30150
gfz2010fcax  -0.05170
gfz2010fcdw  -0.49830
gfz2010fcxy   1.00140
gfz2010fcyj   0.42620
gfz2010fczt   0.27960
gfz2010fdxr  -0.19240
gfz2010fedq   0.12340
gfz2010ffhq   0.42080
gfz2010ffjb  -0.18940
gfz2010figq   0.66300
gfz2010fika  -0.86430
gfz2010fixr  -0.16640
gfz2010fjas  -1.22630
gfz2010fkhd  -0.26940
gfz2010fknh   0.56340
gfz2010flha   0.25400
gfz2010floi  -0.02020
gfz2010flrt   0.42130
gfz2010flxi  -0.30110
gfz2010fmhb   0.42400
gfz2010fmip  -0.45150
gfz2010fmpy  -0.72630
gfz2010fnrk  -1.54660
gfz2010fpqy   0.11270
gfz2010fqdu  -1.22040
gfz2010fser   0.06150
gfz2010fsth   0.53200
gfz2010ftlm  -0.29060
gfz2010fupn   0.20040
gfz2010fuuy  -0.43870
gfz2010fuwa   0.30050
gfz2010fvuc  -0.38050
gfz2010fwkk   0.73940
gfz2010fwlb  -0.08530
gfz2010fwny  -1.32740
gfz2010fwpv  -1.78510
gfz2010fwzd   0.06010
gfz2010fyen  -0.15000
gfz2010fync   0.69310
gfz2010fzoi  -0.00000
gfz2010fzsg   2.74540
gfz2010gcdn   0.00000
gfz2010gcrl   0.25290
gfz2010gcrp   0.09560
gfz2010gdld  -0.07370
gfz2010gjvo  -0.23680
gfz2010glqr   6.25750
gfz2010govu  -3.00340
gfz2010grjd  -0.36350
gfz2010grss   0.12300
gfz2010gtzt  -0.92860
gfz2010gyqp   1.82210
gfz2010gzxr  -0.20500
gfz2010hbka  -0.86100
gfz2010hevz   0.81090
gfz2010hgld  -0.58600
gfz2010hhls   0.21740
gfz2010hjoc  -0.70040
gfz2010hlco   0.06900
gfz2010hllj   0.70000
gfz2010hlmq   0.60920
gfz2010hmhm   0.29530
gfz2010hnnf  -0.13400
gfz2010hnpi   0.32040
gfz2010hnzr   0.07330
gfz2010homc  -0.26760
gfz2010hptz   0.54120
gfz2010hrkr  -0.12750
gfz2010hufk   0.37150
gfz2010hxgv   0.21910
gfz2010hxhe  -0.17410
gfz2010ibiy   0.04670
gfz2010icqq  -0.51860
gfz2010iibf  -0.66130
gfz2010imfv   0.40580
gfz2010iobp   0.46830
gfz2010iqep   0.10110
gfz2010iqfm   5.74230
gfz2010iqus  -1.19840
gfz2010irqr  -0.88870
gfz2010irvf  -0.12710
gfz2010ited   0.57820
gfz2010iull   0.76400
gfz2010izzj   0.35710
gfz2010jagd   0.94760
gfz2010jatq  -0.71710
gfz2010jlhj  -0.17650
gfz2010jpyj  -0.22980
gfz2010jucj  -0.31310
gfz2010jwpy   0.12390
gfz2010jxbm   0.71010
gfz2010kdyc  -0.33400
gfz2010kmgg   0.00000
gfz2010lcoq   2.34710
gfz2010lczp   3.60550
gfz2010lfju   0.15150
gfz2010lgwy   0.17370
gfz2010lkcf  -0.23960
gfz2010lopz   0.41180
gfz2010lrlk  -0.68710
gfz2010lruw   0.24080
gfz2010mant   0.36710
gfz2010mcrx  -0.58350
gfz2010mdpq   0.45990
gfz2010miil  -0.56780
gfz2010mipi  -0.82950
gfz2010mkuu  -0.19820
gfz2010mlta   0.32680
gfz2010mncc   0.06070
gfz2010moyw   0.45650
gfz2010mpuy   0.22540
gfz2010mwdq   0.19520
gfz2010ncrl  -0.17290
gfz2010nfsj   0.46540
gfz2010nmpc   0.31420
gfz2010nnny   1.21990
gfz2010nqwf   0.01960
gfz2010nqwo   0.78360
gfz2010nrjo  -0.14070
gfz2010ntuo   0.17360
gfz2010nubk  -0.29300
gfz2010nwef   0.31550
gfz2010nxsy   0.66960
gfz2010ocxq  -0.48510
gfz2010odpb  -0.62800
gfz2010oedn   1.02760
gfz2010onma  -0.61490
gfz2010osjs  -1.40120
gfz2010osqo   0.11990
gfz2010pbdz  -0.56690
gfz2010pcxi   0.15110
gfz2010pewx  -0.82990
gfz2010pexf   0.50100
gfz2010pfyu  -0.17710
gfz2010phvg  -0.35150
gfz2010pmqd   0.11790
gfz2010pxgh   0.45760
gfz2010qpcq  -0.51500
gfz2010qttw   0.03180
gfz2010rlbv  -0.36480
gfz2010rqwj   0.04980
gfz2010rxjw  -0.12360
gfz2010rywq  -0.12470
gfz2010sfee  -0.03110
gfz2010sfla   0.15670
gfz2010skqo  -0.78930
gfz2010skve  -0.44320
gfz2010srdb   0.10810
gfz2010svtn  -0.24300
gfz2010swcy  -0.08550
gfz2010sxfq   0.30510
gfz2010szim  -0.27420
gfz2010tcbr  -0.13490
gfz2010tcrl  -0.03850
gfz2010tlfm   0.21020
gfz2010tzzk   0.16160
gfz2010uept   1.41020
gfz2010upfb  -0.04330
gfz2010upiw  -0.39330
gfz2010urlq  -0.52520
gfz2010usho  -0.27550
gfz2010ustq   0.19020
gfz2010utcg   0.10880
gfz2010utmc  -0.28720
gfz2010utvp  -0.13760
gfz2010vhuj   0.13560
gfz2010vppc  -0.40860
gfz2010vtdg  -1.13400
gfz2010vxvs  -1.75130
gfz2010vyxd  -0.64700
gfz2010vzpr  -0.39940
gfz2010wnty  -0.75740
gfz2010wofs   0.12050
gfz2010wrxx   0.22210
gfz2010xbgs  -0.03830
gfz2010xden  -0.48540
gfz2010xgzw  -0.72760
gfz2010xjck  -0.44430
gfz2010xjsj  -0.49730
gfz2010xnxk  -0.31020
gfz2010yjev  -0.32490
gfz2010ymfy  -0.06970
gfz2010yosr  -0.34500
gfz2010yoyx  -0.04000
gfz2011aatr   1.40330
gfz2011adjs   0.00000
gfz2011adlj  -0.01930
gfz2011adne  -1.31850
gfz2011adpw  -0.38400
gfz2011adqk   1.03640
gfz2011aeay   0.90610
gfz2011aldv   0.47420
gfz2011alip  -0.28250
gfz2011alsa  -1.03830
gfz2011anur  -1.20680
gfz2011aosc  -0.51990
gfz2011blsi   0.05960
gfz2011cfae   0.80530
gfz2011cndo  -0.58000
gfz2011coxh   0.29350
gfz2011crdy  -0.72050
gfz2011csju   0.10260
gfz2011cvcg   0.50600
gfz2011cvfg  -0.43290
gfz2011cykd   0.40240
gfz2011cylz   0.43970
gfz2011cynl  -0.17830
gfz2011cyre   0.22060
gfz2011cyuk   0.78220
gfz2011czwj   0.44180
gfz2011dbev   0.39020
gfz2011dbig   0.46070
gfz2011dbon   0.01620
gfz2011dbwt   0.28120
gfz2011dcqb   0.36200
gfz2011dcqf   0.92610
gfz2011dddh   3.11210
gfz2011deaf  -0.76440
gfz2011dkyi  -0.19230
gfz2011dlyx   0.11430
gfz2011dndz  -0.27130
gfz2011dpaa  -0.13030
gfz2011dpqx   1.57060
gfz2011dtpy  -0.42630
gfz2011duyr   0.02870
gfz2011eayc  -0.08030
gfz2011eazf  -0.12340
gfz2011ecaj   0.03550
gfz2011edmm   1.11970
gfz2011efgv  -0.33810
gfz2011ehzq  -0.02510
gfz2011eiis  -0.26620
gfz2011ekpr  -0.34790
gfz2011eltw   0.18970
gfz2011enva   0.12580
gfz2011etje   0.53330
gfz2011fgvr  -0.04360
gfz2011fhag  -0.15220
gfz2011fhur  -0.35020
gfz2011fkbn   0.60610
gfz2011flgj  -0.08520
gfz2011flhp  -0.59810
gfz2011gbmx  -0.09970
gfz2011gcwb  -0.29250
gfz2011gdgh  -0.44490
gfz2011ghky  -0.39570
gfz2011gjlx  -0.28290
gfz2011gkzt  -1.03870
gfz2011haid   0.18030
gfz2011hbex   0.87130
gfz2011hbqk  -0.03700
gfz2011hfkj  -0.23220
gfz2011hlqw  -0.11510
gfz2011hlsa   0.48560
gfz2011hlth  -0.07360
gfz2011hpqp   0.06020
gfz2011hvbu   0.07580
gfz2011iwte   0.47920
gfz2011izqa  -0.29470
gfz2011jdsj  -0.44670
gfz2011jghb  -1.16080
gfz2011jplh   0.99870
gfz2011jtlg   0.19690
gfz2011jxpl   4.28920
gfz2011knoo  -0.16520
gfz2011kqwo   0.35860
gfz2011kqyg   0.76460
gfz2011kwjx   0.10600
gfz2011kwkw   0.44540
gfz2011kxzp   0.57740
gfz2011lcxq   0.89350
gfz2011lczg  -0.32320
gfz2011lhls  -0.23850
gfz2011lvjr   0.32650
gfz2011lzwj   1.29490
gfz2011mdie  -0.77450
gfz2011mjom  -0.23110
gfz2011mpme   1.45020
gfz2011nauw  -0.73560
gfz2011nmnq  -0.06140
gfz2011noud   0.22490
gfz2011ntkh   0.22590
gfz2011nudm  -0.35210
gfz2011ohcy   0.39290
gfz2011oiqe   0.63320
gfz2011oiwk   0.81800
gfz2011olkk   0.24210
gfz2011orgn   0.10530
gfz2011ornx  -0.03130
gfz2011owvz  -0.67150
gfz2011phms   0.26790
gfz2011qvae   0.00970
gfz2011rewa   0.32670
gfz2011rqui  -0.07770
gfz2011sagt  -0.05380
gfz2011sawg  -0.01830
gfz2011tbas   1.08590
gfz2011tcij   0.38430
gfz2011tjrf  -0.45560
gfz2011tjue  -0.17420
gfz2011tkfp  -0.34680
gfz2011tkog   0.07260
gfz2011toub   1.55340
gfz2011tpbl  -0.74420
gfz2011tpfr   0.26790
gfz2011tuea  -0.23310
gfz2011udsq  -0.31470
gfz2011ueni  -0.65760
gfz2011ugzz  -0.63080
gfz2011ujze  -0.69830
gfz2011ukmp  -0.70830
gfz2011uphh  -0.48380
gfz2011urxy  -0.67550
gfz2011urzu  -0.61250
gfz2011vhfi   0.09680
gfz2011vnza   1.78870
gfz2011vrhg   0.60330
gfz2011vxns   0.15990
gfz2011vxod  -0.07840
gfz2011wcic  -0.74890
gfz2011wjul   0.54970
gfz2011wvzb   0.36490
gfz2011wxfs   0.96740
gfz2011wxoj  -0.26860
gfz2011xcpv   0.21060
gfz2011xesx  -0.15370
gfz2011xyxj   0.01900
gfz2011yfys  -0.50490
gfz2011yhwz  -0.77700
gfz2011yybo   0.29880
gfz2011yzwq  -0.04070
gfz2011zklv  -0.38940
gfz2011zqhh   0.11320
gfz2012ablh  -1.29830
gfz2012ajtq   0.64410
gfz2012aqgp  -0.19700
gfz2012attr  -0.42910
gfz2012bfah   0.12630
gfz2012bfyn   0.67180
gfz2012bpkx   0.18330
gfz2012bszs   0.40550
gfz2012byad  -0.51890
gfz2012cgvr  -0.03710
gfz2012cnod  -0.03970
gfz2012cqnl   1.50440
gfz2012cxdn  -0.06440
gfz2012czlw   0.27750
gfz2012ddma  -0.01150
gfz2012deri   0.73810
gfz2012dinb   1.26110
gfz2012dyyh  -0.84290
gfz2012enno   0.77720
gfz2012ewgo  -0.54220
gfz2012fbfo  -0.80770
gfz2012fivh  -1.10460
gfz2012foeo  -0.75670
gfz2012fwob   0.68840
gfz2012fzfa   0.62010
gfz2012glss   0.04330
gfz2012gocc   3.64230
gfz2012gomm  -0.67900
gfz2012gwqb  -0.46680
gfz2012hnul  -0.32260
gfz2012hnuw   0.53260
gfz2012ihdl  -0.44360
gfz2012ilvn  -0.50910
gfz2012ilxh  -0.05580
gfz2012imay   0.00000
gfz2012imbd   0.18910
gfz2012intn   0.24700
gfz2012iyrb   1.13490
gfz2012jgvj   0.77120
gfz2012jlox   0.86280
gfz2012jshk  -0.17100
gfz2012jupx   0.11580
gfz2012keor  -0.08830
gfz2012kkcp  -0.42610
gfz2012kkup   0.25290
gfz2012klba   0.38340
gfz2012klhx   0.59530
gfz2012kuct   1.10080
gfz2012kudo   1.09950
gfz2012kvzv  -0.03510
gfz2012kwgo   0.00000
gfz2012ldxg  -0.00420
gfz2012ldzj  -0.05840
gfz2012llug   1.29990
gfz2012lpvn   0.06190
gfz2012lxkv   0.61740
gfz2012lzmr  -0.25140
gfz2012minr  -0.29350
gfz2012mtiu   0.24260
gfz2012mupa   0.08490
gfz2012mwij  -0.37060
gfz2012naqz   0.14310
gfz2012nedn  -0.76660
gfz2012ngic  -0.06310
gfz2012nqnk  -0.08140
gfz2012nsbz  -0.50620
gfz2012oazn   0.33860
gfz2012ostk  -0.54840
gfz2012pciw   0.71170
gfz2012pkel   0.29930
gfz2012pofl  -1.28440
gfz2012pqmu   3.73650
gfz2012qjhs   0.18670
gfz2012quso  -0.64410
gfz2012rats   0.45620
gfz2012repv  -0.92310
gfz2012ronz   0.11720
gfz2012royy   0.24270
gfz2012rqlg   1.31910
gfz2012ruks   0.21850
gfz2012rwko  -0.20900
gfz2012rwov   0.73480
gfz2012spbj   0.21210
gfz2012sphd   0.90560
gfz2012sqvi  -1.38420
gfz2012syvl   0.15760
gfz2012teic  -0.19280
gfz2012thfx  -0.21930
gfz2012ttoa   0.16340
gfz2012tvmv   0.84090
gfz2012tzcc   0.16050
gfz2012uafg   0.54340
gfz2012uaqj   0.42270
gfz2012uhup   1.17900
gfz2012uqzp  -0.44580
gfz2012usba  -0.82680
gfz2012uvqf   0.52280
gfz2012uyie   0.31870
gfz2012uzom  -0.10250
gfz2012uzyj  -1.85480
gfz2012wklq   0.08380
gfz2012wmkd  -0.07310
gfz2012wmsg  -0.79460
gfz2012wtkh  -1.29930
gfz2012wtkr   0.05810
gfz2012wxlg  -0.60790
gfz2012wypz   0.54170
gfz2012xgqm   0.42660
gfz2012xyqp  -0.29980
gfz2012xyua  -1.41130
gfz2012yfrp  -0.55470
gfz2012yldu  -0.06280
gfz2012yqjj   0.31140
gfz2012yxxu   0.02060
gfz2012yzod  -0.53920
gfz2012zemz  -0.89960
gfz2012ziml   2.61560
gfz2012zitl  -0.24830
gfz2012zjpv   0.72850
gfz2012zmln   0.30510
gfz2013aahq  -0.22320
gfz2013aayj  -0.02460
gfz2013acag   0.19070
gfz2013adey   0.46510
gfz2013aeee   0.56990
gfz2013aknp  -0.28880
gfz2013apmm   0.45990
gfz2013aqaw   0.07700
gfz2013bnxc  -0.10730
gfz2013bobq  -0.74290
gfz2013bokp   0.11010
gfz2013bouj  -0.11470
gfz2013btjm   2.29510
gfz2013bzzm   0.34880
gfz2013ccnr   0.79670
gfz2013cdan  -0.21750
gfz2013ciaf  -0.49590
gfz2013cwpn  -0.02060
gfz2013cwps  -0.37150
gfz2013czeq  -1.30410
gfz2013dddp  -0.28590
gfz2013dkly  -0.24480
gfz2013dkmz  -1.03360
gfz2013dnnx   0.44970
gfz2013dofo  -1.24570
gfz2013dojq  -0.29880
gfz2013dqls  -0.86660
gfz2013drpk  -0.12490
gfz2013drxz   0.15910
gfz2013dsog  -0.04720
gfz2013dspt  -1.49660
gfz2013dsrk  -1.18780
gfz2013dujm  -0.29420
gfz2013dvyh   1.91290
gfz2013egni  -0.04810
gfz2013ehwe   0.38030
gfz2013enbx   1.63120
gfz2013ewbo  -0.28420
gfz2013figy   1.93690
gfz2013fiud  -0.70450
gfz2013fkcl  -0.41010
gfz2013fkii   0.13190
gfz2013flox  -0.03670
gfz2013fwxa  -0.34740
gfz2013fxge  -0.12190
gfz2013fygc  -0.51360
gfz2013gbcn  -0.43810
gfz2013gbst  -0.10030
gfz2013gcfx  -0.35730
gfz2013gdnq   0.22330
gfz2013geia  -0.12560
gfz2013gelv  -4.09380
gfz2013ggtf  -0.14940
gfz2013gmor  -0.04600
gfz2013gngz  -0.24600
gfz2013gnse  -0.37290
gfz2013goux  -0.97100
gfz2013gvdb   1.12580
gfz2013gvet  -0.61110
gfz2013hbkq   1.05240
gfz2013hfmp   0.20760
gfz2013hisv  -0.06240
gfz2013hkja  -0.70420
gfz2013hudi  -0.39920
gfz2013hydf  -0.19790
gfz2013idbb   0.10390
gfz2013iexo   0.32540
gfz2013ifpq   0.05390
gfz2013ihcj  -0.11350
gfz2013ikgo  -0.41600
gfz2013inux  -0.03440
gfz2013iodt  -0.27710
gfz2013ippu   1.12200
gfz2013iunn  -1.11050
gfz2013iyqz   0.21550
gfz2013jdrx  -0.89320
gfz2013jesk  -0.90380
gfz2013jgij  -0.49260
gfz2013jgip   0.68220
gfz2013jkut   0.49460
gfz2013jmcc   3.36770
gfz2013json   0.23080
gfz2013jusj   0.59860
gfz2013jwvc   0.31510
gfz2013kdeo  -0.42160
gfz2013kheb   0.40860
gfz2013kvtk  -1.20060
gfz2013kweg  -0.28280
gfz2013ldpc   0.52580
gfz2013ldqb   0.05020
gfz2013lgbb   0.09770
gfz2013lixa  -0.15090
gfz2013lljw  -0.63720
gfz2013lxyn   0.54590
gfz2013lyko  -0.23170
gfz2013mmlw  -0.03590
gfz2013mqmv   0.91980
gfz2013mtqd  -0.30230
gfz2013mwbh   0.49550
gfz2013nabl  -0.15050
gfz2013ncjp  -0.07730
gfz2013ndin   0.24880
gfz2013nfwx   0.35070
gfz2013nixj   0.20560
gfz2013nkgj  -0.18130
gfz2013nknw   0.02120
gfz2013nnzf   0.05910
gfz2013nojf  -0.31310
gfz2013npcg  -0.96430
gfz2013nwdi   0.97970
gfz2013ogde  -0.03730
gfz2013ozku   0.03560
gfz2013ozrf  -0.32710
gfz2013pfbx   0.31370
gfz2013pfeb  -0.47270
gfz2013pffm  -0.02980
gfz2013pfnf  -0.12260
gfz2013puag  -0.38420
gfz2013pxsj  -0.26370
gfz2013qali   1.24540
gfz2013qcck  -0.68550
gfz2013qmer   0.55100
gfz2013qqrr   0.03910
gfz2013qzdq  -1.14470
gfz2013roki   0.41960
gfz2013scai   0.23660
gfz2013sdus  -0.53730
gfz2013sebq   0.00000
gfz2013shzy   0.00900
gfz2013skkm  -1.19440
gfz2013snbr  -0.27180
gfz2013sred  -0.32170
gfz2013svci   0.72800
gfz2013tcxc  -0.66300
gfz2013tcxq  -0.67000
gfz2013tdau  -0.91850
gfz2013tlaf  -0.46220
gfz2013toxf   0.86210
gfz2013tusd  -0.09050
gfz2013txij  -0.20450
gfz2013uauo  -0.68710
gfz2013ufku  -0.11070
gfz2013ufxm  -0.80170
gfz2013uhlm  -0.04880
gfz2013uqsp   0.21750
gfz2013utsh   0.12750
gfz2013vexx  -0.32540
gfz2013vfyw  -0.36710
gfz2013vfzp  -0.20830
gfz2013vgev  -0.72250
gfz2013viul   0.51460
gfz2013vjfe   0.52850
gfz2013vjjc  -0.15210
gfz2013vzbo  -0.03680
gfz2013wjmm   0.87090
gfz2013wkyk   1.01840
gfz2013wrgw  -0.77550
gfz2013wtzl  -0.10820
gfz2013xgek   0.25900
gfz2013xgmp  -0.54920
gfz2013xsdt   0.46350
gfz2013xtwj   4.04510
gfz2013xvqd   0.55520
gfz2013xwda  -0.54620
gfz2013xxcc  -0.16390
gfz2013xxwv  -0.31120
gfz2013xxxq  -0.50220
gfz2013xyzb  -0.17100
gfz2013xzcg  -0.53230
gfz2013yach  -0.47360
gfz2013yaig  -0.59570
gfz2013yctg  -0.18700
gfz2013yhbu   0.66330
gfz2013yhpk   1.01840
gfz2013ymky   0.31240
gfz2013ynmw  -0.47040
gfz2013ypdc  -0.23670
gfz2013yqkv   0.67710
gfz2013yyhc  -0.79610
gfz2013zfhu  -0.43920
gfz2013ziyr   0.48700
gfz2013zjtw   0.11250
gfz2013zmoc  -0.58000
gfz2013zmtb   0.23250
gfz2014adoj  -0.27520
gfz2014afmx   0.15400
gfz2014afyp  -0.66590
gfz2014agrl  -0.75240
gfz2014ajlk   0.46970
gfz2014algk  -0.62470
gfz2014alwz   0.18670
gfz2014amsb  -0.99780
gfz2014ande   0.10820
gfz2014aqbk  -0.74570
gfz2014arpf  -1.47560
gfz2014arqr   0.26590
gfz2014bhvd   0.05660
gfz2014bjgt  -0.22820
gfz2014bldx  -0.36920
gfz2014bmfv  -0.01810
gfz2014bmta  -0.23990
gfz2014bwue   0.85780
gfz2014bzxy   0.18310
gfz2014caop   0.84750
gfz2014capn  -0.06680
gfz2014cbtl  -0.15040
gfz2014cgog  -0.54780
gfz2014chdv  -0.07260
gfz2014claq  -0.69780
gfz2014clnq  -0.24850
gfz2014cmwb  -0.17870
gfz2014ctot   0.00680
gfz2014cueu  -1.04570
gfz2014cvkm  -0.86690
gfz2014cvxx   0.21490
gfz2014czno   0.66350
gfz2014czol  -0.20170
gfz2014czqi  -0.23670
gfz2014czua   0.01370
gfz2014dbyx  -0.27970
gfz2014dddc   0.03460
gfz2014dffd   0.61850
gfz2014dhxt   0.25850
gfz2014disp   0.23560
gfz2014dpzx   0.00000
gfz2014duqn  -0.07220
gfz2014efkk  -0.61970
gfz2014eght   1.67800
gfz2014ehfp   2.57750
gfz2014ehsf   0.15870
gfz2014ejmt   0.41050
gfz2014ekcr  -0.05250
gfz2014ekdn  -0.22060
gfz2014ekdt   0.75870
gfz2014emrg  -0.88660
gfz2014enhi   0.39230
gfz2014eqpl  -1.53000
gfz2014etqa  -0.28740
gfz2014ettc  -0.68910
gfz2014exxa  -0.64900
gfz2014ezgb  -0.84110
gfz2014fcms   0.12590
gfz2014fcsy   0.49520
gfz2014fedd  -0.81730
gfz2014femz  -0.45500
gfz2014fexu  -0.59120
gfz2014ffdc  -1.47780
gfz2014fgvi   0.64940
gfz2014fgvz   0.12730
gfz2014fhdw  -0.06590
gfz2014fhla  -0.73420
gfz2014fhrq  -0.67250
gfz2014fhwx  -0.24200
gfz2014fhxm   0.19110
gfz2014fimn   0.41550
gfz2014fjdz   1.05010
gfz2014fjzd   0.80810
gfz2014fkmr  -0.02270
gfz2014fkmx  -0.11120
gfz2014fnyg  -0.16460
gfz2014fqpz   0.08610
gfz2014frdz   0.46840
gfz2014frez  -0.53550
gfz2014frfl  -0.63710
gfz2014frwh  -0.33630
gfz2014fsuh  -0.47230
gfz2014ftka  -0.71830
gfz2014ftoc   0.20600
gfz2014ftrk   0.05490
gfz2014furx   0.03560
gfz2014fusc  -0.66150
gfz2014fusj  -0.01770
gfz2014fuub  -0.39010
gfz2014fvaa  -0.72790
gfz2014fval  -0.15450
gfz2014fvgh   0.21520
gfz2014fvjl   0.12580
gfz2014fvrg  -0.46970
gfz2014fwtt   0.09310
gfz2014fxhd   1.97480
gfz2014gbcz   0.37750
gfz2014gbdq  -0.35600
gfz2014ghpe  -0.31770
gfz2014gkgf  -0.72880
gfz2014gkgs  -0.64990
gfz2014gkhy   0.74360
gfz2014gkjl  -0.02150
gfz2014gkjt   0.15850
gfz2014gkmm   0.47280
gfz2014gkob   0.24290
gfz2014gkqf   0.09070
gfz2014gkqu   0.43390
gfz2014gksj   0.16890
gfz2014gksu   0.24500
gfz2014gktq   0.75150
gfz2014gkxm  -2.25780
gfz2014glcu   0.52380
gfz2014glcy   0.14930
gfz2014glgo   1.77110
gfz2014glhs  -0.15620
gfz2014gltx   0.32130
gfz2014glvn   2.90190
gfz2014gmci  -0.93720
gfz2014gmes   0.30510
gfz2014gmge   0.05900
gfz2014gmhr  -0.52870
gfz2014gmip   0.50040
gfz2014gmjo  -0.26190
gfz2014gmnb   0.26850
gfz2014gmnw   0.09330
gfz2014gmzl   0.13570
gfz2014gnfd   0.17670
gfz2014gnfs  -0.16820
gfz2014goba   0.47620
gfz2014gogv   0.01210
gfz2014goqw   0.13810
gfz2014gori   0.27040
gfz2014gpbx   0.01680
gfz2014gpce  -0.48810
gfz2014gpya   0.26460
gfz2014gqbj   0.28140
gfz2014gqer   1.91360
gfz2014gqve   0.33060
gfz2014grho  -0.64260
gfz2014gsqs   0.20870
gfz2014gtef   2.39430
gfz2014gtlu   1.03570
gfz2014gull  -0.25280
gfz2014gulp  -0.51730
gfz2014gvqj   0.16190
gfz2014gwab  -1.55100
gfz2014gwgf  -0.54660
gfz2014gwqj  -0.55070
gfz2014gxxo   0.01230
gfz2014hasj   0.08390
gfz2014hauo   0.41130
gfz2014hbqb   0.13740
gfz2014hcmj   0.66970
gfz2014heyq   0.11510
gfz2014hfhl   0.09390
gfz2014hgqo   0.51190
gfz2014hhwx  -0.25600
gfz2014hifp  -0.01200
gfz2014hjgh  -2.88100
gfz2014hjgr   0.27520
gfz2014hjij   0.06730
gfz2014hjlx  -0.00000
gfz2014hlib   0.07440
gfz2014hmzg  -0.07850
gfz2014hocg   0.81510
gfz2014hqxs   0.20800
gfz2014hrft   0.59790
gfz2014hriu  -0.16560
gfz2014hscz   0.29140
gfz2014huaj  -0.28790
gfz2014hyal  -0.43070
gfz2014hymr   0.27330
gfz2014hyvq  -0.19370
gfz2014hzdy   0.11790
gfz2014hzfr   0.03860
gfz2014hzfw   0.06910
gfz2014ifzj   0.32540
gfz2014ikun  -0.35400
gfz2014ilwu  -0.40440
gfz2014inbj   0.31450
gfz2014iobd   0.11910
gfz2014itkw   0.93470
gfz2014itpj   0.10870
gfz2014jatq  -0.21130
gfz2014jbyg   0.27230
gfz2014jcmt   0.26420
gfz2014jfis  -0.16990
gfz2014jggm  -0.21640
gfz2014jhra   0.11480
gfz2014jipr  -0.03750
gfz2014jjhc  -0.19970
gfz2014jjln  -0.09680
gfz2014jlwb   0.26120
gfz2014jmnk  -0.15030
gfz2014jnyv   0.07270
gfz2014jpep   0.12890
gfz2014jpxs  -0.74300
gfz2014jvow  -0.20170
gfz2014jwmh  -0.01320
gfz2014kara   0.08240
gfz2014khlk   0.13710
gfz2014kitm   0.24350
gfz2014kjjq   0.00000
gfz2014kndc   0.31230
gfz2014knks   0.62620
gfz2014ksdv  -0.14180
gfz2014kssw  -0.16130
gfz2014lbcq   2.17920
gfz2014lbxn  -0.40830
gfz2014ldhu   0.03810
gfz2014lefs   0.20560
gfz2014lgqn   0.79720
gfz2014lhqn   0.02020
gfz2014lkyf  -0.34890
gfz2014lpim   0.73140
gfz2014lxnc  -0.09760
gfz2014lyhk   0.13810
gfz2014lyhp  -0.19920
gfz2014macx   0.24190
gfz2014madw   0.20780
gfz2014myqz  -1.91930
gfz2014ncub   1.49240
gfz2014ndue  -0.09820
gfz2014ngnd  -0.17850
gfz2014ngsk  -1.30110
gfz2014nnih  -0.15220
gfz2014nowp  -0.81590
gfz2014npdk  -0.20390
gfz2014npeo   0.52220
gfz2014nphm   0.50290
gfz2014nqfm   0.41190
gfz2014nrie   0.48850
gfz2014ntdh   1.90030
gfz2014oinz   0.47930
gfz2014osvz   1.15050
gfz2014oxcc   0.12280
gfz2014pjer  -0.22720
gfz2014poap  -0.68440
gfz2014ppyi  -0.49180
gfz2014pvch   0.17690
gfz2014pzni   0.45440
gfz2014qdog  -1.26860
gfz2014qlxd   0.73320
gfz2014qngj  -0.71150
gfz2014qqhm   0.50100
gfz2014raau   0.10530
gfz2014rbsl   0.35910
gfz2014rdoz  -0.21130
gfz2014rfeb   0.93910
gfz2014riel  -0.14940
gfz2014rkwl   0.37000
gfz2014roba   0.57780
gfz2014ryfb   0.13320
gfz2014snfs   0.13740
gfz2014ssmv   0.34060
gfz2014ssvz  -0.24020
gfz2014szzf  -0.00130
gfz2014tovs  -0.16930
gfz2014tqdo   0.13630
gfz2014tqsf  -0.11320
gfz2014tqth  -0.55470
gfz2014tute   0.36190
gfz2014tzsd   0.53390
gfz2014ubwn  -0.08200
gfz2014uvji  -0.73750
gfz2014uvrk   0.62760
gfz2014vcev  -0.37040
gfz2014vhld   0.52680
gfz2014vhms   0.49690
gfz2014vhuy   0.07680
gfz2014vjoz   0.90270
gfz2014watn   0.46000
gfz2014wjko   0.13030
gfz2014wqcp   0.15930
gfz2014wrkh   0.04880
gfz2014wwib   0.51540
gfz2014xbyr   0.17190
gfz2014xjri   1.10190
gfz2014xqby  -0.20180
gfz2014yazi   0.95380
gfz2014yhhm  -0.51000
gfz2014ynzy  -0.27810
gfz2014yrug   0.32530
gfz2014zplq  -0.07000
gfz2015abpw  -1.38580
gfz2015apnk  -0.56280
gfz2015aqbq  -0.07940
gfz2015aruz   0.18320
gfz2015atxv  -0.36280
gfz2015aush   0.56430
gfz2015azzp  -1.12340
gfz2015bavu  -0.51000
gfz2015berb   0.92340
gfz2015bfjm  -0.01650
gfz2015bkbj  -0.46100
gfz2015bohx  -0.28200
gfz2015bphe   0.37180
gfz2015bucr  -0.40180
gfz2015chhn   1.16700
gfz2015chqn   0.43450
gfz2015cxrc   0.64060
gfz2015cxxk  -0.07500
gfz2015cyjd  -0.24760
gfz2015czfv  -1.22660
gfz2015ecgq  -2.07400
gfz2015eeyq  -0.71850
gfz2015eezy   0.40350
gfz2015egxq  -0.04760
gfz2015ehou  -0.26900
gfz2015eiky  -0.24990
gfz2015elgy   0.58420
gfz2015eljz   0.17400
gfz2015emcg   0.11130
gfz2015emin  -0.50130
gfz2015emtg  -0.21920
gfz2015esrj   0.45770
gfz2015etai   0.46400
gfz2015eyqs  -2.07690
gfz2015fcua  -1.19880
gfz2015fjhk   0.37650
gfz2015fkgt   0.38280
gfz2015fkic  -0.04130
gfz2015fkjs  -0.22300
gfz2015flis   0.25810
gfz2015fsjj   0.55510
gfz2015fvoi   0.22500
gfz2015fxdi   0.32920
gfz2015fyvk   0.48600
gfz2015gckd   0.88920
gfz2015ggjw  -0.08250
gfz2015gjbr   0.16990
gfz2015gkwa  -0.53180
gfz2015gmgf  -0.13700
gfz2015guhd  -1.73230
gfz2015gwao  -0.52260
gfz2015hepg  -0.62480
gfz2015hgbk   0.03530
gfz2015hpmk  -0.53900
gfz2015hvgs  -0.55810
gfz2015hwkv  -1.17260
gfz2015hwzw   0.18930
gfz2015igsy   0.10010
gfz2015ijmh  -0.28910
gfz2015ixyy  -0.30870
gfz2015jkdw   0.36580
gfz2015jpap   0.19680
gfz2015jxjd  -0.24540
gfz2015jzcv  -0.39580
gfz2015kcaa  -0.03780
gfz2015kfsu   0.10070
gfz2015kkth  -0.14910
gfz2015ksni   0.04660
gfz2015kxxs   0.88610
gfz2015lhjy   1.02130
gfz2015lytv   0.40840
gfz2015lzad  -0.39990
gfz2015mddr   0.23110
gfz2015mpte  -0.24070
gfz2015oyfl   0.68700
gfz2015pgxa  -0.42480
gfz2015poni  -0.23710
gfz2015qiit  -0.03550
gfz2015qnho   0.39350
gfz2015qnlv  -0.09610
gfz2015qnto  -0.62710
gfz2015qpvd   0.50210
gfz2015rddx  -0.05540
gfz2015rkzg   1.59380
gfz2015sfdd   1.30870
gfz2015sfdh  -1.29410
gfz2015sfdl  -0.14640
gfz2015sfdv  -0.04040
gfz2015sfdy  -0.26610
gfz2015sfeo   1.12750
gfz2015sffn   0.26140
gfz2015sfga   0.74150
gfz2015sfhz  -0.38650
gfz2015sfiq  -0.74530
gfz2015sfjf   0.51480
gfz2015sfko   0.21860
gfz2015sfks  -0.20750
gfz2015sfkz  -0.11610
gfz2015sfmd  -0.06070
gfz2015sfnb  -0.07830
gfz2015sfno   0.18920
gfz2015sfnv   0.36210
gfz2015sfoc  -0.03110
gfz2015sfom  -0.19520
gfz2015sfoq   1.07320
gfz2015sfpj  -1.09330
gfz2015sfqr  -0.41860
gfz2015sfrc  -1.39090
gfz2015sfrf   0.11580
gfz2015sfrv   6.93210
gfz2015sftu   0.40690
gfz2015sfuz  -0.59010
gfz2015sfwf  -0.02640
gfz2015sfxn  -0.24630
gfz2015sfzm   0.34450
gfz2015sgad  -0.62190
gfz2015sglg   0.18650
gfz2015sgmm  -0.54040
gfz2015sgmr   0.49700
gfz2015sgoa  -0.14510
gfz2015sgpu  -0.62150
gfz2015sguf   0.09890
gfz2015sgyd   0.78340
gfz2015shaq   0.18930
gfz2015shel   0.04710
gfz2015shhg   0.33320
gfz2015shhu  -0.63150
gfz2015shjn   0.14430
gfz2015shlp  -0.21550
gfz2015shov   0.78740
gfz2015shrg  -0.14750
gfz2015shsz   0.47950
gfz2015shwt  -0.21720
gfz2015sicf  -0.00870
gfz2015sicu  -0.01940
gfz2015siem   0.31190
gfz2015sixs  -0.62050
gfz2015siyy  -0.71400
gfz2015sjbx   0.51060
gfz2015sjfi   0.87370
gfz2015sjgk  -0.04350
gfz2015sjjb   0.35780
gfz2015sjne  -0.17600
gfz2015sjoj   0.87190
gfz2015sjpn   0.56530
gfz2015sjvu   0.62170
gfz2015sjwi   1.27250
gfz2015skab   0.04200
gfz2015skgj   0.06470
gfz2015skia  -1.00970
gfz2015skpv   0.12100
gfz2015skxu  -0.12940
gfz2015sldx   0.95050
gfz2015sljs  -0.29600
gfz2015slun   0.27840
gfz2015smgj   0.51510
gfz2015smym  -0.25090
gfz2015snsf   0.40340
gfz2015snwh  -0.29850
gfz2015snyd   0.90810
gfz2015soat   0.02130
gfz2015sopc   0.97240
gfz2015sowu   0.12670
gfz2015soxc   0.60410
gfz2015spal  -0.31460
gfz2015sqbg  -0.56660
gfz2015sqmy   0.59380
gfz2015sqwv   0.38910
gfz2015sqyh  -1.39630
gfz2015srat   0.45680
gfz2015srgf   0.26480
gfz2015srxe   1.35330
gfz2015ssoe  -0.86060
gfz2015sspn   1.45460
gfz2015ssrl   0.82460
gfz2015stas  -0.48710
gfz2015stcv  -0.18770
gfz2015stso  -0.11650
gfz2015subg  -0.22700
gfz2015subx   1.23450
gfz2015sunp   0.10020
gfz2015supa   0.44790
gfz2015susq   0.37630
gfz2015svwm   1.22300
gfz2015sxgd  -0.60880
gfz2015sxmh   0.58030
gfz2015sxxu  -0.09480
gfz2015szcb  -0.01350
gfz2015szfe  -0.31320
gfz2015szfq   0.01970
gfz2015sztx   0.20250
gfz2015taml   0.04170
gfz2015tbdn   0.01970
gfz2015tdbb  -0.04510
gfz2015tdcu  -0.05640
gfz2015teje  -2.22310
