# Nsamples: 907  MAD:  0.485  mean: -0.060  variance:  0.838
gfz2010aerk   0.40850
gfz2010ahla  -0.13730
gfz2010ahqi  -0.63790
gfz2010bfzs   0.31000
gfz2010bgth  -0.15320
gfz2010bifb  -2.69580
gfz2010bjeb   0.02200
gfz2010bowy  -0.91340
gfz2010bxxs  -1.23420
gfz2010caft  -0.27590
gfz2010cbkg   0.18410
gfz2010cqwl  -0.07990
gfz2010czps  -0.36100
gfz2010diqn   1.00050
gfz2010dlgc   0.22940
gfz2010eaoy  -0.78610
gfz2010eapk   0.09820
gfz2010eapn  -1.06550
gfz2010eaqe  -0.04020
gfz2010eaqx   0.86780
gfz2010eaqy  -0.59830
gfz2010earu  -0.69360
gfz2010easf   1.09250
gfz2010eask  -0.46740
gfz2010easo   0.08970
gfz2010easu   0.06790
gfz2010eati  -0.45820
gfz2010eato   0.51940
gfz2010eatt  -2.10740
gfz2010eaty  -0.81200
gfz2010eaul  -0.33130
gfz2010eavd  -0.31230
gfz2010eavp  -2.25070
gfz2010eavs  -0.24020
gfz2010eawb   0.56910
gfz2010eawu  -8.17790
gfz2010eaxa   0.24240
gfz2010eayd   0.55130
gfz2010eayp  -1.78680
gfz2010eaze  -1.52110
gfz2010eazu  -3.15490
gfz2010ebbd   0.45580
gfz2010ebbx  -2.33360
gfz2010ebby   1.03350
gfz2010ebdl   0.10170
gfz2010ebeh   0.20770
gfz2010ebfa   1.82140
gfz2010ebgj   0.76240
gfz2010ebhc   0.01100
gfz2010ebih   1.40910
gfz2010ebin  -0.44920
gfz2010ebjy   0.39650
gfz2010ebkj   0.68670
gfz2010ebla   0.04960
gfz2010ebll  -1.08400
gfz2010ebmb   1.07730
gfz2010ebnn  -0.28770
gfz2010ebsv  -3.61720
gfz2010ebvm   0.31300
gfz2010ebvv  -0.27240
gfz2010ebwp   0.10040
gfz2010ebxl   0.18640
gfz2010ebzk   0.74670
gfz2010ebzr   0.64780
gfz2010ecam  -0.18860
gfz2010ecay   0.52860
gfz2010ecbi   0.09670
gfz2010eced   0.62570
gfz2010ecfx  -0.35830
gfz2010echc   0.02690
gfz2010echt   0.82850
gfz2010echy   0.10650
gfz2010ecua   0.45810
gfz2010ecvt   0.44960
gfz2010edat   0.67390
gfz2010eday   0.64470
gfz2010edcp   0.14200
gfz2010edim   0.04710
gfz2010edkp  -0.28000
gfz2010edvf   0.25760
gfz2010edyi  -0.55260
gfz2010edzb  -0.09130
gfz2010eedu   0.14780
gfz2010eefh  -0.83890
gfz2010eeia  -0.15590
gfz2010eeij  -0.11740
gfz2010eerh   0.17520
gfz2010eern   0.51510
gfz2010eevu   0.14660
gfz2010eexz   0.43840
gfz2010efkc  -0.31290
gfz2010efsq  -0.36880
gfz2010eghq  -0.26690
gfz2010egld  -0.05960
gfz2010egln  -0.32790
gfz2010egmp   0.03210
gfz2010egqh   0.60090
gfz2010egsy  -0.19520
gfz2010egyy  -0.99220
gfz2010ehaj   1.21460
gfz2010ehft  -0.37740
gfz2010ehsy   0.94250
gfz2010ehvj  -1.94820
gfz2010ehwg   1.21330
gfz2010ehxz   0.68580
gfz2010eioi   0.07450
gfz2010eisx  -2.54660
gfz2010eixj   1.08310
gfz2010ejjg   0.78730
gfz2010ekaw  -0.47990
gfz2010ekoe  -0.51550
gfz2010ekyc  -0.35260
gfz2010elhv   0.07780
gfz2010elin  -0.19220
gfz2010eljf   2.45250
gfz2010eltf   0.71110
gfz2010elyc   0.33820
gfz2010elyo  -1.84800
gfz2010emyz   0.36450
gfz2010eoao   1.67190
gfz2010epxj   0.45960
gfz2010eqjg   0.39850
gfz2010eqmu   3.70540
gfz2010erdi  -0.30170
gfz2010erkn   0.25390
gfz2010erna   0.10130
gfz2010erom   0.27720
gfz2010eruy   2.23490
gfz2010erwn  -0.05370
gfz2010eryg   0.61090
gfz2010esid   0.33570
gfz2010eujm   0.11630
gfz2010euxe   0.64320
gfz2010evco  -0.78600
gfz2010ewvc  -0.51290
gfz2010excp   0.01340
gfz2010exdd  -0.11040
gfz2010exdl   0.43960
gfz2010exed   0.41880
gfz2010exel  -1.48050
gfz2010exfb   0.41510
gfz2010exgb   0.01080
gfz2010exhd   0.42800
gfz2010exhw  -0.29720
gfz2010exmc   0.16770
gfz2010exno   0.82470
gfz2010exqu   0.15960
gfz2010exsg   0.08720
gfz2010exts   0.22580
gfz2010exyp   0.45140
gfz2010eyhh   0.58550
gfz2010eymr  -0.52670
gfz2010eymx  -6.09020
gfz2010eyvq   0.59920
gfz2010eyxe   0.14980
gfz2010ezax   0.31870
gfz2010ezck   0.01190
gfz2010ezuj  -0.48420
gfz2010ezvg  -0.70910
gfz2010faeu   0.04710
gfz2010falm   1.07530
gfz2010fauz   0.02190
gfz2010fcax  -0.15690
gfz2010fcnn   0.41300
gfz2010fcyj   1.05970
gfz2010fczt   0.18590
gfz2010fdab  -1.51910
gfz2010fedq  -0.39520
gfz2010fefr  -0.63080
gfz2010ffhq  -0.95270
gfz2010ffjb   0.40590
gfz2010ffui  -0.27850
gfz2010fihj  -0.62170
gfz2010fixr  -0.41350
gfz2010fjal   0.32830
gfz2010fjas   0.44750
gfz2010fjmu  -0.50220
gfz2010fkvg   5.05660
gfz2010flha  -2.31350
gfz2010flrt  -0.04480
gfz2010flxi   0.31910
gfz2010fmwb   1.75950
gfz2010fneu  -0.07930
gfz2010fnrk   0.27880
gfz2010fpmv  -0.33160
gfz2010fpqy   0.44550
gfz2010fqdu  -0.18780
gfz2010fqtj  -0.34620
gfz2010fser   0.21680
gfz2010ftlm  -0.28400
gfz2010fupn   0.88040
gfz2010fuuy  -0.49260
gfz2010fwkk  -0.71530
gfz2010fwpv   0.70430
gfz2010fync   0.49750
gfz2010fzoi   0.28500
gfz2010gcdn  -0.12330
gfz2010gcrl  -0.42740
gfz2010gcrp  -0.94950
gfz2010gdld   0.11660
gfz2010gjia   0.41870
gfz2010glqr  -0.39580
gfz2010glxl   0.17990
gfz2010gyqp   0.32520
gfz2010hbka  -0.10010
gfz2010hjoc   0.29460
gfz2010hllj  -0.96630
gfz2010hlln   1.74810
gfz2010hlmq   0.31900
gfz2010hmhm  -0.18820
gfz2010hndk  -0.77890
gfz2010hnnf  -0.01970
gfz2010hnzr  -0.03950
gfz2010homc  -0.28220
gfz2010hxbs   0.96530
gfz2010hxgv   0.13220
gfz2010hxhe   0.29340
gfz2010ibiy   0.08550
gfz2010iciq   0.55660
gfz2010icqq  -0.16990
gfz2010iimu  -0.44480
gfz2010imsh   0.77890
gfz2010iobp   0.27230
gfz2010iphd  -0.81640
gfz2010ipsg  -0.04310
gfz2010iqep  -0.58050
gfz2010iqfm  -0.41840
gfz2010iqnm   1.35980
gfz2010iull   0.16230
gfz2010jagd   0.58510
gfz2010jssh  -0.16980
gfz2010jxbm   0.36120
gfz2010kcoo  -1.75540
gfz2010kdyc   0.75720
gfz2010kihf   2.09520
gfz2010lcoq  -0.00000
gfz2010lepw  -0.08460
gfz2010lfju  -2.47280
gfz2010lopz  -0.35930
gfz2010mhjt  -0.26090
gfz2010miil  -0.01930
gfz2010miqn  -1.49740
gfz2010mkuu   0.35550
gfz2010mlkz   0.29670
gfz2010mlta   0.21220
gfz2010mncc  -0.15880
gfz2010moyw  -0.10040
gfz2010mpuy   1.58470
gfz2010msjj  -0.10960
gfz2010mtab   0.30780
gfz2010mwdq   0.75560
gfz2010ncrl  -0.07110
gfz2010nfsj   0.01340
gfz2010nmpc  -0.89190
gfz2010nqwf   0.34500
gfz2010nqwo  -1.02510
gfz2010nsck   0.88300
gfz2010nsdf  -3.04590
gfz2010nubk  -0.00000
gfz2010nwef   0.66630
gfz2010nxsy  -0.29440
gfz2010nxum   0.66330
gfz2010ocxq   0.65580
gfz2010oedn   0.34780
gfz2010onma  -0.03330
gfz2010osjs   0.02010
gfz2010pbdz   0.54410
gfz2010pcxi  -0.16630
gfz2010pdtk   2.21480
gfz2010pewa   0.21000
gfz2010pewx   0.04700
gfz2010pfyu  -0.17200
gfz2010phvg  -1.70850
gfz2010pmqd  -0.04560
gfz2010pqck  -0.23580
gfz2010pxgh   0.27330
gfz2010qpvi   0.26810
gfz2010qwwx   0.84870
gfz2010rhas   3.65370
gfz2010rkfp   0.30580
gfz2010rqwj  -0.03310
gfz2010rzsd   1.54200
gfz2010sfee  -0.16680
gfz2010skve  -0.28000
gfz2010srdb  -0.20260
gfz2010suww  -0.74870
gfz2010svtn  -0.22680
gfz2010swcy  -0.15220
gfz2010sxfq  -0.15750
gfz2010sxwt  -0.79000
gfz2010szde   0.39530
gfz2010tcbr  -0.20580
gfz2010tcrl   0.39670
gfz2010upfb   0.54190
gfz2010usho   0.14800
gfz2010ustq   0.03270
gfz2010utcg   0.64330
gfz2010utmc   0.72950
gfz2010uyhb  -0.33350
gfz2010vbmd   0.73850
gfz2010vhuj   0.10890
gfz2010vtdg  -0.18880
gfz2010wioh   0.29720
gfz2010wnty  -0.33480
gfz2010wrxx   3.52580
gfz2010xbdv   0.49150
gfz2010xden  -0.56250
gfz2010xjsj  -0.24260
gfz2010xmpr   0.12390
gfz2010yjev  -0.84850
gfz2010ymur   0.47490
gfz2011aatr  -0.41800
gfz2011adjs  -1.10810
gfz2011ahfw  -0.84930
gfz2011alip   0.05120
gfz2011alsa   0.37920
gfz2011aqxf  -0.42290
gfz2011asru  -0.08520
gfz2011aupi   0.35560
gfz2011bgrp  -0.02190
gfz2011bhha  -0.98430
gfz2011blsi   0.55980
gfz2011ccpw  -0.22330
gfz2011cndo   0.43750
gfz2011csju  -0.42390
gfz2011cykd  -0.96000
gfz2011cynl  -0.73780
gfz2011cyre  -0.58220
gfz2011cyuk  -0.97030
gfz2011czwj   0.30940
gfz2011dbev   0.02990
gfz2011dbig  -0.06110
gfz2011dbon   0.20960
gfz2011dcqb   0.36930
gfz2011dcqf  -0.33000
gfz2011dddh   0.07030
gfz2011deaf  -0.40970
gfz2011dpqx  -0.50430
gfz2011ecaj   1.51860
gfz2011edmm   0.72060
gfz2011eebc  -0.09100
gfz2011ehzq   0.48960
gfz2011eltw  -0.45550
gfz2011enva  -0.07310
gfz2011etje  -0.25030
gfz2011fgvr  -0.41510
gfz2011fhag   0.42340
gfz2011gbmx  -0.02130
gfz2011gcwb  -0.43300
gfz2011ghky   0.15350
gfz2011gkzt  -0.62440
gfz2011haid   5.26370
gfz2011hbex  -0.04350
gfz2011hebt   0.37710
gfz2011hfkj  -1.24020
gfz2011hlqw  -0.64940
gfz2011hlsa  -0.77040
gfz2011hlth   0.29460
gfz2011hpqp  -0.24950
gfz2011hvbu   0.18640
gfz2011ieie   0.92320
gfz2011iwte   1.10940
gfz2011izqa   0.26010
gfz2011jghb   0.03760
gfz2011jmbn  -0.13090
gfz2011jplh  -0.62290
gfz2011jxpl   1.39730
gfz2011kwid   0.12500
gfz2011kwjx  -0.16010
gfz2011kwsz   0.21570
gfz2011kxzp   0.16250
gfz2011lcxq   0.43870
gfz2011lzwj   0.04530
gfz2011mdie  -0.65390
gfz2011mepc  -0.28080
gfz2011mpme   0.03550
gfz2011mprq   0.10900
gfz2011myia  -0.05710
gfz2011nauw   0.06990
gfz2011nmnq  -0.41340
gfz2011nrwc   0.02170
gfz2011ntkh  -0.22970
gfz2011nudm  -0.15570
gfz2011ogqk   0.36950
gfz2011ohcy   1.00470
gfz2011oiqe   0.41420
gfz2011oiwk   0.04160
gfz2011olkk  -0.15550
gfz2011orgn  -0.48660
gfz2011ornx   0.19080
gfz2011phms   0.42320
gfz2011pntf   0.22080
gfz2011qvae   0.79960
gfz2011rabm  -0.65690
gfz2011rewa  -1.03640
gfz2011rgwp   0.49870
gfz2011rsrh  -0.30620
gfz2011sagt  -0.06060
gfz2011shqm   1.15700
gfz2011tbas   0.43910
gfz2011tcij   0.00000
gfz2011tjue   0.06200
gfz2011tkfp  -1.15050
gfz2011tkog  -0.61910
gfz2011toub   0.33560
gfz2011ugzz   0.87500
gfz2011ujze  -0.23310
gfz2011uphh  -0.21570
gfz2011urxy   0.05960
gfz2011urzu  -0.13350
gfz2011uzqv  -0.06060
gfz2011vhfi  -0.02350
gfz2011vnza   0.28770
gfz2011vrhg  -0.93460
gfz2011vxns  -0.37640
gfz2011wcic  -0.76930
gfz2011wjul  -0.02750
gfz2011wwjs  -0.26510
gfz2011wxfs  -0.11860
gfz2011wxoj  -0.62030
gfz2011wxtk  -0.64020
gfz2011wype  -1.62740
gfz2011xcpv  -0.91810
gfz2011xyxj   0.69060
gfz2011yfdx  -1.90140
gfz2011zklv   0.31280
gfz2011zqhh  -0.52550
gfz2012ajtq   0.45890
gfz2012aqgp  -0.28290
gfz2012aqtq  -0.39620
gfz2012bfah   0.10690
gfz2012bpkx   0.33490
gfz2012bpnl  -0.05300
gfz2012bpwl  -0.22510
gfz2012bszs   0.44290
gfz2012byad   0.21960
gfz2012cgvr   0.36630
gfz2012cqnl  -0.33910
gfz2012cxdn   0.42720
gfz2012czlw   0.45440
gfz2012dyyh  -0.00310
gfz2012ekda   0.46460
gfz2012ekzf   0.66580
gfz2012emjg   0.96210
gfz2012enno  -0.53820
gfz2012ewgo  -0.01580
gfz2012fbfo  -0.20520
gfz2012fwfo   0.24790
gfz2012fzfa  -1.08150
gfz2012hnul  -0.07050
gfz2012hyaa  -0.28570
gfz2012icmv   0.87140
gfz2012jgvj   0.37670
gfz2012jjzc   0.34140
gfz2012jlox   0.22050
gfz2012jshk   0.08740
gfz2012jupx   0.56000
gfz2012keor  -0.41500
gfz2012kkup  -0.52160
gfz2012klhx  -0.62000
gfz2012kuct  -0.81510
gfz2012kudo  -0.27390
gfz2012kwgo   0.06970
gfz2012lczo  -0.14130
gfz2012lrsv   2.05310
gfz2012lxkv   0.03890
gfz2012minr  -0.03180
gfz2012mvwr   0.33920
gfz2012mwij   0.87450
gfz2012naqz   1.48910
gfz2012nedn  -0.54680
gfz2012nkdf  -1.30630
gfz2012nojx   0.17280
gfz2012nolo  -1.13920
gfz2012nutf  -1.09650
gfz2012nxog   2.12300
gfz2012oedb   0.34940
gfz2012pgcl   0.24280
gfz2012pkel  -0.07650
gfz2012pqmu  -0.13430
gfz2012rats   0.74990
gfz2012rcnj  -1.10040
gfz2012ronz   0.21100
gfz2012rwov  -0.26370
gfz2012rypu  -0.15860
gfz2012sphd   0.21310
gfz2012syvl   0.50730
gfz2012teic   0.38410
gfz2012tmop   0.08980
gfz2012tvmv   0.10000
gfz2012uafg   0.23770
gfz2012uciv  -0.20610
gfz2012uhup   0.05420
gfz2012ulpd   0.23990
gfz2012uvqf  -0.85810
gfz2012vrgb   0.02760
gfz2012whku   0.10250
gfz2012wklq  -0.21860
gfz2012wmsg  -0.42660
gfz2012wpeq   0.24770
gfz2012wtkr  -0.19780
gfz2012wvfl  -1.78780
gfz2012wxlg  -0.17470
gfz2012wypz  -0.13070
gfz2012xbjq   0.48440
gfz2012xkkv  -3.61920
gfz2012zitl  -0.51430
gfz2012zjpv   0.13900
gfz2013aahq  -0.20890
gfz2013bokp   0.05090
gfz2013bouj  -1.22530
gfz2013ccnr  -0.10610
gfz2013cdan  -1.30060
gfz2013ciaf  -0.80530
gfz2013cwpn   0.75720
gfz2013cwps  -0.58090
gfz2013dkly   0.55690
gfz2013dofo  -0.75510
gfz2013drxz  -0.99690
gfz2013dsrk  -1.92570
gfz2013dvyh   1.42240
gfz2013egni   0.08690
gfz2013egpu  -0.67190
gfz2013fiud  -0.16530
gfz2013fygc  -1.14220
gfz2013gbst  -0.39490
gfz2013gcfx  -4.17190
gfz2013gdnq   1.76420
gfz2013ggtf   0.51740
gfz2013gngz   0.00000
gfz2013gock   0.63760
gfz2013hdnc  -1.78680
gfz2013hxcx   0.66540
gfz2013hydf   0.11750
gfz2013iayx   0.20700
gfz2013idbb  -0.10920
gfz2013igmx  -2.38880
gfz2013ikgo   0.30180
gfz2013ilug   0.21770
gfz2013jesk   0.53560
gfz2013jgij  -0.29380
gfz2013jgip  -0.17000
gfz2013jusj  -3.46810
gfz2013jwvc  -0.69040
gfz2013kdeo   0.20390
gfz2013lbiu  -1.06280
gfz2013ldpc   0.02160
gfz2013ldqb  -0.07570
gfz2013lgnl   0.80520
gfz2013lixa   0.04410
gfz2013lyko   0.89770
gfz2013mqmv  -0.17740
gfz2013mwbh   0.27520
gfz2013ncjp  -0.31330
gfz2013ndin   0.48360
gfz2013neuc  -0.69400
gfz2013nixj   0.23100
gfz2013nkgj  -0.26390
gfz2013nmac  -0.44930
gfz2013nwdi  -0.14020
gfz2013oejn   0.32760
gfz2013oqsc  -0.62970
gfz2013ozrp   1.02740
gfz2013pfbx   0.36810
gfz2013pffm  -0.28560
gfz2013pxsj   0.21120
gfz2013qali   0.21930
gfz2013qesa   1.56080
gfz2013qmer  -0.31210
gfz2013qzdq  -0.78160
gfz2013reym  -0.52900
gfz2013roki   0.27640
gfz2013sdus  -0.12490
gfz2013skkm   0.13080
gfz2013snbr  -0.28320
gfz2013svci  -0.22010
gfz2013tcbk  -0.44600
gfz2013tcxc  -0.36490
gfz2013tcxq  -0.03740
gfz2013tdau  -2.46850
gfz2013tlaf  -0.10370
gfz2013tpeb  -0.08770
gfz2013tvmw   1.14930
gfz2013txij  -0.43360
gfz2013txtb  -0.97580
gfz2013ufxm  -0.58750
gfz2013uqsp  -0.31660
gfz2013vexx  -0.47870
gfz2013vfyw   1.06730
gfz2013vfzp   0.02030
gfz2013vjjc  -1.49280
gfz2013vvrq  -0.45590
gfz2013vzbo  -0.37250
gfz2013wjmm  -0.32370
gfz2013xizq   0.55200
gfz2013xmul  -0.26560
gfz2013xsdt   0.30420
gfz2013xxxq   0.61610
gfz2013yctg   0.16040
gfz2013yhpk  -0.01870
gfz2013yqkv   0.49800
gfz2013zjel   0.89640
gfz2014adoj   0.52790
gfz2014afmx  -1.07250
gfz2014ajlk   0.15810
gfz2014algk   0.06860
gfz2014alwz   0.29080
gfz2014ande   0.48210
gfz2014bagd   0.49920
gfz2014bezu   0.07210
gfz2014bfng  -0.71570
gfz2014bmta  -0.39380
gfz2014bwue   0.10010
gfz2014bzxy   0.12970
gfz2014chdv  -0.91350
gfz2014cvxx   0.25470
gfz2014czol   0.33640
gfz2014czqi  -0.08370
gfz2014czua   0.10400
gfz2014dddc  -1.24090
gfz2014dffd  -0.50480
gfz2014dhxt  -0.00210
gfz2014disp  -1.82130
gfz2014duqn  -0.10270
gfz2014ehsf   0.97900
gfz2014ekcr   0.48780
gfz2014ekdn   0.15620
gfz2014enhi   0.39370
gfz2014femz   0.09740
gfz2014fgvi  -0.10300
gfz2014fgyo   0.47900
gfz2014fhbd   0.17060
gfz2014fhdw   0.15790
gfz2014fhla  -0.43950
gfz2014fhlh  -0.25390
gfz2014fhrq   0.14380
gfz2014fhsg   0.05650
gfz2014fkmr  -0.21740
gfz2014fknp   0.26390
gfz2014frdz   0.21740
gfz2014frez   1.05540
gfz2014ftka   0.07410
gfz2014ftoc  -0.04220
gfz2014ftrk  -0.16530
gfz2014furx  -1.82870
gfz2014fusc   0.19940
gfz2014fval   0.26570
gfz2014fvgh   0.00000
gfz2014fvrg  -0.21200
gfz2014gbcz  -0.07950
gfz2014gbdq   0.69620
gfz2014ghpe   0.27230
gfz2014gkgf  -0.48260
gfz2014gkgs  -0.16650
gfz2014gkhp  -0.45670
gfz2014gkhy   0.20540
gfz2014gkjl  -2.84660
gfz2014gkob   0.77100
gfz2014gkqf  -0.31720
gfz2014gktq   1.04170
gfz2014glcu   0.37770
gfz2014gltx   0.47280
gfz2014gmge   0.69050
gfz2014gmhr  -1.66210
gfz2014gmip   0.20770
gfz2014gmnb   0.80220
gfz2014gmnw   0.64570
gfz2014gmuk  -3.59280
gfz2014goba  -0.04570
gfz2014goqw  -0.15480
gfz2014gori   0.25440
gfz2014gphr  -0.70410
gfz2014gpya   0.40750
gfz2014gqer   0.80060
gfz2014gqve  -0.17210
gfz2014gsqs  -0.09510
gfz2014gull  -0.27160
gfz2014gulp  -0.46160
gfz2014gvrd   0.01760
gfz2014gwab   0.60120
gfz2014gxxo  -0.13270
gfz2014hasj   0.15020
gfz2014hbqb   0.19710
gfz2014hcmj   0.16400
gfz2014hfhl  -0.22120
gfz2014hgqo   0.11840
gfz2014hhwx  -4.45430
gfz2014hjgh   0.46080
gfz2014hjgr  -0.12200
gfz2014hkcf   0.33790
gfz2014hocg  -0.57660
gfz2014hphw  -0.11580
gfz2014hqxs  -0.17230
gfz2014huaj   0.71440
gfz2014hzfw  -0.06480
gfz2014imnn  -0.11230
gfz2014iobd   0.60990
gfz2014itkw   0.13440
gfz2014itpj  -0.14190
gfz2014jhra  -1.04140
gfz2014jjhc  -0.24860
gfz2014jkxe  -0.52430
gfz2014jnyv  -0.20370
gfz2014jpep   0.17970
gfz2014jwmh   0.63680
gfz2014kbuk  -0.98860
gfz2014khlk  -0.83370
gfz2014kmmt  -0.93760
gfz2014kndc   0.42380
gfz2014knks   0.08520
gfz2014knxs   0.46840
gfz2014kyan  -0.20790
gfz2014kytf   0.14400
gfz2014lddn  -2.55230
gfz2014lgqn  -0.59670
gfz2014lkyf   0.51350
gfz2014lnqy  -0.43470
gfz2014lxnc  -0.05860
gfz2014lyhk  -0.02200
gfz2014lyhp  -0.54420
gfz2014macx   0.07780
gfz2014madw  -0.46450
gfz2014mtum  -0.06960
gfz2014ncub  -0.07720
gfz2014nnxd   1.22400
gfz2014nowp   0.05080
gfz2014npeo  -0.03200
gfz2014nphm   0.21520
gfz2014nqfm   0.17750
gfz2014nrie  -0.01460
gfz2014nylm  -0.29410
gfz2014oinz   0.13470
gfz2014owxc  -0.07940
gfz2014oyly   0.26130
gfz2014pkll   0.19700
gfz2014ppzf  -0.30680
gfz2014pvch   0.11590
gfz2014qlxd  -0.21860
gfz2014qngj  -0.15480
gfz2014qqhm  -0.99240
gfz2014raau  -4.17250
gfz2014rdsn  -0.43890
gfz2014riel   0.16840
gfz2014sptq  -2.36460
gfz2014ssmv   0.42010
gfz2014ssvz  -0.84910
gfz2014szzf   0.86470
gfz2014tovs   0.47330
gfz2014tqdo   0.11840
gfz2014tqsf   0.13870
gfz2014tzsd   0.01700
gfz2014ubwn  -0.41150
gfz2014udgg   0.20860
gfz2014uohh   0.22080
gfz2014uvji   0.62250
gfz2014uvrk  -0.73950
gfz2014vhld  -0.34660
gfz2014vhms  -2.27820
gfz2014vjoz  -0.41510
gfz2014watn  -0.20780
gfz2014wjko  -1.50630
gfz2014wmsc  -3.45450
gfz2014xbyr   0.18750
gfz2014xhkc  -0.26530
gfz2014xjri   0.69470
gfz2014xqqd   0.38510
gfz2014zlgp  -0.33600
gfz2015apnk  -0.04150
gfz2015arpd   0.12850
gfz2015aruz  -0.18690
gfz2015atxv  -0.98580
gfz2015bdyd  -2.34610
gfz2015berb  -0.23790
gfz2015bfjm   0.30890
gfz2015bkbj   0.60330
gfz2015bsnl   0.34200
gfz2015byfn  -0.28970
gfz2015byjd  -1.37030
gfz2015chhn  -0.58030
gfz2015chqn   0.15860
gfz2015cxhx   0.28390
gfz2015cxxk  -0.06060
gfz2015cyjd   0.79610
gfz2015dizn  -0.20840
gfz2015djts   0.43770
gfz2015dskr   0.50790
gfz2015dvbn  -0.42110
gfz2015egxq  -0.06380
gfz2015eiky   0.33420
gfz2015elgy  -0.06480
gfz2015esrj  -0.82710
gfz2015etai   0.30810
gfz2015fbew  -0.02060
gfz2015fcua   0.55420
gfz2015fjhk   1.07800
gfz2015fkgt   0.24920
gfz2015fkic   0.01320
gfz2015fpez  -0.27910
gfz2015fsjj   0.30380
gfz2015fxdi   0.35440
gfz2015fyvk  -0.03020
gfz2015gckd   0.23640
gfz2015ggjw  -0.03990
gfz2015gzja  -2.89400
gfz2015hgbk   0.08410
gfz2015ixyy   1.03370
gfz2015jwgl  -0.16040
gfz2015jxbx   0.07810
gfz2015jzcv   0.28680
gfz2015kakw   0.17810
gfz2015kcaa   0.02650
gfz2015kfsu  -0.08290
gfz2015kkth   0.07730
gfz2015kphk   0.02800
gfz2015kquq   0.68260
gfz2015lhjy   0.46160
gfz2015ltii   0.08280
gfz2015lytv  -3.43430
gfz2015mddr   0.07690
gfz2015mpte  -0.42190
gfz2015nerz   0.40490
gfz2015nqgf  -0.02260
gfz2015nuxz  -0.09750
gfz2015nwug   0.14440
gfz2015ocdz   0.11830
gfz2015okmq   0.24270
gfz2015oumn   0.27250
gfz2015oyfl   0.06400
gfz2015poni   0.06210
gfz2015prlr   0.04010
gfz2015qnho   0.05420
gfz2015quzo   2.15060
gfz2015rgrg   0.08170
gfz2015rkbq  -1.77910
gfz2015rkrg  -0.66960
gfz2015rkzg   0.09540
gfz2015rpzn  -0.25710
gfz2015rxmg  -0.00000
gfz2015sevh  -0.02220
gfz2015sfdd   0.25560
gfz2015sfdl  -0.12190
gfz2015sfdy   0.30320
gfz2015sfeo   0.46840
gfz2015sffn   0.00070
gfz2015sfga   0.04100
gfz2015sfho   0.68540
gfz2015sfhz  -1.26150
gfz2015sfiq   0.78770
gfz2015sfjf   0.03020
gfz2015sfnb  -1.36710
gfz2015sfno  -0.60250
gfz2015sfnv   0.40840
gfz2015sfoc   0.39000
gfz2015sfoq   0.57010
gfz2015sfqo   0.11370
gfz2015sfqr   0.08070
gfz2015sfrf  -1.06520
gfz2015sftu   0.57740
gfz2015sfuz   0.04100
gfz2015sfxn  -0.87330
gfz2015sgad  -1.37080
gfz2015sgdj  -1.43470
gfz2015sgdn   0.09890
gfz2015sggc   0.97630
gfz2015sghq   0.29200
gfz2015sglg  -0.28140
gfz2015sgmr  -0.17170
gfz2015sgna  -0.30040
gfz2015sgpu  -0.13990
gfz2015sguf  -0.03550
gfz2015sgyd   0.76810
gfz2015shaq   0.07350
gfz2015shjn  -0.04970
gfz2015shjo  -0.40900
gfz2015shrg   0.20090
gfz2015shsz   0.14020
gfz2015sing   0.26810
gfz2015sitn   0.24030
gfz2015sjbx  -0.06830
gfz2015sjfi   0.37730
gfz2015sjgk   0.13430
gfz2015sjne  -0.12170
gfz2015sjoj   0.18660
gfz2015sjvu   0.16900
gfz2015sjwi   0.62760
gfz2015skgj   0.22080
gfz2015skuk  -0.15160
gfz2015skxu   0.15720
gfz2015sldx   0.18960
gfz2015sljs   1.30670
gfz2015slun  -0.29810
gfz2015smym  -0.32640
gfz2015snmr  -0.26170
gfz2015snsf   0.26670
gfz2015snwh  -0.21940
gfz2015snyd   0.45410
gfz2015soat   0.17830
gfz2015soxc   0.16410
gfz2015sqmy   0.30250
gfz2015srat   0.39160
gfz2015sspn   0.35180
gfz2015stfy   0.64020
gfz2015subz  -0.17100
gfz2015svwm  -0.07210
gfz2015szcb  -0.16090
gfz2015sztx   0.46650
gfz2015taml   0.33700
