# Nsamples: 90  MAD:  0.782  mean: -0.467  variance:  0.993
gfz2010bfzs  -0.55000
gfz2010bpda   2.75210
gfz2010bxxs  -2.84650
gfz2010cqwl  -1.35180
gfz2010czps  -0.36320
gfz2010eaoy  -1.04900
gfz2010eapk  -0.15680
gfz2010eapn  -2.32690
gfz2010eaqe  -0.63620
gfz2010eaqx  -0.86000
gfz2010eaqy   0.04670
gfz2010earu   0.53030
gfz2010eawu   1.05570
gfz2010ebhc  -0.48710
gfz2010ebiv   0.27110
gfz2010ebkj  -0.93870
gfz2010ebmb  -2.43880
gfz2010ebnn  -0.16160
gfz2010ebvm  -1.42870
gfz2010ebwp  -0.70120
gfz2010ebzr  -0.84670
gfz2010ecua  -0.81080
gfz2010eevu  -0.84020
gfz2010eisx   0.14180
gfz2010ekyc  -2.09900
gfz2010eltf  -1.13950
gfz2010elyc  -0.78290
gfz2010erkn  -1.40580
gfz2010excp  -0.62460
gfz2010exdd  -1.19110
gfz2010exdl  -0.64550
gfz2010ezck  -0.05230
gfz2010ezwz  -0.64700
gfz2010fedq   0.30300
gfz2010ffhq  -1.33810
gfz2010fync   0.26290
gfz2010hxgv  -0.98310
gfz2010iobp  -0.33260
gfz2010iull  -0.79470
gfz2010mkuu  -1.30680
gfz2010nmpc  -1.04430
gfz2010nqwo  -1.70720
gfz2010pfyu  -0.68990
gfz2011lzwj  -0.78810
gfz2011owvz  -0.77650
gfz2011wxfs  -0.13940
gfz2011xyxj  -0.39740
gfz2012enno  -0.68440
gfz2012fzfa   0.39800
gfz2012hnul  -1.52540
gfz2012intn  -0.12910
gfz2012jlox  -1.13240
gfz2012kkup  -0.82070
gfz2012klhx  -0.64150
gfz2012kudo  -0.26850
gfz2012ldxg  -1.62520
gfz2013ccnr  -0.14270
gfz2013drxz   0.30960
gfz2013ikgo  -1.45490
gfz2013qmer  -1.25840
gfz2013svci   0.45160
gfz2013vfzp   1.81010
gfz2013vjjc  -0.39760
gfz2013xpfa  -0.72560
gfz2013xsdt   1.08620
gfz2013ziyr  -1.74950
gfz2014dddc   0.95050
gfz2014enhi  -0.45840
gfz2014fgvi   0.44450
gfz2014fhla   0.77280
gfz2014fjxd   1.77650
gfz2014frdz   2.65940
gfz2014gkgf  -0.43380
gfz2014gkgl  -1.14120
gfz2014gkqf  -2.75860
gfz2014gmge   0.94760
gfz2014gmhr  -0.61420
gfz2014hasj  -0.78140
gfz2014hocg   0.03210
gfz2014qlxd   0.02310
gfz2014qngj  -1.15260
gfz2014ssvz   0.54220
gfz2015chhn   0.47920
gfz2015cyjd  -1.44300
gfz2015fsjj  -0.47230
gfz2015gckd  -0.14170
gfz2015kfsu  -0.57990
gfz2015lhjy   0.27520
gfz2015lytv  -0.10260
gfz2015okmq  -0.06850
