# Nsamples: 14  MAD:  0.998  mean:  2.164  variance:  1.505
gfz2010excp   3.59220
gfz2010iull   3.07790
gfz2010rqwj   2.05180
gfz2010upfb   1.58330
gfz2011dtpy  -0.05610
gfz2011enva   4.87760
gfz2011noud   1.03390
gfz2012wklq   1.75500
gfz2013vjjc   3.54470
gfz2015lytv   2.27050
gfz2015sfdd   1.56950
gfz2015snwh   0.83770
gfz2015soxc   2.25620
gfz2015svwm   1.89790
