# Nsamples: 1033  MAD:  0.835  mean:  0.049  variance:  1.279
gfz2010aban  -0.90590
gfz2010aerk  -1.27040
gfz2010ahla   1.08420
gfz2010ahqi  -0.54800
gfz2010aphp  -0.52310
gfz2010awfi  -1.50930
gfz2010bedu  -1.20850
gfz2010bfzs  -0.25490
gfz2010bhhq   0.01920
gfz2010bifb  -0.48270
gfz2010bjeb   0.06860
gfz2010bjjx   0.58560
gfz2010bjsl   1.53670
gfz2010bkob  -0.59410
gfz2010bowy   0.89350
gfz2010boxo   0.38870
gfz2010bxxs   0.65170
gfz2010caft   0.34690
gfz2010cbkg   0.27670
gfz2010chnv  -0.72400
gfz2010civi   0.52930
gfz2010cjmx  -0.57750
gfz2010ckeu  -2.04390
gfz2010ckzm   0.78500
gfz2010cnwc  -0.15760
gfz2010cptb  -0.47500
gfz2010cqwl   0.56940
gfz2010cres  -0.12900
gfz2010ctuw  -0.37520
gfz2010czps  -0.03620
gfz2010ddzo   0.74950
gfz2010dejx   0.61440
gfz2010dfru   0.57430
gfz2010diqn   0.61170
gfz2010dlgc   0.16460
gfz2010dtmx  -0.18160
gfz2010dumm  -1.01110
gfz2010eaoy   0.67630
gfz2010eaqe  -0.25790
gfz2010eaqx  -0.86740
gfz2010eaqy   0.36600
gfz2010earq  -0.58010
gfz2010earu   0.36890
gfz2010easf  -0.06010
gfz2010eask   2.01100
gfz2010easo   0.60080
gfz2010eati   1.11650
gfz2010eato   0.02910
gfz2010eatt   2.03070
gfz2010eaty   0.17610
gfz2010eaul   0.53590
gfz2010eavs  -0.61500
gfz2010eawb   0.79910
gfz2010eawu   0.29540
gfz2010eaxa  -0.09860
gfz2010eaxn  -0.76000
gfz2010eaya   0.96700
gfz2010eayp   1.40360
gfz2010eayx   0.07800
gfz2010eaze  -2.09550
gfz2010eazu   0.49290
gfz2010ebbd  -0.10300
gfz2010ebby   0.24350
gfz2010ebdl  -0.07560
gfz2010ebeh  -0.00000
gfz2010ebek  -0.85610
gfz2010ebfa  -0.76810
gfz2010ebfx  -0.14580
gfz2010ebgj   0.98710
gfz2010ebhc  -2.22710
gfz2010ebih   0.30310
gfz2010ebin  -0.63010
gfz2010ebiv  -0.81710
gfz2010ebjg   1.02730
gfz2010ebjy   0.36440
gfz2010ebkj  -0.24980
gfz2010ebkx   0.02080
gfz2010ebll   0.74380
gfz2010ebmb  -0.23440
gfz2010ebmi   0.34190
gfz2010ebnn  -0.04840
gfz2010ebqt  -0.68960
gfz2010ebrm  -0.24740
gfz2010ebsv  -1.67100
gfz2010ebtk  -0.73530
gfz2010ebvm   0.26640
gfz2010ebvv  -0.75380
gfz2010ebwp   0.36430
gfz2010ebxl   0.42650
gfz2010ebze   8.58420
gfz2010ebzk  -0.12710
gfz2010ebzr   0.16780
gfz2010ecam  -1.08280
gfz2010ecay   0.48750
gfz2010ecbi   0.40140
gfz2010eccq  -0.77290
gfz2010ecfx   2.04480
gfz2010ecfy   1.46020
gfz2010echc  -0.27260
gfz2010echt  -0.93300
gfz2010echy   0.23850
gfz2010ecka   0.25550
gfz2010ecns   0.05620
gfz2010ecps   0.33830
gfz2010ecro  -2.56230
gfz2010ectq  -1.32160
gfz2010ecua   0.44770
gfz2010edad  -3.68670
gfz2010edat  -0.79630
gfz2010eday  -0.25380
gfz2010edbz   0.19440
gfz2010edcp  -2.67130
gfz2010edde   0.47060
gfz2010edhr  -0.03220
gfz2010edim  -0.34060
gfz2010edkp  -0.01510
gfz2010edoq  -0.83160
gfz2010edpb  -1.00150
gfz2010edqh  -0.52800
gfz2010edun  -0.45960
gfz2010edvf   0.05610
gfz2010edyi  -0.31820
gfz2010eedu  -0.12930
gfz2010eegn   0.23410
gfz2010eeia  -0.97460
gfz2010eeij   1.14080
gfz2010eekq   0.04360
gfz2010eeng   2.53320
gfz2010eerh  -0.44740
gfz2010eern  -0.39260
gfz2010eevu   0.66650
gfz2010eeyh  -0.85360
gfz2010efak  -0.04630
gfz2010efkc   0.93400
gfz2010efsq  -0.52490
gfz2010efxf   0.53210
gfz2010egap  -0.08900
gfz2010eghq  -1.30740
gfz2010egld   1.73540
gfz2010egmp   0.26420
gfz2010egqh   0.44260
gfz2010egsw  -0.48320
gfz2010egsy  -0.20360
gfz2010egyy   0.56370
gfz2010ehaj   0.36940
gfz2010ehft   0.02650
gfz2010ehnm  -0.64880
gfz2010ehrq   0.68140
gfz2010ehsy  -0.56800
gfz2010ehxz  -1.07920
gfz2010eimf  -0.33100
gfz2010eioi  -0.14350
gfz2010eisx   0.42590
gfz2010eixj  -0.60560
gfz2010ejco  -0.00900
gfz2010ejjg  -0.55550
gfz2010ejka   0.17640
gfz2010ekaw  -0.17690
gfz2010ekoe   0.23080
gfz2010ekrv   1.08840
gfz2010ekyc  -0.00000
gfz2010elhv  -0.34850
gfz2010elin  -0.71400
gfz2010eljf   3.29130
gfz2010eltf   0.15500
gfz2010elvp  -0.00040
gfz2010elyc   0.14550
gfz2010enzl   0.30550
gfz2010eoao  -3.15140
gfz2010epbe  -1.62370
gfz2010epxj   0.43350
gfz2010eqjg  -1.37620
gfz2010eqmu   2.84160
gfz2010erdi  -2.15190
gfz2010erfy  -1.34510
gfz2010erig  -0.16340
gfz2010erkn   0.67030
gfz2010erom  -0.16850
gfz2010erum  -0.27910
gfz2010eruy  -2.56890
gfz2010erxb   0.10670
gfz2010erxk  -1.38900
gfz2010esid   1.51620
gfz2010esmg  -0.51220
gfz2010eted   0.13230
gfz2010euan   0.43530
gfz2010eugj  -1.16220
gfz2010eujm  -0.75990
gfz2010euwb   4.08500
gfz2010evco   0.61030
gfz2010evkd   0.60520
gfz2010ewvc  -0.15150
gfz2010excp   0.96990
gfz2010exel   1.91860
gfz2010exfb  -0.84920
gfz2010exgb  -0.73150
gfz2010exqu  -1.16190
gfz2010exsg   0.60040
gfz2010exyp  -1.14300
gfz2010eyaz   0.87650
gfz2010eyhh  -1.91840
gfz2010ezwz   0.18040
gfz2010faeu   2.09960
gfz2010falm  -0.03540
gfz2010fauz   3.38680
gfz2010faxg   1.46220
gfz2010fcax  -0.12780
gfz2010fcxy   0.11080
gfz2010fcyj  -0.83440
gfz2010fczt  -0.50480
gfz2010fdxr  -0.30220
gfz2010fedq  -1.85970
gfz2010fexw   1.84800
gfz2010ffhq   0.37880
gfz2010ffjb  -0.55850
gfz2010fihj  -0.52740
gfz2010fjal  -0.55870
gfz2010fjmu  -1.09630
gfz2010fkvg   1.19470
gfz2010flha  -0.12360
gfz2010flrt   0.70280
gfz2010flxi  -0.87760
gfz2010fneu   2.29720
gfz2010fobc  -0.64960
gfz2010fona   0.03800
gfz2010fpqy   0.49650
gfz2010fqdu   0.25060
gfz2010fser  -0.70600
gfz2010fsth   0.49540
gfz2010ftlm  -2.99910
gfz2010ftsx  -0.74690
gfz2010fwkk  -0.93050
gfz2010fwny   1.63510
gfz2010fwzd  -0.72020
gfz2010fync   1.33470
gfz2010fzoi  -0.98020
gfz2010fzsg  -1.04770
gfz2010gcrl  -0.27160
gfz2010gdch  -1.74080
gfz2010gdld  -0.01000
gfz2010gjia  -0.58910
gfz2010gjvo  -1.78210
gfz2010glqr  -1.01220
gfz2010glxl  -1.37470
gfz2010gmib   0.39150
gfz2010grjd  -0.63060
gfz2010grss  -0.95710
gfz2010gslu  -0.86130
gfz2010gtzt  -0.69410
gfz2010gwmp   0.95220
gfz2010gyqp   0.43390
gfz2010gzxr  -2.37470
gfz2010hbka  -0.68500
gfz2010hcio   0.37640
gfz2010hevz  -0.50250
gfz2010hjoc   0.21050
gfz2010hllj   0.77990
gfz2010hlln  -1.80980
gfz2010hnnf   0.71220
gfz2010hnpi   0.91150
gfz2010hnzr   0.53640
gfz2010homc   2.41560
gfz2010hptz   0.47100
gfz2010hrkr  -0.08830
gfz2010hrpr  -1.73210
gfz2010hxgv   0.33790
gfz2010hxhe  -0.97430
gfz2010hykt   2.44870
gfz2010icqq  -0.58260
gfz2010iefy   1.88380
gfz2010imfv  -0.32610
gfz2010imsh   0.17620
gfz2010iobp  -0.15080
gfz2010iphd  -0.04100
gfz2010iqep  -0.26690
gfz2010iqnm  -0.42000
gfz2010irqr   2.28910
gfz2010irvf  -0.41820
gfz2010iull   2.27030
gfz2010ixyc   0.26510
gfz2010izzj   0.25400
gfz2010jipf  -1.01870
gfz2010jkxj   1.44710
gfz2010jssh   0.34970
gfz2010jsuh  -0.14240
gfz2010jucj  -0.62430
gfz2010jwpy  -3.45590
gfz2010jxbm   0.02210
gfz2010jygz  -1.21570
gfz2010jzku   0.81580
gfz2010kihf   1.28840
gfz2010kjmp   1.78440
gfz2010kmgg  -0.94710
gfz2010kmsv  -0.84340
gfz2010kown   0.52190
gfz2010lczp  -2.17750
gfz2010lepw   0.52870
gfz2010lgwy  -0.88660
gfz2010liqs   0.67060
gfz2010lkcf   0.05090
gfz2010lluj   0.47960
gfz2010lrlk   2.04780
gfz2010lruw  -0.66660
gfz2010lsft  -0.06380
gfz2010mant  -0.24540
gfz2010mbje   1.97500
gfz2010mcrx  -0.70440
gfz2010mdpq   2.62240
gfz2010mgss  -0.27980
gfz2010mhjt   0.17530
gfz2010mipi   0.35800
gfz2010miqn   0.41050
gfz2010mkuu  -0.89040
gfz2010mlta   1.07780
gfz2010mncc   0.12780
gfz2010mpuy   0.31700
gfz2010mtab   3.77260
gfz2010mwdq  -0.44550
gfz2010nfsj  -0.30770
gfz2010nmpc   0.69720
gfz2010nnny  -0.88220
gfz2010nqwf   0.17800
gfz2010nqwo   0.94310
gfz2010nrjo  -0.61120
gfz2010nsck  -0.95040
gfz2010nwef  -1.35310
gfz2010nzla  -0.40660
gfz2010ocxq  -0.20980
gfz2010odpb   0.15770
gfz2010oedn   1.39700
gfz2010okdm  -1.18720
gfz2010oluw  -0.38400
gfz2010omla  -0.07190
gfz2010onma  -0.59030
gfz2010oyqy  -0.05150
gfz2010pbdz  -0.04650
gfz2010pcxi   0.12810
gfz2010pdtk   0.43270
gfz2010pewa   0.82850
gfz2010pewx   0.16270
gfz2010pfyu   0.09930
gfz2010phvg   1.03720
gfz2010pmqd  -0.33230
gfz2010pqck   0.45770
gfz2010pxak   0.38450
gfz2010pxgh  -0.98010
gfz2010qitd   0.12260
gfz2010qkat  -0.42790
gfz2010qpcq   1.18110
gfz2010qpum   0.11110
gfz2010qpvi  -0.04900
gfz2010rkfp   0.46900
gfz2010rlbv   0.04370
gfz2010rqwj   0.28870
gfz2010rywq  -0.07690
gfz2010sfee   0.86370
gfz2010sfla   0.57530
gfz2010sgzk  -0.20540
gfz2010skqo   0.18050
gfz2010skve  -0.53390
gfz2010srdb  -0.22270
gfz2010svtn   2.33180
gfz2010svve   1.81690
gfz2010swcy  -0.90130
gfz2010sxfq   0.12760
gfz2010sxwt  -0.62800
gfz2010szde   2.77370
gfz2010szim  -0.77080
gfz2010tcbr  -0.22620
gfz2010tcrl  -0.71520
gfz2010truw  -0.01980
gfz2010txjs  -1.08890
gfz2010upfb   0.57500
gfz2010urlq   1.30260
gfz2010usho  -2.26410
gfz2010ustq   0.14700
gfz2010utcg   0.54300
gfz2010utmc   0.64890
gfz2010uyhb  -1.25000
gfz2010uzon  -0.31870
gfz2010vbmd   0.79060
gfz2010veri  -0.93720
gfz2010vhuj  -2.79610
gfz2010vppc   0.97810
gfz2010vxvs  -0.89700
gfz2010wioh   0.20630
gfz2010wnty  -1.05050
gfz2010wntz   1.12420
gfz2010wofs  -1.68310
gfz2010wrxx   0.42120
gfz2010wxqa  -0.35110
gfz2010xbdv   3.70390
gfz2010xbgs   1.35640
gfz2010xche   0.05450
gfz2010xden  -0.70160
gfz2010xgzw  -0.67680
gfz2010xjck  -0.06020
gfz2010xjsj   0.85850
gfz2010xmpr   2.07370
gfz2010xxdb   0.10000
gfz2010xxzn   2.09440
gfz2010yjev   1.35940
gfz2010ymfy  -1.04010
gfz2010ymur  -0.43940
gfz2010yosr  -0.29370
gfz2010yoyx  -0.14390
gfz2010yqqv  -0.20520
gfz2010zdpo   0.01770
gfz2010zeeh   0.36700
gfz2011aatr   1.46520
gfz2011adjs   0.64890
gfz2011ahfw   1.26400
gfz2011alip   0.43810
gfz2011alsa   1.65660
gfz2011anur  -1.40570
gfz2011aqxf   0.88240
gfz2011bgrp   0.05670
gfz2011bhha   1.22780
gfz2011blsi   0.03920
gfz2011bnzn   1.17570
gfz2011bpkd   3.04760
gfz2011ccpw  -0.77440
gfz2011cndo  -0.37750
gfz2011csju   0.87480
gfz2011ctbn   3.93460
gfz2011cvcg   0.32040
gfz2011cvfg  -1.18960
gfz2011cwgn   0.39400
gfz2011cykd   0.57040
gfz2011cynl   0.84160
gfz2011cyre  -0.25530
gfz2011cyuk   0.67670
gfz2011dcqf   0.23390
gfz2011ddao  -1.44560
gfz2011deaf  -0.14860
gfz2011dlyx   0.14140
gfz2011dndz   3.40930
gfz2011dpaa  -0.15990
gfz2011dpmx   0.14490
gfz2011eayc  -0.12900
gfz2011eazf  -1.17060
gfz2011ecaj   0.57940
gfz2011edmm   0.66890
gfz2011ehzq   0.30000
gfz2011ejlp  -0.22360
gfz2011eltw  -0.52090
gfz2011enva  -0.40360
gfz2011etje   0.06170
gfz2011fgvr   0.15460
gfz2011fhag  -0.19770
gfz2011fhbm   1.22750
gfz2011fhur   0.18540
gfz2011fkbn   0.46690
gfz2011flgj  -0.11040
gfz2011flhp   0.22140
gfz2011gbmx  -0.13890
gfz2011gcwb  -0.15450
gfz2011ggvf  -0.76190
gfz2011gkey   2.08820
gfz2011gkzt  -1.14400
gfz2011haid   0.02870
gfz2011hbex   0.27330
gfz2011hebt   0.77500
gfz2011hfkj  -0.10180
gfz2011hlqw   0.39340
gfz2011hlsa   0.24210
gfz2011hlth   0.15730
gfz2011hpgx  -1.32720
gfz2011hpqp  -0.03140
gfz2011hsfj   0.00000
gfz2011icxe  -0.33850
gfz2011ieie   0.71790
gfz2011izqa   0.30910
gfz2011jdsj   4.92080
gfz2011jghb  -1.89740
gfz2011jmbn  -0.73050
gfz2011jplh   0.00560
gfz2011jtlg  -0.16510
gfz2011juid  -1.79880
gfz2011jxpl  -0.65410
gfz2011knbi  -0.70670
gfz2011knoo   0.36710
gfz2011kqwo   0.93370
gfz2011kqyg   0.90150
gfz2011kxzp   0.58450
gfz2011lcxq  -0.23150
gfz2011lgsg   0.29600
gfz2011lhls   4.08610
gfz2011lvjr  -1.02620
gfz2011lzwj   0.64520
gfz2011mdie   0.02510
gfz2011mjom   1.99930
gfz2011mllx  -0.15420
gfz2011mpme   0.07980
gfz2011mprq   0.06940
gfz2011nkaz  -0.27580
gfz2011nmnq   0.23870
gfz2011nmqj   0.89420
gfz2011nowp  -0.37140
gfz2011npgs  -1.35640
gfz2011nqpd   0.99650
gfz2011nrwv   0.26460
gfz2011ntkh  -0.12340
gfz2011nudm  -0.29150
gfz2011ogqk   0.55220
gfz2011ohcy  -0.69680
gfz2011oiqe  -0.65500
gfz2011oiwk   0.58930
gfz2011olkk  -0.38890
gfz2011oolr   0.41030
gfz2011orgn  -1.36450
gfz2011ornx   0.23570
gfz2011owvz  -0.17510
gfz2011ozsl   0.15260
gfz2011pccd   0.44200
gfz2011phms   7.08400
gfz2011pntf   1.55090
gfz2011ptus  -2.14000
gfz2011qigx  -0.55820
gfz2011qoif  -0.81960
gfz2011qvae   0.16300
gfz2011qyms   0.68480
gfz2011rabm  -0.94620
gfz2011rdby  -1.59620
gfz2011rewa   0.63180
gfz2011rgwp  -1.17630
gfz2011rqui  -0.96730
gfz2011rsrh   0.07180
gfz2011runa   0.59260
gfz2011sagt  -0.44330
gfz2011sawg  -0.77680
gfz2011shqm   0.08070
gfz2011sthv  -0.02950
gfz2011svix   0.71410
gfz2011tbas   0.82780
gfz2011tivu   1.61340
gfz2011tjue   2.38680
gfz2011tkfp   0.49180
gfz2011tkog  -0.58460
gfz2011toub  -1.72930
gfz2011tpfr  -0.45420
gfz2011tsfd  -0.27550
gfz2011tsnp  -0.11140
gfz2011ueni  -1.41570
gfz2011uepx  -1.59050
gfz2011ugzz  -0.51800
gfz2011ujze  -0.61370
gfz2011ukmp  -0.13360
gfz2011urxy  -0.04340
gfz2011urzu  -1.12860
gfz2011vhfi   0.74290
gfz2011vkun   0.12340
gfz2011vldk  -0.70700
gfz2011vnza  -2.52080
gfz2011vqnr  -0.00000
gfz2011vrhg  -3.66260
gfz2011vusi   0.05280
gfz2011vxns  -0.27160
gfz2011vxod  -0.13100
gfz2011vxxg  -0.67750
gfz2011wcic  -0.55240
gfz2011wfja   2.12810
gfz2011wijj   0.52720
gfz2011wjkf   0.72700
gfz2011wjul  -2.10410
gfz2011wtmq   1.25330
gfz2011wvzb  -0.67550
gfz2011wwjs  -0.38520
gfz2011wxfs   2.91170
gfz2011wxoj   0.89250
gfz2011wxtk  -0.98980
gfz2011wype  -0.27620
gfz2011xaan   0.33940
gfz2011xcpv   0.64090
gfz2011xesx  -0.63320
gfz2011xqru   0.22380
gfz2011xyxj   0.42010
gfz2011ytnu  -0.11810
gfz2011yybo   0.13020
gfz2011yzwq  -0.04160
gfz2011zjap  -0.12130
gfz2011zklv   0.16990
gfz2011zlfg  -0.27520
gfz2011zlrd  -0.23120
gfz2011zqhh  -0.21110
gfz2012ajtq   0.63800
gfz2012aqgp   0.53750
gfz2012aqtq  -0.48280
gfz2012attr  -0.14590
gfz2012bfah   0.30060
gfz2012bfyn   1.03120
gfz2012bngd   0.50160
gfz2012bpkx  -0.40860
gfz2012bpwl  -0.15970
gfz2012brhv  -1.07110
gfz2012byad  -0.04360
gfz2012cbed   0.25000
gfz2012cxdn  -0.07730
gfz2012czlw   2.00570
gfz2012dves  -0.29620
gfz2012dyyh  -0.64480
gfz2012ekda  -0.13730
gfz2012emjg  -1.21260
gfz2012enno   0.59970
gfz2012ewgo  -0.03960
gfz2012ewkj   0.08030
gfz2012fivh  -0.11250
gfz2012foeo   1.82910
gfz2012fqcg  -0.46040
gfz2012fwob   1.99650
gfz2012fwtr   0.36430
gfz2012fzfa   0.24010
gfz2012fzsq   0.02560
gfz2012hnul  -0.05020
gfz2012holl  -0.10860
gfz2012hwyo   1.45240
gfz2012hyaa   0.02200
gfz2012iamr   0.04100
gfz2012idje  -0.79200
gfz2012iivw   0.14070
gfz2012ilvn  -0.15920
gfz2012ilxh  -0.10630
gfz2012intn   0.14540
gfz2012iyrb   0.36480
gfz2012jgvj   0.14660
gfz2012jlox   1.14690
gfz2012jpgs   1.54730
gfz2012jted  -0.29970
gfz2012jupx  -2.21310
gfz2012jwhu   0.80590
gfz2012jxiy   2.06820
gfz2012kbjb  -0.05220
gfz2012kbzj   0.10150
gfz2012kdmb   0.11580
gfz2012keor  -1.21870
gfz2012kkup   0.36820
gfz2012klhx   0.34030
gfz2012kuct   0.56720
gfz2012kudo   0.44430
gfz2012kvzv  -0.77180
gfz2012kwgo  -1.19700
gfz2012lboz   1.11580
gfz2012lczo  -0.66800
gfz2012ldxg  -1.29530
gfz2012ljql   0.11710
gfz2012llug  -0.68680
gfz2012lrol   0.46570
gfz2012lxkv   0.63460
gfz2012lzmr   0.62020
gfz2012minr  -0.98730
gfz2012mpyl  -1.41050
gfz2012mupa  -0.62050
gfz2012mwij   1.07500
gfz2012myqa  -1.28130
gfz2012naqz  -0.55770
gfz2012nbtn  -0.89360
gfz2012nedn  -1.92410
gfz2012ngic   0.47790
gfz2012nkdf  -1.29600
gfz2012nojx  -1.19380
gfz2012nolo  -1.52330
gfz2012nqnk   0.87610
gfz2012ntzv   3.00840
gfz2012nxog  -0.60920
gfz2012nxyt  -0.07790
gfz2012obgw  -0.29200
gfz2012oedb  -0.14190
gfz2012omvo  -1.24000
gfz2012ostk  -0.07630
gfz2012pciw   0.02640
gfz2012peex   0.26680
gfz2012pgcl  -0.22690
gfz2012pkel  -0.35020
gfz2012plea   0.29080
gfz2012pqlt  -0.23530
gfz2012pqmu  -1.09160
gfz2012priv   0.38430
gfz2012prlt   0.36780
gfz2012pspd  -0.04080
gfz2012qqxg   1.01450
gfz2012quso  -0.56570
gfz2012qxcy  -1.31390
gfz2012rats  -0.76720
gfz2012rboy  -2.10110
gfz2012rcbq  -0.75130
gfz2012repv   0.83810
gfz2012rqlg   1.61650
gfz2012rtqi   1.28380
gfz2012ruks   0.37310
gfz2012rwko   0.13390
gfz2012rwov  -0.49400
gfz2012sfer   0.18960
gfz2012shtg  -0.83380
gfz2012sjea   0.60150
gfz2012snhi  -0.57140
gfz2012sphd   0.69110
gfz2012syvl  -1.79290
gfz2012szla   0.20650
gfz2012tazz   2.66570
gfz2012tbbp  -0.89360
gfz2012teic  -0.22150
gfz2012tmop   0.39700
gfz2012ttoa  -0.45070
gfz2012tyxl  -0.36110
gfz2012tzcc   2.46180
gfz2012tzgb   1.98440
gfz2012uafg  -0.08380
gfz2012uaqj   0.61580
gfz2012uciv  -5.61620
gfz2012uhup   0.59590
gfz2012uqzp  -0.22030
gfz2012uyie  -0.18740
gfz2012uyxb   0.49940
gfz2012uzom  -0.64710
gfz2012vceo   0.07000
gfz2012vdbt   0.94980
gfz2012vpza   0.14470
gfz2012vxvr   0.86460
gfz2012wdyx  -0.79210
gfz2012wklq  -0.78500
gfz2012wmkd  -1.13720
gfz2012wmsg  -0.72300
gfz2012wpeq   0.07620
gfz2012wvfl  -0.56580
gfz2012wxer   0.21390
gfz2012wxlg   0.14190
gfz2012wxnu  -1.40850
gfz2012wybs   0.21630
gfz2012wypz   0.22960
gfz2013pcos   0.42820
gfz2013pfbx  -0.08480
gfz2013pffm   0.64800
gfz2013pfnf  -2.87390
gfz2013phef   2.16270
gfz2013pkbs  -0.00490
gfz2013plhp   1.29910
gfz2013pqui  -0.56210
gfz2013puag  -0.52350
gfz2013pupd   0.30730
gfz2013pxsj  -0.15370
gfz2013qali  -1.14190
gfz2013qfmm   1.13280
gfz2013qfsq   0.89050
gfz2013qidm   1.04300
gfz2013qmer  -0.65270
gfz2013qwbv   0.20460
gfz2013qzdq  -1.75420
gfz2013rdoo   0.22930
gfz2013reav   0.36860
gfz2013reym   0.71330
gfz2013roki  -0.06700
gfz2013rqcy  -0.51000
gfz2013rqmp  -0.38320
gfz2013rsnr   3.91230
gfz2013rvsm   0.10530
gfz2013sart  -0.41180
gfz2013sebq  -2.27560
gfz2013sfds   0.48440
gfz2013sfto  -0.67820
gfz2013shlq   1.53240
gfz2013shzy   0.90190
gfz2013snbr   0.64890
gfz2013sred   1.08630
gfz2013stcu  -0.66950
gfz2013suvn  -0.17890
gfz2013svci   0.70350
gfz2013syqk   0.11310
gfz2013tbzy   1.53940
gfz2013tcxc   0.13030
gfz2013tcxq  -1.04920
gfz2013tect   0.43740
gfz2013toxf   0.63260
gfz2013tusd  -0.79000
gfz2013tvmw  -0.03840
gfz2013tyas   0.20350
gfz2013uauo   1.58280
gfz2013ufxk  -0.74540
gfz2013upee   0.80740
gfz2013uuzn   0.20250
gfz2013vexx  -1.17830
gfz2013vfyw  -1.01470
gfz2013vfzp   0.56260
gfz2013viul   2.08630
gfz2013vjjc  -0.50210
gfz2013vvrq   0.05480
gfz2013vzbo   0.87510
gfz2013waam   0.81520
gfz2013wbyr   2.33520
gfz2013wkyk  -2.21340
gfz2013wtzl   0.70230
gfz2013xizq   0.12720
gfz2013xmul   0.16810
gfz2013xpfa  -0.16710
gfz2013xsdt  -2.13780
gfz2013xtwj  -0.97370
gfz2013xxcc   0.61700
gfz2013xxxq  -0.33000
gfz2013xzcg  -0.58050
gfz2013yach   0.05860
gfz2013yctg  -1.28650
gfz2013yghj   3.36720
gfz2013yhpk  -0.20000
gfz2013ylbx  -0.77040
gfz2013ypdc   0.60120
gfz2013yqkv  -0.20020
gfz2013yulx   4.10980
gfz2013yyhc  -0.06090
gfz2013yyti   1.39850
gfz2014abgd   0.14410
gfz2014adoj   0.92990
gfz2014afmx   0.05940
gfz2014ajlk  -1.26010
gfz2014ajtf   1.93030
gfz2014algk  -1.12190
gfz2014alwz  -0.30420
gfz2014amsb   1.70130
gfz2014arpf  -0.13480
gfz2014arqr   0.04470
gfz2014azqs   0.38840
gfz2014bagd  -0.64130
gfz2014bbro  -0.03230
gfz2014bezu   0.02690
gfz2014bjgt   1.20790
gfz2014bmta  -0.17850
gfz2014bolf  -0.57960
gfz2014bwue   1.77880
gfz2014cgog  -0.76770
gfz2014czua  -0.51560
gfz2014dhxt  -0.21120
gfz2014ebmc  -0.13820
gfz2014efkk  -0.14610
gfz2014eght  -0.88410
gfz2014emzb   1.43560
gfz2014eqpl   0.50320
gfz2014etqa   1.03330
gfz2014exxa   0.41610
gfz2014ezgb   1.75890
gfz2014fcms   0.52250
gfz2014fcsy   0.22940
gfz2014femz  -0.43240
gfz2014fexu   0.16240
gfz2014fgvi  -1.39240
gfz2014fhrq   0.92410
gfz2014fhwx  -0.12910
gfz2014fimn   0.25330
gfz2014fjyo   0.60610
gfz2014fkmr   0.55260
gfz2014fnyg  -2.27660
gfz2014frez   0.76300
gfz2014frjr   0.31390
gfz2014fstx  -0.35540
gfz2014ftka  -1.97930
gfz2014ftpw   0.45140
gfz2014fusj   0.40310
gfz2014fuub   1.46270
gfz2014fuup   5.14080
gfz2014fval  -0.71390
gfz2014fvgh  -0.03810
gfz2014fvjl   0.19120
gfz2014fwtt  -0.33070
gfz2014gkgf  -1.17520
gfz2014glcu  -1.43880
gfz2014glfn   3.95550
gfz2014gltx  -1.11530
gfz2014glvn  -1.67080
gfz2014glvu  -0.31470
gfz2014gmhr  -0.11770
gfz2014gmuk   0.62210
gfz2014gmzl  -0.91540
gfz2014gnnt  -0.72780
gfz2014gnre   1.22470
gfz2014gphr  -1.10560
gfz2014grfp   0.58810
gfz2014grgn   1.40210
gfz2014grho   1.65170
gfz2014gsqs  -1.86090
gfz2014gutm   1.56960
gfz2014hafk  -0.83780
gfz2014hagb  -0.13010
gfz2014hbqb   0.38590
gfz2014hfzf   1.49340
gfz2014hhfs   2.17780
gfz2014hjgh  -1.17580
gfz2014hjgr  -0.19560
gfz2014hjij  -1.04660
gfz2014hjlx   0.15720
gfz2014hqxs  -0.59260
gfz2014hscz   0.06000
gfz2014huaj  -0.31790
gfz2014hzze   1.03570
gfz2014ikvd   0.77320
gfz2014immt   0.78430
gfz2014imnn  -1.05590
gfz2014itpj  -1.40230
gfz2014jcjt   1.80230
gfz2014jcmt   1.97810
gfz2014jird  -0.39870
gfz2014jnyv  -1.58950
gfz2014jpgu  -0.84190
gfz2014jvow  -0.12370
gfz2014kjzb  -0.67720
gfz2014knks  -0.26590
gfz2014krlg  -0.40560
gfz2014kwrg  -1.96330
gfz2014lkyf  -0.79460
gfz2014lwom   0.05910
gfz2014lyhk  -1.63290
gfz2014macx  -1.76700
gfz2014madw  -0.76380
gfz2014mhgg   0.18020
gfz2014mmtb  -0.32340
gfz2014mogb   0.17100
gfz2014mtum  -0.49570
gfz2014navw   1.77570
gfz2014ngnd  -0.27010
gfz2014niqj   1.36480
gfz2014nnxd  -1.65580
gfz2014nqfm  -0.80740
gfz2014oims  -0.50670
gfz2014ooaa   0.21480
gfz2014owxc   0.51580
gfz2014oxcc   0.47120
gfz2014oyly  -0.05790
gfz2014pjum  -0.00970
gfz2014pzni  -0.85720
gfz2014qdog   0.35100
gfz2014qjfl  -0.95830
gfz2014qqhm   0.00320
gfz2014qsby  -0.87470
gfz2014qtwv  -0.01340
gfz2014rbpx  -1.07160
gfz2014rbsl   0.37710
gfz2014rdoz   0.14990
gfz2014rffv   0.07250
gfz2014rkwl  -0.24810
gfz2014rucz   0.06390
gfz2014sptq  -1.39860
gfz2014tqly   1.39700
gfz2014tqth  -0.60020
gfz2014tzsd  -0.98370
gfz2014uuqa  -0.12140
gfz2014uvji  -0.71820
gfz2014uxyg   0.20780
gfz2014uzaw  -0.54230
gfz2014vnxu   0.15410
gfz2014waoo   0.26080
gfz2014watn  -0.53660
gfz2014wqcp  -0.59780
gfz2014wrkh  -0.19050
gfz2014wwib  -0.98940
gfz2014xhkc   1.11570
gfz2014xjri  -0.02160
gfz2014xkdg  -0.52530
gfz2014xqqd  -1.77210
gfz2014yyiy  -0.49050
gfz2014zkys   0.26060
gfz2015abpw   1.06460
gfz2015aide  -0.96460
gfz2015ansu  -0.58240
gfz2015aqbq  -0.29310
gfz2015arpd   0.05120
gfz2015aruz  -1.04650
gfz2015atxv  -0.08250
gfz2015bavu   0.42820
gfz2015bdyd  -0.29910
gfz2015berb   0.36100
gfz2015bfzt   0.05150
gfz2015bkbj   3.28990
gfz2015bphe   0.54460
gfz2015bucr   0.56130
gfz2015chhn   0.36870
gfz2015chqn  -0.86420
gfz2015cyjd  -0.48850
gfz2015dizn   0.05820
gfz2015dskr   1.79120
gfz2015ednc   3.99490
gfz2015eeyq   0.76150
gfz2015eezy   0.27740
gfz2015egxq  -0.41020
gfz2015emcg   0.03540
gfz2015emtg  -0.50660
gfz2015fbbk   1.15180
gfz2015fbew  -1.33840
gfz2015fcua  -0.69840
gfz2015fkbc   0.54910
gfz2015fkgt   0.48190
gfz2015fkic  -0.39460
gfz2015fxdi   1.62490
gfz2015fyvk   0.46350
gfz2015okmq   0.83520
gfz2015oyfl  -1.06240
gfz2015plal   0.15560
gfz2015qafb   0.83640
gfz2015qbme   0.08770
gfz2015qvxu  -0.18470
gfz2015rddx   0.15650
gfz2015rpzn  -1.60500
gfz2015rwsb  -0.17050
gfz2015sdeo   0.28690
gfz2015sdfy   1.22750
gfz2015sevh  -0.02340
gfz2015sfdd   0.65770
gfz2015sfdh  -0.25080
gfz2015sgmm  -0.36580
gfz2015sgxc  -0.02890
gfz2015sist   0.79000
gfz2015sitn   1.05270
gfz2015sjne  -0.14510
gfz2015sjpn   0.52540
gfz2015sjwi  -0.20470
gfz2015skab   1.36970
gfz2015skgj  -0.08540
gfz2015skia  -0.16410
gfz2015sljs  -0.00000
gfz2015slun  -0.06840
gfz2015smgj   0.71360
gfz2015snmr   1.40120
gfz2015snsf  -0.62170
gfz2015snwh  -0.20980
gfz2015snyd   0.91470
gfz2015soat   0.06270
gfz2015soxc  -0.06320
gfz2015spal  -0.45590
gfz2015sqbg   0.33860
gfz2015srat   0.29950
gfz2015svjy  -0.50790
gfz2015svwm   0.12270
gfz2015sxmh   0.97580
gfz2015szcb  -0.54790
gfz2015taml  -1.59810
gfz2015tbxe   0.84440
gfz2015tdcu   0.28420
gfz2015teje  -0.02890
