# Nsamples: 52  MAD:  0.442  mean: -0.257  variance:  0.947
gfz2010ahqi  -1.41740
gfz2010bjeb   0.48210
gfz2010bxxs  -0.37210
gfz2010ebhc  -0.24020
gfz2010fync   1.13880
gfz2010grjd  -1.52210
gfz2010iull  -0.16500
gfz2010mkuu  -0.90010
gfz2010usho   0.54830
gfz2011aatr  -0.01820
gfz2011dpqx  -0.03990
gfz2011enva  -0.49180
gfz2011gkzt  -4.27080
gfz2011rewa  -0.24600
gfz2011toub   0.33160
gfz2011wxfs  -0.47120
gfz2011xyxj  -0.29230
gfz2012enno  -0.52000
gfz2012jlox  -0.00190
gfz2012ldxg  -0.35200
gfz2012ldzj   0.10940
gfz2012vrgb  -0.18200
gfz2012wypz   0.07890
gfz2013drxz  -0.11450
gfz2013jkut   0.11940
gfz2013nkgj  -2.69570
gfz2013nwdi  -0.75930
gfz2013pfbx  -0.62430
gfz2013svci  -0.28100
gfz2013xsdt  -0.35950
gfz2014bwue   0.00000
gfz2014fgvi  -0.38010
gfz2014fhla   0.98720
gfz2014ftka   1.12770
gfz2014gkgf  -1.26230
gfz2014gkqf  -0.65250
gfz2014gmge   1.80520
gfz2014gmhr   1.25320
gfz2014gmnb  -0.81430
gfz2014gull  -0.55350
gfz2014hasj  -0.56120
gfz2014lyhk  -0.60670
gfz2014ssvz  -0.09680
gfz2015cyjd   0.18940
gfz2015fsjj  -0.28270
gfz2015lhjy  -0.16320
gfz2015mpte  -0.37530
gfz2015sfdd  -0.53440
gfz2015sfdy  -0.00220
gfz2015sfno   2.19840
gfz2015smym  -1.15330
gfz2015snwh   0.03440
