# Nsamples: 76  MAD:  0.769  mean: -0.356  variance:  2.645
gfz2010cqwl  -4.70440
gfz2010eaoy  -0.84620
gfz2010eaqe   0.13990
gfz2010eaqx   0.00000
gfz2010eaqy   2.23790
gfz2010earu   1.28650
gfz2010easo   0.38410
gfz2010eavs  -0.38520
gfz2010eawb   1.65010
gfz2010eawu   0.70850
gfz2010eaxa  -1.25340
gfz2010eazu   1.80190
gfz2010ebhc  -0.51890
gfz2010ebih   1.22900
gfz2010ebin   3.91080
gfz2010ebnn  -0.04790
gfz2010ebsv   1.47520
gfz2010ebvm  -0.00000
gfz2010ecua  -0.23700
gfz2010eisx  -0.29480
gfz2010ekyc  -0.68020
gfz2010eltf  -2.32420
gfz2010elyc   1.82800
gfz2010excp   0.11960
gfz2010exdd   1.54210
gfz2010exdl  -0.47980
gfz2010exno  -0.45810
gfz2010exsg  -1.86250
gfz2010ezck   0.04940
gfz2010fedq   1.32240
gfz2010ffhq  -1.04960
gfz2010fync  -0.49170
gfz2010iobp  -0.47260
gfz2010iull  -0.09760
gfz2010nqwo   0.50780
gfz2011kwjx  -2.29350
gfz2011wxfs  -0.65700
gfz2011yfdx  -1.17150
gfz2012enno  -0.68640
gfz2012fzfa   0.58570
gfz2012hnul  -0.30600
gfz2012uafg  -0.60700
gfz2012wecd  -0.13200
gfz2012wklq  -0.31550
gfz2012wypz  -0.80930
gfz2013ccnr  -0.24780
gfz2013ftso  -4.65760
gfz2013gbst  -0.01930
gfz2013gdnq  -1.33330
gfz2013gock  -4.30540
gfz2013jjsi  -6.11100
gfz2013pndn  -3.27850
gfz2013svci   0.63300
gfz2013vfzp   0.32910
gfz2013vjjc  -2.19330
gfz2013vxta   0.11530
gfz2013wjmm  -1.26400
gfz2013wnpr  -0.41090
gfz2014algk   0.52880
gfz2014fgvi  -0.52840
gfz2014fvhp  -0.98090
gfz2014gbcz   3.61120
gfz2014gkgf  -0.43390
gfz2014gmhr   2.40180
gfz2014itfc  -1.19670
gfz2014lwvb  -0.30310
gfz2014vjoz  -0.78770
gfz2015chhn  -0.72820
gfz2015cyjd   0.16710
gfz2015emcg  -0.02060
gfz2015fkgt  -0.31270
gfz2015fsjj   0.06550
gfz2015gckd   0.05450
gfz2015kfsu  -0.86140
gfz2015lhjy  -1.78790
gfz2015lytv  -0.80480
