# Nsamples: 1341  MAD:  0.477  mean:  0.020  variance:  0.639
gfz2010aerk   0.24850
gfz2010ahqi  -0.42950
gfz2010aykj   0.28590
gfz2010bfzs  -0.07380
gfz2010bgth  -0.03450
gfz2010bhhq  -1.21300
gfz2010bifb  -0.88220
gfz2010bjeb   0.08320
gfz2010bjjx   0.26190
gfz2010bjsl   1.04810
gfz2010bkob  -0.23770
gfz2010bowy  -0.60030
gfz2010boxo  -1.35340
gfz2010bpda   1.22220
gfz2010bxxs  -0.40560
gfz2010caft  -0.31080
gfz2010cbkg   0.13490
gfz2010cdbt   0.08850
gfz2010civi  -0.43100
gfz2010cjqh   2.85980
gfz2010ckeu  -0.07470
gfz2010ckzm  -0.28440
gfz2010cnwc   0.69140
gfz2010cqwl   0.13220
gfz2010dejx  -0.07560
gfz2010diqn   0.30850
gfz2010dlgc   0.20530
gfz2010dtmx   0.01890
gfz2010dumm  -0.06400
gfz2010eaoy   0.04680
gfz2010eapk  -0.31590
gfz2010eapn   0.11880
gfz2010eaqe   1.16760
gfz2010eaqx  -0.10380
gfz2010eaqy  -0.41860
gfz2010earq  -0.85960
gfz2010earu  -1.13960
gfz2010easf   0.72280
gfz2010easo   0.32470
gfz2010easu  -1.28960
gfz2010eati   0.26340
gfz2010eato   0.14100
gfz2010eatt  -0.53790
gfz2010eaty   0.63690
gfz2010eaul   0.39190
gfz2010eavd   2.08550
gfz2010eavs   0.91400
gfz2010eawb   1.59360
gfz2010eawu  -1.47020
gfz2010eaxa  -0.11690
gfz2010eaxn  -0.64810
gfz2010eaya   2.68310
gfz2010eayd  -0.18490
gfz2010eayp   0.71650
gfz2010eaze  -0.94190
gfz2010eazu  -0.86570
gfz2010ebbx   1.20150
gfz2010ebby   0.55800
gfz2010ebdl  -0.47320
gfz2010ebek  -0.87100
gfz2010ebfx  -0.30900
gfz2010ebgj   0.37290
gfz2010ebhc   0.57470
gfz2010ebih   0.02060
gfz2010ebin   2.92120
gfz2010ebiv  -0.47600
gfz2010ebjy  -0.26070
gfz2010ebkj  -0.74730
gfz2010ebkx  -0.23560
gfz2010ebla   0.25430
gfz2010ebll  -0.16520
gfz2010ebmb  -0.82850
gfz2010ebnn   0.92120
gfz2010ebrm   0.35780
gfz2010ebvm   0.05140
gfz2010ebvv   0.49360
gfz2010ebwp   0.08920
gfz2010ebxl  -0.37770
gfz2010ebze  -0.04400
gfz2010ebzk  -0.88340
gfz2010ebzr  -0.06800
gfz2010ecam  -0.19440
gfz2010ecay  -0.12210
gfz2010ecbi   1.05640
gfz2010eccq  -0.15720
gfz2010eced   2.26430
gfz2010ecfy  -0.38650
gfz2010ecgh  -1.26420
gfz2010echc   0.35480
gfz2010echt   0.47180
gfz2010echy  -0.37760
gfz2010ecnm   0.85530
gfz2010ecps   0.32770
gfz2010ecro   0.85130
gfz2010ecsp  -2.22440
gfz2010ecua   0.31850
gfz2010ecuv  -0.64060
gfz2010ecvt   0.26370
gfz2010edat  -0.53260
gfz2010eday  -0.58560
gfz2010edbz   1.23530
gfz2010edcp   3.77160
gfz2010edhr  -0.24730
gfz2010edim  -1.18330
gfz2010edkp  -0.06580
gfz2010edsk   1.23380
gfz2010edvf   0.32780
gfz2010edyi  -0.66050
gfz2010eedu   0.91350
gfz2010eedz  -0.99520
gfz2010eefh  -0.54690
gfz2010eegn  -0.12970
gfz2010eeia  -0.27390
gfz2010eeij  -1.04560
gfz2010eekq  -0.31590
gfz2010eerh  -0.42740
gfz2010eern  -0.39710
gfz2010eevu  -0.01260
gfz2010efkc  -0.69510
gfz2010efsq  -0.62000
gfz2010egap  -0.76030
gfz2010eghq  -0.52210
gfz2010egld  -0.09170
gfz2010egmp  -0.32140
gfz2010egqh   0.45760
gfz2010egsw  -3.06610
gfz2010egsy   0.88870
gfz2010ehft   0.08460
gfz2010ehnm   0.87190
gfz2010ehxz   0.66300
gfz2010eisx  -1.01160
gfz2010eixj   1.30890
gfz2010ejjg   0.25030
gfz2010ekaw  -0.57420
gfz2010ekoe   0.35420
gfz2010ekrv  -0.02030
gfz2010elhv   0.04830
gfz2010elin  -0.74420
gfz2010eljf   0.56430
gfz2010elsw  -0.07970
gfz2010eltf   0.61230
gfz2010elyc  -0.92310
gfz2010elyo  -0.20180
gfz2010emyz   0.60530
gfz2010enzl  -0.25790
gfz2010eomb  -3.00090
gfz2010epbe   0.05110
gfz2010epxj  -0.57950
gfz2010eqmu   2.24690
gfz2010eqwl   2.65830
gfz2010erdi   1.05040
gfz2010erfy  -0.76660
gfz2010erig   0.63000
gfz2010erkn  -0.11100
gfz2010ermi   6.11820
gfz2010erom  -0.13630
gfz2010erum   0.28740
gfz2010eruy  -0.06290
gfz2010erwn  -0.48170
gfz2010erxb   1.11200
gfz2010erxk  -1.69900
gfz2010eryg   0.48190
gfz2010esid  -0.81890
gfz2010esmg  -0.22340
gfz2010euan   0.15070
gfz2010eujm  -0.43950
gfz2010euvl  -0.16750
gfz2010euxe   0.17880
gfz2010evco  -1.08050
gfz2010evgf  -0.71590
gfz2010ewvc   0.09290
gfz2010excp  -0.36700
gfz2010exdd  -0.40730
gfz2010exdl  -0.65940
gfz2010exed   0.20650
gfz2010exel  -0.63940
gfz2010exfb  -1.09990
gfz2010exgb  -0.24540
gfz2010exhd   0.12770
gfz2010exhw  -0.78370
gfz2010exmc  -0.07200
gfz2010exno   0.29690
gfz2010exqu  -1.49390
gfz2010exsg  -0.97110
gfz2010exyp  -0.50400
gfz2010eyhh  -0.44630
gfz2010eyiv   1.05370
gfz2010eymr  -0.21030
gfz2010eyvq  -0.85630
gfz2010ezax  -0.58100
gfz2010ezck  -0.10760
gfz2010ezxd   0.23400
gfz2010faeu   2.64140
gfz2010falm  -0.31860
gfz2010fauz   1.41710
gfz2010fcax  -0.23350
gfz2010fcnn  -0.12750
gfz2010fczt  -0.94910
gfz2010fedq  -2.54550
gfz2010fefr   0.91240
gfz2010fexw  -0.34330
gfz2010ffhq   0.27120
gfz2010ffjb  -0.31100
gfz2010fika  -0.36660
gfz2010fjal   0.55820
gfz2010fkia   2.84460
gfz2010flha  -0.12500
gfz2010flrt  -1.21290
gfz2010flxi  -0.72450
gfz2010fmwb   1.03440
gfz2010fneu  -0.29680
gfz2010fobc  -0.70090
gfz2010fpqy   0.39080
gfz2010fqdu   0.30000
gfz2010fqtj  -0.38920
gfz2010fser   0.05740
gfz2010ftlm  -0.08630
gfz2010fupn  -0.42150
gfz2010fwlb  -0.53610
gfz2010fwpv   0.10630
gfz2010fwzd  -0.08570
gfz2010fync   0.32580
gfz2010fzoi  -0.44690
gfz2010gcrl   0.11680
gfz2010gcrp  -0.13610
gfz2010gdld  -0.03350
gfz2010gjia  -0.57640
gfz2010glqr   0.21130
gfz2010glxl   0.12970
gfz2010gmib   0.42070
gfz2010govu  -0.36830
gfz2010grjd   0.16280
gfz2010gslu  -0.46970
gfz2010gtzt  -0.24510
gfz2010gyqp  -0.39180
gfz2010gzxr  -0.04780
gfz2010hbka  -3.99960
gfz2010hcio  -0.26240
gfz2010hevz  -0.70450
gfz2010hhls   0.10120
gfz2010hjoc   0.23830
gfz2010hlln   4.44060
gfz2010hlmq   0.32280
gfz2010hlvr  -0.36790
gfz2010hndk  -0.48700
gfz2010hnnf  -1.17150
gfz2010homc  -0.81470
gfz2010hptz  -0.05680
gfz2010hrkr   0.22200
gfz2010hxbs   0.44500
gfz2010hxgv  -0.19490
gfz2010hxhe   0.36370
gfz2010iciq   0.28270
gfz2010iibf  -1.14970
gfz2010iimu   1.14840
gfz2010imfv   0.80890
gfz2010imsh  -0.46810
gfz2010iobp  -0.38600
gfz2010iphd  -0.65000
gfz2010iqep   0.14290
gfz2010iqfm   0.11490
gfz2010iqnm   0.07690
gfz2010irqr   0.74440
gfz2010irvf  -0.39210
gfz2010itpb   1.58430
gfz2010iull   0.35870
gfz2010izzj   1.07860
gfz2010jatq   2.08520
gfz2010jhie   1.39800
gfz2010jkxj  -1.67050
gfz2010jssh  -0.37840
gfz2010jsuh   3.69610
gfz2010jwpy  -0.58270
gfz2010jxbm   0.11650
gfz2010jygz  -0.25140
gfz2010jzku   1.00690
gfz2010kdyc  -0.43990
gfz2010kmsv   0.78290
gfz2010lczp  -1.94440
gfz2010lepw   0.70530
gfz2010lfju   0.36590
gfz2010lgwy  -0.58180
gfz2010lkcf   0.31620
gfz2010lrlk  -1.85760
gfz2010lwuq   2.57030
gfz2010mdpq  -0.06990
gfz2010mhjt  -1.32930
gfz2010miqn  -0.43130
gfz2010mkuu   0.20190
gfz2010mlkz   0.49570
gfz2010mlta   4.07930
gfz2010mncc  -0.27520
gfz2010mnsz   0.46620
gfz2010moyw  -0.68410
gfz2010msjj  -0.39370
gfz2010muca   0.16570
gfz2010mwdq  -0.25590
gfz2010ncrl  -0.45730
gfz2010nfsj  -0.93900
gfz2010nlkh  -0.18620
gfz2010nmpc  -1.37530
gfz2010nnny   0.27490
gfz2010nqwf  -0.78790
gfz2010nqwo  -0.34820
gfz2010nsck  -0.22420
gfz2010nsdf  -1.05980
gfz2010ntuo  -0.35320
gfz2010nubk  -0.60840
gfz2010nwef   0.00000
gfz2010nxsy   0.37710
gfz2010nxum   0.32600
gfz2010nzla  -0.95830
gfz2010odpb   0.81070
gfz2010oedn  -0.52830
gfz2010okdm   0.33110
gfz2010oluw   0.44590
gfz2010onma  -0.25550
gfz2010osjs  -0.77630
gfz2010oyqy  -0.39490
gfz2010pcxi  -0.24990
gfz2010pets   0.64360
gfz2010pewx   1.46400
gfz2010pfyu  -0.16360
gfz2010phvg  -0.79670
gfz2010pmqd  -0.17820
gfz2010pqck   1.24050
gfz2010pxak  -0.49070
gfz2010pxgh   0.45450
gfz2010qjst  -0.53060
gfz2010qkat   1.02550
gfz2010qpcq   0.01090
gfz2010qpum  -0.17040
gfz2010qpvi   0.18160
gfz2010rhas  -0.57680
gfz2010rkfp  -0.56900
gfz2010rqwj   2.70240
gfz2010rxjw   2.65280
gfz2010sfee  -0.16700
gfz2010skve  -0.57500
gfz2010srdb   0.42150
gfz2010svtn   0.04280
gfz2010swcy  -0.22520
gfz2010sxfq   0.16700
gfz2010sxwt  -0.21570
gfz2010sysw  -0.59240
gfz2010szde  -0.67680
gfz2010tcbr   0.98860
gfz2010titk  -1.24790
gfz2010truw  -0.57620
gfz2010txjs  -0.37360
gfz2010uept   0.21570
gfz2010upfb   0.32570
gfz2010urlq  -0.41270
gfz2010usho   0.28250
gfz2010ustq   0.82350
gfz2010utcg  -0.11100
gfz2010uvhf   0.70220
gfz2010uyhb   2.67670
gfz2010veri   5.68670
gfz2010vhuj   0.22170
gfz2010vppc   0.49020
gfz2010vtdg  -0.11780
gfz2010vyxd   0.17210
gfz2010wioh  -0.02680
gfz2010wnty  -0.38330
gfz2010wofs   7.80040
gfz2010xbdv   0.20030
gfz2010xbgs  -0.00000
gfz2010xche   0.21200
gfz2010xden   0.06680
gfz2010xgfc   0.36390
gfz2010xgzw   0.19700
gfz2010xjsj  -0.26460
gfz2010xnxk  -0.32050
gfz2010yjev   0.86960
gfz2010ymfy  -0.16120
gfz2010ymur   1.56110
gfz2010yosr   0.57510
gfz2011aatr   0.48960
gfz2011adjs  -0.52570
gfz2011alip  -0.10020
gfz2011aqxf   0.84100
gfz2011blsi   1.22600
gfz2011bpkd   0.02840
gfz2011ccpw   0.12620
gfz2011cfae  -0.05580
gfz2011cndo   0.30120
gfz2011csju  -0.09030
gfz2011cvfg   0.07040
gfz2011cykd  -0.42300
gfz2011cylz   3.42150
gfz2011cynl  -0.78550
gfz2011cyre  -0.62470
gfz2011cyuk   1.39200
gfz2011dbev  -0.02680
gfz2011dbig   0.11080
gfz2011dbon  -0.70860
gfz2011dcqb  -0.82020
gfz2011deaf   0.14810
gfz2011dkyi  -0.08970
gfz2011dlyx   0.84620
gfz2011dndz  -0.01910
gfz2011dpqx   0.23810
gfz2011eayc   0.06990
gfz2011eazf  -0.29240
gfz2011ecaj  -0.38500
gfz2011edmm   0.75400
gfz2011eltw   3.30380
gfz2011enva   0.01130
gfz2011eocc   0.04420
gfz2011etje   0.03190
gfz2011fgvr  -0.25660
gfz2011fhag   0.26060
gfz2011fhbm  -0.35120
gfz2011fhur   0.11710
gfz2011fkbn   0.00050
gfz2011flgj   0.13270
gfz2011fnsw  -0.16850
gfz2011gbmx   0.65690
gfz2011gcwb  -1.86110
gfz2011ggvf   0.71210
gfz2011gkey   0.17460
gfz2011gkzt  -0.67330
gfz2011gzbr   0.24850
gfz2011haid   0.18330
gfz2011hbex  -0.22020
gfz2011hebt  -0.27880
gfz2011hfkj  -0.40310
gfz2011hlqw   0.09260
gfz2011hlsa  -0.10100
gfz2011hlth  -0.16900
gfz2011hpgx  -0.63640
gfz2011hpqp  -0.20900
gfz2011hrhe  -0.32780
gfz2011hvbu  -0.46200
gfz2011icxe  -0.32050
gfz2011ieie   0.56230
gfz2011knoo  -0.02010
gfz2011kqwo  -0.86910
gfz2011kwjx  -0.45870
gfz2011kxzp   0.72500
gfz2011lcxq   0.64240
gfz2011lczg   0.08300
gfz2011lgsg   0.05760
gfz2011lhls   0.29340
gfz2011lvjr  -0.53640
gfz2011lzwj   0.49820
gfz2011mdie   0.19030
gfz2011mjom  -0.59170
gfz2011mllx   0.63580
gfz2011mpme  -0.22680
gfz2011mprq   0.02820
gfz2011myia  -0.02720
gfz2011nauw   1.32460
gfz2011necz   0.14280
gfz2011nrwc  -0.40530
gfz2011ntkh   0.35660
gfz2011nudm  -0.27470
gfz2011ogqk   1.32740
gfz2011ohcy   0.11400
gfz2011oiqe   0.22860
gfz2011oiwk   0.40720
gfz2011olkk  -0.81900
gfz2011oolr  -0.49520
gfz2011orgn   0.72740
gfz2011ornx   0.32700
gfz2011owvz   0.15570
gfz2011pccd   0.53690
gfz2011pdpt  -0.68690
gfz2011phms   0.32210
gfz2011pntf   0.24470
gfz2011qigx   0.37940
gfz2011qvae   0.29840
gfz2011qyms   0.13530
gfz2011rabm  -0.17710
gfz2011rewa   0.05940
gfz2011rgwp   0.86800
gfz2011rnut   0.42390
gfz2011rqui  -0.37040
gfz2011rsrh   0.03520
gfz2011sagt  -0.19900
gfz2011shqm   0.62160
gfz2011svix   0.40770
gfz2011tbas  -0.24650
gfz2011tcij   0.24550
gfz2011tivu  -0.48210
gfz2011tjue  -0.79340
gfz2011tkfp   0.02620
gfz2011tkog   1.79520
gfz2011tnag  -0.04830
gfz2011toub   0.42020
gfz2011tpbl  -0.15420
gfz2011tpfr  -0.21710
gfz2011tsnp  -0.94250
gfz2011tuea  -0.16360
gfz2011twov   0.24120
gfz2011ueni  -0.05940
gfz2011uepx   0.65900
gfz2011ugzz   0.28140
gfz2011ujze  -0.12970
gfz2011ukmp   1.88440
gfz2011uphh  -0.21110
gfz2011urxy  -0.16180
gfz2011urzu  -0.25510
gfz2011uzqv   0.57170
gfz2011vclt   0.22050
gfz2011vhfi   0.40030
gfz2011vnza   0.46750
gfz2011vxns  -0.56960
gfz2011vxxg   0.13400
gfz2011wcic  -0.60820
gfz2011wfja   0.01310
gfz2011wjul  -0.68130
gfz2011wvzb  -0.21550
gfz2011wwjs   0.26120
gfz2011wxfs  -0.53120
gfz2011wxtk  -0.38190
gfz2011xaan  -0.05070
gfz2011xcpv   0.07980
gfz2011xesx  -0.26180
gfz2011xqru   2.71060
gfz2011xyxj  -0.10700
gfz2011yfys  -0.50620
gfz2011zklv   0.09980
gfz2011zqhh  -0.05430
gfz2012ajtq   0.27160
gfz2012aqgp   0.09740
gfz2012attr  -0.32860
gfz2012bfah  -0.64800
gfz2012bfyn   0.39790
gfz2012bngd   0.17460
gfz2012bpkx   0.02100
gfz2012bpwl  -0.34320
gfz2012bszs   0.04450
gfz2012byad  -0.56820
gfz2012cgvr   1.10250
gfz2012cnod   0.23360
gfz2012covm  -0.09230
gfz2012cqnl  -0.58390
gfz2012cxdn  -0.68300
gfz2012czlw   0.44340
gfz2012dinb  -0.01960
gfz2012dves  -3.26390
gfz2012dyyh   0.21100
gfz2012ekda   0.05640
gfz2012ekzf   0.69130
gfz2012emjg   0.06310
gfz2012enno   0.44760
gfz2012ewgo   0.11020
gfz2012gkvr   0.38250
gfz2012glss   0.00000
gfz2012gnvh   0.17270
gfz2012gocc   1.88560
gfz2012gwmu   0.29570
gfz2012hdbm  -0.17010
gfz2012hnul   0.24430
gfz2012hogg   0.08410
gfz2012iamr   0.12680
gfz2012ilvn  -0.09620
gfz2012imay   0.05630
gfz2012jgvj  -1.16080
gfz2012jjzc   0.44980
gfz2012jlox   0.12120
gfz2012jshk  -0.00000
gfz2012jupx  -0.06820
gfz2012kbjb   1.09860
gfz2012kbzj  -0.16240
gfz2012keor   0.53380
gfz2012kkup   0.20340
gfz2012klhx   1.04110
gfz2012kuct  -0.62830
gfz2012kudo  -0.54720
gfz2012kvzv  -0.30580
gfz2012kwgo   0.05190
gfz2012lczo  -0.55840
gfz2012ldxg   0.16240
gfz2012ldzj  -0.64470
gfz2012llug  -0.78160
gfz2012lxkv  -0.22870
gfz2012lzmr   0.31190
gfz2012minr  -0.60420
gfz2012mupa   0.48490
gfz2012mvwr  -0.34280
gfz2012mwij   0.50140
gfz2012naqz   0.54000
gfz2012nedn   0.62270
gfz2012nkdf  -1.42270
gfz2012nojx   0.46890
gfz2012nolo  -0.42580
gfz2012nqnk   1.37640
gfz2012nsbz  -0.47460
gfz2012nutf   0.10620
gfz2012nxyt  -0.02000
gfz2012oazn   0.12100
gfz2012obgw  -1.07330
gfz2012oedb  -0.16620
gfz2012ostk  -0.24530
gfz2012pciw  -0.55710
gfz2012peex  -0.25840
gfz2012pgcl   0.10380
gfz2012pkel  -0.41810
gfz2012plbw  -0.15920
gfz2012pqmu   0.89520
gfz2012qjhs  -0.23840
gfz2012rcnj  -0.55230
gfz2012repv   0.08890
gfz2012rjsd   0.56400
gfz2012ronz  -0.00630
gfz2012royy  -0.62410
gfz2012rqlg   2.88390
gfz2012ruks  -0.06160
gfz2012rwko  -0.08740
gfz2012rwov  -0.45530
gfz2012rypu  -0.19030
gfz2012spbj  -1.04590
gfz2012sphd   0.03630
gfz2012sqmv   1.44430
gfz2012sqvi  -0.36180
gfz2012ssyn   0.61080
gfz2012svpr  -0.03420
gfz2012syvl  -0.06480
gfz2012taou   0.65610
gfz2012tazz   0.42410
gfz2012teic   0.05180
gfz2012tmop  -0.22960
gfz2012ttoa   0.13500
gfz2012tvmv  -0.12180
gfz2012uafg  -0.34820
gfz2012uciv  -0.09520
gfz2012uhup  -0.08890
gfz2012ulpd   0.23440
gfz2012uvqf   0.97560
gfz2012uyxb   0.11050
gfz2012vpza  -0.77470
gfz2012vrgb   0.20810
gfz2012vxvr   0.08410
gfz2012whku  -0.77120
gfz2012wklq  -0.85430
gfz2012wmsg  -0.73740
gfz2012wtkh  -0.63100
gfz2012wtkr  -0.12450
gfz2012wvfl  -0.29430
gfz2012wxer  -0.69650
gfz2012wxkg  -0.30250
gfz2012wxlg  -0.23060
gfz2012wxnu  -1.80490
gfz2012wybs  -0.51750
gfz2012wypz  -0.09160
gfz2012xbjq   0.51440
gfz2012xgqm   0.31570
gfz2012xjyv   0.11100
gfz2012xslk  -0.09530
gfz2012xyqp  -0.04200
gfz2012zemz  -0.62880
gfz2012zfag   0.44830
gfz2012zitl   0.04170
gfz2012zmbp   0.64670
gfz2013aahq  -0.65190
gfz2013aayj   0.05060
gfz2013apmm   0.06960
gfz2013aqaw  -0.18970
gfz2013bokp  -0.05280
gfz2013btjm  -0.53630
gfz2013ccnr  -0.16080
gfz2013cdan  -0.35630
gfz2013ciaf  -2.48620
gfz2013cvqg   0.29960
gfz2013cwpn   0.39090
gfz2013dkly  -2.41130
gfz2013dofo  -0.09990
gfz2013dojq   0.44390
gfz2013drxz  -0.46170
gfz2013dsog  -0.39890
gfz2013dspt  -1.08210
gfz2013dsrk  -1.53000
gfz2013dujm  -0.27380
gfz2013dvyh   0.12520
gfz2013egni   0.59130
gfz2013egpu   0.98810
gfz2013fiud  -0.23170
gfz2013fkcl   0.05740
gfz2013ftso  -0.15390
gfz2013fygc  -0.31230
gfz2013gbst  -0.47330
gfz2013gdgf   0.19800
gfz2013gdnq  -0.62400
gfz2013gmor  -0.56310
gfz2013gngz  -0.14940
gfz2013gnse   0.63640
gfz2013gock  -0.02630
gfz2013gvdb   0.12160
gfz2013gvex  -0.69120
gfz2013gwrd   0.13370
gfz2013gxsu  -0.43180
gfz2013hdnc  -1.70150
gfz2013hfmp   0.62720
gfz2013huwr   0.66500
gfz2013hxcx  -0.49410
gfz2013iayx   0.08340
gfz2013ifpq   0.04960
gfz2013igmx  -0.01830
gfz2013ijsr   0.22190
gfz2013ikgo  -0.21470
gfz2013ilug  -0.20480
gfz2013ippu  -1.02380
gfz2013jesk   0.28170
gfz2013jgij  -0.16330
gfz2013jgip   0.61820
gfz2013jkut   0.96290
gfz2013jusj  -2.17730
gfz2013jwvc   0.12630
gfz2013kccc  -0.34570
gfz2013kdeo  -0.20200
gfz2013kheb  -0.50910
gfz2013khli  -0.10590
gfz2013lajg   0.06280
gfz2013ldpc  -0.18490
gfz2013ldqb  -0.26840
gfz2013lixa  -0.01090
gfz2013lmqe   0.98610
gfz2013lmrs  -0.22100
gfz2013lsob   0.10690
gfz2013lwbk  -0.27990
gfz2013lyko   0.33630
gfz2013mmwq   0.47720
gfz2013mnei   0.33240
gfz2013mqmv  -0.64590
gfz2013mvgr   0.15870
gfz2013mwbh  -0.09590
gfz2013mxee   0.15860
gfz2013nabl   0.19820
gfz2013ncjp  -0.14210
gfz2013ndin   0.22700
gfz2013neuc   0.18930
gfz2013nixj   0.00350
gfz2013nkgj  -0.15700
gfz2013nknw   0.14210
gfz2013nmac  -0.09350
gfz2013nqgw  -0.45820
gfz2013nuvi  -0.23510
gfz2013nwdi   0.43120
gfz2013ogde   0.29080
gfz2013oifr  -0.25670
gfz2013oinc   0.58190
gfz2013ojti  -0.29020
gfz2013orzn  -0.59760
gfz2013ozrf  -0.36380
gfz2013ozrp  -0.42630
gfz2013pcos  -0.21070
gfz2013pfbx   0.46330
gfz2013pffm  -0.04290
gfz2013pkbs   0.04580
gfz2013plhp  -0.32310
gfz2013poxj   0.34810
gfz2013ppqq   1.44780
gfz2013pqui  -0.38660
gfz2013pxsj  -0.05590
gfz2013qali  -0.46400
gfz2013qmer  -0.34310
gfz2013qnxc   0.87930
gfz2013qzdq  -1.24520
gfz2013rait   1.29440
gfz2013reym  -0.32430
gfz2013roki   0.33060
gfz2013sart   0.74300
gfz2013sdus  -0.30210
gfz2013sfto  -0.43240
gfz2013shzy   0.12660
gfz2013skkm   0.00080
gfz2013suvn   0.73130
gfz2013svci   0.59970
gfz2013tcxc  -0.33810
gfz2013toea   0.20220
gfz2013toxf  -0.02080
gfz2013tpeb   0.77990
gfz2013tusd  -0.27560
gfz2013tvmw  -0.13250
gfz2013txev  -0.11420
gfz2013txij  -0.87930
gfz2013uauo   2.43120
gfz2013ufxk   0.09450
gfz2013ufxm  -0.32680
gfz2013ugax   0.83460
gfz2013uqsp   0.14590
gfz2013uqvu  -1.87430
gfz2013uthl   0.22610
gfz2013utsh  -0.47110
gfz2013vexx  -0.20970
gfz2013vfyw   0.26660
gfz2013vfzp  -0.25850
gfz2013vgrk  -0.11020
gfz2013vhzu  -0.05130
gfz2013viul  -0.05030
gfz2013vjjc  -0.61350
gfz2013vrmy  -0.62480
gfz2013vuja   0.32070
gfz2013vzbo   0.10790
gfz2013wjmm  -0.08890
gfz2013wkyk  -1.55450
gfz2013wnpr  -0.22150
gfz2013wnql   0.91200
gfz2013xmul   1.00270
gfz2013xsdt   0.56810
gfz2013xxwv  -0.18610
gfz2013xxxq   0.04000
gfz2013xyzb   0.69310
gfz2013yaig  -0.93720
gfz2013yctg  -0.24980
gfz2013yghj  -0.10080
gfz2013yhbu   0.53460
gfz2013yixl   0.34670
gfz2013ylbx   1.77000
gfz2013ypdc   0.22950
gfz2013yqkv   0.63310
gfz2013yyhc   0.36760
gfz2013zmtb   0.17360
gfz2014abgd  -0.02010
gfz2014afmx  -0.21390
gfz2014ajlk   0.14070
gfz2014algk  -0.18440
gfz2014amsb  -0.64530
gfz2014ande   0.05620
gfz2014arqr  -0.46150
gfz2014atbl   0.29040
gfz2014atgw  -0.21070
gfz2014bagd  -0.29350
gfz2014bezu   0.10990
gfz2014bfng   0.63570
gfz2014bldx  -0.50720
gfz2014bmdh  -0.16550
gfz2014bmta  -0.59020
gfz2014bwue  -0.20650
gfz2014bzxy  -0.26030
gfz2014caop  -0.36960
gfz2014chdv  -0.11860
gfz2014citw   0.35410
gfz2014cmwb   0.03210
gfz2014ctot  -0.65290
gfz2014cvkm  -0.92310
gfz2014cvxx  -0.00000
gfz2014czno   0.58490
gfz2014czol  -0.12930
gfz2014czqi  -0.09550
gfz2014czua  -0.25160
gfz2014dddc   0.50870
gfz2014dhxt   0.38040
gfz2014disp  -1.05960
gfz2014dofa   0.10540
gfz2014duqn   0.32000
gfz2014ehsf   0.75760
gfz2014ekcr  -0.86310
gfz2014ekdn   0.49720
gfz2014emrg   0.31510
gfz2014emzb   0.15140
gfz2014enhi   0.04580
gfz2014ettc   0.02970
gfz2014exxa  -0.35820
gfz2014femz  -0.28580
gfz2014ffdc   0.41470
gfz2014fgvi  -0.39180
gfz2014fgvr   0.12470
gfz2014fgvz  -0.25380
gfz2014fgxt  -0.19480
gfz2014fgyo  -0.42000
gfz2014fgza  -0.42550
gfz2014fhbd   0.24390
gfz2014fhdw  -0.09580
gfz2014fhla  -0.71320
gfz2014fhlh   0.08160
gfz2014fhrq   0.03750
gfz2014fhsg   0.05390
gfz2014fhwx   0.65210
gfz2014fimn   0.14880
gfz2014fiwq  -0.05330
gfz2014fjpb   0.41400
gfz2014fjzd  -0.40500
gfz2014fkmr  -0.17040
gfz2014fkmx  -0.12770
gfz2014fknp   0.14210
gfz2014flfa  -0.05450
gfz2014fqpz   0.23020
gfz2014frdz  -0.46830
gfz2014frel   1.13170
gfz2014frez  -0.18340
gfz2014frgm   0.56420
gfz2014frwh   0.15830
gfz2014fsuh  -0.02720
gfz2014fszc  -0.00000
gfz2014ftka  -0.08200
gfz2014ftno   0.43960
gfz2014ftoc   0.11040
gfz2014ftpw   0.56390
gfz2014ftrk  -0.35840
gfz2014furx  -0.18900
gfz2014fusc  -0.01770
gfz2014fusj   0.26240
gfz2014fuub  -0.97260
gfz2014fval   0.33790
gfz2014fvgh   0.23290
gfz2014fvrg   0.28730
gfz2014gbcz  -0.71470
gfz2014gbdq   0.28310
gfz2014geuy  -3.17430
gfz2014ghpe   0.42700
gfz2014gkgf  -0.83900
gfz2014gkgs   0.38040
gfz2014gkhp  -0.13860
gfz2014gkhy  -0.28130
gfz2014gkjl   0.19090
gfz2014gkjt  -0.37060
gfz2014gklq   0.23200
gfz2014gklv  -0.11180
gfz2014gkmm   0.28390
gfz2014gkob  -0.23060
gfz2014gkok  -0.34730
gfz2014gkpj   1.40780
gfz2014gkqf  -0.29670
gfz2014gkqu  -0.67180
gfz2014gksj  -0.06170
gfz2014gksu  -0.33910
gfz2014gktq   0.22050
gfz2014gkxm   0.69620
gfz2014glcu   0.26090
gfz2014glcy  -0.04010
gfz2014glfn   0.45100
gfz2014glgo   0.59300
gfz2014gltx  -0.07040
gfz2014glvn   2.26250
gfz2014glvu  -2.13330
gfz2014glxd  -0.07080
gfz2014glxy  -1.06130
gfz2014gmci  -0.29460
gfz2014gmes  -0.10690
gfz2014gmge  -0.59320
gfz2014gmhp  -0.30960
gfz2014gmhr  -1.64200
gfz2014gmip  -0.11190
gfz2014gmjo  -0.13970
gfz2014gmku   0.33520
gfz2014gmlz   0.55700
gfz2014gmmk   0.31640
gfz2014gmmt   0.57610
gfz2014gmnb  -0.14640
gfz2014gmnw   0.02530
gfz2014gmor  -0.02840
gfz2014gmpy   0.08880
gfz2014gmrj   0.04740
gfz2014gmtb   0.04680
gfz2014gmto  -0.11160
gfz2014gmuk  -0.13270
gfz2014gmvr   0.15800
gfz2014gmzl   0.08860
gfz2014gmzs   0.37820
gfz2014gndq   0.09060
gfz2014gnfd   0.00200
gfz2014gnfs  -0.51190
gfz2014gngg  -0.34570
gfz2014gnig  -0.44100
gfz2014gnnt   0.15530
gfz2014gnom   0.45640
gfz2014gnoz  -0.42210
gfz2014gnre   0.23840
gfz2014gnsi  -0.01840
gfz2014gnxb   0.21540
gfz2014goba  -0.64980
gfz2014goei   0.66850
gfz2014goqw   0.29760
gfz2014gpce   0.16840
gfz2014gpuk   0.25950
gfz2014gpya   0.30590
gfz2014gqbj   0.18850
gfz2014gqed  -0.03570
gfz2014gqer   1.10720
gfz2014gqiy   0.07560
gfz2014gqqz   0.11240
gfz2014gqve  -0.09980
gfz2014grfp  -0.10800
gfz2014grho   1.07530
gfz2014gsqs  -0.44050
gfz2014gtwz   0.52450
gfz2014gufl  -0.34770
gfz2014gull   0.24450
gfz2014gulp  -0.12970
gfz2014gumd   0.16360
gfz2014gutm   1.98970
gfz2014gvhw   0.45260
gfz2014gvqj  -0.69940
gfz2014gvra   0.29770
gfz2014gvrd  -0.17070
gfz2014gwab  -0.52130
gfz2014gxag  -0.53280
gfz2014gxkh   1.20460
gfz2014gxxo   0.08760
gfz2014gyxd  -0.33730
gfz2014gzue   1.16660
gfz2014haey  -0.01330
gfz2014hagb  -0.32090
gfz2014haos   0.08310
gfz2014hasj  -0.12020
gfz2014hauo   1.54730
gfz2014hbjm  -0.25780
gfz2014hbjz   0.21580
gfz2014hbqb   0.10100
gfz2014hcmj  -0.27990
gfz2014heyq  -0.15210
gfz2014hfhl  -0.46240
gfz2014hgqo   0.17270
gfz2014hhfs  -0.22380
gfz2014hifp   0.51650
gfz2014hiiz  -0.17000
gfz2014hjgh  -0.07670
gfz2014hjgr   0.02280
gfz2014hjij  -0.08970
gfz2014hjlx  -0.25990
gfz2014hkcf   0.41810
gfz2014hkck   0.13820
gfz2014hmzg   0.14870
gfz2014hocg   0.45150
gfz2014hphw   0.10580
gfz2014hqxs  -0.76510
gfz2014hqyx   0.76410
gfz2014hrft  -0.50520
gfz2014hriu  -0.51460
gfz2014hrtn  -1.86430
gfz2014hscz  -0.26720
gfz2014huaj   0.74610
gfz2014hwwi  -0.03320
gfz2014hyal   0.35090
gfz2014hymr   0.03140
gfz2014hyvq  -0.02270
gfz2014hzdy   0.30600
gfz2014hzfw  -0.51880
gfz2014hzgn   0.26610
gfz2014iani   0.10230
gfz2014ieam  -0.15040
gfz2014ifue  -0.37630
gfz2014ifzj   0.54220
gfz2014ilwu  -0.36720
gfz2014imnn  -0.17120
gfz2014inbj   0.26090
gfz2014iqzj   0.11750
gfz2014irci   0.00000
gfz2014isdq  -0.25740
gfz2014isff   0.12630
gfz2014issk   0.27840
gfz2014isub  -1.12560
gfz2014itab   0.16090
gfz2014itbe  -0.52610
gfz2014itgh  -0.09720
gfz2014itpj   0.01660
gfz2014iuhq  -0.20160
gfz2014iwnf   0.02260
gfz2014ixga  -0.04230
gfz2014iywt   0.23890
gfz2014jagg   0.59340
gfz2014jbyg   0.92660
gfz2014jcmt  -0.26030
gfz2014jggm   0.15010
gfz2014jird   0.56380
gfz2014jjhc  -0.76860
gfz2014jjln   0.07150
gfz2014jjqk   0.60710
gfz2014jnyv   0.08900
gfz2014jomw  -0.81950
gfz2014jpep   0.08000
gfz2014jpez  -0.36810
gfz2014jpgu  -0.53770
gfz2014jwmh   0.39660
gfz2014kbuk   0.12670
gfz2014khan  -0.12270
gfz2014kizt  -0.47520
gfz2014kjee  -0.05620
gfz2014kjzb   0.27100
gfz2014kkhh   0.30560
gfz2014kndc   0.16650
gfz2014knks   0.13500
gfz2014knxs   0.18630
gfz2014kwie   0.59350
gfz2014kwrg  -0.15040
gfz2014kxqf  -0.55540
gfz2014kyan   0.07060
gfz2014kytf   0.12410
gfz2014kzzm  -0.10520
gfz2014lbcq   0.14360
gfz2014lefs  -0.31140
gfz2014lgqn   0.66090
gfz2014ljbr  -0.05490
gfz2014lkyf   0.08540
gfz2014lmge   0.52800
gfz2014lnqy   0.46420
gfz2014lpim  -0.31700
gfz2014lrzx  -0.03900
gfz2014lurd   0.60980
gfz2014lvgn   0.11950
gfz2014lxnc   0.20320
gfz2014lxqr  -0.23700
gfz2014lyhk  -0.25770
gfz2014lyhp   0.61700
gfz2014lzal  -0.39710
gfz2014macx  -0.01730
gfz2014madw  -0.26140
gfz2014mcse  -0.35270
gfz2014mioi   0.36020
gfz2014mlrr  -0.36260
gfz2014moaw  -1.31500
gfz2014mtum  -0.15420
gfz2014mxkr  -0.37810
gfz2014ngnd   0.82470
gfz2014ngsk  -0.60570
gfz2014niqj   0.44520
gfz2014nnxd  -0.37330
gfz2014nowp  -0.51610
gfz2014npeo   0.07990
gfz2014nphm   0.28190
gfz2014nqfm  -0.30730
gfz2014nrie  -0.00000
gfz2014ntdh  -0.09650
gfz2014nvdi   1.13320
gfz2014nyeh   0.56420
gfz2014nyfb  -0.67190
gfz2014nyko  -1.29960
gfz2014nylm  -0.43830
gfz2014odgv   0.14040
gfz2014oinz   0.27500
gfz2014okec  -0.30840
gfz2014omyn  -0.29460
gfz2014orgz  -0.21910
gfz2014orxs   0.42240
gfz2014owxc   0.43260
gfz2014oxcc   0.25150
gfz2014oyly  -0.12160
gfz2014pjer   0.20630
gfz2014pkll  -0.15590
gfz2014pngj   1.01220
gfz2014ppzf   0.04320
gfz2014pvch   0.14380
gfz2014pzni  -0.23790
gfz2014qlvc  -0.11160
gfz2014qlxd  -0.02950
gfz2014qngj  -0.29880
gfz2014qqhm  -0.03780
gfz2014rdsn  -0.63000
gfz2014riel   0.05660
gfz2014rkwl  -1.62500
gfz2014romy   0.35980
gfz2014sadu  -0.10600
gfz2014shid  -0.09960
gfz2014sjqw   0.05500
gfz2014sptq   3.84540
gfz2014ssds   0.25200
gfz2014ssvz  -0.01430
gfz2014szzf   0.33280
gfz2014tabg   0.03470
gfz2014tovs  -0.08430
gfz2014tqdo   0.26640
gfz2014tqsf  -0.08960
gfz2014tqth  -0.79650
gfz2014tzsd   0.01620
gfz2014ubwn   0.90570
gfz2014udgg  -0.40730
gfz2014uohh  -0.45150
gfz2014utac  -0.60910
gfz2014uuuf   2.07490
gfz2014uvji   0.05510
gfz2014uyrq  -0.10220
gfz2014veit   0.44120
gfz2014vhld  -0.28530
gfz2014vhms   0.57740
gfz2014vqqa  -0.65710
gfz2014waoo  -0.03430
gfz2014watn   0.11580
gfz2014wjko  -2.15610
gfz2014wmsc   0.11470
gfz2014wrkh  -0.54710
gfz2014wwib  -0.40240
gfz2014xbyr   0.24240
gfz2014xjri  -0.32490
gfz2014xoji   0.04240
gfz2014xqby  -0.46340
gfz2014xqqd  -0.01610
gfz2014yhhm   0.12500
gfz2014ynzy  -0.28700
gfz2014yppv  -0.91360
gfz2014yrug   0.43360
gfz2014zlgp  -0.13730
gfz2015apnk  -0.34880
gfz2015aruz  -0.06110
gfz2015atxv  -0.81080
gfz2015berb  -0.35620
gfz2015bfjm   0.29240
gfz2015bkbj   0.16750
gfz2015bphe  -0.94990
gfz2015byjd  -0.24320
gfz2015chhn  -0.01790
gfz2015chqn  -0.34720
gfz2015cxxk   0.34780
gfz2015cyjd   0.79340
gfz2015dizn   0.13030
gfz2015drlk  -0.60090
gfz2015dskr   0.36270
gfz2015dvbn  -0.25700
gfz2015ednc   0.75690
gfz2015eeyq   0.63330
gfz2015eezy  -1.36480
gfz2015egxq  -0.12720
gfz2015ehpz   0.12740
gfz2015eiky  -0.19140
gfz2015etai   0.01150
gfz2015fbbk  -0.55180
gfz2015fcua   0.07770
gfz2015fdpr   0.12880
gfz2015fjhk   0.64500
gfz2015fkgt  -0.04830
gfz2015fkjs  -0.77500
gfz2015fsjj   0.18560
gfz2015fvoi   0.25040
gfz2015fwkq   0.18270
gfz2015fyvk   0.10450
gfz2015gckd   0.36580
gfz2015ggjw  -0.40770
gfz2015gjbr  -0.66710
gfz2015gkwa  -0.31000
gfz2015gmgf  -0.52040
gfz2015gzja  -0.23290
gfz2015hgbk  -0.14350
gfz2015hlqo   0.44540
gfz2015imty   0.39380
gfz2015isim  -0.00000
gfz2015iwqk   0.31400
gfz2015jmlf   0.45720
gfz2015jmlu  -0.09540
gfz2015jpap   3.25910
gfz2015jwgl  -0.41240
gfz2015jxbx  -0.09290
gfz2015jxjd  -0.74570
gfz2015jzcv   0.40580
gfz2015kakw   0.10470
gfz2015kalm   0.13050
gfz2015kcaa   0.19180
gfz2015kfsu  -0.27710
gfz2015kkqb   0.45880
gfz2015kkth  -0.24970
gfz2015kphk  -0.03690
gfz2015kquq   0.23930
gfz2015ksni  -0.40470
gfz2015kvwz  -0.17080
gfz2015lcma   0.38430
gfz2015lfma  -0.09090
gfz2015lfud   0.06790
gfz2015lhjq   0.05710
gfz2015lhjy   0.40680
gfz2015ltii  -0.92280
gfz2015ltro  -0.51590
gfz2015lytv  -0.11100
gfz2015mbgr  -1.74480
gfz2015mddr   0.12120
gfz2015mfpy  -1.23320
gfz2015mpte   0.00030
gfz2015nbdc  -0.04030
gfz2015nerz  -0.25320
gfz2015nqgf   0.04380
gfz2015nuxz  -0.95220
gfz2015nwug  -0.40190
gfz2015ocdz   0.57520
gfz2015okmq  -0.05520
gfz2015orkl   0.52520
gfz2015oyfl  -0.41740
gfz2015plal  -0.33750
gfz2015poni  -0.16640
gfz2015qiit  -0.14310
gfz2015qnde   0.27020
gfz2015qnho  -0.41270
gfz2015qols  -0.12050
gfz2015quzo  -0.68680
gfz2015rkbq  -0.75250
gfz2015rkrg  -0.27320
gfz2015rtnv   0.12810
gfz2015sdeo   0.82770
gfz2015sdfy  -0.19060
gfz2015seuf  -0.00000
gfz2015sevh   0.21120
gfz2015sfdd   0.13650
gfz2015sfdv   0.70090
gfz2015sfdy  -0.40650
gfz2015sfeo   0.35230
gfz2015sffn  -0.15000
gfz2015sfga   0.88590
gfz2015sfhz  -1.27410
gfz2015sfiq  -0.39050
gfz2015sfkh  -1.07220
gfz2015sflf   0.17860
gfz2015sfnb  -0.67650
gfz2015sfno   2.01460
gfz2015sfnv   0.07680
gfz2015sfoc  -0.35860
gfz2015sfqo   0.26700
gfz2015sfqr   0.06890
gfz2015sfsi  -0.81330
gfz2015sftu  -0.35760
gfz2015sfwf   0.22360
gfz2015sfxn  -0.09850
gfz2015sfzm   0.02450
gfz2015sgad   0.34910
gfz2015sgmr  -0.23090
gfz2015sgxc   0.36880
gfz2015sgyd   0.94060
gfz2015shhg   0.14290
gfz2015shhu  -0.21120
gfz2015shjn   0.22970
gfz2015shrg  -1.25990
gfz2015shsz   2.65610
gfz2015siky  -1.24620
gfz2015sing  -0.50420
gfz2015sist   1.61170
gfz2015sitn   0.27240
gfz2015sjfi   0.01120
gfz2015sjgk  -0.10950
gfz2015sjjb  -0.03820
gfz2015sjne  -0.28670
gfz2015sjoj   0.34340
gfz2015sjvu   0.37120
gfz2015sjwi   0.77670
gfz2015skpv   0.55450
gfz2015skxu   0.00210
gfz2015sldx   0.12230
gfz2015sljs  -0.45690
gfz2015slun  -0.19960
gfz2015smym  -0.47830
gfz2015snsf   0.10950
gfz2015snwh  -0.10240
gfz2015snyd   0.31490
gfz2015soat  -0.28660
gfz2015soxc   0.11300
gfz2015sqmy   1.04610
gfz2015srat   0.43280
gfz2015sryk   0.78010
gfz2015stfy   0.69010
gfz2015subz   0.09020
gfz2015svwm   0.24840
gfz2015szcb  -1.15990
gfz2015taml  -0.33880
