# Nsamples: 241  MAD:  0.556  mean: -0.071  variance:  0.661
gfz2010ahqi  -0.10030
gfz2010bjeb  -0.47310
gfz2010bowy   0.05410
gfz2010boxo   0.24250
gfz2010bxxs   0.27130
gfz2010caft  -0.37870
gfz2010cbkg   0.21560
gfz2010cdbt   0.64200
gfz2010cjqh   1.32490
gfz2010cqwl  -0.03020
gfz2010czps   0.31970
gfz2010dlgc  -0.06570
gfz2010irvf   0.07230
gfz2010iull   1.02980
gfz2010jkxj  -0.31120
gfz2010jucj   0.29430
gfz2010jxbm  -0.94790
gfz2010kdyc  -1.67020
gfz2010lczp   0.51750
gfz2010lluj  -0.38210
gfz2010mipi  -0.19010
gfz2010mkuu   0.23370
gfz2010mncc  -0.22950
gfz2010moyw   0.14000
gfz2011cykd  -0.06070
gfz2011cyuk  -0.00000
gfz2011dpqx  -0.11910
gfz2011ecaj   0.16150
gfz2011enva   0.52220
gfz2011flgj   2.08190
gfz2012aqgp  -0.71300
gfz2012cxdn  -1.06740
gfz2012czlw   0.31550
gfz2012deri  -0.56390
gfz2012dyyh  -0.44700
gfz2012emjg   0.34490
gfz2012enno   0.07200
gfz2012ewgo   2.31090
gfz2012fzfa  -0.90700
gfz2012gill  -0.30150
gfz2012gomm  -0.37120
gfz2012gwqb   0.46000
gfz2012hnul  -0.51420
gfz2012ilvn  -1.09080
gfz2012jgvj   0.09240
gfz2012jlox   1.04350
gfz2012jupx   0.09750
gfz2012keor  -0.17310
gfz2012kkup  -0.41370
gfz2012klhx  -0.24150
gfz2012minr  -0.49110
gfz2012rqlg  -0.43800
gfz2012teic  -0.12840
gfz2012ttoa  -1.38630
gfz2012tvmv  -0.13440
gfz2012uafg   0.01990
gfz2012uaqj  -0.11790
gfz2012uciv   2.34150
gfz2012uvqf  -0.19680
gfz2012vrgb   0.48510
gfz2012wizz  -0.81430
gfz2012wklq  -0.91570
gfz2012wmsg  -0.76800
gfz2012wxlg  -1.26210
gfz2012wybs   0.38360
gfz2012wypz   0.37690
gfz2012xbjq   0.87880
gfz2012xyqp   1.39350
gfz2013ccnr   0.33750
gfz2013cwpn  -0.47410
gfz2013dvyh   3.03320
gfz2013gdnq  -0.54920
gfz2013ifpq   0.76240
gfz2013iodt   0.15990
gfz2013iunn   0.34380
gfz2013jesk  -0.27970
gfz2013jgip  -0.54710
gfz2013kdeo  -0.09370
gfz2013ldqb  -0.73040
gfz2013lixa   2.48100
gfz2013mwbh   0.46100
gfz2013ncjp   0.07210
gfz2013ndin   0.54610
gfz2013nkgj   0.10630
gfz2013nknw  -0.52710
gfz2013pfbx   0.25550
gfz2013qcck  -0.02800
gfz2013roki  -0.19220
gfz2013sdus  -0.24750
gfz2013svci   1.07080
gfz2013tcxc  -0.83620
gfz2013tusd  -0.39970
gfz2013tvmw   0.20730
gfz2013uauo  -0.91590
gfz2013vfzp   0.23960
gfz2013viul   0.20530
gfz2013vjjc  -1.23800
gfz2013wjmm   1.06470
gfz2013wtzl   0.12840
gfz2013xsdt   0.07370
gfz2013yhbu  -0.08950
gfz2013ypdc  -0.05260
gfz2013yqkv   0.41820
gfz2014afmx  -0.64420
gfz2014ande  -0.19400
gfz2014arpf  -0.81180
gfz2014bwue   0.29710
gfz2014bzxy  -1.81780
gfz2014czqi  -0.49080
gfz2014czua  -1.38250
gfz2014femz  -1.23510
gfz2014fgvi   0.90390
gfz2014fhdw  -2.30100
gfz2014fhla  -0.45860
gfz2014fhrq   0.95950
gfz2014fimn   0.51980
gfz2014fnyg  -0.01100
gfz2014frdz   0.47890
gfz2014frez   0.18990
gfz2014ftka  -0.93370
gfz2014furx  -0.34110
gfz2014fusj   0.18160
gfz2014fval   0.60270
gfz2014fvrg  -0.18160
gfz2014gbcz  -0.10050
gfz2014ghpe  -0.36160
gfz2014gkgf  -0.23080
gfz2014gkhy   0.17860
gfz2014gkqf   0.13580
gfz2014glcu  -0.98690
gfz2014gmge  -0.03220
gfz2014gmhr  -0.09810
gfz2014gmnb   0.70650
gfz2014gmnw   0.40520
gfz2014goba   0.84990
gfz2014gqer   2.13420
gfz2014gsqs   0.35600
gfz2014gull   0.23080
gfz2014gvqj  -1.05570
gfz2014gwab   0.28990
gfz2014gxkh  -0.08670
gfz2014gxxo  -0.22330
gfz2014hasj  -0.45530
gfz2014hcmj  -0.24620
gfz2014hjgh   0.73820
gfz2014hjgr   0.36890
gfz2014hjij  -0.01660
gfz2014hocg  -0.07560
gfz2014hqxs  -0.04830
gfz2014hyal  -0.36880
gfz2014ijvh   1.03180
gfz2014inbj  -0.32120
gfz2014jjhc   0.31120
gfz2014jjln   0.73250
gfz2014jnyv  -0.27540
gfz2014jpep   0.75830
gfz2014kndc  -1.17380
gfz2014knks   0.35260
gfz2014kyan  -2.21140
gfz2014kytf  -0.83510
gfz2014lgqn   0.49420
gfz2014lwom  -0.04050
gfz2014lxnc   0.01710
gfz2014lyhk   0.27580
gfz2014lyhp   0.61560
gfz2014macx   0.41040
gfz2014madw   0.34250
gfz2014npeo  -0.45660
gfz2014nqfm  -0.01560
gfz2014nrie   0.70120
gfz2014oinz   0.14890
gfz2014owxc   0.28130
gfz2014pvch   0.20520
gfz2014qlxd   0.13580
gfz2014qngj  -1.90970
gfz2014qqhm   0.66330
gfz2014rdsn   0.29890
gfz2014riel  -0.33030
gfz2014ssvz   0.29430
gfz2014tqdo   0.21830
gfz2014tqsf  -1.61670
gfz2014ubwn   0.27620
gfz2014vhuy  -0.00000
gfz2014vjoz   0.20420
gfz2014watn  -0.79310
gfz2014yhhm   0.51480
gfz2015ansu   0.07590
gfz2015aruz  -0.07780
gfz2015atxv  -1.10980
gfz2015berb   0.06200
gfz2015bphe   0.63000
gfz2015chhn   0.25520
gfz2015cxxk   0.29840
gfz2015cyjd   0.14770
gfz2015czfv  -0.33640
gfz2015dvbn   0.17250
gfz2015egxq   0.30670
gfz2015eiky  -0.51120
gfz2015fsjj   0.94150
gfz2015gckd   0.28760
gfz2015ggjw  -0.18580
gfz2015hgbk  -0.37670
gfz2015igsy  -0.23910
gfz2015jmlu   0.03300
gfz2015jzcv  -0.01500
gfz2015kquq  -3.66090
gfz2015kxxs   1.44780
gfz2015lfud   0.01730
gfz2015lhjq  -0.60010
gfz2015lhjy   0.36720
gfz2015lytv  -0.90790
gfz2015mddr   0.04400
gfz2015mpte   0.51370
gfz2015nwug  -1.08690
gfz2015okmq  -0.52860
gfz2015oyfl   0.45890
gfz2015qnho  -0.73120
gfz2015rddx  -0.50480
gfz2015rkzg   0.57760
gfz2015saet   1.03300
gfz2015sfdd  -0.24400
gfz2015sfdy  -0.75630
gfz2015sfeo   1.37660
gfz2015sfnb   0.81190
gfz2015sfno  -0.32040
gfz2015sgdj  -0.09170
gfz2015sgdn  -2.01120
gfz2015sguf  -2.56690
gfz2015sjoj  -0.10650
gfz2015sjvu  -0.81650
gfz2015skxu  -1.84020
gfz2015smym  -0.76690
gfz2015snsf  -0.63810
gfz2015snwh  -0.91040
gfz2015snyd  -1.82990
gfz2015soat  -0.38430
gfz2015soxc  -0.29280
gfz2015svwm  -0.14430
gfz2015szcb  -1.32770
gfz2015taml  -0.17860
gfz2015tbdn  -0.49590
