# Nsamples: 59  MAD:  0.541  mean: -0.241  variance:  0.410
gfz2012enno   0.01670
gfz2012fzfa  -0.86150
gfz2012hnul  -0.85420
gfz2012jlox   0.11290
gfz2012kkup  -0.66860
gfz2012klhx  -0.13260
gfz2012kuct  -0.34630
gfz2012kudo  -0.09810
gfz2012ldxg   0.26420
gfz2012ldzj  -0.54990
gfz2012minr   0.22160
gfz2012teic  -0.23600
gfz2012ttoa   0.09890
gfz2012uaqj  -0.11400
gfz2012vrgb   0.38970
gfz2012wypz   0.19330
gfz2013ccnr  -0.86270
gfz2013drxz  -0.53610
gfz2013jkut   0.37190
gfz2013kdeo  -0.11080
gfz2013ldqb  -0.60630
gfz2013mwbh  -0.56960
gfz2013nkgj  -2.20480
gfz2013nknw  -0.45740
gfz2013nwdi  -0.35160
gfz2013svci   0.46550
gfz2013uauo  -1.20990
gfz2013vjjc   1.25620
gfz2013xsdt  -0.53370
gfz2014bwue   0.09930
gfz2014fgvi  -0.43080
gfz2014fhla   0.97330
gfz2014fhrq  -0.63810
gfz2014ftka  -0.03010
gfz2014gmge   1.23060
gfz2014gmhr   0.44780
gfz2014kitm   0.08230
gfz2014lgqn  -0.48850
gfz2014nqfm  -0.61780
gfz2014oinz  -0.73010
gfz2014owxc  -0.52330
gfz2014qlxd  -0.15380
gfz2014qqhm   0.57890
gfz2014ssvz   0.47490
gfz2014vjoz  -0.29710
gfz2015berb  -0.23590
gfz2015chhn  -0.17120
gfz2015cyjd   0.15460
gfz2015fsjj   0.04530
gfz2015gckd   0.09450
gfz2015ggjw  -0.09780
gfz2015lhjy   0.08730
gfz2015sfdd  -0.66630
gfz2015sfdy  -1.32160
gfz2015sfno  -1.12800
gfz2015sjbx  -0.93270
gfz2015snwh  -2.00500
gfz2015soxc  -0.51430
gfz2015taml   0.38600
